START TIME: 1433711283
1: 2 3 4 5 6 7 8 9 10 11 12 13 14 15 16 17 18 19 20 21 22 23 24 25 26 27 28 29 30 31 32 33 34 35 36 37 38 39 40
2: 1 3 4 5 6 7 8 9 10 11 12 13 14 15 16 17 18 19 20 21 22 23 24 25 26 27 28 29 30 31 32 33 34 35 36 37 38 39
3: 1 2 4 5 6 7 8 9 10 11 12 13 14 15 16 17 18 19 20 21 22 23 24 25 26 27 28 29 30 31 32 33 34 35 36 37 38 39
4: 1 2 3 5 6 7 8 9 10 11 12 13 14 15 16 17 18 19 20 21 22 23 24 25 26 27 28 29 30 31 32 33 34 35 36 37 38 39
5: 1 2 3 4 6 7 8 9 10 11 12 13 14 15 16 17 18 19 20 21 22 23 24 25 26 27 28 29 30 31 32 33 34 35 36 37 38 39 40
6: 1 2 3 4 5 7 8 9 10 11 12 13 14 15 16 17 18 19 20 21 22 23 24 25 26 27 28 29 30 31 32 33 34 35 36 37 38 39 40
7: 1 2 3 4 5 6 8 9 10 11 12 13 14 15 16 17 18 19 20 21 22 23 24 25 26 27 28 29 30 31 32 33 34 35 36 37 38 39 40
8: 1 2 3 4 5 6 7 9 10 11 12 13 14 15 16 17 18 19 20 21 22 23 24 25 26 27 28 29 30 31 32 33 34 35 36 37 38 39 40
9: 1 2 3 4 5 6 7 8 10 11 12 13 14 15 16 17 18 19 20 21 22 23 24 25 26 27 28 29 30 31 32 33 34 35 36 37 38 39
10: 1 2 3 4 5 6 7 8 9 11 12 13 14 15 16 17 18 19 20 21 22 23 24 25 26 27 28 30 31 33 34 35 36 37 38 39
11: 1 2 3 4 5 6 7 8 9 10 12 13 14 15 16 17 18 19 20 21 22 23 24 25 26 27 28 29 30 31 32 33 34 35 36 38 39
12: 1 2 3 4 5 6 7 8 9 10 11 13 15 16 17 18 19 21 22 23 24 26 27 29 30 31 32 33 34 35 36 38 40
13: 1 2 3 4 5 6 7 8 9 10 11 12 14 15 16 18 19 20 21 26 27 30 32 33 34 35 37 38
14: 1 2 3 4 5 6 7 8 9 10 11 13 17 18 19 20 22 23 24 26 27 29 30 32 33 34 35 36 39 40
15: 1 2 3 4 5 6 7 8 9 10 11 12 13 18 19 22 23 24 26 27 29 30 33 34 37 38 39 40
16: 1 2 3 4 5 6 7 8 9 10 11 12 13 17 19 22 24 26 27 28 29 30 31 32 33 36 39
17: 1 2 3 4 5 6 7 8 9 10 11 12 14 16 19 21 22 24 25 26 27 28 29 30 33 36 37 38
18: 1 2 3 4 5 6 7 8 9 10 11 12 13 14 15 21 23 24 25 27 28 29 30 31 32 33 36 37
19: 1 2 3 4 5 6 7 8 9 10 11 12 13 14 15 16 17 25 26 27 28 29 31 33 34 36 37 38 39 40
20: 1 2 3 4 5 6 7 8 9 10 11 13 14 23 24 25 26 27 28 30 33 34 35 36 37 38 39
21: 1 2 3 4 5 6 7 8 9 10 11 12 13 17 18 23 26 29 33 35 37 38 39 40
22: 1 2 3 4 5 6 7 8 9 10 11 12 14 15 16 17 23 24 29 30 33 37 38
23: 1 2 3 4 5 6 7 8 9 10 11 12 14 15 18 20 21 22 26 27 28 30 33 36 37 38 40
24: 1 2 3 4 5 6 7 8 9 10 11 12 14 15 16 17 18 20 22 25 26 28 34 35 36 37 38
25: 1 2 3 4 5 6 7 8 9 10 11 17 18 19 20 24 26 27 28 31 32 39
26: 1 2 3 4 5 6 7 8 9 10 11 12 13 14 15 16 17 19 20 21 23 24 25 31 32 34 35 37 38 39
27: 1 2 3 4 5 6 7 8 9 10 11 12 13 14 15 16 17 18 19 20 23 25 29 30 32 33 37 38 39
28: 1 2 3 4 5 6 7 8 9 10 11 16 17 18 19 20 23 24 25 29 30 31 32 35 36 38
29: 1 2 3 4 5 6 7 8 9 11 12 14 15 16 17 18 19 21 22 27 28 30 33 37 40
30: 1 2 3 4 5 6 7 8 9 10 11 12 13 14 15 16 17 18 20 22 23 27 28 29 31 32 33 34 39 40
31: 1 2 3 4 5 6 7 8 9 10 11 12 16 18 19 25 26 28 30 32 33 34 36 37 40
32: 1 2 3 4 5 6 7 8 9 11 12 13 14 16 18 25 26 27 28 30 31 34 35 36 37
33: 1 2 3 4 5 6 7 8 9 10 11 12 13 14 15 16 17 18 19 20 21 22 23 27 29 30 31 34 36 37 38
34: 1 2 3 4 5 6 7 8 9 10 11 12 13 14 15 19 20 24 26 30 31 32 33 37 38 40
35: 32 1 2 3 4 5 6 7 8 9 10 11 12 13 14 40 20 21 24 26 28
36: 1 2 3 4 5 6 7 8 9 10 11 12 14 16 17 18 19 20 23 24 28 31 32 33 37 38
37: 1 2 3 4 5 6 7 8 9 10 13 15 17 18 19 20 21 22 23 24 26 27 29 31 32 33 34 36 38 39 40
38: 1 2 3 4 5 6 7 8 9 10 11 12 13 15 17 19 20 21 22 23 24 26 27 28 33 34 36 37 39 40
39: 1 2 3 4 5 6 7 8 9 10 11 14 15 16 19 20 21 25 26 27 30 37 38 40
40: 1 34 35 5 6 7 8 38 39 12 14 15 19 21 23 31 29 30 37
-------
1(-1)->2 3 4 5 6 7 8 9 10 11 12 13 14 15 16 17 18 19 20 21 22 23 24 25 26 27 28 29 30 31 32 33 34 35 36 37 38 39 40 
2(-1)->1 3 4 5 6 7 8 9 10 11 12 13 14 15 16 17 18 19 20 21 22 23 24 25 26 27 28 29 30 31 32 33 34 35 36 37 38 39 
3(-1)->1 2 4 5 6 7 8 9 10 11 12 13 14 15 16 17 18 19 20 21 22 23 24 25 26 27 28 29 30 31 32 33 34 35 36 37 38 39 
4(-1)->1 2 3 5 6 7 8 9 10 11 12 13 14 15 16 17 18 19 20 21 22 23 24 25 26 27 28 29 30 31 32 33 34 35 36 37 38 39 
5(-1)->1 2 3 4 6 7 8 9 10 11 12 13 14 15 16 17 18 19 20 21 22 23 24 25 26 27 28 29 30 31 32 33 34 35 36 37 38 39 40 
6(-1)->1 2 3 4 5 7 8 9 10 11 12 13 14 15 16 17 18 19 20 21 22 23 24 25 26 27 28 29 30 31 32 33 34 35 36 37 38 39 40 
7(-1)->1 2 3 4 5 6 8 9 10 11 12 13 14 15 16 17 18 19 20 21 22 23 24 25 26 27 28 29 30 31 32 33 34 35 36 37 38 39 40 
8(-1)->1 2 3 4 5 6 7 9 10 11 12 13 14 15 16 17 18 19 20 21 22 23 24 25 26 27 28 29 30 31 32 33 34 35 36 37 38 39 40 
9(-1)->1 2 3 4 5 6 7 8 10 11 12 13 14 15 16 17 18 19 20 21 22 23 24 25 26 27 28 29 30 31 32 33 34 35 36 37 38 39 
10(-1)->1 2 3 4 5 6 7 8 9 11 12 13 14 15 16 17 18 19 20 21 22 23 24 25 26 27 28 30 31 33 34 35 36 37 38 39 
11(-1)->1 2 3 4 5 6 7 8 9 10 12 13 14 15 16 17 18 19 20 21 22 23 24 25 26 27 28 29 30 31 32 33 34 35 36 38 39 
12(-1)->1 2 3 4 5 6 7 8 9 10 11 13 15 16 17 18 19 21 22 23 24 26 27 29 30 31 32 33 34 35 36 38 40 
13(-1)->1 2 3 4 5 6 7 8 9 10 11 12 14 15 16 18 19 20 21 26 27 30 32 33 34 35 37 38 
14(-1)->1 2 3 4 5 6 7 8 9 10 11 13 17 18 19 20 22 23 24 26 27 29 30 32 33 34 35 36 39 40 
15(-1)->1 2 3 4 5 6 7 8 9 10 11 12 13 18 19 22 23 24 26 27 29 30 33 34 37 38 39 40 
16(-1)->1 2 3 4 5 6 7 8 9 10 11 12 13 17 19 22 24 26 27 28 29 30 31 32 33 36 39 
17(-1)->1 2 3 4 5 6 7 8 9 10 11 12 14 16 19 21 22 24 25 26 27 28 29 30 33 36 37 38 
18(-1)->1 2 3 4 5 6 7 8 9 10 11 12 13 14 15 21 23 24 25 27 28 29 30 31 32 33 36 37 
19(-1)->1 2 3 4 5 6 7 8 9 10 11 12 13 14 15 16 17 25 26 27 28 29 31 33 34 36 37 38 39 40 
20(-1)->1 2 3 4 5 6 7 8 9 10 11 13 14 23 24 25 26 27 28 30 33 34 35 36 37 38 39 
21(-1)->1 2 3 4 5 6 7 8 9 10 11 12 13 17 18 23 26 29 33 35 37 38 39 40 
22(-1)->1 2 3 4 5 6 7 8 9 10 11 12 14 15 16 17 23 24 29 30 33 37 38 
23(-1)->1 2 3 4 5 6 7 8 9 10 11 12 14 15 18 20 21 22 26 27 28 30 33 36 37 38 40 
24(-1)->1 2 3 4 5 6 7 8 9 10 11 12 14 15 16 17 18 20 22 25 26 28 34 35 36 37 38 
25(-1)->1 2 3 4 5 6 7 8 9 10 11 17 18 19 20 24 26 27 28 31 32 39 
26(-1)->1 2 3 4 5 6 7 8 9 10 11 12 13 14 15 16 17 19 20 21 23 24 25 31 32 34 35 37 38 39 
27(-1)->1 2 3 4 5 6 7 8 9 10 11 12 13 14 15 16 17 18 19 20 23 25 29 30 32 33 37 38 39 
28(-1)->1 2 3 4 5 6 7 8 9 10 11 16 17 18 19 20 23 24 25 29 30 31 32 35 36 38 
29(-1)->1 2 3 4 5 6 7 8 9 11 12 14 15 16 17 18 19 21 22 27 28 30 33 37 40 
30(-1)->1 2 3 4 5 6 7 8 9 10 11 12 13 14 15 16 17 18 20 22 23 27 28 29 31 32 33 34 39 40 
31(-1)->1 2 3 4 5 6 7 8 9 10 11 12 16 18 19 25 26 28 30 32 33 34 36 37 40 
32(-1)->1 2 3 4 5 6 7 8 9 11 12 13 14 16 18 25 26 27 28 30 31 34 35 36 37 
33(-1)->1 2 3 4 5 6 7 8 9 10 11 12 13 14 15 16 17 18 19 20 21 22 23 27 29 30 31 34 36 37 38 
34(-1)->1 2 3 4 5 6 7 8 9 10 11 12 13 14 15 19 20 24 26 30 31 32 33 37 38 40 
35(-1)->1 2 3 4 5 6 7 8 9 10 11 12 13 14 20 21 24 26 28 32 40 
36(-1)->1 2 3 4 5 6 7 8 9 10 11 12 14 16 17 18 19 20 23 24 28 31 32 33 37 38 
37(-1)->1 2 3 4 5 6 7 8 9 10 13 15 17 18 19 20 21 22 23 24 26 27 29 31 32 33 34 36 38 39 40 
38(-1)->1 2 3 4 5 6 7 8 9 10 11 12 13 15 17 19 20 21 22 23 24 26 27 28 33 34 36 37 39 40 
39(-1)->1 2 3 4 5 6 7 8 9 10 11 14 15 16 19 20 21 25 26 27 30 37 38 40 
40(-1)->1 5 6 7 8 12 14 15 19 21 23 29 30 31 34 35 37 38 39 
-------
Node 1 maps to position 0
Node 5 maps to position 1
Node 6 maps to position 2
Node 7 maps to position 3
Node 8 maps to position 4
Node 2 maps to position 5
Node 3 maps to position 6
Node 4 maps to position 7
Node 9 maps to position 8
Node 11 maps to position 9
Node 10 maps to position 10
Node 12 maps to position 11
Node 33 maps to position 12
Node 37 maps to position 13
Node 14 maps to position 14
Node 19 maps to position 15
Node 26 maps to position 16
Node 30 maps to position 17
Node 38 maps to position 18
Node 27 maps to position 19
Node 13 maps to position 20
Node 15 maps to position 21
Node 17 maps to position 22
Node 18 maps to position 23
Node 16 maps to position 24
Node 20 maps to position 25
Node 23 maps to position 26
Node 24 maps to position 27
Node 28 maps to position 28
Node 34 maps to position 29
Node 36 maps to position 30
Node 29 maps to position 31
Node 31 maps to position 32
Node 32 maps to position 33
Node 21 maps to position 34
Node 39 maps to position 35
Node 22 maps to position 36
Node 25 maps to position 37
Node 35 maps to position 38
Node 40 maps to position 39
1(-1)->2 3 4 5 6 7 8 9 10 11 12 13 14 15 16 17 18 19 20 21 22 23 24 25 26 27 28 29 30 31 32 33 34 35 36 37 38 39 40 
5(-1)->1 2 3 4 6 7 8 9 10 11 12 13 14 15 16 17 18 19 20 21 22 23 24 25 26 27 28 29 30 31 32 33 34 35 36 37 38 39 40 
6(-1)->1 2 3 4 5 7 8 9 10 11 12 13 14 15 16 17 18 19 20 21 22 23 24 25 26 27 28 29 30 31 32 33 34 35 36 37 38 39 40 
7(-1)->1 2 3 4 5 6 8 9 10 11 12 13 14 15 16 17 18 19 20 21 22 23 24 25 26 27 28 29 30 31 32 33 34 35 36 37 38 39 40 
8(-1)->1 2 3 4 5 6 7 9 10 11 12 13 14 15 16 17 18 19 20 21 22 23 24 25 26 27 28 29 30 31 32 33 34 35 36 37 38 39 40 
2(-1)->1 3 4 5 6 7 8 9 10 11 12 13 14 15 16 17 18 19 20 21 22 23 24 25 26 27 28 29 30 31 32 33 34 35 36 37 38 39 
3(-1)->1 2 4 5 6 7 8 9 10 11 12 13 14 15 16 17 18 19 20 21 22 23 24 25 26 27 28 29 30 31 32 33 34 35 36 37 38 39 
4(-1)->1 2 3 5 6 7 8 9 10 11 12 13 14 15 16 17 18 19 20 21 22 23 24 25 26 27 28 29 30 31 32 33 34 35 36 37 38 39 
9(-1)->1 2 3 4 5 6 7 8 10 11 12 13 14 15 16 17 18 19 20 21 22 23 24 25 26 27 28 29 30 31 32 33 34 35 36 37 38 39 
11(-1)->1 2 3 4 5 6 7 8 9 10 12 13 14 15 16 17 18 19 20 21 22 23 24 25 26 27 28 29 30 31 32 33 34 35 36 38 39 
10(-1)->1 2 3 4 5 6 7 8 9 11 12 13 14 15 16 17 18 19 20 21 22 23 24 25 26 27 28 30 31 33 34 35 36 37 38 39 
12(-1)->1 2 3 4 5 6 7 8 9 10 11 13 15 16 17 18 19 21 22 23 24 26 27 29 30 31 32 33 34 35 36 38 40 
33(-1)->1 2 3 4 5 6 7 8 9 10 11 12 13 14 15 16 17 18 19 20 21 22 23 27 29 30 31 34 36 37 38 
37(-1)->1 2 3 4 5 6 7 8 9 10 13 15 17 18 19 20 21 22 23 24 26 27 29 31 32 33 34 36 38 39 40 
14(-1)->1 2 3 4 5 6 7 8 9 10 11 13 17 18 19 20 22 23 24 26 27 29 30 32 33 34 35 36 39 40 
19(-1)->1 2 3 4 5 6 7 8 9 10 11 12 13 14 15 16 17 25 26 27 28 29 31 33 34 36 37 38 39 40 
26(-1)->1 2 3 4 5 6 7 8 9 10 11 12 13 14 15 16 17 19 20 21 23 24 25 31 32 34 35 37 38 39 
30(-1)->1 2 3 4 5 6 7 8 9 10 11 12 13 14 15 16 17 18 20 22 23 27 28 29 31 32 33 34 39 40 
38(-1)->1 2 3 4 5 6 7 8 9 10 11 12 13 15 17 19 20 21 22 23 24 26 27 28 33 34 36 37 39 40 
27(-1)->1 2 3 4 5 6 7 8 9 10 11 12 13 14 15 16 17 18 19 20 23 25 29 30 32 33 37 38 39 
13(-1)->1 2 3 4 5 6 7 8 9 10 11 12 14 15 16 18 19 20 21 26 27 30 32 33 34 35 37 38 
15(-1)->1 2 3 4 5 6 7 8 9 10 11 12 13 18 19 22 23 24 26 27 29 30 33 34 37 38 39 40 
17(-1)->1 2 3 4 5 6 7 8 9 10 11 12 14 16 19 21 22 24 25 26 27 28 29 30 33 36 37 38 
18(-1)->1 2 3 4 5 6 7 8 9 10 11 12 13 14 15 21 23 24 25 27 28 29 30 31 32 33 36 37 
16(-1)->1 2 3 4 5 6 7 8 9 10 11 12 13 17 19 22 24 26 27 28 29 30 31 32 33 36 39 
20(-1)->1 2 3 4 5 6 7 8 9 10 11 13 14 23 24 25 26 27 28 30 33 34 35 36 37 38 39 
23(-1)->1 2 3 4 5 6 7 8 9 10 11 12 14 15 18 20 21 22 26 27 28 30 33 36 37 38 40 
24(-1)->1 2 3 4 5 6 7 8 9 10 11 12 14 15 16 17 18 20 22 25 26 28 34 35 36 37 38 
28(-1)->1 2 3 4 5 6 7 8 9 10 11 16 17 18 19 20 23 24 25 29 30 31 32 35 36 38 
34(-1)->1 2 3 4 5 6 7 8 9 10 11 12 13 14 15 19 20 24 26 30 31 32 33 37 38 40 
36(-1)->1 2 3 4 5 6 7 8 9 10 11 12 14 16 17 18 19 20 23 24 28 31 32 33 37 38 
29(-1)->1 2 3 4 5 6 7 8 9 11 12 14 15 16 17 18 19 21 22 27 28 30 33 37 40 
31(-1)->1 2 3 4 5 6 7 8 9 10 11 12 16 18 19 25 26 28 30 32 33 34 36 37 40 
32(-1)->1 2 3 4 5 6 7 8 9 11 12 13 14 16 18 25 26 27 28 30 31 34 35 36 37 
21(-1)->1 2 3 4 5 6 7 8 9 10 11 12 13 17 18 23 26 29 33 35 37 38 39 40 
39(-1)->1 2 3 4 5 6 7 8 9 10 11 14 15 16 19 20 21 25 26 27 30 37 38 40 
22(-1)->1 2 3 4 5 6 7 8 9 10 11 12 14 15 16 17 23 24 29 30 33 37 38 
25(-1)->1 2 3 4 5 6 7 8 9 10 11 17 18 19 20 24 26 27 28 31 32 39 
35(-1)->1 2 3 4 5 6 7 8 9 10 11 12 13 14 20 21 24 26 28 32 40 
40(-1)->1 5 6 7 8 12 14 15 19 21 23 29 30 31 34 35 37 38 39 
-------
CONNECTEDS size: 1
1(0)->2 3 4 5 6 7 8 9 10 11 12 13 14 15 16 17 18 19 20 21 22 23 24 25 26 27 28 29 30 31 32 33 34 35 36 37 38 39 40 
2(5)->1 3 4 5 6 7 8 9 10 11 12 13 14 15 16 17 18 19 20 21 22 23 24 25 26 27 28 29 30 31 32 33 34 35 36 37 38 39 
3(6)->1 2 4 5 6 7 8 9 10 11 12 13 14 15 16 17 18 19 20 21 22 23 24 25 26 27 28 29 30 31 32 33 34 35 36 37 38 39 
4(7)->1 2 3 5 6 7 8 9 10 11 12 13 14 15 16 17 18 19 20 21 22 23 24 25 26 27 28 29 30 31 32 33 34 35 36 37 38 39 
5(1)->1 2 3 4 6 7 8 9 10 11 12 13 14 15 16 17 18 19 20 21 22 23 24 25 26 27 28 29 30 31 32 33 34 35 36 37 38 39 40 
6(2)->1 2 3 4 5 7 8 9 10 11 12 13 14 15 16 17 18 19 20 21 22 23 24 25 26 27 28 29 30 31 32 33 34 35 36 37 38 39 40 
7(3)->1 2 3 4 5 6 8 9 10 11 12 13 14 15 16 17 18 19 20 21 22 23 24 25 26 27 28 29 30 31 32 33 34 35 36 37 38 39 40 
8(4)->1 2 3 4 5 6 7 9 10 11 12 13 14 15 16 17 18 19 20 21 22 23 24 25 26 27 28 29 30 31 32 33 34 35 36 37 38 39 40 
9(8)->1 2 3 4 5 6 7 8 10 11 12 13 14 15 16 17 18 19 20 21 22 23 24 25 26 27 28 29 30 31 32 33 34 35 36 37 38 39 
10(10)->1 2 3 4 5 6 7 8 9 11 12 13 14 15 16 17 18 19 20 21 22 23 24 25 26 27 28 30 31 33 34 35 36 37 38 39 
11(9)->1 2 3 4 5 6 7 8 9 10 12 13 14 15 16 17 18 19 20 21 22 23 24 25 26 27 28 29 30 31 32 33 34 35 36 38 39 
12(11)->1 2 3 4 5 6 7 8 9 10 11 13 15 16 17 18 19 21 22 23 24 26 27 29 30 31 32 33 34 35 36 38 40 
13(16)->1 2 3 4 5 6 7 8 9 10 11 12 14 15 16 18 19 20 21 26 27 30 32 33 34 35 37 38 
14(11)->1 2 3 4 5 6 7 8 9 10 11 13 17 18 19 20 22 23 24 26 27 29 30 32 33 34 35 36 39 40 
15(17)->1 2 3 4 5 6 7 8 9 10 11 12 13 18 19 22 23 24 26 27 29 30 33 34 37 38 39 40 
16(14)->1 2 3 4 5 6 7 8 9 10 11 12 13 17 19 22 24 26 27 28 29 30 31 32 33 36 39 
17(16)->1 2 3 4 5 6 7 8 9 10 11 12 14 16 19 21 22 24 25 26 27 28 29 30 33 36 37 38 
18(14)->1 2 3 4 5 6 7 8 9 10 11 12 13 14 15 21 23 24 25 27 28 29 30 31 32 33 36 37 
19(13)->1 2 3 4 5 6 7 8 9 10 11 12 13 14 15 16 17 25 26 27 28 29 31 33 34 36 37 38 39 40 
20(17)->1 2 3 4 5 6 7 8 9 10 11 13 14 23 24 25 26 27 28 30 33 34 35 36 37 38 39 
21(13)->1 2 3 4 5 6 7 8 9 10 11 12 13 17 18 23 26 29 33 35 37 38 39 40 
22(15)->1 2 3 4 5 6 7 8 9 10 11 12 14 15 16 17 23 24 29 30 33 37 38 
23(16)->1 2 3 4 5 6 7 8 9 10 11 12 14 15 18 20 21 22 26 27 28 30 33 36 37 38 40 
24(13)->1 2 3 4 5 6 7 8 9 10 11 12 14 15 16 17 18 20 22 25 26 28 34 35 36 37 38 
25(11)->1 2 3 4 5 6 7 8 9 10 11 17 18 19 20 24 26 27 28 31 32 39 
26(12)->1 2 3 4 5 6 7 8 9 10 11 12 13 14 15 16 17 19 20 21 23 24 25 31 32 34 35 37 38 39 
27(15)->1 2 3 4 5 6 7 8 9 10 11 12 13 14 15 16 17 18 19 20 23 25 29 30 32 33 37 38 39 
28(12)->1 2 3 4 5 6 7 8 9 10 11 16 17 18 19 20 23 24 25 29 30 31 32 35 36 38 
29(10)->1 2 3 4 5 6 7 8 9 11 12 14 15 16 17 18 19 21 22 27 28 30 33 37 40 
30(13)->1 2 3 4 5 6 7 8 9 10 11 12 13 14 15 16 17 18 20 22 23 27 28 29 31 32 33 34 39 40 
31(16)->1 2 3 4 5 6 7 8 9 10 11 12 16 18 19 25 26 28 30 32 33 34 36 37 40 
32(10)->1 2 3 4 5 6 7 8 9 11 12 13 14 16 18 25 26 27 28 30 31 34 35 36 37 
33(12)->1 2 3 4 5 6 7 8 9 10 11 12 13 14 15 16 17 18 19 20 21 22 23 27 29 30 31 34 36 37 38 
34(15)->1 2 3 4 5 6 7 8 9 10 11 12 13 14 15 19 20 24 26 30 31 32 33 37 38 40 
35(14)->1 2 3 4 5 6 7 8 9 10 11 12 13 14 20 21 24 26 28 32 40 
36(15)->1 2 3 4 5 6 7 8 9 10 11 12 14 16 17 18 19 20 23 24 28 31 32 33 37 38 
37(9)->1 2 3 4 5 6 7 8 9 10 13 15 17 18 19 20 21 22 23 24 26 27 29 31 32 33 34 36 38 39 40 
38(14)->1 2 3 4 5 6 7 8 9 10 11 12 13 15 17 19 20 21 22 23 24 26 27 28 33 34 36 37 39 40 
39(16)->1 2 3 4 5 6 7 8 9 10 11 14 15 16 19 20 21 25 26 27 30 37 38 40 
40(5)->1 5 6 7 8 12 14 15 19 21 23 29 30 31 34 35 37 38 39 
COUNT: 262
COLORS: 18
EDGES: 600
18
262
