START TIME: 1433711274
1: 2 3 4 5 6 7 8 9 10 11 12 13 14 15 16 17 18 19 20 21 22 23 24 25 26 27 28 29 30 31 32 33 34 35 36 37 38 39 40
2: 1 3 4 5 6 7 8 9 10 11 12 13 14 15 16 17 18 19 20 21 22 23 24 25 26 27 28 29 30 31 32 33 34 35 36 37 38 39
3: 1 2 4 5 6 7 8 9 10 11 12 13 14 15 16 17 18 19 20 21 22 23 24 25 26 27 28 29 30 31 32 33 34 35 36 37 38 39
4: 1 2 3 5 6 7 8 9 10 11 12 13 14 15 16 17 18 19 20 21 22 23 24 25 26 27 28 29 30 31 32 33 34 35 36 37 38 39
5: 1 2 3 4 6 7 8 9 10 11 12 13 14 15 16 17 18 19 20 21 22 23 24 25 26 27 28 29 30 32 33 36 37 38 39 40
6: 1 2 3 4 5 7 8 9 10 11 12 13 14 15 16 17 18 19 20 21 22 23 24 25 26 27 28 29 30 32 33 36 37 38 39
7: 1 2 3 4 5 6 8 9 10 11 12 13 16 17 18 19 20 22 23 25 26 28 31 32 33 34 37
8: 1 2 3 4 5 6 7 9 10 11 12 13 14 15 16 17 18 19 20 21 22 23 25 26 28 29 30 31 32 34 38 39
9: 1 2 3 4 5 6 7 8 10 11 12 14 16 17 18 19 20 22 23 24 25 26 27 31 32 34 35 36 37 40
10: 1 2 3 4 5 6 7 8 9 11 12 13 15 16 17 19 20 22 23 25 26 27 29 30 34 35 38 39 40
11: 1 2 3 4 5 6 7 8 9 10 13 14 15 17 18 19 20 21 22 23 26 32 33 36 37 40
12: 1 2 3 36 5 6 7 8 9 10 39 14 15 19 4 24 25 26 28 29 30
13: 1 2 3 4 5 6 7 8 10 11 16 20 22 24 26 27 28 31 32 33 34 35 36 37 40
14: 1 2 3 4 5 6 8 9 11 12 16 19 22 23 27 29 30 31 32 35 37 38
15: 32 1 2 3 36 5 6 33 8 10 11 12 18 19 20 21 4 25 28 30
16: 1 2 3 4 5 6 7 8 9 10 13 14 17 21 22 23 24 25 27 30 32 33 34 36 40
17: 1 2 3 4 5 6 7 8 9 10 11 16 18 19 22 24 26 28 30 31 32 33 34 37 38
18: 1 34 3 36 37 6 7 8 9 11 2 15 17 20 21 22 23 4 26 27 5
19: 1 2 3 4 5 6 7 8 9 10 11 12 14 15 17 20 23 25 29 31 37 38 39 40
20: 1 2 3 4 5 6 7 8 9 10 11 13 15 18 19 22 23 26 27 28 30 33 38 39 40
21: 1 2 3 4 5 6 8 11 15 16 18 22 23 24 26 28 29 31 32 35 38 39 40
22: 1 2 3 4 5 6 7 8 9 10 11 13 14 16 17 18 20 21 23 24 26 32 37 39
23: 1 2 3 4 5 6 7 8 9 10 11 14 16 18 19 20 21 22 26 27 28 29 31 34 35 37 38 39
24: 1 34 3 4 37 6 39 9 2 12 13 16 17 21 22 5 25 26 28 30 31
25: 1 2 3 4 5 6 7 8 9 10 12 15 16 19 24 26 27 28 29 30 31 32 33 34 35 36 37 39
26: 1 2 3 4 5 6 7 8 9 10 11 12 13 17 18 20 21 22 23 24 25 27 29 32 35 37 39 40
27: 1 2 3 4 5 6 9 10 13 14 16 18 20 23 25 26 30 34 35 37 39 40
28: 1 2 34 4 37 6 7 8 12 13 15 17 3 20 21 23 24 25 5 29 31
29: 1 2 3 4 5 6 8 10 12 14 19 21 23 25 26 28 30 31 33 34 35 38 39
30: 1 2 3 4 5 6 8 10 12 14 15 16 17 20 24 25 27 29 32 33 34 36 37 38 40
31: 33 2 3 4 39 8 9 1 7 13 14 17 19 21 23 24 25 28 29
32: 1 2 3 4 5 6 7 8 9 11 13 14 15 16 17 21 22 25 26 30 36 37 40
33: 1 2 3 4 5 6 7 11 13 15 16 17 20 25 29 30 31 34 35 36 37 39 40
34: 1 2 3 4 7 8 9 10 13 16 17 18 23 24 25 27 28 29 30 33 35 36 37 39 40
35: 33 2 34 4 37 1 9 10 13 14 3 21 23 25 26 27 29
36: 32 33 34 3 4 5 6 1 40 9 11 12 13 15 16 18 2 25 38 30 37
37: 1 2 3 4 5 6 7 9 11 13 14 17 18 19 22 23 24 25 26 27 28 30 32 33 34 35 36 38 39 40
38: 1 2 3 4 37 6 40 10 14 17 19 20 21 8 23 36 29 30 5
39: 1 2 3 4 5 6 8 10 12 19 20 21 22 23 24 25 26 27 29 31 33 34 37 40
40: 32 33 34 36 5 38 39 9 10 11 13 16 19 20 1 26 27 37 30 21
-------
1(-1)->2 3 4 5 6 7 8 9 10 11 12 13 14 15 16 17 18 19 20 21 22 23 24 25 26 27 28 29 30 31 32 33 34 35 36 37 38 39 40 
2(-1)->1 3 4 5 6 7 8 9 10 11 12 13 14 15 16 17 18 19 20 21 22 23 24 25 26 27 28 29 30 31 32 33 34 35 36 37 38 39 
3(-1)->1 2 4 5 6 7 8 9 10 11 12 13 14 15 16 17 18 19 20 21 22 23 24 25 26 27 28 29 30 31 32 33 34 35 36 37 38 39 
4(-1)->1 2 3 5 6 7 8 9 10 11 12 13 14 15 16 17 18 19 20 21 22 23 24 25 26 27 28 29 30 31 32 33 34 35 36 37 38 39 
5(-1)->1 2 3 4 6 7 8 9 10 11 12 13 14 15 16 17 18 19 20 21 22 23 24 25 26 27 28 29 30 32 33 36 37 38 39 40 
6(-1)->1 2 3 4 5 7 8 9 10 11 12 13 14 15 16 17 18 19 20 21 22 23 24 25 26 27 28 29 30 32 33 36 37 38 39 
7(-1)->1 2 3 4 5 6 8 9 10 11 12 13 16 17 18 19 20 22 23 25 26 28 31 32 33 34 37 
8(-1)->1 2 3 4 5 6 7 9 10 11 12 13 14 15 16 17 18 19 20 21 22 23 25 26 28 29 30 31 32 34 38 39 
9(-1)->1 2 3 4 5 6 7 8 10 11 12 14 16 17 18 19 20 22 23 24 25 26 27 31 32 34 35 36 37 40 
10(-1)->1 2 3 4 5 6 7 8 9 11 12 13 15 16 17 19 20 22 23 25 26 27 29 30 34 35 38 39 40 
11(-1)->1 2 3 4 5 6 7 8 9 10 13 14 15 17 18 19 20 21 22 23 26 32 33 36 37 40 
12(-1)->1 2 3 4 5 6 7 8 9 10 14 15 19 24 25 26 28 29 30 36 39 
13(-1)->1 2 3 4 5 6 7 8 10 11 16 20 22 24 26 27 28 31 32 33 34 35 36 37 40 
14(-1)->1 2 3 4 5 6 8 9 11 12 16 19 22 23 27 29 30 31 32 35 37 38 
15(-1)->1 2 3 4 5 6 8 10 11 12 18 19 20 21 25 28 30 32 33 36 
16(-1)->1 2 3 4 5 6 7 8 9 10 13 14 17 21 22 23 24 25 27 30 32 33 34 36 40 
17(-1)->1 2 3 4 5 6 7 8 9 10 11 16 18 19 22 24 26 28 30 31 32 33 34 37 38 
18(-1)->1 2 3 4 5 6 7 8 9 11 15 17 20 21 22 23 26 27 34 36 37 
19(-1)->1 2 3 4 5 6 7 8 9 10 11 12 14 15 17 20 23 25 29 31 37 38 39 40 
20(-1)->1 2 3 4 5 6 7 8 9 10 11 13 15 18 19 22 23 26 27 28 30 33 38 39 40 
21(-1)->1 2 3 4 5 6 8 11 15 16 18 22 23 24 26 28 29 31 32 35 38 39 40 
22(-1)->1 2 3 4 5 6 7 8 9 10 11 13 14 16 17 18 20 21 23 24 26 32 37 39 
23(-1)->1 2 3 4 5 6 7 8 9 10 11 14 16 18 19 20 21 22 26 27 28 29 31 34 35 37 38 39 
24(-1)->1 2 3 4 5 6 9 12 13 16 17 21 22 25 26 28 30 31 34 37 39 
25(-1)->1 2 3 4 5 6 7 8 9 10 12 15 16 19 24 26 27 28 29 30 31 32 33 34 35 36 37 39 
26(-1)->1 2 3 4 5 6 7 8 9 10 11 12 13 17 18 20 21 22 23 24 25 27 29 32 35 37 39 40 
27(-1)->1 2 3 4 5 6 9 10 13 14 16 18 20 23 25 26 30 34 35 37 39 40 
28(-1)->1 2 3 4 5 6 7 8 12 13 15 17 20 21 23 24 25 29 31 34 37 
29(-1)->1 2 3 4 5 6 8 10 12 14 19 21 23 25 26 28 30 31 33 34 35 38 39 
30(-1)->1 2 3 4 5 6 8 10 12 14 15 16 17 20 24 25 27 29 32 33 34 36 37 38 40 
31(-1)->1 2 3 4 7 8 9 13 14 17 19 21 23 24 25 28 29 33 39 
32(-1)->1 2 3 4 5 6 7 8 9 11 13 14 15 16 17 21 22 25 26 30 36 37 40 
33(-1)->1 2 3 4 5 6 7 11 13 15 16 17 20 25 29 30 31 34 35 36 37 39 40 
34(-1)->1 2 3 4 7 8 9 10 13 16 17 18 23 24 25 27 28 29 30 33 35 36 37 39 40 
35(-1)->1 2 3 4 9 10 13 14 21 23 25 26 27 29 33 34 37 
36(-1)->1 2 3 4 5 6 9 11 12 13 15 16 18 25 30 32 33 34 37 38 40 
37(-1)->1 2 3 4 5 6 7 9 11 13 14 17 18 19 22 23 24 25 26 27 28 30 32 33 34 35 36 38 39 40 
38(-1)->1 2 3 4 5 6 8 10 14 17 19 20 21 23 29 30 36 37 40 
39(-1)->1 2 3 4 5 6 8 10 12 19 20 21 22 23 24 25 26 27 29 31 33 34 37 40 
40(-1)->1 5 9 10 11 13 16 19 20 21 26 27 30 32 33 34 36 37 38 39 
-------
Node 1 maps to position 0
Node 2 maps to position 1
Node 3 maps to position 2
Node 4 maps to position 3
Node 5 maps to position 4
Node 6 maps to position 5
Node 8 maps to position 6
Node 9 maps to position 7
Node 37 maps to position 8
Node 10 maps to position 9
Node 23 maps to position 10
Node 25 maps to position 11
Node 26 maps to position 12
Node 7 maps to position 13
Node 11 maps to position 14
Node 13 maps to position 15
Node 16 maps to position 16
Node 17 maps to position 17
Node 20 maps to position 18
Node 30 maps to position 19
Node 34 maps to position 20
Node 19 maps to position 21
Node 22 maps to position 22
Node 39 maps to position 23
Node 21 maps to position 24
Node 29 maps to position 25
Node 32 maps to position 26
Node 33 maps to position 27
Node 14 maps to position 28
Node 27 maps to position 29
Node 12 maps to position 30
Node 18 maps to position 31
Node 24 maps to position 32
Node 28 maps to position 33
Node 36 maps to position 34
Node 15 maps to position 35
Node 40 maps to position 36
Node 31 maps to position 37
Node 38 maps to position 38
Node 35 maps to position 39
1(-1)->2 3 4 5 6 7 8 9 10 11 12 13 14 15 16 17 18 19 20 21 22 23 24 25 26 27 28 29 30 31 32 33 34 35 36 37 38 39 40 
2(-1)->1 3 4 5 6 7 8 9 10 11 12 13 14 15 16 17 18 19 20 21 22 23 24 25 26 27 28 29 30 31 32 33 34 35 36 37 38 39 
3(-1)->1 2 4 5 6 7 8 9 10 11 12 13 14 15 16 17 18 19 20 21 22 23 24 25 26 27 28 29 30 31 32 33 34 35 36 37 38 39 
4(-1)->1 2 3 5 6 7 8 9 10 11 12 13 14 15 16 17 18 19 20 21 22 23 24 25 26 27 28 29 30 31 32 33 34 35 36 37 38 39 
5(-1)->1 2 3 4 6 7 8 9 10 11 12 13 14 15 16 17 18 19 20 21 22 23 24 25 26 27 28 29 30 32 33 36 37 38 39 40 
6(-1)->1 2 3 4 5 7 8 9 10 11 12 13 14 15 16 17 18 19 20 21 22 23 24 25 26 27 28 29 30 32 33 36 37 38 39 
8(-1)->1 2 3 4 5 6 7 9 10 11 12 13 14 15 16 17 18 19 20 21 22 23 25 26 28 29 30 31 32 34 38 39 
9(-1)->1 2 3 4 5 6 7 8 10 11 12 14 16 17 18 19 20 22 23 24 25 26 27 31 32 34 35 36 37 40 
37(-1)->1 2 3 4 5 6 7 9 11 13 14 17 18 19 22 23 24 25 26 27 28 30 32 33 34 35 36 38 39 40 
10(-1)->1 2 3 4 5 6 7 8 9 11 12 13 15 16 17 19 20 22 23 25 26 27 29 30 34 35 38 39 40 
23(-1)->1 2 3 4 5 6 7 8 9 10 11 14 16 18 19 20 21 22 26 27 28 29 31 34 35 37 38 39 
25(-1)->1 2 3 4 5 6 7 8 9 10 12 15 16 19 24 26 27 28 29 30 31 32 33 34 35 36 37 39 
26(-1)->1 2 3 4 5 6 7 8 9 10 11 12 13 17 18 20 21 22 23 24 25 27 29 32 35 37 39 40 
7(-1)->1 2 3 4 5 6 8 9 10 11 12 13 16 17 18 19 20 22 23 25 26 28 31 32 33 34 37 
11(-1)->1 2 3 4 5 6 7 8 9 10 13 14 15 17 18 19 20 21 22 23 26 32 33 36 37 40 
13(-1)->1 2 3 4 5 6 7 8 10 11 16 20 22 24 26 27 28 31 32 33 34 35 36 37 40 
16(-1)->1 2 3 4 5 6 7 8 9 10 13 14 17 21 22 23 24 25 27 30 32 33 34 36 40 
17(-1)->1 2 3 4 5 6 7 8 9 10 11 16 18 19 22 24 26 28 30 31 32 33 34 37 38 
20(-1)->1 2 3 4 5 6 7 8 9 10 11 13 15 18 19 22 23 26 27 28 30 33 38 39 40 
30(-1)->1 2 3 4 5 6 8 10 12 14 15 16 17 20 24 25 27 29 32 33 34 36 37 38 40 
34(-1)->1 2 3 4 7 8 9 10 13 16 17 18 23 24 25 27 28 29 30 33 35 36 37 39 40 
19(-1)->1 2 3 4 5 6 7 8 9 10 11 12 14 15 17 20 23 25 29 31 37 38 39 40 
22(-1)->1 2 3 4 5 6 7 8 9 10 11 13 14 16 17 18 20 21 23 24 26 32 37 39 
39(-1)->1 2 3 4 5 6 8 10 12 19 20 21 22 23 24 25 26 27 29 31 33 34 37 40 
21(-1)->1 2 3 4 5 6 8 11 15 16 18 22 23 24 26 28 29 31 32 35 38 39 40 
29(-1)->1 2 3 4 5 6 8 10 12 14 19 21 23 25 26 28 30 31 33 34 35 38 39 
32(-1)->1 2 3 4 5 6 7 8 9 11 13 14 15 16 17 21 22 25 26 30 36 37 40 
33(-1)->1 2 3 4 5 6 7 11 13 15 16 17 20 25 29 30 31 34 35 36 37 39 40 
14(-1)->1 2 3 4 5 6 8 9 11 12 16 19 22 23 27 29 30 31 32 35 37 38 
27(-1)->1 2 3 4 5 6 9 10 13 14 16 18 20 23 25 26 30 34 35 37 39 40 
12(-1)->1 2 3 4 5 6 7 8 9 10 14 15 19 24 25 26 28 29 30 36 39 
18(-1)->1 2 3 4 5 6 7 8 9 11 15 17 20 21 22 23 26 27 34 36 37 
24(-1)->1 2 3 4 5 6 9 12 13 16 17 21 22 25 26 28 30 31 34 37 39 
28(-1)->1 2 3 4 5 6 7 8 12 13 15 17 20 21 23 24 25 29 31 34 37 
36(-1)->1 2 3 4 5 6 9 11 12 13 15 16 18 25 30 32 33 34 37 38 40 
15(-1)->1 2 3 4 5 6 8 10 11 12 18 19 20 21 25 28 30 32 33 36 
40(-1)->1 5 9 10 11 13 16 19 20 21 26 27 30 32 33 34 36 37 38 39 
31(-1)->1 2 3 4 7 8 9 13 14 17 19 21 23 24 25 28 29 33 39 
38(-1)->1 2 3 4 5 6 8 10 14 17 19 20 21 23 29 30 36 37 40 
35(-1)->1 2 3 4 9 10 13 14 21 23 25 26 27 29 33 34 37 
-------
CONNECTEDS size: 1
1(0)->2 3 4 5 6 7 8 9 10 11 12 13 14 15 16 17 18 19 20 21 22 23 24 25 26 27 28 29 30 31 32 33 34 35 36 37 38 39 40 
2(1)->1 3 4 5 6 7 8 9 10 11 12 13 14 15 16 17 18 19 20 21 22 23 24 25 26 27 28 29 30 31 32 33 34 35 36 37 38 39 
3(2)->1 2 4 5 6 7 8 9 10 11 12 13 14 15 16 17 18 19 20 21 22 23 24 25 26 27 28 29 30 31 32 33 34 35 36 37 38 39 
4(3)->1 2 3 5 6 7 8 9 10 11 12 13 14 15 16 17 18 19 20 21 22 23 24 25 26 27 28 29 30 31 32 33 34 35 36 37 38 39 
5(4)->1 2 3 4 6 7 8 9 10 11 12 13 14 15 16 17 18 19 20 21 22 23 24 25 26 27 28 29 30 32 33 36 37 38 39 40 
6(5)->1 2 3 4 5 7 8 9 10 11 12 13 14 15 16 17 18 19 20 21 22 23 24 25 26 27 28 29 30 32 33 36 37 38 39 
7(11)->1 2 3 4 5 6 8 9 10 11 12 13 16 17 18 19 20 22 23 25 26 28 31 32 33 34 37 
8(6)->1 2 3 4 5 6 7 9 10 11 12 13 14 15 16 17 18 19 20 21 22 23 25 26 28 29 30 31 32 34 38 39 
9(7)->1 2 3 4 5 6 7 8 10 11 12 14 16 17 18 19 20 22 23 24 25 26 27 31 32 34 35 36 37 40 
10(8)->1 2 3 4 5 6 7 8 9 11 12 13 15 16 17 19 20 22 23 25 26 27 29 30 34 35 38 39 40 
11(12)->1 2 3 4 5 6 7 8 9 10 13 14 15 17 18 19 20 21 22 23 26 32 33 36 37 40 
12(13)->1 2 3 4 5 6 7 8 9 10 14 15 19 24 25 26 28 29 30 36 39 
13(7)->1 2 3 4 5 6 7 8 10 11 16 20 22 24 26 27 28 31 32 33 34 35 36 37 40 
14(11)->1 2 3 4 5 6 8 9 11 12 16 19 22 23 27 29 30 31 32 35 37 38 
15(14)->1 2 3 4 5 6 8 10 11 12 18 19 20 21 25 28 30 32 33 36 
16(10)->1 2 3 4 5 6 7 8 9 10 13 14 17 21 22 23 24 25 27 30 32 33 34 36 40 
17(9)->1 2 3 4 5 6 7 8 9 10 11 16 18 19 22 24 26 28 30 31 32 33 34 37 38 
18(8)->1 2 3 4 5 6 7 8 9 11 15 17 20 21 22 23 26 27 34 36 37 
19(10)->1 2 3 4 5 6 7 8 9 10 11 12 14 15 17 20 23 25 29 31 37 38 39 40 
20(13)->1 2 3 4 5 6 7 8 9 10 11 13 15 18 19 22 23 26 27 28 30 33 38 39 40 
21(11)->1 2 3 4 5 6 8 11 15 16 18 22 23 24 26 28 29 31 32 35 38 39 40 
22(14)->1 2 3 4 5 6 7 8 9 10 11 13 14 16 17 18 20 21 23 24 26 32 37 39 
23(9)->1 2 3 4 5 6 7 8 9 10 11 14 16 18 19 20 21 22 26 27 28 29 31 34 35 37 38 39 
24(8)->1 2 3 4 5 6 9 12 13 16 17 21 22 25 26 28 30 31 34 37 39 
25(9)->1 2 3 4 5 6 7 8 9 10 12 15 16 19 24 26 27 28 29 30 31 32 33 34 35 36 37 39 
26(10)->1 2 3 4 5 6 7 8 9 10 11 12 13 17 18 20 21 22 23 24 25 27 29 32 35 37 39 40 
27(12)->1 2 3 4 5 6 9 10 13 14 16 18 20 23 25 26 30 34 35 37 39 40 
28(10)->1 2 3 4 5 6 7 8 12 13 15 17 20 21 23 24 25 29 31 34 37 
29(12)->1 2 3 4 5 6 8 10 12 14 19 21 23 25 26 28 30 31 33 34 35 38 39 
30(7)->1 2 3 4 5 6 8 10 12 14 15 16 17 20 24 25 27 29 32 33 34 36 37 38 40 
31(4)->1 2 3 4 7 8 9 13 14 17 19 21 23 24 25 28 29 33 39 
32(8)->1 2 3 4 5 6 7 8 9 11 13 14 15 16 17 21 22 25 26 30 36 37 40 
33(8)->1 2 3 4 5 6 7 11 13 15 16 17 20 25 29 30 31 34 35 36 37 39 40 
34(4)->1 2 3 4 7 8 9 10 13 16 17 18 23 24 25 27 28 29 30 33 35 36 37 39 40 
35(5)->1 2 3 4 9 10 13 14 21 23 25 26 27 29 33 34 37 
36(11)->1 2 3 4 5 6 9 11 12 13 15 16 18 25 30 32 33 34 37 38 40 
37(6)->1 2 3 4 5 6 7 9 11 13 14 17 18 19 22 23 24 25 26 27 28 30 32 33 34 35 36 38 39 40 
38(14)->1 2 3 4 5 6 8 10 14 17 19 20 21 23 29 30 36 37 40 
39(7)->1 2 3 4 5 6 8 10 12 19 20 21 22 23 24 25 26 27 29 31 33 34 37 40 
40(1)->1 5 9 10 11 13 16 19 20 21 26 27 30 32 33 34 36 37 38 39 
COUNT: 1631
COLORS: 15
EDGES: 520
15
1631
