START TIME: 1433711284
1: 2 3 4 5 6 7 8 9 10 11 12 13 14 15 16 17 18 19 20 21 22 23 24 25 26 27 28 29 30 31 32 33 34 35 36 37 38 39 40
2: 1 3 4 5 6 7 8 9 10 11 12 13 14 15 16 17 18 19 20 21 22 23 24 25 26 27 28 29 30 31 32 33 34 35 36 37 38 39 40
3: 1 2 4 5 6 7 8 9 10 11 12 13 14 15 16 17 18 19 20 21 22 23 24 25 26 27 28 29 30 31 32 33 34 35 36 37 38 39 40
4: 1 2 3 5 6 7 8 9 10 11 12 13 14 15 16 17 18 19 20 21 22 23 24 25 26 27 28 29 30 31 32 33 34 35 36 37 38 39
5: 1 2 3 4 6 7 8 9 10 11 12 13 14 15 16 17 18 19 20 21 22 23 24 25 26 27 28 29 30 31 32 33 34 35 36 37 38 39 40
6: 1 2 3 4 5 7 8 9 10 11 12 13 14 15 16 17 18 19 20 21 22 23 24 25 26 27 28 29 30 31 32 33 34 35 36 37 38 39
7: 1 2 3 4 5 6 8 9 10 11 12 13 14 15 16 17 18 19 20 21 22 23 24 25 26 27 28 29 30 31 32 33 34 35 36 37 38 39 40
8: 1 2 3 4 5 6 7 9 10 11 12 13 14 15 16 17 18 19 20 21 22 23 24 25 26 27 28 29 30 31 32 33 34 35 37 38 39 40
9: 1 2 3 4 5 6 7 8 10 11 12 13 14 15 16 17 18 19 20 21 22 23 24 25 26 27 28 29 30 31 32 33 34 35 37 38 39
10: 1 2 3 4 5 6 7 8 9 11 12 13 14 15 16 17 18 19 20 21 22 23 24 26 27 28 29 31 32 33 34 38 39
11: 1 2 3 4 5 6 7 8 9 10 12 13 14 15 16 17 18 19 20 21 23 24 25 26 27 29 30 33 38 39 40
12: 1 2 3 4 5 6 7 8 9 10 11 13 14 15 16 17 18 19 22 24 25 27 28 29 30 33 35 36 37 38 39 40
13: 1 2 3 4 5 6 7 8 9 10 11 12 14 15 16 17 18 19 22 26 27 29 31 33 38 39 40
14: 1 2 3 4 5 6 7 8 9 10 11 12 13 15 16 17 18 19 20 21 22 24 27 29 30 33 34 35 37 39
15: 1 2 3 4 5 6 7 8 9 10 11 12 13 14 16 17 18 19 23 24 26 29 30 31 32 33 34 35 36 37 38 39
16: 1 2 3 4 5 6 7 8 9 10 11 12 13 14 15 17 18 19 20 21 24 25 26 27 28 29 31 32 33 35 37
17: 1 2 3 4 5 6 7 8 9 10 11 12 13 14 15 16 18 19 20 21 23 24 27 28 33 35 40
18: 1 2 3 4 5 6 7 8 9 10 11 12 13 14 15 16 17 19 20 21 23 24 25 27 31 33 34 35 37 38 39 40
19: 1 2 3 4 5 6 7 8 9 10 11 12 13 14 15 16 17 18 20 23 24 26 27 30 31 33 35 36 38
20: 1 2 3 4 5 6 7 8 9 10 11 14 16 17 18 19 29 30 32 33 34 36 40
21: 1 2 3 4 5 6 7 8 9 10 11 14 16 17 18 25 26 27 28 29 32 33 36 37 39
22: 1 2 3 4 5 6 7 8 9 10 12 13 14 23 24 25 26 27 28 30 31 33 34 35 36 37 40
23: 1 2 3 4 5 6 7 8 9 10 11 15 17 18 19 22 25 26 27 28 29 32 34 35 36 37 39
24: 1 2 3 4 5 6 7 8 9 10 11 12 14 15 16 17 18 19 22 25 26 28 29 34 35 36 37 39 40
25: 1 2 3 4 5 6 7 8 9 11 12 16 18 21 22 23 24 26 27 28 29 30 35 37 38
26: 1 2 3 4 5 6 7 8 9 10 11 13 15 16 19 21 22 23 24 25 27 28 29 30 31 32 33 36 37 40
27: 1 2 3 4 5 6 7 8 9 10 11 12 13 14 16 17 18 19 21 22 23 25 26 28 29 30 33 34 35 36 37 38
28: 1 2 3 4 5 6 7 8 9 10 12 16 17 21 22 23 24 25 26 27 29 32 33 35 37 40
29: 1 2 3 4 5 6 7 8 9 10 11 12 13 14 15 16 20 21 23 24 25 26 27 28 32 33 34 36 37 40
30: 1 2 3 4 5 6 7 8 9 11 12 14 15 19 20 22 25 26 27 31 32 35 36 37 39
31: 1 2 3 4 5 6 7 8 9 10 13 15 16 18 19 22 26 30 33 34 35 36 37 39 40
32: 1 2 3 4 5 6 7 8 9 10 15 16 20 21 23 26 28 29 30 34 36 37 38 39
33: 1 2 3 4 5 6 7 8 9 10 11 12 13 14 15 16 17 18 19 20 21 22 26 27 28 29 31 34 39
34: 1 2 3 4 5 6 7 8 9 10 14 15 18 20 22 23 24 27 29 31 32 33 35 36 37 38
35: 1 2 3 4 5 6 7 8 9 12 14 15 16 17 18 19 22 23 24 25 27 28 30 31 34 37 38 39
36: 1 2 3 4 5 6 7 12 15 19 20 21 22 23 24 26 27 29 30 31 32 34 40
37: 1 2 3 4 5 6 7 8 9 12 14 15 16 18 21 22 23 24 25 26 27 28 29 30 31 32 34 35
38: 1 2 3 4 5 6 7 8 9 10 11 12 13 15 18 19 25 27 32 34 35 40
39: 1 2 3 4 5 6 7 8 9 10 11 12 13 14 15 18 21 23 24 30 31 32 33 35 40
40: 1 2 11 36 5 38 39 8 7 12 13 17 18 3 20 22 24 26 28 29 31
-------
1(-1)->2 3 4 5 6 7 8 9 10 11 12 13 14 15 16 17 18 19 20 21 22 23 24 25 26 27 28 29 30 31 32 33 34 35 36 37 38 39 40 
2(-1)->1 3 4 5 6 7 8 9 10 11 12 13 14 15 16 17 18 19 20 21 22 23 24 25 26 27 28 29 30 31 32 33 34 35 36 37 38 39 40 
3(-1)->1 2 4 5 6 7 8 9 10 11 12 13 14 15 16 17 18 19 20 21 22 23 24 25 26 27 28 29 30 31 32 33 34 35 36 37 38 39 40 
4(-1)->1 2 3 5 6 7 8 9 10 11 12 13 14 15 16 17 18 19 20 21 22 23 24 25 26 27 28 29 30 31 32 33 34 35 36 37 38 39 
5(-1)->1 2 3 4 6 7 8 9 10 11 12 13 14 15 16 17 18 19 20 21 22 23 24 25 26 27 28 29 30 31 32 33 34 35 36 37 38 39 40 
6(-1)->1 2 3 4 5 7 8 9 10 11 12 13 14 15 16 17 18 19 20 21 22 23 24 25 26 27 28 29 30 31 32 33 34 35 36 37 38 39 
7(-1)->1 2 3 4 5 6 8 9 10 11 12 13 14 15 16 17 18 19 20 21 22 23 24 25 26 27 28 29 30 31 32 33 34 35 36 37 38 39 40 
8(-1)->1 2 3 4 5 6 7 9 10 11 12 13 14 15 16 17 18 19 20 21 22 23 24 25 26 27 28 29 30 31 32 33 34 35 37 38 39 40 
9(-1)->1 2 3 4 5 6 7 8 10 11 12 13 14 15 16 17 18 19 20 21 22 23 24 25 26 27 28 29 30 31 32 33 34 35 37 38 39 
10(-1)->1 2 3 4 5 6 7 8 9 11 12 13 14 15 16 17 18 19 20 21 22 23 24 26 27 28 29 31 32 33 34 38 39 
11(-1)->1 2 3 4 5 6 7 8 9 10 12 13 14 15 16 17 18 19 20 21 23 24 25 26 27 29 30 33 38 39 40 
12(-1)->1 2 3 4 5 6 7 8 9 10 11 13 14 15 16 17 18 19 22 24 25 27 28 29 30 33 35 36 37 38 39 40 
13(-1)->1 2 3 4 5 6 7 8 9 10 11 12 14 15 16 17 18 19 22 26 27 29 31 33 38 39 40 
14(-1)->1 2 3 4 5 6 7 8 9 10 11 12 13 15 16 17 18 19 20 21 22 24 27 29 30 33 34 35 37 39 
15(-1)->1 2 3 4 5 6 7 8 9 10 11 12 13 14 16 17 18 19 23 24 26 29 30 31 32 33 34 35 36 37 38 39 
16(-1)->1 2 3 4 5 6 7 8 9 10 11 12 13 14 15 17 18 19 20 21 24 25 26 27 28 29 31 32 33 35 37 
17(-1)->1 2 3 4 5 6 7 8 9 10 11 12 13 14 15 16 18 19 20 21 23 24 27 28 33 35 40 
18(-1)->1 2 3 4 5 6 7 8 9 10 11 12 13 14 15 16 17 19 20 21 23 24 25 27 31 33 34 35 37 38 39 40 
19(-1)->1 2 3 4 5 6 7 8 9 10 11 12 13 14 15 16 17 18 20 23 24 26 27 30 31 33 35 36 38 
20(-1)->1 2 3 4 5 6 7 8 9 10 11 14 16 17 18 19 29 30 32 33 34 36 40 
21(-1)->1 2 3 4 5 6 7 8 9 10 11 14 16 17 18 25 26 27 28 29 32 33 36 37 39 
22(-1)->1 2 3 4 5 6 7 8 9 10 12 13 14 23 24 25 26 27 28 30 31 33 34 35 36 37 40 
23(-1)->1 2 3 4 5 6 7 8 9 10 11 15 17 18 19 22 25 26 27 28 29 32 34 35 36 37 39 
24(-1)->1 2 3 4 5 6 7 8 9 10 11 12 14 15 16 17 18 19 22 25 26 28 29 34 35 36 37 39 40 
25(-1)->1 2 3 4 5 6 7 8 9 11 12 16 18 21 22 23 24 26 27 28 29 30 35 37 38 
26(-1)->1 2 3 4 5 6 7 8 9 10 11 13 15 16 19 21 22 23 24 25 27 28 29 30 31 32 33 36 37 40 
27(-1)->1 2 3 4 5 6 7 8 9 10 11 12 13 14 16 17 18 19 21 22 23 25 26 28 29 30 33 34 35 36 37 38 
28(-1)->1 2 3 4 5 6 7 8 9 10 12 16 17 21 22 23 24 25 26 27 29 32 33 35 37 40 
29(-1)->1 2 3 4 5 6 7 8 9 10 11 12 13 14 15 16 20 21 23 24 25 26 27 28 32 33 34 36 37 40 
30(-1)->1 2 3 4 5 6 7 8 9 11 12 14 15 19 20 22 25 26 27 31 32 35 36 37 39 
31(-1)->1 2 3 4 5 6 7 8 9 10 13 15 16 18 19 22 26 30 33 34 35 36 37 39 40 
32(-1)->1 2 3 4 5 6 7 8 9 10 15 16 20 21 23 26 28 29 30 34 36 37 38 39 
33(-1)->1 2 3 4 5 6 7 8 9 10 11 12 13 14 15 16 17 18 19 20 21 22 26 27 28 29 31 34 39 
34(-1)->1 2 3 4 5 6 7 8 9 10 14 15 18 20 22 23 24 27 29 31 32 33 35 36 37 38 
35(-1)->1 2 3 4 5 6 7 8 9 12 14 15 16 17 18 19 22 23 24 25 27 28 30 31 34 37 38 39 
36(-1)->1 2 3 4 5 6 7 12 15 19 20 21 22 23 24 26 27 29 30 31 32 34 40 
37(-1)->1 2 3 4 5 6 7 8 9 12 14 15 16 18 21 22 23 24 25 26 27 28 29 30 31 32 34 35 
38(-1)->1 2 3 4 5 6 7 8 9 10 11 12 13 15 18 19 25 27 32 34 35 40 
39(-1)->1 2 3 4 5 6 7 8 9 10 11 12 13 14 15 18 21 23 24 30 31 32 33 35 40 
40(-1)->1 2 3 5 7 8 11 12 13 17 18 20 22 24 26 28 29 31 36 38 39 
-------
Node 1 maps to position 0
Node 2 maps to position 1
Node 3 maps to position 2
Node 5 maps to position 3
Node 7 maps to position 4
Node 4 maps to position 5
Node 6 maps to position 6
Node 8 maps to position 7
Node 9 maps to position 8
Node 10 maps to position 9
Node 12 maps to position 10
Node 15 maps to position 11
Node 18 maps to position 12
Node 27 maps to position 13
Node 11 maps to position 14
Node 16 maps to position 15
Node 14 maps to position 16
Node 26 maps to position 17
Node 29 maps to position 18
Node 19 maps to position 19
Node 24 maps to position 20
Node 33 maps to position 21
Node 35 maps to position 22
Node 37 maps to position 23
Node 13 maps to position 24
Node 17 maps to position 25
Node 22 maps to position 26
Node 23 maps to position 27
Node 28 maps to position 28
Node 34 maps to position 29
Node 21 maps to position 30
Node 25 maps to position 31
Node 30 maps to position 32
Node 31 maps to position 33
Node 39 maps to position 34
Node 32 maps to position 35
Node 20 maps to position 36
Node 36 maps to position 37
Node 38 maps to position 38
Node 40 maps to position 39
1(-1)->2 3 4 5 6 7 8 9 10 11 12 13 14 15 16 17 18 19 20 21 22 23 24 25 26 27 28 29 30 31 32 33 34 35 36 37 38 39 40 
2(-1)->1 3 4 5 6 7 8 9 10 11 12 13 14 15 16 17 18 19 20 21 22 23 24 25 26 27 28 29 30 31 32 33 34 35 36 37 38 39 40 
3(-1)->1 2 4 5 6 7 8 9 10 11 12 13 14 15 16 17 18 19 20 21 22 23 24 25 26 27 28 29 30 31 32 33 34 35 36 37 38 39 40 
5(-1)->1 2 3 4 6 7 8 9 10 11 12 13 14 15 16 17 18 19 20 21 22 23 24 25 26 27 28 29 30 31 32 33 34 35 36 37 38 39 40 
7(-1)->1 2 3 4 5 6 8 9 10 11 12 13 14 15 16 17 18 19 20 21 22 23 24 25 26 27 28 29 30 31 32 33 34 35 36 37 38 39 40 
4(-1)->1 2 3 5 6 7 8 9 10 11 12 13 14 15 16 17 18 19 20 21 22 23 24 25 26 27 28 29 30 31 32 33 34 35 36 37 38 39 
6(-1)->1 2 3 4 5 7 8 9 10 11 12 13 14 15 16 17 18 19 20 21 22 23 24 25 26 27 28 29 30 31 32 33 34 35 36 37 38 39 
8(-1)->1 2 3 4 5 6 7 9 10 11 12 13 14 15 16 17 18 19 20 21 22 23 24 25 26 27 28 29 30 31 32 33 34 35 37 38 39 40 
9(-1)->1 2 3 4 5 6 7 8 10 11 12 13 14 15 16 17 18 19 20 21 22 23 24 25 26 27 28 29 30 31 32 33 34 35 37 38 39 
10(-1)->1 2 3 4 5 6 7 8 9 11 12 13 14 15 16 17 18 19 20 21 22 23 24 26 27 28 29 31 32 33 34 38 39 
12(-1)->1 2 3 4 5 6 7 8 9 10 11 13 14 15 16 17 18 19 22 24 25 27 28 29 30 33 35 36 37 38 39 40 
15(-1)->1 2 3 4 5 6 7 8 9 10 11 12 13 14 16 17 18 19 23 24 26 29 30 31 32 33 34 35 36 37 38 39 
18(-1)->1 2 3 4 5 6 7 8 9 10 11 12 13 14 15 16 17 19 20 21 23 24 25 27 31 33 34 35 37 38 39 40 
27(-1)->1 2 3 4 5 6 7 8 9 10 11 12 13 14 16 17 18 19 21 22 23 25 26 28 29 30 33 34 35 36 37 38 
11(-1)->1 2 3 4 5 6 7 8 9 10 12 13 14 15 16 17 18 19 20 21 23 24 25 26 27 29 30 33 38 39 40 
16(-1)->1 2 3 4 5 6 7 8 9 10 11 12 13 14 15 17 18 19 20 21 24 25 26 27 28 29 31 32 33 35 37 
14(-1)->1 2 3 4 5 6 7 8 9 10 11 12 13 15 16 17 18 19 20 21 22 24 27 29 30 33 34 35 37 39 
26(-1)->1 2 3 4 5 6 7 8 9 10 11 13 15 16 19 21 22 23 24 25 27 28 29 30 31 32 33 36 37 40 
29(-1)->1 2 3 4 5 6 7 8 9 10 11 12 13 14 15 16 20 21 23 24 25 26 27 28 32 33 34 36 37 40 
19(-1)->1 2 3 4 5 6 7 8 9 10 11 12 13 14 15 16 17 18 20 23 24 26 27 30 31 33 35 36 38 
24(-1)->1 2 3 4 5 6 7 8 9 10 11 12 14 15 16 17 18 19 22 25 26 28 29 34 35 36 37 39 40 
33(-1)->1 2 3 4 5 6 7 8 9 10 11 12 13 14 15 16 17 18 19 20 21 22 26 27 28 29 31 34 39 
35(-1)->1 2 3 4 5 6 7 8 9 12 14 15 16 17 18 19 22 23 24 25 27 28 30 31 34 37 38 39 
37(-1)->1 2 3 4 5 6 7 8 9 12 14 15 16 18 21 22 23 24 25 26 27 28 29 30 31 32 34 35 
13(-1)->1 2 3 4 5 6 7 8 9 10 11 12 14 15 16 17 18 19 22 26 27 29 31 33 38 39 40 
17(-1)->1 2 3 4 5 6 7 8 9 10 11 12 13 14 15 16 18 19 20 21 23 24 27 28 33 35 40 
22(-1)->1 2 3 4 5 6 7 8 9 10 12 13 14 23 24 25 26 27 28 30 31 33 34 35 36 37 40 
23(-1)->1 2 3 4 5 6 7 8 9 10 11 15 17 18 19 22 25 26 27 28 29 32 34 35 36 37 39 
28(-1)->1 2 3 4 5 6 7 8 9 10 12 16 17 21 22 23 24 25 26 27 29 32 33 35 37 40 
34(-1)->1 2 3 4 5 6 7 8 9 10 14 15 18 20 22 23 24 27 29 31 32 33 35 36 37 38 
21(-1)->1 2 3 4 5 6 7 8 9 10 11 14 16 17 18 25 26 27 28 29 32 33 36 37 39 
25(-1)->1 2 3 4 5 6 7 8 9 11 12 16 18 21 22 23 24 26 27 28 29 30 35 37 38 
30(-1)->1 2 3 4 5 6 7 8 9 11 12 14 15 19 20 22 25 26 27 31 32 35 36 37 39 
31(-1)->1 2 3 4 5 6 7 8 9 10 13 15 16 18 19 22 26 30 33 34 35 36 37 39 40 
39(-1)->1 2 3 4 5 6 7 8 9 10 11 12 13 14 15 18 21 23 24 30 31 32 33 35 40 
32(-1)->1 2 3 4 5 6 7 8 9 10 15 16 20 21 23 26 28 29 30 34 36 37 38 39 
20(-1)->1 2 3 4 5 6 7 8 9 10 11 14 16 17 18 19 29 30 32 33 34 36 40 
36(-1)->1 2 3 4 5 6 7 12 15 19 20 21 22 23 24 26 27 29 30 31 32 34 40 
38(-1)->1 2 3 4 5 6 7 8 9 10 11 12 13 15 18 19 25 27 32 34 35 40 
40(-1)->1 2 3 5 7 8 11 12 13 17 18 20 22 24 26 28 29 31 36 38 39 
-------
CONNECTEDS size: 1
1(0)->2 3 4 5 6 7 8 9 10 11 12 13 14 15 16 17 18 19 20 21 22 23 24 25 26 27 28 29 30 31 32 33 34 35 36 37 38 39 40 
2(1)->1 3 4 5 6 7 8 9 10 11 12 13 14 15 16 17 18 19 20 21 22 23 24 25 26 27 28 29 30 31 32 33 34 35 36 37 38 39 40 
3(2)->1 2 4 5 6 7 8 9 10 11 12 13 14 15 16 17 18 19 20 21 22 23 24 25 26 27 28 29 30 31 32 33 34 35 36 37 38 39 40 
4(5)->1 2 3 5 6 7 8 9 10 11 12 13 14 15 16 17 18 19 20 21 22 23 24 25 26 27 28 29 30 31 32 33 34 35 36 37 38 39 
5(3)->1 2 3 4 6 7 8 9 10 11 12 13 14 15 16 17 18 19 20 21 22 23 24 25 26 27 28 29 30 31 32 33 34 35 36 37 38 39 40 
6(6)->1 2 3 4 5 7 8 9 10 11 12 13 14 15 16 17 18 19 20 21 22 23 24 25 26 27 28 29 30 31 32 33 34 35 36 37 38 39 
7(4)->1 2 3 4 5 6 8 9 10 11 12 13 14 15 16 17 18 19 20 21 22 23 24 25 26 27 28 29 30 31 32 33 34 35 36 37 38 39 40 
8(7)->1 2 3 4 5 6 7 9 10 11 12 13 14 15 16 17 18 19 20 21 22 23 24 25 26 27 28 29 30 31 32 33 34 35 37 38 39 40 
9(8)->1 2 3 4 5 6 7 8 10 11 12 13 14 15 16 17 18 19 20 21 22 23 24 25 26 27 28 29 30 31 32 33 34 35 37 38 39 
10(9)->1 2 3 4 5 6 7 8 9 11 12 13 14 15 16 17 18 19 20 21 22 23 24 26 27 28 29 31 32 33 34 38 39 
11(13)->1 2 3 4 5 6 7 8 9 10 12 13 14 15 16 17 18 19 20 21 23 24 25 26 27 29 30 33 38 39 40 
12(10)->1 2 3 4 5 6 7 8 9 10 11 13 14 15 16 17 18 19 22 24 25 27 28 29 30 33 35 36 37 38 39 40 
13(18)->1 2 3 4 5 6 7 8 9 10 11 12 14 15 16 17 18 19 22 26 27 29 31 33 38 39 40 
14(15)->1 2 3 4 5 6 7 8 9 10 11 12 13 15 16 17 18 19 20 21 22 24 27 29 30 33 34 35 37 39 
15(11)->1 2 3 4 5 6 7 8 9 10 11 12 13 14 16 17 18 19 23 24 26 29 30 31 32 33 34 35 36 37 38 39 
16(14)->1 2 3 4 5 6 7 8 9 10 11 12 13 14 15 17 18 19 20 21 24 25 26 27 28 29 31 32 33 35 37 
17(19)->1 2 3 4 5 6 7 8 9 10 11 12 13 14 15 16 18 19 20 21 23 24 27 28 33 35 40 
18(12)->1 2 3 4 5 6 7 8 9 10 11 12 13 14 15 16 17 19 20 21 23 24 25 27 31 33 34 35 37 38 39 40 
19(16)->1 2 3 4 5 6 7 8 9 10 11 12 13 14 15 16 17 18 20 23 24 26 27 30 31 33 35 36 38 
20(11)->1 2 3 4 5 6 7 8 9 10 11 14 16 17 18 19 29 30 32 33 34 36 40 
21(16)->1 2 3 4 5 6 7 8 9 10 11 14 16 17 18 25 26 27 28 29 32 33 36 37 39 
22(12)->1 2 3 4 5 6 7 8 9 10 12 13 14 23 24 25 26 27 28 30 31 33 34 35 36 37 40 
23(14)->1 2 3 4 5 6 7 8 9 10 11 15 17 18 19 22 25 26 27 28 29 32 34 35 36 37 39 
24(17)->1 2 3 4 5 6 7 8 9 10 11 12 14 15 16 17 18 19 22 25 26 28 29 34 35 36 37 39 40 
25(18)->1 2 3 4 5 6 7 8 9 11 12 16 18 21 22 23 24 26 27 28 29 30 35 37 38 
26(10)->1 2 3 4 5 6 7 8 9 10 11 13 15 16 19 21 22 23 24 25 27 28 29 30 31 32 33 36 37 40 
27(11)->1 2 3 4 5 6 7 8 9 10 11 12 13 14 16 17 18 19 21 22 23 25 26 28 29 30 33 34 35 36 37 38 
28(15)->1 2 3 4 5 6 7 8 9 10 12 16 17 21 22 23 24 25 26 27 29 32 33 35 37 40 
29(12)->1 2 3 4 5 6 7 8 9 10 11 12 13 14 15 16 20 21 23 24 25 26 27 28 32 33 34 36 37 40 
30(14)->1 2 3 4 5 6 7 8 9 11 12 14 15 19 20 22 25 26 27 31 32 35 36 37 39 
31(15)->1 2 3 4 5 6 7 8 9 10 13 15 16 18 19 22 26 30 33 34 35 36 37 39 40 
32(17)->1 2 3 4 5 6 7 8 9 10 15 16 20 21 23 26 28 29 30 34 36 37 38 39 
33(17)->1 2 3 4 5 6 7 8 9 10 11 12 13 14 15 16 17 18 19 20 21 22 26 27 28 29 31 34 39 
34(10)->1 2 3 4 5 6 7 8 9 10 14 15 18 20 22 23 24 27 29 31 32 33 35 36 37 38 
35(9)->1 2 3 4 5 6 7 8 9 12 14 15 16 17 18 19 22 23 24 25 27 28 30 31 34 37 38 39 
36(7)->1 2 3 4 5 6 7 12 15 19 20 21 22 23 24 26 27 29 30 31 32 34 40 
37(13)->1 2 3 4 5 6 7 8 9 12 14 15 16 18 21 22 23 24 25 26 27 28 29 30 31 32 34 35 
38(14)->1 2 3 4 5 6 7 8 9 10 11 12 13 15 18 19 25 27 32 34 35 40 
39(19)->1 2 3 4 5 6 7 8 9 10 11 12 13 14 15 18 21 23 24 30 31 32 33 35 40 
40(5)->1 2 3 5 7 8 11 12 13 17 18 20 22 24 26 28 29 31 36 38 39 
COUNT: 425
COLORS: 20
EDGES: 600
20
425
