START TIME: 1433711274
1: 2 3 4 5 6 7 8 9 10 11 12 13 14 15 16 17 18 19 20 21 22 23 24 25 26 27 28 29 30 31 32 33 34 35 36 37 38 39 40
2: 1 3 4 5 6 7 8 9 10 11 12 13 14 15 16 17 18 19 20 21 22 23 24 25 26 27 28 29 30 31 32 33 34 35 36 37 38 39 40
3: 1 2 4 5 6 7 8 9 10 11 12 13 14 15 16 17 18 19 20 21 22 23 24 25 26 27 28 29 30 31 32 33 34 35 36 37 38 39 40
4: 1 2 3 5 6 7 8 9 10 11 12 13 14 15 16 17 18 19 20 21 22 23 24 25 26 27 28 29 30 31 32 33 35 36 37 38 39 40
5: 1 2 3 4 6 7 8 9 10 11 12 13 14 15 16 17 18 19 20 21 22 24 25 26 27 28 29 30 31 32 34 36 37 39
6: 1 2 3 4 5 7 8 9 10 11 12 13 14 15 16 17 18 19 20 21 24 25 26 27 28 29 30 31 33 37 39 40
7: 1 2 3 4 5 6 8 9 10 11 12 13 14 15 16 17 18 19 20 25 26 28 29 30 31 33 34 37 38 39 40
8: 1 2 3 4 5 6 7 9 10 11 12 13 14 16 17 18 19 22 23 24 25 26 28 29 30 31 34 36 37 38 39
9: 1 2 3 4 5 6 7 8 10 11 12 13 14 16 17 18 19 20 22 23 24 25 27 28 29 30 31 34 37 40
10: 1 2 3 4 5 6 7 8 9 11 12 13 15 16 17 18 22 24 25 27 28 29 30 31 35 39
11: 1 2 3 4 5 6 7 8 9 10 12 13 14 15 16 17 18 21 23 24 26 28 34 35 40
12: 1 2 3 4 5 6 7 8 9 10 11 13 17 18 19 24 25 26 30 32 34 36 37 38 40
13: 1 2 3 4 5 6 7 8 9 10 11 12 14 16 17 18 20 21 23 25 26 27 28 30 34 36 40
14: 1 2 3 4 5 6 7 8 9 11 13 15 16 17 18 20 21 27 28 29 31 35 36 37 39
15: 1 2 3 4 5 6 7 10 11 14 16 17 18 20 21 22 25 27 29 30 32 33 34 36 37 38 39 40
16: 1 2 3 4 5 6 7 8 9 10 11 13 14 15 17 18 20 21 22 23 27 28 31 34 38
17: 1 2 3 4 5 6 7 8 9 10 11 12 13 14 15 16 18 19 21 23 25 30 37 38 40
18: 1 2 3 4 5 6 7 8 9 10 11 12 13 14 15 16 17 19 24 25 26 27 28 29 30 34 35 37 38
19: 1 2 3 4 5 6 7 8 9 12 17 18 20 22 24 25 26 28 29 30 32 35 37
20: 1 2 3 4 5 6 7 9 13 14 15 16 19 22 23 24 25 26 29 30 34 35 38 40
21: 1 2 3 4 5 6 11 13 14 15 16 17 22 23 25 28 29 30 31 33 34 35 36 37
22: 1 2 3 4 5 8 9 10 15 16 19 20 21 24 26 27 28 33 34 38 39 40
23: 1 34 3 36 38 39 8 9 11 13 16 17 20 21 4 2 25 27 28 29 30
24: 1 2 3 4 5 6 8 9 10 11 12 18 19 20 22 26 27 28 29 30 32 33 35 36 37 38 40
25: 1 2 3 4 5 6 7 8 9 10 12 13 15 17 18 19 20 21 23 26 27 28 32 33 35 36 38 39
26: 32 1 2 3 36 5 6 39 8 11 12 13 18 19 20 22 4 24 25 7 30
27: 1 2 3 4 5 6 9 10 13 14 15 16 18 22 23 24 25 29 33 34 35 38 39
28: 1 2 3 4 5 6 7 8 9 10 11 13 14 16 18 19 21 22 23 24 25 34 37 39 40
29: 1 2 3 4 5 6 7 8 9 10 14 15 18 19 20 21 23 24 27 30 31 32 38 39 40
30: 1 2 3 4 5 6 7 8 9 10 12 13 15 17 18 19 20 21 23 24 26 29 32 37 38 40
31: 33 2 3 36 38 6 39 8 9 1 7 14 16 10 21 4 29 5
32: 3 1 2 35 4 37 39 40 12 15 19 24 25 26 5 29 30 36
33: 1 34 3 36 6 7 2 15 21 22 24 25 27 4 31
34: 33 2 3 1 5 7 8 9 11 12 13 15 16 18 20 21 22 23 27 28 37
35: 32 1 2 3 4 37 38 39 40 10 11 14 18 19 20 21 24 25 27
36: 32 33 2 3 4 37 1 8 12 13 14 15 40 21 23 24 25 26 5 31
37: 1 2 3 4 5 6 7 8 9 12 14 15 17 18 19 21 24 28 30 32 34 35 36 38 40
38: 1 2 3 4 7 8 12 15 16 17 18 20 22 23 24 25 27 29 30 31 35 37 40
39: 32 1 2 35 4 5 6 7 8 10 14 15 3 22 23 25 26 27 28 29 31
40: 1 2 3 4 6 7 9 11 12 13 15 17 20 22 24 28 29 30 32 35 36 37 38
-------
1(-1)->2 3 4 5 6 7 8 9 10 11 12 13 14 15 16 17 18 19 20 21 22 23 24 25 26 27 28 29 30 31 32 33 34 35 36 37 38 39 40 
2(-1)->1 3 4 5 6 7 8 9 10 11 12 13 14 15 16 17 18 19 20 21 22 23 24 25 26 27 28 29 30 31 32 33 34 35 36 37 38 39 40 
3(-1)->1 2 4 5 6 7 8 9 10 11 12 13 14 15 16 17 18 19 20 21 22 23 24 25 26 27 28 29 30 31 32 33 34 35 36 37 38 39 40 
4(-1)->1 2 3 5 6 7 8 9 10 11 12 13 14 15 16 17 18 19 20 21 22 23 24 25 26 27 28 29 30 31 32 33 35 36 37 38 39 40 
5(-1)->1 2 3 4 6 7 8 9 10 11 12 13 14 15 16 17 18 19 20 21 22 24 25 26 27 28 29 30 31 32 34 36 37 39 
6(-1)->1 2 3 4 5 7 8 9 10 11 12 13 14 15 16 17 18 19 20 21 24 25 26 27 28 29 30 31 33 37 39 40 
7(-1)->1 2 3 4 5 6 8 9 10 11 12 13 14 15 16 17 18 19 20 25 26 28 29 30 31 33 34 37 38 39 40 
8(-1)->1 2 3 4 5 6 7 9 10 11 12 13 14 16 17 18 19 22 23 24 25 26 28 29 30 31 34 36 37 38 39 
9(-1)->1 2 3 4 5 6 7 8 10 11 12 13 14 16 17 18 19 20 22 23 24 25 27 28 29 30 31 34 37 40 
10(-1)->1 2 3 4 5 6 7 8 9 11 12 13 15 16 17 18 22 24 25 27 28 29 30 31 35 39 
11(-1)->1 2 3 4 5 6 7 8 9 10 12 13 14 15 16 17 18 21 23 24 26 28 34 35 40 
12(-1)->1 2 3 4 5 6 7 8 9 10 11 13 17 18 19 24 25 26 30 32 34 36 37 38 40 
13(-1)->1 2 3 4 5 6 7 8 9 10 11 12 14 16 17 18 20 21 23 25 26 27 28 30 34 36 40 
14(-1)->1 2 3 4 5 6 7 8 9 11 13 15 16 17 18 20 21 27 28 29 31 35 36 37 39 
15(-1)->1 2 3 4 5 6 7 10 11 14 16 17 18 20 21 22 25 27 29 30 32 33 34 36 37 38 39 40 
16(-1)->1 2 3 4 5 6 7 8 9 10 11 13 14 15 17 18 20 21 22 23 27 28 31 34 38 
17(-1)->1 2 3 4 5 6 7 8 9 10 11 12 13 14 15 16 18 19 21 23 25 30 37 38 40 
18(-1)->1 2 3 4 5 6 7 8 9 10 11 12 13 14 15 16 17 19 24 25 26 27 28 29 30 34 35 37 38 
19(-1)->1 2 3 4 5 6 7 8 9 12 17 18 20 22 24 25 26 28 29 30 32 35 37 
20(-1)->1 2 3 4 5 6 7 9 13 14 15 16 19 22 23 24 25 26 29 30 34 35 38 40 
21(-1)->1 2 3 4 5 6 11 13 14 15 16 17 22 23 25 28 29 30 31 33 34 35 36 37 
22(-1)->1 2 3 4 5 8 9 10 15 16 19 20 21 24 26 27 28 33 34 38 39 40 
23(-1)->1 2 3 4 8 9 11 13 16 17 20 21 25 27 28 29 30 34 36 38 39 
24(-1)->1 2 3 4 5 6 8 9 10 11 12 18 19 20 22 26 27 28 29 30 32 33 35 36 37 38 40 
25(-1)->1 2 3 4 5 6 7 8 9 10 12 13 15 17 18 19 20 21 23 26 27 28 32 33 35 36 38 39 
26(-1)->1 2 3 4 5 6 7 8 11 12 13 18 19 20 22 24 25 30 32 36 39 
27(-1)->1 2 3 4 5 6 9 10 13 14 15 16 18 22 23 24 25 29 33 34 35 38 39 
28(-1)->1 2 3 4 5 6 7 8 9 10 11 13 14 16 18 19 21 22 23 24 25 34 37 39 40 
29(-1)->1 2 3 4 5 6 7 8 9 10 14 15 18 19 20 21 23 24 27 30 31 32 38 39 40 
30(-1)->1 2 3 4 5 6 7 8 9 10 12 13 15 17 18 19 20 21 23 24 26 29 32 37 38 40 
31(-1)->1 2 3 4 5 6 7 8 9 10 14 16 21 29 33 36 38 39 
32(-1)->1 2 3 4 5 12 15 19 24 25 26 29 30 35 36 37 39 40 
33(-1)->1 2 3 4 6 7 15 21 22 24 25 27 31 34 36 
34(-1)->1 2 3 5 7 8 9 11 12 13 15 16 18 20 21 22 23 27 28 33 37 
35(-1)->1 2 3 4 10 11 14 18 19 20 21 24 25 27 32 37 38 39 40 
36(-1)->1 2 3 4 5 8 12 13 14 15 21 23 24 25 26 31 32 33 37 40 
37(-1)->1 2 3 4 5 6 7 8 9 12 14 15 17 18 19 21 24 28 30 32 34 35 36 38 40 
38(-1)->1 2 3 4 7 8 12 15 16 17 18 20 22 23 24 25 27 29 30 31 35 37 40 
39(-1)->1 2 3 4 5 6 7 8 10 14 15 22 23 25 26 27 28 29 31 32 35 
40(-1)->1 2 3 4 6 7 9 11 12 13 15 17 20 22 24 28 29 30 32 35 36 37 38 
-------
Node 1 maps to position 0
Node 2 maps to position 1
Node 3 maps to position 2
Node 4 maps to position 3
Node 5 maps to position 4
Node 6 maps to position 5
Node 7 maps to position 6
Node 8 maps to position 7
Node 9 maps to position 8
Node 18 maps to position 9
Node 15 maps to position 10
Node 25 maps to position 11
Node 13 maps to position 12
Node 24 maps to position 13
Node 10 maps to position 14
Node 30 maps to position 15
Node 11 maps to position 16
Node 12 maps to position 17
Node 14 maps to position 18
Node 16 maps to position 19
Node 17 maps to position 20
Node 28 maps to position 21
Node 29 maps to position 22
Node 37 maps to position 23
Node 20 maps to position 24
Node 21 maps to position 25
Node 19 maps to position 26
Node 27 maps to position 27
Node 38 maps to position 28
Node 40 maps to position 29
Node 22 maps to position 30
Node 23 maps to position 31
Node 26 maps to position 32
Node 34 maps to position 33
Node 39 maps to position 34
Node 36 maps to position 35
Node 35 maps to position 36
Node 31 maps to position 37
Node 32 maps to position 38
Node 33 maps to position 39
1(-1)->2 3 4 5 6 7 8 9 10 11 12 13 14 15 16 17 18 19 20 21 22 23 24 25 26 27 28 29 30 31 32 33 34 35 36 37 38 39 40 
2(-1)->1 3 4 5 6 7 8 9 10 11 12 13 14 15 16 17 18 19 20 21 22 23 24 25 26 27 28 29 30 31 32 33 34 35 36 37 38 39 40 
3(-1)->1 2 4 5 6 7 8 9 10 11 12 13 14 15 16 17 18 19 20 21 22 23 24 25 26 27 28 29 30 31 32 33 34 35 36 37 38 39 40 
4(-1)->1 2 3 5 6 7 8 9 10 11 12 13 14 15 16 17 18 19 20 21 22 23 24 25 26 27 28 29 30 31 32 33 35 36 37 38 39 40 
5(-1)->1 2 3 4 6 7 8 9 10 11 12 13 14 15 16 17 18 19 20 21 22 24 25 26 27 28 29 30 31 32 34 36 37 39 
6(-1)->1 2 3 4 5 7 8 9 10 11 12 13 14 15 16 17 18 19 20 21 24 25 26 27 28 29 30 31 33 37 39 40 
7(-1)->1 2 3 4 5 6 8 9 10 11 12 13 14 15 16 17 18 19 20 25 26 28 29 30 31 33 34 37 38 39 40 
8(-1)->1 2 3 4 5 6 7 9 10 11 12 13 14 16 17 18 19 22 23 24 25 26 28 29 30 31 34 36 37 38 39 
9(-1)->1 2 3 4 5 6 7 8 10 11 12 13 14 16 17 18 19 20 22 23 24 25 27 28 29 30 31 34 37 40 
18(-1)->1 2 3 4 5 6 7 8 9 10 11 12 13 14 15 16 17 19 24 25 26 27 28 29 30 34 35 37 38 
15(-1)->1 2 3 4 5 6 7 10 11 14 16 17 18 20 21 22 25 27 29 30 32 33 34 36 37 38 39 40 
25(-1)->1 2 3 4 5 6 7 8 9 10 12 13 15 17 18 19 20 21 23 26 27 28 32 33 35 36 38 39 
13(-1)->1 2 3 4 5 6 7 8 9 10 11 12 14 16 17 18 20 21 23 25 26 27 28 30 34 36 40 
24(-1)->1 2 3 4 5 6 8 9 10 11 12 18 19 20 22 26 27 28 29 30 32 33 35 36 37 38 40 
10(-1)->1 2 3 4 5 6 7 8 9 11 12 13 15 16 17 18 22 24 25 27 28 29 30 31 35 39 
30(-1)->1 2 3 4 5 6 7 8 9 10 12 13 15 17 18 19 20 21 23 24 26 29 32 37 38 40 
11(-1)->1 2 3 4 5 6 7 8 9 10 12 13 14 15 16 17 18 21 23 24 26 28 34 35 40 
12(-1)->1 2 3 4 5 6 7 8 9 10 11 13 17 18 19 24 25 26 30 32 34 36 37 38 40 
14(-1)->1 2 3 4 5 6 7 8 9 11 13 15 16 17 18 20 21 27 28 29 31 35 36 37 39 
16(-1)->1 2 3 4 5 6 7 8 9 10 11 13 14 15 17 18 20 21 22 23 27 28 31 34 38 
17(-1)->1 2 3 4 5 6 7 8 9 10 11 12 13 14 15 16 18 19 21 23 25 30 37 38 40 
28(-1)->1 2 3 4 5 6 7 8 9 10 11 13 14 16 18 19 21 22 23 24 25 34 37 39 40 
29(-1)->1 2 3 4 5 6 7 8 9 10 14 15 18 19 20 21 23 24 27 30 31 32 38 39 40 
37(-1)->1 2 3 4 5 6 7 8 9 12 14 15 17 18 19 21 24 28 30 32 34 35 36 38 40 
20(-1)->1 2 3 4 5 6 7 9 13 14 15 16 19 22 23 24 25 26 29 30 34 35 38 40 
21(-1)->1 2 3 4 5 6 11 13 14 15 16 17 22 23 25 28 29 30 31 33 34 35 36 37 
19(-1)->1 2 3 4 5 6 7 8 9 12 17 18 20 22 24 25 26 28 29 30 32 35 37 
27(-1)->1 2 3 4 5 6 9 10 13 14 15 16 18 22 23 24 25 29 33 34 35 38 39 
38(-1)->1 2 3 4 7 8 12 15 16 17 18 20 22 23 24 25 27 29 30 31 35 37 40 
40(-1)->1 2 3 4 6 7 9 11 12 13 15 17 20 22 24 28 29 30 32 35 36 37 38 
22(-1)->1 2 3 4 5 8 9 10 15 16 19 20 21 24 26 27 28 33 34 38 39 40 
23(-1)->1 2 3 4 8 9 11 13 16 17 20 21 25 27 28 29 30 34 36 38 39 
26(-1)->1 2 3 4 5 6 7 8 11 12 13 18 19 20 22 24 25 30 32 36 39 
34(-1)->1 2 3 5 7 8 9 11 12 13 15 16 18 20 21 22 23 27 28 33 37 
39(-1)->1 2 3 4 5 6 7 8 10 14 15 22 23 25 26 27 28 29 31 32 35 
36(-1)->1 2 3 4 5 8 12 13 14 15 21 23 24 25 26 31 32 33 37 40 
35(-1)->1 2 3 4 10 11 14 18 19 20 21 24 25 27 32 37 38 39 40 
31(-1)->1 2 3 4 5 6 7 8 9 10 14 16 21 29 33 36 38 39 
32(-1)->1 2 3 4 5 12 15 19 24 25 26 29 30 35 36 37 39 40 
33(-1)->1 2 3 4 6 7 15 21 22 24 25 27 31 34 36 
-------
CONNECTEDS size: 1
1(0)->2 3 4 5 6 7 8 9 10 11 12 13 14 15 16 17 18 19 20 21 22 23 24 25 26 27 28 29 30 31 32 33 34 35 36 37 38 39 40 
2(1)->1 3 4 5 6 7 8 9 10 11 12 13 14 15 16 17 18 19 20 21 22 23 24 25 26 27 28 29 30 31 32 33 34 35 36 37 38 39 40 
3(2)->1 2 4 5 6 7 8 9 10 11 12 13 14 15 16 17 18 19 20 21 22 23 24 25 26 27 28 29 30 31 32 33 34 35 36 37 38 39 40 
4(3)->1 2 3 5 6 7 8 9 10 11 12 13 14 15 16 17 18 19 20 21 22 23 24 25 26 27 28 29 30 31 32 33 35 36 37 38 39 40 
5(4)->1 2 3 4 6 7 8 9 10 11 12 13 14 15 16 17 18 19 20 21 22 24 25 26 27 28 29 30 31 32 34 36 37 39 
6(5)->1 2 3 4 5 7 8 9 10 11 12 13 14 15 16 17 18 19 20 21 24 25 26 27 28 29 30 31 33 37 39 40 
7(6)->1 2 3 4 5 6 8 9 10 11 12 13 14 15 16 17 18 19 20 25 26 28 29 30 31 33 34 37 38 39 40 
8(7)->1 2 3 4 5 6 7 9 10 11 12 13 14 16 17 18 19 22 23 24 25 26 28 29 30 31 34 36 37 38 39 
9(8)->1 2 3 4 5 6 7 8 10 11 12 13 14 16 17 18 19 20 22 23 24 25 27 28 29 30 31 34 37 40 
10(12)->1 2 3 4 5 6 7 8 9 11 12 13 15 16 17 18 22 24 25 27 28 29 30 31 35 39 
11(10)->1 2 3 4 5 6 7 8 9 10 12 13 14 15 16 17 18 21 23 24 26 28 34 35 40 
12(13)->1 2 3 4 5 6 7 8 9 10 11 13 17 18 19 24 25 26 30 32 34 36 37 38 40 
13(11)->1 2 3 4 5 6 7 8 9 10 11 12 14 16 17 18 20 21 23 25 26 27 28 30 34 36 40 
14(12)->1 2 3 4 5 6 7 8 9 11 13 15 16 17 18 20 21 27 28 29 31 35 36 37 39 
15(7)->1 2 3 4 5 6 7 10 11 14 16 17 18 20 21 22 25 27 29 30 32 33 34 36 37 38 39 40 
16(13)->1 2 3 4 5 6 7 8 9 10 11 13 14 15 17 18 20 21 22 23 27 28 31 34 38 
17(14)->1 2 3 4 5 6 7 8 9 10 11 12 13 14 15 16 18 19 21 23 25 30 37 38 40 
18(9)->1 2 3 4 5 6 7 8 9 10 11 12 13 14 15 16 17 19 24 25 26 27 28 29 30 34 35 37 38 
19(12)->1 2 3 4 5 6 7 8 9 12 17 18 20 22 24 25 26 28 29 30 32 35 37 
20(9)->1 2 3 4 5 6 7 9 13 14 15 16 19 22 23 24 25 26 29 30 34 35 38 40 
21(6)->1 2 3 4 5 6 11 13 14 15 16 17 22 23 25 28 29 30 31 33 34 35 36 37 
22(5)->1 2 3 4 5 8 9 10 15 16 19 20 21 24 26 27 28 33 34 38 39 40 
23(5)->1 2 3 4 8 9 11 13 16 17 20 21 25 27 28 29 30 34 36 38 39 
24(6)->1 2 3 4 5 6 8 9 10 11 12 18 19 20 22 26 27 28 29 30 32 33 35 36 37 38 40 
25(10)->1 2 3 4 5 6 7 8 9 10 12 13 15 17 18 19 20 21 23 26 27 28 32 33 35 36 38 39 
26(8)->1 2 3 4 5 6 7 8 11 12 13 18 19 20 22 24 25 30 32 36 39 
27(14)->1 2 3 4 5 6 9 10 13 14 15 16 18 22 23 24 25 29 33 34 35 38 39 
28(14)->1 2 3 4 5 6 7 8 9 10 11 13 14 16 18 19 21 22 23 24 25 34 37 39 40 
29(11)->1 2 3 4 5 6 7 8 9 10 14 15 18 19 20 21 23 24 27 30 31 32 38 39 40 
30(10)->1 2 3 4 5 6 7 8 9 10 12 13 15 17 18 19 20 21 23 24 26 29 32 37 38 40 
31(10)->1 2 3 4 5 6 7 8 9 10 14 16 21 29 33 36 38 39 
32(14)->1 2 3 4 5 12 15 19 24 25 26 29 30 35 36 37 39 40 
33(4)->1 2 3 4 6 7 15 21 22 24 25 27 31 34 36 
34(3)->1 2 3 5 7 8 9 11 12 13 15 16 18 20 21 22 23 27 28 33 37 
35(5)->1 2 3 4 10 11 14 18 19 20 21 24 25 27 32 37 38 39 40 
36(9)->1 2 3 4 5 8 12 13 14 15 21 23 24 25 26 31 32 33 37 40 
37(11)->1 2 3 4 5 6 7 8 9 12 14 15 17 18 19 21 24 28 30 32 34 35 36 38 40 
38(4)->1 2 3 4 7 8 12 15 16 17 18 20 22 23 24 25 27 29 30 31 35 37 40 
39(9)->1 2 3 4 5 6 7 8 10 14 15 22 23 25 26 27 28 29 31 32 35 
40(12)->1 2 3 4 6 7 9 11 12 13 15 17 20 22 24 28 29 30 32 35 36 37 38 
COUNT: 155
COLORS: 15
EDGES: 520
15
155
