START TIME: 1433711229
1: 2 29 6
2: 40 25 1 17
3: 18
4: 32 18
5: 8 25
6: 1 35 31
7: 19 9 27 33
8: 5
9: 24 7
10: 17 39
11: 25
12: 16
13: 14 22 38
14: 18 21 13
15: 36 23
16: 12
17: 2 10
18: 3 4 14 38 23
19: 27 7
20: 32 33
21: 14
22: 27 13
23: 18 15
24: 9 34
25: 11 2 35 5
26: 33
27: 19 28 22 7
28: 27
29: 1
30: 
31: 6
32: 20 4
33: 26 20 7
34: 24
35: 25 6
36: 15
37: 
38: 18 13
39: 40 10
40: 2 39
-------
1(-1)->2 6 29 
2(-1)->1 17 25 40 
3(-1)->18 
4(-1)->18 32 
5(-1)->8 25 
6(-1)->1 31 35 
7(-1)->9 19 27 33 
8(-1)->5 
9(-1)->7 24 
10(-1)->17 39 
11(-1)->25 
12(-1)->16 
13(-1)->14 22 38 
14(-1)->13 18 21 
15(-1)->23 36 
16(-1)->12 
17(-1)->2 10 
18(-1)->3 4 14 23 38 
19(-1)->7 27 
20(-1)->32 33 
21(-1)->14 
22(-1)->13 27 
23(-1)->15 18 
24(-1)->9 34 
25(-1)->2 5 11 35 
26(-1)->33 
27(-1)->7 19 22 28 
28(-1)->27 
29(-1)->1 
30(-1)->
31(-1)->6 
32(-1)->4 20 
33(-1)->7 20 26 
34(-1)->24 
35(-1)->6 25 
36(-1)->15 
37(-1)->
38(-1)->13 18 
39(-1)->10 40 
40(-1)->2 39 
-------
Node 18 maps to position 0
Node 2 maps to position 1
Node 7 maps to position 2
Node 25 maps to position 3
Node 27 maps to position 4
Node 1 maps to position 5
Node 6 maps to position 6
Node 13 maps to position 7
Node 14 maps to position 8
Node 33 maps to position 9
Node 4 maps to position 10
Node 5 maps to position 11
Node 9 maps to position 12
Node 10 maps to position 13
Node 15 maps to position 14
Node 17 maps to position 15
Node 19 maps to position 16
Node 20 maps to position 17
Node 22 maps to position 18
Node 23 maps to position 19
Node 24 maps to position 20
Node 32 maps to position 21
Node 35 maps to position 22
Node 38 maps to position 23
Node 39 maps to position 24
Node 40 maps to position 25
Node 3 maps to position 26
Node 8 maps to position 27
Node 11 maps to position 28
Node 12 maps to position 29
Node 16 maps to position 30
Node 21 maps to position 31
Node 26 maps to position 32
Node 28 maps to position 33
Node 29 maps to position 34
Node 31 maps to position 35
Node 34 maps to position 36
Node 36 maps to position 37
Node 30 maps to position 38
Node 37 maps to position 39
18(-1)->3 4 14 23 38 
2(-1)->1 17 25 40 
7(-1)->9 19 27 33 
25(-1)->2 5 11 35 
27(-1)->7 19 22 28 
1(-1)->2 6 29 
6(-1)->1 31 35 
13(-1)->14 22 38 
14(-1)->13 18 21 
33(-1)->7 20 26 
4(-1)->18 32 
5(-1)->8 25 
9(-1)->7 24 
10(-1)->17 39 
15(-1)->23 36 
17(-1)->2 10 
19(-1)->7 27 
20(-1)->32 33 
22(-1)->13 27 
23(-1)->15 18 
24(-1)->9 34 
32(-1)->4 20 
35(-1)->6 25 
38(-1)->13 18 
39(-1)->10 40 
40(-1)->2 39 
3(-1)->18 
8(-1)->5 
11(-1)->25 
12(-1)->16 
16(-1)->12 
21(-1)->14 
26(-1)->33 
28(-1)->27 
29(-1)->1 
31(-1)->6 
34(-1)->24 
36(-1)->15 
30(-1)->
37(-1)->
-------
CONNECTEDS size: 5
****************
****************
2(-1)->1 17 25 40 
25(-1)->2 5 11 35 
1(-1)->2 6 29 
6(-1)->1 31 35 
5(-1)->8 25 
10(-1)->17 39 
17(-1)->2 10 
35(-1)->6 25 
39(-1)->10 40 
40(-1)->2 39 
8(-1)->5 
11(-1)->25 
29(-1)->1 
31(-1)->6 
****************
18(-1)->3 4 14 23 38 
7(-1)->9 19 27 33 
27(-1)->7 19 22 28 
13(-1)->14 22 38 
14(-1)->13 18 21 
33(-1)->7 20 26 
4(-1)->18 32 
9(-1)->7 24 
15(-1)->23 36 
19(-1)->7 27 
20(-1)->32 33 
22(-1)->13 27 
23(-1)->15 18 
24(-1)->9 34 
32(-1)->4 20 
38(-1)->13 18 
3(-1)->18 
21(-1)->14 
26(-1)->33 
28(-1)->27 
34(-1)->24 
36(-1)->15 
****************
12(-1)->16 
16(-1)->12 
****************
30(-1)->
****************
37(-1)->
1(1)->2 6 29 
2(0)->1 17 25 40 
3(1)->18 
4(1)->18 32 
5(0)->8 25 
6(0)->1 31 35 
7(0)->9 19 27 33 
8(1)->5 
9(1)->7 24 
10(0)->17 39 
11(0)->25 
12(0)->16 
13(0)->14 22 38 
14(1)->13 18 21 
15(0)->23 36 
16(1)->12 
17(1)->2 10 
18(0)->3 4 14 23 38 
19(2)->7 27 
20(0)->32 33 
21(0)->14 
22(2)->13 27 
23(1)->15 18 
24(0)->9 34 
25(1)->2 5 11 35 
26(0)->33 
27(1)->7 19 22 28 
28(0)->27 
29(0)->1 
30(0)->
31(1)->6 
32(2)->4 20 
33(1)->7 20 26 
34(1)->24 
35(2)->6 25 
36(1)->15 
37(0)->
38(1)->13 18 
39(1)->10 40 
40(2)->2 39 
COUNT: 53
COLORS: 3
EDGES: 40
3
53
