START TIME: 1433711232
1: 2 3 4 5 6 7 8 9 10 11 12 13 14 15 16 17 18 19 20 21 22 23 24 25 26 29 30 33
2: 1 3 36 6 8 12 13 17 19 21 23 24 26
3: 1 2 6 38 13 16 18 27 28
4: 33 35 1 8 9 22 23 24 30
5: 1 34 39 9 10 11 13 14 19 21 24 28 29 30
6: 1 2 3 9 11 16 18 35 26 30
7: 32 1 36 38 12 22 27
8: 32 1 2 4 10 13 18 19 26 29
9: 32 1 4 5 6 39 17 24 27 28
10: 33 35 37 38 1 8 11 13 16 40 19 25 26 28 5
11: 33 35 5 38 1 10 15 16 19 6 37
12: 1 2 37 38 7 39
13: 32 1 2 3 5 8 10 34 17 27 28 31
14: 33 36 5 38 1 19 20 23
15: 33 1 37 38 39 11 16 28 31
16: 32 1 3 6 10 11 15 18 19 21 22 25
17: 1 2 34 38 39 40 9 13 28
18: 32 1 3 37 6 40 16 8 20 22 31
19: 1 2 5 8 10 11 14 16 22 26 29 31
20: 1 35 14 18 22 25 26 28
21: 32 1 34 35 5 38 2 16 28 37
22: 1 4 38 39 7 16 18 19 20 28 31
23: 1 2 35 4 39 14 24 36 27 29
24: 32 1 2 4 37 40 9 23 26 5
25: 1 35 37 10 16 20
26: 1 34 6 8 10 2 40 19 20 24 27 30 31
27: 3 38 7 9 13 23 26 30
28: 3 5 9 10 13 15 17 20 21 22
29: 1 5 38 39 8 19 23
30: 1 4 5 6 26 27
31: 38 13 15 18 19 22 26
32: 7 8 9 39 13 16 18 21 24
33: 1 4 39 10 11 14 15
34: 35 5 13 17 21 26
35: 34 4 37 38 10 11 20 21 23 25 6
36: 2 23 14 7
37: 35 38 10 11 12 15 18 21 24 25
38: 35 37 7 40 10 11 12 14 15 17 3 21 22 27 29 31
39: 32 33 5 9 12 15 17 22 23 29
40: 38 10 17 18 24 26
-------
1(-1)->2 3 4 5 6 7 8 9 10 11 12 13 14 15 16 17 18 19 20 21 22 23 24 25 26 29 30 33 
2(-1)->1 3 6 8 12 13 17 19 21 23 24 26 36 
3(-1)->1 2 6 13 16 18 27 28 38 
4(-1)->1 8 9 22 23 24 30 33 35 
5(-1)->1 9 10 11 13 14 19 21 24 28 29 30 34 39 
6(-1)->1 2 3 9 11 16 18 26 30 35 
7(-1)->1 12 22 27 32 36 38 
8(-1)->1 2 4 10 13 18 19 26 29 32 
9(-1)->1 4 5 6 17 24 27 28 32 39 
10(-1)->1 5 8 11 13 16 19 25 26 28 33 35 37 38 40 
11(-1)->1 5 6 10 15 16 19 33 35 37 38 
12(-1)->1 2 7 37 38 39 
13(-1)->1 2 3 5 8 10 17 27 28 31 32 34 
14(-1)->1 5 19 20 23 33 36 38 
15(-1)->1 11 16 28 31 33 37 38 39 
16(-1)->1 3 6 10 11 15 18 19 21 22 25 32 
17(-1)->1 2 9 13 28 34 38 39 40 
18(-1)->1 3 6 8 16 20 22 31 32 37 40 
19(-1)->1 2 5 8 10 11 14 16 22 26 29 31 
20(-1)->1 14 18 22 25 26 28 35 
21(-1)->1 2 5 16 28 32 34 35 37 38 
22(-1)->1 4 7 16 18 19 20 28 31 38 39 
23(-1)->1 2 4 14 24 27 29 35 36 39 
24(-1)->1 2 4 5 9 23 26 32 37 40 
25(-1)->1 10 16 20 35 37 
26(-1)->1 2 6 8 10 19 20 24 27 30 31 34 40 
27(-1)->3 7 9 13 23 26 30 38 
28(-1)->3 5 9 10 13 15 17 20 21 22 
29(-1)->1 5 8 19 23 38 39 
30(-1)->1 4 5 6 26 27 
31(-1)->13 15 18 19 22 26 38 
32(-1)->7 8 9 13 16 18 21 24 39 
33(-1)->1 4 10 11 14 15 39 
34(-1)->5 13 17 21 26 35 
35(-1)->4 6 10 11 20 21 23 25 34 37 38 
36(-1)->2 7 14 23 
37(-1)->10 11 12 15 18 21 24 25 35 38 
38(-1)->3 7 10 11 12 14 15 17 21 22 27 29 31 35 37 40 
39(-1)->5 9 12 15 17 22 23 29 32 33 
40(-1)->10 17 18 24 26 38 
-------
Node 1 maps to position 0
Node 38 maps to position 1
Node 10 maps to position 2
Node 5 maps to position 3
Node 2 maps to position 4
Node 26 maps to position 5
Node 13 maps to position 6
Node 16 maps to position 7
Node 19 maps to position 8
Node 11 maps to position 9
Node 18 maps to position 10
Node 22 maps to position 11
Node 35 maps to position 12
Node 6 maps to position 13
Node 8 maps to position 14
Node 9 maps to position 15
Node 21 maps to position 16
Node 23 maps to position 17
Node 24 maps to position 18
Node 28 maps to position 19
Node 37 maps to position 20
Node 39 maps to position 21
Node 3 maps to position 22
Node 4 maps to position 23
Node 15 maps to position 24
Node 17 maps to position 25
Node 32 maps to position 26
Node 14 maps to position 27
Node 20 maps to position 28
Node 27 maps to position 29
Node 7 maps to position 30
Node 29 maps to position 31
Node 31 maps to position 32
Node 33 maps to position 33
Node 12 maps to position 34
Node 25 maps to position 35
Node 30 maps to position 36
Node 34 maps to position 37
Node 40 maps to position 38
Node 36 maps to position 39
1(-1)->2 3 4 5 6 7 8 9 10 11 12 13 14 15 16 17 18 19 20 21 22 23 24 25 26 29 30 33 
38(-1)->3 7 10 11 12 14 15 17 21 22 27 29 31 35 37 40 
10(-1)->1 5 8 11 13 16 19 25 26 28 33 35 37 38 40 
5(-1)->1 9 10 11 13 14 19 21 24 28 29 30 34 39 
2(-1)->1 3 6 8 12 13 17 19 21 23 24 26 36 
26(-1)->1 2 6 8 10 19 20 24 27 30 31 34 40 
13(-1)->1 2 3 5 8 10 17 27 28 31 32 34 
16(-1)->1 3 6 10 11 15 18 19 21 22 25 32 
19(-1)->1 2 5 8 10 11 14 16 22 26 29 31 
11(-1)->1 5 6 10 15 16 19 33 35 37 38 
18(-1)->1 3 6 8 16 20 22 31 32 37 40 
22(-1)->1 4 7 16 18 19 20 28 31 38 39 
35(-1)->4 6 10 11 20 21 23 25 34 37 38 
6(-1)->1 2 3 9 11 16 18 26 30 35 
8(-1)->1 2 4 10 13 18 19 26 29 32 
9(-1)->1 4 5 6 17 24 27 28 32 39 
21(-1)->1 2 5 16 28 32 34 35 37 38 
23(-1)->1 2 4 14 24 27 29 35 36 39 
24(-1)->1 2 4 5 9 23 26 32 37 40 
28(-1)->3 5 9 10 13 15 17 20 21 22 
37(-1)->10 11 12 15 18 21 24 25 35 38 
39(-1)->5 9 12 15 17 22 23 29 32 33 
3(-1)->1 2 6 13 16 18 27 28 38 
4(-1)->1 8 9 22 23 24 30 33 35 
15(-1)->1 11 16 28 31 33 37 38 39 
17(-1)->1 2 9 13 28 34 38 39 40 
32(-1)->7 8 9 13 16 18 21 24 39 
14(-1)->1 5 19 20 23 33 36 38 
20(-1)->1 14 18 22 25 26 28 35 
27(-1)->3 7 9 13 23 26 30 38 
7(-1)->1 12 22 27 32 36 38 
29(-1)->1 5 8 19 23 38 39 
31(-1)->13 15 18 19 22 26 38 
33(-1)->1 4 10 11 14 15 39 
12(-1)->1 2 7 37 38 39 
25(-1)->1 10 16 20 35 37 
30(-1)->1 4 5 6 26 27 
34(-1)->5 13 17 21 26 35 
40(-1)->10 17 18 24 26 38 
36(-1)->2 7 14 23 
-------
CONNECTEDS size: 1
1(0)->2 3 4 5 6 7 8 9 10 11 12 13 14 15 16 17 18 19 20 21 22 23 24 25 26 29 30 33 
2(2)->1 3 6 8 12 13 17 19 21 23 24 26 36 
3(4)->1 2 6 13 16 18 27 28 38 
4(3)->1 8 9 22 23 24 30 33 35 
5(1)->1 9 10 11 13 14 19 21 24 28 29 30 34 39 
6(3)->1 2 3 9 11 16 18 26 30 35 
7(2)->1 12 22 27 32 36 38 
8(4)->1 2 4 10 13 18 19 26 29 32 
9(2)->1 4 5 6 17 24 27 28 32 39 
10(2)->1 5 8 11 13 16 19 25 26 28 33 35 37 38 40 
11(4)->1 5 6 10 15 16 19 33 35 37 38 
12(4)->1 2 7 37 38 39 
13(3)->1 2 3 5 8 10 17 27 28 31 32 34 
14(2)->1 5 19 20 23 33 36 38 
15(2)->1 11 16 28 31 33 37 38 39 
16(1)->1 3 6 10 11 15 18 19 21 22 25 32 
17(4)->1 2 9 13 28 34 38 39 40 
18(2)->1 3 6 8 16 20 22 31 32 37 40 
19(3)->1 2 5 8 10 11 14 16 22 26 29 31 
20(3)->1 14 18 22 25 26 28 35 
21(4)->1 2 5 16 28 32 34 35 37 38 
22(4)->1 4 7 16 18 19 20 28 31 38 39 
23(1)->1 2 4 14 24 27 29 35 36 39 
24(4)->1 2 4 5 9 23 26 32 37 40 
25(4)->1 10 16 20 35 37 
26(1)->1 2 6 8 10 19 20 24 27 30 31 34 40 
27(0)->3 7 9 13 23 26 30 38 
28(0)->3 5 9 10 13 15 17 20 21 22 
29(2)->1 5 8 19 23 38 39 
30(2)->1 4 5 6 26 27 
31(0)->13 15 18 19 22 26 38 
32(0)->7 8 9 13 16 18 21 24 39 
33(1)->1 4 10 11 14 15 39 
34(2)->5 13 17 21 26 35 
35(0)->4 6 10 11 20 21 23 25 34 37 38 
36(0)->2 7 14 23 
37(3)->10 11 12 15 18 21 24 25 35 38 
38(1)->3 7 10 11 12 14 15 17 21 22 27 29 31 35 37 40 
39(3)->5 9 12 15 17 22 23 29 32 33 
40(0)->10 17 18 24 26 38 
COUNT: 489
COLORS: 5
EDGES: 200
5
489
