START TIME: 1433711245
1: 2 3 4 5 6 7 8 9 10 11 12 13 14 15 16 17 18 19 20 21 22 23 24 25 26 27 28 29 30 31 32 33 34 35 36 37 38 39
2: 1 3 4 5 6 7 8 9 10 11 12 13 14 15 16 17 19 20 21 22 23 24 25 26 29 30 33 34 35 36 40
3: 1 2 4 6 38 8 9 12 13 14 15 16 17 18 26 27 28 5
4: 33 2 35 1 5 6 39 8 9 13 40 18 3 22 23 24 30 31
5: 3 1 34 35 36 39 9 10 11 13 14 16 19 21 2 24 4 26 28 29 30
6: 1 2 3 4 9 11 16 18 35 26 30
7: 32 1 2 36 38 12 22 27
8: 32 1 2 3 4 10 13 18 19 26 29
9: 32 1 2 3 4 5 6 39 17 21 24 27 28
10: 33 2 35 1 37 38 39 8 11 13 14 16 40 19 25 26 28 5
11: 33 2 35 5 38 1 10 15 16 19 20 6 37
12: 1 2 3 37 38 7 39 17 20 29
13: 32 1 2 35 4 5 39 8 10 34 17 3 22 27 28 31
14: 33 2 3 36 5 38 1 10 16 19 20 23 27
15: 33 2 35 1 37 38 39 11 16 3 28 31
16: 32 35 2 3 5 6 1 10 11 14 15 18 19 21 22 25
17: 1 2 34 36 38 39 40 9 12 13 3 28
18: 32 1 3 4 37 6 39 40 16 8 20 22 38 31
19: 1 2 5 8 10 11 14 16 22 26 29 30 31
20: 1 2 35 38 11 12 14 18 22 25 26 28
21: 32 1 34 35 5 38 40 9 2 16 23 28 37
22: 1 2 4 33 38 39 7 13 16 18 19 20 28 31
23: 1 2 35 4 39 14 21 24 36 27 29
24: 32 1 2 35 4 37 40 9 23 26 5
25: 33 2 35 37 1 10 16 20
26: 1 34 3 36 5 6 8 10 2 40 19 20 24 27 29 30 31
27: 1 3 38 7 9 13 14 23 26 30
28: 32 1 3 5 9 10 13 15 17 20 21 22
29: 1 2 5 38 39 8 12 19 23 26
30: 1 34 4 5 6 2 19 26 27 31
31: 1 4 38 40 13 15 18 19 22 26 30
32: 1 7 8 9 39 13 16 18 21 24 28
33: 1 2 4 39 10 11 14 15 22 25
34: 1 2 35 5 38 13 17 21 26 30
35: 1 34 4 37 38 10 11 13 2 15 16 20 21 23 24 25 6 5
36: 1 2 5 7 14 17 23 26
37: 1 35 38 40 10 11 12 15 18 21 24 25
38: 1 34 35 37 7 40 10 11 12 14 15 17 18 3 20 21 22 27 29 31
39: 32 33 4 5 1 9 10 12 13 15 17 18 22 23 29
40: 2 4 37 38 10 17 18 21 24 26 31
-------
1(-1)->2 3 4 5 6 7 8 9 10 11 12 13 14 15 16 17 18 19 20 21 22 23 24 25 26 27 28 29 30 31 32 33 34 35 36 37 38 39 
2(-1)->1 3 4 5 6 7 8 9 10 11 12 13 14 15 16 17 19 20 21 22 23 24 25 26 29 30 33 34 35 36 40 
3(-1)->1 2 4 5 6 8 9 12 13 14 15 16 17 18 26 27 28 38 
4(-1)->1 2 3 5 6 8 9 13 18 22 23 24 30 31 33 35 39 40 
5(-1)->1 2 3 4 9 10 11 13 14 16 19 21 24 26 28 29 30 34 35 36 39 
6(-1)->1 2 3 4 9 11 16 18 26 30 35 
7(-1)->1 2 12 22 27 32 36 38 
8(-1)->1 2 3 4 10 13 18 19 26 29 32 
9(-1)->1 2 3 4 5 6 17 21 24 27 28 32 39 
10(-1)->1 2 5 8 11 13 14 16 19 25 26 28 33 35 37 38 39 40 
11(-1)->1 2 5 6 10 15 16 19 20 33 35 37 38 
12(-1)->1 2 3 7 17 20 29 37 38 39 
13(-1)->1 2 3 4 5 8 10 17 22 27 28 31 32 34 35 39 
14(-1)->1 2 3 5 10 16 19 20 23 27 33 36 38 
15(-1)->1 2 3 11 16 28 31 33 35 37 38 39 
16(-1)->1 2 3 5 6 10 11 14 15 18 19 21 22 25 32 35 
17(-1)->1 2 3 9 12 13 28 34 36 38 39 40 
18(-1)->1 3 4 6 8 16 20 22 31 32 37 38 39 40 
19(-1)->1 2 5 8 10 11 14 16 22 26 29 30 31 
20(-1)->1 2 11 12 14 18 22 25 26 28 35 38 
21(-1)->1 2 5 9 16 23 28 32 34 35 37 38 40 
22(-1)->1 2 4 7 13 16 18 19 20 28 31 33 38 39 
23(-1)->1 2 4 14 21 24 27 29 35 36 39 
24(-1)->1 2 4 5 9 23 26 32 35 37 40 
25(-1)->1 2 10 16 20 33 35 37 
26(-1)->1 2 3 5 6 8 10 19 20 24 27 29 30 31 34 36 40 
27(-1)->1 3 7 9 13 14 23 26 30 38 
28(-1)->1 3 5 9 10 13 15 17 20 21 22 32 
29(-1)->1 2 5 8 12 19 23 26 38 39 
30(-1)->1 2 4 5 6 19 26 27 31 34 
31(-1)->1 4 13 15 18 19 22 26 30 38 40 
32(-1)->1 7 8 9 13 16 18 21 24 28 39 
33(-1)->1 2 4 10 11 14 15 22 25 39 
34(-1)->1 2 5 13 17 21 26 30 35 38 
35(-1)->1 2 4 5 6 10 11 13 15 16 20 21 23 24 25 34 37 38 
36(-1)->1 2 5 7 14 17 23 26 
37(-1)->1 10 11 12 15 18 21 24 25 35 38 40 
38(-1)->1 3 7 10 11 12 14 15 17 18 20 21 22 27 29 31 34 35 37 40 
39(-1)->1 4 5 9 10 12 13 15 17 18 22 23 29 32 33 
40(-1)->2 4 10 17 18 21 24 26 31 37 38 
-------
Node 1 maps to position 0
Node 2 maps to position 1
Node 5 maps to position 2
Node 38 maps to position 3
Node 3 maps to position 4
Node 4 maps to position 5
Node 10 maps to position 6
Node 35 maps to position 7
Node 26 maps to position 8
Node 13 maps to position 9
Node 16 maps to position 10
Node 39 maps to position 11
Node 18 maps to position 12
Node 22 maps to position 13
Node 9 maps to position 14
Node 11 maps to position 15
Node 14 maps to position 16
Node 19 maps to position 17
Node 21 maps to position 18
Node 15 maps to position 19
Node 17 maps to position 20
Node 20 maps to position 21
Node 28 maps to position 22
Node 37 maps to position 23
Node 6 maps to position 24
Node 8 maps to position 25
Node 23 maps to position 26
Node 24 maps to position 27
Node 31 maps to position 28
Node 32 maps to position 29
Node 40 maps to position 30
Node 12 maps to position 31
Node 27 maps to position 32
Node 29 maps to position 33
Node 30 maps to position 34
Node 33 maps to position 35
Node 34 maps to position 36
Node 7 maps to position 37
Node 25 maps to position 38
Node 36 maps to position 39
1(-1)->2 3 4 5 6 7 8 9 10 11 12 13 14 15 16 17 18 19 20 21 22 23 24 25 26 27 28 29 30 31 32 33 34 35 36 37 38 39 
2(-1)->1 3 4 5 6 7 8 9 10 11 12 13 14 15 16 17 19 20 21 22 23 24 25 26 29 30 33 34 35 36 40 
5(-1)->1 2 3 4 9 10 11 13 14 16 19 21 24 26 28 29 30 34 35 36 39 
38(-1)->1 3 7 10 11 12 14 15 17 18 20 21 22 27 29 31 34 35 37 40 
3(-1)->1 2 4 5 6 8 9 12 13 14 15 16 17 18 26 27 28 38 
4(-1)->1 2 3 5 6 8 9 13 18 22 23 24 30 31 33 35 39 40 
10(-1)->1 2 5 8 11 13 14 16 19 25 26 28 33 35 37 38 39 40 
35(-1)->1 2 4 5 6 10 11 13 15 16 20 21 23 24 25 34 37 38 
26(-1)->1 2 3 5 6 8 10 19 20 24 27 29 30 31 34 36 40 
13(-1)->1 2 3 4 5 8 10 17 22 27 28 31 32 34 35 39 
16(-1)->1 2 3 5 6 10 11 14 15 18 19 21 22 25 32 35 
39(-1)->1 4 5 9 10 12 13 15 17 18 22 23 29 32 33 
18(-1)->1 3 4 6 8 16 20 22 31 32 37 38 39 40 
22(-1)->1 2 4 7 13 16 18 19 20 28 31 33 38 39 
9(-1)->1 2 3 4 5 6 17 21 24 27 28 32 39 
11(-1)->1 2 5 6 10 15 16 19 20 33 35 37 38 
14(-1)->1 2 3 5 10 16 19 20 23 27 33 36 38 
19(-1)->1 2 5 8 10 11 14 16 22 26 29 30 31 
21(-1)->1 2 5 9 16 23 28 32 34 35 37 38 40 
15(-1)->1 2 3 11 16 28 31 33 35 37 38 39 
17(-1)->1 2 3 9 12 13 28 34 36 38 39 40 
20(-1)->1 2 11 12 14 18 22 25 26 28 35 38 
28(-1)->1 3 5 9 10 13 15 17 20 21 22 32 
37(-1)->1 10 11 12 15 18 21 24 25 35 38 40 
6(-1)->1 2 3 4 9 11 16 18 26 30 35 
8(-1)->1 2 3 4 10 13 18 19 26 29 32 
23(-1)->1 2 4 14 21 24 27 29 35 36 39 
24(-1)->1 2 4 5 9 23 26 32 35 37 40 
31(-1)->1 4 13 15 18 19 22 26 30 38 40 
32(-1)->1 7 8 9 13 16 18 21 24 28 39 
40(-1)->2 4 10 17 18 21 24 26 31 37 38 
12(-1)->1 2 3 7 17 20 29 37 38 39 
27(-1)->1 3 7 9 13 14 23 26 30 38 
29(-1)->1 2 5 8 12 19 23 26 38 39 
30(-1)->1 2 4 5 6 19 26 27 31 34 
33(-1)->1 2 4 10 11 14 15 22 25 39 
34(-1)->1 2 5 13 17 21 26 30 35 38 
7(-1)->1 2 12 22 27 32 36 38 
25(-1)->1 2 10 16 20 33 35 37 
36(-1)->1 2 5 7 14 17 23 26 
-------
CONNECTEDS size: 1
1(0)->2 3 4 5 6 7 8 9 10 11 12 13 14 15 16 17 18 19 20 21 22 23 24 25 26 27 28 29 30 31 32 33 34 35 36 37 38 39 
2(1)->1 3 4 5 6 7 8 9 10 11 12 13 14 15 16 17 19 20 21 22 23 24 25 26 29 30 33 34 35 36 40 
3(3)->1 2 4 5 6 8 9 12 13 14 15 16 17 18 26 27 28 38 
4(4)->1 2 3 5 6 8 9 13 18 22 23 24 30 31 33 35 39 40 
5(2)->1 2 3 4 9 10 11 13 14 16 19 21 24 26 28 29 30 34 35 36 39 
6(2)->1 2 3 4 9 11 16 18 26 30 35 
7(4)->1 2 12 22 27 32 36 38 
8(2)->1 2 3 4 10 13 18 19 26 29 32 
9(5)->1 2 3 4 5 6 17 21 24 27 28 32 39 
10(3)->1 2 5 8 11 13 14 16 19 25 26 28 33 35 37 38 39 40 
11(6)->1 2 5 6 10 15 16 19 20 33 35 37 38 
12(5)->1 2 3 7 17 20 29 37 38 39 
13(6)->1 2 3 4 5 8 10 17 22 27 28 31 32 34 35 39 
14(6)->1 2 3 5 10 16 19 20 23 27 33 36 38 
15(2)->1 2 3 11 16 28 31 33 35 37 38 39 
16(4)->1 2 3 5 6 10 11 14 15 18 19 21 22 25 32 35 
17(2)->1 2 3 9 12 13 28 34 36 38 39 40 
18(5)->1 3 4 6 8 16 20 22 31 32 37 38 39 40 
19(5)->1 2 5 8 10 11 14 16 22 26 29 30 31 
20(3)->1 2 11 12 14 18 22 25 26 28 35 38 
21(6)->1 2 5 9 16 23 28 32 34 35 37 38 40 
22(2)->1 2 4 7 13 16 18 19 20 28 31 33 38 39 
23(3)->1 2 4 14 21 24 27 29 35 36 39 
24(6)->1 2 4 5 9 23 26 32 35 37 40 
25(2)->1 2 10 16 20 33 35 37 
26(4)->1 2 3 5 6 8 10 19 20 24 27 29 30 31 34 36 40 
27(2)->1 3 7 9 13 14 23 26 30 38 
28(1)->1 3 5 9 10 13 15 17 20 21 22 32 
29(6)->1 2 5 8 12 19 23 26 38 39 
30(6)->1 2 4 5 6 19 26 27 31 34 
31(3)->1 4 13 15 18 19 22 26 30 38 40 
32(3)->1 7 8 9 13 16 18 21 24 28 39 
33(5)->1 2 4 10 11 14 15 22 25 39 
34(3)->1 2 5 13 17 21 26 30 35 38 
35(5)->1 2 4 5 6 10 11 13 15 16 20 21 23 24 25 34 37 38 
36(5)->1 2 5 7 14 17 23 26 
37(4)->1 10 11 12 15 18 21 24 25 35 38 40 
38(1)->1 3 7 10 11 12 14 15 17 18 20 21 22 27 29 31 34 35 37 40 
39(1)->1 4 5 9 10 12 13 15 17 18 22 23 29 32 33 
40(0)->2 4 10 17 18 21 24 26 31 37 38 
COUNT: 202
COLORS: 7
EDGES: 280
7
202
