START TIME: 1433713830
1: 2 3 4 5 6 7 8 9 10 11 12 13 14 15 16 17 18 19 20 21 22 23 24 25 26 27 28 29 30 31 32 33 34 35 36 37 38 39 40 41 42 43 44 45 46 47 48 49 50
2: 1 3 4 5 6 7 8 9 10 11 12 13 14 15 16 17 18 19 20 21 22 23 24 25 26 27 28 29 30 31 32 33 34 35 36 37 38 39 40 41 42 43 44 45 46 47 48 49 50
3: 1 2 4 5 6 7 8 9 10 11 12 13 14 15 16 17 18 19 20 21 22 23 24 25 26 27 28 29 30 31 32 33 34 35 36 37 38 39 40 41 42 43 44 45 46 47 48 49 50
4: 1 2 3 5 6 7 8 9 10 11 12 13 14 15 16 17 18 19 20 21 22 23 24 25 26 27 28 29 30 31 32 33 34 35 36 37 38 39 40 41 42 43 44 45 46 47 48 49 50
5: 1 2 3 4 6 7 8 9 10 11 12 13 14 15 16 17 18 19 20 21 22 23 24 25 26 27 28 29 30 31 32 33 34 35 36 37 39 40 41 42 43 44 45 46 47 48 49 50
6: 1 2 3 4 5 7 8 9 10 11 12 13 14 15 16 17 18 19 20 21 22 23 24 25 27 29 31 32 33 34 35 36 37 39 40 41 42 43 44 45 46 47 48 49
7: 1 2 3 4 5 6 8 9 10 11 12 13 14 15 16 17 18 19 20 21 22 23 24 25 27 28 31 32 33 34 35 36 37 38 39 42 44 45 47 49 50
8: 1 2 3 4 5 6 7 9 10 11 12 13 14 15 16 18 20 21 22 23 24 25 26 27 28 29 31 32 33 34 35 39 41 42 44 45 48 49 50
9: 1 2 3 4 5 6 7 8 10 11 12 13 14 16 18 20 22 23 24 25 26 27 29 31 32 33 34 35 36 39 40 41 43 44 47 49 50
10: 1 2 3 4 5 6 7 8 9 11 12 13 14 15 16 20 22 23 24 25 28 29 31 32 33 34 36 39 41 42 44 45 48 50
11: 1 2 3 4 5 6 7 8 9 10 12 13 14 15 16 20 21 24 25 31 32 35 36 37 40 41 44 47 48
12: 1 2 3 4 5 6 7 8 9 10 11 13 14 15 16 17 18 25 26 28 32 39 44 45 47 49 50
13: 1 2 3 4 5 6 7 8 9 10 11 12 14 20 21 25 26 27 29 30 32 34 38 40 42 43 44 45 47 49 50
14: 1 2 3 4 5 6 7 8 9 10 11 12 13 15 16 18 22 25 27 29 30 32 33 35 36 37 38 41 44 45 47 48 50
15: 1 2 3 4 5 6 7 8 10 11 12 14 17 18 19 20 21 26 27 28 29 32 34 35 38 41 44 45 46 47 48
16: 1 2 3 4 5 6 7 8 9 10 11 12 14 17 18 22 28 31 32 34 36 40 42 44 45 46 47
17: 1 2 3 4 5 6 7 12 15 16 22 23 24 25 27 28 32 33 34 35 38 40 42 44 46 50
18: 1 2 3 4 5 6 7 8 9 12 14 15 16 19 22 23 24 26 29 32 34 35 36 38 39 45 49 50
19: 1 2 3 4 5 6 7 15 18 20 24 26 28 29 31 36 38 39 40 42 43 44 46 47 48
20: 1 2 3 4 5 6 7 8 9 10 11 13 15 19 22 23 27 28 29 30 32 35 37 46 47 48 49
21: 1 2 3 4 5 6 7 8 11 13 15 25 26 30 37 38 39 43 47 48 49 50
22: 1 2 3 4 5 6 7 8 9 10 14 16 17 18 20 23 26 28 30 32 36 37 39 40 41 43 49 50
23: 32 1 34 3 4 37 6 7 8 9 42 2 45 47 17 18 20 22 24 10 5
24: 1 2 3 4 5 6 7 8 9 10 11 17 18 19 23 26 27 29 32 33 36 39 44 46 50
25: 1 2 3 4 5 6 7 8 9 10 11 12 13 14 17 21 26 28 29 30 31 33 36 37 41 42 43 45 47 50
26: 1 2 3 4 5 8 9 12 13 15 18 19 21 22 24 25 28 33 34 39 45 50
27: 1 2 3 4 5 6 7 8 9 13 14 15 17 20 24 31 32 38 39 41 42 44 45 49
28: 1 2 3 4 5 7 8 10 12 15 16 17 19 20 22 25 26 30 31 35 37 43 44 46 47 48
29: 1 2 3 4 5 6 8 9 10 13 14 15 18 19 20 24 25 32 34 35 36 38 39 40 44 45 46 47
30: 1 2 3 36 5 42 13 14 45 48 49 20 21 22 25 28 4 31
31: 1 2 3 4 5 6 7 8 9 10 11 16 19 25 27 28 30 33 34 35 38 39 40 42 44
32: 1 2 3 4 5 6 7 8 9 10 11 12 13 14 15 16 17 18 20 22 23 24 27 29 34 38 40 41 42 43 47 50
33: 1 2 3 4 5 6 7 8 9 10 14 17 24 25 26 31 35 36 38 40 41 45 46 48
34: 1 2 3 4 5 6 7 8 9 10 13 15 16 17 18 23 26 29 31 32 38 40 41 43 45 46 48 49
35: 1 2 3 4 5 6 7 8 9 11 14 15 17 18 20 28 29 31 33 38 40 43 46 48 49 50
36: 1 2 3 4 5 6 7 9 10 11 14 16 18 19 22 24 25 29 30 33 37 39 40 42 44 45 46 50
37: 1 2 3 4 5 6 7 11 14 20 21 22 23 25 28 36 38 40 42 43 45 47 48
38: 1 2 3 4 7 13 14 15 17 18 19 21 27 29 31 32 33 34 35 37 40 41 42 44 45 47 49
39: 1 2 3 4 5 6 7 8 9 10 12 18 19 21 22 24 26 27 29 31 36 42 45 47 49
40: 1 2 3 4 5 6 9 11 13 16 17 19 22 29 31 32 33 34 35 36 37 38 41 43 44 46 48 49
41: 1 2 3 4 5 6 8 9 10 11 14 15 22 25 27 32 33 34 38 40 42 44 46 50
42: 1 2 3 4 5 6 7 8 10 13 16 17 19 23 25 27 30 31 32 36 37 38 39 41 43 44 45 47 48 49
43: 1 2 3 4 5 6 9 13 19 21 22 25 28 32 34 35 37 40 42 44 45 48
44: 1 2 3 4 5 6 7 8 9 10 11 12 13 14 15 16 17 19 24 27 28 29 31 36 38 40 41 42 43 47
45: 1 2 3 4 5 6 7 8 10 12 13 14 15 16 18 23 25 26 27 29 30 33 34 36 37 38 39 42 43 47 48 49 50
46: 1 2 3 4 5 6 15 16 17 19 20 24 28 29 33 34 35 36 40 41 47 50
47: 1 2 3 4 5 6 7 9 11 12 13 14 15 16 19 20 21 23 25 28 29 32 37 38 39 42 44 45 46 48
48: 1 2 3 4 5 6 8 10 11 14 15 19 20 21 28 30 33 34 35 37 40 42 43 45 47 50
49: 1 2 3 4 5 6 7 8 9 12 13 18 20 21 22 27 30 34 35 38 39 40 42 45
50: 1 2 3 4 5 7 8 9 10 12 13 14 17 18 21 22 24 25 26 32 35 36 41 45 46 48
-------
1(-1)->2 3 4 5 6 7 8 9 10 11 12 13 14 15 16 17 18 19 20 21 22 23 24 25 26 27 28 29 30 31 32 33 34 35 36 37 38 39 40 41 42 43 44 45 46 47 48 49 50 
2(-1)->1 3 4 5 6 7 8 9 10 11 12 13 14 15 16 17 18 19 20 21 22 23 24 25 26 27 28 29 30 31 32 33 34 35 36 37 38 39 40 41 42 43 44 45 46 47 48 49 50 
3(-1)->1 2 4 5 6 7 8 9 10 11 12 13 14 15 16 17 18 19 20 21 22 23 24 25 26 27 28 29 30 31 32 33 34 35 36 37 38 39 40 41 42 43 44 45 46 47 48 49 50 
4(-1)->1 2 3 5 6 7 8 9 10 11 12 13 14 15 16 17 18 19 20 21 22 23 24 25 26 27 28 29 30 31 32 33 34 35 36 37 38 39 40 41 42 43 44 45 46 47 48 49 50 
5(-1)->1 2 3 4 6 7 8 9 10 11 12 13 14 15 16 17 18 19 20 21 22 23 24 25 26 27 28 29 30 31 32 33 34 35 36 37 39 40 41 42 43 44 45 46 47 48 49 50 
6(-1)->1 2 3 4 5 7 8 9 10 11 12 13 14 15 16 17 18 19 20 21 22 23 24 25 27 29 31 32 33 34 35 36 37 39 40 41 42 43 44 45 46 47 48 49 
7(-1)->1 2 3 4 5 6 8 9 10 11 12 13 14 15 16 17 18 19 20 21 22 23 24 25 27 28 31 32 33 34 35 36 37 38 39 42 44 45 47 49 50 
8(-1)->1 2 3 4 5 6 7 9 10 11 12 13 14 15 16 18 20 21 22 23 24 25 26 27 28 29 31 32 33 34 35 39 41 42 44 45 48 49 50 
9(-1)->1 2 3 4 5 6 7 8 10 11 12 13 14 16 18 20 22 23 24 25 26 27 29 31 32 33 34 35 36 39 40 41 43 44 47 49 50 
10(-1)->1 2 3 4 5 6 7 8 9 11 12 13 14 15 16 20 22 23 24 25 28 29 31 32 33 34 36 39 41 42 44 45 48 50 
11(-1)->1 2 3 4 5 6 7 8 9 10 12 13 14 15 16 20 21 24 25 31 32 35 36 37 40 41 44 47 48 
12(-1)->1 2 3 4 5 6 7 8 9 10 11 13 14 15 16 17 18 25 26 28 32 39 44 45 47 49 50 
13(-1)->1 2 3 4 5 6 7 8 9 10 11 12 14 20 21 25 26 27 29 30 32 34 38 40 42 43 44 45 47 49 50 
14(-1)->1 2 3 4 5 6 7 8 9 10 11 12 13 15 16 18 22 25 27 29 30 32 33 35 36 37 38 41 44 45 47 48 50 
15(-1)->1 2 3 4 5 6 7 8 10 11 12 14 17 18 19 20 21 26 27 28 29 32 34 35 38 41 44 45 46 47 48 
16(-1)->1 2 3 4 5 6 7 8 9 10 11 12 14 17 18 22 28 31 32 34 36 40 42 44 45 46 47 
17(-1)->1 2 3 4 5 6 7 12 15 16 22 23 24 25 27 28 32 33 34 35 38 40 42 44 46 50 
18(-1)->1 2 3 4 5 6 7 8 9 12 14 15 16 19 22 23 24 26 29 32 34 35 36 38 39 45 49 50 
19(-1)->1 2 3 4 5 6 7 15 18 20 24 26 28 29 31 36 38 39 40 42 43 44 46 47 48 
20(-1)->1 2 3 4 5 6 7 8 9 10 11 13 15 19 22 23 27 28 29 30 32 35 37 46 47 48 49 
21(-1)->1 2 3 4 5 6 7 8 11 13 15 25 26 30 37 38 39 43 47 48 49 50 
22(-1)->1 2 3 4 5 6 7 8 9 10 14 16 17 18 20 23 26 28 30 32 36 37 39 40 41 43 49 50 
23(-1)->1 2 3 4 5 6 7 8 9 10 17 18 20 22 24 32 34 37 42 45 47 
24(-1)->1 2 3 4 5 6 7 8 9 10 11 17 18 19 23 26 27 29 32 33 36 39 44 46 50 
25(-1)->1 2 3 4 5 6 7 8 9 10 11 12 13 14 17 21 26 28 29 30 31 33 36 37 41 42 43 45 47 50 
26(-1)->1 2 3 4 5 8 9 12 13 15 18 19 21 22 24 25 28 33 34 39 45 50 
27(-1)->1 2 3 4 5 6 7 8 9 13 14 15 17 20 24 31 32 38 39 41 42 44 45 49 
28(-1)->1 2 3 4 5 7 8 10 12 15 16 17 19 20 22 25 26 30 31 35 37 43 44 46 47 48 
29(-1)->1 2 3 4 5 6 8 9 10 13 14 15 18 19 20 24 25 32 34 35 36 38 39 40 44 45 46 47 
30(-1)->1 2 3 4 5 13 14 20 21 22 25 28 31 36 42 45 48 49 
31(-1)->1 2 3 4 5 6 7 8 9 10 11 16 19 25 27 28 30 33 34 35 38 39 40 42 44 
32(-1)->1 2 3 4 5 6 7 8 9 10 11 12 13 14 15 16 17 18 20 22 23 24 27 29 34 38 40 41 42 43 47 50 
33(-1)->1 2 3 4 5 6 7 8 9 10 14 17 24 25 26 31 35 36 38 40 41 45 46 48 
34(-1)->1 2 3 4 5 6 7 8 9 10 13 15 16 17 18 23 26 29 31 32 38 40 41 43 45 46 48 49 
35(-1)->1 2 3 4 5 6 7 8 9 11 14 15 17 18 20 28 29 31 33 38 40 43 46 48 49 50 
36(-1)->1 2 3 4 5 6 7 9 10 11 14 16 18 19 22 24 25 29 30 33 37 39 40 42 44 45 46 50 
37(-1)->1 2 3 4 5 6 7 11 14 20 21 22 23 25 28 36 38 40 42 43 45 47 48 
38(-1)->1 2 3 4 7 13 14 15 17 18 19 21 27 29 31 32 33 34 35 37 40 41 42 44 45 47 49 
39(-1)->1 2 3 4 5 6 7 8 9 10 12 18 19 21 22 24 26 27 29 31 36 42 45 47 49 
40(-1)->1 2 3 4 5 6 9 11 13 16 17 19 22 29 31 32 33 34 35 36 37 38 41 43 44 46 48 49 
41(-1)->1 2 3 4 5 6 8 9 10 11 14 15 22 25 27 32 33 34 38 40 42 44 46 50 
42(-1)->1 2 3 4 5 6 7 8 10 13 16 17 19 23 25 27 30 31 32 36 37 38 39 41 43 44 45 47 48 49 
43(-1)->1 2 3 4 5 6 9 13 19 21 22 25 28 32 34 35 37 40 42 44 45 48 
44(-1)->1 2 3 4 5 6 7 8 9 10 11 12 13 14 15 16 17 19 24 27 28 29 31 36 38 40 41 42 43 47 
45(-1)->1 2 3 4 5 6 7 8 10 12 13 14 15 16 18 23 25 26 27 29 30 33 34 36 37 38 39 42 43 47 48 49 50 
46(-1)->1 2 3 4 5 6 15 16 17 19 20 24 28 29 33 34 35 36 40 41 47 50 
47(-1)->1 2 3 4 5 6 7 9 11 12 13 14 15 16 19 20 21 23 25 28 29 32 37 38 39 42 44 45 46 48 
48(-1)->1 2 3 4 5 6 8 10 11 14 15 19 20 21 28 30 33 34 35 37 40 42 43 45 47 50 
49(-1)->1 2 3 4 5 6 7 8 9 12 13 18 20 21 22 27 30 34 35 38 39 40 42 45 
50(-1)->1 2 3 4 5 7 8 9 10 12 13 14 17 18 21 22 24 25 26 32 35 36 41 45 46 48 
-------
Node 1 maps to position 0
Node 2 maps to position 1
Node 3 maps to position 2
Node 4 maps to position 3
Node 5 maps to position 4
Node 6 maps to position 5
Node 7 maps to position 6
Node 8 maps to position 7
Node 9 maps to position 8
Node 10 maps to position 9
Node 14 maps to position 10
Node 45 maps to position 11
Node 32 maps to position 12
Node 13 maps to position 13
Node 15 maps to position 14
Node 25 maps to position 15
Node 42 maps to position 16
Node 44 maps to position 17
Node 47 maps to position 18
Node 11 maps to position 19
Node 18 maps to position 20
Node 22 maps to position 21
Node 29 maps to position 22
Node 34 maps to position 23
Node 36 maps to position 24
Node 40 maps to position 25
Node 12 maps to position 26
Node 16 maps to position 27
Node 20 maps to position 28
Node 38 maps to position 29
Node 17 maps to position 30
Node 28 maps to position 31
Node 35 maps to position 32
Node 48 maps to position 33
Node 50 maps to position 34
Node 19 maps to position 35
Node 24 maps to position 36
Node 31 maps to position 37
Node 39 maps to position 38
Node 27 maps to position 39
Node 33 maps to position 40
Node 41 maps to position 41
Node 49 maps to position 42
Node 37 maps to position 43
Node 21 maps to position 44
Node 26 maps to position 45
Node 43 maps to position 46
Node 46 maps to position 47
Node 23 maps to position 48
Node 30 maps to position 49
1(-1)->2 3 4 5 6 7 8 9 10 11 12 13 14 15 16 17 18 19 20 21 22 23 24 25 26 27 28 29 30 31 32 33 34 35 36 37 38 39 40 41 42 43 44 45 46 47 48 49 50 
2(-1)->1 3 4 5 6 7 8 9 10 11 12 13 14 15 16 17 18 19 20 21 22 23 24 25 26 27 28 29 30 31 32 33 34 35 36 37 38 39 40 41 42 43 44 45 46 47 48 49 50 
3(-1)->1 2 4 5 6 7 8 9 10 11 12 13 14 15 16 17 18 19 20 21 22 23 24 25 26 27 28 29 30 31 32 33 34 35 36 37 38 39 40 41 42 43 44 45 46 47 48 49 50 
4(-1)->1 2 3 5 6 7 8 9 10 11 12 13 14 15 16 17 18 19 20 21 22 23 24 25 26 27 28 29 30 31 32 33 34 35 36 37 38 39 40 41 42 43 44 45 46 47 48 49 50 
5(-1)->1 2 3 4 6 7 8 9 10 11 12 13 14 15 16 17 18 19 20 21 22 23 24 25 26 27 28 29 30 31 32 33 34 35 36 37 39 40 41 42 43 44 45 46 47 48 49 50 
6(-1)->1 2 3 4 5 7 8 9 10 11 12 13 14 15 16 17 18 19 20 21 22 23 24 25 27 29 31 32 33 34 35 36 37 39 40 41 42 43 44 45 46 47 48 49 
7(-1)->1 2 3 4 5 6 8 9 10 11 12 13 14 15 16 17 18 19 20 21 22 23 24 25 27 28 31 32 33 34 35 36 37 38 39 42 44 45 47 49 50 
8(-1)->1 2 3 4 5 6 7 9 10 11 12 13 14 15 16 18 20 21 22 23 24 25 26 27 28 29 31 32 33 34 35 39 41 42 44 45 48 49 50 
9(-1)->1 2 3 4 5 6 7 8 10 11 12 13 14 16 18 20 22 23 24 25 26 27 29 31 32 33 34 35 36 39 40 41 43 44 47 49 50 
10(-1)->1 2 3 4 5 6 7 8 9 11 12 13 14 15 16 20 22 23 24 25 28 29 31 32 33 34 36 39 41 42 44 45 48 50 
14(-1)->1 2 3 4 5 6 7 8 9 10 11 12 13 15 16 18 22 25 27 29 30 32 33 35 36 37 38 41 44 45 47 48 50 
45(-1)->1 2 3 4 5 6 7 8 10 12 13 14 15 16 18 23 25 26 27 29 30 33 34 36 37 38 39 42 43 47 48 49 50 
32(-1)->1 2 3 4 5 6 7 8 9 10 11 12 13 14 15 16 17 18 20 22 23 24 27 29 34 38 40 41 42 43 47 50 
13(-1)->1 2 3 4 5 6 7 8 9 10 11 12 14 20 21 25 26 27 29 30 32 34 38 40 42 43 44 45 47 49 50 
15(-1)->1 2 3 4 5 6 7 8 10 11 12 14 17 18 19 20 21 26 27 28 29 32 34 35 38 41 44 45 46 47 48 
25(-1)->1 2 3 4 5 6 7 8 9 10 11 12 13 14 17 21 26 28 29 30 31 33 36 37 41 42 43 45 47 50 
42(-1)->1 2 3 4 5 6 7 8 10 13 16 17 19 23 25 27 30 31 32 36 37 38 39 41 43 44 45 47 48 49 
44(-1)->1 2 3 4 5 6 7 8 9 10 11 12 13 14 15 16 17 19 24 27 28 29 31 36 38 40 41 42 43 47 
47(-1)->1 2 3 4 5 6 7 9 11 12 13 14 15 16 19 20 21 23 25 28 29 32 37 38 39 42 44 45 46 48 
11(-1)->1 2 3 4 5 6 7 8 9 10 12 13 14 15 16 20 21 24 25 31 32 35 36 37 40 41 44 47 48 
18(-1)->1 2 3 4 5 6 7 8 9 12 14 15 16 19 22 23 24 26 29 32 34 35 36 38 39 45 49 50 
22(-1)->1 2 3 4 5 6 7 8 9 10 14 16 17 18 20 23 26 28 30 32 36 37 39 40 41 43 49 50 
29(-1)->1 2 3 4 5 6 8 9 10 13 14 15 18 19 20 24 25 32 34 35 36 38 39 40 44 45 46 47 
34(-1)->1 2 3 4 5 6 7 8 9 10 13 15 16 17 18 23 26 29 31 32 38 40 41 43 45 46 48 49 
36(-1)->1 2 3 4 5 6 7 9 10 11 14 16 18 19 22 24 25 29 30 33 37 39 40 42 44 45 46 50 
40(-1)->1 2 3 4 5 6 9 11 13 16 17 19 22 29 31 32 33 34 35 36 37 38 41 43 44 46 48 49 
12(-1)->1 2 3 4 5 6 7 8 9 10 11 13 14 15 16 17 18 25 26 28 32 39 44 45 47 49 50 
16(-1)->1 2 3 4 5 6 7 8 9 10 11 12 14 17 18 22 28 31 32 34 36 40 42 44 45 46 47 
20(-1)->1 2 3 4 5 6 7 8 9 10 11 13 15 19 22 23 27 28 29 30 32 35 37 46 47 48 49 
38(-1)->1 2 3 4 7 13 14 15 17 18 19 21 27 29 31 32 33 34 35 37 40 41 42 44 45 47 49 
17(-1)->1 2 3 4 5 6 7 12 15 16 22 23 24 25 27 28 32 33 34 35 38 40 42 44 46 50 
28(-1)->1 2 3 4 5 7 8 10 12 15 16 17 19 20 22 25 26 30 31 35 37 43 44 46 47 48 
35(-1)->1 2 3 4 5 6 7 8 9 11 14 15 17 18 20 28 29 31 33 38 40 43 46 48 49 50 
48(-1)->1 2 3 4 5 6 8 10 11 14 15 19 20 21 28 30 33 34 35 37 40 42 43 45 47 50 
50(-1)->1 2 3 4 5 7 8 9 10 12 13 14 17 18 21 22 24 25 26 32 35 36 41 45 46 48 
19(-1)->1 2 3 4 5 6 7 15 18 20 24 26 28 29 31 36 38 39 40 42 43 44 46 47 48 
24(-1)->1 2 3 4 5 6 7 8 9 10 11 17 18 19 23 26 27 29 32 33 36 39 44 46 50 
31(-1)->1 2 3 4 5 6 7 8 9 10 11 16 19 25 27 28 30 33 34 35 38 39 40 42 44 
39(-1)->1 2 3 4 5 6 7 8 9 10 12 18 19 21 22 24 26 27 29 31 36 42 45 47 49 
27(-1)->1 2 3 4 5 6 7 8 9 13 14 15 17 20 24 31 32 38 39 41 42 44 45 49 
33(-1)->1 2 3 4 5 6 7 8 9 10 14 17 24 25 26 31 35 36 38 40 41 45 46 48 
41(-1)->1 2 3 4 5 6 8 9 10 11 14 15 22 25 27 32 33 34 38 40 42 44 46 50 
49(-1)->1 2 3 4 5 6 7 8 9 12 13 18 20 21 22 27 30 34 35 38 39 40 42 45 
37(-1)->1 2 3 4 5 6 7 11 14 20 21 22 23 25 28 36 38 40 42 43 45 47 48 
21(-1)->1 2 3 4 5 6 7 8 11 13 15 25 26 30 37 38 39 43 47 48 49 50 
26(-1)->1 2 3 4 5 8 9 12 13 15 18 19 21 22 24 25 28 33 34 39 45 50 
43(-1)->1 2 3 4 5 6 9 13 19 21 22 25 28 32 34 35 37 40 42 44 45 48 
46(-1)->1 2 3 4 5 6 15 16 17 19 20 24 28 29 33 34 35 36 40 41 47 50 
23(-1)->1 2 3 4 5 6 7 8 9 10 17 18 20 22 24 32 34 37 42 45 47 
30(-1)->1 2 3 4 5 13 14 20 21 22 25 28 31 36 42 45 48 49 
-------
CONNECTEDS size: 1
10000
20000
30000
1(0)->2 3 4 5 6 7 8 9 10 11 12 13 14 15 16 17 18 19 20 21 22 23 24 25 26 27 28 29 30 31 32 33 34 35 36 37 38 39 40 41 42 43 44 45 46 47 48 49 50 
2(1)->1 3 4 5 6 7 8 9 10 11 12 13 14 15 16 17 18 19 20 21 22 23 24 25 26 27 28 29 30 31 32 33 34 35 36 37 38 39 40 41 42 43 44 45 46 47 48 49 50 
3(2)->1 2 4 5 6 7 8 9 10 11 12 13 14 15 16 17 18 19 20 21 22 23 24 25 26 27 28 29 30 31 32 33 34 35 36 37 38 39 40 41 42 43 44 45 46 47 48 49 50 
4(3)->1 2 3 5 6 7 8 9 10 11 12 13 14 15 16 17 18 19 20 21 22 23 24 25 26 27 28 29 30 31 32 33 34 35 36 37 38 39 40 41 42 43 44 45 46 47 48 49 50 
5(4)->1 2 3 4 6 7 8 9 10 11 12 13 14 15 16 17 18 19 20 21 22 23 24 25 26 27 28 29 30 31 32 33 34 35 36 37 39 40 41 42 43 44 45 46 47 48 49 50 
6(5)->1 2 3 4 5 7 8 9 10 11 12 13 14 15 16 17 18 19 20 21 22 23 24 25 27 29 31 32 33 34 35 36 37 39 40 41 42 43 44 45 46 47 48 49 
7(6)->1 2 3 4 5 6 8 9 10 11 12 13 14 15 16 17 18 19 20 21 22 23 24 25 27 28 31 32 33 34 35 36 37 38 39 42 44 45 47 49 50 
8(7)->1 2 3 4 5 6 7 9 10 11 12 13 14 15 16 18 20 21 22 23 24 25 26 27 28 29 31 32 33 34 35 39 41 42 44 45 48 49 50 
9(8)->1 2 3 4 5 6 7 8 10 11 12 13 14 16 18 20 22 23 24 25 26 27 29 31 32 33 34 35 36 39 40 41 43 44 47 49 50 
10(9)->1 2 3 4 5 6 7 8 9 11 12 13 14 15 16 20 22 23 24 25 28 29 31 32 33 34 36 39 41 42 44 45 48 50 
11(13)->1 2 3 4 5 6 7 8 9 10 12 13 14 15 16 20 21 24 25 31 32 35 36 37 40 41 44 47 48 
12(14)->1 2 3 4 5 6 7 8 9 10 11 13 14 15 16 17 18 25 26 28 32 39 44 45 47 49 50 
13(12)->1 2 3 4 5 6 7 8 9 10 11 12 14 20 21 25 26 27 29 30 32 34 38 40 42 43 44 45 47 49 50 
14(10)->1 2 3 4 5 6 7 8 9 10 11 12 13 15 16 18 22 25 27 29 30 32 33 35 36 37 38 41 44 45 47 48 50 
15(12)->1 2 3 4 5 6 7 8 10 11 12 14 17 18 19 20 21 26 27 28 29 32 34 35 38 41 44 45 46 47 48 
16(12)->1 2 3 4 5 6 7 8 9 10 11 12 14 17 18 22 28 31 32 34 36 40 42 44 45 46 47 
17(7)->1 2 3 4 5 6 7 12 15 16 22 23 24 25 27 28 32 33 34 35 38 40 42 44 46 50 
18(9)->1 2 3 4 5 6 7 8 9 12 14 15 16 19 22 23 24 26 29 32 34 35 36 38 39 45 49 50 
19(8)->1 2 3 4 5 6 7 15 18 20 24 26 28 29 31 36 38 39 40 42 43 44 46 47 48 
20(10)->1 2 3 4 5 6 7 8 9 10 11 13 15 19 22 23 27 28 29 30 32 35 37 46 47 48 49 
21(8)->1 2 3 4 5 6 7 8 11 13 15 25 26 30 37 38 39 43 47 48 49 50 
22(14)->1 2 3 4 5 6 7 8 9 10 14 16 17 18 20 23 26 28 30 32 36 37 39 40 41 43 49 50 
23(13)->1 2 3 4 5 6 7 8 9 10 17 18 20 22 24 32 34 37 42 45 47 
24(10)->1 2 3 4 5 6 7 8 9 10 11 17 18 19 23 26 27 29 32 33 36 39 44 46 50 
25(11)->1 2 3 4 5 6 7 8 9 10 11 12 13 14 17 21 26 28 29 30 31 33 36 37 41 42 43 45 47 50 
26(6)->1 2 3 4 5 8 9 12 13 15 18 19 21 22 24 25 28 33 34 39 45 50 
27(9)->1 2 3 4 5 6 7 8 9 13 14 15 17 20 24 31 32 38 39 41 42 44 45 49 
28(5)->1 2 3 4 5 7 8 10 12 15 16 17 19 20 22 25 26 30 31 35 37 43 44 46 47 48 
29(6)->1 2 3 4 5 6 8 9 10 13 14 15 18 19 20 24 25 32 34 35 36 38 39 40 44 45 46 47 
30(9)->1 2 3 4 5 13 14 20 21 22 25 28 31 36 42 45 48 49 
31(14)->1 2 3 4 5 6 7 8 9 10 11 16 19 25 27 28 30 33 34 35 38 39 40 42 44 
32(11)->1 2 3 4 5 6 7 8 9 10 11 12 13 14 15 16 17 18 20 22 23 24 27 29 34 38 40 41 42 43 47 50 
33(12)->1 2 3 4 5 6 7 8 9 10 14 17 24 25 26 31 35 36 38 40 41 45 46 48 
34(10)->1 2 3 4 5 6 7 8 9 10 13 15 16 17 18 23 26 29 31 32 38 40 41 43 45 46 48 49 
35(11)->1 2 3 4 5 6 7 8 9 11 14 15 17 18 20 28 29 31 33 38 40 43 46 48 49 50 
36(7)->1 2 3 4 5 6 7 9 10 11 14 16 18 19 22 24 25 29 30 33 37 39 40 42 44 45 46 50 
37(12)->1 2 3 4 5 6 7 11 14 20 21 22 23 25 28 36 38 40 42 43 45 47 48 
38(4)->1 2 3 4 7 13 14 15 17 18 19 21 27 29 31 32 33 34 35 37 40 41 42 44 45 47 49 
39(11)->1 2 3 4 5 6 7 8 9 10 12 18 19 21 22 24 26 27 29 31 36 42 45 47 49 
40(9)->1 2 3 4 5 6 9 11 13 16 17 19 22 29 31 32 33 34 35 36 37 38 41 43 44 46 48 49 
41(6)->1 2 3 4 5 6 8 9 10 11 14 15 22 25 27 32 33 34 38 40 42 44 46 50 
42(10)->1 2 3 4 5 6 7 8 10 13 16 17 19 23 25 27 30 31 32 36 37 38 39 41 43 44 45 47 48 49 
43(7)->1 2 3 4 5 6 9 13 19 21 22 25 28 32 34 35 37 40 42 44 45 48 
44(11)->1 2 3 4 5 6 7 8 9 10 11 12 13 14 15 16 17 19 24 27 28 29 31 36 38 40 41 42 43 47 
45(8)->1 2 3 4 5 6 7 8 10 12 13 14 15 16 18 23 25 26 27 29 30 33 34 36 37 38 39 42 43 47 48 49 50 
46(13)->1 2 3 4 5 6 15 16 17 19 20 24 28 29 33 34 35 36 40 41 47 50 
47(7)->1 2 3 4 5 6 7 9 11 12 13 14 15 16 19 20 21 23 25 28 29 32 37 38 39 42 44 45 46 48 
48(6)->1 2 3 4 5 6 8 10 11 14 15 19 20 21 28 30 33 34 35 37 40 42 43 45 47 50 
49(13)->1 2 3 4 5 6 7 8 9 12 13 18 20 21 22 27 30 34 35 38 39 40 42 45 
50(5)->1 2 3 4 5 7 8 9 10 12 13 14 17 18 21 22 24 25 26 32 35 36 41 45 46 48 
COUNT: 35331
COLORS: 15
EDGES: 750
15
35331
