START TIME: 1433713831
1: 2 3 4 5 6 7 8 9 10 11 12 13 14 15 16 17 18 19 20 21 22 23 24 25 26 27 28 29 30 31 32 33 34 35 36 37 38 39 40 41 42 43 44 45 46 47 48 49
2: 1 3 4 5 6 7 8 9 10 11 12 13 14 15 16 17 18 19 20 21 22 23 24 25 26 27 28 29 30 31 32 33 34 35 36 37 38 39 40 41 42 43 44 45 46 47 48 49
3: 1 2 4 5 6 7 8 9 10 11 12 13 14 15 16 17 18 19 20 21 22 23 24 25 26 27 28 29 30 31 32 33 34 35 36 37 38 39 40 41 42 43 44 45 46 47 48 49
4: 1 2 3 5 6 7 8 9 10 11 12 13 14 15 16 17 18 19 20 21 22 23 24 25 26 27 28 29 30 31 32 33 34 35 36 37 38 39 40 41 42 43 44 45 46 47 48 49
5: 1 2 3 4 6 7 8 9 10 11 12 13 14 15 16 17 18 19 20 21 22 23 24 25 26 27 28 29 30 31 32 33 34 35 36 37 38 39 40 41 42 43 44 45 46 47 48 49
6: 1 2 3 4 5 7 8 9 10 11 12 13 14 15 16 17 18 19 20 21 22 23 24 25 26 27 28 29 30 31 32 33 34 35 36 37 38 39 41 42 44 45 46 47 48 49 50
7: 1 2 3 4 5 6 8 9 10 11 12 13 14 15 16 17 18 19 20 21 22 23 24 25 26 27 28 29 30 31 32 33 34 36 37 39 40 41 42 43 44 45 46 47 48 49 50
8: 1 2 3 4 5 6 7 9 10 11 12 13 14 15 16 17 18 19 20 21 22 23 25 26 27 30 31 32 34 36 37 39 40 42 43 44 45 46 48 49
9: 1 2 3 4 5 6 7 8 10 11 12 13 14 15 16 17 18 19 20 21 22 23 24 25 26 27 28 30 31 32 33 34 35 37 39 42 44 45 47
10: 1 2 3 4 5 6 7 8 9 11 12 13 14 15 16 17 19 20 21 22 23 26 27 32 37 38 39 43 46 48 49 50
11: 1 2 3 4 5 6 7 8 9 10 12 13 14 15 16 17 18 20 21 22 23 26 32 34 35 39 43 45 48 49 50
12: 1 2 3 4 5 6 7 8 9 10 11 13 15 17 19 20 21 23 24 25 26 30 31 33 34 35 39 41 42 45 46 47
13: 1 2 3 4 5 6 7 8 9 10 11 12 14 15 16 17 18 21 24 29 30 31 33 34 38 40
14: 1 2 3 4 5 6 7 8 9 10 11 13 15 16 21 22 23 27 28 34 37 38 40 41 45 46 47 48 49
15: 1 2 3 4 5 6 7 8 9 10 11 12 13 14 17 20 23 24 25 27 29 31 33 34 38 40 41 42 45 46 47 48 49 50
16: 1 2 3 4 5 6 7 8 9 10 11 13 14 17 19 20 21 22 23 25 28 31 32 36 37 39 41 43 46 48
17: 1 2 3 4 5 6 7 8 9 10 11 12 13 15 16 21 25 27 28 30 31 34 35 39 40 42 43 46 47
18: 32 33 2 11 4 5 6 7 8 9 43 13 3 1 24 26 29 31
19: 1 2 3 4 5 6 7 8 9 10 12 16 20 22 23 24 27 28 29 30 32 33 35 36 37 39 40 43 47 49 50
20: 1 2 3 4 5 6 7 8 9 10 11 12 15 16 19 23 24 27 32 33 38 39 43 47 50
21: 1 2 3 4 5 6 7 8 9 10 11 12 13 14 16 17 22 23 26 27 31 34 36 37 40 41 44 47 49
22: 1 2 3 4 5 6 7 8 9 10 11 14 16 19 21 23 27 29 30 31 32 33 34 35 41 42 44 49
23: 1 2 3 4 5 6 7 8 9 10 11 12 14 15 16 19 20 21 22 24 33 35 36 37 39 41 44 46 49
24: 1 2 3 4 5 6 7 9 12 13 15 18 19 20 23 26 27 28 31 33 35 36 38 41 43 45 46 47 48
25: 1 2 3 4 5 6 7 8 9 12 15 16 17 27 29 30 31 32 35 36 37 41 42 44 45 46 49 50
26: 1 2 3 4 5 6 7 8 9 10 11 12 18 21 24 27 29 30 35 37 38 42 43 45 46
27: 1 2 3 4 5 6 7 8 9 10 14 15 17 19 20 21 22 24 25 26 34 39 40 41 49 50
28: 1 2 3 4 5 6 7 9 14 16 17 19 24 29 32 35 38 39 42 45 46 48 49 50
29: 1 2 3 4 5 6 7 13 15 18 19 22 25 26 28 30 31 37 38 40 43 46
30: 1 2 3 4 5 6 7 8 9 12 13 17 19 22 25 26 29 31 33 38 40 42 43 47 48 49
31: 1 2 3 4 5 6 7 8 9 12 13 15 16 17 18 21 22 24 25 29 30 33 36 37 38 40 43 46
32: 1 2 3 4 5 6 7 8 9 10 11 16 18 19 20 22 25 28 33 36 37 38 39 40 41 42 45 48 49
33: 1 2 3 4 5 6 7 9 12 13 15 18 19 20 22 23 24 30 31 32 36 38 40 41 42 45 46 47 48
34: 1 2 3 4 5 6 7 8 9 11 12 13 14 15 17 21 22 27 35 38 40 43 48 49
35: 1 2 3 4 5 6 9 11 12 17 19 22 23 24 25 26 28 34 36 37 38 39 42 44 48 49 50
36: 1 2 3 4 5 6 7 8 16 19 21 23 24 25 31 32 33 35 37 41 45 47 49
37: 1 2 3 4 5 6 7 8 9 10 14 16 19 21 23 25 26 29 31 32 35 36 38 41 42 45 46 47 48
38: 1 2 3 4 5 6 10 13 14 15 20 24 26 28 29 30 31 32 33 34 35 37 43 45 50
39: 1 2 3 4 5 6 7 8 9 10 11 12 16 17 19 20 23 27 28 32 35 40 47
40: 1 2 3 4 5 7 8 13 14 15 17 19 21 27 29 30 31 32 33 34 39 42 43 44 47 48 50
41: 1 2 3 4 5 6 7 12 14 15 16 21 22 23 24 25 27 32 33 36 37 47
42: 1 2 3 4 5 6 7 8 9 12 15 17 22 25 26 28 30 32 33 35 37 40 44 46 47 48 49
43: 1 2 3 4 5 7 8 10 11 16 17 18 19 20 24 26 29 30 31 34 38 40 48 49 50
44: 1 2 35 4 5 6 7 40 9 42 46 8 50 3 21 22 23 25
45: 1 2 3 4 5 6 7 8 9 11 12 14 15 24 25 26 28 32 33 36 37 38 48
46: 1 2 3 4 5 6 7 8 10 12 14 15 16 17 23 24 25 26 28 29 31 33 37 42 44 49
47: 1 2 3 4 5 6 7 9 12 14 15 17 19 20 21 24 30 33 36 37 39 40 41 42 48
48: 1 2 3 4 5 6 7 8 10 11 14 15 16 24 28 30 32 33 34 35 37 40 42 43 45 47 49 50
49: 1 2 3 4 5 6 7 8 10 11 14 15 19 21 22 23 25 27 28 30 32 34 35 36 42 43 46 48 50
50: 48 35 38 6 7 40 10 43 44 15 11 49 19 20 25 27 28
-------
1(-1)->2 3 4 5 6 7 8 9 10 11 12 13 14 15 16 17 18 19 20 21 22 23 24 25 26 27 28 29 30 31 32 33 34 35 36 37 38 39 40 41 42 43 44 45 46 47 48 49 
2(-1)->1 3 4 5 6 7 8 9 10 11 12 13 14 15 16 17 18 19 20 21 22 23 24 25 26 27 28 29 30 31 32 33 34 35 36 37 38 39 40 41 42 43 44 45 46 47 48 49 
3(-1)->1 2 4 5 6 7 8 9 10 11 12 13 14 15 16 17 18 19 20 21 22 23 24 25 26 27 28 29 30 31 32 33 34 35 36 37 38 39 40 41 42 43 44 45 46 47 48 49 
4(-1)->1 2 3 5 6 7 8 9 10 11 12 13 14 15 16 17 18 19 20 21 22 23 24 25 26 27 28 29 30 31 32 33 34 35 36 37 38 39 40 41 42 43 44 45 46 47 48 49 
5(-1)->1 2 3 4 6 7 8 9 10 11 12 13 14 15 16 17 18 19 20 21 22 23 24 25 26 27 28 29 30 31 32 33 34 35 36 37 38 39 40 41 42 43 44 45 46 47 48 49 
6(-1)->1 2 3 4 5 7 8 9 10 11 12 13 14 15 16 17 18 19 20 21 22 23 24 25 26 27 28 29 30 31 32 33 34 35 36 37 38 39 41 42 44 45 46 47 48 49 50 
7(-1)->1 2 3 4 5 6 8 9 10 11 12 13 14 15 16 17 18 19 20 21 22 23 24 25 26 27 28 29 30 31 32 33 34 36 37 39 40 41 42 43 44 45 46 47 48 49 50 
8(-1)->1 2 3 4 5 6 7 9 10 11 12 13 14 15 16 17 18 19 20 21 22 23 25 26 27 30 31 32 34 36 37 39 40 42 43 44 45 46 48 49 
9(-1)->1 2 3 4 5 6 7 8 10 11 12 13 14 15 16 17 18 19 20 21 22 23 24 25 26 27 28 30 31 32 33 34 35 37 39 42 44 45 47 
10(-1)->1 2 3 4 5 6 7 8 9 11 12 13 14 15 16 17 19 20 21 22 23 26 27 32 37 38 39 43 46 48 49 50 
11(-1)->1 2 3 4 5 6 7 8 9 10 12 13 14 15 16 17 18 20 21 22 23 26 32 34 35 39 43 45 48 49 50 
12(-1)->1 2 3 4 5 6 7 8 9 10 11 13 15 17 19 20 21 23 24 25 26 30 31 33 34 35 39 41 42 45 46 47 
13(-1)->1 2 3 4 5 6 7 8 9 10 11 12 14 15 16 17 18 21 24 29 30 31 33 34 38 40 
14(-1)->1 2 3 4 5 6 7 8 9 10 11 13 15 16 21 22 23 27 28 34 37 38 40 41 45 46 47 48 49 
15(-1)->1 2 3 4 5 6 7 8 9 10 11 12 13 14 17 20 23 24 25 27 29 31 33 34 38 40 41 42 45 46 47 48 49 50 
16(-1)->1 2 3 4 5 6 7 8 9 10 11 13 14 17 19 20 21 22 23 25 28 31 32 36 37 39 41 43 46 48 
17(-1)->1 2 3 4 5 6 7 8 9 10 11 12 13 15 16 21 25 27 28 30 31 34 35 39 40 42 43 46 47 
18(-1)->1 2 3 4 5 6 7 8 9 11 13 24 26 29 31 32 33 43 
19(-1)->1 2 3 4 5 6 7 8 9 10 12 16 20 22 23 24 27 28 29 30 32 33 35 36 37 39 40 43 47 49 50 
20(-1)->1 2 3 4 5 6 7 8 9 10 11 12 15 16 19 23 24 27 32 33 38 39 43 47 50 
21(-1)->1 2 3 4 5 6 7 8 9 10 11 12 13 14 16 17 22 23 26 27 31 34 36 37 40 41 44 47 49 
22(-1)->1 2 3 4 5 6 7 8 9 10 11 14 16 19 21 23 27 29 30 31 32 33 34 35 41 42 44 49 
23(-1)->1 2 3 4 5 6 7 8 9 10 11 12 14 15 16 19 20 21 22 24 33 35 36 37 39 41 44 46 49 
24(-1)->1 2 3 4 5 6 7 9 12 13 15 18 19 20 23 26 27 28 31 33 35 36 38 41 43 45 46 47 48 
25(-1)->1 2 3 4 5 6 7 8 9 12 15 16 17 27 29 30 31 32 35 36 37 41 42 44 45 46 49 50 
26(-1)->1 2 3 4 5 6 7 8 9 10 11 12 18 21 24 27 29 30 35 37 38 42 43 45 46 
27(-1)->1 2 3 4 5 6 7 8 9 10 14 15 17 19 20 21 22 24 25 26 34 39 40 41 49 50 
28(-1)->1 2 3 4 5 6 7 9 14 16 17 19 24 29 32 35 38 39 42 45 46 48 49 50 
29(-1)->1 2 3 4 5 6 7 13 15 18 19 22 25 26 28 30 31 37 38 40 43 46 
30(-1)->1 2 3 4 5 6 7 8 9 12 13 17 19 22 25 26 29 31 33 38 40 42 43 47 48 49 
31(-1)->1 2 3 4 5 6 7 8 9 12 13 15 16 17 18 21 22 24 25 29 30 33 36 37 38 40 43 46 
32(-1)->1 2 3 4 5 6 7 8 9 10 11 16 18 19 20 22 25 28 33 36 37 38 39 40 41 42 45 48 49 
33(-1)->1 2 3 4 5 6 7 9 12 13 15 18 19 20 22 23 24 30 31 32 36 38 40 41 42 45 46 47 48 
34(-1)->1 2 3 4 5 6 7 8 9 11 12 13 14 15 17 21 22 27 35 38 40 43 48 49 
35(-1)->1 2 3 4 5 6 9 11 12 17 19 22 23 24 25 26 28 34 36 37 38 39 42 44 48 49 50 
36(-1)->1 2 3 4 5 6 7 8 16 19 21 23 24 25 31 32 33 35 37 41 45 47 49 
37(-1)->1 2 3 4 5 6 7 8 9 10 14 16 19 21 23 25 26 29 31 32 35 36 38 41 42 45 46 47 48 
38(-1)->1 2 3 4 5 6 10 13 14 15 20 24 26 28 29 30 31 32 33 34 35 37 43 45 50 
39(-1)->1 2 3 4 5 6 7 8 9 10 11 12 16 17 19 20 23 27 28 32 35 40 47 
40(-1)->1 2 3 4 5 7 8 13 14 15 17 19 21 27 29 30 31 32 33 34 39 42 43 44 47 48 50 
41(-1)->1 2 3 4 5 6 7 12 14 15 16 21 22 23 24 25 27 32 33 36 37 47 
42(-1)->1 2 3 4 5 6 7 8 9 12 15 17 22 25 26 28 30 32 33 35 37 40 44 46 47 48 49 
43(-1)->1 2 3 4 5 7 8 10 11 16 17 18 19 20 24 26 29 30 31 34 38 40 48 49 50 
44(-1)->1 2 3 4 5 6 7 8 9 21 22 23 25 35 40 42 46 50 
45(-1)->1 2 3 4 5 6 7 8 9 11 12 14 15 24 25 26 28 32 33 36 37 38 48 
46(-1)->1 2 3 4 5 6 7 8 10 12 14 15 16 17 23 24 25 26 28 29 31 33 37 42 44 49 
47(-1)->1 2 3 4 5 6 7 9 12 14 15 17 19 20 21 24 30 33 36 37 39 40 41 42 48 
48(-1)->1 2 3 4 5 6 7 8 10 11 14 15 16 24 28 30 32 33 34 35 37 40 42 43 45 47 49 50 
49(-1)->1 2 3 4 5 6 7 8 10 11 14 15 19 21 22 23 25 27 28 30 32 34 35 36 42 43 46 48 50 
50(-1)->6 7 10 11 15 19 20 25 27 28 35 38 40 43 44 48 49 
-------
Node 1 maps to position 0
Node 2 maps to position 1
Node 3 maps to position 2
Node 4 maps to position 3
Node 5 maps to position 4
Node 6 maps to position 5
Node 7 maps to position 6
Node 8 maps to position 7
Node 9 maps to position 8
Node 15 maps to position 9
Node 10 maps to position 10
Node 12 maps to position 11
Node 11 maps to position 12
Node 19 maps to position 13
Node 16 maps to position 14
Node 14 maps to position 15
Node 17 maps to position 16
Node 21 maps to position 17
Node 23 maps to position 18
Node 24 maps to position 19
Node 32 maps to position 20
Node 33 maps to position 21
Node 37 maps to position 22
Node 49 maps to position 23
Node 22 maps to position 24
Node 25 maps to position 25
Node 31 maps to position 26
Node 48 maps to position 27
Node 35 maps to position 28
Node 40 maps to position 29
Node 42 maps to position 30
Node 13 maps to position 31
Node 27 maps to position 32
Node 30 maps to position 33
Node 46 maps to position 34
Node 20 maps to position 35
Node 26 maps to position 36
Node 38 maps to position 37
Node 43 maps to position 38
Node 47 maps to position 39
Node 28 maps to position 40
Node 34 maps to position 41
Node 36 maps to position 42
Node 39 maps to position 43
Node 45 maps to position 44
Node 29 maps to position 45
Node 41 maps to position 46
Node 18 maps to position 47
Node 44 maps to position 48
Node 50 maps to position 49
1(-1)->2 3 4 5 6 7 8 9 10 11 12 13 14 15 16 17 18 19 20 21 22 23 24 25 26 27 28 29 30 31 32 33 34 35 36 37 38 39 40 41 42 43 44 45 46 47 48 49 
2(-1)->1 3 4 5 6 7 8 9 10 11 12 13 14 15 16 17 18 19 20 21 22 23 24 25 26 27 28 29 30 31 32 33 34 35 36 37 38 39 40 41 42 43 44 45 46 47 48 49 
3(-1)->1 2 4 5 6 7 8 9 10 11 12 13 14 15 16 17 18 19 20 21 22 23 24 25 26 27 28 29 30 31 32 33 34 35 36 37 38 39 40 41 42 43 44 45 46 47 48 49 
4(-1)->1 2 3 5 6 7 8 9 10 11 12 13 14 15 16 17 18 19 20 21 22 23 24 25 26 27 28 29 30 31 32 33 34 35 36 37 38 39 40 41 42 43 44 45 46 47 48 49 
5(-1)->1 2 3 4 6 7 8 9 10 11 12 13 14 15 16 17 18 19 20 21 22 23 24 25 26 27 28 29 30 31 32 33 34 35 36 37 38 39 40 41 42 43 44 45 46 47 48 49 
6(-1)->1 2 3 4 5 7 8 9 10 11 12 13 14 15 16 17 18 19 20 21 22 23 24 25 26 27 28 29 30 31 32 33 34 35 36 37 38 39 41 42 44 45 46 47 48 49 50 
7(-1)->1 2 3 4 5 6 8 9 10 11 12 13 14 15 16 17 18 19 20 21 22 23 24 25 26 27 28 29 30 31 32 33 34 36 37 39 40 41 42 43 44 45 46 47 48 49 50 
8(-1)->1 2 3 4 5 6 7 9 10 11 12 13 14 15 16 17 18 19 20 21 22 23 25 26 27 30 31 32 34 36 37 39 40 42 43 44 45 46 48 49 
9(-1)->1 2 3 4 5 6 7 8 10 11 12 13 14 15 16 17 18 19 20 21 22 23 24 25 26 27 28 30 31 32 33 34 35 37 39 42 44 45 47 
15(-1)->1 2 3 4 5 6 7 8 9 10 11 12 13 14 17 20 23 24 25 27 29 31 33 34 38 40 41 42 45 46 47 48 49 50 
10(-1)->1 2 3 4 5 6 7 8 9 11 12 13 14 15 16 17 19 20 21 22 23 26 27 32 37 38 39 43 46 48 49 50 
12(-1)->1 2 3 4 5 6 7 8 9 10 11 13 15 17 19 20 21 23 24 25 26 30 31 33 34 35 39 41 42 45 46 47 
11(-1)->1 2 3 4 5 6 7 8 9 10 12 13 14 15 16 17 18 20 21 22 23 26 32 34 35 39 43 45 48 49 50 
19(-1)->1 2 3 4 5 6 7 8 9 10 12 16 20 22 23 24 27 28 29 30 32 33 35 36 37 39 40 43 47 49 50 
16(-1)->1 2 3 4 5 6 7 8 9 10 11 13 14 17 19 20 21 22 23 25 28 31 32 36 37 39 41 43 46 48 
14(-1)->1 2 3 4 5 6 7 8 9 10 11 13 15 16 21 22 23 27 28 34 37 38 40 41 45 46 47 48 49 
17(-1)->1 2 3 4 5 6 7 8 9 10 11 12 13 15 16 21 25 27 28 30 31 34 35 39 40 42 43 46 47 
21(-1)->1 2 3 4 5 6 7 8 9 10 11 12 13 14 16 17 22 23 26 27 31 34 36 37 40 41 44 47 49 
23(-1)->1 2 3 4 5 6 7 8 9 10 11 12 14 15 16 19 20 21 22 24 33 35 36 37 39 41 44 46 49 
24(-1)->1 2 3 4 5 6 7 9 12 13 15 18 19 20 23 26 27 28 31 33 35 36 38 41 43 45 46 47 48 
32(-1)->1 2 3 4 5 6 7 8 9 10 11 16 18 19 20 22 25 28 33 36 37 38 39 40 41 42 45 48 49 
33(-1)->1 2 3 4 5 6 7 9 12 13 15 18 19 20 22 23 24 30 31 32 36 38 40 41 42 45 46 47 48 
37(-1)->1 2 3 4 5 6 7 8 9 10 14 16 19 21 23 25 26 29 31 32 35 36 38 41 42 45 46 47 48 
49(-1)->1 2 3 4 5 6 7 8 10 11 14 15 19 21 22 23 25 27 28 30 32 34 35 36 42 43 46 48 50 
22(-1)->1 2 3 4 5 6 7 8 9 10 11 14 16 19 21 23 27 29 30 31 32 33 34 35 41 42 44 49 
25(-1)->1 2 3 4 5 6 7 8 9 12 15 16 17 27 29 30 31 32 35 36 37 41 42 44 45 46 49 50 
31(-1)->1 2 3 4 5 6 7 8 9 12 13 15 16 17 18 21 22 24 25 29 30 33 36 37 38 40 43 46 
48(-1)->1 2 3 4 5 6 7 8 10 11 14 15 16 24 28 30 32 33 34 35 37 40 42 43 45 47 49 50 
35(-1)->1 2 3 4 5 6 9 11 12 17 19 22 23 24 25 26 28 34 36 37 38 39 42 44 48 49 50 
40(-1)->1 2 3 4 5 7 8 13 14 15 17 19 21 27 29 30 31 32 33 34 39 42 43 44 47 48 50 
42(-1)->1 2 3 4 5 6 7 8 9 12 15 17 22 25 26 28 30 32 33 35 37 40 44 46 47 48 49 
13(-1)->1 2 3 4 5 6 7 8 9 10 11 12 14 15 16 17 18 21 24 29 30 31 33 34 38 40 
27(-1)->1 2 3 4 5 6 7 8 9 10 14 15 17 19 20 21 22 24 25 26 34 39 40 41 49 50 
30(-1)->1 2 3 4 5 6 7 8 9 12 13 17 19 22 25 26 29 31 33 38 40 42 43 47 48 49 
46(-1)->1 2 3 4 5 6 7 8 10 12 14 15 16 17 23 24 25 26 28 29 31 33 37 42 44 49 
20(-1)->1 2 3 4 5 6 7 8 9 10 11 12 15 16 19 23 24 27 32 33 38 39 43 47 50 
26(-1)->1 2 3 4 5 6 7 8 9 10 11 12 18 21 24 27 29 30 35 37 38 42 43 45 46 
38(-1)->1 2 3 4 5 6 10 13 14 15 20 24 26 28 29 30 31 32 33 34 35 37 43 45 50 
43(-1)->1 2 3 4 5 7 8 10 11 16 17 18 19 20 24 26 29 30 31 34 38 40 48 49 50 
47(-1)->1 2 3 4 5 6 7 9 12 14 15 17 19 20 21 24 30 33 36 37 39 40 41 42 48 
28(-1)->1 2 3 4 5 6 7 9 14 16 17 19 24 29 32 35 38 39 42 45 46 48 49 50 
34(-1)->1 2 3 4 5 6 7 8 9 11 12 13 14 15 17 21 22 27 35 38 40 43 48 49 
36(-1)->1 2 3 4 5 6 7 8 16 19 21 23 24 25 31 32 33 35 37 41 45 47 49 
39(-1)->1 2 3 4 5 6 7 8 9 10 11 12 16 17 19 20 23 27 28 32 35 40 47 
45(-1)->1 2 3 4 5 6 7 8 9 11 12 14 15 24 25 26 28 32 33 36 37 38 48 
29(-1)->1 2 3 4 5 6 7 13 15 18 19 22 25 26 28 30 31 37 38 40 43 46 
41(-1)->1 2 3 4 5 6 7 12 14 15 16 21 22 23 24 25 27 32 33 36 37 47 
18(-1)->1 2 3 4 5 6 7 8 9 11 13 24 26 29 31 32 33 43 
44(-1)->1 2 3 4 5 6 7 8 9 21 22 23 25 35 40 42 46 50 
50(-1)->6 7 10 11 15 19 20 25 27 28 35 38 40 43 44 48 49 
-------
CONNECTEDS size: 1
10000
20000
30000
1(0)->2 3 4 5 6 7 8 9 10 11 12 13 14 15 16 17 18 19 20 21 22 23 24 25 26 27 28 29 30 31 32 33 34 35 36 37 38 39 40 41 42 43 44 45 46 47 48 49 
2(1)->1 3 4 5 6 7 8 9 10 11 12 13 14 15 16 17 18 19 20 21 22 23 24 25 26 27 28 29 30 31 32 33 34 35 36 37 38 39 40 41 42 43 44 45 46 47 48 49 
3(2)->1 2 4 5 6 7 8 9 10 11 12 13 14 15 16 17 18 19 20 21 22 23 24 25 26 27 28 29 30 31 32 33 34 35 36 37 38 39 40 41 42 43 44 45 46 47 48 49 
4(3)->1 2 3 5 6 7 8 9 10 11 12 13 14 15 16 17 18 19 20 21 22 23 24 25 26 27 28 29 30 31 32 33 34 35 36 37 38 39 40 41 42 43 44 45 46 47 48 49 
5(4)->1 2 3 4 6 7 8 9 10 11 12 13 14 15 16 17 18 19 20 21 22 23 24 25 26 27 28 29 30 31 32 33 34 35 36 37 38 39 40 41 42 43 44 45 46 47 48 49 
6(5)->1 2 3 4 5 7 8 9 10 11 12 13 14 15 16 17 18 19 20 21 22 23 24 25 26 27 28 29 30 31 32 33 34 35 36 37 38 39 41 42 44 45 46 47 48 49 50 
7(6)->1 2 3 4 5 6 8 9 10 11 12 13 14 15 16 17 18 19 20 21 22 23 24 25 26 27 28 29 30 31 32 33 34 36 37 39 40 41 42 43 44 45 46 47 48 49 50 
8(7)->1 2 3 4 5 6 7 9 10 11 12 13 14 15 16 17 18 19 20 21 22 23 25 26 27 30 31 32 34 36 37 39 40 42 43 44 45 46 48 49 
9(8)->1 2 3 4 5 6 7 8 10 11 12 13 14 15 16 17 18 19 20 21 22 23 24 25 26 27 28 30 31 32 33 34 35 37 39 42 44 45 47 
10(10)->1 2 3 4 5 6 7 8 9 11 12 13 14 15 16 17 19 20 21 22 23 26 27 32 37 38 39 43 46 48 49 50 
11(12)->1 2 3 4 5 6 7 8 9 10 12 13 14 15 16 17 18 20 21 22 23 26 32 34 35 39 43 45 48 49 50 
12(11)->1 2 3 4 5 6 7 8 9 10 11 13 15 17 19 20 21 23 24 25 26 30 31 33 34 35 39 41 42 45 46 47 
13(14)->1 2 3 4 5 6 7 8 9 10 11 12 14 15 16 17 18 21 24 29 30 31 33 34 38 40 
14(13)->1 2 3 4 5 6 7 8 9 10 11 13 15 16 21 22 23 27 28 34 37 38 40 41 45 46 47 48 49 
15(9)->1 2 3 4 5 6 7 8 9 10 11 12 13 14 17 20 23 24 25 27 29 31 33 34 38 40 41 42 45 46 47 48 49 50 
16(11)->1 2 3 4 5 6 7 8 9 10 11 13 14 17 19 20 21 22 23 25 28 31 32 36 37 39 41 43 46 48 
17(13)->1 2 3 4 5 6 7 8 9 10 11 12 13 15 16 21 25 27 28 30 31 34 35 39 40 42 43 46 47 
18(9)->1 2 3 4 5 6 7 8 9 11 13 24 26 29 31 32 33 43 
19(9)->1 2 3 4 5 6 7 8 9 10 12 16 20 22 23 24 27 28 29 30 32 33 35 36 37 39 40 43 47 49 50 
20(13)->1 2 3 4 5 6 7 8 9 10 11 12 15 16 19 23 24 27 32 33 38 39 43 47 50 
21(9)->1 2 3 4 5 6 7 8 9 10 11 12 13 14 16 17 22 23 26 27 31 34 36 37 40 41 44 47 49 
22(15)->1 2 3 4 5 6 7 8 9 10 11 14 16 19 21 23 27 29 30 31 32 33 34 35 41 42 44 49 
23(14)->1 2 3 4 5 6 7 8 9 10 11 12 14 15 16 19 20 21 22 24 33 35 36 37 39 41 44 46 49 
24(12)->1 2 3 4 5 6 7 9 12 13 15 18 19 20 23 26 27 28 31 33 35 36 38 41 43 45 46 47 48 
25(15)->1 2 3 4 5 6 7 8 9 12 15 16 17 27 29 30 31 32 35 36 37 41 42 44 45 46 49 50 
26(13)->1 2 3 4 5 6 7 8 9 10 11 12 18 21 24 27 29 30 35 37 38 42 43 45 46 
27(14)->1 2 3 4 5 6 7 8 9 10 14 15 17 19 20 21 22 24 25 26 34 39 40 41 49 50 
28(7)->1 2 3 4 5 6 7 9 14 16 17 19 24 29 32 35 38 39 42 45 46 48 49 50 
29(11)->1 2 3 4 5 6 7 13 15 18 19 22 25 26 28 30 31 37 38 40 43 46 
30(12)->1 2 3 4 5 6 7 8 9 12 13 17 19 22 25 26 29 31 33 38 40 42 43 47 48 49 
31(10)->1 2 3 4 5 6 7 8 9 12 13 15 16 17 18 21 22 24 25 29 30 33 36 37 38 40 43 46 
32(14)->1 2 3 4 5 6 7 8 9 10 11 16 18 19 20 22 25 28 33 36 37 38 39 40 41 42 45 48 49 
33(7)->1 2 3 4 5 6 7 9 12 13 15 18 19 20 22 23 24 30 31 32 36 38 40 41 42 45 46 47 48 
34(10)->1 2 3 4 5 6 7 8 9 11 12 13 14 15 17 21 22 27 35 38 40 43 48 49 
35(6)->1 2 3 4 5 6 9 11 12 17 19 22 23 24 25 26 28 34 36 37 38 39 42 44 48 49 50 
36(8)->1 2 3 4 5 6 7 8 16 19 21 23 24 25 31 32 33 35 37 41 45 47 49 
37(12)->1 2 3 4 5 6 7 8 9 10 14 16 19 21 23 25 26 29 31 32 35 36 38 41 42 45 46 47 48 
38(8)->1 2 3 4 5 6 10 13 14 15 20 24 26 28 29 30 31 32 33 34 35 37 43 45 50 
39(15)->1 2 3 4 5 6 7 8 9 10 11 12 16 17 19 20 23 27 28 32 35 40 47 
40(5)->1 2 3 4 5 7 8 13 14 15 17 19 21 27 29 30 31 32 33 34 39 42 43 44 47 48 50 
41(10)->1 2 3 4 5 6 7 12 14 15 16 21 22 23 24 25 27 32 33 36 37 47 
42(10)->1 2 3 4 5 6 7 8 9 12 15 17 22 25 26 28 30 32 33 35 37 40 44 46 47 48 49 
43(14)->1 2 3 4 5 7 8 10 11 16 17 18 19 20 24 26 29 30 31 34 38 40 48 49 50 
44(11)->1 2 3 4 5 6 7 8 9 21 22 23 25 35 40 42 46 50 
45(10)->1 2 3 4 5 6 7 8 9 11 12 14 15 24 25 26 28 32 33 36 37 38 48 
46(8)->1 2 3 4 5 6 7 8 10 12 14 15 16 17 23 24 25 26 28 29 31 33 37 42 44 49 
47(14)->1 2 3 4 5 6 7 9 12 14 15 17 19 20 21 24 30 33 36 37 39 40 41 42 48 
48(8)->1 2 3 4 5 6 7 8 10 11 14 15 16 24 28 30 32 33 34 35 37 40 42 43 45 47 49 50 
49(11)->1 2 3 4 5 6 7 8 10 11 14 15 19 21 22 23 25 27 28 30 32 34 35 36 42 43 46 48 50 
50(0)->6 7 10 11 15 19 20 25 27 28 35 38 40 43 44 48 49 
COUNT: 38839
COLORS: 16
EDGES: 750
16
38839
