START TIME: 1433711425
1: 2 3 4 5
2: 1 3 12
3: 1 2 5 38
4: 32 1
5: 1 3
6: 27
7: 17
8: 30
9: 49 35
10: 34 46
11: 16 45
12: 17 2 44
13: 43
14: 33 46 23
15: 
16: 24 34 11 46
17: 12 7
18: 50 45
19: 
20: 45 22
21: 
22: 36 20
23: 14
24: 16 27 45
25: 37 47
26: 50 42 47
27: 24 29 6
28: 48
29: 27 47
30: 8 33
31: 
32: 4
33: 14 30
34: 16 10
35: 9
36: 48 22 38
37: 25 42 50 46
38: 3 36
39: 40
40: 45 39
41: 
42: 26 37
43: 13
44: 12
45: 40 24 18 11 20
46: 16 10 37 14
47: 25 26 29
48: 36 28
49: 9
50: 26 18 37
-------
1(-1)->2 3 4 5 
2(-1)->1 3 12 
3(-1)->1 2 5 38 
4(-1)->1 32 
5(-1)->1 3 
6(-1)->27 
7(-1)->17 
8(-1)->30 
9(-1)->35 49 
10(-1)->34 46 
11(-1)->16 45 
12(-1)->2 17 44 
13(-1)->43 
14(-1)->23 33 46 
15(-1)->
16(-1)->11 24 34 46 
17(-1)->7 12 
18(-1)->45 50 
19(-1)->
20(-1)->22 45 
21(-1)->
22(-1)->20 36 
23(-1)->14 
24(-1)->16 27 45 
25(-1)->37 47 
26(-1)->42 47 50 
27(-1)->6 24 29 
28(-1)->48 
29(-1)->27 47 
30(-1)->8 33 
31(-1)->
32(-1)->4 
33(-1)->14 30 
34(-1)->10 16 
35(-1)->9 
36(-1)->22 38 48 
37(-1)->25 42 46 50 
38(-1)->3 36 
39(-1)->40 
40(-1)->39 45 
41(-1)->
42(-1)->26 37 
43(-1)->13 
44(-1)->12 
45(-1)->11 18 20 24 40 
46(-1)->10 14 16 37 
47(-1)->25 26 29 
48(-1)->28 36 
49(-1)->9 
50(-1)->18 26 37 
-------
Node 45 maps to position 0
Node 1 maps to position 1
Node 3 maps to position 2
Node 16 maps to position 3
Node 37 maps to position 4
Node 46 maps to position 5
Node 2 maps to position 6
Node 12 maps to position 7
Node 14 maps to position 8
Node 24 maps to position 9
Node 26 maps to position 10
Node 27 maps to position 11
Node 36 maps to position 12
Node 47 maps to position 13
Node 50 maps to position 14
Node 4 maps to position 15
Node 5 maps to position 16
Node 9 maps to position 17
Node 10 maps to position 18
Node 11 maps to position 19
Node 17 maps to position 20
Node 18 maps to position 21
Node 20 maps to position 22
Node 22 maps to position 23
Node 25 maps to position 24
Node 29 maps to position 25
Node 30 maps to position 26
Node 33 maps to position 27
Node 34 maps to position 28
Node 38 maps to position 29
Node 40 maps to position 30
Node 42 maps to position 31
Node 48 maps to position 32
Node 6 maps to position 33
Node 7 maps to position 34
Node 8 maps to position 35
Node 13 maps to position 36
Node 23 maps to position 37
Node 28 maps to position 38
Node 32 maps to position 39
Node 35 maps to position 40
Node 39 maps to position 41
Node 43 maps to position 42
Node 44 maps to position 43
Node 49 maps to position 44
Node 15 maps to position 45
Node 19 maps to position 46
Node 21 maps to position 47
Node 31 maps to position 48
Node 41 maps to position 49
45(-1)->11 18 20 24 40 
1(-1)->2 3 4 5 
3(-1)->1 2 5 38 
16(-1)->11 24 34 46 
37(-1)->25 42 46 50 
46(-1)->10 14 16 37 
2(-1)->1 3 12 
12(-1)->2 17 44 
14(-1)->23 33 46 
24(-1)->16 27 45 
26(-1)->42 47 50 
27(-1)->6 24 29 
36(-1)->22 38 48 
47(-1)->25 26 29 
50(-1)->18 26 37 
4(-1)->1 32 
5(-1)->1 3 
9(-1)->35 49 
10(-1)->34 46 
11(-1)->16 45 
17(-1)->7 12 
18(-1)->45 50 
20(-1)->22 45 
22(-1)->20 36 
25(-1)->37 47 
29(-1)->27 47 
30(-1)->8 33 
33(-1)->14 30 
34(-1)->10 16 
38(-1)->3 36 
40(-1)->39 45 
42(-1)->26 37 
48(-1)->28 36 
6(-1)->27 
7(-1)->17 
8(-1)->30 
13(-1)->43 
23(-1)->14 
28(-1)->48 
32(-1)->4 
35(-1)->9 
39(-1)->40 
43(-1)->13 
44(-1)->12 
49(-1)->9 
15(-1)->
19(-1)->
21(-1)->
31(-1)->
41(-1)->
-------
CONNECTEDS size: 8
****************
****************
45(-1)->11 18 20 24 40 
1(-1)->2 3 4 5 
3(-1)->1 2 5 38 
16(-1)->11 24 34 46 
37(-1)->25 42 46 50 
46(-1)->10 14 16 37 
2(-1)->1 3 12 
12(-1)->2 17 44 
14(-1)->23 33 46 
24(-1)->16 27 45 
26(-1)->42 47 50 
27(-1)->6 24 29 
36(-1)->22 38 48 
47(-1)->25 26 29 
50(-1)->18 26 37 
4(-1)->1 32 
5(-1)->1 3 
10(-1)->34 46 
11(-1)->16 45 
17(-1)->7 12 
18(-1)->45 50 
20(-1)->22 45 
22(-1)->20 36 
25(-1)->37 47 
29(-1)->27 47 
30(-1)->8 33 
33(-1)->14 30 
34(-1)->10 16 
38(-1)->3 36 
40(-1)->39 45 
42(-1)->26 37 
48(-1)->28 36 
6(-1)->27 
7(-1)->17 
8(-1)->30 
23(-1)->14 
28(-1)->48 
32(-1)->4 
39(-1)->40 
44(-1)->12 
****************
9(-1)->35 49 
35(-1)->9 
49(-1)->9 
****************
13(-1)->43 
43(-1)->13 
****************
15(-1)->
****************
19(-1)->
****************
21(-1)->
****************
31(-1)->
****************
41(-1)->
1(0)->2 3 4 5 
2(2)->1 3 12 
3(1)->1 2 5 38 
4(1)->1 32 
5(2)->1 3 
6(1)->27 
7(0)->17 
8(1)->30 
9(0)->35 49 
10(0)->34 46 
11(1)->16 45 
12(0)->2 17 44 
13(0)->43 
14(0)->23 33 46 
15(0)->
16(0)->11 24 34 46 
17(1)->7 12 
18(2)->45 50 
19(0)->
20(1)->22 45 
21(0)->
22(2)->20 36 
23(1)->14 
24(1)->16 27 45 
25(2)->37 47 
26(0)->42 47 50 
27(0)->6 24 29 
28(0)->48 
29(2)->27 47 
30(0)->8 33 
31(0)->
32(0)->4 
33(1)->14 30 
34(1)->10 16 
35(1)->9 
36(0)->22 38 48 
37(0)->25 42 46 50 
38(2)->3 36 
39(0)->40 
40(1)->39 45 
41(0)->
42(1)->26 37 
43(1)->13 
44(1)->12 
45(0)->11 18 20 24 40 
46(1)->10 14 16 37 
47(1)->25 26 29 
48(1)->28 36 
49(1)->9 
50(1)->18 26 37 
COUNT: 65
COLORS: 3
EDGES: 50
3
65
