START TIME: 1433713933
1: 2 3 4 5 6 7 8 9 10 11 12 13 14 15 16 17 18 19 20 21 22 23 24 25 26 27 28 29 30 31 32 33 34 35 36 37 38 39 40 41 42 43 44 45 46 47 48 49
2: 1 3 4 5 6 7 8 9 10 11 12 13 14 15 16 17 18 19 20 21 22 23 24 25 26 27 28 29 30 31 32 33 34 35 36 37 38 39 40 41 42 43 44 45 46 47 48 49 50
3: 1 2 4 5 6 7 8 9 10 11 12 13 14 15 16 17 18 19 20 21 22 23 24 25 26 27 28 29 30 31 32 33 34 35 36 37 38 39 40 41 42 43 44 45 46 47 48 49 50
4: 1 2 3 5 6 7 8 9 10 11 12 13 14 15 16 17 18 19 20 21 22 23 24 25 26 27 28 29 30 31 32 33 34 35 36 37 38 39 40 41 42 43 44 45 46 47 48 49 50
5: 1 2 3 4 6 7 8 9 10 11 12 13 14 15 16 17 18 19 20 21 22 23 24 25 26 27 28 29 30 31 32 33 34 35 36 37 38 39 40 41 42 43 44 45 46 47 48 49
6: 1 2 3 4 5 7 8 9 10 11 12 13 14 15 16 17 18 19 20 21 22 23 24 25 27 28 29 30 31 32 33 34 35 36 37 38 39 41 42 43 44 46 48 50
7: 1 2 3 4 5 6 8 9 10 11 12 13 14 15 16 17 18 19 20 21 22 23 24 27 28 30 31 33 34 35 36 37 39 42 43 44 46 47
8: 1 2 3 4 5 6 7 9 10 11 12 13 14 17 20 21 22 24 25 27 28 29 30 31 34 36 37 39 40 42 43 44 45 46 47 48 49
9: 1 2 3 4 5 6 7 8 10 11 12 13 14 20 21 22 23 24 25 27 28 31 32 33 34 35 36 37 39 40 41 42 44 47 50
10: 1 2 3 4 5 6 7 8 9 11 14 15 18 19 20 22 24 27 28 31 32 35 36 42 43 47 48 49 50
11: 1 2 3 4 5 6 7 8 9 10 12 14 16 18 20 22 26 29 32 36 38 39 40 42 47 48
12: 1 2 3 4 5 6 7 8 9 11 16 19 20 21 22 23 25 27 29 31 34 36 42 49
13: 1 2 3 4 5 6 7 8 9 19 20 21 22 23 24 27 30 33 34 36 40 41 42 48
14: 1 2 3 4 5 6 7 8 9 10 11 17 18 22 23 24 25 28 29 31 34 36 37 38 41 43 50
15: 1 2 3 4 5 6 7 10 16 17 18 19 20 22 26 28 30 31 33 35 38 41 42 43 44 45 46 47 48 50
16: 1 2 3 4 5 6 7 11 12 15 17 19 20 22 23 24 28 33 34 39 41 42 43 44 48 49 50
17: 1 2 3 4 5 6 7 8 14 15 16 19 20 22 23 24 25 26 27 28 30 33 34 39 42 43 44 46 50
18: 1 2 3 4 5 6 7 10 11 14 15 20 22 23 24 27 28 29 37 41 42 43 44 46 48
19: 1 2 3 4 5 6 7 10 12 13 15 16 17 26 27 29 30 32 33 36 39 40 43 45 47
20: 1 2 3 4 5 6 7 8 9 10 11 12 13 15 16 17 18 22 24 26 29 30 31 33 35 39 41 44 46
21: 1 2 35 4 5 6 7 8 41 23 12 13 44 50 3 22 9 24 28 29 30
22: 1 2 3 4 5 6 7 8 9 10 11 12 13 14 15 16 17 18 20 21 23 25 26 29 30 31 33 34 35 38 42 43 48
23: 1 2 3 4 5 6 7 9 12 13 14 16 17 18 21 22 24 25 26 28 29 33 34 35 37 38 43 44 45 46 47 49 50
24: 1 2 3 4 5 6 7 8 9 10 13 14 16 17 18 20 21 23 25 30 32 36 37 38 39 41 42 44 45 48 49
25: 1 2 3 4 5 6 8 9 12 14 17 22 23 24 30 36 37 39 41 44 45 47 49 50
26: 32 33 34 3 36 5 17 40 11 45 47 49 19 20 1 22 23 2 4 15 31
27: 1 2 3 4 5 6 7 8 9 10 12 13 17 18 19 28 30 31 33 35 38 39 40 41 42 44 46 49
28: 1 2 3 4 5 6 7 8 9 10 14 15 16 17 18 21 23 27 32 33 34 38 42 43 45 46 49 50
29: 1 2 3 4 5 6 8 11 12 14 18 19 20 21 22 23 31 32 35 37 39 40 41 43 44 45 46 48 49 50
30: 1 2 3 4 5 6 7 8 13 15 17 19 20 21 22 24 25 27 31 33 35 37 43 44 45 46 47 49 50
31: 1 2 3 4 5 6 7 8 9 10 12 14 15 20 22 26 27 29 30 32 35 36 38 39 44 45 46 48
32: 1 2 3 4 5 6 9 10 11 19 24 26 28 29 31 34 36 38 40 41 45 46 50
33: 1 2 3 4 5 6 7 9 13 15 16 17 19 20 22 23 26 27 28 30 34 36 37 38 39 41 42 43 44 45 46 48 50
34: 1 2 3 4 5 6 7 8 9 12 13 14 16 17 22 23 26 28 32 33 35 42 43 44 46 47
35: 1 2 3 4 5 6 7 9 10 15 20 21 22 23 27 29 30 31 34 36 39 40 44 46 50
36: 1 2 3 4 5 6 7 8 9 10 11 12 13 14 19 24 25 26 31 32 33 35 38 39 42 45 46 47
37: 1 2 3 4 5 6 7 8 9 14 18 23 24 25 29 30 33 38 39 40 43 45 49 50
38: 1 2 3 4 5 6 11 14 15 22 23 24 27 28 31 32 33 36 37 39 41 42 43 44 45 46
39: 1 2 3 4 5 6 7 8 9 11 16 17 19 20 24 25 27 29 31 33 35 36 37 38 42 44 46 48 49
40: 1 2 3 4 5 8 9 11 13 19 26 27 29 32 35 37 42 43 46 47 48 49
41: 1 2 3 4 5 6 9 13 14 15 16 18 20 21 24 25 27 29 32 33 38 42 43 44 49 50
42: 1 2 3 4 5 6 7 8 9 10 11 12 13 15 16 17 18 22 24 27 28 33 34 36 38 39 40 41 43 46
43: 1 2 3 4 5 6 7 8 10 14 15 16 17 18 19 22 23 28 29 30 33 34 37 38 40 41 42 44 45 48 49
44: 1 2 3 4 5 6 7 8 9 15 16 17 18 20 21 23 24 25 27 29 30 31 33 34 35 38 39 41 43 46 47 49
45: 1 2 3 4 5 8 15 19 23 24 25 26 28 29 30 31 32 33 36 37 38 43 49 50
46: 1 2 3 4 5 6 7 8 15 17 18 20 23 27 28 29 30 31 32 33 34 35 36 38 39 40 42 44
47: 1 2 3 4 5 7 8 9 10 11 15 19 23 25 26 30 34 36 40 44 48 50
48: 1 2 3 4 5 6 8 10 11 13 15 16 18 22 24 29 31 33 39 40 43 47 50
49: 1 2 3 4 5 8 10 12 16 23 24 25 26 27 28 29 30 37 39 40 41 43 44 45 50
50: 2 3 4 6 9 10 14 15 16 17 21 23 25 28 29 30 32 33 35 37 41 45 47 48 49
-------
1(-1)->2 3 4 5 6 7 8 9 10 11 12 13 14 15 16 17 18 19 20 21 22 23 24 25 26 27 28 29 30 31 32 33 34 35 36 37 38 39 40 41 42 43 44 45 46 47 48 49 
2(-1)->1 3 4 5 6 7 8 9 10 11 12 13 14 15 16 17 18 19 20 21 22 23 24 25 26 27 28 29 30 31 32 33 34 35 36 37 38 39 40 41 42 43 44 45 46 47 48 49 50 
3(-1)->1 2 4 5 6 7 8 9 10 11 12 13 14 15 16 17 18 19 20 21 22 23 24 25 26 27 28 29 30 31 32 33 34 35 36 37 38 39 40 41 42 43 44 45 46 47 48 49 50 
4(-1)->1 2 3 5 6 7 8 9 10 11 12 13 14 15 16 17 18 19 20 21 22 23 24 25 26 27 28 29 30 31 32 33 34 35 36 37 38 39 40 41 42 43 44 45 46 47 48 49 50 
5(-1)->1 2 3 4 6 7 8 9 10 11 12 13 14 15 16 17 18 19 20 21 22 23 24 25 26 27 28 29 30 31 32 33 34 35 36 37 38 39 40 41 42 43 44 45 46 47 48 49 
6(-1)->1 2 3 4 5 7 8 9 10 11 12 13 14 15 16 17 18 19 20 21 22 23 24 25 27 28 29 30 31 32 33 34 35 36 37 38 39 41 42 43 44 46 48 50 
7(-1)->1 2 3 4 5 6 8 9 10 11 12 13 14 15 16 17 18 19 20 21 22 23 24 27 28 30 31 33 34 35 36 37 39 42 43 44 46 47 
8(-1)->1 2 3 4 5 6 7 9 10 11 12 13 14 17 20 21 22 24 25 27 28 29 30 31 34 36 37 39 40 42 43 44 45 46 47 48 49 
9(-1)->1 2 3 4 5 6 7 8 10 11 12 13 14 20 21 22 23 24 25 27 28 31 32 33 34 35 36 37 39 40 41 42 44 47 50 
10(-1)->1 2 3 4 5 6 7 8 9 11 14 15 18 19 20 22 24 27 28 31 32 35 36 42 43 47 48 49 50 
11(-1)->1 2 3 4 5 6 7 8 9 10 12 14 16 18 20 22 26 29 32 36 38 39 40 42 47 48 
12(-1)->1 2 3 4 5 6 7 8 9 11 16 19 20 21 22 23 25 27 29 31 34 36 42 49 
13(-1)->1 2 3 4 5 6 7 8 9 19 20 21 22 23 24 27 30 33 34 36 40 41 42 48 
14(-1)->1 2 3 4 5 6 7 8 9 10 11 17 18 22 23 24 25 28 29 31 34 36 37 38 41 43 50 
15(-1)->1 2 3 4 5 6 7 10 16 17 18 19 20 22 26 28 30 31 33 35 38 41 42 43 44 45 46 47 48 50 
16(-1)->1 2 3 4 5 6 7 11 12 15 17 19 20 22 23 24 28 33 34 39 41 42 43 44 48 49 50 
17(-1)->1 2 3 4 5 6 7 8 14 15 16 19 20 22 23 24 25 26 27 28 30 33 34 39 42 43 44 46 50 
18(-1)->1 2 3 4 5 6 7 10 11 14 15 20 22 23 24 27 28 29 37 41 42 43 44 46 48 
19(-1)->1 2 3 4 5 6 7 10 12 13 15 16 17 26 27 29 30 32 33 36 39 40 43 45 47 
20(-1)->1 2 3 4 5 6 7 8 9 10 11 12 13 15 16 17 18 22 24 26 29 30 31 33 35 39 41 44 46 
21(-1)->1 2 3 4 5 6 7 8 9 12 13 22 23 24 28 29 30 35 41 44 50 
22(-1)->1 2 3 4 5 6 7 8 9 10 11 12 13 14 15 16 17 18 20 21 23 25 26 29 30 31 33 34 35 38 42 43 48 
23(-1)->1 2 3 4 5 6 7 9 12 13 14 16 17 18 21 22 24 25 26 28 29 33 34 35 37 38 43 44 45 46 47 49 50 
24(-1)->1 2 3 4 5 6 7 8 9 10 13 14 16 17 18 20 21 23 25 30 32 36 37 38 39 41 42 44 45 48 49 
25(-1)->1 2 3 4 5 6 8 9 12 14 17 22 23 24 30 36 37 39 41 44 45 47 49 50 
26(-1)->1 2 3 4 5 11 15 17 19 20 22 23 31 32 33 34 36 40 45 47 49 
27(-1)->1 2 3 4 5 6 7 8 9 10 12 13 17 18 19 28 30 31 33 35 38 39 40 41 42 44 46 49 
28(-1)->1 2 3 4 5 6 7 8 9 10 14 15 16 17 18 21 23 27 32 33 34 38 42 43 45 46 49 50 
29(-1)->1 2 3 4 5 6 8 11 12 14 18 19 20 21 22 23 31 32 35 37 39 40 41 43 44 45 46 48 49 50 
30(-1)->1 2 3 4 5 6 7 8 13 15 17 19 20 21 22 24 25 27 31 33 35 37 43 44 45 46 47 49 50 
31(-1)->1 2 3 4 5 6 7 8 9 10 12 14 15 20 22 26 27 29 30 32 35 36 38 39 44 45 46 48 
32(-1)->1 2 3 4 5 6 9 10 11 19 24 26 28 29 31 34 36 38 40 41 45 46 50 
33(-1)->1 2 3 4 5 6 7 9 13 15 16 17 19 20 22 23 26 27 28 30 34 36 37 38 39 41 42 43 44 45 46 48 50 
34(-1)->1 2 3 4 5 6 7 8 9 12 13 14 16 17 22 23 26 28 32 33 35 42 43 44 46 47 
35(-1)->1 2 3 4 5 6 7 9 10 15 20 21 22 23 27 29 30 31 34 36 39 40 44 46 50 
36(-1)->1 2 3 4 5 6 7 8 9 10 11 12 13 14 19 24 25 26 31 32 33 35 38 39 42 45 46 47 
37(-1)->1 2 3 4 5 6 7 8 9 14 18 23 24 25 29 30 33 38 39 40 43 45 49 50 
38(-1)->1 2 3 4 5 6 11 14 15 22 23 24 27 28 31 32 33 36 37 39 41 42 43 44 45 46 
39(-1)->1 2 3 4 5 6 7 8 9 11 16 17 19 20 24 25 27 29 31 33 35 36 37 38 42 44 46 48 49 
40(-1)->1 2 3 4 5 8 9 11 13 19 26 27 29 32 35 37 42 43 46 47 48 49 
41(-1)->1 2 3 4 5 6 9 13 14 15 16 18 20 21 24 25 27 29 32 33 38 42 43 44 49 50 
42(-1)->1 2 3 4 5 6 7 8 9 10 11 12 13 15 16 17 18 22 24 27 28 33 34 36 38 39 40 41 43 46 
43(-1)->1 2 3 4 5 6 7 8 10 14 15 16 17 18 19 22 23 28 29 30 33 34 37 38 40 41 42 44 45 48 49 
44(-1)->1 2 3 4 5 6 7 8 9 15 16 17 18 20 21 23 24 25 27 29 30 31 33 34 35 38 39 41 43 46 47 49 
45(-1)->1 2 3 4 5 8 15 19 23 24 25 26 28 29 30 31 32 33 36 37 38 43 49 50 
46(-1)->1 2 3 4 5 6 7 8 15 17 18 20 23 27 28 29 30 31 32 33 34 35 36 38 39 40 42 44 
47(-1)->1 2 3 4 5 7 8 9 10 11 15 19 23 25 26 30 34 36 40 44 48 50 
48(-1)->1 2 3 4 5 6 8 10 11 13 15 16 18 22 24 29 31 33 39 40 43 47 50 
49(-1)->1 2 3 4 5 8 10 12 16 23 24 25 26 27 28 29 30 37 39 40 41 43 44 45 50 
50(-1)->2 3 4 6 9 10 14 15 16 17 21 23 25 28 29 30 32 33 35 37 41 45 47 48 49 
-------
Node 2 maps to position 0
Node 3 maps to position 1
Node 4 maps to position 2
Node 1 maps to position 3
Node 5 maps to position 4
Node 6 maps to position 5
Node 7 maps to position 6
Node 8 maps to position 7
Node 9 maps to position 8
Node 22 maps to position 9
Node 23 maps to position 10
Node 33 maps to position 11
Node 44 maps to position 12
Node 24 maps to position 13
Node 43 maps to position 14
Node 15 maps to position 15
Node 29 maps to position 16
Node 42 maps to position 17
Node 10 maps to position 18
Node 17 maps to position 19
Node 20 maps to position 20
Node 30 maps to position 21
Node 39 maps to position 22
Node 27 maps to position 23
Node 28 maps to position 24
Node 31 maps to position 25
Node 36 maps to position 26
Node 46 maps to position 27
Node 14 maps to position 28
Node 16 maps to position 29
Node 11 maps to position 30
Node 34 maps to position 31
Node 38 maps to position 32
Node 41 maps to position 33
Node 18 maps to position 34
Node 19 maps to position 35
Node 35 maps to position 36
Node 49 maps to position 37
Node 50 maps to position 38
Node 12 maps to position 39
Node 13 maps to position 40
Node 25 maps to position 41
Node 37 maps to position 42
Node 45 maps to position 43
Node 32 maps to position 44
Node 48 maps to position 45
Node 40 maps to position 46
Node 47 maps to position 47
Node 21 maps to position 48
Node 26 maps to position 49
2(-1)->1 3 4 5 6 7 8 9 10 11 12 13 14 15 16 17 18 19 20 21 22 23 24 25 26 27 28 29 30 31 32 33 34 35 36 37 38 39 40 41 42 43 44 45 46 47 48 49 50 
3(-1)->1 2 4 5 6 7 8 9 10 11 12 13 14 15 16 17 18 19 20 21 22 23 24 25 26 27 28 29 30 31 32 33 34 35 36 37 38 39 40 41 42 43 44 45 46 47 48 49 50 
4(-1)->1 2 3 5 6 7 8 9 10 11 12 13 14 15 16 17 18 19 20 21 22 23 24 25 26 27 28 29 30 31 32 33 34 35 36 37 38 39 40 41 42 43 44 45 46 47 48 49 50 
1(-1)->2 3 4 5 6 7 8 9 10 11 12 13 14 15 16 17 18 19 20 21 22 23 24 25 26 27 28 29 30 31 32 33 34 35 36 37 38 39 40 41 42 43 44 45 46 47 48 49 
5(-1)->1 2 3 4 6 7 8 9 10 11 12 13 14 15 16 17 18 19 20 21 22 23 24 25 26 27 28 29 30 31 32 33 34 35 36 37 38 39 40 41 42 43 44 45 46 47 48 49 
6(-1)->1 2 3 4 5 7 8 9 10 11 12 13 14 15 16 17 18 19 20 21 22 23 24 25 27 28 29 30 31 32 33 34 35 36 37 38 39 41 42 43 44 46 48 50 
7(-1)->1 2 3 4 5 6 8 9 10 11 12 13 14 15 16 17 18 19 20 21 22 23 24 27 28 30 31 33 34 35 36 37 39 42 43 44 46 47 
8(-1)->1 2 3 4 5 6 7 9 10 11 12 13 14 17 20 21 22 24 25 27 28 29 30 31 34 36 37 39 40 42 43 44 45 46 47 48 49 
9(-1)->1 2 3 4 5 6 7 8 10 11 12 13 14 20 21 22 23 24 25 27 28 31 32 33 34 35 36 37 39 40 41 42 44 47 50 
22(-1)->1 2 3 4 5 6 7 8 9 10 11 12 13 14 15 16 17 18 20 21 23 25 26 29 30 31 33 34 35 38 42 43 48 
23(-1)->1 2 3 4 5 6 7 9 12 13 14 16 17 18 21 22 24 25 26 28 29 33 34 35 37 38 43 44 45 46 47 49 50 
33(-1)->1 2 3 4 5 6 7 9 13 15 16 17 19 20 22 23 26 27 28 30 34 36 37 38 39 41 42 43 44 45 46 48 50 
44(-1)->1 2 3 4 5 6 7 8 9 15 16 17 18 20 21 23 24 25 27 29 30 31 33 34 35 38 39 41 43 46 47 49 
24(-1)->1 2 3 4 5 6 7 8 9 10 13 14 16 17 18 20 21 23 25 30 32 36 37 38 39 41 42 44 45 48 49 
43(-1)->1 2 3 4 5 6 7 8 10 14 15 16 17 18 19 22 23 28 29 30 33 34 37 38 40 41 42 44 45 48 49 
15(-1)->1 2 3 4 5 6 7 10 16 17 18 19 20 22 26 28 30 31 33 35 38 41 42 43 44 45 46 47 48 50 
29(-1)->1 2 3 4 5 6 8 11 12 14 18 19 20 21 22 23 31 32 35 37 39 40 41 43 44 45 46 48 49 50 
42(-1)->1 2 3 4 5 6 7 8 9 10 11 12 13 15 16 17 18 22 24 27 28 33 34 36 38 39 40 41 43 46 
10(-1)->1 2 3 4 5 6 7 8 9 11 14 15 18 19 20 22 24 27 28 31 32 35 36 42 43 47 48 49 50 
17(-1)->1 2 3 4 5 6 7 8 14 15 16 19 20 22 23 24 25 26 27 28 30 33 34 39 42 43 44 46 50 
20(-1)->1 2 3 4 5 6 7 8 9 10 11 12 13 15 16 17 18 22 24 26 29 30 31 33 35 39 41 44 46 
30(-1)->1 2 3 4 5 6 7 8 13 15 17 19 20 21 22 24 25 27 31 33 35 37 43 44 45 46 47 49 50 
39(-1)->1 2 3 4 5 6 7 8 9 11 16 17 19 20 24 25 27 29 31 33 35 36 37 38 42 44 46 48 49 
27(-1)->1 2 3 4 5 6 7 8 9 10 12 13 17 18 19 28 30 31 33 35 38 39 40 41 42 44 46 49 
28(-1)->1 2 3 4 5 6 7 8 9 10 14 15 16 17 18 21 23 27 32 33 34 38 42 43 45 46 49 50 
31(-1)->1 2 3 4 5 6 7 8 9 10 12 14 15 20 22 26 27 29 30 32 35 36 38 39 44 45 46 48 
36(-1)->1 2 3 4 5 6 7 8 9 10 11 12 13 14 19 24 25 26 31 32 33 35 38 39 42 45 46 47 
46(-1)->1 2 3 4 5 6 7 8 15 17 18 20 23 27 28 29 30 31 32 33 34 35 36 38 39 40 42 44 
14(-1)->1 2 3 4 5 6 7 8 9 10 11 17 18 22 23 24 25 28 29 31 34 36 37 38 41 43 50 
16(-1)->1 2 3 4 5 6 7 11 12 15 17 19 20 22 23 24 28 33 34 39 41 42 43 44 48 49 50 
11(-1)->1 2 3 4 5 6 7 8 9 10 12 14 16 18 20 22 26 29 32 36 38 39 40 42 47 48 
34(-1)->1 2 3 4 5 6 7 8 9 12 13 14 16 17 22 23 26 28 32 33 35 42 43 44 46 47 
38(-1)->1 2 3 4 5 6 11 14 15 22 23 24 27 28 31 32 33 36 37 39 41 42 43 44 45 46 
41(-1)->1 2 3 4 5 6 9 13 14 15 16 18 20 21 24 25 27 29 32 33 38 42 43 44 49 50 
18(-1)->1 2 3 4 5 6 7 10 11 14 15 20 22 23 24 27 28 29 37 41 42 43 44 46 48 
19(-1)->1 2 3 4 5 6 7 10 12 13 15 16 17 26 27 29 30 32 33 36 39 40 43 45 47 
35(-1)->1 2 3 4 5 6 7 9 10 15 20 21 22 23 27 29 30 31 34 36 39 40 44 46 50 
49(-1)->1 2 3 4 5 8 10 12 16 23 24 25 26 27 28 29 30 37 39 40 41 43 44 45 50 
50(-1)->2 3 4 6 9 10 14 15 16 17 21 23 25 28 29 30 32 33 35 37 41 45 47 48 49 
12(-1)->1 2 3 4 5 6 7 8 9 11 16 19 20 21 22 23 25 27 29 31 34 36 42 49 
13(-1)->1 2 3 4 5 6 7 8 9 19 20 21 22 23 24 27 30 33 34 36 40 41 42 48 
25(-1)->1 2 3 4 5 6 8 9 12 14 17 22 23 24 30 36 37 39 41 44 45 47 49 50 
37(-1)->1 2 3 4 5 6 7 8 9 14 18 23 24 25 29 30 33 38 39 40 43 45 49 50 
45(-1)->1 2 3 4 5 8 15 19 23 24 25 26 28 29 30 31 32 33 36 37 38 43 49 50 
32(-1)->1 2 3 4 5 6 9 10 11 19 24 26 28 29 31 34 36 38 40 41 45 46 50 
48(-1)->1 2 3 4 5 6 8 10 11 13 15 16 18 22 24 29 31 33 39 40 43 47 50 
40(-1)->1 2 3 4 5 8 9 11 13 19 26 27 29 32 35 37 42 43 46 47 48 49 
47(-1)->1 2 3 4 5 7 8 9 10 11 15 19 23 25 26 30 34 36 40 44 48 50 
21(-1)->1 2 3 4 5 6 7 8 9 12 13 22 23 24 28 29 30 35 41 44 50 
26(-1)->1 2 3 4 5 11 15 17 19 20 22 23 31 32 33 34 36 40 45 47 49 
-------
CONNECTEDS size: 1
1(3)->2 3 4 5 6 7 8 9 10 11 12 13 14 15 16 17 18 19 20 21 22 23 24 25 26 27 28 29 30 31 32 33 34 35 36 37 38 39 40 41 42 43 44 45 46 47 48 49 
2(0)->1 3 4 5 6 7 8 9 10 11 12 13 14 15 16 17 18 19 20 21 22 23 24 25 26 27 28 29 30 31 32 33 34 35 36 37 38 39 40 41 42 43 44 45 46 47 48 49 50 
3(1)->1 2 4 5 6 7 8 9 10 11 12 13 14 15 16 17 18 19 20 21 22 23 24 25 26 27 28 29 30 31 32 33 34 35 36 37 38 39 40 41 42 43 44 45 46 47 48 49 50 
4(2)->1 2 3 5 6 7 8 9 10 11 12 13 14 15 16 17 18 19 20 21 22 23 24 25 26 27 28 29 30 31 32 33 34 35 36 37 38 39 40 41 42 43 44 45 46 47 48 49 50 
5(4)->1 2 3 4 6 7 8 9 10 11 12 13 14 15 16 17 18 19 20 21 22 23 24 25 26 27 28 29 30 31 32 33 34 35 36 37 38 39 40 41 42 43 44 45 46 47 48 49 
6(5)->1 2 3 4 5 7 8 9 10 11 12 13 14 15 16 17 18 19 20 21 22 23 24 25 27 28 29 30 31 32 33 34 35 36 37 38 39 41 42 43 44 46 48 50 
7(6)->1 2 3 4 5 6 8 9 10 11 12 13 14 15 16 17 18 19 20 21 22 23 24 27 28 30 31 33 34 35 36 37 39 42 43 44 46 47 
8(7)->1 2 3 4 5 6 7 9 10 11 12 13 14 17 20 21 22 24 25 27 28 29 30 31 34 36 37 39 40 42 43 44 45 46 47 48 49 
9(8)->1 2 3 4 5 6 7 8 10 11 12 13 14 20 21 22 23 24 25 27 28 31 32 33 34 35 36 37 39 40 41 42 44 47 50 
10(12)->1 2 3 4 5 6 7 8 9 11 14 15 18 19 20 22 24 27 28 31 32 35 36 42 43 47 48 49 50 
11(10)->1 2 3 4 5 6 7 8 9 10 12 14 16 18 20 22 26 29 32 36 38 39 40 42 47 48 
12(13)->1 2 3 4 5 6 7 8 9 11 16 19 20 21 22 23 25 27 29 31 34 36 42 49 
13(13)->1 2 3 4 5 6 7 8 9 19 20 21 22 23 24 27 30 33 34 36 40 41 42 48 
14(11)->1 2 3 4 5 6 7 8 9 10 11 17 18 22 23 24 25 28 29 31 34 36 37 38 41 43 50 
15(7)->1 2 3 4 5 6 7 10 16 17 18 19 20 22 26 28 30 31 33 35 38 41 42 43 44 45 46 47 48 50 
16(14)->1 2 3 4 5 6 7 11 12 15 17 19 20 22 23 24 28 33 34 39 41 42 43 44 48 49 50 
17(13)->1 2 3 4 5 6 7 8 14 15 16 19 20 22 23 24 25 26 27 28 30 33 34 39 42 43 44 46 50 
18(13)->1 2 3 4 5 6 7 10 11 14 15 20 22 23 24 27 28 29 37 41 42 43 44 46 48 
19(11)->1 2 3 4 5 6 7 10 12 13 15 16 17 26 27 29 30 32 33 36 39 40 43 45 47 
20(11)->1 2 3 4 5 6 7 8 9 10 11 12 13 15 16 17 18 22 24 26 29 30 31 33 35 39 41 44 46 
21(11)->1 2 3 4 5 6 7 8 9 12 13 22 23 24 28 29 30 35 41 44 50 
22(9)->1 2 3 4 5 6 7 8 9 10 11 12 13 14 15 16 17 18 20 21 23 25 26 29 30 31 33 34 35 38 42 43 48 
23(7)->1 2 3 4 5 6 7 9 12 13 14 16 17 18 21 22 24 25 26 28 29 33 34 35 37 38 43 44 45 46 47 49 50 
24(10)->1 2 3 4 5 6 7 8 9 10 13 14 16 17 18 20 21 23 25 30 32 36 37 38 39 41 42 44 45 48 49 
25(6)->1 2 3 4 5 6 8 9 12 14 17 22 23 24 30 36 37 39 41 44 45 47 49 50 
26(6)->1 2 3 4 5 11 15 17 19 20 22 23 31 32 33 34 36 40 45 47 49 
27(14)->1 2 3 4 5 6 7 8 9 10 12 13 17 18 19 28 30 31 33 35 38 39 40 41 42 44 46 49 
28(9)->1 2 3 4 5 6 7 8 9 10 14 15 16 17 18 21 23 27 32 33 34 38 42 43 45 46 49 50 
29(6)->1 2 3 4 5 6 8 11 12 14 18 19 20 21 22 23 31 32 35 37 39 40 41 43 44 45 46 48 49 50 
30(12)->1 2 3 4 5 6 7 8 13 15 17 19 20 21 22 24 25 27 31 33 35 37 43 44 45 46 47 49 50 
31(10)->1 2 3 4 5 6 7 8 9 10 12 14 15 20 22 26 27 29 30 32 35 36 38 39 44 45 46 48 
32(7)->1 2 3 4 5 6 9 10 11 19 24 26 28 29 31 34 36 38 40 41 45 46 50 
33(10)->1 2 3 4 5 6 7 9 13 15 16 17 19 20 22 23 26 27 28 30 34 36 37 38 39 41 42 43 44 45 46 48 50 
34(12)->1 2 3 4 5 6 7 8 9 12 13 14 16 17 22 23 26 28 32 33 35 42 43 44 46 47 
35(13)->1 2 3 4 5 6 7 9 10 15 20 21 22 23 27 29 30 31 34 36 39 40 44 46 50 
36(9)->1 2 3 4 5 6 7 8 9 10 11 12 13 14 19 24 25 26 31 32 33 35 38 39 42 45 46 47 
37(9)->1 2 3 4 5 6 7 8 9 14 18 23 24 25 29 30 33 38 39 40 43 45 49 50 
38(6)->1 2 3 4 5 6 11 14 15 22 23 24 27 28 31 32 33 36 37 39 41 42 43 44 45 46 
39(12)->1 2 3 4 5 6 7 8 9 11 16 17 19 20 24 25 27 29 31 33 35 36 37 38 42 44 46 48 49 
40(12)->1 2 3 4 5 8 9 11 13 19 26 27 29 32 35 37 42 43 46 47 48 49 
41(12)->1 2 3 4 5 6 9 13 14 15 16 18 20 21 24 25 27 29 32 33 38 42 43 44 49 50 
42(11)->1 2 3 4 5 6 7 8 9 10 11 12 13 15 16 17 18 22 24 27 28 33 34 36 38 39 40 41 43 46 
43(8)->1 2 3 4 5 6 7 8 10 14 15 16 17 18 19 22 23 28 29 30 33 34 37 38 40 41 42 44 45 48 49 
44(9)->1 2 3 4 5 6 7 8 9 15 16 17 18 20 21 23 24 25 27 29 30 31 33 34 35 38 39 41 43 46 47 49 
45(13)->1 2 3 4 5 8 15 19 23 24 25 26 28 29 30 31 32 33 36 37 38 43 49 50 
46(8)->1 2 3 4 5 6 7 8 15 17 18 20 23 27 28 29 30 31 32 33 34 35 36 38 39 40 42 44 
47(5)->1 2 3 4 5 7 8 9 10 11 15 19 23 25 26 30 34 36 40 44 48 50 
48(11)->1 2 3 4 5 6 8 10 11 13 15 16 18 22 24 29 31 33 39 40 43 47 50 
49(5)->1 2 3 4 5 8 10 12 16 23 24 25 26 27 28 29 30 37 39 40 41 43 44 45 50 
50(3)->2 3 4 6 9 10 14 15 16 17 21 23 25 28 29 30 32 33 35 37 41 45 47 48 49 
COUNT: 4580
COLORS: 15
EDGES: 750
15
4580
