START TIME: 1433711425
1: 42 2
2: 16 1 3 30
3: 2 44 31
4: 32 16 34 15
5: 41 44
6: 
7: 11
8: 32 21 31
9: 34
10: 21
11: 36 7
12: 28 13
13: 12
14: 
15: 4 39
16: 32 48 2 4
17: 36
18: 30
19: 45 31
20: 41 26
21: 8 10
22: 49
23: 47
24: 50 27 44 42
25: 
26: 50 20
27: 24 38
28: 12
29: 42 46
30: 18 2 46 38
31: 3 8 19
32: 8 44 4 16
33: 
34: 9 4
35: 47
36: 17 11 44 47
37: 
38: 27 30
39: 15
40: 
41: 20 5
42: 24 1 29
43: 50
44: 32 3 36 5 49 24
45: 50 19
46: 29 30
47: 35 36 23
48: 16
49: 44 22
50: 24 26 43 45
-------
1(-1)->2 42 
2(-1)->1 3 16 30 
3(-1)->2 31 44 
4(-1)->15 16 32 34 
5(-1)->41 44 
6(-1)->
7(-1)->11 
8(-1)->21 31 32 
9(-1)->34 
10(-1)->21 
11(-1)->7 36 
12(-1)->13 28 
13(-1)->12 
14(-1)->
15(-1)->4 39 
16(-1)->2 4 32 48 
17(-1)->36 
18(-1)->30 
19(-1)->31 45 
20(-1)->26 41 
21(-1)->8 10 
22(-1)->49 
23(-1)->47 
24(-1)->27 42 44 50 
25(-1)->
26(-1)->20 50 
27(-1)->24 38 
28(-1)->12 
29(-1)->42 46 
30(-1)->2 18 38 46 
31(-1)->3 8 19 
32(-1)->4 8 16 44 
33(-1)->
34(-1)->4 9 
35(-1)->47 
36(-1)->11 17 44 47 
37(-1)->
38(-1)->27 30 
39(-1)->15 
40(-1)->
41(-1)->5 20 
42(-1)->1 24 29 
43(-1)->50 
44(-1)->3 5 24 32 36 49 
45(-1)->19 50 
46(-1)->29 30 
47(-1)->23 35 36 
48(-1)->16 
49(-1)->22 44 
50(-1)->24 26 43 45 
-------
Node 44 maps to position 0
Node 2 maps to position 1
Node 4 maps to position 2
Node 16 maps to position 3
Node 24 maps to position 4
Node 30 maps to position 5
Node 32 maps to position 6
Node 36 maps to position 7
Node 50 maps to position 8
Node 3 maps to position 9
Node 8 maps to position 10
Node 31 maps to position 11
Node 42 maps to position 12
Node 47 maps to position 13
Node 1 maps to position 14
Node 5 maps to position 15
Node 11 maps to position 16
Node 12 maps to position 17
Node 15 maps to position 18
Node 19 maps to position 19
Node 20 maps to position 20
Node 21 maps to position 21
Node 26 maps to position 22
Node 27 maps to position 23
Node 29 maps to position 24
Node 34 maps to position 25
Node 38 maps to position 26
Node 41 maps to position 27
Node 45 maps to position 28
Node 46 maps to position 29
Node 49 maps to position 30
Node 7 maps to position 31
Node 9 maps to position 32
Node 10 maps to position 33
Node 13 maps to position 34
Node 17 maps to position 35
Node 18 maps to position 36
Node 22 maps to position 37
Node 23 maps to position 38
Node 28 maps to position 39
Node 35 maps to position 40
Node 39 maps to position 41
Node 43 maps to position 42
Node 48 maps to position 43
Node 6 maps to position 44
Node 14 maps to position 45
Node 25 maps to position 46
Node 33 maps to position 47
Node 37 maps to position 48
Node 40 maps to position 49
44(-1)->3 5 24 32 36 49 
2(-1)->1 3 16 30 
4(-1)->15 16 32 34 
16(-1)->2 4 32 48 
24(-1)->27 42 44 50 
30(-1)->2 18 38 46 
32(-1)->4 8 16 44 
36(-1)->11 17 44 47 
50(-1)->24 26 43 45 
3(-1)->2 31 44 
8(-1)->21 31 32 
31(-1)->3 8 19 
42(-1)->1 24 29 
47(-1)->23 35 36 
1(-1)->2 42 
5(-1)->41 44 
11(-1)->7 36 
12(-1)->13 28 
15(-1)->4 39 
19(-1)->31 45 
20(-1)->26 41 
21(-1)->8 10 
26(-1)->20 50 
27(-1)->24 38 
29(-1)->42 46 
34(-1)->4 9 
38(-1)->27 30 
41(-1)->5 20 
45(-1)->19 50 
46(-1)->29 30 
49(-1)->22 44 
7(-1)->11 
9(-1)->34 
10(-1)->21 
13(-1)->12 
17(-1)->36 
18(-1)->30 
22(-1)->49 
23(-1)->47 
28(-1)->12 
35(-1)->47 
39(-1)->15 
43(-1)->50 
48(-1)->16 
6(-1)->
14(-1)->
25(-1)->
33(-1)->
37(-1)->
40(-1)->
-------
CONNECTEDS size: 8
****************
****************
44(-1)->3 5 24 32 36 49 
2(-1)->1 3 16 30 
4(-1)->15 16 32 34 
16(-1)->2 4 32 48 
24(-1)->27 42 44 50 
30(-1)->2 18 38 46 
32(-1)->4 8 16 44 
36(-1)->11 17 44 47 
50(-1)->24 26 43 45 
3(-1)->2 31 44 
8(-1)->21 31 32 
31(-1)->3 8 19 
42(-1)->1 24 29 
47(-1)->23 35 36 
1(-1)->2 42 
5(-1)->41 44 
11(-1)->7 36 
15(-1)->4 39 
19(-1)->31 45 
20(-1)->26 41 
21(-1)->8 10 
26(-1)->20 50 
27(-1)->24 38 
29(-1)->42 46 
34(-1)->4 9 
38(-1)->27 30 
41(-1)->5 20 
45(-1)->19 50 
46(-1)->29 30 
49(-1)->22 44 
7(-1)->11 
9(-1)->34 
10(-1)->21 
17(-1)->36 
18(-1)->30 
22(-1)->49 
23(-1)->47 
35(-1)->47 
39(-1)->15 
43(-1)->50 
48(-1)->16 
****************
6(-1)->
****************
12(-1)->13 28 
13(-1)->12 
28(-1)->12 
****************
14(-1)->
****************
25(-1)->
****************
33(-1)->
****************
37(-1)->
****************
40(-1)->
1(1)->2 42 
2(0)->1 3 16 30 
3(1)->2 31 44 
4(0)->15 16 32 34 
5(1)->41 44 
6(0)->
7(1)->11 
8(0)->21 31 32 
9(0)->34 
10(0)->21 
11(0)->7 36 
12(0)->13 28 
13(1)->12 
14(0)->
15(1)->4 39 
16(1)->2 4 32 48 
17(0)->36 
18(0)->30 
19(0)->31 45 
20(0)->26 41 
21(1)->8 10 
22(0)->49 
23(1)->47 
24(1)->27 42 44 50 
25(0)->
26(1)->20 50 
27(0)->24 38 
28(1)->12 
29(1)->42 46 
30(1)->2 18 38 46 
31(2)->3 8 19 
32(2)->4 8 16 44 
33(0)->
34(1)->4 9 
35(1)->47 
36(1)->11 17 44 47 
37(0)->
38(2)->27 30 
39(0)->15 
40(0)->
41(2)->5 20 
42(0)->1 24 29 
43(1)->50 
44(0)->3 5 24 32 36 49 
45(1)->19 50 
46(0)->29 30 
47(0)->23 35 36 
48(0)->16 
49(1)->22 44 
50(0)->24 26 43 45 
COUNT: 57
COLORS: 3
EDGES: 50
3
57
