START TIME: 1433711425
1: 2 3 4 5 38 39 8 9 42 7 12 13 48 11 6 28 10
2: 1 3 4 39 16 30 31
3: 1 2 7 41 44 14 31
4: 32 1 34 7 9 12 2 15 16 22
5: 41 26 44 1
6: 1 35
7: 1 3 4 41 11 12 15 28
8: 32 1 47 21 31
9: 1 34 4 40 43 15
10: 1 14 17 18 21 22 27
11: 1 36 7
12: 1 4 7 41 13 47 16 28
13: 24 44 12 1 23
14: 40 27 10 3 24
15: 4 7 9 39 18 30
16: 32 2 4 12 48 19
17: 33 10 36 30
18: 33 34 41 10 15 21 30 31
19: 45 47 16 22 30 31
20: 40 41 26 36
21: 8 10 18 29 47
22: 35 4 37 10 44 48 49 19 24 42
23: 45 13 47
24: 32 40 42 44 13 14 50 22 27
25: 36
26: 48 50 20 34 5
27: 34 35 38 41 10 14 49 24
28: 32 1 12 7
29: 42 45 21 46 37
30: 33 2 38 46 15 17 18 19
31: 3 8 2 19 18
32: 4 8 41 44 16 24 28
33: 17 18 30 41
34: 4 40 9 45 49 18 26 27
35: 22 27 46 6 47
36: 37 11 44 47 17 20 25
37: 36 29 22
38: 1 42 27 30
39: 1 2 15
40: 34 9 45 14 20 24
41: 32 33 3 5 7 42 12 47 18 20 27
42: 1 38 41 22 24 29
43: 9 50 49
44: 32 3 36 5 13 49 50 22 24
45: 34 40 47 50 19 23 29
46: 35 29 30
47: 35 36 8 41 12 45 19 21 23
48: 16 1 26 22
49: 43 34 27 44 22
50: 24 26 43 44 45
-------
1(-1)->2 3 4 5 6 7 8 9 10 11 12 13 28 38 39 42 48 
2(-1)->1 3 4 16 30 31 39 
3(-1)->1 2 7 14 31 41 44 
4(-1)->1 2 7 9 12 15 16 22 32 34 
5(-1)->1 26 41 44 
6(-1)->1 35 
7(-1)->1 3 4 11 12 15 28 41 
8(-1)->1 21 31 32 47 
9(-1)->1 4 15 34 40 43 
10(-1)->1 14 17 18 21 22 27 
11(-1)->1 7 36 
12(-1)->1 4 7 13 16 28 41 47 
13(-1)->1 12 23 24 44 
14(-1)->3 10 24 27 40 
15(-1)->4 7 9 18 30 39 
16(-1)->2 4 12 19 32 48 
17(-1)->10 30 33 36 
18(-1)->10 15 21 30 31 33 34 41 
19(-1)->16 22 30 31 45 47 
20(-1)->26 36 40 41 
21(-1)->8 10 18 29 47 
22(-1)->4 10 19 24 35 37 42 44 48 49 
23(-1)->13 45 47 
24(-1)->13 14 22 27 32 40 42 44 50 
25(-1)->36 
26(-1)->5 20 34 48 50 
27(-1)->10 14 24 34 35 38 41 49 
28(-1)->1 7 12 32 
29(-1)->21 37 42 45 46 
30(-1)->2 15 17 18 19 33 38 46 
31(-1)->2 3 8 18 19 
32(-1)->4 8 16 24 28 41 44 
33(-1)->17 18 30 41 
34(-1)->4 9 18 26 27 40 45 49 
35(-1)->6 22 27 46 47 
36(-1)->11 17 20 25 37 44 47 
37(-1)->22 29 36 
38(-1)->1 27 30 42 
39(-1)->1 2 15 
40(-1)->9 14 20 24 34 45 
41(-1)->3 5 7 12 18 20 27 32 33 42 47 
42(-1)->1 22 24 29 38 41 
43(-1)->9 49 50 
44(-1)->3 5 13 22 24 32 36 49 50 
45(-1)->19 23 29 34 40 47 50 
46(-1)->29 30 35 
47(-1)->8 12 19 21 23 35 36 41 45 
48(-1)->1 16 22 26 
49(-1)->22 27 34 43 44 
50(-1)->24 26 43 44 45 
-------
Node 1 maps to position 0
Node 41 maps to position 1
Node 4 maps to position 2
Node 22 maps to position 3
Node 24 maps to position 4
Node 44 maps to position 5
Node 47 maps to position 6
Node 7 maps to position 7
Node 12 maps to position 8
Node 18 maps to position 9
Node 27 maps to position 10
Node 30 maps to position 11
Node 34 maps to position 12
Node 2 maps to position 13
Node 3 maps to position 14
Node 10 maps to position 15
Node 32 maps to position 16
Node 36 maps to position 17
Node 45 maps to position 18
Node 9 maps to position 19
Node 15 maps to position 20
Node 16 maps to position 21
Node 19 maps to position 22
Node 40 maps to position 23
Node 42 maps to position 24
Node 8 maps to position 25
Node 13 maps to position 26
Node 14 maps to position 27
Node 21 maps to position 28
Node 26 maps to position 29
Node 29 maps to position 30
Node 31 maps to position 31
Node 35 maps to position 32
Node 49 maps to position 33
Node 50 maps to position 34
Node 5 maps to position 35
Node 17 maps to position 36
Node 20 maps to position 37
Node 28 maps to position 38
Node 33 maps to position 39
Node 38 maps to position 40
Node 48 maps to position 41
Node 11 maps to position 42
Node 23 maps to position 43
Node 37 maps to position 44
Node 39 maps to position 45
Node 43 maps to position 46
Node 46 maps to position 47
Node 6 maps to position 48
Node 25 maps to position 49
1(-1)->2 3 4 5 6 7 8 9 10 11 12 13 28 38 39 42 48 
41(-1)->3 5 7 12 18 20 27 32 33 42 47 
4(-1)->1 2 7 9 12 15 16 22 32 34 
22(-1)->4 10 19 24 35 37 42 44 48 49 
24(-1)->13 14 22 27 32 40 42 44 50 
44(-1)->3 5 13 22 24 32 36 49 50 
47(-1)->8 12 19 21 23 35 36 41 45 
7(-1)->1 3 4 11 12 15 28 41 
12(-1)->1 4 7 13 16 28 41 47 
18(-1)->10 15 21 30 31 33 34 41 
27(-1)->10 14 24 34 35 38 41 49 
30(-1)->2 15 17 18 19 33 38 46 
34(-1)->4 9 18 26 27 40 45 49 
2(-1)->1 3 4 16 30 31 39 
3(-1)->1 2 7 14 31 41 44 
10(-1)->1 14 17 18 21 22 27 
32(-1)->4 8 16 24 28 41 44 
36(-1)->11 17 20 25 37 44 47 
45(-1)->19 23 29 34 40 47 50 
9(-1)->1 4 15 34 40 43 
15(-1)->4 7 9 18 30 39 
16(-1)->2 4 12 19 32 48 
19(-1)->16 22 30 31 45 47 
40(-1)->9 14 20 24 34 45 
42(-1)->1 22 24 29 38 41 
8(-1)->1 21 31 32 47 
13(-1)->1 12 23 24 44 
14(-1)->3 10 24 27 40 
21(-1)->8 10 18 29 47 
26(-1)->5 20 34 48 50 
29(-1)->21 37 42 45 46 
31(-1)->2 3 8 18 19 
35(-1)->6 22 27 46 47 
49(-1)->22 27 34 43 44 
50(-1)->24 26 43 44 45 
5(-1)->1 26 41 44 
17(-1)->10 30 33 36 
20(-1)->26 36 40 41 
28(-1)->1 7 12 32 
33(-1)->17 18 30 41 
38(-1)->1 27 30 42 
48(-1)->1 16 22 26 
11(-1)->1 7 36 
23(-1)->13 45 47 
37(-1)->22 29 36 
39(-1)->1 2 15 
43(-1)->9 49 50 
46(-1)->29 30 35 
6(-1)->1 35 
25(-1)->36 
-------
CONNECTEDS size: 1
1(0)->2 3 4 5 6 7 8 9 10 11 12 13 28 38 39 42 48 
2(2)->1 3 4 16 30 31 39 
3(1)->1 2 7 14 31 41 44 
4(1)->1 2 7 9 12 15 16 22 32 34 
5(3)->1 26 41 44 
6(1)->1 35 
7(3)->1 3 4 11 12 15 28 41 
8(2)->1 21 31 32 47 
9(3)->1 4 15 34 40 43 
10(3)->1 14 17 18 21 22 27 
11(1)->1 7 36 
12(2)->1 4 7 13 16 28 41 47 
13(3)->1 12 23 24 44 
14(0)->3 10 24 27 40 
15(2)->4 7 9 18 30 39 
16(0)->2 4 12 19 32 48 
17(1)->10 30 33 36 
18(1)->10 15 21 30 31 33 34 41 
19(2)->16 22 30 31 45 47 
20(3)->26 36 40 41 
21(0)->8 10 18 29 47 
22(0)->4 10 19 24 35 37 42 44 48 49 
23(0)->13 45 47 
24(1)->13 14 22 27 32 40 42 44 50 
25(1)->36 
26(1)->5 20 34 48 50 
27(2)->10 14 24 34 35 38 41 49 
28(1)->1 7 12 32 
29(1)->21 37 42 45 46 
30(0)->2 15 17 18 19 33 38 46 
31(0)->2 3 8 18 19 
32(3)->4 8 16 24 28 41 44 
33(2)->17 18 30 41 
34(0)->4 9 18 26 27 40 45 49 
35(3)->6 22 27 46 47 
36(0)->11 17 20 25 37 44 47 
37(2)->22 29 36 
38(1)->1 27 30 42 
39(1)->1 2 15 
40(2)->9 14 20 24 34 45 
41(0)->3 5 7 12 18 20 27 32 33 42 47 
42(2)->1 22 24 29 38 41 
43(2)->9 49 50 
44(2)->3 5 13 22 24 32 36 49 50 
45(3)->19 23 29 34 40 47 50 
46(2)->29 30 35 
47(1)->8 12 19 21 23 35 36 41 45 
48(2)->1 16 22 26 
49(1)->22 27 34 43 44 
50(0)->24 26 43 44 45 
COUNT: 4968
COLORS: 4
EDGES: 150
4
4968
