START TIME: 1433711430
1: 2 3 4 5 6 7 8 9 10 11 12 13 14 15 16 17 18 19 20 21 22 23 24 27 32 34 35 39 45
2: 1 3 4 38 39 15 9 7 47 50 19 23 27 28
3: 1 2 36 8 42 50 19 22 23 4
4: 1 2 3 7 41 43 18 19 20 23 25 27
5: 32 33 1 41 10 44 47 16 50 21 42 30 31
6: 33 34 36 37 7 42 48 19 1 26 31
7: 1 34 4 6 42 2 45 13 48 50 20 21 25 30
8: 32 1 34 3 36 45 15 18 24 29 31
9: 32 1 2 10 34 45 16 27
10: 48 1 5 17 9 47 16 49 18 23 28
11: 33 1 40 44 45 16 23
12: 40 1 20 29
13: 1 7 14 50 19 21 22 29 30
14: 32 1 36 37 38 41 43 13 46 24 25 30
15: 32 1 2 33 8 49 24
16: 32 1 5 9 10 11 49 19 31
17: 1 41 10 43 46 31
18: 8 28 10 4 1
19: 1 2 3 4 6 39 41 42 43 13 47 16 20 22 25
20: 32 1 4 38 7 12 50 19 23 25 30
21: 1 37 7 13 46 24 5
22: 1 3 13 48 49 19 30 31
23: 1 2 3 4 37 39 41 42 11 45 46 47 50 20 10
24: 1 36 38 8 43 45 14 15 21 25 28 30
25: 34 4 7 40 44 14 49 19 20 24
26: 40 48 6 46
27: 32 1 2 35 4 39 9 44 45
28: 2 50 10 34 45 18 24
29: 32 37 8 41 12 13 47 40
30: 5 7 44 13 14 48 20 22 24 37
31: 5 6 8 44 16 17 22
32: 1 36 5 39 8 9 43 14 15 16 49 20 27 29
33: 35 36 5 6 40 42 11 15 49
34: 1 37 6 7 8 9 45 49 25 38 28
35: 1 33 39 40 41 27
36: 32 33 3 37 6 8 14 48 40 50 24
37: 34 36 6 14 44 46 21 23 29 30
38: 2 40 34 46 20 14 24
39: 32 1 2 35 43 50 19 23 27
40: 33 35 36 38 41 42 11 12 47 25 26 29
41: 35 4 5 17 40 14 48 49 19 23 29
42: 33 3 5 6 7 40 46 19 23
43: 32 4 39 14 17 50 19 24
44: 37 11 46 50 25 27 5 30 31
45: 1 34 7 8 9 11 49 23 24 27 28
46: 37 38 42 44 14 17 21 23 26
47: 2 5 40 10 19 23 29
48: 36 6 7 41 10 22 26 30
49: 32 33 34 41 10 45 15 16 50 22 25
50: 2 3 36 5 39 7 44 13 43 20 23 49 28
-------
1(-1)->2 3 4 5 6 7 8 9 10 11 12 13 14 15 16 17 18 19 20 21 22 23 24 27 32 34 35 39 45 
2(-1)->1 3 4 7 9 15 19 23 27 28 38 39 47 50 
3(-1)->1 2 4 8 19 22 23 36 42 50 
4(-1)->1 2 3 7 18 19 20 23 25 27 41 43 
5(-1)->1 10 16 21 30 31 32 33 41 42 44 47 50 
6(-1)->1 7 19 26 31 33 34 36 37 42 48 
7(-1)->1 2 4 6 13 20 21 25 30 34 42 45 48 50 
8(-1)->1 3 15 18 24 29 31 32 34 36 45 
9(-1)->1 2 10 16 27 32 34 45 
10(-1)->1 5 9 16 17 18 23 28 47 48 49 
11(-1)->1 16 23 33 40 44 45 
12(-1)->1 20 29 40 
13(-1)->1 7 14 19 21 22 29 30 50 
14(-1)->1 13 24 25 30 32 36 37 38 41 43 46 
15(-1)->1 2 8 24 32 33 49 
16(-1)->1 5 9 10 11 19 31 32 49 
17(-1)->1 10 31 41 43 46 
18(-1)->1 4 8 10 28 
19(-1)->1 2 3 4 6 13 16 20 22 25 39 41 42 43 47 
20(-1)->1 4 7 12 19 23 25 30 32 38 50 
21(-1)->1 5 7 13 24 37 46 
22(-1)->1 3 13 19 30 31 48 49 
23(-1)->1 2 3 4 10 11 20 37 39 41 42 45 46 47 50 
24(-1)->1 8 14 15 21 25 28 30 36 38 43 45 
25(-1)->4 7 14 19 20 24 34 40 44 49 
26(-1)->6 40 46 48 
27(-1)->1 2 4 9 32 35 39 44 45 
28(-1)->2 10 18 24 34 45 50 
29(-1)->8 12 13 32 37 40 41 47 
30(-1)->5 7 13 14 20 22 24 37 44 48 
31(-1)->5 6 8 16 17 22 44 
32(-1)->1 5 8 9 14 15 16 20 27 29 36 39 43 49 
33(-1)->5 6 11 15 35 36 40 42 49 
34(-1)->1 6 7 8 9 25 28 37 38 45 49 
35(-1)->1 27 33 39 40 41 
36(-1)->3 6 8 14 24 32 33 37 40 48 50 
37(-1)->6 14 21 23 29 30 34 36 44 46 
38(-1)->2 14 20 24 34 40 46 
39(-1)->1 2 19 23 27 32 35 43 50 
40(-1)->11 12 25 26 29 33 35 36 38 41 42 47 
41(-1)->4 5 14 17 19 23 29 35 40 48 49 
42(-1)->3 5 6 7 19 23 33 40 46 
43(-1)->4 14 17 19 24 32 39 50 
44(-1)->5 11 25 27 30 31 37 46 50 
45(-1)->1 7 8 9 11 23 24 27 28 34 49 
46(-1)->14 17 21 23 26 37 38 42 44 
47(-1)->2 5 10 19 23 29 40 
48(-1)->6 7 10 22 26 30 36 41 
49(-1)->10 15 16 22 25 32 33 34 41 45 50 
50(-1)->2 3 5 7 13 20 23 28 36 39 43 44 49 
-------
Node 1 maps to position 0
Node 19 maps to position 1
Node 23 maps to position 2
Node 2 maps to position 3
Node 7 maps to position 4
Node 32 maps to position 5
Node 5 maps to position 6
Node 50 maps to position 7
Node 4 maps to position 8
Node 14 maps to position 9
Node 24 maps to position 10
Node 40 maps to position 11
Node 6 maps to position 12
Node 8 maps to position 13
Node 10 maps to position 14
Node 20 maps to position 15
Node 34 maps to position 16
Node 36 maps to position 17
Node 41 maps to position 18
Node 45 maps to position 19
Node 49 maps to position 20
Node 3 maps to position 21
Node 25 maps to position 22
Node 30 maps to position 23
Node 37 maps to position 24
Node 13 maps to position 25
Node 16 maps to position 26
Node 27 maps to position 27
Node 33 maps to position 28
Node 39 maps to position 29
Node 42 maps to position 30
Node 44 maps to position 31
Node 46 maps to position 32
Node 9 maps to position 33
Node 22 maps to position 34
Node 29 maps to position 35
Node 43 maps to position 36
Node 48 maps to position 37
Node 11 maps to position 38
Node 15 maps to position 39
Node 21 maps to position 40
Node 28 maps to position 41
Node 31 maps to position 42
Node 38 maps to position 43
Node 47 maps to position 44
Node 17 maps to position 45
Node 35 maps to position 46
Node 18 maps to position 47
Node 12 maps to position 48
Node 26 maps to position 49
1(-1)->2 3 4 5 6 7 8 9 10 11 12 13 14 15 16 17 18 19 20 21 22 23 24 27 32 34 35 39 45 
19(-1)->1 2 3 4 6 13 16 20 22 25 39 41 42 43 47 
23(-1)->1 2 3 4 10 11 20 37 39 41 42 45 46 47 50 
2(-1)->1 3 4 7 9 15 19 23 27 28 38 39 47 50 
7(-1)->1 2 4 6 13 20 21 25 30 34 42 45 48 50 
32(-1)->1 5 8 9 14 15 16 20 27 29 36 39 43 49 
5(-1)->1 10 16 21 30 31 32 33 41 42 44 47 50 
50(-1)->2 3 5 7 13 20 23 28 36 39 43 44 49 
4(-1)->1 2 3 7 18 19 20 23 25 27 41 43 
14(-1)->1 13 24 25 30 32 36 37 38 41 43 46 
24(-1)->1 8 14 15 21 25 28 30 36 38 43 45 
40(-1)->11 12 25 26 29 33 35 36 38 41 42 47 
6(-1)->1 7 19 26 31 33 34 36 37 42 48 
8(-1)->1 3 15 18 24 29 31 32 34 36 45 
10(-1)->1 5 9 16 17 18 23 28 47 48 49 
20(-1)->1 4 7 12 19 23 25 30 32 38 50 
34(-1)->1 6 7 8 9 25 28 37 38 45 49 
36(-1)->3 6 8 14 24 32 33 37 40 48 50 
41(-1)->4 5 14 17 19 23 29 35 40 48 49 
45(-1)->1 7 8 9 11 23 24 27 28 34 49 
49(-1)->10 15 16 22 25 32 33 34 41 45 50 
3(-1)->1 2 4 8 19 22 23 36 42 50 
25(-1)->4 7 14 19 20 24 34 40 44 49 
30(-1)->5 7 13 14 20 22 24 37 44 48 
37(-1)->6 14 21 23 29 30 34 36 44 46 
13(-1)->1 7 14 19 21 22 29 30 50 
16(-1)->1 5 9 10 11 19 31 32 49 
27(-1)->1 2 4 9 32 35 39 44 45 
33(-1)->5 6 11 15 35 36 40 42 49 
39(-1)->1 2 19 23 27 32 35 43 50 
42(-1)->3 5 6 7 19 23 33 40 46 
44(-1)->5 11 25 27 30 31 37 46 50 
46(-1)->14 17 21 23 26 37 38 42 44 
9(-1)->1 2 10 16 27 32 34 45 
22(-1)->1 3 13 19 30 31 48 49 
29(-1)->8 12 13 32 37 40 41 47 
43(-1)->4 14 17 19 24 32 39 50 
48(-1)->6 7 10 22 26 30 36 41 
11(-1)->1 16 23 33 40 44 45 
15(-1)->1 2 8 24 32 33 49 
21(-1)->1 5 7 13 24 37 46 
28(-1)->2 10 18 24 34 45 50 
31(-1)->5 6 8 16 17 22 44 
38(-1)->2 14 20 24 34 40 46 
47(-1)->2 5 10 19 23 29 40 
17(-1)->1 10 31 41 43 46 
35(-1)->1 27 33 39 40 41 
18(-1)->1 4 8 10 28 
12(-1)->1 20 29 40 
26(-1)->6 40 46 48 
-------
CONNECTEDS size: 1
10000
20000
30000
40000
50000
60000
70000
80000
90000
100000
110000
120000
130000
1(0)->2 3 4 5 6 7 8 9 10 11 12 13 14 15 16 17 18 19 20 21 22 23 24 27 32 34 35 39 45 
2(2)->1 3 4 7 9 15 19 23 27 28 38 39 47 50 
3(4)->1 2 4 8 19 22 23 36 42 50 
4(3)->1 2 3 7 18 19 20 23 25 27 41 43 
5(1)->1 10 16 21 30 31 32 33 41 42 44 47 50 
6(2)->1 7 19 26 31 33 34 36 37 42 48 
7(1)->1 2 4 6 13 20 21 25 30 34 42 45 48 50 
8(1)->1 3 15 18 24 29 31 32 34 36 45 
9(1)->1 2 10 16 27 32 34 45 
10(2)->1 5 9 16 17 18 23 28 47 48 49 
11(4)->1 16 23 33 40 44 45 
12(2)->1 20 29 40 
13(4)->1 7 14 19 21 22 29 30 50 
14(1)->1 13 24 25 30 32 36 37 38 41 43 46 
15(3)->1 2 8 24 32 33 49 
16(3)->1 5 9 10 11 19 31 32 49 
17(1)->1 10 31 41 43 46 
18(4)->1 4 8 10 28 
19(1)->1 2 3 4 6 13 16 20 22 25 39 41 42 43 47 
20(4)->1 4 7 12 19 23 25 30 32 38 50 
21(3)->1 5 7 13 24 37 46 
22(2)->1 3 13 19 30 31 48 49 
23(1)->1 2 3 4 10 11 20 37 39 41 42 45 46 47 50 
24(2)->1 8 14 15 21 25 28 30 36 38 43 45 
25(0)->4 7 14 19 20 24 34 40 44 49 
26(0)->6 40 46 48 
27(4)->1 2 4 9 32 35 39 44 45 
28(1)->2 10 18 24 34 45 50 
29(3)->8 12 13 32 37 40 41 47 
30(3)->5 7 13 14 20 22 24 37 44 48 
31(0)->5 6 8 16 17 22 44 
32(2)->1 5 8 9 14 15 16 20 27 29 36 39 43 49 
33(0)->5 6 11 15 35 36 40 42 49 
34(4)->1 6 7 8 9 25 28 37 38 45 49 
35(2)->1 27 33 39 40 41 
36(3)->3 6 8 14 24 32 33 37 40 48 50 
37(0)->6 14 21 23 29 30 34 36 44 46 
38(0)->2 14 20 24 34 40 46 
39(3)->1 2 19 23 27 32 35 43 50 
40(1)->11 12 25 26 29 33 35 36 38 41 42 47 
41(0)->4 5 14 17 19 23 29 35 40 48 49 
42(3)->3 5 6 7 19 23 33 40 46 
43(4)->4 14 17 19 24 32 39 50 
44(2)->5 11 25 27 30 31 37 46 50 
45(3)->1 7 8 9 11 23 24 27 28 34 49 
46(4)->14 17 21 23 26 37 38 42 44 
47(0)->2 5 10 19 23 29 40 
48(4)->6 7 10 22 26 30 36 41 
49(1)->10 15 16 22 25 32 33 34 41 45 50 
50(0)->2 3 5 7 13 20 23 28 36 39 43 44 49 
COUNT: 130599
COLORS: 5
EDGES: 250
5
130599
