START TIME: 1433711853
1: 2 3 4 5 6 7 8 9 10 11 12 13 14 15 16 17 18 19 20 21 22 23 24 25 26 27 28 29 30 31 32 33 34 35 36 37 38 39 40 41 42 43 44 48 49 50
2: 32 1 3 6 39 8 12 10 7 44 18 14 16 50 20 41 31
3: 1 2 36 6 14 16 4 31
4: 32 1 35 37 39 8 10 46 50 3 23 25
5: 1 35 40 12 13 49 18 23 26 31
6: 1 2 3 37 42 43 29 47 49 18 19 20 21 23 27 10 31
7: 33 2 36 49 39 41 10 17 1 21 23 24 30 31
8: 32 1 2 4 41 10 43 13 46 15 50 14 25 24 36 42
9: 1 36 38 39 12 45 49 20 21 22 24
10: 1 2 36 6 7 8 42 43 12 45 48 21 4 28 29
11: 1 35 36 38 39 42 13 16 50 27 30
12: 1 2 35 5 9 10 46 15 49 19 21 24 27 30 37
13: 32 1 35 5 38 8 11 50
14: 1 2 3 8 42 45 46 15 50 21 22 23 27 30
15: 32 1 40 43 12 45 14 47 16 8 23 30 31
16: 32 1 2 35 37 33 43 45 15 11 49 3 25 29
17: 1 35 7 43 45 18 19 20 23 25
18: 1 34 35 37 38 39 44 2 6 17 50 19 33 27 5
19: 33 34 6 1 40 41 42 12 45 48 17 18 20 21 22 25 26 31
20: 33 2 35 1 6 39 9 47 17 19 22 28 29
21: 1 6 7 9 10 12 14 19 46 23 26 31
22: 32 33 35 36 37 1 9 14 19 20 46
23: 32 33 4 5 6 7 1 44 14 15 17 21 24 25 30
24: 1 34 36 37 7 8 9 44 12 23
25: 32 33 4 16 1 8 42 48 17 50 19 23 36 27 28 29 30 31
26: 1 35 36 5 38 41 43 45 46 19 21 27 29
27: 1 11 6 42 43 12 14 49 18 35 25 26
28: 32 33 34 36 37 1 42 47 49 20 25 10
29: 33 34 35 1 37 6 48 10 47 16 20 25 26
30: 33 1 37 7 40 41 11 12 45 46 15 50 14 23 25
31: 1 2 3 5 6 7 40 42 45 34 15 48 19 21 25 33
32: 16 2 4 49 8 41 13 15 48 40 1 22 23 25 28
33: 16 1 38 7 40 41 44 48 18 19 20 22 23 25 28 29 30 31
34: 1 41 43 49 18 19 24 28 29 31
35: 1 11 4 5 43 12 18 46 13 16 17 50 20 22 26 27 29
36: 1 3 37 7 8 9 10 11 48 50 22 24 25 26 28
37: 1 4 6 12 50 46 47 16 18 22 24 36 28 29 30
38: 33 1 40 9 11 13 46 49 18 26
39: 1 2 4 7 9 42 11 44 18 20
40: 32 33 5 38 1 44 45 47 49 50 19 15 30 31
41: 32 1 34 33 8 42 7 2 19 26 30
42: 1 6 39 8 41 10 11 14 47 19 25 27 28 31
43: 48 34 35 6 1 8 10 46 15 16 17 26 27
44: 33 2 1 39 40 49 18 23 24
45: 49 40 9 10 14 47 16 17 50 19 26 15 30 31
46: 35 4 37 38 8 43 12 14 47 49 21 22 26 30
47: 37 6 40 42 45 46 15 49 50 20 28 29
48: 32 33 36 1 10 43 49 19 25 29 31
49: 32 1 34 48 5 38 7 40 9 12 45 46 44 16 47 6 27 28
50: 1 2 35 4 37 40 11 13 14 47 8 18 45 25 30 36
-------
1(-1)->2 3 4 5 6 7 8 9 10 11 12 13 14 15 16 17 18 19 20 21 22 23 24 25 26 27 28 29 30 31 32 33 34 35 36 37 38 39 40 41 42 43 44 48 49 50 
2(-1)->1 3 6 7 8 10 12 14 16 18 20 31 32 39 41 44 50 
3(-1)->1 2 4 6 14 16 31 36 
4(-1)->1 3 8 10 23 25 32 35 37 39 46 50 
5(-1)->1 12 13 18 23 26 31 35 40 49 
6(-1)->1 2 3 10 18 19 20 21 23 27 29 31 37 42 43 47 49 
7(-1)->1 2 10 17 21 23 24 30 31 33 36 39 41 49 
8(-1)->1 2 4 10 13 14 15 24 25 32 36 41 42 43 46 50 
9(-1)->1 12 20 21 22 24 36 38 39 45 49 
10(-1)->1 2 4 6 7 8 12 21 28 29 36 42 43 45 48 
11(-1)->1 13 16 27 30 35 36 38 39 42 50 
12(-1)->1 2 5 9 10 15 19 21 24 27 30 35 37 46 49 
13(-1)->1 5 8 11 32 35 38 50 
14(-1)->1 2 3 8 15 21 22 23 27 30 42 45 46 50 
15(-1)->1 8 12 14 16 23 30 31 32 40 43 45 47 
16(-1)->1 2 3 11 15 25 29 32 33 35 37 43 45 49 
17(-1)->1 7 18 19 20 23 25 35 43 45 
18(-1)->1 2 5 6 17 19 27 33 34 35 37 38 39 44 50 
19(-1)->1 6 12 17 18 20 21 22 25 26 31 33 34 40 41 42 45 48 
20(-1)->1 2 6 9 17 19 22 28 29 33 35 39 47 
21(-1)->1 6 7 9 10 12 14 19 23 26 31 46 
22(-1)->1 9 14 19 20 32 33 35 36 37 46 
23(-1)->1 4 5 6 7 14 15 17 21 24 25 30 32 33 44 
24(-1)->1 7 8 9 12 23 34 36 37 44 
25(-1)->1 4 8 16 17 19 23 27 28 29 30 31 32 33 36 42 48 50 
26(-1)->1 5 19 21 27 29 35 36 38 41 43 45 46 
27(-1)->1 6 11 12 14 18 25 26 35 42 43 49 
28(-1)->1 10 20 25 32 33 34 36 37 42 47 49 
29(-1)->1 6 10 16 20 25 26 33 34 35 37 47 48 
30(-1)->1 7 11 12 14 15 23 25 33 37 40 41 45 46 50 
31(-1)->1 2 3 5 6 7 15 19 21 25 33 34 40 42 45 48 
32(-1)->1 2 4 8 13 15 16 22 23 25 28 40 41 48 49 
33(-1)->1 7 16 18 19 20 22 23 25 28 29 30 31 38 40 41 44 48 
34(-1)->1 18 19 24 28 29 31 41 43 49 
35(-1)->1 4 5 11 12 13 16 17 18 20 22 26 27 29 43 46 50 
36(-1)->1 3 7 8 9 10 11 22 24 25 26 28 37 48 50 
37(-1)->1 4 6 12 16 18 22 24 28 29 30 36 46 47 50 
38(-1)->1 9 11 13 18 26 33 40 46 49 
39(-1)->1 2 4 7 9 11 18 20 42 44 
40(-1)->1 5 15 19 30 31 32 33 38 44 45 47 49 50 
41(-1)->1 2 7 8 19 26 30 32 33 34 42 
42(-1)->1 6 8 10 11 14 19 25 27 28 31 39 41 47 
43(-1)->1 6 8 10 15 16 17 26 27 34 35 46 48 
44(-1)->1 2 18 23 24 33 39 40 49 
45(-1)->9 10 14 15 16 17 19 26 30 31 40 47 49 50 
46(-1)->4 8 12 14 21 22 26 30 35 37 38 43 47 49 
47(-1)->6 15 20 28 29 37 40 42 45 46 49 50 
48(-1)->1 10 19 25 29 31 32 33 36 43 49 
49(-1)->1 5 6 7 9 12 16 27 28 32 34 38 40 44 45 46 47 48 
50(-1)->1 2 4 8 11 13 14 18 25 30 35 36 37 40 45 47 
-------
Node 1 maps to position 0
Node 19 maps to position 1
Node 25 maps to position 2
Node 33 maps to position 3
Node 49 maps to position 4
Node 2 maps to position 5
Node 6 maps to position 6
Node 35 maps to position 7
Node 8 maps to position 8
Node 31 maps to position 9
Node 50 maps to position 10
Node 10 maps to position 11
Node 12 maps to position 12
Node 18 maps to position 13
Node 23 maps to position 14
Node 30 maps to position 15
Node 32 maps to position 16
Node 36 maps to position 17
Node 37 maps to position 18
Node 7 maps to position 19
Node 14 maps to position 20
Node 16 maps to position 21
Node 40 maps to position 22
Node 42 maps to position 23
Node 45 maps to position 24
Node 46 maps to position 25
Node 15 maps to position 26
Node 20 maps to position 27
Node 26 maps to position 28
Node 29 maps to position 29
Node 43 maps to position 30
Node 4 maps to position 31
Node 21 maps to position 32
Node 27 maps to position 33
Node 28 maps to position 34
Node 47 maps to position 35
Node 9 maps to position 36
Node 11 maps to position 37
Node 22 maps to position 38
Node 41 maps to position 39
Node 48 maps to position 40
Node 5 maps to position 41
Node 17 maps to position 42
Node 24 maps to position 43
Node 34 maps to position 44
Node 38 maps to position 45
Node 39 maps to position 46
Node 44 maps to position 47
Node 3 maps to position 48
Node 13 maps to position 49
1(-1)->2 3 4 5 6 7 8 9 10 11 12 13 14 15 16 17 18 19 20 21 22 23 24 25 26 27 28 29 30 31 32 33 34 35 36 37 38 39 40 41 42 43 44 48 49 50 
19(-1)->1 6 12 17 18 20 21 22 25 26 31 33 34 40 41 42 45 48 
25(-1)->1 4 8 16 17 19 23 27 28 29 30 31 32 33 36 42 48 50 
33(-1)->1 7 16 18 19 20 22 23 25 28 29 30 31 38 40 41 44 48 
49(-1)->1 5 6 7 9 12 16 27 28 32 34 38 40 44 45 46 47 48 
2(-1)->1 3 6 7 8 10 12 14 16 18 20 31 32 39 41 44 50 
6(-1)->1 2 3 10 18 19 20 21 23 27 29 31 37 42 43 47 49 
35(-1)->1 4 5 11 12 13 16 17 18 20 22 26 27 29 43 46 50 
8(-1)->1 2 4 10 13 14 15 24 25 32 36 41 42 43 46 50 
31(-1)->1 2 3 5 6 7 15 19 21 25 33 34 40 42 45 48 
50(-1)->1 2 4 8 11 13 14 18 25 30 35 36 37 40 45 47 
10(-1)->1 2 4 6 7 8 12 21 28 29 36 42 43 45 48 
12(-1)->1 2 5 9 10 15 19 21 24 27 30 35 37 46 49 
18(-1)->1 2 5 6 17 19 27 33 34 35 37 38 39 44 50 
23(-1)->1 4 5 6 7 14 15 17 21 24 25 30 32 33 44 
30(-1)->1 7 11 12 14 15 23 25 33 37 40 41 45 46 50 
32(-1)->1 2 4 8 13 15 16 22 23 25 28 40 41 48 49 
36(-1)->1 3 7 8 9 10 11 22 24 25 26 28 37 48 50 
37(-1)->1 4 6 12 16 18 22 24 28 29 30 36 46 47 50 
7(-1)->1 2 10 17 21 23 24 30 31 33 36 39 41 49 
14(-1)->1 2 3 8 15 21 22 23 27 30 42 45 46 50 
16(-1)->1 2 3 11 15 25 29 32 33 35 37 43 45 49 
40(-1)->1 5 15 19 30 31 32 33 38 44 45 47 49 50 
42(-1)->1 6 8 10 11 14 19 25 27 28 31 39 41 47 
45(-1)->9 10 14 15 16 17 19 26 30 31 40 47 49 50 
46(-1)->4 8 12 14 21 22 26 30 35 37 38 43 47 49 
15(-1)->1 8 12 14 16 23 30 31 32 40 43 45 47 
20(-1)->1 2 6 9 17 19 22 28 29 33 35 39 47 
26(-1)->1 5 19 21 27 29 35 36 38 41 43 45 46 
29(-1)->1 6 10 16 20 25 26 33 34 35 37 47 48 
43(-1)->1 6 8 10 15 16 17 26 27 34 35 46 48 
4(-1)->1 3 8 10 23 25 32 35 37 39 46 50 
21(-1)->1 6 7 9 10 12 14 19 23 26 31 46 
27(-1)->1 6 11 12 14 18 25 26 35 42 43 49 
28(-1)->1 10 20 25 32 33 34 36 37 42 47 49 
47(-1)->6 15 20 28 29 37 40 42 45 46 49 50 
9(-1)->1 12 20 21 22 24 36 38 39 45 49 
11(-1)->1 13 16 27 30 35 36 38 39 42 50 
22(-1)->1 9 14 19 20 32 33 35 36 37 46 
41(-1)->1 2 7 8 19 26 30 32 33 34 42 
48(-1)->1 10 19 25 29 31 32 33 36 43 49 
5(-1)->1 12 13 18 23 26 31 35 40 49 
17(-1)->1 7 18 19 20 23 25 35 43 45 
24(-1)->1 7 8 9 12 23 34 36 37 44 
34(-1)->1 18 19 24 28 29 31 41 43 49 
38(-1)->1 9 11 13 18 26 33 40 46 49 
39(-1)->1 2 4 7 9 11 18 20 42 44 
44(-1)->1 2 18 23 24 33 39 40 49 
3(-1)->1 2 4 6 14 16 31 36 
13(-1)->1 5 8 11 32 35 38 50 
-------
CONNECTEDS size: 1
10000
20000
30000
40000
50000
60000
70000
80000
90000
100000
110000
120000
130000
140000
150000
160000
170000
180000
190000
200000
210000
220000
230000
240000
250000
260000
270000
280000
290000
300000
310000
320000
330000
340000
350000
360000
370000
380000
390000
400000
410000
420000
430000
1(0)->2 3 4 5 6 7 8 9 10 11 12 13 14 15 16 17 18 19 20 21 22 23 24 25 26 27 28 29 30 31 32 33 34 35 36 37 38 39 40 41 42 43 44 48 49 50 
2(1)->1 3 6 7 8 10 12 14 16 18 20 31 32 39 41 44 50 
3(3)->1 2 4 6 14 16 31 36 
4(6)->1 3 8 10 23 25 32 35 37 39 46 50 
5(3)->1 12 13 18 23 26 31 35 40 49 
6(2)->1 2 3 10 18 19 20 21 23 27 29 31 37 42 43 47 49 
7(6)->1 2 10 17 21 23 24 30 31 33 36 39 41 49 
8(3)->1 2 4 10 13 14 15 24 25 32 36 41 42 43 46 50 
9(3)->1 12 20 21 22 24 36 38 39 45 49 
10(4)->1 2 4 6 7 8 12 21 28 29 36 42 43 45 48 
11(6)->1 13 16 27 30 35 36 38 39 42 50 
12(2)->1 2 5 9 10 15 19 21 24 27 30 35 37 46 49 
13(2)->1 5 8 11 32 35 38 50 
14(2)->1 2 3 8 15 21 22 23 27 30 42 45 46 50 
15(6)->1 8 12 14 16 23 30 31 32 40 43 45 47 
16(4)->1 2 3 11 15 25 29 32 33 35 37 43 45 49 
17(3)->1 7 18 19 20 23 25 35 43 45 
18(5)->1 2 5 6 17 19 27 33 34 35 37 38 39 44 50 
19(1)->1 6 12 17 18 20 21 22 25 26 31 33 34 40 41 42 45 48 
20(4)->1 2 6 9 17 19 22 28 29 33 35 39 47 
21(5)->1 6 7 9 10 12 14 19 23 26 31 46 
22(6)->1 9 14 19 20 32 33 35 36 37 46 
23(1)->1 4 5 6 7 14 15 17 21 24 25 30 32 33 44 
24(4)->1 7 8 9 12 23 34 36 37 44 
25(2)->1 4 8 16 17 19 23 27 28 29 30 31 32 33 36 42 48 50 
26(2)->1 5 19 21 27 29 35 36 38 41 43 45 46 
27(3)->1 6 11 12 14 18 25 26 35 42 43 49 
28(6)->1 10 20 25 32 33 34 36 37 42 47 49 
29(5)->1 6 10 16 20 25 26 33 34 35 37 47 48 
30(5)->1 7 11 12 14 15 23 25 33 37 40 41 45 46 50 
31(4)->1 2 3 5 6 7 15 19 21 25 33 34 40 42 45 48 
32(5)->1 2 4 8 13 15 16 22 23 25 28 40 41 48 49 
33(3)->1 7 16 18 19 20 22 23 25 28 29 30 31 38 40 41 44 48 
34(2)->1 18 19 24 28 29 31 41 43 49 
35(1)->1 4 5 11 12 13 16 17 18 20 22 26 27 29 43 46 50 
36(5)->1 3 7 8 9 10 11 22 24 25 26 28 37 48 50 
37(1)->1 4 6 12 16 18 22 24 28 29 30 36 46 47 50 
38(4)->1 9 11 13 18 26 33 40 46 49 
39(2)->1 2 4 7 9 11 18 20 42 44 
40(2)->1 5 15 19 30 31 32 33 38 44 45 47 49 50 
41(4)->1 2 7 8 19 26 30 32 33 34 42 
42(5)->1 6 8 10 11 14 19 25 27 28 31 39 41 47 
43(5)->1 6 8 10 15 16 17 26 27 34 35 46 48 
44(6)->1 2 18 23 24 33 39 40 49 
45(0)->9 10 14 15 16 17 19 26 30 31 40 47 49 50 
46(0)->4 8 12 14 21 22 26 30 35 37 38 43 47 49 
47(3)->6 15 20 28 29 37 40 42 45 46 49 50 
48(6)->1 10 19 25 29 31 32 33 36 43 49 
49(1)->1 5 6 7 9 12 16 27 28 32 34 38 40 44 45 46 47 48 
50(4)->1 2 4 8 11 13 14 18 25 30 35 36 37 40 45 47 
COUNT: 438488
COLORS: 7
EDGES: 350
7
438488
