1 -> 34 3 36 38 7 8 9 10 43 15 11 49 50 19 20 23 25 27 28 29
2 -> 32 35 4 5 8 41 42 44 47 17 18 3 21 22 23 25 26 37 30 31
3 -> 1 2 7 8 9 10 11 12 13 14 15 19 20 29 32 34 36 38 41 42 46 47 48
4 -> 33 2 5 38 39 40 41 43 44 47 16 49 18 22 23 27 37
5 -> 32 2 4 6 39 40 41 12 17 20 21 24
6 -> 32 18 5 41 42 43 12 13 15 16 17 50 20 24 28 37
7 -> 33 35 1 15 11 44 45 46 47 48 3 20 27 30
8 -> 32 1 2 35 37 33 10 15 50 3 22 23 24 27 28 30
9 -> 32 1 3 40 41 18 46 17 50 35 21 22 23
10 -> 32 1 3 8 43 12 50 11 49 18 40 25 29
11 -> 48 34 3 1 37 7 10 45 46 15 16 35 22 36 27 29 30 31
12 -> 33 34 3 38 6 17 10 39 49 18 24 42 5
13 -> 3 37 6 40 42 44 46 15 48 18 22 23 26 38 30 31
14 -> 34 3 36 39 40 41 44 49 21 23 25 27 29
15 -> 32 1 3 6 38 7 8 11 44 50 13 18 19 20 21 24 39 26 28 29 37
16 -> 33 43 4 37 6 40 41 11 47 48 18 20 25
17 -> 32 2 43 36 5 38 40 44 23 12 45 46 49 50 21 9 24 6 27 28 37
18 -> 48 2 4 6 33 9 10 43 13 34 12 15 16 49 46 22 23 24 27 28 30
19 -> 32 1 3 15 48 49 50 23 27 28
20 -> 1 3 36 5 6 39 40 41 7 15 16 49 35 21 38 28 29 30
21 -> 32 33 34 36 5 41 2 46 15 17 20 14 9 24 26 27 37 31
22 -> 34 35 4 38 8 9 45 2 13 11 18 28 29 31
23 -> 1 34 35 36 38 40 41 2 13 14 47 17 18 19 46 8 9 4 26 30 31
24 -> 35 36 5 6 49 8 41 46 44 45 12 15 48 17 18 21 37 30 31
25 -> 32 1 34 48 42 2 44 45 46 16 10 14 29 30 31
26 -> 32 2 36 41 43 44 13 46 47 49 21 23 15 29
27 -> 14 1 4 37 7 8 42 11 46 17 18 19 21 30
28 -> 1 35 36 38 6 8 41 46 15 17 18 19 20 22
29 -> 32 1 34 3 41 10 11 44 14 15 48 35 20 22 25 26
30 -> 32 2 43 7 8 47 11 13 45 48 18 35 20 23 24 25 27
31 -> 32 33 2 35 40 11 13 49 21 22 23 24 25
32 -> 30 2 3 5 6 17 40 9 10 43 46 15 49 19 21 8 25 26 29 39 31
33 -> 36 37 38 7 8 12 44 46 16 40 18 21 4 31
34 -> 1 3 36 37 39 42 11 12 14 48 49 18 21 22 23 25 29
35 -> 2 37 38 7 8 9 11 44 45 40 20 22 23 24 28 29 30 31
36 -> 1 34 11 38 33 41 42 46 14 17 3 20 21 23 24 26 28
37 -> 33 34 35 4 49 6 39 8 41 42 11 13 15 16 17 50 21 24 2 27
38 -> 33 3 36 12 41 43 44 45 46 15 17 50 35 20 1 22 23 4 28 13
39 -> 32 34 4 37 40 12 45 14 15 49 20 5
40 -> 32 33 35 4 5 39 9 10 44 13 46 45 16 17 20 14 23 31
41 -> 2 3 4 5 6 9 14 16 20 21 23 24 26 28 29 36 37 38 43 44 45 46 47
42 -> 34 3 36 37 6 2 12 13 25 27
43 -> 32 1 4 38 6 17 41 10 47 16 49 18 26 30
44 -> 33 2 35 4 38 7 40 41 13 14 15 17 50 24 25 26 29
45 -> 35 17 38 39 40 41 11 46 47 48 24 22 7 25 30
46 -> 3 7 9 11 13 17 18 21 23 24 25 26 27 28 32 33 36 38 40 41 45 49 50
47 -> 16 2 3 4 7 41 43 45 48 23 26 30
48 -> 34 3 7 11 13 47 16 24 18 19 45 25 29 30
49 -> 32 1 34 4 37 39 10 43 12 14 17 18 19 20 46 24 26 31
50 -> 1 37 6 8 9 10 44 46 15 17 19 38
