-1=-1,-1,-1
-1=-1,-1,-1
-1=-1,-1,-1
-1=-1,-1,-1
-1=-1,-1,-1
-1=-1,-1,-1
-1=-1,-1,-1
-1=-1,-1,-1
-1=-1,-1,-1
-1=-1,-1,-1
-1=-1,-1,-1
-1=-1,-1,-1
-1=-1,-1,-1
-1=-1,-1,-1
-1=-1,-1,-1
-1=-1,-1,-1
-1=-1,-1,-1
-1=-1,-1,-1
-1=-1,-1,-1
-1=-1,-1,-1
-1=-1,-1,-1
-1=-1,-1,-1
-1=-1,-1,-1
-1=-1,-1,-1
-1=-1,-1,-1
22=-1,-1,-1
-1=-1,-1,-1
-1=-1,-1,-1
-1=-1,-1,-1
-1=-1,-1,-1
-1=-1,-1,-1
-1=-1,-1,-1
-1=-1,-1,-1
-1=-1,-1,-1
36=-1,-1,-1
-1=-1,-1,-1
-1=-1,-1,-1
-1=-1,-1,-1
25=-1,-1,-1
-1=-1,-1,-1
-1=-1,-1,-1
-1=-1,-1,-1
-1=-1,-1,-1
-1=-1,-1,-1
-1=-1,-1,-1
-1=-1,-1,-1
-1=-1,-1,-1
-1=25,-1,-1
-1=-1,-1,-1
17=-1,-1,-1
-1=-1,-1,-1
-1=-1,-1,-1
28=-1,-1,-1
-1=-1,-1,-1
-1=-1,-1,-1
-1=-1,-1,-1
-1=-1,-1,-1
-1=-1,-1,-1
-1=-1,-1,-1
-1=-1,-1,-1
-1=-1,-1,-1
-1=-1,-1,-1
-1=-1,-1,-1
-1=-1,-1,-1
-1=-1,-1,-1
-1=-1,-1,-1
-1=-1,-1,-1
-1=-1,-1,-1
-1=-1,-1,-1
-1=-1,-1,-1
38=-1,-1,-1
-1=-1,-1,-1
-1=-1,-1,-1
-1=-1,-1,-1
-1=-1,-1,-1
-1=-1,-1,-1
-1=-1,-1,-1
-1=-1,-1,-1
-1=-1,-1,-1
-1=-1,-1,-1
-1=-1,-1,-1
-1=28,-1,-1
-1=-1,-1,-1
-1=-1,-1,-1
-1=-1,-1,-1
-1=-1,-1,-1
-1=-1,-1,-1
-1=-1,-1,-1
-1=-1,-1,-1
-1=-1,-1,-1
-1=-1,-1,-1
31=-1,-1,-1
-1=-1,-1,-1
-1=-1,-1,-1
-1=-1,-1,-1
-1=-1,-1,-1
-1=-1,-1,-1
12=-1,-1,-1
-1=17,-1,-1
-1=-1,-1,-1
-1=-1,-1,-1
8=-1,-1,-1
-1=-1,-1,-1
29=-1,-1,-1
-1=22,-1,-1
-1=36,-1,-1
-1=31,-1,-1
32=29,-1,-1
-1=-1,-1,-1
-1=-1,-1,-1
-1=-1,-1,-1
-1=38,-1,-1
-1=-1,-1,-1
2=-1,-1,-1
-1=-1,-1,-1
-1=-1,-1,-1
11=-1,-1,-1
-1=-1,-1,-1
-1=-1,-1,-1
22=-1,-1,-1
13=-1,-1,-1
-1=-1,-1,-1
-1=-1,-1,-1
-1=-1,-1,-1
-1=12,13,-1
-1=-1,-1,-1
6=-1,-1,-1
-1=2,-1,-1
-1=32,-1,-1
-1=-1,-1,-1
-1=-1,-1,-1
-1=22,-1,-1
-1=-1,-1,-1
-1=-1,-1,-1
-1=6,-1,-1
-1=-1,-1,-1
34=-1,-1,-1
-1=8,-1,-1
-1=-1,-1,-1
-1=-1,-1,-1
-1=-1,-1,-1
-1=-1,-1,-1
-1=-1,-1,-1
-1=-1,-1,-1
-1=-1,-1,-1
-1=-1,-1,-1
-1=-1,-1,-1
-1=-1,-1,-1
-1=-1,-1,-1
-1=-1,-1,-1
-1=11,-1,-1
-1=-1,-1,-1
38=-1,-1,-1
-1=-1,-1,-1
15=-1,-1,-1
-1=-1,-1,-1
-1=-1,-1,-1
-1=15,-1,-1
-1=-1,-1,-1
-1=-1,-1,-1
-1=-1,-1,-1
-1=34,-1,-1
-1=-1,-1,-1
-1=-1,-1,-1
-1=-1,-1,-1
-1=-1,-1,-1
-1=-1,-1,-1
10=38,-1,-1
-1=10,-1,-1
-1=-1,-1,-1
-1=-1,-1,-1
-1=-1,-1,-1
-1=-1,-1,-1
-1=-1,-1,-1
-1=-1,-1,-1
-1=-1,-1,-1
-1=-1,-1,-1
-1=-1,-1,-1
-1=-1,-1,-1
23=-1,-1,-1
-1=-1,-1,-1
27=-1,-1,-1
-1=-1,-1,-1
-1=-1,-1,-1
-1=-1,-1,-1
-1=-1,-1,-1
-1=-1,-1,-1
-1=-1,-1,-1
-1=-1,-1,-1
-1=23,27,-1
-1=-1,-1,-1
-1=-1,-1,-1
-1=-1,-1,-1
-1=-1,-1,-1
-1=-1,-1,-1
37=-1,-1,-1
-1=37,-1,-1
-1=-1,-1,-1
-1=-1,-1,-1
-1=-1,-1,-1
--------
,
,
,
37 ,
,37 
,
,
,
,
,
23 27 ,
23 27 ,23 27 
23 27 ,23 27 
23 27 ,23 27 
23 27 ,23 27 
23 27 ,23 27 
23 27 ,23 27 
23 27 ,23 27 
23 ,23 27 
23 ,23 
,23 
,
,
,
,
,
,
,
,
,
,
10 ,
38 ,10 
38 ,38 
38 ,38 
38 ,38 
38 ,38 
38 ,38 
34 38 ,38 
34 38 ,34 38 
34 38 ,34 38 
34 38 ,34 38 
15 34 38 ,34 38 
15 34 38 ,15 34 38 
15 34 38 ,15 34 38 
34 38 ,15 34 38 
34 38 ,34 38 
34 ,34 38 
34 ,34 
11 34 ,34 
11 34 ,11 34 
11 34 ,11 34 
11 34 ,11 34 
11 34 ,11 34 
11 34 ,11 34 
11 34 ,11 34 
11 34 ,11 34 
11 34 ,11 34 
11 34 ,11 34 
11 34 ,11 34 
11 34 ,11 34 
11 34 ,11 34 
8 11 34 ,11 34 
8 11 ,8 11 34 
8 11 ,8 11 
6 8 11 ,8 11 
6 8 11 ,6 8 11 
6 8 11 ,6 8 11 
6 8 11 22 ,6 8 11 
6 8 11 22 ,6 8 11 22 
6 8 11 22 ,6 8 11 22 
6 8 11 22 32 ,6 8 11 22 
2 6 8 11 22 32 ,6 8 11 22 32 
2 8 11 22 32 ,2 6 8 11 22 32 
2 8 11 22 32 ,2 8 11 22 32 
2 8 11 12 13 22 32 ,2 8 11 22 32 
2 8 11 12 13 22 32 ,2 8 11 12 13 22 32 
2 8 11 12 13 22 32 ,2 8 11 12 13 22 32 
2 8 11 12 13 22 32 ,2 8 11 12 13 22 32 
2 8 11 12 22 32 ,2 8 11 12 13 22 32 
2 8 11 12 32 ,2 8 11 12 22 32 
2 8 11 12 32 ,2 8 11 12 32 
2 8 11 12 32 ,2 8 11 12 32 
2 8 12 32 ,2 8 11 12 32 
2 8 12 32 ,2 8 12 32 
2 8 12 32 ,2 8 12 32 
8 12 32 ,2 8 12 32 
8 12 32 ,8 12 32 
8 12 32 38 ,8 12 32 
8 12 32 38 ,8 12 32 38 
8 12 32 38 ,8 12 32 38 
8 12 32 38 ,8 12 32 38 
8 12 29 38 ,8 12 32 38 
8 12 29 31 38 ,8 12 29 38 
8 12 29 31 36 38 ,8 12 29 31 38 
8 12 22 29 31 36 38 ,8 12 29 31 36 38 
8 12 22 31 36 38 ,8 12 22 29 31 36 38 
8 12 22 31 36 38 ,8 12 22 31 36 38 
12 22 31 36 38 ,8 12 22 31 36 38 
12 22 31 36 38 ,12 22 31 36 38 
12 22 31 36 38 ,12 22 31 36 38 
12 17 22 31 36 38 ,12 22 31 36 38 
17 22 31 36 38 ,12 17 22 31 36 38 
17 22 31 36 38 ,17 22 31 36 38 
17 22 31 36 38 ,17 22 31 36 38 
17 22 31 36 38 ,17 22 31 36 38 
17 22 31 36 38 ,17 22 31 36 38 
17 22 31 36 38 ,17 22 31 36 38 
17 22 36 38 ,17 22 31 36 38 
17 22 36 38 ,17 22 36 38 
17 22 36 38 ,17 22 36 38 
17 22 36 38 ,17 22 36 38 
17 22 36 38 ,17 22 36 38 
17 22 36 38 ,17 22 36 38 
17 22 36 38 ,17 22 36 38 
17 22 36 38 ,17 22 36 38 
17 22 36 38 ,17 22 36 38 
17 22 36 38 ,17 22 36 38 
17 22 28 36 38 ,17 22 36 38 
17 22 28 36 38 ,17 22 28 36 38 
17 22 28 36 38 ,17 22 28 36 38 
17 22 28 36 38 ,17 22 28 36 38 
17 22 28 36 38 ,17 22 28 36 38 
17 22 28 36 38 ,17 22 28 36 38 
17 22 28 36 38 ,17 22 28 36 38 
17 22 28 36 38 ,17 22 28 36 38 
17 22 28 36 38 ,17 22 28 36 38 
17 22 28 36 38 ,17 22 28 36 38 
17 22 28 36 38 ,17 22 28 36 38 
17 22 28 36 ,17 22 28 36 38 
17 22 28 36 ,17 22 28 36 
17 22 28 36 ,17 22 28 36 
17 22 28 36 ,17 22 28 36 
17 22 28 36 ,17 22 28 36 
17 22 28 36 ,17 22 28 36 
17 22 28 36 ,17 22 28 36 
17 22 28 36 ,17 22 28 36 
17 22 28 36 ,17 22 28 36 
17 22 28 36 ,17 22 28 36 
17 22 28 36 ,17 22 28 36 
17 22 28 36 ,17 22 28 36 
17 22 28 36 ,17 22 28 36 
17 22 28 36 ,17 22 28 36 
17 22 28 36 ,17 22 28 36 
17 22 28 36 ,17 22 28 36 
17 22 28 36 ,17 22 28 36 
17 22 28 36 ,17 22 28 36 
17 22 36 ,17 22 28 36 
17 22 36 ,17 22 36 
17 22 36 ,17 22 36 
22 36 ,17 22 36 
22 36 ,22 36 
22 25 36 ,22 36 
22 25 36 ,22 25 36 
22 25 36 ,22 25 36 
22 25 36 ,22 25 36 
22 25 36 ,22 25 36 
22 25 36 ,22 25 36 
22 25 36 ,22 25 36 
22 25 36 ,22 25 36 
22 25 36 ,22 25 36 
22 36 ,22 25 36 
22 36 ,22 36 
22 36 ,22 36 
22 36 ,22 36 
22 ,22 36 
22 ,22 
22 ,22 
22 ,22 
22 ,22 
22 ,22 
22 ,22 
22 ,22 
22 ,22 
,22 
,
,
,
,
,
,
,
,
,
,
,
,
,
,
,
,
,
,
,
,
,
,
,
,
,
--------
,
,
,
37 ,
,37 
,
,
,
,
,
23 27 ,
23 27 ,23 27 
23 27 ,23 27 
23 27 ,23 27 
23 27 ,23 27 
23 27 ,23 27 
23 27 ,23 27 
23 27 ,23 27 
23 ,23 27 
23 ,23 
,23 
,
,
,
,
,
,
,
,
,
,
10 ,
38 ,10 
38 ,38 
38 ,38 
38 ,38 
38 ,38 
38 ,38 
34 38 ,38 
34 38 ,34 38 
34 38 ,34 38 
34 38 ,34 38 
15 34 38 ,34 38 
15 34 38 ,15 34 38 
15 34 38 ,15 34 38 
34 38 ,15 34 38 
34 38 ,34 38 
34 ,34 38 
34 ,34 
11 34 ,34 
11 34 ,11 34 
11 34 ,11 34 
11 34 ,11 34 
11 34 ,11 34 
11 34 ,11 34 
11 34 ,11 34 
11 34 ,11 34 
11 34 ,11 34 
11 34 ,11 34 
11 34 ,11 34 
11 34 ,11 34 
11 34 ,11 34 
8 11 34 ,11 34 
8 11 ,8 11 34 
8 11 ,8 11 
6 8 11 ,8 11 
6 8 11 ,6 8 11 
6 8 11 ,6 8 11 
6 8 11 22 ,6 8 11 
6 8 11 22 ,6 8 11 22 
6 8 11 22 ,6 8 11 22 
6 8 11 22 32 ,6 8 11 22 
2 6 8 11 22 32 ,6 8 11 22 32 
2 8 11 22 32 ,2 6 8 11 22 32 
2 8 11 22 32 ,2 8 11 22 32 
2 8 11 12 13 22 32 ,2 8 11 22 32 
2 8 11 12 13 22 32 ,2 8 11 12 13 22 32 
2 8 11 12 13 22 32 ,2 8 11 12 13 22 32 
2 8 11 12 13 22 32 ,2 8 11 12 13 22 32 
2 8 11 12 22 32 ,2 8 11 12 13 22 32 
2 8 11 12 32 ,2 8 11 12 22 32 
2 8 11 12 32 ,2 8 11 12 32 
2 8 11 12 32 ,2 8 11 12 32 
2 8 12 32 ,2 8 11 12 32 
2 8 12 32 ,2 8 12 32 
2 8 12 32 ,2 8 12 32 
8 12 32 ,2 8 12 32 
8 12 32 ,8 12 32 
8 12 32 38 ,8 12 32 
8 12 32 38 ,8 12 32 38 
8 12 32 38 ,8 12 32 38 
8 12 32 38 ,8 12 32 38 
8 12 29 38 ,8 12 32 38 
8 12 29 31 38 ,8 12 29 38 
8 12 29 31 36 38 ,8 12 29 31 38 
8 12 22 29 31 36 38 ,8 12 29 31 36 38 
8 12 22 31 36 38 ,8 12 22 29 31 36 38 
8 12 22 31 36 38 ,8 12 22 31 36 38 
12 22 31 36 38 ,8 12 22 31 36 38 
12 22 31 36 38 ,12 22 31 36 38 
12 22 31 36 38 ,12 22 31 36 38 
12 17 22 31 36 38 ,12 22 31 36 38 
17 22 31 36 38 ,12 17 22 31 36 38 
17 22 31 36 38 ,17 22 31 36 38 
17 22 31 36 38 ,17 22 31 36 38 
17 22 31 36 38 ,17 22 31 36 38 
17 22 31 36 38 ,17 22 31 36 38 
17 22 31 36 38 ,17 22 31 36 38 
17 22 36 38 ,17 22 31 36 38 
17 22 36 38 ,17 22 36 38 
17 22 36 38 ,17 22 36 38 
17 22 36 38 ,17 22 36 38 
17 22 36 38 ,17 22 36 38 
17 22 36 38 ,17 22 36 38 
17 22 36 38 ,17 22 36 38 
17 22 36 38 ,17 22 36 38 
17 22 36 38 ,17 22 36 38 
17 22 36 38 ,17 22 36 38 
17 22 28 36 38 ,17 22 36 38 
17 22 28 36 38 ,17 22 28 36 38 
17 22 28 36 38 ,17 22 28 36 38 
17 22 28 36 38 ,17 22 28 36 38 
17 22 28 36 38 ,17 22 28 36 38 
17 22 28 36 38 ,17 22 28 36 38 
17 22 28 36 38 ,17 22 28 36 38 
17 22 28 36 38 ,17 22 28 36 38 
17 22 28 36 38 ,17 22 28 36 38 
17 22 28 36 38 ,17 22 28 36 38 
17 22 28 36 38 ,17 22 28 36 38 
17 22 28 36 ,17 22 28 36 38 
17 22 28 36 ,17 22 28 36 
17 22 28 36 ,17 22 28 36 
17 22 28 36 ,17 22 28 36 
17 22 28 36 ,17 22 28 36 
17 22 28 36 ,17 22 28 36 
17 22 28 36 ,17 22 28 36 
17 22 28 36 ,17 22 28 36 
17 22 28 36 ,17 22 28 36 
17 22 28 36 ,17 22 28 36 
17 22 28 36 ,17 22 28 36 
17 22 28 36 ,17 22 28 36 
17 22 28 36 ,17 22 28 36 
17 22 28 36 ,17 22 28 36 
17 22 28 36 ,17 22 28 36 
17 22 28 36 ,17 22 28 36 
17 22 28 36 ,17 22 28 36 
17 22 28 36 ,17 22 28 36 
17 22 36 ,17 22 28 36 
17 22 36 ,17 22 36 
17 22 36 ,17 22 36 
22 36 ,17 22 36 
22 36 ,22 36 
22 25 36 ,22 36 
22 25 36 ,22 25 36 
22 25 36 ,22 25 36 
22 25 36 ,22 25 36 
22 25 36 ,22 25 36 
22 25 36 ,22 25 36 
22 25 36 ,22 25 36 
22 25 36 ,22 25 36 
22 25 36 ,22 25 36 
22 36 ,22 25 36 
22 36 ,22 36 
22 36 ,22 36 
22 36 ,22 36 
22 ,22 36 
22 ,22 
22 ,22 
22 ,22 
22 ,22 
22 ,22 
22 ,22 
22 ,22 
22 ,22 
,22 
,
,
,
,
,
,
,
,
,
,
,
,
,
,
,
,
,
,
,
,
,
,
,
,
,
-------------
-------
2(-1)->6 8 11 12 13 22 32 
6(-1)->2 8 11 22 32 
8(-1)->2 6 11 12 13 22 29 31 32 34 36 38 
10(-1)->
11(-1)->2 6 8 12 13 22 32 34 
12(-1)->2 8 11 13 17 22 29 31 32 36 38 
13(-1)->2 8 11 12 22 32 
15(-1)->34 38 
17(-1)->12 22 28 31 36 38 
22(-1)->2 6 8 11 12 13 17 25 28 29 31 32 36 38 
23(-1)->27 
25(-1)->22 36 
27(-1)->23 
28(-1)->17 22 36 38 
29(-1)->8 12 22 31 36 38 
31(-1)->8 12 17 22 29 36 38 
32(-1)->2 6 8 11 12 13 22 38 
34(-1)->8 11 15 38 
36(-1)->8 12 17 22 25 28 29 31 38 
37(-1)->
38(-1)->8 12 15 17 22 28 29 31 32 34 36 
-------
Node 22 maps to position 0
Node 8 maps to position 1
Node 12 maps to position 2
Node 38 maps to position 3
Node 36 maps to position 4
Node 11 maps to position 5
Node 32 maps to position 6
Node 2 maps to position 7
Node 31 maps to position 8
Node 13 maps to position 9
Node 17 maps to position 10
Node 29 maps to position 11
Node 6 maps to position 12
Node 28 maps to position 13
Node 34 maps to position 14
Node 15 maps to position 15
Node 25 maps to position 16
Node 23 maps to position 17
Node 27 maps to position 18
Node 10 maps to position 19
Node 37 maps to position 20
22(-1)->2 6 8 11 12 13 17 25 28 29 31 32 36 38 
8(-1)->2 6 11 12 13 22 29 31 32 34 36 38 
12(-1)->2 8 11 13 17 22 29 31 32 36 38 
38(-1)->8 12 15 17 22 28 29 31 32 34 36 
36(-1)->8 12 17 22 25 28 29 31 38 
11(-1)->2 6 8 12 13 22 32 34 
32(-1)->2 6 8 11 12 13 22 38 
2(-1)->6 8 11 12 13 22 32 
31(-1)->8 12 17 22 29 36 38 
13(-1)->2 8 11 12 22 32 
17(-1)->12 22 28 31 36 38 
29(-1)->8 12 22 31 36 38 
6(-1)->2 8 11 22 32 
28(-1)->17 22 36 38 
34(-1)->8 11 15 38 
15(-1)->34 38 
25(-1)->22 36 
23(-1)->27 
27(-1)->23 
10(-1)->
37(-1)->
-------
BLAH
START TIME: 1433732222
Cq = 6 and is assigned to x9
BACKTRACKED TO DEPTH: 8
0 1 2 3 4 5 
2(5)->6 8 11 12 13 22 32 
6(2)->2 8 11 22 32 
8(1)->2 6 11 12 13 22 29 31 32 34 36 38 
10(0)->
11(3)->2 6 8 12 13 22 32 34 
12(2)->2 8 11 13 17 22 29 31 32 36 38 
13(6)->2 8 11 12 22 32 
15(1)->34 38 
17(1)->12 22 28 31 36 38 
22(0)->2 6 8 11 12 13 17 25 28 29 31 32 36 38 
23(0)->27 
25(1)->22 36 
27(1)->23 
28(2)->17 22 36 38 
29(6)->8 12 22 31 36 38 
31(5)->8 12 17 22 29 36 38 
32(4)->2 6 8 11 12 13 22 38 
34(0)->8 11 15 38 
36(4)->8 12 17 22 25 28 29 31 38 
37(0)->
38(3)->8 12 15 17 22 28 29 31 32 34 36 
COUNT: 32
COLORS: 7
EDGES: 0
7
32
