-1=-1,-1,-1
-1=-1,-1,-1
-1=-1,-1,-1
-1=-1,-1,-1
-1=-1,-1,-1
-1=-1,-1,-1
24=-1,-1,-1
-1=24,-1,-1
-1=-1,-1,-1
-1=-1,-1,-1
24=-1,-1,-1
-1=-1,-1,-1
-1=-1,-1,-1
-1=-1,-1,-1
11=-1,-1,-1
-1=-1,-1,-1
-1=-1,-1,-1
-1=-1,-1,-1
40=-1,-1,-1
31=-1,-1,-1
1=-1,-1,-1
-1=-1,-1,-1
-1=-1,-1,-1
-1=-1,-1,-1
-1=-1,-1,-1
-1=-1,-1,-1
-1=-1,-1,-1
-1=-1,-1,-1
-1=-1,-1,-1
-1=-1,-1,-1
-1=-1,-1,-1
-1=-1,-1,-1
-1=-1,-1,-1
-1=-1,-1,-1
-1=-1,-1,-1
-1=-1,-1,-1
-1=40,-1,-1
8=-1,-1,-1
16=-1,-1,-1
-1=-1,-1,-1
34=-1,-1,-1
-1=-1,-1,-1
-1=-1,-1,-1
-1=-1,-1,-1
-1=-1,-1,-1
-1=-1,-1,-1
-1=-1,-1,-1
-1=-1,-1,-1
49=-1,-1,-1
38=-1,-1,-1
-1=-1,-1,-1
40=-1,-1,-1
-1=-1,-1,-1
-1=-1,-1,-1
3=-1,-1,-1
-1=-1,-1,-1
-1=-1,-1,-1
-1=-1,-1,-1
-1=31,-1,-1
-1=-1,-1,-1
-1=8,-1,-1
-1=38,-1,-1
-1=-1,-1,-1
-1=-1,-1,-1
-1=-1,-1,-1
38=-1,-1,-1
-1=-1,-1,-1
-1=16,-1,-1
48=-1,-1,-1
18=3,-1,-1
-1=-1,-1,-1
-1=40,-1,-1
-1=-1,-1,-1
-1=-1,-1,-1
-1=-1,-1,-1
-1=-1,-1,-1
-1=-1,-1,-1
-1=-1,-1,-1
8=-1,-1,-1
-1=-1,-1,-1
-1=-1,-1,-1
3=-1,-1,-1
-1=-1,-1,-1
-1=-1,-1,-1
-1=-1,-1,-1
-1=49,-1,-1
-1=-1,-1,-1
-1=-1,-1,-1
-1=-1,-1,-1
-1=-1,-1,-1
46=-1,-1,-1
25=-1,-1,-1
-1=-1,-1,-1
37=1,-1,-1
-1=-1,-1,-1
-1=-1,-1,-1
-1=-1,-1,-1
22=-1,-1,-1
43=-1,-1,-1
-1=-1,-1,-1
-1=-1,-1,-1
-1=-1,-1,-1
-1=-1,-1,-1
-1=3,-1,-1
-1=11,-1,-1
-1=-1,-1,-1
-1=-1,-1,-1
-1=-1,-1,-1
-1=46,-1,-1
-1=-1,-1,-1
19=24,-1,-1
-1=19,-1,-1
-1=8,-1,-1
-1=-1,-1,-1
-1=37,-1,-1
-1=-1,-1,-1
14=-1,-1,-1
-1=34,-1,-1
-1=-1,-1,-1
-1=43,-1,-1
-1=-1,-1,-1
-1=-1,-1,-1
-1=-1,-1,-1
-1=-1,-1,-1
-1=-1,-1,-1
-1=-1,-1,-1
-1=22,-1,-1
-1=38,-1,-1
-1=18,-1,-1
-1=-1,-1,-1
-1=-1,-1,-1
-1=-1,-1,-1
-1=48,-1,-1
-1=-1,-1,-1
-1=-1,-1,-1
28=-1,-1,-1
-1=-1,-1,-1
-1=-1,-1,-1
-1=-1,-1,-1
-1=-1,-1,-1
-1=25,-1,-1
-1=14,-1,-1
-1=-1,-1,-1
-1=-1,-1,-1
-1=-1,-1,-1
-1=-1,-1,-1
-1=-1,-1,-1
-1=-1,-1,-1
-1=-1,-1,-1
-1=-1,-1,-1
-1=-1,-1,-1
-1=-1,-1,-1
-1=-1,-1,-1
-1=-1,-1,-1
42=-1,-1,-1
-1=-1,-1,-1
-1=28,-1,-1
-1=-1,-1,-1
-1=-1,-1,-1
-1=-1,-1,-1
-1=-1,-1,-1
-1=-1,-1,-1
-1=-1,-1,-1
-1=-1,-1,-1
-1=-1,-1,-1
-1=-1,-1,-1
-1=-1,-1,-1
-1=-1,-1,-1
-1=-1,-1,-1
9=-1,-1,-1
-1=-1,-1,-1
-1=-1,-1,-1
-1=-1,-1,-1
-1=-1,-1,-1
-1=-1,-1,-1
24=-1,-1,-1
-1=24,-1,-1
7=-1,-1,-1
-1=-1,-1,-1
-1=7,-1,-1
-1=-1,-1,-1
24=-1,-1,-1
-1=-1,-1,-1
-1=-1,-1,-1
-1=9,-1,-1
-1=-1,-1,-1
-1=42,-1,-1
21=24,-1,-1
-1=21,-1,-1
-1=-1,-1,-1
42=-1,-1,-1
-1=-1,-1,-1
31=42,-1,-1
28=31,-1,-1
-1=-1,-1,-1
-1=28,-1,-1
-1=-1,-1,-1
-1=-1,-1,-1
-1=-1,-1,-1
-1=-1,-1,-1
--------
,
,
,
,
28 ,
28 ,28 
31 ,28 
42 ,31 
42 ,42 
,42 
,
21 ,
24 ,21 
24 42 ,24 
24 42 ,24 42 
9 24 42 ,24 42 
9 24 42 ,9 24 42 
9 24 42 ,9 24 42 
9 42 ,9 24 42 
9 42 ,9 42 
7 9 42 ,9 42 
7 9 42 ,7 9 42 
9 42 ,7 9 42 
9 24 42 ,9 42 
9 42 ,9 24 42 
9 42 ,9 42 
9 42 ,9 42 
9 42 ,9 42 
9 42 ,9 42 
9 42 ,9 42 
42 ,9 42 
42 ,42 
42 ,42 
42 ,42 
42 ,42 
42 ,42 
42 ,42 
42 ,42 
42 ,42 
42 ,42 
42 ,42 
42 ,42 
42 ,42 
28 42 ,42 
28 42 ,28 42 
28 ,28 42 
28 ,28 
28 ,28 
28 ,28 
28 ,28 
28 ,28 
28 ,28 
28 ,28 
28 ,28 
28 ,28 
28 ,28 
28 ,28 
28 ,28 
14 28 ,28 
14 25 28 ,14 28 
14 25 28 ,14 25 28 
14 25 28 ,14 25 28 
14 25 28 ,14 25 28 
14 25 28 ,14 25 28 
14 25 ,14 25 28 
14 25 ,14 25 
14 25 ,14 25 
14 25 48 ,14 25 
14 25 48 ,14 25 48 
14 25 48 ,14 25 48 
14 25 48 ,14 25 48 
14 18 25 48 ,14 25 48 
14 18 25 38 48 ,14 18 25 48 
14 18 22 25 38 48 ,14 18 25 38 48 
14 18 22 25 38 48 ,14 18 22 25 38 48 
14 18 22 25 38 48 ,14 18 22 25 38 48 
14 18 22 25 38 48 ,14 18 22 25 38 48 
14 18 22 25 38 48 ,14 18 22 25 38 48 
14 18 22 25 38 48 ,14 18 22 25 38 48 
14 18 22 25 38 48 ,14 18 22 25 38 48 
14 18 22 25 38 43 48 ,14 18 22 25 38 48 
14 18 22 25 38 43 48 ,14 18 22 25 38 43 48 
14 18 22 25 34 38 43 48 ,14 18 22 25 38 43 48 
18 22 25 34 38 43 48 ,14 18 22 25 34 38 43 48 
18 22 25 34 38 43 48 ,18 22 25 34 38 43 48 
18 22 25 34 37 38 43 48 ,18 22 25 34 38 43 48 
18 22 25 34 37 38 43 48 ,18 22 25 34 37 38 43 48 
8 18 22 25 34 37 38 43 48 ,18 22 25 34 37 38 43 48 
8 18 19 22 25 34 37 38 43 48 ,8 18 22 25 34 37 38 43 48 
8 18 22 24 25 34 37 38 43 48 ,8 18 19 22 25 34 37 38 43 48 
8 18 22 24 25 34 37 38 43 48 ,8 18 22 24 25 34 37 38 43 48 
8 18 22 24 25 34 37 38 43 46 48 ,8 18 22 24 25 34 37 38 43 48 
8 18 22 24 25 34 37 38 43 46 48 ,8 18 22 24 25 34 37 38 43 46 48 
8 18 22 24 25 34 37 38 43 46 48 ,8 18 22 24 25 34 37 38 43 46 48 
8 18 22 24 25 34 37 38 43 46 48 ,8 18 22 24 25 34 37 38 43 46 48 
8 11 18 22 24 25 34 37 38 43 46 48 ,8 18 22 24 25 34 37 38 43 46 48 
3 8 11 18 22 24 25 34 37 38 43 46 48 ,8 11 18 22 24 25 34 37 38 43 46 48 
3 8 11 18 22 24 25 34 37 38 43 46 48 ,3 8 11 18 22 24 25 34 37 38 43 46 48 
3 8 11 18 22 24 25 34 37 38 43 46 48 ,3 8 11 18 22 24 25 34 37 38 43 46 48 
3 8 11 18 22 24 25 34 37 38 43 46 48 ,3 8 11 18 22 24 25 34 37 38 43 46 48 
3 8 11 18 22 24 25 34 37 38 43 46 48 ,3 8 11 18 22 24 25 34 37 38 43 46 48 
3 8 11 18 22 24 25 34 37 38 46 48 ,3 8 11 18 22 24 25 34 37 38 43 46 48 
3 8 11 18 24 25 34 37 38 46 48 ,3 8 11 18 22 24 25 34 37 38 46 48 
3 8 11 18 24 25 34 37 38 46 48 ,3 8 11 18 24 25 34 37 38 46 48 
3 8 11 18 24 25 34 37 38 46 48 ,3 8 11 18 24 25 34 37 38 46 48 
3 8 11 18 24 25 34 37 38 46 48 ,3 8 11 18 24 25 34 37 38 46 48 
1 3 8 11 18 24 25 34 38 46 48 ,3 8 11 18 24 25 34 37 38 46 48 
1 3 8 11 18 24 25 34 38 46 48 ,1 3 8 11 18 24 25 34 38 46 48 
1 3 8 11 18 24 34 38 46 48 ,1 3 8 11 18 24 25 34 38 46 48 
1 3 8 11 18 24 34 38 48 ,1 3 8 11 18 24 34 38 46 48 
1 3 8 11 18 24 34 38 48 ,1 3 8 11 18 24 34 38 48 
1 3 8 11 18 24 34 38 48 ,1 3 8 11 18 24 34 38 48 
1 3 8 11 18 24 34 38 48 ,1 3 8 11 18 24 34 38 48 
1 3 8 11 18 24 34 38 48 ,1 3 8 11 18 24 34 38 48 
1 3 8 11 18 24 34 38 48 49 ,1 3 8 11 18 24 34 38 48 
1 3 8 11 18 24 34 38 48 49 ,1 3 8 11 18 24 34 38 48 49 
1 3 8 11 18 24 34 38 48 49 ,1 3 8 11 18 24 34 38 48 49 
1 3 8 11 18 24 34 38 48 49 ,1 3 8 11 18 24 34 38 48 49 
1 8 11 18 24 34 38 48 49 ,1 3 8 11 18 24 34 38 48 49 
1 8 11 18 24 34 38 48 49 ,1 8 11 18 24 34 38 48 49 
1 8 11 18 24 34 38 48 49 ,1 8 11 18 24 34 38 48 49 
1 11 18 24 34 38 48 49 ,1 8 11 18 24 34 38 48 49 
1 11 18 24 34 38 48 49 ,1 11 18 24 34 38 48 49 
1 11 18 24 34 38 48 49 ,1 11 18 24 34 38 48 49 
1 11 18 24 34 38 48 49 ,1 11 18 24 34 38 48 49 
1 11 18 24 34 38 48 49 ,1 11 18 24 34 38 48 49 
1 11 18 24 34 38 48 49 ,1 11 18 24 34 38 48 49 
1 11 18 24 34 38 48 49 ,1 11 18 24 34 38 48 49 
1 11 18 24 34 38 40 48 49 ,1 11 18 24 34 38 48 49 
1 11 18 24 34 38 40 48 49 ,1 11 18 24 34 38 40 48 49 
1 3 11 24 34 38 40 48 49 ,1 11 18 24 34 38 40 48 49 
1 3 11 24 34 38 40 49 ,1 3 11 24 34 38 40 48 49 
1 3 11 16 24 34 38 40 49 ,1 3 11 24 34 38 40 49 
1 3 11 16 24 34 38 40 49 ,1 3 11 16 24 34 38 40 49 
1 3 11 16 24 34 40 49 ,1 3 11 16 24 34 38 40 49 
1 3 11 16 24 34 40 49 ,1 3 11 16 24 34 40 49 
1 3 11 16 24 34 40 49 ,1 3 11 16 24 34 40 49 
1 3 11 16 24 34 40 49 ,1 3 11 16 24 34 40 49 
1 3 11 16 24 34 38 40 49 ,1 3 11 16 24 34 40 49 
1 3 8 11 16 24 34 38 40 49 ,1 3 11 16 24 34 38 40 49 
1 3 8 11 16 24 34 38 40 49 ,1 3 8 11 16 24 34 38 40 49 
1 3 8 11 16 24 31 34 38 40 49 ,1 3 8 11 16 24 34 38 40 49 
1 3 8 11 16 24 31 34 38 40 49 ,1 3 8 11 16 24 31 34 38 40 49 
1 3 8 11 16 24 31 34 38 40 49 ,1 3 8 11 16 24 31 34 38 40 49 
1 3 8 11 16 24 31 34 38 40 49 ,1 3 8 11 16 24 31 34 38 40 49 
1 8 11 16 24 31 34 38 40 49 ,1 3 8 11 16 24 31 34 38 40 49 
1 8 11 16 24 31 34 38 40 49 ,1 8 11 16 24 31 34 38 40 49 
1 8 11 16 24 31 34 38 40 49 ,1 8 11 16 24 31 34 38 40 49 
1 8 11 16 24 31 34 38 49 ,1 8 11 16 24 31 34 38 40 49 
1 8 11 16 24 31 34 38 49 ,1 8 11 16 24 31 34 38 49 
1 8 11 16 24 31 34 49 ,1 8 11 16 24 31 34 38 49 
1 8 11 16 24 31 34 ,1 8 11 16 24 31 34 49 
1 8 11 16 24 31 34 ,1 8 11 16 24 31 34 
1 8 11 16 24 31 34 ,1 8 11 16 24 31 34 
1 8 11 16 24 31 34 ,1 8 11 16 24 31 34 
1 8 11 16 24 31 34 ,1 8 11 16 24 31 34 
1 8 11 16 24 31 34 ,1 8 11 16 24 31 34 
1 8 11 16 24 31 34 ,1 8 11 16 24 31 34 
1 8 11 16 24 31 34 ,1 8 11 16 24 31 34 
1 8 11 16 24 31 ,1 8 11 16 24 31 34 
1 8 11 16 24 31 ,1 8 11 16 24 31 
1 8 11 24 31 ,1 8 11 16 24 31 
1 11 24 31 ,1 8 11 24 31 
1 11 24 31 40 ,1 11 24 31 
1 11 24 31 40 ,1 11 24 31 40 
1 11 24 31 40 ,1 11 24 31 40 
1 11 24 31 40 ,1 11 24 31 40 
1 11 24 31 40 ,1 11 24 31 40 
1 11 24 31 40 ,1 11 24 31 40 
1 11 24 31 40 ,1 11 24 31 40 
1 11 24 31 40 ,1 11 24 31 40 
1 11 24 31 40 ,1 11 24 31 40 
1 11 24 31 40 ,1 11 24 31 40 
1 11 24 31 40 ,1 11 24 31 40 
1 11 24 31 40 ,1 11 24 31 40 
1 11 24 31 40 ,1 11 24 31 40 
1 11 24 31 40 ,1 11 24 31 40 
1 11 24 31 40 ,1 11 24 31 40 
1 11 24 31 40 ,1 11 24 31 40 
11 24 31 40 ,1 11 24 31 40 
11 24 40 ,11 24 31 40 
11 24 ,11 24 40 
11 24 ,11 24 
11 24 ,11 24 
11 24 ,11 24 
24 ,11 24 
24 ,24 
24 ,24 
24 ,24 
,24 
,
,
24 ,
,24 
,
,
,
,
,
,
--------
,
,
,
,
28 ,
28 ,28 
31 ,28 
42 ,31 
42 ,42 
,42 
,
21 ,
24 ,21 
24 42 ,24 
24 42 ,24 42 
9 24 42 ,24 42 
9 24 42 ,9 24 42 
9 24 42 ,9 24 42 
9 42 ,9 24 42 
9 42 ,9 42 
7 9 42 ,9 42 
7 9 42 ,7 9 42 
9 42 ,7 9 42 
9 24 42 ,9 42 
9 42 ,9 24 42 
9 42 ,9 42 
9 42 ,9 42 
9 42 ,9 42 
9 42 ,9 42 
9 42 ,9 42 
42 ,9 42 
42 ,42 
42 ,42 
42 ,42 
42 ,42 
42 ,42 
42 ,42 
42 ,42 
42 ,42 
42 ,42 
42 ,42 
42 ,42 
42 ,42 
28 42 ,42 
28 42 ,28 42 
28 ,28 42 
28 ,28 
28 ,28 
28 ,28 
28 ,28 
28 ,28 
28 ,28 
28 ,28 
28 ,28 
28 ,28 
28 ,28 
28 ,28 
28 ,28 
14 28 ,28 
14 25 28 ,14 28 
14 25 28 ,14 25 28 
14 25 28 ,14 25 28 
14 25 28 ,14 25 28 
14 25 28 ,14 25 28 
14 25 ,14 25 28 
14 25 ,14 25 
14 25 ,14 25 
14 25 48 ,14 25 
14 25 48 ,14 25 48 
14 25 48 ,14 25 48 
14 25 48 ,14 25 48 
14 18 25 48 ,14 25 48 
14 18 25 38 48 ,14 18 25 48 
14 18 22 25 38 48 ,14 18 25 38 48 
14 18 22 25 38 48 ,14 18 22 25 38 48 
14 18 22 25 38 48 ,14 18 22 25 38 48 
14 18 22 25 38 48 ,14 18 22 25 38 48 
14 18 22 25 38 48 ,14 18 22 25 38 48 
14 18 22 25 38 48 ,14 18 22 25 38 48 
14 18 22 25 38 48 ,14 18 22 25 38 48 
14 18 22 25 38 43 48 ,14 18 22 25 38 48 
14 18 22 25 38 43 48 ,14 18 22 25 38 43 48 
14 18 22 25 34 38 43 48 ,14 18 22 25 38 43 48 
18 22 25 34 38 43 48 ,14 18 22 25 34 38 43 48 
18 22 25 34 38 43 48 ,18 22 25 34 38 43 48 
18 22 25 34 37 38 43 48 ,18 22 25 34 38 43 48 
18 22 25 34 37 38 43 48 ,18 22 25 34 37 38 43 48 
8 18 22 25 34 37 38 43 48 ,18 22 25 34 37 38 43 48 
8 18 19 22 25 34 37 38 43 48 ,8 18 22 25 34 37 38 43 48 
8 18 22 24 25 34 37 38 43 48 ,8 18 19 22 25 34 37 38 43 48 
8 18 22 24 25 34 37 38 43 48 ,8 18 22 24 25 34 37 38 43 48 
8 18 22 24 25 34 37 38 43 46 48 ,8 18 22 24 25 34 37 38 43 48 
8 18 22 24 25 34 37 38 43 46 48 ,8 18 22 24 25 34 37 38 43 46 48 
8 18 22 24 25 34 37 38 43 46 48 ,8 18 22 24 25 34 37 38 43 46 48 
8 18 22 24 25 34 37 38 43 46 48 ,8 18 22 24 25 34 37 38 43 46 48 
8 11 18 22 24 25 34 37 38 43 46 48 ,8 18 22 24 25 34 37 38 43 46 48 
3 8 11 18 22 24 25 34 37 38 43 46 48 ,8 11 18 22 24 25 34 37 38 43 46 48 
3 8 11 18 22 24 25 34 37 38 43 46 48 ,3 8 11 18 22 24 25 34 37 38 43 46 48 
3 8 11 18 22 24 25 34 37 38 43 46 48 ,3 8 11 18 22 24 25 34 37 38 43 46 48 
3 8 11 18 22 24 25 34 37 38 43 46 48 ,3 8 11 18 22 24 25 34 37 38 43 46 48 
3 8 11 18 22 24 25 34 37 38 43 46 48 ,3 8 11 18 22 24 25 34 37 38 43 46 48 
3 8 11 18 22 24 25 34 37 38 46 48 ,3 8 11 18 22 24 25 34 37 38 43 46 48 
3 8 11 18 24 25 34 37 38 46 48 ,3 8 11 18 22 24 25 34 37 38 46 48 
3 8 11 18 24 25 34 37 38 46 48 ,3 8 11 18 24 25 34 37 38 46 48 
3 8 11 18 24 25 34 37 38 46 48 ,3 8 11 18 24 25 34 37 38 46 48 
3 8 11 18 24 25 34 37 38 46 48 ,3 8 11 18 24 25 34 37 38 46 48 
1 3 8 11 18 24 25 34 38 46 48 ,3 8 11 18 24 25 34 37 38 46 48 
1 3 8 11 18 24 25 34 38 46 48 ,1 3 8 11 18 24 25 34 38 46 48 
1 3 8 11 18 24 34 38 46 48 ,1 3 8 11 18 24 25 34 38 46 48 
1 3 8 11 18 24 34 38 48 ,1 3 8 11 18 24 34 38 46 48 
1 3 8 11 18 24 34 38 48 ,1 3 8 11 18 24 34 38 48 
1 3 8 11 18 24 34 38 48 ,1 3 8 11 18 24 34 38 48 
1 3 8 11 18 24 34 38 48 ,1 3 8 11 18 24 34 38 48 
1 3 8 11 18 24 34 38 48 ,1 3 8 11 18 24 34 38 48 
1 3 8 11 18 24 34 38 48 49 ,1 3 8 11 18 24 34 38 48 
1 3 8 11 18 24 34 38 48 49 ,1 3 8 11 18 24 34 38 48 49 
1 3 8 11 18 24 34 38 48 49 ,1 3 8 11 18 24 34 38 48 49 
1 3 8 11 18 24 34 38 48 49 ,1 3 8 11 18 24 34 38 48 49 
1 8 11 18 24 34 38 48 49 ,1 3 8 11 18 24 34 38 48 49 
1 8 11 18 24 34 38 48 49 ,1 8 11 18 24 34 38 48 49 
1 8 11 18 24 34 38 48 49 ,1 8 11 18 24 34 38 48 49 
1 11 18 24 34 38 48 49 ,1 8 11 18 24 34 38 48 49 
1 11 18 24 34 38 48 49 ,1 11 18 24 34 38 48 49 
1 11 18 24 34 38 48 49 ,1 11 18 24 34 38 48 49 
1 11 18 24 34 38 48 49 ,1 11 18 24 34 38 48 49 
1 11 18 24 34 38 48 49 ,1 11 18 24 34 38 48 49 
1 11 18 24 34 38 48 49 ,1 11 18 24 34 38 48 49 
1 11 18 24 34 38 48 49 ,1 11 18 24 34 38 48 49 
1 11 18 24 34 38 40 48 49 ,1 11 18 24 34 38 48 49 
1 11 18 24 34 38 40 48 49 ,1 11 18 24 34 38 40 48 49 
1 3 11 24 34 38 40 48 49 ,1 11 18 24 34 38 40 48 49 
1 3 11 24 34 38 40 49 ,1 3 11 24 34 38 40 48 49 
1 3 11 16 24 34 38 40 49 ,1 3 11 24 34 38 40 49 
1 3 11 16 24 34 38 40 49 ,1 3 11 16 24 34 38 40 49 
1 3 11 16 24 34 40 49 ,1 3 11 16 24 34 38 40 49 
1 3 11 16 24 34 40 49 ,1 3 11 16 24 34 40 49 
1 3 11 16 24 34 40 49 ,1 3 11 16 24 34 40 49 
1 3 11 16 24 34 40 49 ,1 3 11 16 24 34 40 49 
1 3 11 16 24 34 38 40 49 ,1 3 11 16 24 34 40 49 
1 3 8 11 16 24 34 38 40 49 ,1 3 11 16 24 34 38 40 49 
1 3 8 11 16 24 34 38 40 49 ,1 3 8 11 16 24 34 38 40 49 
1 3 8 11 16 24 31 34 38 40 49 ,1 3 8 11 16 24 34 38 40 49 
1 3 8 11 16 24 31 34 38 40 49 ,1 3 8 11 16 24 31 34 38 40 49 
1 3 8 11 16 24 31 34 38 40 49 ,1 3 8 11 16 24 31 34 38 40 49 
1 3 8 11 16 24 31 34 38 40 49 ,1 3 8 11 16 24 31 34 38 40 49 
1 8 11 16 24 31 34 38 40 49 ,1 3 8 11 16 24 31 34 38 40 49 
1 8 11 16 24 31 34 38 40 49 ,1 8 11 16 24 31 34 38 40 49 
1 8 11 16 24 31 34 38 40 49 ,1 8 11 16 24 31 34 38 40 49 
1 8 11 16 24 31 34 38 49 ,1 8 11 16 24 31 34 38 40 49 
1 8 11 16 24 31 34 38 49 ,1 8 11 16 24 31 34 38 49 
1 8 11 16 24 31 34 49 ,1 8 11 16 24 31 34 38 49 
1 8 11 16 24 31 34 ,1 8 11 16 24 31 34 49 
1 8 11 16 24 31 34 ,1 8 11 16 24 31 34 
1 8 11 16 24 31 34 ,1 8 11 16 24 31 34 
1 8 11 16 24 31 34 ,1 8 11 16 24 31 34 
1 8 11 16 24 31 34 ,1 8 11 16 24 31 34 
1 8 11 16 24 31 34 ,1 8 11 16 24 31 34 
1 8 11 16 24 31 34 ,1 8 11 16 24 31 34 
1 8 11 16 24 31 34 ,1 8 11 16 24 31 34 
1 8 11 16 24 31 ,1 8 11 16 24 31 34 
1 8 11 16 24 31 ,1 8 11 16 24 31 
1 8 11 24 31 ,1 8 11 16 24 31 
1 11 24 31 ,1 8 11 24 31 
1 11 24 31 40 ,1 11 24 31 
1 11 24 31 40 ,1 11 24 31 40 
1 11 24 31 40 ,1 11 24 31 40 
1 11 24 31 40 ,1 11 24 31 40 
1 11 24 31 40 ,1 11 24 31 40 
1 11 24 31 40 ,1 11 24 31 40 
1 11 24 31 40 ,1 11 24 31 40 
1 11 24 31 40 ,1 11 24 31 40 
1 11 24 31 40 ,1 11 24 31 40 
1 11 24 31 40 ,1 11 24 31 40 
1 11 24 31 40 ,1 11 24 31 40 
1 11 24 31 40 ,1 11 24 31 40 
1 11 24 31 40 ,1 11 24 31 40 
1 11 24 31 40 ,1 11 24 31 40 
1 11 24 31 40 ,1 11 24 31 40 
1 11 24 31 40 ,1 11 24 31 40 
11 24 31 40 ,1 11 24 31 40 
11 24 40 ,11 24 31 40 
11 24 ,11 24 40 
11 24 ,11 24 
11 24 ,11 24 
11 24 ,11 24 
24 ,11 24 
24 ,24 
24 ,24 
24 ,24 
,24 
,
,
24 ,
,24 
,
,
,
,
,
,
-------------
-------
1(-1)->3 8 11 16 18 24 25 31 34 38 40 46 48 49 
3(-1)->1 8 11 16 18 22 24 25 31 34 37 38 40 43 46 48 49 
7(-1)->9 42 
8(-1)->1 3 11 16 18 19 22 24 25 31 34 37 38 40 43 46 48 49 
9(-1)->7 24 42 
11(-1)->1 3 8 16 18 22 24 25 31 34 37 38 40 43 46 48 49 
14(-1)->18 22 25 28 34 38 43 48 
16(-1)->1 3 8 11 24 31 34 38 40 49 
18(-1)->1 3 8 11 14 19 22 24 25 34 37 38 40 43 46 48 49 
19(-1)->8 18 22 25 34 37 38 43 48 
21(-1)->
22(-1)->3 8 11 14 18 19 24 25 34 37 38 43 46 48 
24(-1)->1 3 8 9 11 16 18 22 25 31 34 37 38 40 42 43 46 48 49 
25(-1)->1 3 8 11 14 18 19 22 24 28 34 37 38 43 46 48 
28(-1)->14 25 42 
31(-1)->1 3 8 11 16 24 34 38 40 49 
34(-1)->1 3 8 11 14 16 18 19 22 24 25 31 37 38 40 43 46 48 49 
37(-1)->3 8 11 18 19 22 24 25 34 38 43 46 48 
38(-1)->1 3 8 11 14 16 18 19 22 24 25 31 34 37 40 43 46 48 49 
40(-1)->1 3 8 11 16 18 24 31 34 38 48 49 
42(-1)->7 9 24 28 
43(-1)->3 8 11 14 18 19 22 24 25 34 37 38 46 48 
46(-1)->1 3 8 11 18 22 24 25 34 37 38 43 48 
48(-1)->1 3 8 11 14 18 19 22 24 25 34 37 38 40 43 46 49 
49(-1)->1 3 8 11 16 18 24 31 34 38 40 48 
-------
Node 24 maps to position 0
Node 34 maps to position 1
Node 38 maps to position 2
Node 8 maps to position 3
Node 3 maps to position 4
Node 11 maps to position 5
Node 18 maps to position 6
Node 48 maps to position 7
Node 25 maps to position 8
Node 1 maps to position 9
Node 22 maps to position 10
Node 43 maps to position 11
Node 37 maps to position 12
Node 46 maps to position 13
Node 40 maps to position 14
Node 49 maps to position 15
Node 16 maps to position 16
Node 31 maps to position 17
Node 19 maps to position 18
Node 14 maps to position 19
Node 42 maps to position 20
Node 9 maps to position 21
Node 28 maps to position 22
Node 7 maps to position 23
Node 21 maps to position 24
24(-1)->1 3 8 9 11 16 18 22 25 31 34 37 38 40 42 43 46 48 49 
34(-1)->1 3 8 11 14 16 18 19 22 24 25 31 37 38 40 43 46 48 49 
38(-1)->1 3 8 11 14 16 18 19 22 24 25 31 34 37 40 43 46 48 49 
8(-1)->1 3 11 16 18 19 22 24 25 31 34 37 38 40 43 46 48 49 
3(-1)->1 8 11 16 18 22 24 25 31 34 37 38 40 43 46 48 49 
11(-1)->1 3 8 16 18 22 24 25 31 34 37 38 40 43 46 48 49 
18(-1)->1 3 8 11 14 19 22 24 25 34 37 38 40 43 46 48 49 
48(-1)->1 3 8 11 14 18 19 22 24 25 34 37 38 40 43 46 49 
25(-1)->1 3 8 11 14 18 19 22 24 28 34 37 38 43 46 48 
1(-1)->3 8 11 16 18 24 25 31 34 38 40 46 48 49 
22(-1)->3 8 11 14 18 19 24 25 34 37 38 43 46 48 
43(-1)->3 8 11 14 18 19 22 24 25 34 37 38 46 48 
37(-1)->3 8 11 18 19 22 24 25 34 38 43 46 48 
46(-1)->1 3 8 11 18 22 24 25 34 37 38 43 48 
40(-1)->1 3 8 11 16 18 24 31 34 38 48 49 
49(-1)->1 3 8 11 16 18 24 31 34 38 40 48 
16(-1)->1 3 8 11 24 31 34 38 40 49 
31(-1)->1 3 8 11 16 24 34 38 40 49 
19(-1)->8 18 22 25 34 37 38 43 48 
14(-1)->18 22 25 28 34 38 43 48 
42(-1)->7 9 24 28 
9(-1)->7 24 42 
28(-1)->14 25 42 
7(-1)->9 42 
21(-1)->
-------
BLAH
START TIME: 1433732222
Cq = 12 and is assigned to x13
BACKTRACKED TO DEPTH: 12
0 1 2 3 4 5 6 7 8 9 10 11 
1(9)->3 8 11 16 18 24 25 31 34 38 40 46 48 49 
3(4)->1 8 11 16 18 22 24 25 31 34 37 38 40 43 46 48 49 
7(0)->9 42 
8(3)->1 3 11 16 18 19 22 24 25 31 34 37 38 40 43 46 48 49 
9(2)->7 24 42 
11(5)->1 3 8 16 18 22 24 25 31 34 37 38 40 43 46 48 49 
14(0)->18 22 25 28 34 38 43 48 
16(6)->1 3 8 11 24 31 34 38 40 49 
18(6)->1 3 8 11 14 19 22 24 25 34 37 38 40 43 46 48 49 
19(0)->8 18 22 25 34 37 38 43 48 
21(0)->
22(9)->3 8 11 14 18 19 24 25 34 37 38 43 46 48 
24(0)->1 3 8 9 11 16 18 22 25 31 34 37 38 40 42 43 46 48 49 
25(8)->1 3 8 11 14 18 19 22 24 28 34 37 38 43 46 48 
28(2)->14 25 42 
31(7)->1 3 8 11 16 24 34 38 40 49 
34(1)->1 3 8 11 14 16 18 19 22 24 25 31 37 38 40 43 46 48 49 
37(11)->3 8 11 18 19 22 24 25 34 38 43 46 48 
38(2)->1 3 8 11 14 16 18 19 22 24 25 31 34 37 40 43 46 48 49 
40(8)->1 3 8 11 16 18 24 31 34 38 48 49 
42(1)->7 9 24 28 
43(10)->3 8 11 14 18 19 22 24 25 34 37 38 46 48 
46(12)->1 3 8 11 18 22 24 25 34 37 38 43 48 
48(7)->1 3 8 11 14 18 19 22 24 25 34 37 38 40 43 46 49 
49(10)->1 3 8 11 16 18 24 31 34 38 40 48 
COUNT: 30
COLORS: 13
EDGES: 0
13
30
