-1=-1,-1,-1
29=-1,-1,-1
41=-1,-1,-1
-1=-1,-1,-1
-1=-1,-1,-1
27=29,41,-1
13=27,-1,-1
-1=-1,-1,-1
-1=-1,-1,-1
44=-1,-1,-1
-1=-1,-1,-1
15=-1,-1,-1
-1=-1,-1,-1
35=-1,-1,-1
-1=-1,-1,-1
39=-1,-1,-1
-1=-1,-1,-1
-1=39,-1,-1
-1=-1,-1,-1
1=-1,-1,-1
48=-1,-1,-1
19=-1,-1,-1
-1=-1,-1,-1
28=-1,-1,-1
4=-1,-1,-1
-1=-1,-1,-1
-1=-1,-1,-1
12=-1,-1,-1
2=-1,-1,-1
41=-1,-1,-1
-1=-1,-1,-1
-1=-1,-1,-1
-1=2,-1,-1
29=-1,-1,-1
31=-1,-1,-1
39=-1,-1,-1
9=12,-1,-1
-1=-1,-1,-1
-1=-1,-1,-1
21=9,-1,-1
14=44,-1,-1
-1=-1,-1,-1
6=-1,-1,-1
9=1,21,-1
-1=-1,-1,-1
-1=-1,-1,-1
-1=14,-1,-1
18=-1,-1,-1
1=-1,-1,-1
-1=-1,-1,-1
16=19,-1,-1
23=-1,-1,-1
-1=16,-1,-1
44=-1,-1,-1
-1=-1,-1,-1
27=9,23,-1
-1=27,-1,-1
-1=1,13,-1
-1=-1,-1,-1
25=-1,-1,-1
21=-1,-1,-1
30=-1,-1,-1
-1=18,35,-1
9=-1,-1,-1
49=-1,-1,-1
2=41,-1,-1
27=-1,-1,-1
5=-1,-1,-1
23=-1,-1,-1
-1=23,-1,-1
23=27,-1,-1
26=-1,-1,-1
37=-1,-1,-1
-1=31,-1,-1
-1=29,-1,-1
33=9,26,-1
-1=5,-1,-1
12=-1,-1,-1
-1=-1,-1,-1
-1=-1,-1,-1
-1=21,23,30
-1=-1,-1,-1
-1=-1,-1,-1
41=-1,-1,-1
-1=-1,-1,-1
43=-1,-1,-1
-1=-1,-1,-1
-1=-1,-1,-1
46=15,-1,-1
-1=37,-1,-1
-1=6,-1,-1
-1=-1,-1,-1
34=-1,-1,-1
30=34,-1,-1
-1=-1,-1,-1
18=-1,-1,-1
10=33,-1,-1
5=-1,-1,-1
-1=25,-1,-1
-1=-1,-1,-1
38=-1,-1,-1
-1=-1,-1,-1
-1=4,-1,-1
34=-1,-1,-1
-1=-1,-1,-1
19=49,-1,-1
-1=-1,-1,-1
-1=-1,-1,-1
31=38,-1,-1
-1=-1,-1,-1
-1=43,-1,-1
-1=31,-1,-1
22=44,-1,-1
3=-1,-1,-1
23=2,-1,-1
-1=-1,-1,-1
-1=23,39,-1
35=10,48,-1
-1=-1,-1,-1
-1=-1,-1,-1
23=-1,-1,-1
37=23,-1,-1
23=-1,-1,-1
24=-1,-1,-1
-1=3,37,-1
-1=-1,-1,-1
-1=-1,-1,-1
40=-1,-1,-1
-1=46,-1,-1
-1=-1,-1,-1
-1=5,12,41
43=40,-1,-1
-1=-1,-1,-1
17=-1,-1,-1
38=34,-1,-1
-1=38,-1,-1
10=28,-1,-1
5=-1,-1,-1
-1=-1,-1,-1
-1=24,-1,-1
38=-1,-1,-1
-1=-1,-1,-1
29=-1,-1,-1
49=29,-1,-1
-1=-1,-1,-1
11=23,-1,-1
-1=-1,-1,-1
-1=35,-1,-1
-1=22,-1,-1
-1=49,-1,-1
-1=10,30,-1
-1=19,-1,-1
3=-1,-1,-1
-1=43,-1,-1
29=-1,-1,-1
-1=-1,-1,-1
31=-1,-1,-1
8=-1,-1,-1
-1=-1,-1,-1
-1=-1,-1,-1
-1=3,8,-1
47=17,-1,-1
-1=38,-1,-1
20=-1,-1,-1
-1=29,31,-1
8=-1,-1,-1
-1=8,-1,-1
-1=20,-1,-1
-1=-1,-1,-1
-1=-1,-1,-1
-1=-1,-1,-1
42=-1,-1,-1
-1=11,-1,-1
28=5,-1,-1
10=47,-1,-1
8=-1,-1,-1
-1=10,-1,-1
32=8,-1,-1
-1=18,-1,-1
-1=-1,-1,-1
-1=-1,-1,-1
19=-1,-1,-1
3=-1,-1,-1
48=32,42,-1
9=-1,-1,-1
-1=-1,-1,-1
10=9,28,-1
-1=-1,-1,-1
30=3,-1,-1
18=10,48,-1
9=19,-1,-1
38=-1,-1,-1
39=9,38,-1
-1=18,30,39
44=-1,-1,-1
-1=-1,-1,-1
26=44,-1,-1
-1=26,-1,-1
5=-1,-1,-1
-1=5,-1,-1
--------
5 ,
,5 
26 ,
44 ,26 
44 ,44 
,44 
18 30 39 ,
9 18 30 38 ,18 30 39 
9 18 30 ,9 18 30 38 
18 19 30 ,9 18 30 
10 19 30 48 ,18 19 30 
3 10 19 48 ,10 19 30 48 
3 10 19 48 ,3 10 19 48 
3 9 19 28 48 ,3 10 19 48 
3 9 19 28 48 ,3 9 19 28 48 
3 19 28 48 ,3 9 19 28 48 
3 19 28 32 42 ,3 19 28 48 
19 28 32 42 ,3 19 28 32 42 
28 32 42 ,19 28 32 42 
28 32 42 ,28 32 42 
28 32 42 ,28 32 42 
18 28 32 42 ,28 32 42 
8 18 28 42 ,18 28 32 42 
8 10 18 28 42 ,8 18 28 42 
10 18 28 42 ,8 10 18 28 42 
18 28 42 47 ,10 18 28 42 
5 18 42 47 ,18 28 42 47 
5 11 18 42 47 ,5 18 42 47 
5 11 18 47 ,5 11 18 42 47 
5 11 18 47 ,5 11 18 47 
5 11 18 47 ,5 11 18 47 
5 11 18 47 ,5 11 18 47 
5 11 18 20 47 ,5 11 18 47 
5 8 11 18 20 47 ,5 11 18 20 47 
5 11 18 20 47 ,5 8 11 18 20 47 
5 11 18 20 29 31 47 ,5 11 18 20 47 
5 11 18 29 31 47 ,5 11 18 20 29 31 47 
5 11 18 29 31 38 47 ,5 11 18 29 31 47 
5 11 17 18 29 31 38 ,5 11 18 29 31 38 47 
3 5 8 11 17 18 29 31 38 ,5 11 17 18 29 31 38 
3 5 8 11 17 18 29 31 38 ,3 5 8 11 17 18 29 31 38 
3 5 8 11 17 18 29 31 38 ,3 5 8 11 17 18 29 31 38 
3 5 11 17 18 29 31 38 ,3 5 8 11 17 18 29 31 38 
3 5 11 17 18 29 38 ,3 5 11 17 18 29 31 38 
3 5 11 17 18 29 38 ,3 5 11 17 18 29 38 
3 5 11 17 18 38 ,3 5 11 17 18 29 38 
3 5 11 17 18 38 43 ,3 5 11 17 18 38 
5 11 17 18 38 43 ,3 5 11 17 18 38 43 
5 11 17 18 19 38 43 ,5 11 17 18 38 43 
5 10 11 17 18 19 30 38 43 ,5 11 17 18 19 38 43 
5 10 11 17 18 19 30 38 43 49 ,5 10 11 17 18 19 30 38 43 
5 10 11 17 18 19 22 30 38 43 49 ,5 10 11 17 18 19 30 38 43 49 
5 10 11 17 18 19 22 30 35 38 43 49 ,5 10 11 17 18 19 22 30 38 43 49 
5 10 11 17 18 19 22 30 35 38 43 49 ,5 10 11 17 18 19 22 30 35 38 43 49 
5 10 17 18 19 22 23 30 35 38 43 49 ,5 10 11 17 18 19 22 30 35 38 43 49 
5 10 17 18 19 22 23 30 35 38 43 49 ,5 10 17 18 19 22 23 30 35 38 43 49 
5 10 17 18 19 22 23 29 30 35 38 43 ,5 10 17 18 19 22 23 30 35 38 43 49 
5 10 17 18 19 22 23 30 35 38 43 ,5 10 17 18 19 22 23 29 30 35 38 43 
5 10 17 18 19 22 23 30 35 38 43 ,5 10 17 18 19 22 23 30 35 38 43 
5 10 17 18 19 22 23 30 35 43 ,5 10 17 18 19 22 23 30 35 38 43 
5 10 17 18 19 22 23 24 30 35 43 ,5 10 17 18 19 22 23 30 35 43 
5 10 17 18 19 22 23 24 30 35 43 ,5 10 17 18 19 22 23 24 30 35 43 
10 17 18 19 22 23 24 30 35 43 ,5 10 17 18 19 22 23 24 30 35 43 
17 18 19 22 23 24 28 30 35 43 ,10 17 18 19 22 23 24 30 35 43 
17 18 19 22 23 24 28 30 35 38 43 ,17 18 19 22 23 24 28 30 35 43 
17 18 19 22 23 24 28 30 34 35 43 ,17 18 19 22 23 24 28 30 35 38 43 
18 19 22 23 24 28 30 34 35 43 ,17 18 19 22 23 24 28 30 34 35 43 
18 19 22 23 24 28 30 34 35 43 ,18 19 22 23 24 28 30 34 35 43 
18 19 22 23 24 28 30 34 35 40 ,18 19 22 23 24 28 30 34 35 43 
5 12 18 19 22 23 24 28 30 34 35 40 41 ,18 19 22 23 24 28 30 34 35 40 
5 12 18 19 22 23 24 28 30 34 35 40 41 ,5 12 18 19 22 23 24 28 30 34 35 40 41 
5 12 18 19 22 23 24 28 30 34 35 40 41 46 ,5 12 18 19 22 23 24 28 30 34 35 40 41 
5 12 18 19 22 23 24 28 30 34 35 41 46 ,5 12 18 19 22 23 24 28 30 34 35 40 41 46 
5 12 18 19 22 23 24 28 30 34 35 41 46 ,5 12 18 19 22 23 24 28 30 34 35 41 46 
5 12 18 19 22 23 24 28 30 34 35 41 46 ,5 12 18 19 22 23 24 28 30 34 35 41 46 
3 5 12 18 19 22 23 24 28 30 34 35 37 41 46 ,5 12 18 19 22 23 24 28 30 34 35 41 46 
3 5 12 18 19 22 23 28 30 34 35 37 41 46 ,3 5 12 18 19 22 23 24 28 30 34 35 37 41 46 
3 5 12 18 19 22 28 30 34 35 37 41 46 ,3 5 12 18 19 22 23 28 30 34 35 37 41 46 
3 5 12 18 19 22 23 28 30 34 35 41 46 ,3 5 12 18 19 22 28 30 34 35 37 41 46 
3 5 12 18 19 22 28 30 34 35 41 46 ,3 5 12 18 19 22 23 28 30 34 35 41 46 
3 5 12 18 19 22 28 30 34 35 41 46 ,3 5 12 18 19 22 28 30 34 35 41 46 
3 5 12 18 19 22 28 30 34 35 41 46 ,3 5 12 18 19 22 28 30 34 35 41 46 
3 5 10 12 18 19 22 28 30 34 41 46 48 ,3 5 12 18 19 22 28 30 34 35 41 46 
3 5 10 12 18 19 22 23 28 30 34 39 41 46 48 ,3 5 10 12 18 19 22 28 30 34 41 46 48 
3 5 10 12 18 19 22 23 28 30 34 39 41 46 48 ,3 5 10 12 18 19 22 23 28 30 34 39 41 46 48 
2 3 5 10 12 18 19 22 28 30 34 39 41 46 48 ,3 5 10 12 18 19 22 23 28 30 34 39 41 46 48 
2 5 10 12 18 19 22 28 30 34 39 41 46 48 ,2 3 5 10 12 18 19 22 28 30 34 39 41 46 48 
2 5 10 12 18 19 28 30 34 39 41 44 46 48 ,2 5 10 12 18 19 22 28 30 34 39 41 46 48 
2 5 10 12 18 19 28 30 31 34 39 41 44 46 48 ,2 5 10 12 18 19 28 30 34 39 41 44 46 48 
2 5 10 12 18 19 28 30 31 34 39 41 43 44 46 48 ,2 5 10 12 18 19 28 30 31 34 39 41 44 46 48 
2 5 10 12 18 19 28 30 31 34 39 41 43 44 46 48 ,2 5 10 12 18 19 28 30 31 34 39 41 43 44 46 48 
2 5 10 12 18 19 28 30 34 38 39 41 43 44 46 48 ,2 5 10 12 18 19 28 30 31 34 39 41 43 44 46 48 
2 5 10 12 18 19 28 30 34 38 39 41 43 44 46 48 ,2 5 10 12 18 19 28 30 34 38 39 41 43 44 46 48 
2 5 10 12 18 19 28 30 34 38 39 41 43 44 46 48 ,2 5 10 12 18 19 28 30 34 38 39 41 43 44 46 48 
2 5 10 12 18 28 30 34 38 39 41 43 44 46 48 49 ,2 5 10 12 18 19 28 30 34 38 39 41 43 44 46 48 
2 5 10 12 18 28 30 34 38 39 41 43 44 46 48 49 ,2 5 10 12 18 28 30 34 38 39 41 43 44 46 48 49 
2 5 10 12 18 28 30 38 39 41 43 44 46 48 49 ,2 5 10 12 18 28 30 34 38 39 41 43 44 46 48 49 
2 4 5 10 12 18 28 30 38 39 41 43 44 46 48 49 ,2 5 10 12 18 28 30 38 39 41 43 44 46 48 49 
2 4 5 10 12 18 28 30 38 39 41 43 44 46 48 49 ,2 4 5 10 12 18 28 30 38 39 41 43 44 46 48 49 
2 4 5 10 12 18 28 30 39 41 43 44 46 48 49 ,2 4 5 10 12 18 28 30 38 39 41 43 44 46 48 49 
2 4 5 10 12 18 28 30 39 41 43 44 46 48 49 ,2 4 5 10 12 18 28 30 39 41 43 44 46 48 49 
2 4 5 10 12 18 25 28 30 39 41 43 44 46 48 49 ,2 4 5 10 12 18 28 30 39 41 43 44 46 48 49 
2 4 10 12 18 25 28 30 39 41 43 44 46 48 49 ,2 4 5 10 12 18 25 28 30 39 41 43 44 46 48 49 
2 4 12 18 25 28 30 33 39 41 43 44 46 48 49 ,2 4 10 12 18 25 28 30 39 41 43 44 46 48 49 
2 4 12 25 28 30 33 39 41 43 44 46 48 49 ,2 4 12 18 25 28 30 33 39 41 43 44 46 48 49 
2 4 12 25 28 30 33 39 41 43 44 46 48 49 ,2 4 12 25 28 30 33 39 41 43 44 46 48 49 
2 4 12 25 28 33 34 39 41 43 44 46 48 49 ,2 4 12 25 28 30 33 39 41 43 44 46 48 49 
2 4 12 25 28 33 39 41 43 44 46 48 49 ,2 4 12 25 28 33 34 39 41 43 44 46 48 49 
2 4 12 25 28 33 39 41 43 44 46 48 49 ,2 4 12 25 28 33 39 41 43 44 46 48 49 
2 4 6 12 25 28 33 39 41 43 44 46 48 49 ,2 4 12 25 28 33 39 41 43 44 46 48 49 
2 4 6 12 25 28 33 37 39 41 43 44 46 48 49 ,2 4 6 12 25 28 33 39 41 43 44 46 48 49 
2 4 6 12 15 25 28 33 37 39 41 43 44 48 49 ,2 4 6 12 25 28 33 37 39 41 43 44 46 48 49 
2 4 6 12 15 25 28 33 37 39 41 43 44 48 49 ,2 4 6 12 15 25 28 33 37 39 41 43 44 48 49 
2 4 6 12 15 25 28 33 37 39 41 43 44 48 49 ,2 4 6 12 15 25 28 33 37 39 41 43 44 48 49 
2 4 6 12 15 25 28 33 37 39 41 44 48 49 ,2 4 6 12 15 25 28 33 37 39 41 43 44 48 49 
2 4 6 12 15 25 28 33 37 39 41 44 48 49 ,2 4 6 12 15 25 28 33 37 39 41 44 48 49 
2 4 6 12 15 25 28 33 37 39 44 48 49 ,2 4 6 12 15 25 28 33 37 39 41 44 48 49 
2 4 6 12 15 25 28 33 37 39 44 48 49 ,2 4 6 12 15 25 28 33 37 39 44 48 49 
2 4 6 12 15 25 28 33 37 39 44 48 49 ,2 4 6 12 15 25 28 33 37 39 44 48 49 
2 4 6 12 15 21 23 25 28 30 33 37 39 44 48 49 ,2 4 6 12 15 25 28 33 37 39 44 48 49 
2 4 6 12 15 21 23 25 28 30 33 37 39 44 48 49 ,2 4 6 12 15 21 23 25 28 30 33 37 39 44 48 49 
2 4 6 12 15 21 23 25 28 30 33 37 39 44 48 49 ,2 4 6 12 15 21 23 25 28 30 33 37 39 44 48 49 
2 4 6 15 21 23 25 28 30 33 37 39 44 48 49 ,2 4 6 12 15 21 23 25 28 30 33 37 39 44 48 49 
2 4 5 6 15 21 23 25 28 30 33 37 39 44 48 49 ,2 4 6 15 21 23 25 28 30 33 37 39 44 48 49 
2 4 5 6 9 15 21 23 25 26 28 30 37 39 44 48 49 ,2 4 5 6 15 21 23 25 28 30 33 37 39 44 48 49 
2 4 5 6 9 15 21 23 25 26 28 29 30 37 39 44 48 49 ,2 4 5 6 9 15 21 23 25 26 28 30 37 39 44 48 49 
2 4 5 6 9 15 21 23 25 26 28 29 30 31 37 39 44 48 49 ,2 4 5 6 9 15 21 23 25 26 28 29 30 37 39 44 48 49 
2 4 5 6 9 15 21 23 25 26 28 29 30 31 39 44 48 49 ,2 4 5 6 9 15 21 23 25 26 28 29 30 31 37 39 44 48 49 
2 4 5 6 9 15 21 23 25 28 29 30 31 39 44 48 49 ,2 4 5 6 9 15 21 23 25 26 28 29 30 31 39 44 48 49 
2 4 5 6 9 15 21 25 27 28 29 30 31 39 44 48 49 ,2 4 5 6 9 15 21 23 25 28 29 30 31 39 44 48 49 
2 4 5 6 9 15 21 23 25 27 28 29 30 31 39 44 48 49 ,2 4 5 6 9 15 21 25 27 28 29 30 31 39 44 48 49 
2 4 5 6 9 15 21 25 27 28 29 30 31 39 44 48 49 ,2 4 5 6 9 15 21 23 25 27 28 29 30 31 39 44 48 49 
2 4 6 9 15 21 25 27 28 29 30 31 39 44 48 49 ,2 4 5 6 9 15 21 25 27 28 29 30 31 39 44 48 49 
2 4 6 9 15 21 25 28 29 30 31 39 44 48 49 ,2 4 6 9 15 21 25 27 28 29 30 31 39 44 48 49 
4 6 9 15 21 25 28 29 30 31 39 41 44 48 49 ,2 4 6 9 15 21 25 28 29 30 31 39 44 48 49 
4 6 9 15 21 25 28 29 30 31 39 41 44 48 ,4 6 9 15 21 25 28 29 30 31 39 41 44 48 49 
4 6 15 21 25 28 29 30 31 39 41 44 48 ,4 6 9 15 21 25 28 29 30 31 39 41 44 48 
4 6 15 18 21 25 28 29 30 31 35 39 41 44 48 ,4 6 15 21 25 28 29 30 31 39 41 44 48 
4 6 15 18 21 25 28 29 31 35 39 41 44 48 ,4 6 15 18 21 25 28 29 30 31 35 39 41 44 48 
4 6 15 18 25 28 29 31 35 39 41 44 48 ,4 6 15 18 21 25 28 29 31 35 39 41 44 48 
4 6 15 18 28 29 31 35 39 41 44 48 ,4 6 15 18 25 28 29 31 35 39 41 44 48 
4 6 15 18 28 29 31 35 39 41 44 48 ,4 6 15 18 28 29 31 35 39 41 44 48 
1 4 6 13 15 18 28 29 31 35 39 41 44 48 ,4 6 15 18 28 29 31 35 39 41 44 48 
1 4 6 13 15 18 27 28 29 31 35 39 41 44 48 ,1 4 6 13 15 18 28 29 31 35 39 41 44 48 
1 4 6 9 13 15 18 23 28 29 31 35 39 41 44 48 ,1 4 6 13 15 18 27 28 29 31 35 39 41 44 48 
1 4 6 9 13 15 18 23 28 29 31 35 39 41 44 48 ,1 4 6 9 13 15 18 23 28 29 31 35 39 41 44 48 
1 4 6 9 13 15 18 23 28 29 31 35 39 41 48 ,1 4 6 9 13 15 18 23 28 29 31 35 39 41 44 48 
1 4 6 9 13 15 16 18 23 28 29 31 35 39 41 48 ,1 4 6 9 13 15 18 23 28 29 31 35 39 41 48 
1 4 6 9 13 15 16 18 28 29 31 35 39 41 48 ,1 4 6 9 13 15 16 18 23 28 29 31 35 39 41 48 
1 4 6 9 13 15 18 19 28 29 31 35 39 41 48 ,1 4 6 9 13 15 16 18 28 29 31 35 39 41 48 
1 4 6 9 13 15 18 19 28 29 31 35 39 41 48 ,1 4 6 9 13 15 18 19 28 29 31 35 39 41 48 
4 6 9 13 15 18 19 28 29 31 35 39 41 48 ,1 4 6 9 13 15 18 19 28 29 31 35 39 41 48 
4 6 9 13 15 19 28 29 31 35 39 41 48 ,4 6 9 13 15 18 19 28 29 31 35 39 41 48 
4 6 9 13 14 15 19 28 29 31 35 39 41 48 ,4 6 9 13 15 19 28 29 31 35 39 41 48 
4 6 9 13 14 15 19 28 29 31 35 39 41 48 ,4 6 9 13 14 15 19 28 29 31 35 39 41 48 
4 6 9 13 14 15 19 28 29 31 35 39 41 48 ,4 6 9 13 14 15 19 28 29 31 35 39 41 48 
1 4 6 13 14 15 19 21 28 29 31 35 39 41 48 ,4 6 9 13 14 15 19 28 29 31 35 39 41 48 
1 4 13 14 15 19 21 28 29 31 35 39 41 48 ,1 4 6 13 14 15 19 21 28 29 31 35 39 41 48 
1 4 13 14 15 19 21 28 29 31 35 39 41 48 ,1 4 13 14 15 19 21 28 29 31 35 39 41 48 
1 4 13 15 19 21 28 29 31 35 39 41 44 48 ,1 4 13 14 15 19 21 28 29 31 35 39 41 48 
1 4 9 13 15 19 28 29 31 35 39 41 44 48 ,1 4 13 15 19 21 28 29 31 35 39 41 44 48 
1 4 9 13 15 19 28 29 31 35 39 41 44 48 ,1 4 9 13 15 19 28 29 31 35 39 41 44 48 
1 4 9 13 15 19 28 29 31 35 39 41 44 48 ,1 4 9 13 15 19 28 29 31 35 39 41 44 48 
1 4 12 13 15 19 28 29 31 35 39 41 44 48 ,1 4 9 13 15 19 28 29 31 35 39 41 44 48 
1 4 12 13 15 19 28 29 31 35 41 44 48 ,1 4 12 13 15 19 28 29 31 35 39 41 44 48 
1 4 12 13 15 19 28 29 35 41 44 48 ,1 4 12 13 15 19 28 29 31 35 41 44 48 
1 4 12 13 15 19 28 35 41 44 48 ,1 4 12 13 15 19 28 29 35 41 44 48 
1 2 4 12 13 15 19 28 35 41 44 48 ,1 4 12 13 15 19 28 35 41 44 48 
1 2 4 12 13 15 19 28 35 41 44 48 ,1 2 4 12 13 15 19 28 35 41 44 48 
1 2 4 12 13 15 19 28 35 41 44 48 ,1 2 4 12 13 15 19 28 35 41 44 48 
1 2 4 12 13 15 19 28 35 44 48 ,1 2 4 12 13 15 19 28 35 41 44 48 
1 4 12 13 15 19 28 35 44 48 ,1 2 4 12 13 15 19 28 35 44 48 
1 4 13 15 19 28 35 44 48 ,1 4 12 13 15 19 28 35 44 48 
1 4 13 15 19 28 35 44 48 ,1 4 13 15 19 28 35 44 48 
1 4 13 15 19 28 35 44 48 ,1 4 13 15 19 28 35 44 48 
1 13 15 19 28 35 44 48 ,1 4 13 15 19 28 35 44 48 
1 13 15 19 35 44 48 ,1 13 15 19 28 35 44 48 
1 13 15 19 35 44 48 ,1 13 15 19 35 44 48 
1 13 15 35 44 48 ,1 13 15 19 35 44 48 
1 13 15 35 44 ,1 13 15 35 44 48 
13 15 35 44 ,1 13 15 35 44 
13 15 35 44 ,13 15 35 44 
13 15 35 39 44 ,13 15 35 44 
13 15 35 39 44 ,13 15 35 39 44 
13 15 35 44 ,13 15 35 39 44 
13 15 35 44 ,13 15 35 44 
13 15 44 ,13 15 35 44 
13 15 44 ,13 15 44 
13 44 ,13 15 44 
13 44 ,13 44 
13 ,13 44 
13 ,13 
13 ,13 
27 ,13 
29 41 ,27 
29 41 ,29 41 
29 41 ,29 41 
29 ,29 41 
,29 
,
--------
5 ,
,5 
26 ,
44 ,26 
44 ,44 
,44 
18 30 39 ,
9 18 30 38 ,18 30 39 
9 18 30 ,9 18 30 38 
18 19 30 ,9 18 30 
10 19 30 48 ,18 19 30 
3 10 19 48 ,10 19 30 48 
3 10 19 48 ,3 10 19 48 
3 9 19 28 48 ,3 10 19 48 
3 9 19 28 48 ,3 9 19 28 48 
3 19 28 48 ,3 9 19 28 48 
3 19 28 32 42 ,3 19 28 48 
19 28 32 42 ,3 19 28 32 42 
28 32 42 ,19 28 32 42 
28 32 42 ,28 32 42 
28 32 42 ,28 32 42 
18 28 32 42 ,28 32 42 
8 18 28 42 ,18 28 32 42 
8 10 18 28 42 ,8 18 28 42 
10 18 28 42 ,8 10 18 28 42 
18 28 42 47 ,10 18 28 42 
5 18 42 47 ,18 28 42 47 
5 11 18 42 47 ,5 18 42 47 
5 11 18 47 ,5 11 18 42 47 
5 11 18 47 ,5 11 18 47 
5 11 18 47 ,5 11 18 47 
5 11 18 47 ,5 11 18 47 
5 11 18 20 47 ,5 11 18 47 
5 8 11 18 20 47 ,5 11 18 20 47 
5 11 18 20 47 ,5 8 11 18 20 47 
5 11 18 20 29 31 47 ,5 11 18 20 47 
5 11 18 29 31 47 ,5 11 18 20 29 31 47 
5 11 18 29 31 38 47 ,5 11 18 29 31 47 
5 11 17 18 29 31 38 ,5 11 18 29 31 38 47 
3 5 8 11 17 18 29 31 38 ,5 11 17 18 29 31 38 
3 5 8 11 17 18 29 31 38 ,3 5 8 11 17 18 29 31 38 
3 5 8 11 17 18 29 31 38 ,3 5 8 11 17 18 29 31 38 
3 5 11 17 18 29 31 38 ,3 5 8 11 17 18 29 31 38 
3 5 11 17 18 29 38 ,3 5 11 17 18 29 31 38 
3 5 11 17 18 29 38 ,3 5 11 17 18 29 38 
3 5 11 17 18 38 ,3 5 11 17 18 29 38 
3 5 11 17 18 38 43 ,3 5 11 17 18 38 
5 11 17 18 38 43 ,3 5 11 17 18 38 43 
5 11 17 18 19 38 43 ,5 11 17 18 38 43 
5 10 11 17 18 19 30 38 43 ,5 11 17 18 19 38 43 
5 10 11 17 18 19 30 38 43 49 ,5 10 11 17 18 19 30 38 43 
5 10 11 17 18 19 22 30 38 43 49 ,5 10 11 17 18 19 30 38 43 49 
5 10 11 17 18 19 22 30 35 38 43 49 ,5 10 11 17 18 19 22 30 38 43 49 
5 10 11 17 18 19 22 30 35 38 43 49 ,5 10 11 17 18 19 22 30 35 38 43 49 
5 10 17 18 19 22 23 30 35 38 43 49 ,5 10 11 17 18 19 22 30 35 38 43 49 
5 10 17 18 19 22 23 30 35 38 43 49 ,5 10 17 18 19 22 23 30 35 38 43 49 
5 10 17 18 19 22 23 29 30 35 38 43 ,5 10 17 18 19 22 23 30 35 38 43 49 
5 10 17 18 19 22 23 30 35 38 43 ,5 10 17 18 19 22 23 29 30 35 38 43 
5 10 17 18 19 22 23 30 35 38 43 ,5 10 17 18 19 22 23 30 35 38 43 
5 10 17 18 19 22 23 30 35 43 ,5 10 17 18 19 22 23 30 35 38 43 
5 10 17 18 19 22 23 24 30 35 43 ,5 10 17 18 19 22 23 30 35 43 
5 10 17 18 19 22 23 24 30 35 43 ,5 10 17 18 19 22 23 24 30 35 43 
10 17 18 19 22 23 24 30 35 43 ,5 10 17 18 19 22 23 24 30 35 43 
17 18 19 22 23 24 28 30 35 43 ,10 17 18 19 22 23 24 30 35 43 
17 18 19 22 23 24 28 30 35 38 43 ,17 18 19 22 23 24 28 30 35 43 
17 18 19 22 23 24 28 30 34 35 43 ,17 18 19 22 23 24 28 30 35 38 43 
18 19 22 23 24 28 30 34 35 43 ,17 18 19 22 23 24 28 30 34 35 43 
18 19 22 23 24 28 30 34 35 43 ,18 19 22 23 24 28 30 34 35 43 
18 19 22 23 24 28 30 34 35 40 ,18 19 22 23 24 28 30 34 35 43 
5 12 18 19 22 23 24 28 30 34 35 40 41 ,18 19 22 23 24 28 30 34 35 40 
5 12 18 19 22 23 24 28 30 34 35 40 41 ,5 12 18 19 22 23 24 28 30 34 35 40 41 
5 12 18 19 22 23 24 28 30 34 35 40 41 46 ,5 12 18 19 22 23 24 28 30 34 35 40 41 
5 12 18 19 22 23 24 28 30 34 35 41 46 ,5 12 18 19 22 23 24 28 30 34 35 40 41 46 
5 12 18 19 22 23 24 28 30 34 35 41 46 ,5 12 18 19 22 23 24 28 30 34 35 41 46 
5 12 18 19 22 23 24 28 30 34 35 41 46 ,5 12 18 19 22 23 24 28 30 34 35 41 46 
3 5 12 18 19 22 23 24 28 30 34 35 37 41 46 ,5 12 18 19 22 23 24 28 30 34 35 41 46 
3 5 12 18 19 22 23 28 30 34 35 37 41 46 ,3 5 12 18 19 22 23 24 28 30 34 35 37 41 46 
3 5 12 18 19 22 28 30 34 35 37 41 46 ,3 5 12 18 19 22 23 28 30 34 35 37 41 46 
3 5 12 18 19 22 23 28 30 34 35 41 46 ,3 5 12 18 19 22 28 30 34 35 37 41 46 
3 5 12 18 19 22 28 30 34 35 41 46 ,3 5 12 18 19 22 23 28 30 34 35 41 46 
3 5 12 18 19 22 28 30 34 35 41 46 ,3 5 12 18 19 22 28 30 34 35 41 46 
3 5 12 18 19 22 28 30 34 35 41 46 ,3 5 12 18 19 22 28 30 34 35 41 46 
3 5 10 12 18 19 22 28 30 34 41 46 48 ,3 5 12 18 19 22 28 30 34 35 41 46 
3 5 10 12 18 19 22 23 28 30 34 39 41 46 48 ,3 5 10 12 18 19 22 28 30 34 41 46 48 
3 5 10 12 18 19 22 23 28 30 34 39 41 46 48 ,3 5 10 12 18 19 22 23 28 30 34 39 41 46 48 
2 3 5 10 12 18 19 22 28 30 34 39 41 46 48 ,3 5 10 12 18 19 22 23 28 30 34 39 41 46 48 
2 5 10 12 18 19 22 28 30 34 39 41 46 48 ,2 3 5 10 12 18 19 22 28 30 34 39 41 46 48 
2 5 10 12 18 19 28 30 34 39 41 44 46 48 ,2 5 10 12 18 19 22 28 30 34 39 41 46 48 
2 5 10 12 18 19 28 30 31 34 39 41 44 46 48 ,2 5 10 12 18 19 28 30 34 39 41 44 46 48 
2 5 10 12 18 19 28 30 31 34 39 41 43 44 46 48 ,2 5 10 12 18 19 28 30 31 34 39 41 44 46 48 
2 5 10 12 18 19 28 30 31 34 39 41 43 44 46 48 ,2 5 10 12 18 19 28 30 31 34 39 41 43 44 46 48 
2 5 10 12 18 19 28 30 34 38 39 41 43 44 46 48 ,2 5 10 12 18 19 28 30 31 34 39 41 43 44 46 48 
2 5 10 12 18 19 28 30 34 38 39 41 43 44 46 48 ,2 5 10 12 18 19 28 30 34 38 39 41 43 44 46 48 
2 5 10 12 18 19 28 30 34 38 39 41 43 44 46 48 ,2 5 10 12 18 19 28 30 34 38 39 41 43 44 46 48 
2 5 10 12 18 28 30 34 38 39 41 43 44 46 48 49 ,2 5 10 12 18 19 28 30 34 38 39 41 43 44 46 48 
2 5 10 12 18 28 30 34 38 39 41 43 44 46 48 49 ,2 5 10 12 18 28 30 34 38 39 41 43 44 46 48 49 
2 5 10 12 18 28 30 38 39 41 43 44 46 48 49 ,2 5 10 12 18 28 30 34 38 39 41 43 44 46 48 49 
2 4 5 10 12 18 28 30 38 39 41 43 44 46 48 49 ,2 5 10 12 18 28 30 38 39 41 43 44 46 48 49 
2 4 5 10 12 18 28 30 38 39 41 43 44 46 48 49 ,2 4 5 10 12 18 28 30 38 39 41 43 44 46 48 49 
2 4 5 10 12 18 28 30 39 41 43 44 46 48 49 ,2 4 5 10 12 18 28 30 38 39 41 43 44 46 48 49 
2 4 5 10 12 18 28 30 39 41 43 44 46 48 49 ,2 4 5 10 12 18 28 30 39 41 43 44 46 48 49 
2 4 5 10 12 18 25 28 30 39 41 43 44 46 48 49 ,2 4 5 10 12 18 28 30 39 41 43 44 46 48 49 
2 4 10 12 18 25 28 30 39 41 43 44 46 48 49 ,2 4 5 10 12 18 25 28 30 39 41 43 44 46 48 49 
2 4 12 18 25 28 30 33 39 41 43 44 46 48 49 ,2 4 10 12 18 25 28 30 39 41 43 44 46 48 49 
2 4 12 25 28 30 33 39 41 43 44 46 48 49 ,2 4 12 18 25 28 30 33 39 41 43 44 46 48 49 
2 4 12 25 28 30 33 39 41 43 44 46 48 49 ,2 4 12 25 28 30 33 39 41 43 44 46 48 49 
2 4 12 25 28 33 34 39 41 43 44 46 48 49 ,2 4 12 25 28 30 33 39 41 43 44 46 48 49 
2 4 12 25 28 33 39 41 43 44 46 48 49 ,2 4 12 25 28 33 34 39 41 43 44 46 48 49 
2 4 12 25 28 33 39 41 43 44 46 48 49 ,2 4 12 25 28 33 39 41 43 44 46 48 49 
2 4 6 12 25 28 33 39 41 43 44 46 48 49 ,2 4 12 25 28 33 39 41 43 44 46 48 49 
2 4 6 12 25 28 33 37 39 41 43 44 46 48 49 ,2 4 6 12 25 28 33 39 41 43 44 46 48 49 
2 4 6 12 15 25 28 33 37 39 41 43 44 48 49 ,2 4 6 12 25 28 33 37 39 41 43 44 46 48 49 
2 4 6 12 15 25 28 33 37 39 41 43 44 48 49 ,2 4 6 12 15 25 28 33 37 39 41 43 44 48 49 
2 4 6 12 15 25 28 33 37 39 41 43 44 48 49 ,2 4 6 12 15 25 28 33 37 39 41 43 44 48 49 
2 4 6 12 15 25 28 33 37 39 41 44 48 49 ,2 4 6 12 15 25 28 33 37 39 41 43 44 48 49 
2 4 6 12 15 25 28 33 37 39 41 44 48 49 ,2 4 6 12 15 25 28 33 37 39 41 44 48 49 
2 4 6 12 15 25 28 33 37 39 44 48 49 ,2 4 6 12 15 25 28 33 37 39 41 44 48 49 
2 4 6 12 15 25 28 33 37 39 44 48 49 ,2 4 6 12 15 25 28 33 37 39 44 48 49 
2 4 6 12 15 25 28 33 37 39 44 48 49 ,2 4 6 12 15 25 28 33 37 39 44 48 49 
2 4 6 12 15 21 23 25 28 30 33 37 39 44 48 49 ,2 4 6 12 15 25 28 33 37 39 44 48 49 
2 4 6 12 15 21 23 25 28 30 33 37 39 44 48 49 ,2 4 6 12 15 21 23 25 28 30 33 37 39 44 48 49 
2 4 6 12 15 21 23 25 28 30 33 37 39 44 48 49 ,2 4 6 12 15 21 23 25 28 30 33 37 39 44 48 49 
2 4 6 15 21 23 25 28 30 33 37 39 44 48 49 ,2 4 6 12 15 21 23 25 28 30 33 37 39 44 48 49 
2 4 5 6 15 21 23 25 28 30 33 37 39 44 48 49 ,2 4 6 15 21 23 25 28 30 33 37 39 44 48 49 
2 4 5 6 9 15 21 23 25 26 28 30 37 39 44 48 49 ,2 4 5 6 15 21 23 25 28 30 33 37 39 44 48 49 
2 4 5 6 9 15 21 23 25 26 28 29 30 37 39 44 48 49 ,2 4 5 6 9 15 21 23 25 26 28 30 37 39 44 48 49 
2 4 5 6 9 15 21 23 25 26 28 29 30 31 37 39 44 48 49 ,2 4 5 6 9 15 21 23 25 26 28 29 30 37 39 44 48 49 
2 4 5 6 9 15 21 23 25 26 28 29 30 31 39 44 48 49 ,2 4 5 6 9 15 21 23 25 26 28 29 30 31 37 39 44 48 49 
2 4 5 6 9 15 21 23 25 28 29 30 31 39 44 48 49 ,2 4 5 6 9 15 21 23 25 26 28 29 30 31 39 44 48 49 
2 4 5 6 9 15 21 25 27 28 29 30 31 39 44 48 49 ,2 4 5 6 9 15 21 23 25 28 29 30 31 39 44 48 49 
2 4 5 6 9 15 21 23 25 27 28 29 30 31 39 44 48 49 ,2 4 5 6 9 15 21 25 27 28 29 30 31 39 44 48 49 
2 4 5 6 9 15 21 25 27 28 29 30 31 39 44 48 49 ,2 4 5 6 9 15 21 23 25 27 28 29 30 31 39 44 48 49 
2 4 6 9 15 21 25 27 28 29 30 31 39 44 48 49 ,2 4 5 6 9 15 21 25 27 28 29 30 31 39 44 48 49 
2 4 6 9 15 21 25 28 29 30 31 39 44 48 49 ,2 4 6 9 15 21 25 27 28 29 30 31 39 44 48 49 
4 6 9 15 21 25 28 29 30 31 39 41 44 48 49 ,2 4 6 9 15 21 25 28 29 30 31 39 44 48 49 
4 6 9 15 21 25 28 29 30 31 39 41 44 48 ,4 6 9 15 21 25 28 29 30 31 39 41 44 48 49 
4 6 15 21 25 28 29 30 31 39 41 44 48 ,4 6 9 15 21 25 28 29 30 31 39 41 44 48 
4 6 15 18 21 25 28 29 30 31 35 39 41 44 48 ,4 6 15 21 25 28 29 30 31 39 41 44 48 
4 6 15 18 21 25 28 29 31 35 39 41 44 48 ,4 6 15 18 21 25 28 29 30 31 35 39 41 44 48 
4 6 15 18 25 28 29 31 35 39 41 44 48 ,4 6 15 18 21 25 28 29 31 35 39 41 44 48 
4 6 15 18 28 29 31 35 39 41 44 48 ,4 6 15 18 25 28 29 31 35 39 41 44 48 
4 6 15 18 28 29 31 35 39 41 44 48 ,4 6 15 18 28 29 31 35 39 41 44 48 
1 4 6 13 15 18 28 29 31 35 39 41 44 48 ,4 6 15 18 28 29 31 35 39 41 44 48 
1 4 6 13 15 18 27 28 29 31 35 39 41 44 48 ,1 4 6 13 15 18 28 29 31 35 39 41 44 48 
1 4 6 9 13 15 18 23 28 29 31 35 39 41 44 48 ,1 4 6 13 15 18 27 28 29 31 35 39 41 44 48 
1 4 6 9 13 15 18 23 28 29 31 35 39 41 44 48 ,1 4 6 9 13 15 18 23 28 29 31 35 39 41 44 48 
1 4 6 9 13 15 18 23 28 29 31 35 39 41 48 ,1 4 6 9 13 15 18 23 28 29 31 35 39 41 44 48 
1 4 6 9 13 15 16 18 23 28 29 31 35 39 41 48 ,1 4 6 9 13 15 18 23 28 29 31 35 39 41 48 
1 4 6 9 13 15 16 18 28 29 31 35 39 41 48 ,1 4 6 9 13 15 16 18 23 28 29 31 35 39 41 48 
1 4 6 9 13 15 18 19 28 29 31 35 39 41 48 ,1 4 6 9 13 15 16 18 28 29 31 35 39 41 48 
1 4 6 9 13 15 18 19 28 29 31 35 39 41 48 ,1 4 6 9 13 15 18 19 28 29 31 35 39 41 48 
4 6 9 13 15 18 19 28 29 31 35 39 41 48 ,1 4 6 9 13 15 18 19 28 29 31 35 39 41 48 
4 6 9 13 15 19 28 29 31 35 39 41 48 ,4 6 9 13 15 18 19 28 29 31 35 39 41 48 
4 6 9 13 14 15 19 28 29 31 35 39 41 48 ,4 6 9 13 15 19 28 29 31 35 39 41 48 
4 6 9 13 14 15 19 28 29 31 35 39 41 48 ,4 6 9 13 14 15 19 28 29 31 35 39 41 48 
4 6 9 13 14 15 19 28 29 31 35 39 41 48 ,4 6 9 13 14 15 19 28 29 31 35 39 41 48 
1 4 6 13 14 15 19 21 28 29 31 35 39 41 48 ,4 6 9 13 14 15 19 28 29 31 35 39 41 48 
1 4 13 14 15 19 21 28 29 31 35 39 41 48 ,1 4 6 13 14 15 19 21 28 29 31 35 39 41 48 
1 4 13 14 15 19 21 28 29 31 35 39 41 48 ,1 4 13 14 15 19 21 28 29 31 35 39 41 48 
1 4 13 15 19 21 28 29 31 35 39 41 44 48 ,1 4 13 14 15 19 21 28 29 31 35 39 41 48 
1 4 9 13 15 19 28 29 31 35 39 41 44 48 ,1 4 13 15 19 21 28 29 31 35 39 41 44 48 
1 4 9 13 15 19 28 29 31 35 39 41 44 48 ,1 4 9 13 15 19 28 29 31 35 39 41 44 48 
1 4 9 13 15 19 28 29 31 35 39 41 44 48 ,1 4 9 13 15 19 28 29 31 35 39 41 44 48 
1 4 12 13 15 19 28 29 31 35 39 41 44 48 ,1 4 9 13 15 19 28 29 31 35 39 41 44 48 
1 4 12 13 15 19 28 29 31 35 41 44 48 ,1 4 12 13 15 19 28 29 31 35 39 41 44 48 
1 4 12 13 15 19 28 29 35 41 44 48 ,1 4 12 13 15 19 28 29 31 35 41 44 48 
1 4 12 13 15 19 28 35 41 44 48 ,1 4 12 13 15 19 28 29 35 41 44 48 
1 2 4 12 13 15 19 28 35 41 44 48 ,1 4 12 13 15 19 28 35 41 44 48 
1 2 4 12 13 15 19 28 35 41 44 48 ,1 2 4 12 13 15 19 28 35 41 44 48 
1 2 4 12 13 15 19 28 35 41 44 48 ,1 2 4 12 13 15 19 28 35 41 44 48 
1 2 4 12 13 15 19 28 35 44 48 ,1 2 4 12 13 15 19 28 35 41 44 48 
1 4 12 13 15 19 28 35 44 48 ,1 2 4 12 13 15 19 28 35 44 48 
1 4 13 15 19 28 35 44 48 ,1 4 12 13 15 19 28 35 44 48 
1 4 13 15 19 28 35 44 48 ,1 4 13 15 19 28 35 44 48 
1 4 13 15 19 28 35 44 48 ,1 4 13 15 19 28 35 44 48 
1 13 15 19 28 35 44 48 ,1 4 13 15 19 28 35 44 48 
1 13 15 19 35 44 48 ,1 13 15 19 28 35 44 48 
1 13 15 19 35 44 48 ,1 13 15 19 35 44 48 
1 13 15 35 44 48 ,1 13 15 19 35 44 48 
1 13 15 35 44 ,1 13 15 35 44 48 
13 15 35 44 ,1 13 15 35 44 
13 15 35 44 ,13 15 35 44 
13 15 35 39 44 ,13 15 35 44 
13 15 35 39 44 ,13 15 35 39 44 
13 15 35 44 ,13 15 35 39 44 
13 15 35 44 ,13 15 35 44 
13 15 44 ,13 15 35 44 
13 15 44 ,13 15 44 
13 44 ,13 15 44 
13 44 ,13 44 
13 ,13 44 
13 ,13 
13 ,13 
27 ,13 
29 41 ,27 
29 41 ,29 41 
29 41 ,29 41 
29 ,29 41 
,29 
,
-------------
-------
1(-1)->2 4 6 9 12 13 14 15 16 18 19 21 23 27 28 29 31 35 39 41 44 48 
2(-1)->1 3 4 5 6 9 10 12 13 15 18 19 21 22 23 25 26 27 28 29 30 31 33 34 35 37 38 39 41 43 44 46 48 49 
3(-1)->2 5 8 9 10 11 12 17 18 19 22 23 24 28 29 30 31 32 34 35 37 38 39 41 42 43 46 48 
4(-1)->1 2 5 6 9 10 12 13 14 15 16 18 19 21 23 25 26 27 28 29 30 31 33 34 35 37 38 39 41 43 44 46 48 49 
5(-1)->2 3 4 6 8 9 10 11 12 15 17 18 19 20 21 22 23 24 25 26 27 28 29 30 31 33 34 35 37 38 39 40 41 42 43 44 46 47 48 49 
6(-1)->1 2 4 5 9 12 13 14 15 16 18 19 21 23 25 26 27 28 29 30 31 33 35 37 39 41 43 44 46 48 49 
8(-1)->3 5 10 11 17 18 20 28 29 31 38 42 47 
9(-1)->1 2 3 4 5 6 13 14 15 16 18 19 21 23 25 26 27 28 29 30 31 35 37 38 39 41 44 48 49 
10(-1)->2 3 4 5 8 11 12 17 18 19 22 23 24 25 28 29 30 31 34 35 38 39 41 42 43 44 46 48 49 
11(-1)->3 5 8 10 17 18 19 20 22 29 30 31 35 38 42 43 47 49 
12(-1)->1 2 3 4 5 6 10 13 15 18 19 21 22 23 24 25 28 29 30 31 33 34 35 37 38 39 40 41 43 44 46 48 49 
13(-1)->1 2 4 6 9 12 14 15 16 18 19 21 23 27 28 29 31 35 39 41 44 48 
14(-1)->1 4 6 9 13 15 19 21 28 29 31 35 39 41 48 
15(-1)->1 2 4 5 6 9 12 13 14 16 18 19 21 23 25 26 27 28 29 30 31 33 35 37 39 41 43 44 48 49 
16(-1)->1 4 6 9 13 15 18 23 28 29 31 35 39 41 48 
17(-1)->3 5 8 10 11 18 19 22 23 24 28 29 30 31 34 35 38 43 49 
18(-1)->1 2 3 4 5 6 8 9 10 11 12 13 15 16 17 19 20 21 22 23 24 25 27 28 29 30 31 32 33 34 35 37 38 39 40 41 42 43 44 46 47 48 49 
19(-1)->1 2 3 4 5 6 9 10 11 12 13 14 15 17 18 21 22 23 24 28 29 30 31 32 34 35 37 38 39 40 41 42 43 44 46 48 49 
20(-1)->5 8 11 18 29 31 47 
21(-1)->1 2 4 5 6 9 12 13 14 15 18 19 23 25 26 27 28 29 30 31 33 35 37 39 41 44 48 49 
22(-1)->2 3 5 10 11 12 17 18 19 23 24 28 29 30 34 35 37 38 39 40 41 43 46 48 49 
23(-1)->1 2 3 4 5 6 9 10 12 13 15 16 17 18 19 21 22 24 25 26 27 28 29 30 31 33 34 35 37 38 39 40 41 43 44 46 48 49 
24(-1)->3 5 10 12 17 18 19 22 23 28 30 34 35 37 38 40 41 43 46 
25(-1)->2 4 5 6 9 10 12 15 18 21 23 26 27 28 29 30 31 33 34 35 37 39 41 43 44 46 48 49 
26(-1)->2 4 5 6 9 15 21 23 25 28 29 30 31 37 39 44 48 49 
27(-1)->1 2 4 5 6 9 13 15 18 21 23 25 28 29 30 31 35 39 41 44 48 49 
28(-1)->1 2 3 4 5 6 8 9 10 12 13 14 15 16 17 18 19 21 22 23 24 25 26 27 29 30 31 32 33 34 35 37 38 39 40 41 42 43 44 46 47 48 49 
29(-1)->1 2 3 4 5 6 8 9 10 11 12 13 14 15 16 17 18 19 20 21 22 23 25 26 27 28 30 31 35 37 38 39 41 43 44 47 48 49 
30(-1)->2 3 4 5 6 9 10 11 12 15 17 18 19 21 22 23 24 25 26 27 28 29 31 33 34 35 37 38 39 40 41 43 44 46 48 49 
31(-1)->1 2 3 4 5 6 8 9 10 11 12 13 14 15 16 17 18 19 20 21 23 25 26 27 28 29 30 34 35 37 38 39 41 43 44 46 47 48 49 
32(-1)->3 18 19 28 42 
33(-1)->2 4 5 6 12 15 18 21 23 25 28 30 34 37 39 41 43 44 46 48 49 
34(-1)->2 3 4 5 10 12 17 18 19 22 23 24 25 28 30 31 33 35 37 38 39 40 41 43 44 46 48 49 
35(-1)->1 2 3 4 5 6 9 10 11 12 13 14 15 16 17 18 19 21 22 23 24 25 27 28 29 30 31 34 37 38 39 40 41 43 44 46 48 49 
37(-1)->2 3 4 5 6 9 12 15 18 19 21 22 23 24 25 26 28 29 30 31 33 34 35 39 41 43 44 46 48 49 
38(-1)->2 3 4 5 8 9 10 11 12 17 18 19 22 23 24 28 29 30 31 34 35 39 41 43 44 46 47 48 49 
39(-1)->1 2 3 4 5 6 9 10 12 13 14 15 16 18 19 21 22 23 25 26 27 28 29 30 31 33 34 35 37 38 41 43 44 46 48 49 
40(-1)->5 12 18 19 22 23 24 28 30 34 35 41 46 
41(-1)->1 2 3 4 5 6 9 10 12 13 14 15 16 18 19 21 22 23 24 25 27 28 29 30 31 33 34 35 37 38 39 40 43 44 46 48 49 
42(-1)->3 5 8 10 11 18 19 28 32 47 
43(-1)->2 3 4 5 6 10 11 12 15 17 18 19 22 23 24 25 28 29 30 31 33 34 35 37 38 39 41 44 46 48 49 
44(-1)->1 2 4 5 6 9 10 12 13 15 18 19 21 23 25 26 27 28 29 30 31 33 34 35 37 38 39 41 43 46 48 49 
46(-1)->2 3 4 5 6 10 12 18 19 22 23 24 25 28 30 31 33 34 35 37 38 39 40 41 43 44 48 49 
47(-1)->5 8 11 18 20 28 29 31 38 42 
48(-1)->1 2 3 4 5 6 9 10 12 13 14 15 16 18 19 21 22 23 25 26 27 28 29 30 31 33 34 35 37 38 39 41 43 44 46 49 
49(-1)->2 4 5 6 9 10 11 12 15 17 18 19 21 22 23 25 26 27 28 29 30 31 33 34 35 37 38 39 41 43 44 46 48 
-------
Node 18 maps to position 0
Node 28 maps to position 1
Node 5 maps to position 2
Node 31 maps to position 3
Node 23 maps to position 4
Node 29 maps to position 5
Node 35 maps to position 6
Node 19 maps to position 7
Node 41 maps to position 8
Node 30 maps to position 9
Node 39 maps to position 10
Node 48 maps to position 11
Node 2 maps to position 12
Node 4 maps to position 13
Node 12 maps to position 14
Node 49 maps to position 15
Node 44 maps to position 16
Node 6 maps to position 17
Node 43 maps to position 18
Node 15 maps to position 19
Node 37 maps to position 20
Node 9 maps to position 21
Node 10 maps to position 22
Node 38 maps to position 23
Node 3 maps to position 24
Node 21 maps to position 25
Node 25 maps to position 26
Node 34 maps to position 27
Node 46 maps to position 28
Node 22 maps to position 29
Node 1 maps to position 30
Node 13 maps to position 31
Node 27 maps to position 32
Node 33 maps to position 33
Node 17 maps to position 34
Node 24 maps to position 35
Node 11 maps to position 36
Node 26 maps to position 37
Node 14 maps to position 38
Node 16 maps to position 39
Node 8 maps to position 40
Node 40 maps to position 41
Node 42 maps to position 42
Node 47 maps to position 43
Node 20 maps to position 44
Node 32 maps to position 45
18(-1)->1 2 3 4 5 6 8 9 10 11 12 13 15 16 17 19 20 21 22 23 24 25 27 28 29 30 31 32 33 34 35 37 38 39 40 41 42 43 44 46 47 48 49 
28(-1)->1 2 3 4 5 6 8 9 10 12 13 14 15 16 17 18 19 21 22 23 24 25 26 27 29 30 31 32 33 34 35 37 38 39 40 41 42 43 44 46 47 48 49 
5(-1)->2 3 4 6 8 9 10 11 12 15 17 18 19 20 21 22 23 24 25 26 27 28 29 30 31 33 34 35 37 38 39 40 41 42 43 44 46 47 48 49 
31(-1)->1 2 3 4 5 6 8 9 10 11 12 13 14 15 16 17 18 19 20 21 23 25 26 27 28 29 30 34 35 37 38 39 41 43 44 46 47 48 49 
23(-1)->1 2 3 4 5 6 9 10 12 13 15 16 17 18 19 21 22 24 25 26 27 28 29 30 31 33 34 35 37 38 39 40 41 43 44 46 48 49 
29(-1)->1 2 3 4 5 6 8 9 10 11 12 13 14 15 16 17 18 19 20 21 22 23 25 26 27 28 30 31 35 37 38 39 41 43 44 47 48 49 
35(-1)->1 2 3 4 5 6 9 10 11 12 13 14 15 16 17 18 19 21 22 23 24 25 27 28 29 30 31 34 37 38 39 40 41 43 44 46 48 49 
19(-1)->1 2 3 4 5 6 9 10 11 12 13 14 15 17 18 21 22 23 24 28 29 30 31 32 34 35 37 38 39 40 41 42 43 44 46 48 49 
41(-1)->1 2 3 4 5 6 9 10 12 13 14 15 16 18 19 21 22 23 24 25 27 28 29 30 31 33 34 35 37 38 39 40 43 44 46 48 49 
30(-1)->2 3 4 5 6 9 10 11 12 15 17 18 19 21 22 23 24 25 26 27 28 29 31 33 34 35 37 38 39 40 41 43 44 46 48 49 
39(-1)->1 2 3 4 5 6 9 10 12 13 14 15 16 18 19 21 22 23 25 26 27 28 29 30 31 33 34 35 37 38 41 43 44 46 48 49 
48(-1)->1 2 3 4 5 6 9 10 12 13 14 15 16 18 19 21 22 23 25 26 27 28 29 30 31 33 34 35 37 38 39 41 43 44 46 49 
2(-1)->1 3 4 5 6 9 10 12 13 15 18 19 21 22 23 25 26 27 28 29 30 31 33 34 35 37 38 39 41 43 44 46 48 49 
4(-1)->1 2 5 6 9 10 12 13 14 15 16 18 19 21 23 25 26 27 28 29 30 31 33 34 35 37 38 39 41 43 44 46 48 49 
12(-1)->1 2 3 4 5 6 10 13 15 18 19 21 22 23 24 25 28 29 30 31 33 34 35 37 38 39 40 41 43 44 46 48 49 
49(-1)->2 4 5 6 9 10 11 12 15 17 18 19 21 22 23 25 26 27 28 29 30 31 33 34 35 37 38 39 41 43 44 46 48 
44(-1)->1 2 4 5 6 9 10 12 13 15 18 19 21 23 25 26 27 28 29 30 31 33 34 35 37 38 39 41 43 46 48 49 
6(-1)->1 2 4 5 9 12 13 14 15 16 18 19 21 23 25 26 27 28 29 30 31 33 35 37 39 41 43 44 46 48 49 
43(-1)->2 3 4 5 6 10 11 12 15 17 18 19 22 23 24 25 28 29 30 31 33 34 35 37 38 39 41 44 46 48 49 
15(-1)->1 2 4 5 6 9 12 13 14 16 18 19 21 23 25 26 27 28 29 30 31 33 35 37 39 41 43 44 48 49 
37(-1)->2 3 4 5 6 9 12 15 18 19 21 22 23 24 25 26 28 29 30 31 33 34 35 39 41 43 44 46 48 49 
9(-1)->1 2 3 4 5 6 13 14 15 16 18 19 21 23 25 26 27 28 29 30 31 35 37 38 39 41 44 48 49 
10(-1)->2 3 4 5 8 11 12 17 18 19 22 23 24 25 28 29 30 31 34 35 38 39 41 42 43 44 46 48 49 
38(-1)->2 3 4 5 8 9 10 11 12 17 18 19 22 23 24 28 29 30 31 34 35 39 41 43 44 46 47 48 49 
3(-1)->2 5 8 9 10 11 12 17 18 19 22 23 24 28 29 30 31 32 34 35 37 38 39 41 42 43 46 48 
21(-1)->1 2 4 5 6 9 12 13 14 15 18 19 23 25 26 27 28 29 30 31 33 35 37 39 41 44 48 49 
25(-1)->2 4 5 6 9 10 12 15 18 21 23 26 27 28 29 30 31 33 34 35 37 39 41 43 44 46 48 49 
34(-1)->2 3 4 5 10 12 17 18 19 22 23 24 25 28 30 31 33 35 37 38 39 40 41 43 44 46 48 49 
46(-1)->2 3 4 5 6 10 12 18 19 22 23 24 25 28 30 31 33 34 35 37 38 39 40 41 43 44 48 49 
22(-1)->2 3 5 10 11 12 17 18 19 23 24 28 29 30 34 35 37 38 39 40 41 43 46 48 49 
1(-1)->2 4 6 9 12 13 14 15 16 18 19 21 23 27 28 29 31 35 39 41 44 48 
13(-1)->1 2 4 6 9 12 14 15 16 18 19 21 23 27 28 29 31 35 39 41 44 48 
27(-1)->1 2 4 5 6 9 13 15 18 21 23 25 28 29 30 31 35 39 41 44 48 49 
33(-1)->2 4 5 6 12 15 18 21 23 25 28 30 34 37 39 41 43 44 46 48 49 
17(-1)->3 5 8 10 11 18 19 22 23 24 28 29 30 31 34 35 38 43 49 
24(-1)->3 5 10 12 17 18 19 22 23 28 30 34 35 37 38 40 41 43 46 
11(-1)->3 5 8 10 17 18 19 20 22 29 30 31 35 38 42 43 47 49 
26(-1)->2 4 5 6 9 15 21 23 25 28 29 30 31 37 39 44 48 49 
14(-1)->1 4 6 9 13 15 19 21 28 29 31 35 39 41 48 
16(-1)->1 4 6 9 13 15 18 23 28 29 31 35 39 41 48 
8(-1)->3 5 10 11 17 18 20 28 29 31 38 42 47 
40(-1)->5 12 18 19 22 23 24 28 30 34 35 41 46 
42(-1)->3 5 8 10 11 18 19 28 32 47 
47(-1)->5 8 11 18 20 28 29 31 38 42 
20(-1)->5 8 11 18 29 31 47 
32(-1)->3 18 19 28 42 
-------
BLAH
START TIME: 1433731998
Cq = 21 and is assigned to x28
BACKTRACKED TO DEPTH: 27
0 1 2 3 4 5 6 7 8 9 10 11 12 13 14 15 16 17 18 19 20 
Cq = 20 and is assigned to x20
BACKTRACKED TO DEPTH: 19
0 1 2 3 4 5 6 7 8 9 10 11 12 13 14 15 16 17 18 19 
1(2)->2 4 6 9 12 13 14 15 16 18 19 21 23 27 28 29 31 35 39 41 44 48 
2(12)->1 3 4 5 6 9 10 12 13 15 18 19 21 22 23 25 26 27 28 29 30 31 33 34 35 37 38 39 41 43 44 46 48 49 
3(13)->2 5 8 9 10 11 12 17 18 19 22 23 24 28 29 30 31 32 34 35 37 38 39 41 42 43 46 48 
4(13)->1 2 5 6 9 10 12 13 14 15 16 18 19 21 23 25 26 27 28 29 30 31 33 34 35 37 38 39 41 43 44 46 48 49 
5(2)->2 3 4 6 8 9 10 11 12 15 17 18 19 20 21 22 23 24 25 26 27 28 29 30 31 33 34 35 37 38 39 40 41 42 43 44 46 47 48 49 
6(17)->1 2 4 5 9 12 13 14 15 16 18 19 21 23 25 26 27 28 29 30 31 33 35 37 39 41 43 44 46 48 49 
8(4)->3 5 10 11 17 18 20 28 29 31 38 42 47 
9(14)->1 2 3 4 5 6 13 14 15 16 18 19 21 23 25 26 27 28 29 30 31 35 37 38 39 41 44 48 49 
10(17)->2 3 4 5 8 11 12 17 18 19 22 23 24 25 28 29 30 31 34 35 38 39 41 42 43 44 46 48 49 
11(1)->3 5 8 10 17 18 19 20 22 29 30 31 35 38 42 43 47 49 
12(14)->1 2 3 4 5 6 10 13 15 18 19 21 22 23 24 25 28 29 30 31 33 34 35 37 38 39 40 41 43 44 46 48 49 
13(9)->1 2 4 6 9 12 14 15 16 18 19 21 23 27 28 29 31 35 39 41 44 48 
14(0)->1 4 6 9 13 15 19 21 28 29 31 35 39 41 48 
15(19)->1 2 4 5 6 9 12 13 14 16 18 19 21 23 25 26 27 28 29 30 31 33 35 37 39 41 43 44 48 49 
16(7)->1 4 6 9 13 15 18 23 28 29 31 35 39 41 48 
17(8)->3 5 8 10 11 18 19 22 23 24 28 29 30 31 34 35 38 43 49 
18(0)->1 2 3 4 5 6 8 9 10 11 12 13 15 16 17 19 20 21 22 23 24 25 27 28 29 30 31 32 33 34 35 37 38 39 40 41 42 43 44 46 47 48 49 
19(7)->1 2 3 4 5 6 9 10 11 12 13 14 15 17 18 21 22 23 24 28 29 30 31 32 34 35 37 38 39 40 41 42 43 44 46 48 49 
20(7)->5 8 11 18 29 31 47 
21(18)->1 2 4 5 6 9 12 13 14 15 18 19 23 25 26 27 28 29 30 31 33 35 37 39 41 44 48 49 
22(3)->2 3 5 10 11 12 17 18 19 23 24 28 29 30 34 35 37 38 39 40 41 43 46 48 49 
23(4)->1 2 3 4 5 6 9 10 12 13 15 16 17 18 19 21 22 24 25 26 27 28 29 30 31 33 34 35 37 38 39 40 41 43 44 46 48 49 
24(10)->3 5 10 12 17 18 19 22 23 28 30 34 35 37 38 40 41 43 46 
25(7)->2 4 5 6 9 10 12 15 18 21 23 26 27 28 29 30 31 33 34 35 37 39 41 43 44 46 48 49 
26(0)->2 4 5 6 9 15 21 23 25 28 29 30 31 37 39 44 48 49 
27(20)->1 2 4 5 6 9 13 15 18 21 23 25 28 29 30 31 35 39 41 44 48 49 
28(1)->1 2 3 4 5 6 8 9 10 12 13 14 15 16 17 18 19 21 22 23 24 25 26 27 29 30 31 32 33 34 35 37 38 39 40 41 42 43 44 46 47 48 49 
29(5)->1 2 3 4 5 6 8 9 10 11 12 13 14 15 16 17 18 19 20 21 22 23 25 26 27 28 30 31 35 37 38 39 41 43 44 47 48 49 
30(9)->2 3 4 5 6 9 10 11 12 15 17 18 19 21 22 23 24 25 26 27 28 29 31 33 34 35 37 38 39 40 41 43 44 46 48 49 
31(3)->1 2 3 4 5 6 8 9 10 11 12 13 14 15 16 17 18 19 20 21 23 25 26 27 28 29 30 34 35 37 38 39 41 43 44 46 47 48 49 
32(2)->3 18 19 28 42 
33(3)->2 4 5 6 12 15 18 21 23 25 28 30 34 37 39 41 43 44 46 48 49 
34(5)->2 3 4 5 10 12 17 18 19 22 23 24 25 28 30 31 33 35 37 38 39 40 41 43 44 46 48 49 
35(6)->1 2 3 4 5 6 9 10 11 12 13 14 15 16 17 18 19 21 22 23 24 25 27 28 29 30 31 34 37 38 39 40 41 43 44 46 48 49 
37(20)->2 3 4 5 6 9 12 15 18 19 21 22 23 24 25 26 28 29 30 31 33 34 35 39 41 43 44 46 48 49 
38(20)->2 3 4 5 8 9 10 11 12 17 18 19 22 23 24 28 29 30 31 34 35 39 41 43 44 46 47 48 49 
39(10)->1 2 3 4 5 6 9 10 12 13 14 15 16 18 19 21 22 23 25 26 27 28 29 30 31 33 34 35 37 38 41 43 44 46 48 49 
40(11)->5 12 18 19 22 23 24 28 30 34 35 41 46 
41(8)->1 2 3 4 5 6 9 10 12 13 14 15 16 18 19 21 22 23 24 25 27 28 29 30 31 33 34 35 37 38 39 40 43 44 46 48 49 
42(3)->3 5 8 10 11 18 19 28 32 47 
43(18)->2 3 4 5 6 10 11 12 15 17 18 19 22 23 24 25 28 29 30 31 33 34 35 37 38 39 41 44 46 48 49 
44(16)->1 2 4 5 6 9 10 12 13 15 18 19 21 23 25 26 27 28 29 30 31 33 34 35 37 38 39 41 43 46 48 49 
46(19)->2 3 4 5 6 10 12 18 19 22 23 24 25 28 30 31 33 34 35 37 38 39 40 41 43 44 48 49 
47(6)->5 8 11 18 20 28 29 31 38 42 
48(11)->1 2 3 4 5 6 9 10 12 13 14 15 16 18 19 21 22 23 25 26 27 28 29 30 31 33 34 35 37 38 39 41 43 44 46 49 
49(15)->2 4 5 6 9 10 11 12 15 17 18 19 21 22 23 25 26 27 28 29 30 31 33 34 35 37 38 39 41 43 44 46 48 
COUNT: 76
COLORS: 21
EDGES: 0
21
76
