-1=-1,-1,-1
-1=-1,-1,-1
-1=-1,-1,-1
-1=-1,-1,-1
-1=-1,-1,-1
-1=-1,-1,-1
24=-1,-1,-1
-1=24,-1,-1
-1=-1,-1,-1
-1=-1,-1,-1
24=-1,-1,-1
28=-1,-1,-1
-1=-1,-1,-1
11=-1,-1,-1
-1=-1,-1,-1
-1=-1,-1,-1
-1=-1,-1,-1
40=11,-1,-1
31=-1,-1,-1
1=-1,-1,-1
-1=-1,-1,-1
11=-1,-1,-1
-1=-1,-1,-1
-1=-1,-1,-1
-1=-1,-1,-1
-1=40,-1,-1
-1=-1,-1,-1
-1=-1,-1,-1
48=-1,-1,-1
-1=-1,-1,-1
-1=-1,-1,-1
-1=-1,-1,-1
-1=-1,-1,-1
-1=-1,-1,-1
8=-1,-1,-1
16=-1,-1,-1
-1=-1,-1,-1
34=-1,-1,-1
-1=-1,-1,-1
-1=-1,-1,-1
-1=-1,-1,-1
-1=-1,-1,-1
-1=-1,-1,-1
-1=48,-1,-1
-1=28,-1,-1
49=-1,-1,-1
38=-1,-1,-1
-1=-1,-1,-1
40=-1,-1,-1
-1=38,-1,-1
-1=-1,-1,-1
3=-1,-1,-1
48=-1,-1,-1
38=48,-1,-1
-1=3,-1,-1
-1=11,-1,-1
-1=38,-1,-1
-1=-1,-1,-1
-1=-1,-1,-1
-1=24,-1,-1
38=-1,-1,-1
-1=-1,-1,-1
-1=-1,-1,-1
48=-1,-1,-1
18=40,-1,-1
-1=31,-1,-1
-1=-1,-1,-1
-1=-1,-1,-1
-1=-1,-1,-1
-1=49,-1,-1
-1=8,-1,-1
-1=-1,-1,-1
4=-1,-1,-1
35=-1,-1,-1
-1=-1,-1,-1
3=1,35,-1
-1=-1,-1,-1
-1=38,-1,-1
-1=-1,-1,-1
30=-1,-1,-1
-1=-1,-1,-1
-1=-1,-1,-1
-1=18,-1,-1
46=-1,-1,-1
25=-1,-1,-1
-1=-1,-1,-1
37=-1,-1,-1
-1=-1,-1,-1
-1=-1,-1,-1
-1=-1,-1,-1
22=-1,-1,-1
43=-1,-1,-1
-1=-1,-1,-1
-1=-1,-1,-1
-1=-1,-1,-1
-1=-1,-1,-1
-1=4,-1,-1
-1=-1,-1,-1
-1=-1,-1,-1
-1=-1,-1,-1
-1=-1,-1,-1
-1=-1,-1,-1
-1=37,-1,-1
19=-1,-1,-1
-1=34,-1,-1
-1=-1,-1,-1
-1=-1,-1,-1
-1=-1,-1,-1
-1=-1,-1,-1
14=-1,-1,-1
-1=-1,-1,-1
-1=-1,-1,-1
-1=-1,-1,-1
-1=22,25,-1
-1=-1,-1,-1
-1=48,-1,-1
-1=-1,-1,-1
-1=43,-1,-1
-1=-1,-1,-1
-1=-1,-1,-1
-1=-1,-1,-1
-1=-1,-1,-1
-1=-1,-1,-1
-1=-1,-1,-1
-1=-1,-1,-1
-1=-1,-1,-1
-1=-1,-1,-1
-1=-1,-1,-1
28=-1,-1,-1
-1=-1,-1,-1
-1=-1,-1,-1
-1=3,-1,-1
-1=-1,-1,-1
-1=-1,-1,-1
-1=-1,-1,-1
-1=-1,-1,-1
-1=-1,-1,-1
-1=-1,-1,-1
-1=-1,-1,-1
-1=-1,-1,-1
-1=46,-1,-1
-1=-1,-1,-1
-1=-1,-1,-1
-1=-1,-1,-1
-1=-1,-1,-1
-1=-1,-1,-1
-1=30,-1,-1
42=-1,-1,-1
-1=-1,-1,-1
-1=-1,-1,-1
-1=-1,-1,-1
-1=19,-1,-1
-1=28,-1,-1
40=14,16,-1
-1=-1,-1,-1
-1=42,-1,-1
-1=-1,-1,-1
-1=-1,-1,-1
-1=-1,-1,-1
-1=-1,-1,-1
-1=-1,-1,-1
9=-1,-1,-1
-1=-1,-1,-1
-1=-1,-1,-1
35=-1,-1,-1
-1=-1,-1,-1
24=9,-1,-1
3=24,-1,-1
16=-1,-1,-1
10=-1,-1,-1
24=-1,-1,-1
-1=-1,-1,-1
-1=-1,-1,-1
-1=-1,-1,-1
46=10,35,-1
21=-1,-1,-1
-1=40,-1,-1
-1=16,-1,-1
42=-1,-1,-1
-1=-1,-1,-1
31=-1,-1,-1
28=21,-1,-1
-1=3,46,-1
-1=28,-1,-1
-1=24,-1,-1
-1=42,-1,-1
-1=-1,-1,-1
-1=-1,-1,-1
-1=31,-1,-1
-1=-1,-1,-1
30=-1,-1,-1
-1=-1,-1,-1
-1=30,-1,-1
-1=-1,-1,-1
-1=-1,-1,-1
-1=-1,-1,-1
-1=-1,-1,-1
6=-1,-1,-1
-1=6,-1,-1
-1=-1,-1,-1
--------
,
6 ,
,6 
,
,
,
,
30 ,
30 ,30 
,30 
,
31 ,
31 ,31 
31 ,31 
31 42 ,31 
24 31 42 ,31 42 
24 28 31 42 ,24 31 42 
3 24 28 31 42 46 ,24 28 31 42 
3 21 24 31 42 46 ,3 24 28 31 42 46 
3 21 24 42 46 ,3 21 24 31 42 46 
3 21 24 42 46 ,3 21 24 42 46 
3 21 24 46 ,3 21 24 42 46 
3 16 21 24 46 ,3 21 24 46 
3 16 21 24 40 46 ,3 16 21 24 46 
3 16 24 40 46 ,3 16 21 24 40 46 
3 10 16 24 35 40 ,3 16 24 40 46 
3 10 16 24 35 40 ,3 10 16 24 35 40 
3 10 16 24 35 40 ,3 10 16 24 35 40 
3 10 16 24 35 40 ,3 10 16 24 35 40 
3 10 16 35 40 ,3 10 16 24 35 40 
3 16 35 40 ,3 10 16 35 40 
3 35 40 ,3 16 35 40 
24 35 40 ,3 35 40 
9 35 40 ,24 35 40 
9 35 40 ,9 35 40 
9 40 ,9 35 40 
9 40 ,9 40 
9 40 ,9 40 
40 ,9 40 
40 ,40 
40 ,40 
40 ,40 
40 ,40 
40 ,40 
40 42 ,40 
40 42 ,40 42 
14 16 42 ,40 42 
14 16 28 42 ,14 16 42 
14 16 19 28 42 ,14 16 28 42 
14 16 19 28 42 ,14 16 19 28 42 
14 16 19 28 42 ,14 16 19 28 42 
14 16 19 28 42 ,14 16 19 28 42 
14 16 19 28 ,14 16 19 28 42 
14 16 19 28 30 ,14 16 19 28 
14 16 19 28 30 ,14 16 19 28 30 
14 16 19 28 30 ,14 16 19 28 30 
14 16 19 28 30 ,14 16 19 28 30 
14 16 19 28 30 ,14 16 19 28 30 
14 16 19 28 30 ,14 16 19 28 30 
14 16 19 28 30 46 ,14 16 19 28 30 
14 16 19 28 30 46 ,14 16 19 28 30 46 
14 16 19 28 30 46 ,14 16 19 28 30 46 
14 16 19 28 30 46 ,14 16 19 28 30 46 
14 16 19 28 30 46 ,14 16 19 28 30 46 
14 16 19 28 30 46 ,14 16 19 28 30 46 
14 16 19 28 30 46 ,14 16 19 28 30 46 
14 16 19 28 30 46 ,14 16 19 28 30 46 
14 16 19 28 30 46 ,14 16 19 28 30 46 
3 14 16 19 28 30 46 ,14 16 19 28 30 46 
3 14 16 19 28 30 46 ,3 14 16 19 28 30 46 
3 14 16 19 28 30 46 ,3 14 16 19 28 30 46 
3 14 16 19 30 46 ,3 14 16 19 28 30 46 
3 14 16 19 30 46 ,3 14 16 19 30 46 
3 14 16 19 30 46 ,3 14 16 19 30 46 
3 14 16 19 30 46 ,3 14 16 19 30 46 
3 14 16 19 30 46 ,3 14 16 19 30 46 
3 14 16 19 30 46 ,3 14 16 19 30 46 
3 14 16 19 30 46 ,3 14 16 19 30 46 
3 14 16 19 30 46 ,3 14 16 19 30 46 
3 14 16 19 30 46 ,3 14 16 19 30 46 
3 14 16 19 30 46 ,3 14 16 19 30 46 
3 14 16 19 30 46 ,3 14 16 19 30 46 
3 14 16 19 30 43 46 ,3 14 16 19 30 46 
3 14 16 19 30 43 46 ,3 14 16 19 30 43 46 
3 14 16 19 30 43 46 48 ,3 14 16 19 30 43 46 
3 14 16 19 30 43 46 48 ,3 14 16 19 30 43 46 48 
3 14 16 19 22 25 30 43 46 48 ,3 14 16 19 30 43 46 48 
3 14 16 19 22 25 30 43 46 48 ,3 14 16 19 22 25 30 43 46 48 
3 14 16 19 22 25 30 43 46 48 ,3 14 16 19 22 25 30 43 46 48 
3 14 16 19 22 25 30 43 46 48 ,3 14 16 19 22 25 30 43 46 48 
3 16 19 22 25 30 43 46 48 ,3 14 16 19 22 25 30 43 46 48 
3 16 19 22 25 30 43 46 48 ,3 16 19 22 25 30 43 46 48 
3 16 19 22 25 30 43 46 48 ,3 16 19 22 25 30 43 46 48 
3 16 19 22 25 30 43 46 48 ,3 16 19 22 25 30 43 46 48 
3 16 19 22 25 30 43 46 48 ,3 16 19 22 25 30 43 46 48 
3 16 19 22 25 30 34 43 46 48 ,3 16 19 22 25 30 43 46 48 
3 16 22 25 30 34 43 46 48 ,3 16 19 22 25 30 34 43 46 48 
3 16 22 25 30 34 37 43 46 48 ,3 16 22 25 30 34 43 46 48 
3 16 22 25 30 34 37 43 46 48 ,3 16 22 25 30 34 37 43 46 48 
3 16 22 25 30 34 37 43 46 48 ,3 16 22 25 30 34 37 43 46 48 
3 16 22 25 30 34 37 43 46 48 ,3 16 22 25 30 34 37 43 46 48 
3 16 22 25 30 34 37 43 46 48 ,3 16 22 25 30 34 37 43 46 48 
3 16 22 25 30 34 37 43 46 48 ,3 16 22 25 30 34 37 43 46 48 
3 4 16 22 25 30 34 37 43 46 48 ,3 16 22 25 30 34 37 43 46 48 
3 4 16 22 25 30 34 37 43 46 48 ,3 4 16 22 25 30 34 37 43 46 48 
3 4 16 22 25 30 34 37 43 46 48 ,3 4 16 22 25 30 34 37 43 46 48 
3 4 16 22 25 30 34 37 43 46 48 ,3 4 16 22 25 30 34 37 43 46 48 
3 4 16 22 25 30 34 37 43 46 48 ,3 4 16 22 25 30 34 37 43 46 48 
3 4 16 22 25 30 34 37 46 48 ,3 4 16 22 25 30 34 37 43 46 48 
3 4 16 25 30 34 37 46 48 ,3 4 16 22 25 30 34 37 46 48 
3 4 16 25 30 34 37 46 48 ,3 4 16 25 30 34 37 46 48 
3 4 16 25 30 34 37 46 48 ,3 4 16 25 30 34 37 46 48 
3 4 16 25 30 34 37 46 48 ,3 4 16 25 30 34 37 46 48 
3 4 16 25 30 34 46 48 ,3 4 16 25 30 34 37 46 48 
3 4 16 25 30 34 46 48 ,3 4 16 25 30 34 46 48 
3 4 16 30 34 46 48 ,3 4 16 25 30 34 46 48 
3 4 16 30 34 48 ,3 4 16 30 34 46 48 
3 4 16 18 30 34 48 ,3 4 16 30 34 48 
3 4 16 18 30 34 48 ,3 4 16 18 30 34 48 
3 4 16 18 30 34 48 ,3 4 16 18 30 34 48 
3 4 16 18 34 48 ,3 4 16 18 30 34 48 
3 4 16 18 34 48 ,3 4 16 18 34 48 
3 4 16 18 34 38 48 ,3 4 16 18 34 48 
3 4 16 18 34 38 48 ,3 4 16 18 34 38 48 
1 4 16 18 34 35 38 48 ,3 4 16 18 34 38 48 
1 4 16 18 34 35 38 48 ,1 4 16 18 34 35 38 48 
1 4 16 18 34 38 48 ,1 4 16 18 34 35 38 48 
1 16 18 34 38 48 ,1 4 16 18 34 38 48 
1 16 18 34 38 48 ,1 16 18 34 38 48 
1 8 16 18 34 38 48 ,1 16 18 34 38 48 
1 8 16 18 34 38 48 49 ,1 8 16 18 34 38 48 
1 8 16 18 34 38 48 49 ,1 8 16 18 34 38 48 49 
1 8 16 18 34 38 48 49 ,1 8 16 18 34 38 48 49 
1 8 16 18 34 38 48 49 ,1 8 16 18 34 38 48 49 
1 8 16 18 31 34 38 48 49 ,1 8 16 18 34 38 48 49 
1 8 16 31 34 38 40 48 49 ,1 8 16 18 31 34 38 48 49 
1 8 16 31 34 38 40 49 ,1 8 16 31 34 38 40 48 49 
1 8 16 31 34 38 40 49 ,1 8 16 31 34 38 40 49 
1 8 16 31 34 38 40 49 ,1 8 16 31 34 38 40 49 
1 8 16 31 34 40 49 ,1 8 16 31 34 38 40 49 
1 8 16 24 31 34 40 49 ,1 8 16 31 34 40 49 
1 8 16 24 31 34 40 49 ,1 8 16 24 31 34 40 49 
1 8 16 24 31 34 40 49 ,1 8 16 24 31 34 40 49 
1 8 16 24 31 34 38 40 49 ,1 8 16 24 31 34 40 49 
1 8 11 16 24 31 34 38 40 49 ,1 8 16 24 31 34 38 40 49 
1 3 8 11 16 24 31 34 38 40 49 ,1 8 11 16 24 31 34 38 40 49 
1 3 8 11 16 24 31 34 40 48 49 ,1 3 8 11 16 24 31 34 38 40 49 
1 3 8 11 16 24 31 34 40 49 ,1 3 8 11 16 24 31 34 40 48 49 
1 8 11 16 24 31 34 40 49 ,1 3 8 11 16 24 31 34 40 49 
1 8 11 16 24 31 34 40 49 ,1 8 11 16 24 31 34 40 49 
1 8 11 16 24 31 34 38 40 49 ,1 8 11 16 24 31 34 40 49 
1 8 11 16 24 31 34 38 49 ,1 8 11 16 24 31 34 38 40 49 
1 8 11 16 24 31 34 38 49 ,1 8 11 16 24 31 34 38 49 
1 8 11 16 24 31 34 49 ,1 8 11 16 24 31 34 38 49 
1 8 11 16 24 31 34 ,1 8 11 16 24 31 34 49 
1 8 11 16 24 28 31 34 ,1 8 11 16 24 31 34 
1 8 11 16 24 28 31 34 48 ,1 8 11 16 24 28 31 34 
1 8 11 16 24 28 31 34 48 ,1 8 11 16 24 28 31 34 48 
1 8 11 16 24 28 31 34 48 ,1 8 11 16 24 28 31 34 48 
1 8 11 16 24 28 31 34 48 ,1 8 11 16 24 28 31 34 48 
1 8 11 16 24 28 31 34 48 ,1 8 11 16 24 28 31 34 48 
1 8 11 16 24 28 31 34 48 ,1 8 11 16 24 28 31 34 48 
1 8 11 16 24 28 31 48 ,1 8 11 16 24 28 31 34 48 
1 8 11 16 24 28 31 48 ,1 8 11 16 24 28 31 48 
1 8 11 24 28 31 48 ,1 8 11 16 24 28 31 48 
1 11 24 28 31 48 ,1 8 11 24 28 31 48 
1 11 24 28 31 48 ,1 11 24 28 31 48 
1 11 24 28 31 48 ,1 11 24 28 31 48 
1 11 24 28 31 48 ,1 11 24 28 31 48 
1 11 24 28 31 48 ,1 11 24 28 31 48 
1 11 24 28 31 48 ,1 11 24 28 31 48 
1 11 24 28 31 ,1 11 24 28 31 48 
1 11 24 28 31 ,1 11 24 28 31 
1 11 24 28 31 ,1 11 24 28 31 
1 11 24 28 31 40 ,1 11 24 28 31 
1 11 24 28 31 40 ,1 11 24 28 31 40 
1 11 24 28 31 40 ,1 11 24 28 31 40 
1 11 24 28 31 40 ,1 11 24 28 31 40 
1 24 28 31 40 ,1 11 24 28 31 40 
1 24 28 31 40 ,1 24 28 31 40 
24 28 31 40 ,1 24 28 31 40 
24 28 40 ,24 28 31 40 
11 24 28 ,24 28 40 
11 24 28 ,11 24 28 
11 24 28 ,11 24 28 
11 24 28 ,11 24 28 
24 28 ,11 24 28 
24 28 ,24 28 
24 ,24 28 
,24 
,
,
24 ,
,24 
,
,
,
,
,
,
--------
,
6 ,
,6 
,
,
,
,
30 ,
30 ,30 
,30 
,
31 ,
31 ,31 
31 ,31 
31 42 ,31 
24 31 42 ,31 42 
24 28 31 42 ,24 31 42 
3 24 28 31 42 46 ,24 28 31 42 
3 21 24 31 42 46 ,3 24 28 31 42 46 
3 21 24 42 46 ,3 21 24 31 42 46 
3 21 24 42 46 ,3 21 24 42 46 
3 21 24 46 ,3 21 24 42 46 
3 16 21 24 46 ,3 21 24 46 
3 16 21 24 40 46 ,3 16 21 24 46 
3 16 24 40 46 ,3 16 21 24 40 46 
3 10 16 24 35 40 ,3 16 24 40 46 
3 10 16 24 35 40 ,3 10 16 24 35 40 
3 10 16 24 35 40 ,3 10 16 24 35 40 
3 10 16 24 35 40 ,3 10 16 24 35 40 
3 10 16 35 40 ,3 10 16 24 35 40 
3 16 35 40 ,3 10 16 35 40 
3 35 40 ,3 16 35 40 
24 35 40 ,3 35 40 
9 35 40 ,24 35 40 
9 35 40 ,9 35 40 
9 40 ,9 35 40 
9 40 ,9 40 
9 40 ,9 40 
40 ,9 40 
40 ,40 
40 ,40 
40 ,40 
40 ,40 
40 ,40 
40 42 ,40 
40 42 ,40 42 
14 16 42 ,40 42 
14 16 28 42 ,14 16 42 
14 16 19 28 42 ,14 16 28 42 
14 16 19 28 42 ,14 16 19 28 42 
14 16 19 28 42 ,14 16 19 28 42 
14 16 19 28 42 ,14 16 19 28 42 
14 16 19 28 ,14 16 19 28 42 
14 16 19 28 30 ,14 16 19 28 
14 16 19 28 30 ,14 16 19 28 30 
14 16 19 28 30 ,14 16 19 28 30 
14 16 19 28 30 ,14 16 19 28 30 
14 16 19 28 30 ,14 16 19 28 30 
14 16 19 28 30 ,14 16 19 28 30 
14 16 19 28 30 46 ,14 16 19 28 30 
14 16 19 28 30 46 ,14 16 19 28 30 46 
14 16 19 28 30 46 ,14 16 19 28 30 46 
14 16 19 28 30 46 ,14 16 19 28 30 46 
14 16 19 28 30 46 ,14 16 19 28 30 46 
14 16 19 28 30 46 ,14 16 19 28 30 46 
14 16 19 28 30 46 ,14 16 19 28 30 46 
14 16 19 28 30 46 ,14 16 19 28 30 46 
14 16 19 28 30 46 ,14 16 19 28 30 46 
3 14 16 19 28 30 46 ,14 16 19 28 30 46 
3 14 16 19 28 30 46 ,3 14 16 19 28 30 46 
3 14 16 19 28 30 46 ,3 14 16 19 28 30 46 
3 14 16 19 30 46 ,3 14 16 19 28 30 46 
3 14 16 19 30 46 ,3 14 16 19 30 46 
3 14 16 19 30 46 ,3 14 16 19 30 46 
3 14 16 19 30 46 ,3 14 16 19 30 46 
3 14 16 19 30 46 ,3 14 16 19 30 46 
3 14 16 19 30 46 ,3 14 16 19 30 46 
3 14 16 19 30 46 ,3 14 16 19 30 46 
3 14 16 19 30 46 ,3 14 16 19 30 46 
3 14 16 19 30 46 ,3 14 16 19 30 46 
3 14 16 19 30 46 ,3 14 16 19 30 46 
3 14 16 19 30 46 ,3 14 16 19 30 46 
3 14 16 19 30 43 46 ,3 14 16 19 30 46 
3 14 16 19 30 43 46 ,3 14 16 19 30 43 46 
3 14 16 19 30 43 46 48 ,3 14 16 19 30 43 46 
3 14 16 19 30 43 46 48 ,3 14 16 19 30 43 46 48 
3 14 16 19 22 25 30 43 46 48 ,3 14 16 19 30 43 46 48 
3 14 16 19 22 25 30 43 46 48 ,3 14 16 19 22 25 30 43 46 48 
3 14 16 19 22 25 30 43 46 48 ,3 14 16 19 22 25 30 43 46 48 
3 14 16 19 22 25 30 43 46 48 ,3 14 16 19 22 25 30 43 46 48 
3 16 19 22 25 30 43 46 48 ,3 14 16 19 22 25 30 43 46 48 
3 16 19 22 25 30 43 46 48 ,3 16 19 22 25 30 43 46 48 
3 16 19 22 25 30 43 46 48 ,3 16 19 22 25 30 43 46 48 
3 16 19 22 25 30 43 46 48 ,3 16 19 22 25 30 43 46 48 
3 16 19 22 25 30 43 46 48 ,3 16 19 22 25 30 43 46 48 
3 16 19 22 25 30 34 43 46 48 ,3 16 19 22 25 30 43 46 48 
3 16 22 25 30 34 43 46 48 ,3 16 19 22 25 30 34 43 46 48 
3 16 22 25 30 34 37 43 46 48 ,3 16 22 25 30 34 43 46 48 
3 16 22 25 30 34 37 43 46 48 ,3 16 22 25 30 34 37 43 46 48 
3 16 22 25 30 34 37 43 46 48 ,3 16 22 25 30 34 37 43 46 48 
3 16 22 25 30 34 37 43 46 48 ,3 16 22 25 30 34 37 43 46 48 
3 16 22 25 30 34 37 43 46 48 ,3 16 22 25 30 34 37 43 46 48 
3 16 22 25 30 34 37 43 46 48 ,3 16 22 25 30 34 37 43 46 48 
3 4 16 22 25 30 34 37 43 46 48 ,3 16 22 25 30 34 37 43 46 48 
3 4 16 22 25 30 34 37 43 46 48 ,3 4 16 22 25 30 34 37 43 46 48 
3 4 16 22 25 30 34 37 43 46 48 ,3 4 16 22 25 30 34 37 43 46 48 
3 4 16 22 25 30 34 37 43 46 48 ,3 4 16 22 25 30 34 37 43 46 48 
3 4 16 22 25 30 34 37 43 46 48 ,3 4 16 22 25 30 34 37 43 46 48 
3 4 16 22 25 30 34 37 46 48 ,3 4 16 22 25 30 34 37 43 46 48 
3 4 16 25 30 34 37 46 48 ,3 4 16 22 25 30 34 37 46 48 
3 4 16 25 30 34 37 46 48 ,3 4 16 25 30 34 37 46 48 
3 4 16 25 30 34 37 46 48 ,3 4 16 25 30 34 37 46 48 
3 4 16 25 30 34 37 46 48 ,3 4 16 25 30 34 37 46 48 
3 4 16 25 30 34 46 48 ,3 4 16 25 30 34 37 46 48 
3 4 16 25 30 34 46 48 ,3 4 16 25 30 34 46 48 
3 4 16 30 34 46 48 ,3 4 16 25 30 34 46 48 
3 4 16 30 34 48 ,3 4 16 30 34 46 48 
3 4 16 18 30 34 48 ,3 4 16 30 34 48 
3 4 16 18 30 34 48 ,3 4 16 18 30 34 48 
3 4 16 18 30 34 48 ,3 4 16 18 30 34 48 
3 4 16 18 34 48 ,3 4 16 18 30 34 48 
3 4 16 18 34 48 ,3 4 16 18 34 48 
3 4 16 18 34 38 48 ,3 4 16 18 34 48 
3 4 16 18 34 38 48 ,3 4 16 18 34 38 48 
1 4 16 18 34 35 38 48 ,3 4 16 18 34 38 48 
1 4 16 18 34 35 38 48 ,1 4 16 18 34 35 38 48 
1 4 16 18 34 38 48 ,1 4 16 18 34 35 38 48 
1 16 18 34 38 48 ,1 4 16 18 34 38 48 
1 16 18 34 38 48 ,1 16 18 34 38 48 
1 8 16 18 34 38 48 ,1 16 18 34 38 48 
1 8 16 18 34 38 48 49 ,1 8 16 18 34 38 48 
1 8 16 18 34 38 48 49 ,1 8 16 18 34 38 48 49 
1 8 16 18 34 38 48 49 ,1 8 16 18 34 38 48 49 
1 8 16 18 34 38 48 49 ,1 8 16 18 34 38 48 49 
1 8 16 18 31 34 38 48 49 ,1 8 16 18 34 38 48 49 
1 8 16 31 34 38 40 48 49 ,1 8 16 18 31 34 38 48 49 
1 8 16 31 34 38 40 49 ,1 8 16 31 34 38 40 48 49 
1 8 16 31 34 38 40 49 ,1 8 16 31 34 38 40 49 
1 8 16 31 34 38 40 49 ,1 8 16 31 34 38 40 49 
1 8 16 31 34 40 49 ,1 8 16 31 34 38 40 49 
1 8 16 24 31 34 40 49 ,1 8 16 31 34 40 49 
1 8 16 24 31 34 40 49 ,1 8 16 24 31 34 40 49 
1 8 16 24 31 34 40 49 ,1 8 16 24 31 34 40 49 
1 8 16 24 31 34 38 40 49 ,1 8 16 24 31 34 40 49 
1 8 11 16 24 31 34 38 40 49 ,1 8 16 24 31 34 38 40 49 
1 3 8 11 16 24 31 34 38 40 49 ,1 8 11 16 24 31 34 38 40 49 
1 3 8 11 16 24 31 34 40 48 49 ,1 3 8 11 16 24 31 34 38 40 49 
1 3 8 11 16 24 31 34 40 49 ,1 3 8 11 16 24 31 34 40 48 49 
1 8 11 16 24 31 34 40 49 ,1 3 8 11 16 24 31 34 40 49 
1 8 11 16 24 31 34 40 49 ,1 8 11 16 24 31 34 40 49 
1 8 11 16 24 31 34 38 40 49 ,1 8 11 16 24 31 34 40 49 
1 8 11 16 24 31 34 38 49 ,1 8 11 16 24 31 34 38 40 49 
1 8 11 16 24 31 34 38 49 ,1 8 11 16 24 31 34 38 49 
1 8 11 16 24 31 34 49 ,1 8 11 16 24 31 34 38 49 
1 8 11 16 24 31 34 ,1 8 11 16 24 31 34 49 
1 8 11 16 24 28 31 34 ,1 8 11 16 24 31 34 
1 8 11 16 24 28 31 34 48 ,1 8 11 16 24 28 31 34 
1 8 11 16 24 28 31 34 48 ,1 8 11 16 24 28 31 34 48 
1 8 11 16 24 28 31 34 48 ,1 8 11 16 24 28 31 34 48 
1 8 11 16 24 28 31 34 48 ,1 8 11 16 24 28 31 34 48 
1 8 11 16 24 28 31 34 48 ,1 8 11 16 24 28 31 34 48 
1 8 11 16 24 28 31 34 48 ,1 8 11 16 24 28 31 34 48 
1 8 11 16 24 28 31 48 ,1 8 11 16 24 28 31 34 48 
1 8 11 16 24 28 31 48 ,1 8 11 16 24 28 31 48 
1 8 11 24 28 31 48 ,1 8 11 16 24 28 31 48 
1 11 24 28 31 48 ,1 8 11 24 28 31 48 
1 11 24 28 31 48 ,1 11 24 28 31 48 
1 11 24 28 31 48 ,1 11 24 28 31 48 
1 11 24 28 31 48 ,1 11 24 28 31 48 
1 11 24 28 31 48 ,1 11 24 28 31 48 
1 11 24 28 31 48 ,1 11 24 28 31 48 
1 11 24 28 31 ,1 11 24 28 31 48 
1 11 24 28 31 ,1 11 24 28 31 
1 11 24 28 31 ,1 11 24 28 31 
1 11 24 28 31 40 ,1 11 24 28 31 
1 11 24 28 31 40 ,1 11 24 28 31 40 
1 11 24 28 31 40 ,1 11 24 28 31 40 
1 11 24 28 31 40 ,1 11 24 28 31 40 
1 24 28 31 40 ,1 11 24 28 31 40 
1 24 28 31 40 ,1 24 28 31 40 
24 28 31 40 ,1 24 28 31 40 
24 28 40 ,24 28 31 40 
11 24 28 ,24 28 40 
11 24 28 ,11 24 28 
11 24 28 ,11 24 28 
11 24 28 ,11 24 28 
24 28 ,11 24 28 
24 28 ,24 28 
24 ,24 28 
,24 
,
,
24 ,
,24 
,
,
,
,
,
,
-------------
-------
1(-1)->3 4 8 11 16 18 24 28 31 34 35 38 40 48 49 
3(-1)->1 4 8 10 11 14 16 18 19 21 22 24 25 28 30 31 34 35 37 38 40 42 43 46 48 49 
4(-1)->1 3 16 18 22 25 30 34 35 37 38 43 46 48 
6(-1)->
8(-1)->1 3 11 16 18 24 28 31 34 38 40 48 49 
9(-1)->35 40 
10(-1)->3 16 24 35 40 
11(-1)->1 3 8 16 24 28 31 34 38 40 48 49 
14(-1)->3 16 19 22 25 28 30 42 43 46 48 
16(-1)->1 3 4 8 10 11 14 18 19 21 22 24 25 28 30 31 34 35 37 38 40 42 43 46 48 49 
18(-1)->1 3 4 8 16 30 31 34 35 38 48 49 
19(-1)->3 14 16 22 25 28 30 34 42 43 46 48 
21(-1)->3 16 24 31 40 42 46 
22(-1)->3 4 14 16 19 25 30 34 37 43 46 48 
24(-1)->1 3 8 10 11 16 21 28 31 34 35 38 40 42 46 48 49 
25(-1)->3 4 14 16 19 22 30 34 37 43 46 48 
28(-1)->1 3 8 11 14 16 19 24 30 31 34 40 42 46 48 
30(-1)->3 4 14 16 18 19 22 25 28 34 37 43 46 48 
31(-1)->1 3 8 11 16 18 21 24 28 34 38 40 42 46 48 49 
34(-1)->1 3 4 8 11 16 18 19 22 24 25 28 30 31 35 37 38 40 43 46 48 49 
35(-1)->1 3 4 9 10 16 18 24 34 38 40 48 
37(-1)->3 4 16 22 25 30 34 43 46 48 
38(-1)->1 3 4 8 11 16 18 24 31 34 35 40 48 49 
40(-1)->1 3 8 9 10 11 16 21 24 28 31 34 35 38 42 46 48 49 
42(-1)->3 14 16 19 21 24 28 31 40 46 
43(-1)->3 4 14 16 19 22 25 30 34 37 46 48 
46(-1)->3 4 14 16 19 21 22 24 25 28 30 31 34 37 40 42 43 48 
48(-1)->1 3 4 8 11 14 16 18 19 22 24 25 28 30 31 34 35 37 38 40 43 46 49 
49(-1)->1 3 8 11 16 18 24 31 34 38 40 48 
-------
Node 3 maps to position 0
Node 16 maps to position 1
Node 48 maps to position 2
Node 34 maps to position 3
Node 40 maps to position 4
Node 46 maps to position 5
Node 24 maps to position 6
Node 31 maps to position 7
Node 1 maps to position 8
Node 28 maps to position 9
Node 4 maps to position 10
Node 30 maps to position 11
Node 38 maps to position 12
Node 8 maps to position 13
Node 11 maps to position 14
Node 18 maps to position 15
Node 19 maps to position 16
Node 22 maps to position 17
Node 25 maps to position 18
Node 35 maps to position 19
Node 43 maps to position 20
Node 49 maps to position 21
Node 14 maps to position 22
Node 37 maps to position 23
Node 42 maps to position 24
Node 21 maps to position 25
Node 10 maps to position 26
Node 9 maps to position 27
Node 6 maps to position 28
3(-1)->1 4 8 10 11 14 16 18 19 21 22 24 25 28 30 31 34 35 37 38 40 42 43 46 48 49 
16(-1)->1 3 4 8 10 11 14 18 19 21 22 24 25 28 30 31 34 35 37 38 40 42 43 46 48 49 
48(-1)->1 3 4 8 11 14 16 18 19 22 24 25 28 30 31 34 35 37 38 40 43 46 49 
34(-1)->1 3 4 8 11 16 18 19 22 24 25 28 30 31 35 37 38 40 43 46 48 49 
40(-1)->1 3 8 9 10 11 16 21 24 28 31 34 35 38 42 46 48 49 
46(-1)->3 4 14 16 19 21 22 24 25 28 30 31 34 37 40 42 43 48 
24(-1)->1 3 8 10 11 16 21 28 31 34 35 38 40 42 46 48 49 
31(-1)->1 3 8 11 16 18 21 24 28 34 38 40 42 46 48 49 
1(-1)->3 4 8 11 16 18 24 28 31 34 35 38 40 48 49 
28(-1)->1 3 8 11 14 16 19 24 30 31 34 40 42 46 48 
4(-1)->1 3 16 18 22 25 30 34 35 37 38 43 46 48 
30(-1)->3 4 14 16 18 19 22 25 28 34 37 43 46 48 
38(-1)->1 3 4 8 11 16 18 24 31 34 35 40 48 49 
8(-1)->1 3 11 16 18 24 28 31 34 38 40 48 49 
11(-1)->1 3 8 16 24 28 31 34 38 40 48 49 
18(-1)->1 3 4 8 16 30 31 34 35 38 48 49 
19(-1)->3 14 16 22 25 28 30 34 42 43 46 48 
22(-1)->3 4 14 16 19 25 30 34 37 43 46 48 
25(-1)->3 4 14 16 19 22 30 34 37 43 46 48 
35(-1)->1 3 4 9 10 16 18 24 34 38 40 48 
43(-1)->3 4 14 16 19 22 25 30 34 37 46 48 
49(-1)->1 3 8 11 16 18 24 31 34 38 40 48 
14(-1)->3 16 19 22 25 28 30 42 43 46 48 
37(-1)->3 4 16 22 25 30 34 43 46 48 
42(-1)->3 14 16 19 21 24 28 31 40 46 
21(-1)->3 16 24 31 40 42 46 
10(-1)->3 16 24 35 40 
9(-1)->35 40 
6(-1)->
-------
BLAH
START TIME: 1433732182
Cq = 11 and is assigned to x21
BACKTRACKED TO DEPTH: 20
0 1 2 3 4 5 6 7 8 9 10 
10000
1(5)->3 4 8 11 16 18 24 28 31 34 35 38 40 48 49 
3(0)->1 4 8 10 11 14 16 18 19 21 22 24 25 28 30 31 34 35 37 38 40 42 43 46 48 49 
4(4)->1 3 16 18 22 25 30 34 35 37 38 43 46 48 
6(0)->
8(9)->1 3 11 16 18 24 28 31 34 38 40 48 49 
9(0)->35 40 
10(2)->3 16 24 35 40 
11(10)->1 3 8 16 24 28 31 34 38 40 48 49 
14(3)->3 16 19 22 25 28 30 42 43 46 48 
16(1)->1 3 4 8 10 11 14 18 19 21 22 24 25 28 30 31 34 35 37 38 40 42 43 46 48 49 
18(10)->1 3 4 8 16 30 31 34 35 38 48 49 
19(4)->3 14 16 22 25 28 30 34 42 43 46 48 
21(3)->3 16 24 31 40 42 46 
22(7)->3 4 14 16 19 25 30 34 37 43 46 48 
24(6)->1 3 8 10 11 16 21 28 31 34 35 38 40 42 46 48 49 
25(8)->3 4 14 16 19 22 30 34 37 43 46 48 
28(8)->1 3 8 11 14 16 19 24 30 31 34 40 42 46 48 
30(6)->3 4 14 16 18 19 22 25 28 34 37 43 46 48 
31(7)->1 3 8 11 16 18 21 24 28 34 38 40 42 46 48 49 
34(3)->1 3 4 8 11 16 18 19 22 24 25 28 30 31 35 37 38 40 43 46 48 49 
35(7)->1 3 4 9 10 16 18 24 34 38 40 48 
37(10)->3 4 16 22 25 30 34 43 46 48 
38(8)->1 3 4 8 11 16 18 24 31 34 35 40 48 49 
40(4)->1 3 8 9 10 11 16 21 24 28 31 34 35 38 42 46 48 49 
42(2)->3 14 16 19 21 24 28 31 40 46 
43(9)->3 4 14 16 19 22 25 30 34 37 46 48 
46(5)->3 4 14 16 19 21 22 24 25 28 30 31 34 37 40 42 43 48 
48(2)->1 3 4 8 11 14 16 18 19 22 24 25 28 30 31 34 35 37 38 40 43 46 49 
49(11)->1 3 8 11 16 18 24 31 34 38 40 48 
COUNT: 19015
COLORS: 12
EDGES: 0
12
19015
