49=-1,-1,-1
36=-1,-1,-1
13=-1,-1,-1
-1=-1,-1,-1
33=-1,-1,-1
-1=-1,-1,-1
-1=-1,-1,-1
-1=-1,-1,-1
42=-1,-1,-1
12=13,-1,-1
14=-1,-1,-1
-1=-1,-1,-1
-1=-1,-1,-1
-1=-1,-1,-1
13=-1,-1,-1
-1=-1,-1,-1
32=-1,-1,-1
-1=13,33,-1
-1=36,-1,-1
-1=-1,-1,-1
-1=-1,-1,-1
-1=-1,-1,-1
-1=-1,-1,-1
-1=-1,-1,-1
-1=-1,-1,-1
4=-1,-1,-1
-1=-1,-1,-1
-1=-1,-1,-1
48=-1,-1,-1
-1=-1,-1,-1
-1=-1,-1,-1
-1=-1,-1,-1
-1=-1,-1,-1
-1=-1,-1,-1
-1=-1,-1,-1
39=4,-1,-1
35=-1,-1,-1
-1=42,-1,-1
-1=14,-1,-1
-1=49,-1,-1
-1=-1,-1,-1
8=-1,-1,-1
-1=-1,-1,-1
-1=-1,-1,-1
46=-1,-1,-1
-1=-1,-1,-1
-1=-1,-1,-1
13=-1,-1,-1
18=12,-1,-1
-1=-1,-1,-1
-1=-1,-1,-1
-1=39,-1,-1
-1=-1,-1,-1
-1=-1,-1,-1
20=8,-1,-1
34=-1,-1,-1
-1=-1,-1,-1
39=-1,-1,-1
-1=39,-1,-1
39=-1,-1,-1
-1=-1,-1,-1
22=-1,-1,-1
21=-1,-1,-1
-1=-1,-1,-1
-1=13,20,-1
-1=-1,-1,-1
-1=-1,-1,-1
5=-1,-1,-1
27=-1,-1,-1
-1=-1,-1,-1
-1=35,-1,-1
-1=-1,-1,-1
-1=-1,-1,-1
-1=-1,-1,-1
1=-1,-1,-1
20=-1,-1,-1
-1=-1,-1,-1
-1=-1,-1,-1
-1=22,-1,-1
-1=34,-1,-1
42=-1,-1,-1
44=-1,-1,-1
49=-1,-1,-1
-1=49,-1,-1
-1=-1,-1,-1
-1=-1,-1,-1
49=-1,-1,-1
-1=-1,-1,-1
31=-1,-1,-1
-1=-1,-1,-1
-1=-1,-1,-1
7=-1,-1,-1
-1=-1,-1,-1
-1=49,-1,-1
22=-1,-1,-1
-1=-1,-1,-1
-1=-1,-1,-1
-1=-1,-1,-1
-1=-1,-1,-1
-1=-1,-1,-1
10=31,39,-1
-1=32,-1,-1
37=-1,-1,-1
-1=-1,-1,-1
-1=-1,-1,-1
19=18,-1,-1
-1=-1,-1,-1
49=1,-1,-1
-1=19,-1,-1
-1=-1,-1,-1
-1=7,-1,-1
12=22,-1,-1
-1=48,-1,-1
-1=10,-1,-1
-1=-1,-1,-1
31=5,-1,-1
-1=27,-1,-1
-1=-1,-1,-1
-1=-1,-1,-1
-1=21,-1,-1
15=-1,-1,-1
-1=20,-1,-1
-1=-1,-1,-1
-1=-1,-1,-1
-1=-1,-1,-1
-1=-1,-1,-1
-1=-1,-1,-1
-1=15,-1,-1
-1=-1,-1,-1
-1=-1,-1,-1
-1=12,-1,-1
-1=-1,-1,-1
19=-1,-1,-1
-1=-1,-1,-1
-1=19,44,-1
-1=-1,-1,-1
-1=37,-1,-1
-1=-1,-1,-1
-1=-1,-1,-1
-1=-1,-1,-1
-1=-1,-1,-1
-1=-1,-1,-1
-1=-1,-1,-1
-1=-1,-1,-1
-1=-1,-1,-1
-1=42,-1,-1
-1=49,-1,-1
-1=-1,-1,-1
-1=31,-1,-1
-1=-1,-1,-1
37=-1,-1,-1
-1=-1,-1,-1
-1=37,-1,-1
42=-1,-1,-1
-1=-1,-1,-1
-1=-1,-1,-1
-1=-1,-1,-1
-1=-1,-1,-1
-1=-1,-1,-1
-1=-1,-1,-1
-1=-1,-1,-1
-1=-1,-1,-1
-1=-1,-1,-1
-1=-1,-1,-1
-1=-1,-1,-1
41=-1,-1,-1
-1=-1,-1,-1
-1=42,-1,-1
-1=-1,-1,-1
-1=-1,-1,-1
-1=-1,-1,-1
-1=-1,-1,-1
-1=-1,-1,-1
-1=46,-1,-1
-1=-1,-1,-1
-1=-1,-1,-1
-1=41,-1,-1
31=-1,-1,-1
-1=-1,-1,-1
24=31,-1,-1
-1=-1,-1,-1
-1=-1,-1,-1
-1=-1,-1,-1
31=-1,-1,-1
-1=-1,-1,-1
-1=-1,-1,-1
-1=-1,-1,-1
46=-1,-1,-1
-1=24,-1,-1
-1=-1,-1,-1
-1=-1,-1,-1
-1=31,-1,-1
-1=46,-1,-1
-1=-1,-1,-1
-1=-1,-1,-1
-1=-1,-1,-1
-1=-1,-1,-1
-1=-1,-1,-1
-1=-1,-1,-1
-1=-1,-1,-1
--------
,
,
,
,
,
,
,
46 ,
31 46 ,46 
31 46 ,31 46 
31 46 ,31 46 
24 31 46 ,31 46 
24 31 ,24 31 46 
24 31 ,24 31 
24 31 ,24 31 
24 31 ,24 31 
24 ,24 31 
24 ,24 
24 ,24 
24 ,24 
31 ,24 
31 ,31 
,31 
41 ,
41 ,41 
41 ,41 
41 46 ,41 
41 46 ,41 46 
41 46 ,41 46 
41 46 ,41 46 
41 46 ,41 46 
41 46 ,41 46 
41 42 46 ,41 46 
41 42 46 ,41 42 46 
42 46 ,41 42 46 
42 46 ,42 46 
42 46 ,42 46 
42 46 ,42 46 
42 46 ,42 46 
42 46 ,42 46 
42 46 ,42 46 
42 46 ,42 46 
42 46 ,42 46 
42 46 ,42 46 
42 46 ,42 46 
42 46 ,42 46 
46 ,42 46 
37 46 ,46 
37 46 ,37 46 
46 ,37 46 
46 ,46 
31 46 ,46 
31 46 ,31 46 
31 46 49 ,31 46 
31 42 46 49 ,31 46 49 
31 42 46 49 ,31 42 46 49 
31 42 46 49 ,31 42 46 49 
31 42 46 49 ,31 42 46 49 
31 42 46 49 ,31 42 46 49 
31 42 46 49 ,31 42 46 49 
31 42 46 49 ,31 42 46 49 
31 42 46 49 ,31 42 46 49 
31 42 46 49 ,31 42 46 49 
31 37 42 46 49 ,31 42 46 49 
31 37 42 46 49 ,31 37 42 46 49 
19 31 37 42 44 46 49 ,31 37 42 46 49 
19 31 37 42 44 46 49 ,19 31 37 42 44 46 49 
31 37 42 44 46 49 ,19 31 37 42 44 46 49 
31 37 42 44 46 49 ,31 37 42 44 46 49 
12 31 37 42 44 46 49 ,31 37 42 44 46 49 
12 31 37 42 44 46 49 ,12 31 37 42 44 46 49 
12 31 37 42 44 46 49 ,12 31 37 42 44 46 49 
12 15 31 37 42 44 46 49 ,12 31 37 42 44 46 49 
12 15 31 37 42 44 46 49 ,12 15 31 37 42 44 46 49 
12 15 31 37 42 44 46 49 ,12 15 31 37 42 44 46 49 
12 15 31 37 42 44 46 49 ,12 15 31 37 42 44 46 49 
12 15 31 37 42 44 46 49 ,12 15 31 37 42 44 46 49 
12 15 31 37 42 44 46 49 ,12 15 31 37 42 44 46 49 
12 15 20 31 37 42 44 46 49 ,12 15 31 37 42 44 46 49 
12 20 31 37 42 44 46 49 ,12 15 20 31 37 42 44 46 49 
12 20 21 31 37 42 44 46 49 ,12 20 31 37 42 44 46 49 
12 20 21 31 37 42 44 46 49 ,12 20 21 31 37 42 44 46 49 
12 20 21 31 37 42 44 46 49 ,12 20 21 31 37 42 44 46 49 
12 20 21 27 31 37 42 44 46 49 ,12 20 21 31 37 42 44 46 49 
5 12 20 21 27 37 42 44 46 49 ,12 20 21 27 31 37 42 44 46 49 
5 12 20 21 27 37 42 44 46 49 ,5 12 20 21 27 37 42 44 46 49 
5 10 12 20 21 27 37 42 44 46 49 ,5 12 20 21 27 37 42 44 46 49 
5 10 12 20 21 27 37 42 44 46 48 49 ,5 10 12 20 21 27 37 42 44 46 49 
5 10 20 21 22 27 37 42 44 46 48 49 ,5 10 12 20 21 27 37 42 44 46 48 49 
5 7 10 20 21 22 27 37 42 44 46 48 49 ,5 10 20 21 22 27 37 42 44 46 48 49 
5 7 10 20 21 22 27 37 42 44 46 48 49 ,5 7 10 20 21 22 27 37 42 44 46 48 49 
5 7 10 19 20 21 22 27 37 42 44 46 48 49 ,5 7 10 20 21 22 27 37 42 44 46 48 49 
1 5 7 10 19 20 21 22 27 37 42 44 46 48 ,5 7 10 19 20 21 22 27 37 42 44 46 48 49 
1 5 7 10 19 20 21 22 27 37 42 44 46 48 ,1 5 7 10 19 20 21 22 27 37 42 44 46 48 
1 5 7 10 18 20 21 22 27 37 42 44 46 48 ,1 5 7 10 19 20 21 22 27 37 42 44 46 48 
1 5 7 10 18 20 21 22 27 37 42 44 46 48 ,1 5 7 10 18 20 21 22 27 37 42 44 46 48 
1 5 7 10 18 20 21 22 27 37 42 44 46 48 ,1 5 7 10 18 20 21 22 27 37 42 44 46 48 
1 5 7 10 18 20 21 22 27 42 44 46 48 ,1 5 7 10 18 20 21 22 27 37 42 44 46 48 
1 5 7 10 18 20 21 22 27 32 42 44 46 48 ,1 5 7 10 18 20 21 22 27 42 44 46 48 
1 5 7 18 20 21 22 27 31 32 39 42 44 46 48 ,1 5 7 10 18 20 21 22 27 32 42 44 46 48 
1 5 7 18 20 21 22 27 31 32 39 42 44 46 48 ,1 5 7 18 20 21 22 27 31 32 39 42 44 46 48 
1 5 7 18 20 21 22 27 31 32 39 42 44 46 48 ,1 5 7 18 20 21 22 27 31 32 39 42 44 46 48 
1 5 7 18 20 21 22 27 31 32 39 42 44 46 48 ,1 5 7 18 20 21 22 27 31 32 39 42 44 46 48 
1 5 7 18 20 21 22 27 31 32 39 42 44 46 48 ,1 5 7 18 20 21 22 27 31 32 39 42 44 46 48 
1 5 7 18 20 21 22 27 31 32 39 42 44 46 48 ,1 5 7 18 20 21 22 27 31 32 39 42 44 46 48 
1 5 7 18 20 21 27 31 32 39 42 44 46 48 ,1 5 7 18 20 21 22 27 31 32 39 42 44 46 48 
1 5 7 18 20 21 27 31 32 39 42 44 46 48 49 ,1 5 7 18 20 21 27 31 32 39 42 44 46 48 
1 5 7 18 20 21 27 31 32 39 42 44 46 48 49 ,1 5 7 18 20 21 27 31 32 39 42 44 46 48 49 
1 5 18 20 21 27 31 32 39 42 44 46 48 49 ,1 5 7 18 20 21 27 31 32 39 42 44 46 48 49 
1 5 18 20 21 27 31 32 39 42 44 46 48 49 ,1 5 18 20 21 27 31 32 39 42 44 46 48 49 
1 5 18 20 21 27 31 32 39 42 44 46 48 49 ,1 5 18 20 21 27 31 32 39 42 44 46 48 49 
1 5 18 20 21 27 32 39 42 44 46 48 49 ,1 5 18 20 21 27 31 32 39 42 44 46 48 49 
1 5 18 20 21 27 32 39 42 44 46 48 49 ,1 5 18 20 21 27 32 39 42 44 46 48 49 
1 5 18 20 21 27 32 39 42 44 46 48 ,1 5 18 20 21 27 32 39 42 44 46 48 49 
1 5 18 20 21 27 32 39 42 44 46 48 ,1 5 18 20 21 27 32 39 42 44 46 48 
1 5 18 20 21 27 32 39 42 44 46 48 ,1 5 18 20 21 27 32 39 42 44 46 48 
1 5 18 20 21 27 32 39 42 44 46 48 49 ,1 5 18 20 21 27 32 39 42 44 46 48 
1 5 18 20 21 27 32 39 42 44 46 48 ,1 5 18 20 21 27 32 39 42 44 46 48 49 
1 5 18 20 21 27 32 39 42 46 48 ,1 5 18 20 21 27 32 39 42 44 46 48 
1 5 18 20 21 27 32 39 46 48 ,1 5 18 20 21 27 32 39 42 46 48 
1 5 18 20 21 27 32 34 39 46 48 ,1 5 18 20 21 27 32 39 46 48 
1 5 18 20 21 22 27 32 34 39 46 48 ,1 5 18 20 21 27 32 34 39 46 48 
1 5 18 20 21 22 27 32 34 39 46 48 ,1 5 18 20 21 22 27 32 34 39 46 48 
1 5 18 20 21 22 27 32 34 39 46 48 ,1 5 18 20 21 22 27 32 34 39 46 48 
1 5 18 21 22 27 32 34 39 46 48 ,1 5 18 20 21 22 27 32 34 39 46 48 
5 18 21 22 27 32 34 39 46 48 ,1 5 18 21 22 27 32 34 39 46 48 
5 18 21 22 27 32 34 39 46 48 ,5 18 21 22 27 32 34 39 46 48 
5 18 21 22 27 32 34 39 46 48 ,5 18 21 22 27 32 34 39 46 48 
5 18 21 22 27 32 34 39 46 48 ,5 18 21 22 27 32 34 39 46 48 
5 18 21 22 27 32 34 35 39 46 48 ,5 18 21 22 27 32 34 39 46 48 
5 18 21 22 27 32 34 35 39 46 48 ,5 18 21 22 27 32 34 35 39 46 48 
5 18 21 22 32 34 35 39 46 48 ,5 18 21 22 27 32 34 35 39 46 48 
18 21 22 32 34 35 39 46 48 ,5 18 21 22 32 34 35 39 46 48 
18 21 22 32 34 35 39 46 48 ,18 21 22 32 34 35 39 46 48 
18 21 22 32 34 35 39 46 48 ,18 21 22 32 34 35 39 46 48 
13 18 20 21 22 32 34 35 39 46 48 ,18 21 22 32 34 35 39 46 48 
13 18 20 21 22 32 34 35 39 46 48 ,13 18 20 21 22 32 34 35 39 46 48 
13 18 20 22 32 34 35 39 46 48 ,13 18 20 21 22 32 34 35 39 46 48 
13 18 20 32 34 35 39 46 48 ,13 18 20 22 32 34 35 39 46 48 
13 18 20 32 34 35 39 46 48 ,13 18 20 32 34 35 39 46 48 
13 18 20 32 34 35 46 48 ,13 18 20 32 34 35 39 46 48 
13 18 20 32 34 35 39 46 48 ,13 18 20 32 34 35 46 48 
13 18 20 32 34 35 46 48 ,13 18 20 32 34 35 39 46 48 
13 18 20 32 34 35 46 48 ,13 18 20 32 34 35 46 48 
13 18 20 32 35 46 48 ,13 18 20 32 34 35 46 48 
8 13 18 32 35 46 48 ,13 18 20 32 35 46 48 
8 13 18 32 35 46 48 ,8 13 18 32 35 46 48 
8 13 18 32 35 46 48 ,8 13 18 32 35 46 48 
8 13 18 32 35 39 46 48 ,8 13 18 32 35 46 48 
8 13 18 32 35 39 46 48 ,8 13 18 32 35 39 46 48 
8 13 18 32 35 39 46 48 ,8 13 18 32 35 39 46 48 
8 12 13 32 35 39 46 48 ,8 13 18 32 35 39 46 48 
8 12 32 35 39 46 48 ,8 12 13 32 35 39 46 48 
8 12 32 35 39 46 48 ,8 12 32 35 39 46 48 
8 12 32 35 39 46 48 ,8 12 32 35 39 46 48 
8 12 32 35 39 48 ,8 12 32 35 39 46 48 
8 12 32 35 39 48 ,8 12 32 35 39 48 
8 12 32 35 39 48 ,8 12 32 35 39 48 
12 32 35 39 48 ,8 12 32 35 39 48 
12 32 35 39 48 ,12 32 35 39 48 
12 32 35 39 48 49 ,12 32 35 39 48 
12 14 32 35 39 48 49 ,12 32 35 39 48 49 
12 14 32 35 39 42 48 49 ,12 14 32 35 39 48 49 
12 14 32 39 42 48 49 ,12 14 32 35 39 42 48 49 
4 12 14 32 42 48 49 ,12 14 32 39 42 48 49 
4 12 14 32 42 48 49 ,4 12 14 32 42 48 49 
4 12 14 32 42 48 49 ,4 12 14 32 42 48 49 
4 12 14 32 42 48 49 ,4 12 14 32 42 48 49 
4 12 14 32 42 48 49 ,4 12 14 32 42 48 49 
4 12 14 32 42 48 49 ,4 12 14 32 42 48 49 
4 12 14 32 42 48 49 ,4 12 14 32 42 48 49 
4 12 14 32 42 49 ,4 12 14 32 42 48 49 
4 12 14 32 42 49 ,4 12 14 32 42 49 
4 12 14 32 42 49 ,4 12 14 32 42 49 
12 14 32 42 49 ,4 12 14 32 42 49 
12 14 32 42 49 ,12 14 32 42 49 
12 14 32 42 49 ,12 14 32 42 49 
12 14 32 42 49 ,12 14 32 42 49 
12 14 32 42 49 ,12 14 32 42 49 
12 14 32 42 49 ,12 14 32 42 49 
12 14 32 42 49 ,12 14 32 42 49 
12 14 32 36 42 49 ,12 14 32 42 49 
12 13 14 32 33 36 42 49 ,12 14 32 36 42 49 
12 13 14 33 36 42 49 ,12 13 14 32 33 36 42 49 
12 13 14 33 36 42 49 ,12 13 14 33 36 42 49 
12 14 33 36 42 49 ,12 13 14 33 36 42 49 
12 14 33 36 42 49 ,12 14 33 36 42 49 
12 14 33 36 42 49 ,12 14 33 36 42 49 
12 14 33 36 42 49 ,12 14 33 36 42 49 
12 33 36 42 49 ,12 14 33 36 42 49 
13 33 36 42 49 ,12 33 36 42 49 
13 33 36 49 ,13 33 36 42 49 
13 33 36 49 ,13 33 36 49 
13 33 36 49 ,13 33 36 49 
13 33 36 49 ,13 33 36 49 
13 36 49 ,13 33 36 49 
13 36 49 ,13 36 49 
36 49 ,13 36 49 
49 ,36 49 
,49 
--------
,
,
,
,
,
,
,
46 ,
31 46 ,46 
31 46 ,31 46 
31 46 ,31 46 
24 31 46 ,31 46 
24 31 ,24 31 46 
24 31 ,24 31 
24 31 ,24 31 
24 31 ,24 31 
24 ,24 31 
24 ,24 
24 ,24 
24 ,24 
31 ,24 
31 ,31 
,31 
41 ,
41 ,41 
41 ,41 
41 46 ,41 
41 46 ,41 46 
41 46 ,41 46 
41 46 ,41 46 
41 46 ,41 46 
41 46 ,41 46 
41 42 46 ,41 46 
41 42 46 ,41 42 46 
42 46 ,41 42 46 
42 46 ,42 46 
42 46 ,42 46 
42 46 ,42 46 
42 46 ,42 46 
42 46 ,42 46 
42 46 ,42 46 
42 46 ,42 46 
42 46 ,42 46 
42 46 ,42 46 
42 46 ,42 46 
42 46 ,42 46 
46 ,42 46 
37 46 ,46 
37 46 ,37 46 
46 ,37 46 
46 ,46 
31 46 ,46 
31 46 ,31 46 
31 46 49 ,31 46 
31 42 46 49 ,31 46 49 
31 42 46 49 ,31 42 46 49 
31 42 46 49 ,31 42 46 49 
31 42 46 49 ,31 42 46 49 
31 42 46 49 ,31 42 46 49 
31 42 46 49 ,31 42 46 49 
31 42 46 49 ,31 42 46 49 
31 42 46 49 ,31 42 46 49 
31 42 46 49 ,31 42 46 49 
31 37 42 46 49 ,31 42 46 49 
31 37 42 46 49 ,31 37 42 46 49 
19 31 37 42 44 46 49 ,31 37 42 46 49 
19 31 37 42 44 46 49 ,19 31 37 42 44 46 49 
31 37 42 44 46 49 ,19 31 37 42 44 46 49 
31 37 42 44 46 49 ,31 37 42 44 46 49 
12 31 37 42 44 46 49 ,31 37 42 44 46 49 
12 31 37 42 44 46 49 ,12 31 37 42 44 46 49 
12 31 37 42 44 46 49 ,12 31 37 42 44 46 49 
12 15 31 37 42 44 46 49 ,12 31 37 42 44 46 49 
12 15 31 37 42 44 46 49 ,12 15 31 37 42 44 46 49 
12 15 31 37 42 44 46 49 ,12 15 31 37 42 44 46 49 
12 15 31 37 42 44 46 49 ,12 15 31 37 42 44 46 49 
12 15 31 37 42 44 46 49 ,12 15 31 37 42 44 46 49 
12 15 31 37 42 44 46 49 ,12 15 31 37 42 44 46 49 
12 15 20 31 37 42 44 46 49 ,12 15 31 37 42 44 46 49 
12 20 31 37 42 44 46 49 ,12 15 20 31 37 42 44 46 49 
12 20 21 31 37 42 44 46 49 ,12 20 31 37 42 44 46 49 
12 20 21 31 37 42 44 46 49 ,12 20 21 31 37 42 44 46 49 
12 20 21 31 37 42 44 46 49 ,12 20 21 31 37 42 44 46 49 
12 20 21 27 31 37 42 44 46 49 ,12 20 21 31 37 42 44 46 49 
5 12 20 21 27 37 42 44 46 49 ,12 20 21 27 31 37 42 44 46 49 
5 12 20 21 27 37 42 44 46 49 ,5 12 20 21 27 37 42 44 46 49 
5 10 12 20 21 27 37 42 44 46 49 ,5 12 20 21 27 37 42 44 46 49 
5 10 12 20 21 27 37 42 44 46 48 49 ,5 10 12 20 21 27 37 42 44 46 49 
5 10 20 21 22 27 37 42 44 46 48 49 ,5 10 12 20 21 27 37 42 44 46 48 49 
5 7 10 20 21 22 27 37 42 44 46 48 49 ,5 10 20 21 22 27 37 42 44 46 48 49 
5 7 10 20 21 22 27 37 42 44 46 48 49 ,5 7 10 20 21 22 27 37 42 44 46 48 49 
5 7 10 19 20 21 22 27 37 42 44 46 48 49 ,5 7 10 20 21 22 27 37 42 44 46 48 49 
1 5 7 10 19 20 21 22 27 37 42 44 46 48 ,5 7 10 19 20 21 22 27 37 42 44 46 48 49 
1 5 7 10 19 20 21 22 27 37 42 44 46 48 ,1 5 7 10 19 20 21 22 27 37 42 44 46 48 
1 5 7 10 18 20 21 22 27 37 42 44 46 48 ,1 5 7 10 19 20 21 22 27 37 42 44 46 48 
1 5 7 10 18 20 21 22 27 37 42 44 46 48 ,1 5 7 10 18 20 21 22 27 37 42 44 46 48 
1 5 7 10 18 20 21 22 27 37 42 44 46 48 ,1 5 7 10 18 20 21 22 27 37 42 44 46 48 
1 5 7 10 18 20 21 22 27 42 44 46 48 ,1 5 7 10 18 20 21 22 27 37 42 44 46 48 
1 5 7 10 18 20 21 22 27 32 42 44 46 48 ,1 5 7 10 18 20 21 22 27 42 44 46 48 
1 5 7 18 20 21 22 27 31 32 39 42 44 46 48 ,1 5 7 10 18 20 21 22 27 32 42 44 46 48 
1 5 7 18 20 21 22 27 31 32 39 42 44 46 48 ,1 5 7 18 20 21 22 27 31 32 39 42 44 46 48 
1 5 7 18 20 21 22 27 31 32 39 42 44 46 48 ,1 5 7 18 20 21 22 27 31 32 39 42 44 46 48 
1 5 7 18 20 21 22 27 31 32 39 42 44 46 48 ,1 5 7 18 20 21 22 27 31 32 39 42 44 46 48 
1 5 7 18 20 21 22 27 31 32 39 42 44 46 48 ,1 5 7 18 20 21 22 27 31 32 39 42 44 46 48 
1 5 7 18 20 21 22 27 31 32 39 42 44 46 48 ,1 5 7 18 20 21 22 27 31 32 39 42 44 46 48 
1 5 7 18 20 21 27 31 32 39 42 44 46 48 ,1 5 7 18 20 21 22 27 31 32 39 42 44 46 48 
1 5 7 18 20 21 27 31 32 39 42 44 46 48 49 ,1 5 7 18 20 21 27 31 32 39 42 44 46 48 
1 5 7 18 20 21 27 31 32 39 42 44 46 48 49 ,1 5 7 18 20 21 27 31 32 39 42 44 46 48 49 
1 5 18 20 21 27 31 32 39 42 44 46 48 49 ,1 5 7 18 20 21 27 31 32 39 42 44 46 48 49 
1 5 18 20 21 27 31 32 39 42 44 46 48 49 ,1 5 18 20 21 27 31 32 39 42 44 46 48 49 
1 5 18 20 21 27 31 32 39 42 44 46 48 49 ,1 5 18 20 21 27 31 32 39 42 44 46 48 49 
1 5 18 20 21 27 32 39 42 44 46 48 49 ,1 5 18 20 21 27 31 32 39 42 44 46 48 49 
1 5 18 20 21 27 32 39 42 44 46 48 49 ,1 5 18 20 21 27 32 39 42 44 46 48 49 
1 5 18 20 21 27 32 39 42 44 46 48 ,1 5 18 20 21 27 32 39 42 44 46 48 49 
1 5 18 20 21 27 32 39 42 44 46 48 ,1 5 18 20 21 27 32 39 42 44 46 48 
1 5 18 20 21 27 32 39 42 44 46 48 ,1 5 18 20 21 27 32 39 42 44 46 48 
1 5 18 20 21 27 32 39 42 44 46 48 49 ,1 5 18 20 21 27 32 39 42 44 46 48 
1 5 18 20 21 27 32 39 42 44 46 48 ,1 5 18 20 21 27 32 39 42 44 46 48 49 
1 5 18 20 21 27 32 39 42 46 48 ,1 5 18 20 21 27 32 39 42 44 46 48 
1 5 18 20 21 27 32 39 46 48 ,1 5 18 20 21 27 32 39 42 46 48 
1 5 18 20 21 27 32 34 39 46 48 ,1 5 18 20 21 27 32 39 46 48 
1 5 18 20 21 22 27 32 34 39 46 48 ,1 5 18 20 21 27 32 34 39 46 48 
1 5 18 20 21 22 27 32 34 39 46 48 ,1 5 18 20 21 22 27 32 34 39 46 48 
1 5 18 20 21 22 27 32 34 39 46 48 ,1 5 18 20 21 22 27 32 34 39 46 48 
1 5 18 21 22 27 32 34 39 46 48 ,1 5 18 20 21 22 27 32 34 39 46 48 
5 18 21 22 27 32 34 39 46 48 ,1 5 18 21 22 27 32 34 39 46 48 
5 18 21 22 27 32 34 39 46 48 ,5 18 21 22 27 32 34 39 46 48 
5 18 21 22 27 32 34 39 46 48 ,5 18 21 22 27 32 34 39 46 48 
5 18 21 22 27 32 34 39 46 48 ,5 18 21 22 27 32 34 39 46 48 
5 18 21 22 27 32 34 35 39 46 48 ,5 18 21 22 27 32 34 39 46 48 
5 18 21 22 27 32 34 35 39 46 48 ,5 18 21 22 27 32 34 35 39 46 48 
5 18 21 22 32 34 35 39 46 48 ,5 18 21 22 27 32 34 35 39 46 48 
18 21 22 32 34 35 39 46 48 ,5 18 21 22 32 34 35 39 46 48 
18 21 22 32 34 35 39 46 48 ,18 21 22 32 34 35 39 46 48 
18 21 22 32 34 35 39 46 48 ,18 21 22 32 34 35 39 46 48 
13 18 20 21 22 32 34 35 39 46 48 ,18 21 22 32 34 35 39 46 48 
13 18 20 21 22 32 34 35 39 46 48 ,13 18 20 21 22 32 34 35 39 46 48 
13 18 20 22 32 34 35 39 46 48 ,13 18 20 21 22 32 34 35 39 46 48 
13 18 20 32 34 35 39 46 48 ,13 18 20 22 32 34 35 39 46 48 
13 18 20 32 34 35 39 46 48 ,13 18 20 32 34 35 39 46 48 
13 18 20 32 34 35 46 48 ,13 18 20 32 34 35 39 46 48 
13 18 20 32 34 35 39 46 48 ,13 18 20 32 34 35 46 48 
13 18 20 32 34 35 46 48 ,13 18 20 32 34 35 39 46 48 
13 18 20 32 34 35 46 48 ,13 18 20 32 34 35 46 48 
13 18 20 32 35 46 48 ,13 18 20 32 34 35 46 48 
8 13 18 32 35 46 48 ,13 18 20 32 35 46 48 
8 13 18 32 35 46 48 ,8 13 18 32 35 46 48 
8 13 18 32 35 46 48 ,8 13 18 32 35 46 48 
8 13 18 32 35 39 46 48 ,8 13 18 32 35 46 48 
8 13 18 32 35 39 46 48 ,8 13 18 32 35 39 46 48 
8 13 18 32 35 39 46 48 ,8 13 18 32 35 39 46 48 
8 12 13 32 35 39 46 48 ,8 13 18 32 35 39 46 48 
8 12 32 35 39 46 48 ,8 12 13 32 35 39 46 48 
8 12 32 35 39 46 48 ,8 12 32 35 39 46 48 
8 12 32 35 39 46 48 ,8 12 32 35 39 46 48 
8 12 32 35 39 48 ,8 12 32 35 39 46 48 
8 12 32 35 39 48 ,8 12 32 35 39 48 
8 12 32 35 39 48 ,8 12 32 35 39 48 
12 32 35 39 48 ,8 12 32 35 39 48 
12 32 35 39 48 ,12 32 35 39 48 
12 32 35 39 48 49 ,12 32 35 39 48 
12 14 32 35 39 48 49 ,12 32 35 39 48 49 
12 14 32 35 39 42 48 49 ,12 14 32 35 39 48 49 
12 14 32 39 42 48 49 ,12 14 32 35 39 42 48 49 
4 12 14 32 42 48 49 ,12 14 32 39 42 48 49 
4 12 14 32 42 48 49 ,4 12 14 32 42 48 49 
4 12 14 32 42 48 49 ,4 12 14 32 42 48 49 
4 12 14 32 42 48 49 ,4 12 14 32 42 48 49 
4 12 14 32 42 48 49 ,4 12 14 32 42 48 49 
4 12 14 32 42 48 49 ,4 12 14 32 42 48 49 
4 12 14 32 42 48 49 ,4 12 14 32 42 48 49 
4 12 14 32 42 49 ,4 12 14 32 42 48 49 
4 12 14 32 42 49 ,4 12 14 32 42 49 
4 12 14 32 42 49 ,4 12 14 32 42 49 
12 14 32 42 49 ,4 12 14 32 42 49 
12 14 32 42 49 ,12 14 32 42 49 
12 14 32 42 49 ,12 14 32 42 49 
12 14 32 42 49 ,12 14 32 42 49 
12 14 32 42 49 ,12 14 32 42 49 
12 14 32 42 49 ,12 14 32 42 49 
12 14 32 42 49 ,12 14 32 42 49 
12 14 32 36 42 49 ,12 14 32 42 49 
12 13 14 32 33 36 42 49 ,12 14 32 36 42 49 
12 13 14 33 36 42 49 ,12 13 14 32 33 36 42 49 
12 13 14 33 36 42 49 ,12 13 14 33 36 42 49 
12 14 33 36 42 49 ,12 13 14 33 36 42 49 
12 14 33 36 42 49 ,12 14 33 36 42 49 
12 14 33 36 42 49 ,12 14 33 36 42 49 
12 14 33 36 42 49 ,12 14 33 36 42 49 
12 33 36 42 49 ,12 14 33 36 42 49 
13 33 36 42 49 ,12 33 36 42 49 
13 33 36 49 ,13 33 36 42 49 
13 33 36 49 ,13 33 36 49 
13 33 36 49 ,13 33 36 49 
13 33 36 49 ,13 33 36 49 
13 36 49 ,13 33 36 49 
13 36 49 ,13 36 49 
36 49 ,13 36 49 
49 ,36 49 
,49 
-------------
-------
1(-1)->5 7 10 18 19 20 21 22 27 31 32 34 37 39 42 44 46 48 49 
4(-1)->12 14 32 42 48 49 
5(-1)->1 7 10 12 18 19 20 21 22 27 31 32 34 35 37 39 42 44 46 48 49 
7(-1)->1 5 10 18 19 20 21 22 27 31 32 37 39 42 44 46 48 49 
8(-1)->12 13 18 32 35 39 46 48 
10(-1)->1 5 7 12 18 19 20 21 22 27 32 37 42 44 46 48 49 
12(-1)->4 5 8 10 13 14 15 20 21 27 31 32 33 35 36 37 39 42 44 46 48 49 
13(-1)->8 12 14 18 20 21 22 32 33 34 35 36 39 42 46 48 49 
14(-1)->4 12 13 32 33 35 36 39 42 48 49 
15(-1)->12 20 31 37 42 44 46 49 
18(-1)->1 5 7 8 10 13 20 21 22 27 31 32 34 35 37 39 42 44 46 48 49 
19(-1)->1 5 7 10 20 21 22 27 31 37 42 44 46 48 49 
20(-1)->1 5 7 10 12 13 15 18 19 21 22 27 31 32 34 35 37 39 42 44 46 48 49 
21(-1)->1 5 7 10 12 13 18 19 20 22 27 31 32 34 35 37 39 42 44 46 48 49 
22(-1)->1 5 7 10 13 18 19 20 21 27 31 32 34 35 37 39 42 44 46 48 49 
24(-1)->31 46 
27(-1)->1 5 7 10 12 18 19 20 21 22 31 32 34 35 37 39 42 44 46 48 49 
31(-1)->1 5 7 12 15 18 19 20 21 22 24 27 32 37 39 42 44 46 48 49 
32(-1)->1 4 5 7 8 10 12 13 14 18 20 21 22 27 31 33 34 35 36 39 42 44 46 48 49 
33(-1)->12 13 14 32 36 42 49 
34(-1)->1 5 13 18 20 21 22 27 32 35 39 46 48 
35(-1)->5 8 12 13 14 18 20 21 22 27 32 34 39 42 46 48 49 
36(-1)->12 13 14 32 33 42 49 
37(-1)->1 5 7 10 12 15 18 19 20 21 22 27 31 42 44 46 48 49 
39(-1)->1 5 7 8 12 13 14 18 20 21 22 27 31 32 34 35 42 44 46 48 49 
41(-1)->42 46 
42(-1)->1 4 5 7 10 12 13 14 15 18 19 20 21 22 27 31 32 33 35 36 37 39 41 44 46 48 49 
44(-1)->1 5 7 10 12 15 18 19 20 21 22 27 31 32 37 39 42 46 48 49 
46(-1)->1 5 7 8 10 12 13 15 18 19 20 21 22 24 27 31 32 34 35 37 39 41 42 44 48 49 
48(-1)->1 4 5 7 8 10 12 13 14 18 19 20 21 22 27 31 32 34 35 37 39 42 44 46 49 
49(-1)->1 4 5 7 10 12 13 14 15 18 19 20 21 22 27 31 32 33 35 36 37 39 42 44 46 48 
-------
Node 42 maps to position 0
Node 46 maps to position 1
Node 49 maps to position 2
Node 32 maps to position 3
Node 48 maps to position 4
Node 20 maps to position 5
Node 12 maps to position 6
Node 21 maps to position 7
Node 5 maps to position 8
Node 18 maps to position 9
Node 22 maps to position 10
Node 27 maps to position 11
Node 39 maps to position 12
Node 31 maps to position 13
Node 44 maps to position 14
Node 1 maps to position 15
Node 7 maps to position 16
Node 37 maps to position 17
Node 10 maps to position 18
Node 13 maps to position 19
Node 35 maps to position 20
Node 19 maps to position 21
Node 34 maps to position 22
Node 14 maps to position 23
Node 8 maps to position 24
Node 15 maps to position 25
Node 33 maps to position 26
Node 36 maps to position 27
Node 4 maps to position 28
Node 24 maps to position 29
Node 41 maps to position 30
42(-1)->1 4 5 7 10 12 13 14 15 18 19 20 21 22 27 31 32 33 35 36 37 39 41 44 46 48 49 
46(-1)->1 5 7 8 10 12 13 15 18 19 20 21 22 24 27 31 32 34 35 37 39 41 42 44 48 49 
49(-1)->1 4 5 7 10 12 13 14 15 18 19 20 21 22 27 31 32 33 35 36 37 39 42 44 46 48 
32(-1)->1 4 5 7 8 10 12 13 14 18 20 21 22 27 31 33 34 35 36 39 42 44 46 48 49 
48(-1)->1 4 5 7 8 10 12 13 14 18 19 20 21 22 27 31 32 34 35 37 39 42 44 46 49 
20(-1)->1 5 7 10 12 13 15 18 19 21 22 27 31 32 34 35 37 39 42 44 46 48 49 
12(-1)->4 5 8 10 13 14 15 20 21 27 31 32 33 35 36 37 39 42 44 46 48 49 
21(-1)->1 5 7 10 12 13 18 19 20 22 27 31 32 34 35 37 39 42 44 46 48 49 
5(-1)->1 7 10 12 18 19 20 21 22 27 31 32 34 35 37 39 42 44 46 48 49 
18(-1)->1 5 7 8 10 13 20 21 22 27 31 32 34 35 37 39 42 44 46 48 49 
22(-1)->1 5 7 10 13 18 19 20 21 27 31 32 34 35 37 39 42 44 46 48 49 
27(-1)->1 5 7 10 12 18 19 20 21 22 31 32 34 35 37 39 42 44 46 48 49 
39(-1)->1 5 7 8 12 13 14 18 20 21 22 27 31 32 34 35 42 44 46 48 49 
31(-1)->1 5 7 12 15 18 19 20 21 22 24 27 32 37 39 42 44 46 48 49 
44(-1)->1 5 7 10 12 15 18 19 20 21 22 27 31 32 37 39 42 46 48 49 
1(-1)->5 7 10 18 19 20 21 22 27 31 32 34 37 39 42 44 46 48 49 
7(-1)->1 5 10 18 19 20 21 22 27 31 32 37 39 42 44 46 48 49 
37(-1)->1 5 7 10 12 15 18 19 20 21 22 27 31 42 44 46 48 49 
10(-1)->1 5 7 12 18 19 20 21 22 27 32 37 42 44 46 48 49 
13(-1)->8 12 14 18 20 21 22 32 33 34 35 36 39 42 46 48 49 
35(-1)->5 8 12 13 14 18 20 21 22 27 32 34 39 42 46 48 49 
19(-1)->1 5 7 10 20 21 22 27 31 37 42 44 46 48 49 
34(-1)->1 5 13 18 20 21 22 27 32 35 39 46 48 
14(-1)->4 12 13 32 33 35 36 39 42 48 49 
8(-1)->12 13 18 32 35 39 46 48 
15(-1)->12 20 31 37 42 44 46 49 
33(-1)->12 13 14 32 36 42 49 
36(-1)->12 13 14 32 33 42 49 
4(-1)->12 14 32 42 48 49 
24(-1)->31 46 
41(-1)->42 46 
-------
BLAH
START TIME: 1433732183
Cq = 15 and is assigned to x16
BACKTRACKED TO DEPTH: 15
0 1 2 3 4 5 6 7 8 9 10 11 12 13 14 
1(14)->5 7 10 18 19 20 21 22 27 31 32 34 37 39 42 44 46 48 49 
4(5)->12 14 32 42 48 49 
5(8)->1 7 10 12 18 19 20 21 22 27 31 32 34 35 37 39 42 44 46 48 49 
7(15)->1 5 10 18 19 20 21 22 27 31 32 37 39 42 44 46 48 49 
8(0)->12 13 18 32 35 39 46 48 
10(11)->1 5 7 12 18 19 20 21 22 27 32 37 42 44 46 48 49 
12(6)->4 5 8 10 13 14 15 20 21 27 31 32 33 35 36 37 39 42 44 46 48 49 
13(8)->8 12 14 18 20 21 22 32 33 34 35 36 39 42 46 48 49 
14(1)->4 12 13 32 33 35 36 39 42 48 49 
15(4)->12 20 31 37 42 44 46 49 
18(6)->1 5 7 8 10 13 20 21 22 27 31 32 34 35 37 39 42 44 46 48 49 
19(6)->1 5 7 10 20 21 22 27 31 37 42 44 46 48 49 
20(5)->1 5 7 10 12 13 15 18 19 21 22 27 31 32 34 35 37 39 42 44 46 48 49 
21(7)->1 5 7 10 12 13 18 19 20 22 27 31 32 34 35 37 39 42 44 46 48 49 
22(9)->1 5 7 10 13 18 19 20 21 27 31 32 34 35 37 39 42 44 46 48 49 
24(0)->31 46 
27(10)->1 5 7 10 12 18 19 20 21 22 31 32 34 35 37 39 42 44 46 48 49 
31(12)->1 5 7 12 15 18 19 20 21 22 24 27 32 37 39 42 44 46 48 49 
32(3)->1 4 5 7 8 10 12 13 14 18 20 21 22 27 31 33 34 35 36 39 42 44 46 48 49 
33(4)->12 13 14 32 36 42 49 
34(0)->1 5 13 18 20 21 22 27 32 35 39 46 48 
35(12)->5 8 12 13 14 18 20 21 22 27 32 34 39 42 46 48 49 
36(5)->12 13 14 32 33 42 49 
37(3)->1 5 7 10 12 15 18 19 20 21 22 27 31 42 44 46 48 49 
39(11)->1 5 7 8 12 13 14 18 20 21 22 27 31 32 34 35 42 44 46 48 49 
41(2)->42 46 
42(0)->1 4 5 7 10 12 13 14 15 18 19 20 21 22 27 31 32 33 35 36 37 39 41 44 46 48 49 
44(13)->1 5 7 10 12 15 18 19 20 21 22 27 31 32 37 39 42 46 48 49 
46(1)->1 5 7 8 10 12 13 15 18 19 20 21 22 24 27 31 32 34 35 37 39 41 42 44 48 49 
48(4)->1 4 5 7 8 10 12 13 14 18 19 20 21 22 27 31 32 34 35 37 39 42 44 46 49 
49(2)->1 4 5 7 10 12 13 14 15 18 19 20 21 22 27 31 32 33 35 36 37 39 42 44 46 48 
COUNT: 44
COLORS: 16
EDGES: 0
16
44
