-1=-1,-1,-1
-1=-1,-1,-1
-1=-1,-1,-1
-1=-1,-1,-1
-1=-1,-1,-1
-1=-1,-1,-1
-1=-1,-1,-1
-1=-1,-1,-1
-1=-1,-1,-1
-1=-1,-1,-1
-1=-1,-1,-1
-1=-1,-1,-1
-1=-1,-1,-1
-1=-1,-1,-1
-1=-1,-1,-1
-1=-1,-1,-1
-1=-1,-1,-1
-1=-1,-1,-1
-1=-1,-1,-1
-1=-1,-1,-1
-1=-1,-1,-1
-1=-1,-1,-1
-1=-1,-1,-1
-1=-1,-1,-1
-1=-1,-1,-1
22=-1,-1,-1
-1=-1,-1,-1
-1=-1,-1,-1
-1=-1,-1,-1
-1=-1,-1,-1
-1=-1,-1,-1
-1=-1,-1,-1
-1=-1,-1,-1
-1=-1,-1,-1
36=-1,-1,-1
-1=-1,-1,-1
-1=-1,-1,-1
-1=-1,-1,-1
25=-1,-1,-1
-1=-1,-1,-1
17=-1,-1,-1
-1=-1,-1,-1
29=17,-1,-1
49=-1,-1,-1
-1=-1,-1,-1
-1=-1,-1,-1
17=-1,-1,-1
-1=-1,-1,-1
-1=-1,-1,-1
28=-1,-1,-1
-1=-1,-1,-1
-1=-1,-1,-1
-1=-1,-1,-1
-1=-1,-1,-1
-1=-1,-1,-1
-1=-1,-1,-1
-1=-1,-1,-1
-1=-1,-1,-1
-1=-1,-1,-1
-1=-1,-1,-1
-1=-1,-1,-1
-1=-1,-1,-1
10=29,-1,-1
-1=-1,-1,-1
-1=-1,-1,-1
-1=-1,-1,-1
38=49,-1,-1
-1=-1,-1,-1
-1=-1,-1,-1
-1=38,-1,-1
-1=-1,-1,-1
-1=-1,-1,-1
-1=-1,-1,-1
-1=-1,-1,-1
-1=-1,-1,-1
-1=-1,-1,-1
-1=-1,-1,-1
-1=-1,-1,-1
-1=-1,-1,-1
-1=-1,-1,-1
-1=-1,-1,-1
-1=-1,-1,-1
-1=-1,-1,-1
-1=-1,-1,-1
-1=-1,-1,-1
-1=-1,-1,-1
-1=-1,-1,-1
31=-1,-1,-1
-1=-1,-1,-1
-1=-1,-1,-1
-1=-1,-1,-1
37=25,-1,-1
12=-1,-1,-1
-1=12,-1,-1
-1=-1,-1,-1
-1=-1,-1,-1
8=-1,-1,-1
-1=-1,-1,-1
29=28,-1,-1
-1=31,-1,-1
-1=-1,-1,-1
-1=-1,-1,-1
32=22,-1,-1
-1=-1,-1,-1
-1=-1,-1,-1
-1=-1,-1,-1
-1=-1,-1,-1
-1=-1,-1,-1
2=-1,-1,-1
-1=-1,-1,-1
7=-1,-1,-1
41=-1,-1,-1
-1=-1,-1,-1
22=-1,-1,-1
13=8,-1,-1
33=22,-1,-1
-1=13,-1,-1
26=-1,-1,-1
6=17,-1,-1
-1=-1,-1,-1
18=-1,-1,-1
-1=37,-1,-1
-1=33,-1,-1
-1=-1,-1,-1
34=-1,-1,-1
-1=29,34,-1
34=-1,-1,-1
-1=6,-1,-1
-1=-1,-1,-1
-1=-1,-1,-1
-1=-1,-1,-1
-1=-1,-1,-1
24=32,-1,-1
-1=-1,-1,-1
-1=-1,-1,-1
-1=-1,-1,-1
-1=-1,-1,-1
-1=-1,-1,-1
-1=-1,-1,-1
-1=7,34,-1
-1=10,-1,-1
38=-1,-1,-1
-1=-1,-1,-1
15=-1,-1,-1
48=-1,-1,-1
-1=-1,-1,-1
-1=38,-1,-1
-1=2,26,-1
-1=-1,-1,-1
-1=-1,-1,-1
-1=-1,-1,-1
-1=36,-1,-1
-1=-1,-1,-1
-1=-1,-1,-1
-1=-1,-1,-1
10=41,-1,-1
-1=24,-1,-1
32=18,-1,-1
-1=32,-1,-1
-1=48,-1,-1
-1=-1,-1,-1
-1=-1,-1,-1
-1=10,-1,-1
-1=15,-1,-1
-1=-1,-1,-1
-1=-1,-1,-1
23=-1,-1,-1
-1=-1,-1,-1
27=-1,-1,-1
-1=-1,-1,-1
-1=-1,-1,-1
-1=-1,-1,-1
-1=-1,-1,-1
-1=-1,-1,-1
-1=-1,-1,-1
-1=-1,-1,-1
-1=-1,-1,-1
-1=-1,-1,-1
-1=23,-1,-1
50=-1,-1,-1
-1=-1,-1,-1
37=-1,-1,-1
-1=27,-1,-1
-1=-1,-1,-1
-1=50,-1,-1
-1=-1,-1,-1
36=-1,-1,-1
42=37,-1,-1
-1=-1,-1,-1
6=42,-1,-1
-1=-1,-1,-1
-1=36,-1,-1
-1=6,-1,-1
-1=-1,-1,-1
43=-1,-1,-1
-1=43,-1,-1
14=-1,-1,-1
-1=14,-1,-1
-1=-1,-1,-1
-1=-1,-1,-1
--------
,
,
14 ,
,14 
43 ,
,43 
,
6 ,
6 36 ,6 
6 36 ,6 36 
36 42 ,6 36 
36 42 ,36 42 
36 37 ,36 42 
37 ,36 37 
37 ,37 
37 50 ,37 
37 50 ,37 50 
27 37 50 ,37 50 
27 50 ,27 37 50 
27 50 ,27 50 
27 ,27 50 
23 27 ,27 
23 27 ,23 27 
23 27 ,23 27 
23 27 ,23 27 
23 27 ,23 27 
23 27 ,23 27 
23 27 ,23 27 
23 27 ,23 27 
23 27 ,23 27 
23 27 ,23 27 
23 ,23 27 
23 ,23 
,23 
,
,
15 ,
10 15 ,15 
10 15 ,10 15 
10 15 ,10 15 
10 15 48 ,10 15 
10 15 32 48 ,10 15 48 
10 15 18 48 ,10 15 32 48 
10 15 18 24 48 ,10 15 18 48 
15 18 24 41 48 ,10 15 18 24 48 
15 18 24 41 48 ,15 18 24 41 48 
15 18 24 41 48 ,15 18 24 41 48 
15 18 24 41 48 ,15 18 24 41 48 
15 18 24 36 41 48 ,15 18 24 41 48 
15 18 24 36 41 48 ,15 18 24 36 41 48 
15 18 24 36 41 48 ,15 18 24 36 41 48 
15 18 24 36 41 48 ,15 18 24 36 41 48 
2 15 18 24 26 36 41 48 ,15 18 24 36 41 48 
2 15 18 24 26 36 38 41 48 ,2 15 18 24 26 36 41 48 
2 15 18 24 26 36 38 41 48 ,2 15 18 24 26 36 38 41 48 
2 15 18 24 26 36 38 41 ,2 15 18 24 26 36 38 41 48 
2 18 24 26 36 38 41 ,2 15 18 24 26 36 38 41 
2 18 24 26 36 38 41 ,2 18 24 26 36 38 41 
2 18 24 26 36 41 ,2 18 24 26 36 38 41 
2 10 18 24 26 36 41 ,2 18 24 26 36 41 
2 7 10 18 24 26 34 36 41 ,2 10 18 24 26 36 41 
2 7 10 18 24 26 34 36 41 ,2 7 10 18 24 26 34 36 41 
2 7 10 18 24 26 34 36 41 ,2 7 10 18 24 26 34 36 41 
2 7 10 18 24 26 34 36 41 ,2 7 10 18 24 26 34 36 41 
2 7 10 18 24 26 34 36 41 ,2 7 10 18 24 26 34 36 41 
2 7 10 18 24 26 34 36 41 ,2 7 10 18 24 26 34 36 41 
2 7 10 18 24 26 34 36 41 ,2 7 10 18 24 26 34 36 41 
2 7 10 18 26 32 34 36 41 ,2 7 10 18 24 26 34 36 41 
2 7 10 18 26 32 34 36 41 ,2 7 10 18 26 32 34 36 41 
2 7 10 18 26 32 34 36 41 ,2 7 10 18 26 32 34 36 41 
2 7 10 18 26 32 34 36 41 ,2 7 10 18 26 32 34 36 41 
2 7 10 18 26 32 34 36 41 ,2 7 10 18 26 32 34 36 41 
2 6 7 10 18 26 32 34 36 41 ,2 7 10 18 26 32 34 36 41 
2 6 7 10 18 26 32 36 41 ,2 6 7 10 18 26 32 34 36 41 
2 6 7 10 18 26 29 32 34 36 41 ,2 6 7 10 18 26 32 36 41 
2 6 7 10 18 26 29 32 36 41 ,2 6 7 10 18 26 29 32 34 36 41 
2 6 7 10 18 26 29 32 36 41 ,2 6 7 10 18 26 29 32 36 41 
2 6 7 10 18 26 29 32 33 36 41 ,2 6 7 10 18 26 29 32 36 41 
2 6 7 10 18 26 29 32 33 36 37 41 ,2 6 7 10 18 26 29 32 33 36 41 
2 6 7 10 26 29 32 33 36 37 41 ,2 6 7 10 18 26 29 32 33 36 37 41 
2 6 7 10 26 29 32 33 36 37 41 ,2 6 7 10 26 29 32 33 36 37 41 
2 7 10 17 26 29 32 33 36 37 41 ,2 6 7 10 26 29 32 33 36 37 41 
2 7 10 17 29 32 33 36 37 41 ,2 7 10 17 26 29 32 33 36 37 41 
2 7 10 13 17 29 32 33 36 37 41 ,2 7 10 17 29 32 33 36 37 41 
2 7 10 13 17 22 29 32 36 37 41 ,2 7 10 13 17 29 32 33 36 37 41 
2 7 8 10 17 22 29 32 36 37 41 ,2 7 10 13 17 22 29 32 36 37 41 
2 7 8 10 17 29 32 36 37 41 ,2 7 8 10 17 22 29 32 36 37 41 
2 7 8 10 17 29 32 36 37 41 ,2 7 8 10 17 29 32 36 37 41 
2 7 8 10 17 29 32 36 37 ,2 7 8 10 17 29 32 36 37 41 
2 8 10 17 29 32 36 37 ,2 7 8 10 17 29 32 36 37 
2 8 10 17 29 32 36 37 ,2 8 10 17 29 32 36 37 
8 10 17 29 32 36 37 ,2 8 10 17 29 32 36 37 
8 10 17 29 32 36 37 ,8 10 17 29 32 36 37 
8 10 17 29 32 36 37 ,8 10 17 29 32 36 37 
8 10 17 29 32 36 37 ,8 10 17 29 32 36 37 
8 10 17 29 32 36 37 ,8 10 17 29 32 36 37 
8 10 17 29 32 36 37 ,8 10 17 29 32 36 37 
8 10 17 22 29 36 37 ,8 10 17 29 32 36 37 
8 10 17 22 29 36 37 ,8 10 17 22 29 36 37 
8 10 17 22 29 36 37 ,8 10 17 22 29 36 37 
8 10 17 22 29 31 36 37 ,8 10 17 22 29 36 37 
8 10 17 22 28 31 36 37 ,8 10 17 22 29 31 36 37 
8 10 17 22 28 31 36 37 ,8 10 17 22 28 31 36 37 
10 17 22 28 31 36 37 ,8 10 17 22 28 31 36 37 
10 17 22 28 31 36 37 ,10 17 22 28 31 36 37 
10 17 22 28 31 36 37 ,10 17 22 28 31 36 37 
10 12 17 22 28 31 36 37 ,10 17 22 28 31 36 37 
10 17 22 28 31 36 37 ,10 12 17 22 28 31 36 37 
10 17 22 25 28 31 36 ,10 17 22 28 31 36 37 
10 17 22 25 28 31 36 ,10 17 22 25 28 31 36 
10 17 22 25 28 31 36 ,10 17 22 25 28 31 36 
10 17 22 25 28 31 36 ,10 17 22 25 28 31 36 
10 17 22 25 28 36 ,10 17 22 25 28 31 36 
10 17 22 25 28 36 ,10 17 22 25 28 36 
10 17 22 25 28 36 ,10 17 22 25 28 36 
10 17 22 25 28 36 ,10 17 22 25 28 36 
10 17 22 25 28 36 ,10 17 22 25 28 36 
10 17 22 25 28 36 ,10 17 22 25 28 36 
10 17 22 25 28 36 ,10 17 22 25 28 36 
10 17 22 25 28 36 ,10 17 22 25 28 36 
10 17 22 25 28 36 ,10 17 22 25 28 36 
10 17 22 25 28 36 ,10 17 22 25 28 36 
10 17 22 25 28 36 ,10 17 22 25 28 36 
10 17 22 25 28 36 ,10 17 22 25 28 36 
10 17 22 25 28 36 ,10 17 22 25 28 36 
10 17 22 25 28 36 ,10 17 22 25 28 36 
10 17 22 25 28 36 ,10 17 22 25 28 36 
10 17 22 25 28 36 ,10 17 22 25 28 36 
10 17 22 25 28 36 ,10 17 22 25 28 36 
10 17 22 25 28 36 ,10 17 22 25 28 36 
10 17 22 25 28 36 38 ,10 17 22 25 28 36 
10 17 22 25 28 36 38 ,10 17 22 25 28 36 38 
10 17 22 25 28 36 38 ,10 17 22 25 28 36 38 
10 17 22 25 28 36 49 ,10 17 22 25 28 36 38 
10 17 22 25 28 36 49 ,10 17 22 25 28 36 49 
10 17 22 25 28 36 49 ,10 17 22 25 28 36 49 
10 17 22 25 28 36 49 ,10 17 22 25 28 36 49 
17 22 25 28 29 36 49 ,10 17 22 25 28 36 49 
17 22 25 28 29 36 49 ,17 22 25 28 29 36 49 
17 22 25 28 29 36 49 ,17 22 25 28 29 36 49 
17 22 25 28 29 36 49 ,17 22 25 28 29 36 49 
17 22 25 28 29 36 49 ,17 22 25 28 29 36 49 
17 22 25 28 29 36 49 ,17 22 25 28 29 36 49 
17 22 25 28 29 36 49 ,17 22 25 28 29 36 49 
17 22 25 28 29 36 49 ,17 22 25 28 29 36 49 
17 22 25 28 29 36 49 ,17 22 25 28 29 36 49 
17 22 25 28 29 36 49 ,17 22 25 28 29 36 49 
17 22 25 28 29 36 49 ,17 22 25 28 29 36 49 
17 22 25 28 29 36 49 ,17 22 25 28 29 36 49 
17 22 25 28 29 36 49 ,17 22 25 28 29 36 49 
17 22 25 29 36 49 ,17 22 25 28 29 36 49 
17 22 25 29 36 49 ,17 22 25 29 36 49 
17 22 25 29 36 49 ,17 22 25 29 36 49 
22 25 29 36 49 ,17 22 25 29 36 49 
22 25 29 36 49 ,22 25 29 36 49 
22 25 29 36 49 ,22 25 29 36 49 
22 25 29 36 ,22 25 29 36 49 
17 22 25 36 ,22 25 29 36 
17 22 25 36 ,17 22 25 36 
22 25 36 ,17 22 25 36 
22 25 36 ,22 25 36 
22 36 ,22 25 36 
22 36 ,22 36 
22 36 ,22 36 
22 36 ,22 36 
22 ,22 36 
22 ,22 
22 ,22 
22 ,22 
22 ,22 
22 ,22 
22 ,22 
22 ,22 
22 ,22 
,22 
,
,
,
,
,
,
,
,
,
,
,
,
,
,
,
,
,
,
,
,
,
,
,
,
,
--------
,
,
14 ,
,14 
43 ,
,43 
,
6 ,
6 36 ,6 
6 36 ,6 36 
36 42 ,6 36 
36 42 ,36 42 
36 37 ,36 42 
37 ,36 37 
37 ,37 
37 50 ,37 
37 50 ,37 50 
27 37 50 ,37 50 
27 50 ,27 37 50 
27 50 ,27 50 
27 ,27 50 
23 27 ,27 
23 27 ,23 27 
23 27 ,23 27 
23 27 ,23 27 
23 27 ,23 27 
23 27 ,23 27 
23 27 ,23 27 
23 27 ,23 27 
23 27 ,23 27 
23 27 ,23 27 
23 ,23 27 
23 ,23 
,23 
,
,
15 ,
10 15 ,15 
10 15 ,10 15 
10 15 ,10 15 
10 15 48 ,10 15 
10 15 32 48 ,10 15 48 
10 15 18 48 ,10 15 32 48 
10 15 18 24 48 ,10 15 18 48 
15 18 24 41 48 ,10 15 18 24 48 
15 18 24 41 48 ,15 18 24 41 48 
15 18 24 41 48 ,15 18 24 41 48 
15 18 24 41 48 ,15 18 24 41 48 
15 18 24 36 41 48 ,15 18 24 41 48 
15 18 24 36 41 48 ,15 18 24 36 41 48 
15 18 24 36 41 48 ,15 18 24 36 41 48 
15 18 24 36 41 48 ,15 18 24 36 41 48 
2 15 18 24 26 36 41 48 ,15 18 24 36 41 48 
2 15 18 24 26 36 38 41 48 ,2 15 18 24 26 36 41 48 
2 15 18 24 26 36 38 41 48 ,2 15 18 24 26 36 38 41 48 
2 15 18 24 26 36 38 41 ,2 15 18 24 26 36 38 41 48 
2 18 24 26 36 38 41 ,2 15 18 24 26 36 38 41 
2 18 24 26 36 38 41 ,2 18 24 26 36 38 41 
2 18 24 26 36 41 ,2 18 24 26 36 38 41 
2 10 18 24 26 36 41 ,2 18 24 26 36 41 
2 7 10 18 24 26 34 36 41 ,2 10 18 24 26 36 41 
2 7 10 18 24 26 34 36 41 ,2 7 10 18 24 26 34 36 41 
2 7 10 18 24 26 34 36 41 ,2 7 10 18 24 26 34 36 41 
2 7 10 18 24 26 34 36 41 ,2 7 10 18 24 26 34 36 41 
2 7 10 18 24 26 34 36 41 ,2 7 10 18 24 26 34 36 41 
2 7 10 18 24 26 34 36 41 ,2 7 10 18 24 26 34 36 41 
2 7 10 18 24 26 34 36 41 ,2 7 10 18 24 26 34 36 41 
2 7 10 18 26 32 34 36 41 ,2 7 10 18 24 26 34 36 41 
2 7 10 18 26 32 34 36 41 ,2 7 10 18 26 32 34 36 41 
2 7 10 18 26 32 34 36 41 ,2 7 10 18 26 32 34 36 41 
2 7 10 18 26 32 34 36 41 ,2 7 10 18 26 32 34 36 41 
2 7 10 18 26 32 34 36 41 ,2 7 10 18 26 32 34 36 41 
2 6 7 10 18 26 32 34 36 41 ,2 7 10 18 26 32 34 36 41 
2 6 7 10 18 26 32 36 41 ,2 6 7 10 18 26 32 34 36 41 
2 6 7 10 18 26 29 32 34 36 41 ,2 6 7 10 18 26 32 36 41 
2 6 7 10 18 26 29 32 36 41 ,2 6 7 10 18 26 29 32 34 36 41 
2 6 7 10 18 26 29 32 36 41 ,2 6 7 10 18 26 29 32 36 41 
2 6 7 10 18 26 29 32 33 36 41 ,2 6 7 10 18 26 29 32 36 41 
2 6 7 10 18 26 29 32 33 36 37 41 ,2 6 7 10 18 26 29 32 33 36 41 
2 6 7 10 26 29 32 33 36 37 41 ,2 6 7 10 18 26 29 32 33 36 37 41 
2 6 7 10 26 29 32 33 36 37 41 ,2 6 7 10 26 29 32 33 36 37 41 
2 7 10 17 26 29 32 33 36 37 41 ,2 6 7 10 26 29 32 33 36 37 41 
2 7 10 17 29 32 33 36 37 41 ,2 7 10 17 26 29 32 33 36 37 41 
2 7 10 13 17 29 32 33 36 37 41 ,2 7 10 17 29 32 33 36 37 41 
2 7 10 13 17 22 29 32 36 37 41 ,2 7 10 13 17 29 32 33 36 37 41 
2 7 8 10 17 22 29 32 36 37 41 ,2 7 10 13 17 22 29 32 36 37 41 
2 7 8 10 17 29 32 36 37 41 ,2 7 8 10 17 22 29 32 36 37 41 
2 7 8 10 17 29 32 36 37 41 ,2 7 8 10 17 29 32 36 37 41 
2 7 8 10 17 29 32 36 37 ,2 7 8 10 17 29 32 36 37 41 
2 8 10 17 29 32 36 37 ,2 7 8 10 17 29 32 36 37 
2 8 10 17 29 32 36 37 ,2 8 10 17 29 32 36 37 
8 10 17 29 32 36 37 ,2 8 10 17 29 32 36 37 
8 10 17 29 32 36 37 ,8 10 17 29 32 36 37 
8 10 17 29 32 36 37 ,8 10 17 29 32 36 37 
8 10 17 29 32 36 37 ,8 10 17 29 32 36 37 
8 10 17 29 32 36 37 ,8 10 17 29 32 36 37 
8 10 17 29 32 36 37 ,8 10 17 29 32 36 37 
8 10 17 22 29 36 37 ,8 10 17 29 32 36 37 
8 10 17 22 29 36 37 ,8 10 17 22 29 36 37 
8 10 17 22 29 36 37 ,8 10 17 22 29 36 37 
8 10 17 22 29 31 36 37 ,8 10 17 22 29 36 37 
8 10 17 22 28 31 36 37 ,8 10 17 22 29 31 36 37 
8 10 17 22 28 31 36 37 ,8 10 17 22 28 31 36 37 
10 17 22 28 31 36 37 ,8 10 17 22 28 31 36 37 
10 17 22 28 31 36 37 ,10 17 22 28 31 36 37 
10 17 22 28 31 36 37 ,10 17 22 28 31 36 37 
10 12 17 22 28 31 36 37 ,10 17 22 28 31 36 37 
10 17 22 28 31 36 37 ,10 12 17 22 28 31 36 37 
10 17 22 25 28 31 36 ,10 17 22 28 31 36 37 
10 17 22 25 28 31 36 ,10 17 22 25 28 31 36 
10 17 22 25 28 31 36 ,10 17 22 25 28 31 36 
10 17 22 25 28 31 36 ,10 17 22 25 28 31 36 
10 17 22 25 28 36 ,10 17 22 25 28 31 36 
10 17 22 25 28 36 ,10 17 22 25 28 36 
10 17 22 25 28 36 ,10 17 22 25 28 36 
10 17 22 25 28 36 ,10 17 22 25 28 36 
10 17 22 25 28 36 ,10 17 22 25 28 36 
10 17 22 25 28 36 ,10 17 22 25 28 36 
10 17 22 25 28 36 ,10 17 22 25 28 36 
10 17 22 25 28 36 ,10 17 22 25 28 36 
10 17 22 25 28 36 ,10 17 22 25 28 36 
10 17 22 25 28 36 ,10 17 22 25 28 36 
10 17 22 25 28 36 ,10 17 22 25 28 36 
10 17 22 25 28 36 ,10 17 22 25 28 36 
10 17 22 25 28 36 ,10 17 22 25 28 36 
10 17 22 25 28 36 ,10 17 22 25 28 36 
10 17 22 25 28 36 ,10 17 22 25 28 36 
10 17 22 25 28 36 ,10 17 22 25 28 36 
10 17 22 25 28 36 ,10 17 22 25 28 36 
10 17 22 25 28 36 ,10 17 22 25 28 36 
10 17 22 25 28 36 38 ,10 17 22 25 28 36 
10 17 22 25 28 36 38 ,10 17 22 25 28 36 38 
10 17 22 25 28 36 38 ,10 17 22 25 28 36 38 
10 17 22 25 28 36 49 ,10 17 22 25 28 36 38 
10 17 22 25 28 36 49 ,10 17 22 25 28 36 49 
10 17 22 25 28 36 49 ,10 17 22 25 28 36 49 
10 17 22 25 28 36 49 ,10 17 22 25 28 36 49 
17 22 25 28 29 36 49 ,10 17 22 25 28 36 49 
17 22 25 28 29 36 49 ,17 22 25 28 29 36 49 
17 22 25 28 29 36 49 ,17 22 25 28 29 36 49 
17 22 25 28 29 36 49 ,17 22 25 28 29 36 49 
17 22 25 28 29 36 49 ,17 22 25 28 29 36 49 
17 22 25 28 29 36 49 ,17 22 25 28 29 36 49 
17 22 25 28 29 36 49 ,17 22 25 28 29 36 49 
17 22 25 28 29 36 49 ,17 22 25 28 29 36 49 
17 22 25 28 29 36 49 ,17 22 25 28 29 36 49 
17 22 25 28 29 36 49 ,17 22 25 28 29 36 49 
17 22 25 28 29 36 49 ,17 22 25 28 29 36 49 
17 22 25 28 29 36 49 ,17 22 25 28 29 36 49 
17 22 25 28 29 36 49 ,17 22 25 28 29 36 49 
17 22 25 29 36 49 ,17 22 25 28 29 36 49 
17 22 25 29 36 49 ,17 22 25 29 36 49 
17 22 25 29 36 49 ,17 22 25 29 36 49 
22 25 29 36 49 ,17 22 25 29 36 49 
22 25 29 36 49 ,22 25 29 36 49 
22 25 29 36 49 ,22 25 29 36 49 
22 25 29 36 ,22 25 29 36 49 
17 22 25 36 ,22 25 29 36 
17 22 25 36 ,17 22 25 36 
22 25 36 ,17 22 25 36 
22 25 36 ,22 25 36 
22 36 ,22 25 36 
22 36 ,22 36 
22 36 ,22 36 
22 36 ,22 36 
22 ,22 36 
22 ,22 
22 ,22 
22 ,22 
22 ,22 
22 ,22 
22 ,22 
22 ,22 
22 ,22 
,22 
,
,
,
,
,
,
,
,
,
,
,
,
,
,
,
,
,
,
,
,
,
,
,
,
,
-------------
-------
2(-1)->6 7 8 10 13 15 17 18 22 24 26 29 32 33 34 36 37 38 41 48 
6(-1)->2 7 10 18 26 29 32 33 34 36 37 41 
7(-1)->2 6 8 10 13 17 18 22 24 26 29 32 33 34 36 37 41 
8(-1)->2 7 10 17 22 28 29 31 32 36 37 41 
10(-1)->2 6 7 8 12 13 15 17 18 22 24 25 26 28 29 31 32 33 34 36 37 38 41 48 49 
12(-1)->10 17 22 28 31 36 37 
13(-1)->2 7 10 17 22 29 32 33 36 37 41 
14(-1)->
15(-1)->2 10 18 24 26 32 36 38 41 48 
17(-1)->2 7 8 10 12 13 22 25 26 28 29 31 32 33 36 37 38 41 49 
18(-1)->2 6 7 10 15 24 26 29 32 33 34 36 37 38 41 48 
22(-1)->2 7 8 10 12 13 17 25 28 29 31 32 36 37 38 41 49 
23(-1)->27 
24(-1)->2 7 10 15 18 26 34 36 38 41 48 
25(-1)->10 17 22 28 29 31 36 38 49 
26(-1)->2 6 7 10 15 17 18 24 29 32 33 34 36 37 38 41 48 
27(-1)->23 37 50 
28(-1)->8 10 12 17 22 25 29 31 36 37 38 49 
29(-1)->2 6 7 8 10 13 17 18 22 25 26 28 31 32 33 34 36 37 41 49 
31(-1)->8 10 12 17 22 25 28 29 36 37 
32(-1)->2 6 7 8 10 13 15 17 18 22 26 29 33 34 36 37 41 48 
33(-1)->2 6 7 10 13 17 18 26 29 32 36 37 41 
34(-1)->2 6 7 10 18 24 26 29 32 36 41 
36(-1)->2 6 7 8 10 12 13 15 17 18 22 24 25 26 28 29 31 32 33 34 37 38 41 42 48 49 
37(-1)->2 6 7 8 10 12 13 17 18 22 26 27 28 29 31 32 33 36 41 50 
38(-1)->2 10 15 17 18 22 24 25 26 28 36 41 48 
41(-1)->2 6 7 8 10 13 15 17 18 22 24 26 29 32 33 34 36 37 38 48 
42(-1)->36 
43(-1)->
48(-1)->2 10 15 18 24 26 32 36 38 41 
49(-1)->10 17 22 25 28 29 36 
50(-1)->27 37 
-------
Node 36 maps to position 0
Node 10 maps to position 1
Node 2 maps to position 2
Node 29 maps to position 3
Node 37 maps to position 4
Node 41 maps to position 5
Node 17 maps to position 6
Node 32 maps to position 7
Node 7 maps to position 8
Node 22 maps to position 9
Node 26 maps to position 10
Node 18 maps to position 11
Node 33 maps to position 12
Node 38 maps to position 13
Node 6 maps to position 14
Node 8 maps to position 15
Node 28 maps to position 16
Node 13 maps to position 17
Node 24 maps to position 18
Node 34 maps to position 19
Node 15 maps to position 20
Node 31 maps to position 21
Node 48 maps to position 22
Node 25 maps to position 23
Node 12 maps to position 24
Node 49 maps to position 25
Node 27 maps to position 26
Node 50 maps to position 27
Node 23 maps to position 28
Node 42 maps to position 29
Node 14 maps to position 30
Node 43 maps to position 31
36(-1)->2 6 7 8 10 12 13 15 17 18 22 24 25 26 28 29 31 32 33 34 37 38 41 42 48 49 
10(-1)->2 6 7 8 12 13 15 17 18 22 24 25 26 28 29 31 32 33 34 36 37 38 41 48 49 
2(-1)->6 7 8 10 13 15 17 18 22 24 26 29 32 33 34 36 37 38 41 48 
29(-1)->2 6 7 8 10 13 17 18 22 25 26 28 31 32 33 34 36 37 41 49 
37(-1)->2 6 7 8 10 12 13 17 18 22 26 27 28 29 31 32 33 36 41 50 
41(-1)->2 6 7 8 10 13 15 17 18 22 24 26 29 32 33 34 36 37 38 48 
17(-1)->2 7 8 10 12 13 22 25 26 28 29 31 32 33 36 37 38 41 49 
32(-1)->2 6 7 8 10 13 15 17 18 22 26 29 33 34 36 37 41 48 
7(-1)->2 6 8 10 13 17 18 22 24 26 29 32 33 34 36 37 41 
22(-1)->2 7 8 10 12 13 17 25 28 29 31 32 36 37 38 41 49 
26(-1)->2 6 7 10 15 17 18 24 29 32 33 34 36 37 38 41 48 
18(-1)->2 6 7 10 15 24 26 29 32 33 34 36 37 38 41 48 
33(-1)->2 6 7 10 13 17 18 26 29 32 36 37 41 
38(-1)->2 10 15 17 18 22 24 25 26 28 36 41 48 
6(-1)->2 7 10 18 26 29 32 33 34 36 37 41 
8(-1)->2 7 10 17 22 28 29 31 32 36 37 41 
28(-1)->8 10 12 17 22 25 29 31 36 37 38 49 
13(-1)->2 7 10 17 22 29 32 33 36 37 41 
24(-1)->2 7 10 15 18 26 34 36 38 41 48 
34(-1)->2 6 7 10 18 24 26 29 32 36 41 
15(-1)->2 10 18 24 26 32 36 38 41 48 
31(-1)->8 10 12 17 22 25 28 29 36 37 
48(-1)->2 10 15 18 24 26 32 36 38 41 
25(-1)->10 17 22 28 29 31 36 38 49 
12(-1)->10 17 22 28 31 36 37 
49(-1)->10 17 22 25 28 29 36 
27(-1)->23 37 50 
50(-1)->27 37 
23(-1)->27 
42(-1)->36 
14(-1)->
43(-1)->
-------
BLAH
START TIME: 1433732182
Cq = 11 and is assigned to x14
BACKTRACKED TO DEPTH: 13
0 1 2 3 4 5 6 7 8 9 10 
2(2)->6 7 8 10 13 15 17 18 22 24 26 29 32 33 34 36 37 38 41 48 
6(11)->2 7 10 18 26 29 32 33 34 36 37 41 
7(8)->2 6 8 10 13 17 18 22 24 26 29 32 33 34 36 37 41 
8(10)->2 7 10 17 22 28 29 31 32 36 37 41 
10(1)->2 6 7 8 12 13 15 17 18 22 24 25 26 28 29 31 32 33 34 36 37 38 41 48 49 
12(3)->10 17 22 28 31 36 37 
13(11)->2 7 10 17 22 29 32 33 36 37 41 
14(0)->
15(8)->2 10 18 24 26 32 36 38 41 48 
17(6)->2 7 8 10 12 13 22 25 26 28 29 31 32 33 36 37 38 41 49 
18(6)->2 6 7 10 15 24 26 29 32 33 34 36 37 38 41 48 
22(9)->2 7 8 10 12 13 17 25 28 29 31 32 36 37 38 41 49 
23(1)->27 
24(4)->2 7 10 15 18 26 34 36 38 41 48 
25(4)->10 17 22 28 29 31 36 38 49 
26(9)->2 6 7 10 15 17 18 24 29 32 33 34 36 37 38 41 48 
27(0)->23 37 50 
28(2)->8 10 12 17 22 25 29 31 36 37 38 49 
29(3)->2 6 7 8 10 13 17 18 22 25 26 28 31 32 33 34 36 37 41 49 
31(5)->8 10 12 17 22 25 28 29 36 37 
32(7)->2 6 7 8 10 13 15 17 18 22 26 29 33 34 36 37 41 48 
33(10)->2 6 7 10 13 17 18 26 29 32 36 37 41 
34(10)->2 6 7 10 18 24 26 29 32 36 41 
36(0)->2 6 7 8 10 12 13 15 17 18 22 24 25 26 28 29 31 32 33 34 37 38 41 42 48 49 
37(4)->2 6 7 8 10 12 13 17 18 22 26 27 28 29 31 32 33 36 41 50 
38(3)->2 10 15 17 18 22 24 25 26 28 36 41 48 
41(5)->2 6 7 8 10 13 15 17 18 22 24 26 29 32 33 34 36 37 38 48 
42(1)->36 
43(0)->
48(10)->2 10 15 18 24 26 32 36 38 41 
49(5)->10 17 22 25 28 29 36 
50(1)->27 37 
COUNT: 45
COLORS: 12
EDGES: 0
12
45
