-1=-1,-1,-1
-1=-1,-1,-1
-1=-1,-1,-1
-1=-1,-1,-1
-1=-1,-1,-1
-1=-1,-1,-1
12=-1,-1,-1
-1=-1,-1,-1
27=-1,-1,-1
-1=-1,-1,-1
-1=-1,-1,-1
-1=-1,-1,-1
-1=-1,-1,-1
-1=-1,-1,-1
14=-1,-1,-1
44=-1,-1,-1
-1=-1,-1,-1
-1=-1,-1,-1
-1=-1,-1,-1
-1=-1,-1,-1
-1=-1,-1,-1
-1=-1,-1,-1
-1=-1,-1,-1
-1=-1,-1,-1
-1=-1,-1,-1
-1=-1,-1,-1
-1=27,-1,-1
-1=-1,-1,-1
-1=-1,-1,-1
-1=-1,-1,-1
-1=-1,-1,-1
41=-1,-1,-1
-1=-1,-1,-1
-1=-1,-1,-1
-1=-1,-1,-1
-1=-1,-1,-1
-1=-1,-1,-1
34=-1,-1,-1
-1=-1,-1,-1
-1=-1,-1,-1
-1=-1,-1,-1
-1=-1,-1,-1
-1=-1,-1,-1
-1=-1,-1,-1
-1=-1,-1,-1
-1=-1,-1,-1
25=-1,-1,-1
-1=-1,-1,-1
-1=12,25,-1
-1=-1,-1,-1
-1=-1,-1,-1
33=-1,-1,-1
-1=-1,-1,-1
-1=-1,-1,-1
-1=-1,-1,-1
-1=33,-1,-1
8=-1,-1,-1
-1=-1,-1,-1
-1=-1,-1,-1
-1=-1,-1,-1
21=-1,-1,-1
-1=-1,-1,-1
-1=-1,-1,-1
-1=-1,-1,-1
-1=8,-1,-1
-1=-1,-1,-1
-1=-1,-1,-1
-1=-1,-1,-1
49=-1,-1,-1
-1=-1,-1,-1
-1=-1,-1,-1
-1=-1,-1,-1
-1=-1,-1,-1
-1=-1,-1,-1
-1=-1,-1,-1
-1=-1,-1,-1
-1=-1,-1,-1
-1=-1,-1,-1
-1=34,-1,-1
35=-1,-1,-1
12=-1,-1,-1
33=-1,-1,-1
-1=-1,-1,-1
-1=49,-1,-1
22=-1,-1,-1
-1=33,41,-1
1=-1,-1,-1
-1=-1,-1,-1
16=-1,-1,-1
-1=-1,-1,-1
-1=-1,-1,-1
24=-1,-1,-1
-1=-1,-1,-1
-1=-1,-1,-1
17=-1,-1,-1
-1=44,-1,-1
-1=14,-1,-1
-1=-1,-1,-1
-1=-1,-1,-1
-1=12,-1,-1
-1=-1,-1,-1
26=-1,-1,-1
-1=-1,-1,-1
-1=-1,-1,-1
-1=-1,-1,-1
-1=-1,-1,-1
-1=-1,-1,-1
-1=-1,-1,-1
-1=-1,-1,-1
-1=-1,-1,-1
-1=1,-1,-1
-1=-1,-1,-1
-1=21,24,-1
-1=-1,-1,-1
20=-1,-1,-1
38=-1,-1,-1
-1=-1,-1,-1
39=-1,-1,-1
-1=-1,-1,-1
-1=-1,-1,-1
-1=-1,-1,-1
-1=22,-1,-1
-1=-1,-1,-1
-1=-1,-1,-1
44=20,-1,-1
42=-1,-1,-1
-1=-1,-1,-1
-1=39,-1,-1
-1=-1,-1,-1
7=-1,-1,-1
-1=16,-1,-1
-1=-1,-1,-1
-1=-1,-1,-1
-1=-1,-1,-1
27=-1,-1,-1
41=35,-1,-1
-1=41,-1,-1
-1=44,-1,-1
-1=17,-1,-1
1=-1,-1,-1
-1=-1,-1,-1
-1=38,-1,-1
24=42,-1,-1
-1=-1,-1,-1
-1=26,-1,-1
-1=1,-1,-1
-1=-1,-1,-1
-1=-1,-1,-1
-1=-1,-1,-1
-1=7,-1,-1
-1=-1,-1,-1
-1=-1,-1,-1
-1=-1,-1,-1
-1=-1,-1,-1
-1=-1,-1,-1
-1=-1,-1,-1
-1=-1,-1,-1
7=-1,-1,-1
-1=-1,-1,-1
-1=-1,-1,-1
-1=-1,-1,-1
-1=7,27,-1
-1=-1,-1,-1
-1=-1,-1,-1
3=-1,-1,-1
37=3,-1,-1
36=-1,-1,-1
-1=-1,-1,-1
-1=-1,-1,-1
-1=24,-1,-1
-1=-1,-1,-1
-1=36,-1,-1
-1=-1,-1,-1
-1=-1,-1,-1
-1=37,-1,-1
-1=-1,-1,-1
16=-1,-1,-1
-1=-1,-1,-1
-1=-1,-1,-1
-1=-1,-1,-1
-1=-1,-1,-1
-1=-1,-1,-1
2=16,-1,-1
-1=-1,-1,-1
-1=-1,-1,-1
-1=-1,-1,-1
-1=-1,-1,-1
-1=2,-1,-1
-1=-1,-1,-1
-1=-1,-1,-1
-1=-1,-1,-1
-1=-1,-1,-1
-1=-1,-1,-1
-1=-1,-1,-1
-1=-1,-1,-1
-1=-1,-1,-1
-1=-1,-1,-1
-1=-1,-1,-1
-1=-1,-1,-1
-1=-1,-1,-1
--------
,
,
,
,
,
,
,
,
,
,
,
,
2 ,
2 ,2 
2 ,2 
2 ,2 
2 ,2 
16 ,2 
16 ,16 
16 ,16 
16 ,16 
16 ,16 
16 ,16 
,16 
,
37 ,
37 ,37 
37 ,37 
36 37 ,37 
36 37 ,36 37 
24 36 37 ,36 37 
24 36 37 ,24 36 37 
24 36 37 ,24 36 37 
24 37 ,24 36 37 
3 24 ,24 37 
24 ,3 24 
24 ,24 
24 ,24 
7 24 27 ,24 
7 24 27 ,7 24 27 
7 24 27 ,7 24 27 
7 24 27 ,7 24 27 
24 27 ,7 24 27 
24 27 ,24 27 
24 27 ,24 27 
24 27 ,24 27 
24 27 ,24 27 
24 27 ,24 27 
24 27 ,24 27 
24 27 ,24 27 
7 24 27 ,24 27 
7 24 27 ,7 24 27 
7 24 27 ,7 24 27 
7 24 27 ,7 24 27 
1 7 24 27 ,7 24 27 
1 7 24 26 27 ,1 7 24 27 
1 7 24 26 27 ,1 7 24 26 27 
1 7 26 27 42 ,1 7 24 26 27 
1 7 26 27 38 42 ,1 7 26 27 42 
1 7 26 27 38 42 ,1 7 26 27 38 42 
7 26 27 38 42 ,1 7 26 27 38 42 
7 17 26 27 38 42 ,7 26 27 38 42 
7 17 26 27 38 42 44 ,7 17 26 27 38 42 
7 17 26 27 38 41 42 44 ,7 17 26 27 38 42 44 
7 17 26 27 35 38 42 44 ,7 17 26 27 38 41 42 44 
7 17 26 35 38 42 44 ,7 17 26 27 35 38 42 44 
7 17 26 35 38 42 44 ,7 17 26 35 38 42 44 
7 17 26 35 38 42 44 ,7 17 26 35 38 42 44 
7 17 26 35 38 42 44 ,7 17 26 35 38 42 44 
7 16 17 26 35 38 42 44 ,7 17 26 35 38 42 44 
16 17 26 35 38 42 44 ,7 16 17 26 35 38 42 44 
16 17 26 35 38 42 44 ,16 17 26 35 38 42 44 
16 17 26 35 38 39 42 44 ,16 17 26 35 38 42 44 
16 17 26 35 38 39 42 44 ,16 17 26 35 38 39 42 44 
16 17 26 35 38 39 44 ,16 17 26 35 38 39 42 44 
16 17 20 26 35 38 39 ,16 17 26 35 38 39 44 
16 17 20 26 35 38 39 ,16 17 20 26 35 38 39 
16 17 20 26 35 38 39 ,16 17 20 26 35 38 39 
16 17 20 22 26 35 38 39 ,16 17 20 26 35 38 39 
16 17 20 22 26 35 38 39 ,16 17 20 22 26 35 38 39 
16 17 20 22 26 35 38 39 ,16 17 20 22 26 35 38 39 
16 17 20 22 26 35 38 39 ,16 17 20 22 26 35 38 39 
16 17 20 22 26 35 38 ,16 17 20 22 26 35 38 39 
16 17 20 22 26 35 38 ,16 17 20 22 26 35 38 
16 17 20 22 26 35 ,16 17 20 22 26 35 38 
16 17 22 26 35 ,16 17 20 22 26 35 
16 17 22 26 35 ,16 17 22 26 35 
16 17 21 22 24 26 35 ,16 17 22 26 35 
16 17 21 22 24 26 35 ,16 17 21 22 24 26 35 
1 16 17 21 22 24 26 35 ,16 17 21 22 24 26 35 
1 16 17 21 22 24 26 35 ,1 16 17 21 22 24 26 35 
1 16 17 21 22 24 26 35 ,1 16 17 21 22 24 26 35 
1 16 17 21 22 24 26 35 ,1 16 17 21 22 24 26 35 
1 16 17 21 22 24 26 35 ,1 16 17 21 22 24 26 35 
1 16 17 21 22 24 26 35 ,1 16 17 21 22 24 26 35 
1 16 17 21 22 24 26 35 ,1 16 17 21 22 24 26 35 
1 16 17 21 22 24 26 35 ,1 16 17 21 22 24 26 35 
1 16 17 21 22 24 26 35 ,1 16 17 21 22 24 26 35 
1 16 17 21 22 24 35 ,1 16 17 21 22 24 26 35 
1 16 17 21 22 24 35 ,1 16 17 21 22 24 35 
1 12 16 17 21 22 24 35 ,1 16 17 21 22 24 35 
1 12 16 17 21 22 24 35 ,1 12 16 17 21 22 24 35 
1 12 16 17 21 22 24 35 ,1 12 16 17 21 22 24 35 
1 12 14 16 17 21 22 24 35 ,1 12 16 17 21 22 24 35 
1 12 14 16 17 21 22 24 35 44 ,1 12 14 16 17 21 22 24 35 
1 12 14 16 21 22 24 35 44 ,1 12 14 16 17 21 22 24 35 44 
1 12 14 16 21 22 24 35 44 ,1 12 14 16 21 22 24 35 44 
1 12 14 16 21 22 24 35 44 ,1 12 14 16 21 22 24 35 44 
1 12 14 16 21 22 35 44 ,1 12 14 16 21 22 24 35 44 
1 12 14 16 21 22 35 44 ,1 12 14 16 21 22 35 44 
1 12 14 16 21 22 35 44 ,1 12 14 16 21 22 35 44 
1 12 14 21 22 35 44 ,1 12 14 16 21 22 35 44 
1 12 14 21 22 35 44 ,1 12 14 21 22 35 44 
12 14 21 22 35 44 ,1 12 14 21 22 35 44 
12 14 21 22 33 35 41 44 ,12 14 21 22 35 44 
12 14 21 33 35 41 44 ,12 14 21 22 33 35 41 44 
12 14 21 33 35 41 44 49 ,12 14 21 33 35 41 44 
12 14 21 33 35 41 44 49 ,12 14 21 33 35 41 44 49 
12 14 21 35 41 44 49 ,12 14 21 33 35 41 44 49 
14 21 35 41 44 49 ,12 14 21 35 41 44 49 
14 21 41 44 49 ,14 21 35 41 44 49 
14 21 34 41 44 49 ,14 21 41 44 49 
14 21 34 41 44 49 ,14 21 34 41 44 49 
14 21 34 41 44 49 ,14 21 34 41 44 49 
14 21 34 41 44 49 ,14 21 34 41 44 49 
14 21 34 41 44 49 ,14 21 34 41 44 49 
14 21 34 41 44 49 ,14 21 34 41 44 49 
14 21 34 41 44 49 ,14 21 34 41 44 49 
14 21 34 41 44 49 ,14 21 34 41 44 49 
14 21 34 41 44 49 ,14 21 34 41 44 49 
14 21 34 41 44 49 ,14 21 34 41 44 49 
14 21 34 41 44 ,14 21 34 41 44 49 
14 21 34 41 44 ,14 21 34 41 44 
14 21 34 41 44 ,14 21 34 41 44 
14 21 34 41 44 ,14 21 34 41 44 
8 14 21 34 41 44 ,14 21 34 41 44 
8 14 21 34 41 44 ,8 14 21 34 41 44 
8 14 21 34 41 44 ,8 14 21 34 41 44 
8 14 21 34 41 44 ,8 14 21 34 41 44 
8 14 34 41 44 ,8 14 21 34 41 44 
8 14 34 41 44 ,8 14 34 41 44 
8 14 34 41 44 ,8 14 34 41 44 
8 14 34 41 44 ,8 14 34 41 44 
14 34 41 44 ,8 14 34 41 44 
14 33 34 41 44 ,14 34 41 44 
14 33 34 41 44 ,14 33 34 41 44 
14 33 34 41 44 ,14 33 34 41 44 
14 33 34 41 44 ,14 33 34 41 44 
14 34 41 44 ,14 33 34 41 44 
14 34 41 44 ,14 34 41 44 
14 34 41 44 ,14 34 41 44 
12 14 25 34 41 44 ,14 34 41 44 
12 14 25 34 41 44 ,12 14 25 34 41 44 
12 14 34 41 44 ,12 14 25 34 41 44 
12 14 34 41 44 ,12 14 34 41 44 
12 14 34 41 44 ,12 14 34 41 44 
12 14 34 41 44 ,12 14 34 41 44 
12 14 34 41 44 ,12 14 34 41 44 
12 14 34 41 44 ,12 14 34 41 44 
12 14 34 41 44 ,12 14 34 41 44 
12 14 34 41 44 ,12 14 34 41 44 
12 14 34 41 44 ,12 14 34 41 44 
12 14 41 44 ,12 14 34 41 44 
12 14 41 44 ,12 14 41 44 
12 14 41 44 ,12 14 41 44 
12 14 41 44 ,12 14 41 44 
12 14 41 44 ,12 14 41 44 
12 14 41 44 ,12 14 41 44 
12 14 44 ,12 14 41 44 
12 14 44 ,12 14 44 
12 14 44 ,12 14 44 
12 14 44 ,12 14 44 
12 14 44 ,12 14 44 
12 14 27 44 ,12 14 44 
12 14 27 44 ,12 14 27 44 
12 14 27 44 ,12 14 27 44 
12 14 27 44 ,12 14 27 44 
12 14 27 44 ,12 14 27 44 
12 14 27 44 ,12 14 27 44 
12 14 27 44 ,12 14 27 44 
12 14 27 44 ,12 14 27 44 
12 14 27 44 ,12 14 27 44 
12 14 27 44 ,12 14 27 44 
12 14 27 44 ,12 14 27 44 
12 14 27 ,12 14 27 44 
12 27 ,12 14 27 
12 27 ,12 27 
12 27 ,12 27 
12 27 ,12 27 
12 27 ,12 27 
12 27 ,12 27 
12 ,12 27 
12 ,12 
,12 
,
,
,
,
,
,
--------
,
,
,
,
,
,
,
,
,
,
,
,
2 ,
2 ,2 
2 ,2 
2 ,2 
2 ,2 
16 ,2 
16 ,16 
16 ,16 
16 ,16 
16 ,16 
16 ,16 
,16 
,
37 ,
37 ,37 
37 ,37 
36 37 ,37 
36 37 ,36 37 
24 36 37 ,36 37 
24 36 37 ,24 36 37 
24 36 37 ,24 36 37 
24 37 ,24 36 37 
3 24 ,24 37 
24 ,3 24 
24 ,24 
24 ,24 
7 24 27 ,24 
7 24 27 ,7 24 27 
7 24 27 ,7 24 27 
7 24 27 ,7 24 27 
24 27 ,7 24 27 
24 27 ,24 27 
24 27 ,24 27 
24 27 ,24 27 
24 27 ,24 27 
24 27 ,24 27 
24 27 ,24 27 
24 27 ,24 27 
7 24 27 ,24 27 
7 24 27 ,7 24 27 
7 24 27 ,7 24 27 
7 24 27 ,7 24 27 
1 7 24 27 ,7 24 27 
1 7 24 26 27 ,1 7 24 27 
1 7 24 26 27 ,1 7 24 26 27 
1 7 26 27 42 ,1 7 24 26 27 
1 7 26 27 38 42 ,1 7 26 27 42 
1 7 26 27 38 42 ,1 7 26 27 38 42 
7 26 27 38 42 ,1 7 26 27 38 42 
7 17 26 27 38 42 ,7 26 27 38 42 
7 17 26 27 38 42 44 ,7 17 26 27 38 42 
7 17 26 27 38 41 42 44 ,7 17 26 27 38 42 44 
7 17 26 27 35 38 42 44 ,7 17 26 27 38 41 42 44 
7 17 26 35 38 42 44 ,7 17 26 27 35 38 42 44 
7 17 26 35 38 42 44 ,7 17 26 35 38 42 44 
7 17 26 35 38 42 44 ,7 17 26 35 38 42 44 
7 17 26 35 38 42 44 ,7 17 26 35 38 42 44 
7 16 17 26 35 38 42 44 ,7 17 26 35 38 42 44 
16 17 26 35 38 42 44 ,7 16 17 26 35 38 42 44 
16 17 26 35 38 42 44 ,16 17 26 35 38 42 44 
16 17 26 35 38 39 42 44 ,16 17 26 35 38 42 44 
16 17 26 35 38 39 42 44 ,16 17 26 35 38 39 42 44 
16 17 26 35 38 39 44 ,16 17 26 35 38 39 42 44 
16 17 20 26 35 38 39 ,16 17 26 35 38 39 44 
16 17 20 26 35 38 39 ,16 17 20 26 35 38 39 
16 17 20 26 35 38 39 ,16 17 20 26 35 38 39 
16 17 20 22 26 35 38 39 ,16 17 20 26 35 38 39 
16 17 20 22 26 35 38 39 ,16 17 20 22 26 35 38 39 
16 17 20 22 26 35 38 39 ,16 17 20 22 26 35 38 39 
16 17 20 22 26 35 38 39 ,16 17 20 22 26 35 38 39 
16 17 20 22 26 35 38 ,16 17 20 22 26 35 38 39 
16 17 20 22 26 35 38 ,16 17 20 22 26 35 38 
16 17 20 22 26 35 ,16 17 20 22 26 35 38 
16 17 22 26 35 ,16 17 20 22 26 35 
16 17 22 26 35 ,16 17 22 26 35 
16 17 21 22 24 26 35 ,16 17 22 26 35 
16 17 21 22 24 26 35 ,16 17 21 22 24 26 35 
1 16 17 21 22 24 26 35 ,16 17 21 22 24 26 35 
1 16 17 21 22 24 26 35 ,1 16 17 21 22 24 26 35 
1 16 17 21 22 24 26 35 ,1 16 17 21 22 24 26 35 
1 16 17 21 22 24 26 35 ,1 16 17 21 22 24 26 35 
1 16 17 21 22 24 26 35 ,1 16 17 21 22 24 26 35 
1 16 17 21 22 24 26 35 ,1 16 17 21 22 24 26 35 
1 16 17 21 22 24 26 35 ,1 16 17 21 22 24 26 35 
1 16 17 21 22 24 26 35 ,1 16 17 21 22 24 26 35 
1 16 17 21 22 24 26 35 ,1 16 17 21 22 24 26 35 
1 16 17 21 22 24 35 ,1 16 17 21 22 24 26 35 
1 16 17 21 22 24 35 ,1 16 17 21 22 24 35 
1 12 16 17 21 22 24 35 ,1 16 17 21 22 24 35 
1 12 16 17 21 22 24 35 ,1 12 16 17 21 22 24 35 
1 12 16 17 21 22 24 35 ,1 12 16 17 21 22 24 35 
1 12 14 16 17 21 22 24 35 ,1 12 16 17 21 22 24 35 
1 12 14 16 17 21 22 24 35 44 ,1 12 14 16 17 21 22 24 35 
1 12 14 16 21 22 24 35 44 ,1 12 14 16 17 21 22 24 35 44 
1 12 14 16 21 22 24 35 44 ,1 12 14 16 21 22 24 35 44 
1 12 14 16 21 22 24 35 44 ,1 12 14 16 21 22 24 35 44 
1 12 14 16 21 22 35 44 ,1 12 14 16 21 22 24 35 44 
1 12 14 16 21 22 35 44 ,1 12 14 16 21 22 35 44 
1 12 14 16 21 22 35 44 ,1 12 14 16 21 22 35 44 
1 12 14 21 22 35 44 ,1 12 14 16 21 22 35 44 
1 12 14 21 22 35 44 ,1 12 14 21 22 35 44 
12 14 21 22 35 44 ,1 12 14 21 22 35 44 
12 14 21 22 33 35 41 44 ,12 14 21 22 35 44 
12 14 21 33 35 41 44 ,12 14 21 22 33 35 41 44 
12 14 21 33 35 41 44 49 ,12 14 21 33 35 41 44 
12 14 21 33 35 41 44 49 ,12 14 21 33 35 41 44 49 
12 14 21 35 41 44 49 ,12 14 21 33 35 41 44 49 
14 21 35 41 44 49 ,12 14 21 35 41 44 49 
14 21 41 44 49 ,14 21 35 41 44 49 
14 21 34 41 44 49 ,14 21 41 44 49 
14 21 34 41 44 49 ,14 21 34 41 44 49 
14 21 34 41 44 49 ,14 21 34 41 44 49 
14 21 34 41 44 49 ,14 21 34 41 44 49 
14 21 34 41 44 49 ,14 21 34 41 44 49 
14 21 34 41 44 49 ,14 21 34 41 44 49 
14 21 34 41 44 49 ,14 21 34 41 44 49 
14 21 34 41 44 49 ,14 21 34 41 44 49 
14 21 34 41 44 49 ,14 21 34 41 44 49 
14 21 34 41 44 49 ,14 21 34 41 44 49 
14 21 34 41 44 ,14 21 34 41 44 49 
14 21 34 41 44 ,14 21 34 41 44 
14 21 34 41 44 ,14 21 34 41 44 
14 21 34 41 44 ,14 21 34 41 44 
8 14 21 34 41 44 ,14 21 34 41 44 
8 14 21 34 41 44 ,8 14 21 34 41 44 
8 14 21 34 41 44 ,8 14 21 34 41 44 
8 14 21 34 41 44 ,8 14 21 34 41 44 
8 14 34 41 44 ,8 14 21 34 41 44 
8 14 34 41 44 ,8 14 34 41 44 
8 14 34 41 44 ,8 14 34 41 44 
8 14 34 41 44 ,8 14 34 41 44 
14 34 41 44 ,8 14 34 41 44 
14 33 34 41 44 ,14 34 41 44 
14 33 34 41 44 ,14 33 34 41 44 
14 33 34 41 44 ,14 33 34 41 44 
14 33 34 41 44 ,14 33 34 41 44 
14 34 41 44 ,14 33 34 41 44 
14 34 41 44 ,14 34 41 44 
14 34 41 44 ,14 34 41 44 
12 14 25 34 41 44 ,14 34 41 44 
12 14 25 34 41 44 ,12 14 25 34 41 44 
12 14 34 41 44 ,12 14 25 34 41 44 
12 14 34 41 44 ,12 14 34 41 44 
12 14 34 41 44 ,12 14 34 41 44 
12 14 34 41 44 ,12 14 34 41 44 
12 14 34 41 44 ,12 14 34 41 44 
12 14 34 41 44 ,12 14 34 41 44 
12 14 34 41 44 ,12 14 34 41 44 
12 14 34 41 44 ,12 14 34 41 44 
12 14 34 41 44 ,12 14 34 41 44 
12 14 41 44 ,12 14 34 41 44 
12 14 41 44 ,12 14 41 44 
12 14 41 44 ,12 14 41 44 
12 14 41 44 ,12 14 41 44 
12 14 41 44 ,12 14 41 44 
12 14 41 44 ,12 14 41 44 
12 14 44 ,12 14 41 44 
12 14 44 ,12 14 44 
12 14 44 ,12 14 44 
12 14 44 ,12 14 44 
12 14 44 ,12 14 44 
12 14 27 44 ,12 14 44 
12 14 27 44 ,12 14 27 44 
12 14 27 44 ,12 14 27 44 
12 14 27 44 ,12 14 27 44 
12 14 27 44 ,12 14 27 44 
12 14 27 44 ,12 14 27 44 
12 14 27 44 ,12 14 27 44 
12 14 27 44 ,12 14 27 44 
12 14 27 44 ,12 14 27 44 
12 14 27 44 ,12 14 27 44 
12 14 27 44 ,12 14 27 44 
12 14 27 ,12 14 27 44 
12 27 ,12 14 27 
12 27 ,12 27 
12 27 ,12 27 
12 27 ,12 27 
12 27 ,12 27 
12 27 ,12 27 
12 ,12 27 
12 ,12 
,12 
,
,
,
,
,
,
-------------
-------
1(-1)->7 12 14 16 17 21 22 24 26 27 35 38 42 44 
2(-1)->
3(-1)->24 
7(-1)->1 16 17 24 26 27 35 38 41 42 44 
8(-1)->14 21 34 41 44 
12(-1)->1 14 16 17 21 22 24 25 27 33 34 35 41 44 49 
14(-1)->1 8 12 16 17 21 22 24 25 27 33 34 35 41 44 49 
16(-1)->1 7 12 14 17 20 21 22 24 26 35 38 39 42 44 
17(-1)->1 7 12 14 16 20 21 22 24 26 27 35 38 39 41 42 44 
20(-1)->16 17 22 26 35 38 39 
21(-1)->1 8 12 14 16 17 22 24 26 33 34 35 41 44 49 
22(-1)->1 12 14 16 17 20 21 24 26 33 35 38 39 41 44 
24(-1)->1 3 7 12 14 16 17 21 22 26 27 35 36 37 44 
25(-1)->12 14 34 41 44 
26(-1)->1 7 16 17 20 21 22 24 27 35 38 39 41 42 44 
27(-1)->1 7 12 14 17 24 26 35 38 41 42 44 
33(-1)->12 14 21 22 34 35 41 44 49 
34(-1)->8 12 14 21 25 33 41 44 49 
35(-1)->1 7 12 14 16 17 20 21 22 24 26 27 33 38 39 41 42 44 49 
36(-1)->24 37 
37(-1)->24 36 
38(-1)->1 7 16 17 20 22 26 27 35 39 41 42 44 
39(-1)->16 17 20 22 26 35 38 42 44 
41(-1)->7 8 12 14 17 21 22 25 26 27 33 34 35 38 42 44 49 
42(-1)->1 7 16 17 26 27 35 38 39 41 44 
44(-1)->1 7 8 12 14 16 17 21 22 24 25 26 27 33 34 35 38 39 41 42 49 
49(-1)->12 14 21 33 34 35 41 44 
-------
Node 44 maps to position 0
Node 35 maps to position 1
Node 17 maps to position 2
Node 41 maps to position 3
Node 14 maps to position 4
Node 12 maps to position 5
Node 16 maps to position 6
Node 21 maps to position 7
Node 22 maps to position 8
Node 24 maps to position 9
Node 26 maps to position 10
Node 1 maps to position 11
Node 38 maps to position 12
Node 27 maps to position 13
Node 7 maps to position 14
Node 42 maps to position 15
Node 33 maps to position 16
Node 34 maps to position 17
Node 39 maps to position 18
Node 49 maps to position 19
Node 20 maps to position 20
Node 8 maps to position 21
Node 25 maps to position 22
Node 36 maps to position 23
Node 37 maps to position 24
Node 3 maps to position 25
Node 2 maps to position 26
44(-1)->1 7 8 12 14 16 17 21 22 24 25 26 27 33 34 35 38 39 41 42 49 
35(-1)->1 7 12 14 16 17 20 21 22 24 26 27 33 38 39 41 42 44 49 
17(-1)->1 7 12 14 16 20 21 22 24 26 27 35 38 39 41 42 44 
41(-1)->7 8 12 14 17 21 22 25 26 27 33 34 35 38 42 44 49 
14(-1)->1 8 12 16 17 21 22 24 25 27 33 34 35 41 44 49 
12(-1)->1 14 16 17 21 22 24 25 27 33 34 35 41 44 49 
16(-1)->1 7 12 14 17 20 21 22 24 26 35 38 39 42 44 
21(-1)->1 8 12 14 16 17 22 24 26 33 34 35 41 44 49 
22(-1)->1 12 14 16 17 20 21 24 26 33 35 38 39 41 44 
24(-1)->1 3 7 12 14 16 17 21 22 26 27 35 36 37 44 
26(-1)->1 7 16 17 20 21 22 24 27 35 38 39 41 42 44 
1(-1)->7 12 14 16 17 21 22 24 26 27 35 38 42 44 
38(-1)->1 7 16 17 20 22 26 27 35 39 41 42 44 
27(-1)->1 7 12 14 17 24 26 35 38 41 42 44 
7(-1)->1 16 17 24 26 27 35 38 41 42 44 
42(-1)->1 7 16 17 26 27 35 38 39 41 44 
33(-1)->12 14 21 22 34 35 41 44 49 
34(-1)->8 12 14 21 25 33 41 44 49 
39(-1)->16 17 20 22 26 35 38 42 44 
49(-1)->12 14 21 33 34 35 41 44 
20(-1)->16 17 22 26 35 38 39 
8(-1)->14 21 34 41 44 
25(-1)->12 14 34 41 44 
36(-1)->24 37 
37(-1)->24 36 
3(-1)->24 
2(-1)->
-------
BLAH
START TIME: 1433732231
Cq = 9 and is assigned to x11
BACKTRACKED TO DEPTH: 10
0 1 2 3 4 5 6 7 8 
1(9)->7 12 14 16 17 21 22 24 26 27 35 38 42 44 
2(0)->
3(0)->24 
7(7)->1 16 17 24 26 27 35 38 41 42 44 
8(2)->14 21 34 41 44 
12(5)->1 14 16 17 21 22 24 25 27 33 34 35 41 44 49 
14(4)->1 8 12 16 17 21 22 24 25 27 33 34 35 41 44 49 
16(3)->1 7 12 14 17 20 21 22 24 26 35 38 39 42 44 
17(2)->1 7 12 14 16 20 21 22 24 26 27 35 38 39 41 42 44 
20(0)->16 17 22 26 35 38 39 
21(6)->1 8 12 14 16 17 22 24 26 33 34 35 41 44 49 
22(7)->1 12 14 16 17 20 21 24 26 33 35 38 39 41 44 
24(8)->1 3 7 12 14 16 17 21 22 26 27 35 36 37 44 
25(2)->12 14 34 41 44 
26(4)->1 7 16 17 20 21 22 24 27 35 38 39 41 42 44 
27(6)->1 7 12 14 17 24 26 35 38 41 42 44 
33(2)->12 14 21 22 34 35 41 44 49 
34(1)->8 12 14 21 25 33 41 44 49 
35(1)->1 7 12 14 16 17 20 21 22 24 26 27 33 38 39 41 42 44 49 
36(0)->24 37 
37(1)->24 36 
38(5)->1 7 16 17 20 22 26 27 35 39 41 42 44 
39(6)->16 17 20 22 26 35 38 42 44 
41(3)->7 8 12 14 17 21 22 25 26 27 33 34 35 38 42 44 49 
42(8)->1 7 16 17 26 27 35 38 39 41 44 
44(0)->1 7 8 12 14 16 17 21 22 24 25 26 27 33 34 35 38 39 41 42 49 
49(7)->12 14 21 33 34 35 41 44 
COUNT: 34
COLORS: 10
EDGES: 0
10
34
