-1=-1,-1,-1
-1=-1,-1,-1
-1=-1,-1,-1
-1=-1,-1,-1
-1=-1,-1,-1
-1=-1,-1,-1
26=-1,-1,-1
-1=-1,-1,-1
-1=-1,-1,-1
16=-1,-1,-1
41=-1,-1,-1
-1=16,-1,-1
50=-1,-1,-1
-1=-1,-1,-1
-1=-1,-1,-1
-1=-1,-1,-1
1=-1,-1,-1
-1=-1,-1,-1
10=-1,-1,-1
2=-1,-1,-1
-1=-1,-1,-1
-1=-1,-1,-1
-1=-1,-1,-1
-1=-1,-1,-1
-1=-1,-1,-1
-1=-1,-1,-1
-1=-1,-1,-1
-1=-1,-1,-1
-1=-1,-1,-1
-1=2,-1,-1
-1=-1,-1,-1
-1=-1,-1,-1
-1=-1,-1,-1
-1=-1,-1,-1
15=-1,-1,-1
39=-1,-1,-1
-1=-1,-1,-1
-1=-1,-1,-1
-1=-1,-1,-1
-1=-1,-1,-1
-1=-1,-1,-1
11=-1,-1,-1
-1=-1,-1,-1
-1=-1,-1,-1
-1=26,-1,-1
-1=-1,-1,-1
32=-1,-1,-1
-1=-1,-1,-1
-1=-1,-1,-1
17=15,-1,-1
-1=50,-1,-1
-1=-1,-1,-1
13=-1,-1,-1
3=-1,-1,-1
-1=41,-1,-1
28=-1,-1,-1
-1=-1,-1,-1
37=-1,-1,-1
33=10,-1,-1
22=-1,-1,-1
14=-1,-1,-1
-1=13,-1,-1
-1=-1,-1,-1
-1=-1,-1,-1
-1=-1,-1,-1
20=-1,-1,-1
-1=-1,-1,-1
-1=-1,-1,-1
50=-1,-1,-1
13=-1,-1,-1
-1=-1,-1,-1
-1=3,-1,-1
-1=-1,-1,-1
5=-1,-1,-1
-1=-1,-1,-1
31=-1,-1,-1
-1=-1,-1,-1
-1=-1,-1,-1
-1=-1,-1,-1
-1=37,-1,-1
-1=-1,-1,-1
-1=-1,-1,-1
8=5,13,31
-1=-1,-1,-1
-1=20,-1,-1
10=1,8,-1
-1=-1,-1,-1
-1=-1,-1,-1
48=-1,-1,-1
-1=-1,-1,-1
-1=-1,-1,-1
-1=-1,-1,-1
2=-1,-1,-1
-1=14,-1,-1
36=-1,-1,-1
-1=-1,-1,-1
-1=-1,-1,-1
-1=-1,-1,-1
-1=-1,-1,-1
37=32,-1,-1
12=48,-1,-1
-1=-1,-1,-1
-1=33,-1,-1
-1=2,17,-1
-1=-1,-1,-1
-1=11,-1,-1
1=-1,-1,-1
-1=1,-1,-1
-1=-1,-1,-1
9=28,-1,-1
-1=-1,-1,-1
-1=-1,-1,-1
19=-1,-1,-1
-1=39,-1,-1
-1=-1,-1,-1
-1=-1,-1,-1
-1=-1,-1,-1
-1=-1,-1,-1
2=-1,-1,-1
46=-1,-1,-1
-1=2,19,-1
-1=-1,-1,-1
32=50,-1,-1
-1=10,-1,-1
-1=-1,-1,-1
-1=32,-1,-1
-1=-1,-1,-1
28=-1,-1,-1
-1=-1,-1,-1
-1=-1,-1,-1
-1=-1,-1,-1
-1=36,-1,-1
-1=-1,-1,-1
-1=-1,-1,-1
-1=-1,-1,-1
-1=-1,-1,-1
-1=22,-1,-1
-1=-1,-1,-1
-1=-1,-1,-1
-1=-1,-1,-1
-1=-1,-1,-1
-1=-1,-1,-1
-1=9,-1,-1
-1=37,-1,-1
-1=-1,-1,-1
-1=-1,-1,-1
32=46,-1,-1
-1=12,-1,-1
-1=-1,-1,-1
-1=-1,-1,-1
-1=-1,-1,-1
-1=-1,-1,-1
-1=-1,-1,-1
-1=-1,-1,-1
-1=-1,-1,-1
38=-1,-1,-1
31=-1,-1,-1
-1=-1,-1,-1
35=32,-1,-1
-1=-1,-1,-1
-1=28,-1,-1
-1=-1,-1,-1
-1=-1,-1,-1
16=-1,-1,-1
-1=-1,-1,-1
9=-1,-1,-1
-1=-1,-1,-1
-1=-1,-1,-1
-1=-1,-1,-1
-1=-1,-1,-1
-1=-1,-1,-1
-1=-1,-1,-1
22=16,-1,-1
-1=9,38,-1
-1=-1,-1,-1
-1=-1,-1,-1
-1=31,-1,-1
-1=35,-1,-1
-1=-1,-1,-1
25=22,-1,-1
-1=-1,-1,-1
-1=-1,-1,-1
-1=-1,-1,-1
-1=-1,-1,-1
-1=-1,-1,-1
23=-1,-1,-1
-1=-1,-1,-1
21=25,-1,-1
-1=-1,-1,-1
-1=-1,-1,-1
-1=21,23,-1
-1=-1,-1,-1
-1=-1,-1,-1
-1=-1,-1,-1
2=-1,-1,-1
-1=-1,-1,-1
36=2,-1,-1
-1=36,-1,-1
-1=-1,-1,-1
-1=-1,-1,-1
--------
,
,
36 ,
2 ,36 
2 ,2 
,2 
,
,
,
21 23 ,
21 23 ,21 23 
21 23 ,21 23 
23 25 ,21 23 
23 25 ,23 25 
25 ,23 25 
25 ,25 
25 ,25 
25 ,25 
25 ,25 
25 ,25 
22 ,25 
22 ,22 
22 35 ,22 
22 31 35 ,22 35 
22 31 35 ,22 31 35 
22 31 35 ,22 31 35 
9 22 31 35 38 ,22 31 35 
9 16 31 35 38 ,9 22 31 35 38 
9 16 31 35 38 ,9 16 31 35 38 
9 16 31 35 38 ,9 16 31 35 38 
9 16 31 35 38 ,9 16 31 35 38 
9 16 31 35 38 ,9 16 31 35 38 
9 16 31 35 38 ,9 16 31 35 38 
9 16 31 35 38 ,9 16 31 35 38 
16 31 35 38 ,9 16 31 35 38 
16 31 35 38 ,16 31 35 38 
31 35 38 ,16 31 35 38 
31 35 38 ,31 35 38 
31 35 38 ,31 35 38 
28 31 35 38 ,31 35 38 
28 31 35 38 ,28 31 35 38 
28 31 32 38 ,28 31 35 38 
28 31 32 38 ,28 31 32 38 
28 32 38 ,28 31 32 38 
28 32 ,28 32 38 
28 32 ,28 32 
28 32 ,28 32 
28 32 ,28 32 
28 32 ,28 32 
28 32 ,28 32 
28 32 ,28 32 
28 32 ,28 32 
12 28 32 ,28 32 
12 28 46 ,12 28 32 
12 28 46 ,12 28 46 
12 28 46 ,12 28 46 
12 28 37 46 ,12 28 46 
9 12 28 37 46 ,12 28 37 46 
9 12 28 37 46 ,9 12 28 37 46 
9 12 28 37 46 ,9 12 28 37 46 
9 12 28 37 46 ,9 12 28 37 46 
9 12 28 37 46 ,9 12 28 37 46 
9 12 28 37 46 ,9 12 28 37 46 
9 12 22 28 37 46 ,9 12 28 37 46 
9 12 22 28 37 46 ,9 12 22 28 37 46 
9 12 22 28 37 46 ,9 12 22 28 37 46 
9 12 22 28 37 46 ,9 12 22 28 37 46 
9 12 22 28 37 46 ,9 12 22 28 37 46 
9 12 22 28 36 37 46 ,9 12 22 28 37 46 
9 12 22 28 36 37 46 ,9 12 22 28 36 37 46 
9 12 22 28 36 37 46 ,9 12 22 28 36 37 46 
9 12 22 28 36 37 46 ,9 12 22 28 36 37 46 
9 12 22 36 37 46 ,9 12 22 28 36 37 46 
9 12 22 36 37 46 ,9 12 22 36 37 46 
9 12 22 32 36 37 46 ,9 12 22 36 37 46 
9 12 22 32 36 37 46 ,9 12 22 32 36 37 46 
9 10 12 22 32 36 37 46 ,9 12 22 32 36 37 46 
9 10 12 22 36 37 46 50 ,9 10 12 22 32 36 37 46 
9 10 12 22 36 37 46 50 ,9 10 12 22 36 37 46 50 
2 9 10 12 19 22 36 37 46 50 ,9 10 12 22 36 37 46 50 
2 9 10 12 19 22 36 37 50 ,2 9 10 12 19 22 36 37 46 50 
9 10 12 19 22 36 37 50 ,2 9 10 12 19 22 36 37 50 
9 10 12 19 22 36 37 50 ,9 10 12 19 22 36 37 50 
9 10 12 19 22 36 37 50 ,9 10 12 19 22 36 37 50 
9 10 12 19 22 36 37 50 ,9 10 12 19 22 36 37 50 
9 10 12 19 22 36 37 50 ,9 10 12 19 22 36 37 50 
9 10 12 19 22 36 37 39 50 ,9 10 12 19 22 36 37 50 
9 10 12 22 36 37 39 50 ,9 10 12 19 22 36 37 39 50 
9 10 12 22 36 37 39 50 ,9 10 12 22 36 37 39 50 
9 10 12 22 36 37 39 50 ,9 10 12 22 36 37 39 50 
10 12 22 28 36 37 39 50 ,9 10 12 22 36 37 39 50 
10 12 22 28 36 37 39 50 ,10 12 22 28 36 37 39 50 
1 10 12 22 28 36 37 39 50 ,10 12 22 28 36 37 39 50 
10 12 22 28 36 37 39 50 ,1 10 12 22 28 36 37 39 50 
10 11 12 22 28 36 37 39 50 ,10 12 22 28 36 37 39 50 
10 11 12 22 28 36 37 39 50 ,10 11 12 22 28 36 37 39 50 
2 10 11 12 17 22 28 36 37 39 50 ,10 11 12 22 28 36 37 39 50 
2 10 11 12 17 22 28 33 36 37 39 50 ,2 10 11 12 17 22 28 36 37 39 50 
2 10 11 12 17 22 28 33 36 37 39 50 ,2 10 11 12 17 22 28 33 36 37 39 50 
2 10 11 17 22 28 33 36 37 39 48 50 ,2 10 11 12 17 22 28 33 36 37 39 50 
2 10 11 17 22 28 32 33 36 39 48 50 ,2 10 11 17 22 28 33 36 37 39 48 50 
2 10 11 17 22 28 32 33 36 39 48 50 ,2 10 11 17 22 28 32 33 36 39 48 50 
2 10 11 17 22 28 32 33 36 39 48 50 ,2 10 11 17 22 28 32 33 36 39 48 50 
2 10 11 17 22 28 32 33 36 39 48 50 ,2 10 11 17 22 28 32 33 36 39 48 50 
2 10 11 17 22 28 32 33 36 39 48 50 ,2 10 11 17 22 28 32 33 36 39 48 50 
2 10 11 17 22 28 32 33 39 48 50 ,2 10 11 17 22 28 32 33 36 39 48 50 
2 10 11 14 17 22 28 32 33 39 48 50 ,2 10 11 17 22 28 32 33 39 48 50 
10 11 14 17 22 28 32 33 39 48 50 ,2 10 11 14 17 22 28 32 33 39 48 50 
10 11 14 17 22 28 32 33 39 48 50 ,10 11 14 17 22 28 32 33 39 48 50 
10 11 14 17 22 28 32 33 39 48 50 ,10 11 14 17 22 28 32 33 39 48 50 
10 11 14 17 22 28 32 33 39 48 50 ,10 11 14 17 22 28 32 33 39 48 50 
10 11 14 17 22 28 32 33 39 50 ,10 11 14 17 22 28 32 33 39 48 50 
10 11 14 17 22 28 32 33 39 50 ,10 11 14 17 22 28 32 33 39 50 
10 11 14 17 22 28 32 33 39 50 ,10 11 14 17 22 28 32 33 39 50 
1 8 11 14 17 22 28 32 33 39 50 ,10 11 14 17 22 28 32 33 39 50 
1 8 11 14 17 20 22 28 32 33 39 50 ,1 8 11 14 17 22 28 32 33 39 50 
1 8 11 14 17 20 22 28 32 33 39 50 ,1 8 11 14 17 20 22 28 32 33 39 50 
1 5 11 13 14 17 20 22 28 31 32 33 39 50 ,1 8 11 14 17 20 22 28 32 33 39 50 
1 5 11 13 14 17 20 22 28 31 32 33 39 50 ,1 5 11 13 14 17 20 22 28 31 32 33 39 50 
1 5 11 13 14 17 20 22 28 31 32 33 39 50 ,1 5 11 13 14 17 20 22 28 31 32 33 39 50 
1 5 11 13 14 17 20 22 28 31 32 33 37 39 50 ,1 5 11 13 14 17 20 22 28 31 32 33 39 50 
1 5 11 13 14 17 20 22 28 31 32 33 37 39 50 ,1 5 11 13 14 17 20 22 28 31 32 33 37 39 50 
1 5 11 13 14 17 20 22 28 31 32 33 37 39 50 ,1 5 11 13 14 17 20 22 28 31 32 33 37 39 50 
1 5 11 13 14 17 20 22 28 31 32 33 37 39 50 ,1 5 11 13 14 17 20 22 28 31 32 33 37 39 50 
1 5 11 13 14 17 20 22 28 32 33 37 39 50 ,1 5 11 13 14 17 20 22 28 31 32 33 37 39 50 
1 5 11 13 14 17 20 22 28 32 33 37 39 50 ,1 5 11 13 14 17 20 22 28 32 33 37 39 50 
1 11 13 14 17 20 22 28 32 33 37 39 50 ,1 5 11 13 14 17 20 22 28 32 33 37 39 50 
1 11 13 14 17 20 22 28 32 33 37 39 50 ,1 11 13 14 17 20 22 28 32 33 37 39 50 
1 3 11 13 14 17 20 22 28 32 33 37 39 50 ,1 11 13 14 17 20 22 28 32 33 37 39 50 
1 3 11 13 14 17 20 22 28 32 33 37 39 50 ,1 3 11 13 14 17 20 22 28 32 33 37 39 50 
1 3 11 14 17 20 22 28 32 33 37 39 50 ,1 3 11 13 14 17 20 22 28 32 33 37 39 50 
1 3 11 14 17 20 22 28 32 33 37 39 ,1 3 11 14 17 20 22 28 32 33 37 39 50 
1 3 11 14 17 20 22 28 32 33 37 39 ,1 3 11 14 17 20 22 28 32 33 37 39 
1 3 11 14 17 20 22 28 32 33 37 39 ,1 3 11 14 17 20 22 28 32 33 37 39 
1 3 11 14 17 22 28 32 33 37 39 ,1 3 11 14 17 20 22 28 32 33 37 39 
1 3 11 14 17 22 28 32 33 37 39 ,1 3 11 14 17 22 28 32 33 37 39 
1 3 11 14 17 22 28 32 33 37 39 ,1 3 11 14 17 22 28 32 33 37 39 
1 3 11 14 17 22 28 32 33 37 39 ,1 3 11 14 17 22 28 32 33 37 39 
1 3 11 13 14 17 22 28 32 33 37 39 ,1 3 11 14 17 22 28 32 33 37 39 
1 3 11 13 17 22 28 32 33 37 39 ,1 3 11 13 14 17 22 28 32 33 37 39 
1 3 11 13 17 28 32 33 37 39 ,1 3 11 13 17 22 28 32 33 37 39 
1 3 10 11 13 17 28 32 37 39 ,1 3 11 13 17 28 32 33 37 39 
1 3 10 11 13 17 28 32 39 ,1 3 10 11 13 17 28 32 37 39 
1 3 10 11 13 17 28 32 39 ,1 3 10 11 13 17 28 32 39 
1 3 10 11 13 17 32 39 ,1 3 10 11 13 17 28 32 39 
1 3 10 11 13 17 32 39 41 ,1 3 10 11 13 17 32 39 
1 10 11 13 17 32 39 41 ,1 3 10 11 13 17 32 39 41 
1 10 11 17 32 39 41 ,1 10 11 13 17 32 39 41 
1 10 11 17 32 39 41 ,1 10 11 17 32 39 41 
1 10 11 17 32 39 41 50 ,1 10 11 17 32 39 41 
1 10 11 15 32 39 41 50 ,1 10 11 17 32 39 41 50 
1 10 11 15 32 39 41 50 ,1 10 11 15 32 39 41 50 
1 10 11 15 32 39 41 50 ,1 10 11 15 32 39 41 50 
1 10 11 15 39 41 50 ,1 10 11 15 32 39 41 50 
1 10 11 15 39 41 50 ,1 10 11 15 39 41 50 
1 10 11 15 26 39 41 50 ,1 10 11 15 39 41 50 
1 10 11 15 26 39 41 50 ,1 10 11 15 26 39 41 50 
1 10 11 15 26 39 41 50 ,1 10 11 15 26 39 41 50 
1 10 15 26 39 41 50 ,1 10 11 15 26 39 41 50 
1 10 15 26 39 41 50 ,1 10 15 26 39 41 50 
1 10 15 26 39 41 50 ,1 10 15 26 39 41 50 
1 10 15 26 39 41 50 ,1 10 15 26 39 41 50 
1 10 15 26 39 41 50 ,1 10 15 26 39 41 50 
1 10 15 26 39 41 50 ,1 10 15 26 39 41 50 
1 10 15 26 41 50 ,1 10 15 26 39 41 50 
1 10 26 41 50 ,1 10 15 26 41 50 
1 10 26 41 50 ,1 10 26 41 50 
1 10 26 41 50 ,1 10 26 41 50 
1 10 26 41 50 ,1 10 26 41 50 
1 10 26 41 50 ,1 10 26 41 50 
1 2 10 26 41 50 ,1 10 26 41 50 
1 2 10 26 41 50 ,1 2 10 26 41 50 
1 2 10 26 41 50 ,1 2 10 26 41 50 
1 2 10 26 41 50 ,1 2 10 26 41 50 
1 2 10 26 41 50 ,1 2 10 26 41 50 
1 2 10 26 41 50 ,1 2 10 26 41 50 
1 2 10 26 41 50 ,1 2 10 26 41 50 
1 2 10 26 41 50 ,1 2 10 26 41 50 
1 2 10 26 41 50 ,1 2 10 26 41 50 
1 2 10 26 41 50 ,1 2 10 26 41 50 
1 10 26 41 50 ,1 2 10 26 41 50 
1 26 41 50 ,1 10 26 41 50 
1 26 41 50 ,1 26 41 50 
26 41 50 ,1 26 41 50 
26 41 50 ,26 41 50 
26 41 50 ,26 41 50 
26 41 50 ,26 41 50 
26 41 ,26 41 50 
16 26 41 ,26 41 
16 26 ,16 26 41 
26 ,16 26 
26 ,26 
26 ,26 
,26 
,
,
,
,
,
,
--------
,
,
36 ,
2 ,36 
2 ,2 
,2 
,
,
,
21 23 ,
21 23 ,21 23 
21 23 ,21 23 
23 25 ,21 23 
23 25 ,23 25 
25 ,23 25 
25 ,25 
25 ,25 
25 ,25 
25 ,25 
25 ,25 
22 ,25 
22 ,22 
22 35 ,22 
22 31 35 ,22 35 
22 31 35 ,22 31 35 
22 31 35 ,22 31 35 
9 22 31 35 38 ,22 31 35 
9 16 31 35 38 ,9 22 31 35 38 
9 16 31 35 38 ,9 16 31 35 38 
9 16 31 35 38 ,9 16 31 35 38 
9 16 31 35 38 ,9 16 31 35 38 
9 16 31 35 38 ,9 16 31 35 38 
9 16 31 35 38 ,9 16 31 35 38 
9 16 31 35 38 ,9 16 31 35 38 
16 31 35 38 ,9 16 31 35 38 
16 31 35 38 ,16 31 35 38 
31 35 38 ,16 31 35 38 
31 35 38 ,31 35 38 
31 35 38 ,31 35 38 
28 31 35 38 ,31 35 38 
28 31 35 38 ,28 31 35 38 
28 31 32 38 ,28 31 35 38 
28 31 32 38 ,28 31 32 38 
28 32 38 ,28 31 32 38 
28 32 ,28 32 38 
28 32 ,28 32 
28 32 ,28 32 
28 32 ,28 32 
28 32 ,28 32 
28 32 ,28 32 
28 32 ,28 32 
28 32 ,28 32 
12 28 32 ,28 32 
12 28 46 ,12 28 32 
12 28 46 ,12 28 46 
12 28 46 ,12 28 46 
12 28 37 46 ,12 28 46 
9 12 28 37 46 ,12 28 37 46 
9 12 28 37 46 ,9 12 28 37 46 
9 12 28 37 46 ,9 12 28 37 46 
9 12 28 37 46 ,9 12 28 37 46 
9 12 28 37 46 ,9 12 28 37 46 
9 12 28 37 46 ,9 12 28 37 46 
9 12 22 28 37 46 ,9 12 28 37 46 
9 12 22 28 37 46 ,9 12 22 28 37 46 
9 12 22 28 37 46 ,9 12 22 28 37 46 
9 12 22 28 37 46 ,9 12 22 28 37 46 
9 12 22 28 37 46 ,9 12 22 28 37 46 
9 12 22 28 36 37 46 ,9 12 22 28 37 46 
9 12 22 28 36 37 46 ,9 12 22 28 36 37 46 
9 12 22 28 36 37 46 ,9 12 22 28 36 37 46 
9 12 22 28 36 37 46 ,9 12 22 28 36 37 46 
9 12 22 36 37 46 ,9 12 22 28 36 37 46 
9 12 22 36 37 46 ,9 12 22 36 37 46 
9 12 22 32 36 37 46 ,9 12 22 36 37 46 
9 12 22 32 36 37 46 ,9 12 22 32 36 37 46 
9 10 12 22 32 36 37 46 ,9 12 22 32 36 37 46 
9 10 12 22 36 37 46 50 ,9 10 12 22 32 36 37 46 
9 10 12 22 36 37 46 50 ,9 10 12 22 36 37 46 50 
2 9 10 12 19 22 36 37 46 50 ,9 10 12 22 36 37 46 50 
2 9 10 12 19 22 36 37 50 ,2 9 10 12 19 22 36 37 46 50 
9 10 12 19 22 36 37 50 ,2 9 10 12 19 22 36 37 50 
9 10 12 19 22 36 37 50 ,9 10 12 19 22 36 37 50 
9 10 12 19 22 36 37 50 ,9 10 12 19 22 36 37 50 
9 10 12 19 22 36 37 50 ,9 10 12 19 22 36 37 50 
9 10 12 19 22 36 37 50 ,9 10 12 19 22 36 37 50 
9 10 12 19 22 36 37 39 50 ,9 10 12 19 22 36 37 50 
9 10 12 22 36 37 39 50 ,9 10 12 19 22 36 37 39 50 
9 10 12 22 36 37 39 50 ,9 10 12 22 36 37 39 50 
9 10 12 22 36 37 39 50 ,9 10 12 22 36 37 39 50 
10 12 22 28 36 37 39 50 ,9 10 12 22 36 37 39 50 
10 12 22 28 36 37 39 50 ,10 12 22 28 36 37 39 50 
1 10 12 22 28 36 37 39 50 ,10 12 22 28 36 37 39 50 
10 12 22 28 36 37 39 50 ,1 10 12 22 28 36 37 39 50 
10 11 12 22 28 36 37 39 50 ,10 12 22 28 36 37 39 50 
10 11 12 22 28 36 37 39 50 ,10 11 12 22 28 36 37 39 50 
2 10 11 12 17 22 28 36 37 39 50 ,10 11 12 22 28 36 37 39 50 
2 10 11 12 17 22 28 33 36 37 39 50 ,2 10 11 12 17 22 28 36 37 39 50 
2 10 11 12 17 22 28 33 36 37 39 50 ,2 10 11 12 17 22 28 33 36 37 39 50 
2 10 11 17 22 28 33 36 37 39 48 50 ,2 10 11 12 17 22 28 33 36 37 39 50 
2 10 11 17 22 28 32 33 36 39 48 50 ,2 10 11 17 22 28 33 36 37 39 48 50 
2 10 11 17 22 28 32 33 36 39 48 50 ,2 10 11 17 22 28 32 33 36 39 48 50 
2 10 11 17 22 28 32 33 36 39 48 50 ,2 10 11 17 22 28 32 33 36 39 48 50 
2 10 11 17 22 28 32 33 36 39 48 50 ,2 10 11 17 22 28 32 33 36 39 48 50 
2 10 11 17 22 28 32 33 36 39 48 50 ,2 10 11 17 22 28 32 33 36 39 48 50 
2 10 11 17 22 28 32 33 39 48 50 ,2 10 11 17 22 28 32 33 36 39 48 50 
2 10 11 14 17 22 28 32 33 39 48 50 ,2 10 11 17 22 28 32 33 39 48 50 
10 11 14 17 22 28 32 33 39 48 50 ,2 10 11 14 17 22 28 32 33 39 48 50 
10 11 14 17 22 28 32 33 39 48 50 ,10 11 14 17 22 28 32 33 39 48 50 
10 11 14 17 22 28 32 33 39 48 50 ,10 11 14 17 22 28 32 33 39 48 50 
10 11 14 17 22 28 32 33 39 48 50 ,10 11 14 17 22 28 32 33 39 48 50 
10 11 14 17 22 28 32 33 39 50 ,10 11 14 17 22 28 32 33 39 48 50 
10 11 14 17 22 28 32 33 39 50 ,10 11 14 17 22 28 32 33 39 50 
10 11 14 17 22 28 32 33 39 50 ,10 11 14 17 22 28 32 33 39 50 
1 8 11 14 17 22 28 32 33 39 50 ,10 11 14 17 22 28 32 33 39 50 
1 8 11 14 17 20 22 28 32 33 39 50 ,1 8 11 14 17 22 28 32 33 39 50 
1 8 11 14 17 20 22 28 32 33 39 50 ,1 8 11 14 17 20 22 28 32 33 39 50 
1 5 11 13 14 17 20 22 28 31 32 33 39 50 ,1 8 11 14 17 20 22 28 32 33 39 50 
1 5 11 13 14 17 20 22 28 31 32 33 39 50 ,1 5 11 13 14 17 20 22 28 31 32 33 39 50 
1 5 11 13 14 17 20 22 28 31 32 33 39 50 ,1 5 11 13 14 17 20 22 28 31 32 33 39 50 
1 5 11 13 14 17 20 22 28 31 32 33 37 39 50 ,1 5 11 13 14 17 20 22 28 31 32 33 39 50 
1 5 11 13 14 17 20 22 28 31 32 33 37 39 50 ,1 5 11 13 14 17 20 22 28 31 32 33 37 39 50 
1 5 11 13 14 17 20 22 28 31 32 33 37 39 50 ,1 5 11 13 14 17 20 22 28 31 32 33 37 39 50 
1 5 11 13 14 17 20 22 28 31 32 33 37 39 50 ,1 5 11 13 14 17 20 22 28 31 32 33 37 39 50 
1 5 11 13 14 17 20 22 28 32 33 37 39 50 ,1 5 11 13 14 17 20 22 28 31 32 33 37 39 50 
1 5 11 13 14 17 20 22 28 32 33 37 39 50 ,1 5 11 13 14 17 20 22 28 32 33 37 39 50 
1 11 13 14 17 20 22 28 32 33 37 39 50 ,1 5 11 13 14 17 20 22 28 32 33 37 39 50 
1 11 13 14 17 20 22 28 32 33 37 39 50 ,1 11 13 14 17 20 22 28 32 33 37 39 50 
1 3 11 13 14 17 20 22 28 32 33 37 39 50 ,1 11 13 14 17 20 22 28 32 33 37 39 50 
1 3 11 13 14 17 20 22 28 32 33 37 39 50 ,1 3 11 13 14 17 20 22 28 32 33 37 39 50 
1 3 11 14 17 20 22 28 32 33 37 39 50 ,1 3 11 13 14 17 20 22 28 32 33 37 39 50 
1 3 11 14 17 20 22 28 32 33 37 39 ,1 3 11 14 17 20 22 28 32 33 37 39 50 
1 3 11 14 17 20 22 28 32 33 37 39 ,1 3 11 14 17 20 22 28 32 33 37 39 
1 3 11 14 17 20 22 28 32 33 37 39 ,1 3 11 14 17 20 22 28 32 33 37 39 
1 3 11 14 17 22 28 32 33 37 39 ,1 3 11 14 17 20 22 28 32 33 37 39 
1 3 11 14 17 22 28 32 33 37 39 ,1 3 11 14 17 22 28 32 33 37 39 
1 3 11 14 17 22 28 32 33 37 39 ,1 3 11 14 17 22 28 32 33 37 39 
1 3 11 14 17 22 28 32 33 37 39 ,1 3 11 14 17 22 28 32 33 37 39 
1 3 11 13 14 17 22 28 32 33 37 39 ,1 3 11 14 17 22 28 32 33 37 39 
1 3 11 13 17 22 28 32 33 37 39 ,1 3 11 13 14 17 22 28 32 33 37 39 
1 3 11 13 17 28 32 33 37 39 ,1 3 11 13 17 22 28 32 33 37 39 
1 3 10 11 13 17 28 32 37 39 ,1 3 11 13 17 28 32 33 37 39 
1 3 10 11 13 17 28 32 39 ,1 3 10 11 13 17 28 32 37 39 
1 3 10 11 13 17 28 32 39 ,1 3 10 11 13 17 28 32 39 
1 3 10 11 13 17 32 39 ,1 3 10 11 13 17 28 32 39 
1 3 10 11 13 17 32 39 41 ,1 3 10 11 13 17 32 39 
1 10 11 13 17 32 39 41 ,1 3 10 11 13 17 32 39 41 
1 10 11 17 32 39 41 ,1 10 11 13 17 32 39 41 
1 10 11 17 32 39 41 ,1 10 11 17 32 39 41 
1 10 11 17 32 39 41 50 ,1 10 11 17 32 39 41 
1 10 11 15 32 39 41 50 ,1 10 11 17 32 39 41 50 
1 10 11 15 32 39 41 50 ,1 10 11 15 32 39 41 50 
1 10 11 15 32 39 41 50 ,1 10 11 15 32 39 41 50 
1 10 11 15 39 41 50 ,1 10 11 15 32 39 41 50 
1 10 11 15 39 41 50 ,1 10 11 15 39 41 50 
1 10 11 15 26 39 41 50 ,1 10 11 15 39 41 50 
1 10 11 15 26 39 41 50 ,1 10 11 15 26 39 41 50 
1 10 11 15 26 39 41 50 ,1 10 11 15 26 39 41 50 
1 10 15 26 39 41 50 ,1 10 11 15 26 39 41 50 
1 10 15 26 39 41 50 ,1 10 15 26 39 41 50 
1 10 15 26 39 41 50 ,1 10 15 26 39 41 50 
1 10 15 26 39 41 50 ,1 10 15 26 39 41 50 
1 10 15 26 39 41 50 ,1 10 15 26 39 41 50 
1 10 15 26 39 41 50 ,1 10 15 26 39 41 50 
1 10 15 26 41 50 ,1 10 15 26 39 41 50 
1 10 26 41 50 ,1 10 15 26 41 50 
1 10 26 41 50 ,1 10 26 41 50 
1 10 26 41 50 ,1 10 26 41 50 
1 10 26 41 50 ,1 10 26 41 50 
1 10 26 41 50 ,1 10 26 41 50 
1 2 10 26 41 50 ,1 10 26 41 50 
1 2 10 26 41 50 ,1 2 10 26 41 50 
1 2 10 26 41 50 ,1 2 10 26 41 50 
1 2 10 26 41 50 ,1 2 10 26 41 50 
1 2 10 26 41 50 ,1 2 10 26 41 50 
1 2 10 26 41 50 ,1 2 10 26 41 50 
1 2 10 26 41 50 ,1 2 10 26 41 50 
1 2 10 26 41 50 ,1 2 10 26 41 50 
1 2 10 26 41 50 ,1 2 10 26 41 50 
1 2 10 26 41 50 ,1 2 10 26 41 50 
1 10 26 41 50 ,1 2 10 26 41 50 
1 26 41 50 ,1 10 26 41 50 
1 26 41 50 ,1 26 41 50 
26 41 50 ,1 26 41 50 
26 41 50 ,26 41 50 
26 41 50 ,26 41 50 
26 41 50 ,26 41 50 
26 41 ,26 41 50 
16 26 41 ,26 41 
16 26 ,16 26 41 
26 ,16 26 
26 ,26 
26 ,26 
,26 
,
,
,
,
,
,
-------------
-------
1(-1)->2 3 5 8 10 11 12 13 14 15 17 20 22 26 28 31 32 33 36 37 39 41 50 
2(-1)->1 9 10 11 12 14 17 19 22 26 28 32 33 36 37 39 41 46 48 50 
3(-1)->1 10 11 13 14 17 20 22 28 32 33 37 39 41 50 
5(-1)->1 11 13 14 17 20 22 28 31 32 33 37 39 50 
8(-1)->1 11 14 17 20 22 28 32 33 39 50 
9(-1)->2 10 12 16 19 22 28 31 32 35 36 37 38 39 46 50 
10(-1)->1 2 3 9 11 12 13 14 15 17 19 22 26 28 32 33 36 37 39 41 46 48 50 
11(-1)->1 2 3 5 8 10 12 13 14 15 17 20 22 26 28 31 32 33 36 37 39 41 48 50 
12(-1)->1 2 9 10 11 17 19 22 28 32 33 36 37 39 46 50 
13(-1)->1 3 5 10 11 14 17 20 22 28 31 32 33 37 39 41 50 
14(-1)->1 2 3 5 8 10 11 13 17 20 22 28 31 32 33 37 39 48 50 
15(-1)->1 10 11 26 32 39 41 50 
16(-1)->9 26 31 35 38 41 
17(-1)->1 2 3 5 8 10 11 12 13 14 20 22 28 31 32 33 36 37 39 41 48 50 
19(-1)->2 9 10 12 22 36 37 39 46 50 
20(-1)->1 3 5 8 11 13 14 17 22 28 31 32 33 37 39 50 
21(-1)->23 
22(-1)->1 2 3 5 8 9 10 11 12 13 14 17 19 20 28 31 32 33 35 36 37 38 39 46 48 50 
23(-1)->21 25 
25(-1)->23 
26(-1)->1 2 10 11 15 16 39 41 50 
28(-1)->1 2 3 5 8 9 10 11 12 13 14 17 20 22 31 32 33 35 36 37 38 39 46 48 50 
31(-1)->1 5 9 11 13 14 16 17 20 22 28 32 33 35 37 38 39 50 
32(-1)->1 2 3 5 8 9 10 11 12 13 14 15 17 20 22 28 31 33 36 37 38 39 41 46 48 50 
33(-1)->1 2 3 5 8 10 11 12 13 14 17 20 22 28 31 32 36 37 39 48 50 
35(-1)->9 16 22 28 31 38 
36(-1)->1 2 9 10 11 12 17 19 22 28 32 33 37 39 46 48 50 
37(-1)->1 2 3 5 9 10 11 12 13 14 17 19 20 22 28 31 32 33 36 39 46 48 50 
38(-1)->9 16 22 28 31 32 35 
39(-1)->1 2 3 5 8 9 10 11 12 13 14 15 17 19 20 22 26 28 31 32 33 36 37 41 48 50 
41(-1)->1 2 3 10 11 13 15 16 17 26 32 39 50 
46(-1)->2 9 10 12 19 22 28 32 36 37 50 
48(-1)->2 10 11 14 17 22 28 32 33 36 37 39 50 
50(-1)->1 2 3 5 8 9 10 11 12 13 14 15 17 19 20 22 26 28 31 32 33 36 37 39 41 46 48 
-------
Node 50 maps to position 0
Node 22 maps to position 1
Node 32 maps to position 2
Node 39 maps to position 3
Node 28 maps to position 4
Node 11 maps to position 5
Node 1 maps to position 6
Node 10 maps to position 7
Node 37 maps to position 8
Node 17 maps to position 9
Node 33 maps to position 10
Node 2 maps to position 11
Node 14 maps to position 12
Node 31 maps to position 13
Node 13 maps to position 14
Node 36 maps to position 15
Node 9 maps to position 16
Node 12 maps to position 17
Node 20 maps to position 18
Node 3 maps to position 19
Node 5 maps to position 20
Node 41 maps to position 21
Node 48 maps to position 22
Node 8 maps to position 23
Node 46 maps to position 24
Node 19 maps to position 25
Node 26 maps to position 26
Node 15 maps to position 27
Node 38 maps to position 28
Node 16 maps to position 29
Node 35 maps to position 30
Node 23 maps to position 31
Node 21 maps to position 32
Node 25 maps to position 33
50(-1)->1 2 3 5 8 9 10 11 12 13 14 15 17 19 20 22 26 28 31 32 33 36 37 39 41 46 48 
22(-1)->1 2 3 5 8 9 10 11 12 13 14 17 19 20 28 31 32 33 35 36 37 38 39 46 48 50 
32(-1)->1 2 3 5 8 9 10 11 12 13 14 15 17 20 22 28 31 33 36 37 38 39 41 46 48 50 
39(-1)->1 2 3 5 8 9 10 11 12 13 14 15 17 19 20 22 26 28 31 32 33 36 37 41 48 50 
28(-1)->1 2 3 5 8 9 10 11 12 13 14 17 20 22 31 32 33 35 36 37 38 39 46 48 50 
11(-1)->1 2 3 5 8 10 12 13 14 15 17 20 22 26 28 31 32 33 36 37 39 41 48 50 
1(-1)->2 3 5 8 10 11 12 13 14 15 17 20 22 26 28 31 32 33 36 37 39 41 50 
10(-1)->1 2 3 9 11 12 13 14 15 17 19 22 26 28 32 33 36 37 39 41 46 48 50 
37(-1)->1 2 3 5 9 10 11 12 13 14 17 19 20 22 28 31 32 33 36 39 46 48 50 
17(-1)->1 2 3 5 8 10 11 12 13 14 20 22 28 31 32 33 36 37 39 41 48 50 
33(-1)->1 2 3 5 8 10 11 12 13 14 17 20 22 28 31 32 36 37 39 48 50 
2(-1)->1 9 10 11 12 14 17 19 22 26 28 32 33 36 37 39 41 46 48 50 
14(-1)->1 2 3 5 8 10 11 13 17 20 22 28 31 32 33 37 39 48 50 
31(-1)->1 5 9 11 13 14 16 17 20 22 28 32 33 35 37 38 39 50 
13(-1)->1 3 5 10 11 14 17 20 22 28 31 32 33 37 39 41 50 
36(-1)->1 2 9 10 11 12 17 19 22 28 32 33 37 39 46 48 50 
9(-1)->2 10 12 16 19 22 28 31 32 35 36 37 38 39 46 50 
12(-1)->1 2 9 10 11 17 19 22 28 32 33 36 37 39 46 50 
20(-1)->1 3 5 8 11 13 14 17 22 28 31 32 33 37 39 50 
3(-1)->1 10 11 13 14 17 20 22 28 32 33 37 39 41 50 
5(-1)->1 11 13 14 17 20 22 28 31 32 33 37 39 50 
41(-1)->1 2 3 10 11 13 15 16 17 26 32 39 50 
48(-1)->2 10 11 14 17 22 28 32 33 36 37 39 50 
8(-1)->1 11 14 17 20 22 28 32 33 39 50 
46(-1)->2 9 10 12 19 22 28 32 36 37 50 
19(-1)->2 9 10 12 22 36 37 39 46 50 
26(-1)->1 2 10 11 15 16 39 41 50 
15(-1)->1 10 11 26 32 39 41 50 
38(-1)->9 16 22 28 31 32 35 
16(-1)->9 26 31 35 38 41 
35(-1)->9 16 22 28 31 38 
23(-1)->21 25 
21(-1)->23 
25(-1)->23 
-------
BLAH
START TIME: 1433732183
Cq = 14 and is assigned to x19
BACKTRACKED TO DEPTH: 18
0 1 2 3 4 5 6 7 8 9 10 11 12 13 
1(6)->2 3 5 8 10 11 12 13 14 15 17 20 22 26 28 31 32 33 36 37 39 41 50 
2(11)->1 9 10 11 12 14 17 19 22 26 28 32 33 36 37 39 41 46 48 50 
3(14)->1 10 11 13 14 17 20 22 28 32 33 37 39 41 50 
5(14)->1 11 13 14 17 20 22 28 31 32 33 37 39 50 
8(7)->1 11 14 17 20 22 28 32 33 39 50 
9(5)->2 10 12 16 19 22 28 31 32 35 36 37 38 39 46 50 
10(7)->1 2 3 9 11 12 13 14 15 17 19 22 26 28 32 33 36 37 39 41 46 48 50 
11(5)->1 2 3 5 8 10 12 13 14 15 17 20 22 26 28 31 32 33 36 37 39 41 48 50 
12(13)->1 2 9 10 11 17 19 22 28 32 33 36 37 39 46 50 
13(11)->1 3 5 10 11 14 17 20 22 28 31 32 33 37 39 41 50 
14(12)->1 2 3 5 8 10 11 13 17 20 22 28 31 32 33 37 39 48 50 
15(4)->1 10 11 26 32 39 41 50 
16(3)->9 26 31 35 38 41 
17(9)->1 2 3 5 8 10 11 12 13 14 20 22 28 31 32 33 36 37 39 41 48 50 
19(2)->2 9 10 12 22 36 37 39 46 50 
20(13)->1 3 5 8 11 13 14 17 22 28 31 32 33 37 39 50 
21(1)->23 
22(1)->1 2 3 5 8 9 10 11 12 13 14 17 19 20 28 31 32 33 35 36 37 38 39 46 48 50 
23(0)->21 25 
25(1)->23 
26(2)->1 2 10 11 15 16 39 41 50 
28(4)->1 2 3 5 8 9 10 11 12 13 14 17 20 22 31 32 33 35 36 37 38 39 46 48 50 
31(7)->1 5 9 11 13 14 16 17 20 22 28 32 33 35 37 38 39 50 
32(2)->1 2 3 5 8 9 10 11 12 13 14 15 17 20 22 28 31 33 36 37 38 39 41 46 48 50 
33(10)->1 2 3 5 8 10 11 12 13 14 17 20 22 28 31 32 36 37 39 48 50 
35(2)->9 16 22 28 31 38 
36(12)->1 2 9 10 11 12 17 19 22 28 32 33 37 39 46 48 50 
37(8)->1 2 3 5 9 10 11 12 13 14 17 19 20 22 28 31 32 33 36 39 46 48 50 
38(0)->9 16 22 28 31 32 35 
39(3)->1 2 3 5 8 9 10 11 12 13 14 15 17 19 20 22 26 28 31 32 33 36 37 41 48 50 
41(1)->1 2 3 10 11 13 15 16 17 26 32 39 50 
46(3)->2 9 10 12 19 22 28 32 36 37 50 
48(6)->2 10 11 14 17 22 28 32 33 36 37 39 50 
50(0)->1 2 3 5 8 9 10 11 12 13 14 15 17 19 20 22 26 28 31 32 33 36 37 39 41 46 48 
COUNT: 162
COLORS: 15
EDGES: 0
15
162
