43=-1,-1,-1
-1=-1,-1,-1
-1=-1,-1,-1
-1=-1,-1,-1
-1=-1,-1,-1
-1=-1,-1,-1
-1=-1,-1,-1
2=43,-1,-1
-1=-1,-1,-1
-1=-1,-1,-1
-1=2,-1,-1
23=-1,-1,-1
-1=-1,-1,-1
48=-1,-1,-1
-1=-1,-1,-1
2=-1,-1,-1
-1=-1,-1,-1
-1=-1,-1,-1
-1=23,-1,-1
22=-1,-1,-1
12=-1,-1,-1
-1=12,-1,-1
-1=-1,-1,-1
12=-1,-1,-1
23=48,-1,-1
-1=-1,-1,-1
42=-1,-1,-1
-1=-1,-1,-1
-1=-1,-1,-1
50=-1,-1,-1
-1=-1,-1,-1
17=-1,-1,-1
-1=-1,-1,-1
-1=23,-1,-1
-1=-1,-1,-1
-1=-1,-1,-1
-1=-1,-1,-1
-1=-1,-1,-1
-1=-1,-1,-1
-1=-1,-1,-1
-1=-1,-1,-1
-1=17,22,-1
-1=-1,-1,-1
-1=-1,-1,-1
13=-1,-1,-1
-1=-1,-1,-1
-1=-1,-1,-1
28=-1,-1,-1
-1=-1,-1,-1
-1=-1,-1,-1
-1=-1,-1,-1
-1=-1,-1,-1
-1=-1,-1,-1
-1=42,-1,-1
-1=-1,-1,-1
-1=-1,-1,-1
-1=-1,-1,-1
3=-1,-1,-1
-1=-1,-1,-1
-1=-1,-1,-1
-1=-1,-1,-1
-1=-1,-1,-1
26=-1,-1,-1
-1=13,26,-1
-1=-1,-1,-1
-1=-1,-1,-1
-1=-1,-1,-1
26=-1,-1,-1
-1=-1,-1,-1
-1=-1,-1,-1
-1=-1,-1,-1
-1=-1,-1,-1
-1=-1,-1,-1
-1=-1,-1,-1
40=-1,-1,-1
-1=-1,-1,-1
-1=-1,-1,-1
-1=3,-1,-1
-1=-1,-1,-1
-1=26,-1,-1
-1=-1,-1,-1
-1=12,-1,-1
44=50,-1,-1
-1=-1,-1,-1
26=-1,-1,-1
-1=-1,-1,-1
-1=-1,-1,-1
-1=-1,-1,-1
-1=-1,-1,-1
-1=-1,-1,-1
-1=-1,-1,-1
-1=-1,-1,-1
12=-1,-1,-1
30=-1,-1,-1
-1=-1,-1,-1
-1=12,-1,-1
-1=-1,-1,-1
-1=-1,-1,-1
-1=-1,-1,-1
-1=-1,-1,-1
-1=-1,-1,-1
1=-1,-1,-1
38=-1,-1,-1
6=-1,-1,-1
-1=-1,-1,-1
-1=-1,-1,-1
8=1,26,-1
-1=-1,-1,-1
14=-1,-1,-1
-1=30,-1,-1
-1=6,-1,-1
-1=40,-1,-1
-1=-1,-1,-1
20=-1,-1,-1
-1=-1,-1,-1
6=-1,-1,-1
-1=-1,-1,-1
-1=-1,-1,-1
31=-1,-1,-1
-1=-1,-1,-1
1=-1,-1,-1
36=20,-1,-1
36=36,-1,-1
-1=-1,-1,-1
-1=36,-1,-1
49=-1,-1,-1
-1=-1,-1,-1
-1=-1,-1,-1
33=-1,-1,-1
-1=31,-1,-1
-1=-1,-1,-1
-1=-1,-1,-1
-1=-1,-1,-1
15=49,-1,-1
-1=-1,-1,-1
-1=44,-1,-1
-1=-1,-1,-1
-1=8,-1,-1
-1=-1,-1,-1
-1=-1,-1,-1
-1=-1,-1,-1
-1=-1,-1,-1
-1=-1,-1,-1
44=-1,-1,-1
41=44,-1,-1
-1=6,33,-1
-1=-1,-1,-1
44=15,-1,-1
-1=-1,-1,-1
-1=-1,-1,-1
-1=-1,-1,-1
-1=-1,-1,-1
-1=-1,-1,-1
34=14,-1,-1
-1=-1,-1,-1
6=1,34,-1
-1=6,-1,-1
-1=41,-1,-1
-1=-1,-1,-1
-1=-1,-1,-1
-1=-1,-1,-1
-1=-1,-1,-1
11=-1,-1,-1
-1=-1,-1,-1
-1=-1,-1,-1
-1=11,-1,-1
-1=-1,-1,-1
34=-1,-1,-1
-1=-1,-1,-1
-1=-1,-1,-1
-1=-1,-1,-1
-1=-1,-1,-1
-1=-1,-1,-1
-1=2,38,-1
-1=-1,-1,-1
37=-1,-1,-1
9=37,-1,-1
-1=-1,-1,-1
38=9,34,-1
-1=-1,-1,-1
-1=28,-1,-1
-1=38,-1,-1
-1=-1,-1,-1
-1=-1,-1,-1
-1=-1,-1,-1
-1=44,-1,-1
-1=-1,-1,-1
-1=-1,-1,-1
28=-1,-1,-1
2=-1,-1,-1
44=-1,-1,-1
-1=-1,-1,-1
-1=2,-1,-1
-1=28,-1,-1
-1=44,-1,-1
-1=-1,-1,-1
-1=-1,-1,-1
-1=-1,-1,-1
5=-1,-1,-1
-1=5,-1,-1
--------
5 ,
,5 
,
,
,
44 ,
28 44 ,44 
2 28 44 ,28 44 
2 28 44 ,2 28 44 
2 28 ,2 28 44 
28 ,2 28 
,28 
,
,
44 ,
44 ,44 
44 ,44 
44 ,44 
38 44 ,44 
28 38 44 ,38 44 
28 38 44 ,28 38 44 
9 28 34 44 ,28 38 44 
9 28 34 44 ,9 28 34 44 
28 34 37 44 ,9 28 34 44 
28 34 44 ,28 34 37 44 
28 34 44 ,28 34 44 
2 28 34 38 44 ,28 34 44 
2 28 34 38 44 ,2 28 34 38 44 
2 28 34 38 44 ,2 28 34 38 44 
2 28 34 38 44 ,2 28 34 38 44 
2 28 34 38 44 ,2 28 34 38 44 
2 28 34 38 44 ,2 28 34 38 44 
2 28 38 44 ,2 28 34 38 44 
2 28 38 44 ,2 28 38 44 
2 11 28 38 44 ,2 28 38 44 
2 11 28 38 44 ,2 11 28 38 44 
2 11 28 38 44 ,2 11 28 38 44 
2 28 38 44 ,2 11 28 38 44 
2 28 38 44 ,2 28 38 44 
2 28 38 44 ,2 28 38 44 
2 28 38 44 ,2 28 38 44 
2 28 38 44 ,2 28 38 44 
2 28 38 41 44 ,2 28 38 44 
2 6 28 38 41 44 ,2 28 38 41 44 
1 2 28 34 38 41 44 ,2 6 28 38 41 44 
1 2 28 34 38 41 44 ,1 2 28 34 38 41 44 
1 2 14 28 38 41 44 ,1 2 28 34 38 41 44 
1 2 14 28 38 41 44 ,1 2 14 28 38 41 44 
1 2 14 28 38 41 44 ,1 2 14 28 38 41 44 
1 2 14 28 38 41 44 ,1 2 14 28 38 41 44 
1 2 14 28 38 41 44 ,1 2 14 28 38 41 44 
1 2 14 28 38 41 44 ,1 2 14 28 38 41 44 
1 2 14 15 28 38 41 ,1 2 14 28 38 41 44 
1 2 14 15 28 38 41 ,1 2 14 15 28 38 41 
1 2 6 14 15 28 33 38 41 ,1 2 14 15 28 38 41 
1 2 6 14 15 28 33 38 44 ,1 2 6 14 15 28 33 38 41 
1 2 6 14 15 28 33 38 ,1 2 6 14 15 28 33 38 44 
1 2 6 14 15 28 33 38 ,1 2 6 14 15 28 33 38 
1 2 6 14 15 28 33 38 ,1 2 6 14 15 28 33 38 
1 2 6 14 15 28 33 38 ,1 2 6 14 15 28 33 38 
1 2 6 14 15 28 33 38 ,1 2 6 14 15 28 33 38 
1 2 6 14 15 28 33 38 ,1 2 6 14 15 28 33 38 
1 2 6 8 14 15 28 33 38 ,1 2 6 14 15 28 33 38 
1 2 6 8 14 15 28 33 38 ,1 2 6 8 14 15 28 33 38 
1 2 6 8 14 15 28 33 38 44 ,1 2 6 8 14 15 28 33 38 
1 2 6 8 14 15 28 33 38 44 ,1 2 6 8 14 15 28 33 38 44 
1 2 6 8 14 28 33 38 44 49 ,1 2 6 8 14 15 28 33 38 44 
1 2 6 8 14 28 33 38 44 49 ,1 2 6 8 14 28 33 38 44 49 
1 2 6 8 14 28 33 38 44 49 ,1 2 6 8 14 28 33 38 44 49 
1 2 6 8 14 28 33 38 44 49 ,1 2 6 8 14 28 33 38 44 49 
1 2 6 8 14 28 31 33 38 44 49 ,1 2 6 8 14 28 33 38 44 49 
1 2 6 8 14 28 31 38 44 49 ,1 2 6 8 14 28 31 33 38 44 49 
1 2 6 8 14 28 31 38 44 49 ,1 2 6 8 14 28 31 38 44 49 
1 2 6 8 14 28 31 38 44 49 ,1 2 6 8 14 28 31 38 44 49 
1 2 6 8 14 28 31 38 44 ,1 2 6 8 14 28 31 38 44 49 
1 2 6 8 14 28 31 36 38 44 ,1 2 6 8 14 28 31 38 44 
1 2 6 8 14 28 31 36 38 44 ,1 2 6 8 14 28 31 36 38 44 
1 2 6 8 14 28 31 36 38 44 ,1 2 6 8 14 28 31 36 38 44 
1 2 6 8 14 20 28 31 38 44 ,1 2 6 8 14 28 31 36 38 44 
2 6 8 14 20 28 31 38 44 ,1 2 6 8 14 20 28 31 38 44 
2 6 8 14 20 28 31 38 44 ,2 6 8 14 20 28 31 38 44 
2 6 8 14 20 28 38 44 ,2 6 8 14 20 28 31 38 44 
2 6 8 14 20 28 38 44 ,2 6 8 14 20 28 38 44 
2 6 8 14 20 28 38 44 ,2 6 8 14 20 28 38 44 
2 8 14 20 28 38 44 ,2 6 8 14 20 28 38 44 
2 8 14 20 28 38 44 ,2 8 14 20 28 38 44 
2 8 14 28 38 44 ,2 8 14 20 28 38 44 
2 8 14 28 38 44 ,2 8 14 28 38 44 
2 8 14 28 38 40 44 ,2 8 14 28 38 44 
2 6 8 14 28 38 40 44 ,2 8 14 28 38 40 44 
2 6 8 14 28 30 38 40 44 ,2 6 8 14 28 38 40 44 
2 6 8 28 30 38 40 44 ,2 6 8 14 28 30 38 40 44 
2 6 8 28 30 38 40 44 ,2 6 8 28 30 38 40 44 
1 2 6 26 28 30 38 40 44 ,2 6 8 28 30 38 40 44 
1 2 6 26 28 30 38 40 44 ,1 2 6 26 28 30 38 40 44 
1 2 6 26 28 30 38 40 44 ,1 2 6 26 28 30 38 40 44 
1 2 26 28 30 38 40 44 ,1 2 6 26 28 30 38 40 44 
1 2 26 28 30 40 44 ,1 2 26 28 30 38 40 44 
2 26 28 30 40 44 ,1 2 26 28 30 40 44 
2 26 28 30 40 44 ,2 26 28 30 40 44 
2 26 28 30 40 44 ,2 26 28 30 40 44 
2 26 28 30 40 44 ,2 26 28 30 40 44 
2 26 28 30 40 44 ,2 26 28 30 40 44 
2 26 28 30 40 44 ,2 26 28 30 40 44 
2 12 26 28 30 40 44 ,2 26 28 30 40 44 
2 12 26 28 30 40 44 ,2 12 26 28 30 40 44 
2 12 26 28 40 44 ,2 12 26 28 30 40 44 
2 26 28 40 44 ,2 12 26 28 40 44 
2 26 28 40 44 ,2 26 28 40 44 
2 26 28 40 44 ,2 26 28 40 44 
2 26 28 40 44 ,2 26 28 40 44 
2 26 28 40 44 ,2 26 28 40 44 
2 26 28 40 44 ,2 26 28 40 44 
2 26 28 40 44 ,2 26 28 40 44 
2 26 28 40 44 ,2 26 28 40 44 
2 28 40 44 ,2 26 28 40 44 
2 28 40 44 ,2 28 40 44 
2 28 40 50 ,2 28 40 44 
2 12 28 40 50 ,2 28 40 50 
2 12 28 40 50 ,2 12 28 40 50 
2 12 26 28 40 50 ,2 12 28 40 50 
2 12 26 28 40 50 ,2 12 26 28 40 50 
2 3 12 26 28 40 50 ,2 12 26 28 40 50 
2 3 12 26 28 40 50 ,2 3 12 26 28 40 50 
2 3 12 26 28 40 50 ,2 3 12 26 28 40 50 
2 3 12 26 28 50 ,2 3 12 26 28 40 50 
2 3 12 26 28 50 ,2 3 12 26 28 50 
2 3 12 26 28 50 ,2 3 12 26 28 50 
2 3 12 26 28 50 ,2 3 12 26 28 50 
2 3 12 26 28 50 ,2 3 12 26 28 50 
2 3 12 26 28 50 ,2 3 12 26 28 50 
2 3 12 26 28 50 ,2 3 12 26 28 50 
2 3 12 28 50 ,2 3 12 26 28 50 
2 3 12 28 50 ,2 3 12 28 50 
2 3 12 28 50 ,2 3 12 28 50 
2 3 12 28 50 ,2 3 12 28 50 
2 3 12 13 26 28 50 ,2 3 12 28 50 
2 3 12 13 28 50 ,2 3 12 13 26 28 50 
2 3 12 13 28 50 ,2 3 12 13 28 50 
2 3 12 13 28 50 ,2 3 12 13 28 50 
2 3 12 13 28 50 ,2 3 12 13 28 50 
2 3 12 13 28 50 ,2 3 12 13 28 50 
2 12 13 28 50 ,2 3 12 13 28 50 
2 12 13 28 50 ,2 12 13 28 50 
2 12 13 28 50 ,2 12 13 28 50 
2 12 13 28 50 ,2 12 13 28 50 
2 12 13 28 42 50 ,2 12 13 28 50 
2 12 13 28 42 50 ,2 12 13 28 42 50 
2 12 13 28 42 50 ,2 12 13 28 42 50 
2 12 13 28 42 50 ,2 12 13 28 42 50 
2 12 13 28 42 50 ,2 12 13 28 42 50 
2 12 13 28 42 50 ,2 12 13 28 42 50 
2 12 13 42 50 ,2 12 13 28 42 50 
2 12 13 42 50 ,2 12 13 42 50 
2 12 13 42 50 ,2 12 13 42 50 
2 12 42 50 ,2 12 13 42 50 
2 12 42 50 ,2 12 42 50 
2 12 42 50 ,2 12 42 50 
2 12 17 22 42 50 ,2 12 42 50 
2 12 17 22 42 50 ,2 12 17 22 42 50 
2 12 17 22 42 50 ,2 12 17 22 42 50 
2 12 17 22 42 50 ,2 12 17 22 42 50 
2 12 17 22 42 50 ,2 12 17 22 42 50 
2 12 17 22 42 50 ,2 12 17 22 42 50 
2 12 17 22 42 50 ,2 12 17 22 42 50 
2 12 17 22 42 50 ,2 12 17 22 42 50 
2 12 17 22 23 42 50 ,2 12 17 22 42 50 
2 12 17 22 23 42 50 ,2 12 17 22 23 42 50 
2 12 22 23 42 50 ,2 12 17 22 23 42 50 
2 12 22 23 42 50 ,2 12 22 23 42 50 
2 12 22 23 42 ,2 12 22 23 42 50 
2 12 22 23 42 ,2 12 22 23 42 
2 12 22 23 42 ,2 12 22 23 42 
2 12 22 23 ,2 12 22 23 42 
2 12 22 23 ,2 12 22 23 
2 12 22 48 ,2 12 22 23 
2 22 48 ,2 12 22 48 
2 22 48 ,2 22 48 
2 12 22 48 ,2 22 48 
2 22 48 ,2 12 22 48 
2 48 ,2 22 48 
2 23 48 ,2 48 
2 23 48 ,2 23 48 
2 23 48 ,2 23 48 
23 48 ,2 23 48 
23 48 ,23 48 
23 ,23 48 
23 ,23 
,23 
2 ,
2 ,2 
2 ,2 
43 ,2 
43 ,43 
43 ,43 
43 ,43 
43 ,43 
43 ,43 
43 ,43 
,43 
--------
5 ,
,5 
,
,
,
44 ,
28 44 ,44 
2 28 44 ,28 44 
2 28 44 ,2 28 44 
2 28 ,2 28 44 
28 ,2 28 
,28 
,
,
44 ,
44 ,44 
44 ,44 
44 ,44 
38 44 ,44 
28 38 44 ,38 44 
28 38 44 ,28 38 44 
9 28 34 44 ,28 38 44 
9 28 34 44 ,9 28 34 44 
28 34 37 44 ,9 28 34 44 
28 34 44 ,28 34 37 44 
28 34 44 ,28 34 44 
2 28 34 38 44 ,28 34 44 
2 28 34 38 44 ,2 28 34 38 44 
2 28 34 38 44 ,2 28 34 38 44 
2 28 34 38 44 ,2 28 34 38 44 
2 28 34 38 44 ,2 28 34 38 44 
2 28 34 38 44 ,2 28 34 38 44 
2 28 38 44 ,2 28 34 38 44 
2 28 38 44 ,2 28 38 44 
2 11 28 38 44 ,2 28 38 44 
2 11 28 38 44 ,2 11 28 38 44 
2 11 28 38 44 ,2 11 28 38 44 
2 28 38 44 ,2 11 28 38 44 
2 28 38 44 ,2 28 38 44 
2 28 38 44 ,2 28 38 44 
2 28 38 44 ,2 28 38 44 
2 28 38 44 ,2 28 38 44 
2 28 38 41 44 ,2 28 38 44 
2 6 28 38 41 44 ,2 28 38 41 44 
1 2 28 34 38 41 44 ,2 6 28 38 41 44 
1 2 28 34 38 41 44 ,1 2 28 34 38 41 44 
1 2 14 28 38 41 44 ,1 2 28 34 38 41 44 
1 2 14 28 38 41 44 ,1 2 14 28 38 41 44 
1 2 14 28 38 41 44 ,1 2 14 28 38 41 44 
1 2 14 28 38 41 44 ,1 2 14 28 38 41 44 
1 2 14 28 38 41 44 ,1 2 14 28 38 41 44 
1 2 14 28 38 41 44 ,1 2 14 28 38 41 44 
1 2 14 15 28 38 41 ,1 2 14 28 38 41 44 
1 2 14 15 28 38 41 ,1 2 14 15 28 38 41 
1 2 6 14 15 28 33 38 41 ,1 2 14 15 28 38 41 
1 2 6 14 15 28 33 38 44 ,1 2 6 14 15 28 33 38 41 
1 2 6 14 15 28 33 38 ,1 2 6 14 15 28 33 38 44 
1 2 6 14 15 28 33 38 ,1 2 6 14 15 28 33 38 
1 2 6 14 15 28 33 38 ,1 2 6 14 15 28 33 38 
1 2 6 14 15 28 33 38 ,1 2 6 14 15 28 33 38 
1 2 6 14 15 28 33 38 ,1 2 6 14 15 28 33 38 
1 2 6 14 15 28 33 38 ,1 2 6 14 15 28 33 38 
1 2 6 8 14 15 28 33 38 ,1 2 6 14 15 28 33 38 
1 2 6 8 14 15 28 33 38 ,1 2 6 8 14 15 28 33 38 
1 2 6 8 14 15 28 33 38 44 ,1 2 6 8 14 15 28 33 38 
1 2 6 8 14 15 28 33 38 44 ,1 2 6 8 14 15 28 33 38 44 
1 2 6 8 14 28 33 38 44 49 ,1 2 6 8 14 15 28 33 38 44 
1 2 6 8 14 28 33 38 44 49 ,1 2 6 8 14 28 33 38 44 49 
1 2 6 8 14 28 33 38 44 49 ,1 2 6 8 14 28 33 38 44 49 
1 2 6 8 14 28 33 38 44 49 ,1 2 6 8 14 28 33 38 44 49 
1 2 6 8 14 28 31 33 38 44 49 ,1 2 6 8 14 28 33 38 44 49 
1 2 6 8 14 28 31 38 44 49 ,1 2 6 8 14 28 31 33 38 44 49 
1 2 6 8 14 28 31 38 44 49 ,1 2 6 8 14 28 31 38 44 49 
1 2 6 8 14 28 31 38 44 49 ,1 2 6 8 14 28 31 38 44 49 
1 2 6 8 14 28 31 38 44 ,1 2 6 8 14 28 31 38 44 49 
1 2 6 8 14 28 31 36 38 44 ,1 2 6 8 14 28 31 38 44 
1 2 6 8 14 28 31 36 38 44 ,1 2 6 8 14 28 31 36 38 44 
1 2 6 8 14 28 31 36 38 44 ,1 2 6 8 14 28 31 36 38 44 
1 2 6 8 14 20 28 31 38 44 ,1 2 6 8 14 28 31 36 38 44 
2 6 8 14 20 28 31 38 44 ,1 2 6 8 14 20 28 31 38 44 
2 6 8 14 20 28 31 38 44 ,2 6 8 14 20 28 31 38 44 
2 6 8 14 20 28 38 44 ,2 6 8 14 20 28 31 38 44 
2 6 8 14 20 28 38 44 ,2 6 8 14 20 28 38 44 
2 6 8 14 20 28 38 44 ,2 6 8 14 20 28 38 44 
2 8 14 20 28 38 44 ,2 6 8 14 20 28 38 44 
2 8 14 20 28 38 44 ,2 8 14 20 28 38 44 
2 8 14 28 38 44 ,2 8 14 20 28 38 44 
2 8 14 28 38 44 ,2 8 14 28 38 44 
2 8 14 28 38 40 44 ,2 8 14 28 38 44 
2 6 8 14 28 38 40 44 ,2 8 14 28 38 40 44 
2 6 8 14 28 30 38 40 44 ,2 6 8 14 28 38 40 44 
2 6 8 28 30 38 40 44 ,2 6 8 14 28 30 38 40 44 
2 6 8 28 30 38 40 44 ,2 6 8 28 30 38 40 44 
1 2 6 26 28 30 38 40 44 ,2 6 8 28 30 38 40 44 
1 2 6 26 28 30 38 40 44 ,1 2 6 26 28 30 38 40 44 
1 2 6 26 28 30 38 40 44 ,1 2 6 26 28 30 38 40 44 
1 2 26 28 30 38 40 44 ,1 2 6 26 28 30 38 40 44 
1 2 26 28 30 40 44 ,1 2 26 28 30 38 40 44 
2 26 28 30 40 44 ,1 2 26 28 30 40 44 
2 26 28 30 40 44 ,2 26 28 30 40 44 
2 26 28 30 40 44 ,2 26 28 30 40 44 
2 26 28 30 40 44 ,2 26 28 30 40 44 
2 26 28 30 40 44 ,2 26 28 30 40 44 
2 26 28 30 40 44 ,2 26 28 30 40 44 
2 12 26 28 30 40 44 ,2 26 28 30 40 44 
2 12 26 28 30 40 44 ,2 12 26 28 30 40 44 
2 12 26 28 40 44 ,2 12 26 28 30 40 44 
2 26 28 40 44 ,2 12 26 28 40 44 
2 26 28 40 44 ,2 26 28 40 44 
2 26 28 40 44 ,2 26 28 40 44 
2 26 28 40 44 ,2 26 28 40 44 
2 26 28 40 44 ,2 26 28 40 44 
2 26 28 40 44 ,2 26 28 40 44 
2 26 28 40 44 ,2 26 28 40 44 
2 26 28 40 44 ,2 26 28 40 44 
2 28 40 44 ,2 26 28 40 44 
2 28 40 44 ,2 28 40 44 
2 28 40 50 ,2 28 40 44 
2 12 28 40 50 ,2 28 40 50 
2 12 28 40 50 ,2 12 28 40 50 
2 12 26 28 40 50 ,2 12 28 40 50 
2 12 26 28 40 50 ,2 12 26 28 40 50 
2 3 12 26 28 40 50 ,2 12 26 28 40 50 
2 3 12 26 28 40 50 ,2 3 12 26 28 40 50 
2 3 12 26 28 40 50 ,2 3 12 26 28 40 50 
2 3 12 26 28 50 ,2 3 12 26 28 40 50 
2 3 12 26 28 50 ,2 3 12 26 28 50 
2 3 12 26 28 50 ,2 3 12 26 28 50 
2 3 12 26 28 50 ,2 3 12 26 28 50 
2 3 12 26 28 50 ,2 3 12 26 28 50 
2 3 12 26 28 50 ,2 3 12 26 28 50 
2 3 12 26 28 50 ,2 3 12 26 28 50 
2 3 12 28 50 ,2 3 12 26 28 50 
2 3 12 28 50 ,2 3 12 28 50 
2 3 12 28 50 ,2 3 12 28 50 
2 3 12 28 50 ,2 3 12 28 50 
2 3 12 13 26 28 50 ,2 3 12 28 50 
2 3 12 13 28 50 ,2 3 12 13 26 28 50 
2 3 12 13 28 50 ,2 3 12 13 28 50 
2 3 12 13 28 50 ,2 3 12 13 28 50 
2 3 12 13 28 50 ,2 3 12 13 28 50 
2 3 12 13 28 50 ,2 3 12 13 28 50 
2 12 13 28 50 ,2 3 12 13 28 50 
2 12 13 28 50 ,2 12 13 28 50 
2 12 13 28 50 ,2 12 13 28 50 
2 12 13 28 50 ,2 12 13 28 50 
2 12 13 28 42 50 ,2 12 13 28 50 
2 12 13 28 42 50 ,2 12 13 28 42 50 
2 12 13 28 42 50 ,2 12 13 28 42 50 
2 12 13 28 42 50 ,2 12 13 28 42 50 
2 12 13 28 42 50 ,2 12 13 28 42 50 
2 12 13 28 42 50 ,2 12 13 28 42 50 
2 12 13 42 50 ,2 12 13 28 42 50 
2 12 13 42 50 ,2 12 13 42 50 
2 12 13 42 50 ,2 12 13 42 50 
2 12 42 50 ,2 12 13 42 50 
2 12 42 50 ,2 12 42 50 
2 12 42 50 ,2 12 42 50 
2 12 17 22 42 50 ,2 12 42 50 
2 12 17 22 42 50 ,2 12 17 22 42 50 
2 12 17 22 42 50 ,2 12 17 22 42 50 
2 12 17 22 42 50 ,2 12 17 22 42 50 
2 12 17 22 42 50 ,2 12 17 22 42 50 
2 12 17 22 42 50 ,2 12 17 22 42 50 
2 12 17 22 42 50 ,2 12 17 22 42 50 
2 12 17 22 42 50 ,2 12 17 22 42 50 
2 12 17 22 23 42 50 ,2 12 17 22 42 50 
2 12 17 22 23 42 50 ,2 12 17 22 23 42 50 
2 12 22 23 42 50 ,2 12 17 22 23 42 50 
2 12 22 23 42 50 ,2 12 22 23 42 50 
2 12 22 23 42 ,2 12 22 23 42 50 
2 12 22 23 42 ,2 12 22 23 42 
2 12 22 23 42 ,2 12 22 23 42 
2 12 22 23 ,2 12 22 23 42 
2 12 22 23 ,2 12 22 23 
2 12 22 48 ,2 12 22 23 
2 22 48 ,2 12 22 48 
2 22 48 ,2 22 48 
2 12 22 48 ,2 22 48 
2 22 48 ,2 12 22 48 
2 48 ,2 22 48 
2 23 48 ,2 48 
2 23 48 ,2 23 48 
2 23 48 ,2 23 48 
23 48 ,2 23 48 
23 48 ,23 48 
23 ,23 48 
23 ,23 
,23 
2 ,
2 ,2 
2 ,2 
43 ,2 
43 ,43 
43 ,43 
43 ,43 
43 ,43 
43 ,43 
43 ,43 
,43 
-------------
-------
1(-1)->2 6 8 14 15 20 26 28 30 31 33 34 36 38 40 41 44 49 
2(-1)->1 3 6 8 11 12 13 14 15 17 20 22 23 26 28 30 31 33 34 36 38 40 41 42 44 48 49 50 
3(-1)->2 12 13 26 28 40 50 
5(-1)->
6(-1)->1 2 8 14 15 20 26 28 30 31 33 36 38 40 41 44 49 
8(-1)->1 2 6 14 15 20 28 30 31 33 36 38 40 44 49 
9(-1)->28 34 44 
11(-1)->2 28 38 44 
12(-1)->2 3 13 17 22 23 26 28 30 40 42 44 48 50 
13(-1)->2 3 12 26 28 42 50 
14(-1)->1 2 6 8 15 20 28 30 31 33 36 38 40 41 44 49 
15(-1)->1 2 6 8 14 28 33 38 41 44 
17(-1)->2 12 22 23 42 50 
20(-1)->1 2 6 8 14 28 31 38 44 
22(-1)->2 12 17 23 42 48 50 
23(-1)->2 12 17 22 42 48 50 
26(-1)->1 2 3 6 12 13 28 30 38 40 44 50 
28(-1)->1 2 3 6 8 9 11 12 13 14 15 20 26 30 31 33 34 36 37 38 40 41 42 44 49 50 
30(-1)->1 2 6 8 12 14 26 28 38 40 44 
31(-1)->1 2 6 8 14 20 28 33 36 38 44 49 
33(-1)->1 2 6 8 14 15 28 31 38 41 44 49 
34(-1)->1 2 9 28 37 38 41 44 
36(-1)->1 2 6 8 14 28 31 38 44 
37(-1)->28 34 44 
38(-1)->1 2 6 8 11 14 15 20 26 28 30 31 33 34 36 40 41 44 49 
40(-1)->1 2 3 6 8 12 14 26 28 30 38 44 50 
41(-1)->1 2 6 14 15 28 33 34 38 44 
42(-1)->2 12 13 17 22 23 28 50 
43(-1)->
44(-1)->1 2 6 8 9 11 12 14 15 20 26 28 30 31 33 34 36 37 38 40 41 49 
48(-1)->2 12 22 23 
49(-1)->1 2 6 8 14 28 31 33 38 44 
50(-1)->2 3 12 13 17 22 23 26 28 40 42 
-------
Node 2 maps to position 0
Node 28 maps to position 1
Node 44 maps to position 2
Node 38 maps to position 3
Node 1 maps to position 4
Node 6 maps to position 5
Node 14 maps to position 6
Node 8 maps to position 7
Node 12 maps to position 8
Node 40 maps to position 9
Node 26 maps to position 10
Node 31 maps to position 11
Node 33 maps to position 12
Node 30 maps to position 13
Node 50 maps to position 14
Node 15 maps to position 15
Node 41 maps to position 16
Node 49 maps to position 17
Node 20 maps to position 18
Node 36 maps to position 19
Node 34 maps to position 20
Node 42 maps to position 21
Node 3 maps to position 22
Node 13 maps to position 23
Node 22 maps to position 24
Node 23 maps to position 25
Node 17 maps to position 26
Node 11 maps to position 27
Node 48 maps to position 28
Node 9 maps to position 29
Node 37 maps to position 30
Node 5 maps to position 31
Node 43 maps to position 32
2(-1)->1 3 6 8 11 12 13 14 15 17 20 22 23 26 28 30 31 33 34 36 38 40 41 42 44 48 49 50 
28(-1)->1 2 3 6 8 9 11 12 13 14 15 20 26 30 31 33 34 36 37 38 40 41 42 44 49 50 
44(-1)->1 2 6 8 9 11 12 14 15 20 26 28 30 31 33 34 36 37 38 40 41 49 
38(-1)->1 2 6 8 11 14 15 20 26 28 30 31 33 34 36 40 41 44 49 
1(-1)->2 6 8 14 15 20 26 28 30 31 33 34 36 38 40 41 44 49 
6(-1)->1 2 8 14 15 20 26 28 30 31 33 36 38 40 41 44 49 
14(-1)->1 2 6 8 15 20 28 30 31 33 36 38 40 41 44 49 
8(-1)->1 2 6 14 15 20 28 30 31 33 36 38 40 44 49 
12(-1)->2 3 13 17 22 23 26 28 30 40 42 44 48 50 
40(-1)->1 2 3 6 8 12 14 26 28 30 38 44 50 
26(-1)->1 2 3 6 12 13 28 30 38 40 44 50 
31(-1)->1 2 6 8 14 20 28 33 36 38 44 49 
33(-1)->1 2 6 8 14 15 28 31 38 41 44 49 
30(-1)->1 2 6 8 12 14 26 28 38 40 44 
50(-1)->2 3 12 13 17 22 23 26 28 40 42 
15(-1)->1 2 6 8 14 28 33 38 41 44 
41(-1)->1 2 6 14 15 28 33 34 38 44 
49(-1)->1 2 6 8 14 28 31 33 38 44 
20(-1)->1 2 6 8 14 28 31 38 44 
36(-1)->1 2 6 8 14 28 31 38 44 
34(-1)->1 2 9 28 37 38 41 44 
42(-1)->2 12 13 17 22 23 28 50 
3(-1)->2 12 13 26 28 40 50 
13(-1)->2 3 12 26 28 42 50 
22(-1)->2 12 17 23 42 48 50 
23(-1)->2 12 17 22 42 48 50 
17(-1)->2 12 22 23 42 50 
11(-1)->2 28 38 44 
48(-1)->2 12 22 23 
9(-1)->28 34 44 
37(-1)->28 34 44 
5(-1)->
43(-1)->
-------
BLAH
START TIME: 1433732182
Cq = 10 and is assigned to x17
BACKTRACKED TO DEPTH: 16
0 1 2 3 4 5 6 7 8 9 
1(4)->2 6 8 14 15 20 26 28 30 31 33 34 36 38 40 41 44 49 
2(0)->1 3 6 8 11 12 13 14 15 17 20 22 23 26 28 30 31 33 34 36 38 40 41 42 44 48 49 50 
3(4)->2 12 13 26 28 40 50 
5(0)->
6(5)->1 2 8 14 15 20 26 28 30 31 33 36 38 40 41 44 49 
8(7)->1 2 6 14 15 20 28 30 31 33 36 38 40 44 49 
9(0)->28 34 44 
11(4)->2 28 38 44 
12(3)->2 3 13 17 22 23 26 28 30 40 42 44 48 50 
13(5)->2 3 12 26 28 42 50 
14(6)->1 2 6 8 15 20 28 30 31 33 36 38 40 41 44 49 
15(8)->1 2 6 8 14 28 33 38 41 44 
17(6)->2 12 22 23 42 50 
20(9)->1 2 6 8 14 28 31 38 44 
22(1)->2 12 17 23 42 48 50 
23(5)->2 12 17 22 42 48 50 
26(6)->1 2 3 6 12 13 28 30 38 40 44 50 
28(1)->1 2 3 6 8 9 11 12 13 14 15 20 26 30 31 33 34 36 37 38 40 41 42 44 49 50 
30(9)->1 2 6 8 12 14 26 28 38 40 44 
31(8)->1 2 6 8 14 20 28 33 36 38 44 49 
33(9)->1 2 6 8 14 15 28 31 38 41 44 49 
34(5)->1 2 9 28 37 38 41 44 
36(9)->1 2 6 8 14 28 31 38 44 
37(0)->28 34 44 
38(3)->1 2 6 8 11 14 15 20 26 28 30 31 33 34 36 40 41 44 49 
40(8)->1 2 3 6 8 12 14 26 28 30 38 44 50 
41(7)->1 2 6 14 15 28 33 34 38 44 
42(4)->2 12 13 17 22 23 28 50 
43(0)->
44(2)->1 2 6 8 9 11 12 14 15 20 26 28 30 31 33 34 36 37 38 40 41 49 
48(2)->2 12 22 23 
49(10)->1 2 6 8 14 28 31 33 38 44 
50(2)->2 3 12 13 17 22 23 26 28 40 42 
COUNT: 367
COLORS: 11
EDGES: 0
11
367
