-1=-1,-1,-1
-1=-1,-1,-1
-1=-1,-1,-1
1=-1,-1,-1
-1=-1,-1,-1
-1=-1,-1,-1
-1=-1,-1,-1
-1=-1,-1,-1
-1=-1,-1,-1
-1=-1,-1,-1
-1=-1,-1,-1
23=-1,-1,-1
46=-1,-1,-1
41=-1,-1,-1
35=-1,-1,-1
-1=-1,-1,-1
-1=-1,-1,-1
-1=-1,-1,-1
4=-1,-1,-1
-1=23,-1,-1
-1=35,-1,-1
50=-1,-1,-1
-1=-1,-1,-1
22=4,-1,-1
16=-1,-1,-1
-1=-1,-1,-1
35=-1,-1,-1
9=22,-1,-1
-1=-1,-1,-1
-1=-1,-1,-1
-1=-1,-1,-1
-1=-1,-1,-1
-1=-1,-1,-1
-1=-1,-1,-1
37=-1,-1,-1
-1=-1,-1,-1
-1=-1,-1,-1
-1=-1,-1,-1
-1=35,-1,-1
-1=-1,-1,-1
-1=-1,-1,-1
-1=-1,-1,-1
12=-1,-1,-1
-1=16,-1,-1
-1=-1,-1,-1
-1=-1,-1,-1
-1=-1,-1,-1
42=-1,-1,-1
-1=-1,-1,-1
-1=-1,-1,-1
22=-1,-1,-1
-1=-1,-1,-1
-1=-1,-1,-1
28=-1,-1,-1
35=-1,-1,-1
14=-1,-1,-1
-1=-1,-1,-1
-1=-1,-1,-1
23=-1,-1,-1
15=-1,-1,-1
-1=-1,-1,-1
-1=-1,-1,-1
-1=14,-1,-1
-1=15,-1,-1
47=-1,-1,-1
-1=-1,-1,-1
38=1,-1,-1
-1=-1,-1,-1
14=-1,-1,-1
-1=37,-1,-1
-1=-1,-1,-1
1=-1,-1,-1
31=-1,-1,-1
-1=-1,-1,-1
-1=-1,-1,-1
-1=-1,-1,-1
17=-1,-1,-1
-1=-1,-1,-1
-1=-1,-1,-1
-1=-1,-1,-1
27=-1,-1,-1
-1=-1,-1,-1
-1=50,-1,-1
-1=22,-1,-1
-1=-1,-1,-1
-1=-1,-1,-1
15=-1,-1,-1
-1=-1,-1,-1
-1=14,23,-1
-1=15,-1,-1
-1=-1,-1,-1
-1=-1,-1,-1
-1=28,-1,-1
15=-1,-1,-1
-1=-1,-1,-1
-1=-1,-1,-1
-1=-1,-1,-1
45=-1,-1,-1
-1=-1,-1,-1
22=-1,-1,-1
-1=35,-1,-1
-1=38,-1,-1
-1=-1,-1,-1
-1=9,-1,-1
-1=-1,-1,-1
-1=1,-1,-1
-1=-1,-1,-1
-1=-1,-1,-1
-1=-1,-1,-1
-1=-1,-1,-1
-1=-1,-1,-1
-1=27,-1,-1
-1=-1,-1,-1
-1=22,-1,-1
-1=31,-1,-1
36=-1,-1,-1
-1=-1,-1,-1
-1=-1,-1,-1
-1=42,-1,-1
-1=-1,-1,-1
-1=-1,-1,-1
-1=-1,-1,-1
-1=-1,-1,-1
18=45,-1,-1
-1=-1,-1,-1
-1=-1,-1,-1
-1=-1,-1,-1
-1=-1,-1,-1
-1=41,46,-1
27=47,-1,-1
-1=-1,-1,-1
-1=-1,-1,-1
21=36,-1,-1
-1=-1,-1,-1
-1=-1,-1,-1
5=17,18,-1
-1=-1,-1,-1
-1=-1,-1,-1
-1=15,21,-1
-1=-1,-1,-1
-1=-1,-1,-1
-1=-1,-1,-1
25=-1,-1,-1
-1=-1,-1,-1
34=27,-1,-1
-1=25,-1,-1
17=-1,-1,-1
-1=17,-1,-1
19=12,-1,-1
-1=19,-1,-1
22=-1,-1,-1
46=-1,-1,-1
-1=-1,-1,-1
-1=-1,-1,-1
24=-1,-1,-1
-1=22,-1,-1
-1=-1,-1,-1
23=-1,-1,-1
-1=34,-1,-1
-1=-1,-1,-1
27=-1,-1,-1
-1=-1,-1,-1
-1=5,-1,-1
-1=-1,-1,-1
-1=-1,-1,-1
-1=-1,-1,-1
-1=-1,-1,-1
-1=-1,-1,-1
-1=24,46,-1
-1=27,-1,-1
-1=-1,-1,-1
-1=-1,-1,-1
-1=-1,-1,-1
-1=-1,-1,-1
12=-1,-1,-1
-1=-1,-1,-1
-1=23,-1,-1
41=-1,-1,-1
-1=-1,-1,-1
-1=12,-1,-1
-1=-1,-1,-1
-1=41,-1,-1
-1=-1,-1,-1
-1=-1,-1,-1
-1=-1,-1,-1
33=-1,-1,-1
-1=-1,-1,-1
-1=-1,-1,-1
-1=-1,-1,-1
-1=-1,-1,-1
-1=-1,-1,-1
-1=33,-1,-1
-1=-1,-1,-1
-1=-1,-1,-1
-1=-1,-1,-1
-1=-1,-1,-1
-1=-1,-1,-1
11=-1,-1,-1
-1=11,-1,-1
-1=-1,-1,-1
--------
,
11 ,
,11 
,
,
,
,
,
33 ,
33 ,33 
33 ,33 
33 ,33 
33 ,33 
33 ,33 
,33 
,
,
,
41 ,
41 ,41 
12 41 ,41 
12 41 ,12 41 
12 ,12 41 
12 23 ,12 
12 23 ,12 23 
23 ,12 23 
23 ,23 
23 ,23 
23 ,23 
23 ,23 
23 27 ,23 
23 24 27 46 ,23 27 
23 24 27 46 ,23 24 27 46 
23 24 27 46 ,23 24 27 46 
23 24 27 46 ,23 24 27 46 
23 24 27 46 ,23 24 27 46 
23 24 27 46 ,23 24 27 46 
5 23 24 27 46 ,23 24 27 46 
5 23 24 27 46 ,5 23 24 27 46 
5 23 24 46 ,5 23 24 27 46 
5 23 24 46 ,5 23 24 46 
5 23 24 34 46 ,5 23 24 46 
5 24 34 46 ,5 23 24 34 46 
5 24 34 46 ,5 24 34 46 
5 22 24 34 46 ,5 24 34 46 
5 22 34 46 ,5 22 24 34 46 
5 22 34 46 ,5 22 34 46 
5 22 34 46 ,5 22 34 46 
5 22 34 ,5 22 34 46 
5 34 ,5 22 34 
5 19 34 ,5 34 
5 12 34 ,5 19 34 
5 12 17 34 ,5 12 34 
5 12 34 ,5 12 17 34 
5 12 25 34 ,5 12 34 
5 12 25 27 ,5 12 25 34 
5 12 25 27 ,5 12 25 27 
5 12 27 ,5 12 25 27 
5 12 27 ,5 12 27 
5 12 27 ,5 12 27 
5 12 27 ,5 12 27 
5 12 15 21 27 ,5 12 27 
5 12 15 21 27 ,5 12 15 21 27 
5 12 15 21 27 ,5 12 15 21 27 
12 15 17 18 21 27 ,5 12 15 21 27 
12 15 17 18 21 27 ,12 15 17 18 21 27 
12 15 17 18 21 27 ,12 15 17 18 21 27 
12 15 17 18 27 36 ,12 15 17 18 21 27 
12 15 17 18 27 36 ,12 15 17 18 27 36 
12 15 17 18 27 36 ,12 15 17 18 27 36 
12 15 17 18 36 47 ,12 15 17 18 27 36 
12 15 17 18 36 41 46 47 ,12 15 17 18 36 47 
12 15 17 18 36 41 46 47 ,12 15 17 18 36 41 46 47 
12 15 17 18 36 41 46 47 ,12 15 17 18 36 41 46 47 
12 15 17 18 36 41 46 47 ,12 15 17 18 36 41 46 47 
12 15 17 18 36 41 46 47 ,12 15 17 18 36 41 46 47 
12 15 17 36 41 45 46 47 ,12 15 17 18 36 41 46 47 
12 15 17 36 41 45 46 47 ,12 15 17 36 41 45 46 47 
12 15 17 36 41 45 46 47 ,12 15 17 36 41 45 46 47 
12 15 17 36 41 45 46 47 ,12 15 17 36 41 45 46 47 
12 15 17 36 41 45 46 47 ,12 15 17 36 41 45 46 47 
12 15 17 36 41 42 45 46 47 ,12 15 17 36 41 45 46 47 
12 15 17 36 41 42 45 46 47 ,12 15 17 36 41 42 45 46 47 
12 15 17 36 41 42 45 46 47 ,12 15 17 36 41 42 45 46 47 
12 15 17 41 42 45 46 47 ,12 15 17 36 41 42 45 46 47 
12 15 17 31 41 42 45 46 47 ,12 15 17 41 42 45 46 47 
12 15 17 22 31 41 42 45 46 47 ,12 15 17 31 41 42 45 46 47 
12 15 17 22 31 41 42 45 46 47 ,12 15 17 22 31 41 42 45 46 47 
12 15 17 22 27 31 41 42 45 46 47 ,12 15 17 22 31 41 42 45 46 47 
12 15 17 22 27 31 41 42 45 46 47 ,12 15 17 22 27 31 41 42 45 46 47 
12 15 17 22 27 31 41 42 45 46 47 ,12 15 17 22 27 31 41 42 45 46 47 
12 15 17 22 27 31 41 42 45 46 47 ,12 15 17 22 27 31 41 42 45 46 47 
12 15 17 22 27 31 41 42 45 46 47 ,12 15 17 22 27 31 41 42 45 46 47 
12 15 17 22 27 31 41 42 45 46 47 ,12 15 17 22 27 31 41 42 45 46 47 
1 12 15 17 22 27 31 41 42 45 46 47 ,12 15 17 22 27 31 41 42 45 46 47 
1 12 15 17 22 27 31 41 42 45 46 47 ,1 12 15 17 22 27 31 41 42 45 46 47 
1 9 12 15 17 22 27 31 41 42 45 46 47 ,1 12 15 17 22 27 31 41 42 45 46 47 
1 9 12 15 17 22 27 31 41 42 45 46 47 ,1 9 12 15 17 22 27 31 41 42 45 46 47 
1 9 12 15 17 22 27 31 38 41 42 45 46 47 ,1 9 12 15 17 22 27 31 41 42 45 46 47 
1 9 12 15 17 22 27 31 35 38 41 42 45 46 47 ,1 9 12 15 17 22 27 31 38 41 42 45 46 47 
1 9 12 15 17 27 31 35 38 41 42 45 46 47 ,1 9 12 15 17 22 27 31 35 38 41 42 45 46 47 
1 9 12 15 17 27 31 35 38 41 42 45 46 47 ,1 9 12 15 17 27 31 35 38 41 42 45 46 47 
1 9 12 15 17 27 31 35 38 41 42 46 47 ,1 9 12 15 17 27 31 35 38 41 42 45 46 47 
1 9 12 15 17 27 31 35 38 41 42 46 47 ,1 9 12 15 17 27 31 35 38 41 42 46 47 
1 9 12 15 17 27 31 35 38 41 42 46 47 ,1 9 12 15 17 27 31 35 38 41 42 46 47 
1 9 12 15 17 27 31 35 38 41 42 46 47 ,1 9 12 15 17 27 31 35 38 41 42 46 47 
1 9 12 17 27 31 35 38 41 42 46 47 ,1 9 12 15 17 27 31 35 38 41 42 46 47 
1 9 12 17 27 28 31 35 38 41 42 46 47 ,1 9 12 17 27 31 35 38 41 42 46 47 
1 9 12 17 27 28 31 35 38 41 42 46 47 ,1 9 12 17 27 28 31 35 38 41 42 46 47 
1 9 12 17 27 28 31 35 38 41 42 46 47 ,1 9 12 17 27 28 31 35 38 41 42 46 47 
1 9 12 15 17 27 28 31 35 38 41 42 46 47 ,1 9 12 17 27 28 31 35 38 41 42 46 47 
1 9 12 14 15 17 23 27 28 31 35 38 41 42 46 47 ,1 9 12 15 17 27 28 31 35 38 41 42 46 47 
1 9 12 14 15 17 23 27 28 31 35 38 41 42 46 47 ,1 9 12 14 15 17 23 27 28 31 35 38 41 42 46 47 
1 9 12 14 17 23 27 28 31 35 38 41 42 46 47 ,1 9 12 14 15 17 23 27 28 31 35 38 41 42 46 47 
1 9 12 14 17 23 27 28 31 35 38 41 42 46 47 ,1 9 12 14 17 23 27 28 31 35 38 41 42 46 47 
1 9 12 14 17 23 27 28 31 35 38 41 42 46 47 ,1 9 12 14 17 23 27 28 31 35 38 41 42 46 47 
1 9 12 14 17 22 23 27 28 31 35 38 41 42 46 47 ,1 9 12 14 17 23 27 28 31 35 38 41 42 46 47 
1 9 12 14 17 22 23 27 28 31 35 38 41 42 46 47 50 ,1 9 12 14 17 22 23 27 28 31 35 38 41 42 46 47 
1 9 12 14 17 22 23 27 28 31 35 38 41 42 46 47 50 ,1 9 12 14 17 22 23 27 28 31 35 38 41 42 46 47 50 
1 9 12 14 17 22 23 28 31 35 38 41 42 46 47 50 ,1 9 12 14 17 22 23 27 28 31 35 38 41 42 46 47 50 
1 9 12 14 17 22 23 28 31 35 38 41 42 46 47 50 ,1 9 12 14 17 22 23 28 31 35 38 41 42 46 47 50 
1 9 12 14 17 22 23 28 31 35 38 41 42 46 47 50 ,1 9 12 14 17 22 23 28 31 35 38 41 42 46 47 50 
1 9 12 14 17 22 23 28 31 35 38 41 42 46 47 50 ,1 9 12 14 17 22 23 28 31 35 38 41 42 46 47 50 
1 9 12 14 22 23 28 31 35 38 41 42 46 47 50 ,1 9 12 14 17 22 23 28 31 35 38 41 42 46 47 50 
1 9 12 14 22 23 28 31 35 38 41 42 46 47 50 ,1 9 12 14 22 23 28 31 35 38 41 42 46 47 50 
1 9 12 14 22 23 28 31 35 38 41 42 46 47 50 ,1 9 12 14 22 23 28 31 35 38 41 42 46 47 50 
1 9 12 14 22 23 28 31 35 38 41 42 46 47 50 ,1 9 12 14 22 23 28 31 35 38 41 42 46 47 50 
1 9 12 14 22 23 28 35 38 41 42 46 47 50 ,1 9 12 14 22 23 28 31 35 38 41 42 46 47 50 
9 12 14 22 23 28 35 38 41 42 46 47 50 ,1 9 12 14 22 23 28 35 38 41 42 46 47 50 
9 12 14 22 23 28 35 38 41 42 46 47 50 ,9 12 14 22 23 28 35 38 41 42 46 47 50 
9 12 14 22 23 28 35 37 38 41 42 46 47 50 ,9 12 14 22 23 28 35 38 41 42 46 47 50 
9 12 22 23 28 35 37 38 41 42 46 47 50 ,9 12 14 22 23 28 35 37 38 41 42 46 47 50 
9 12 22 23 28 35 37 38 41 42 46 47 50 ,9 12 22 23 28 35 37 38 41 42 46 47 50 
1 9 12 22 23 28 35 37 41 42 46 47 50 ,9 12 22 23 28 35 37 38 41 42 46 47 50 
1 9 12 22 23 28 35 37 41 42 46 47 50 ,1 9 12 22 23 28 35 37 41 42 46 47 50 
1 9 12 22 23 28 35 37 41 42 46 50 ,1 9 12 22 23 28 35 37 41 42 46 47 50 
1 9 12 15 22 23 28 35 37 41 42 46 50 ,1 9 12 22 23 28 35 37 41 42 46 50 
1 9 12 14 15 22 23 28 35 37 41 42 46 50 ,1 9 12 15 22 23 28 35 37 41 42 46 50 
1 9 12 14 15 22 23 28 35 37 41 42 46 50 ,1 9 12 14 15 22 23 28 35 37 41 42 46 50 
1 9 12 14 15 22 23 28 35 37 41 42 46 50 ,1 9 12 14 15 22 23 28 35 37 41 42 46 50 
1 9 12 14 22 23 28 35 37 41 42 46 50 ,1 9 12 14 15 22 23 28 35 37 41 42 46 50 
1 9 12 14 22 28 35 37 41 42 46 50 ,1 9 12 14 22 23 28 35 37 41 42 46 50 
1 9 12 14 22 28 35 37 41 42 46 50 ,1 9 12 14 22 28 35 37 41 42 46 50 
1 9 12 14 22 28 35 37 41 42 46 50 ,1 9 12 14 22 28 35 37 41 42 46 50 
1 9 12 22 28 35 37 41 42 46 50 ,1 9 12 14 22 28 35 37 41 42 46 50 
1 9 12 22 28 37 41 42 46 50 ,1 9 12 22 28 35 37 41 42 46 50 
1 9 12 22 37 41 42 46 50 ,1 9 12 22 28 37 41 42 46 50 
1 9 12 22 37 41 42 46 50 ,1 9 12 22 37 41 42 46 50 
1 9 12 22 37 41 42 46 50 ,1 9 12 22 37 41 42 46 50 
1 9 12 37 41 42 46 50 ,1 9 12 22 37 41 42 46 50 
1 9 12 37 41 42 46 50 ,1 9 12 37 41 42 46 50 
1 9 12 37 41 42 46 50 ,1 9 12 37 41 42 46 50 
1 9 12 37 41 46 50 ,1 9 12 37 41 42 46 50 
1 9 12 37 41 46 50 ,1 9 12 37 41 46 50 
1 9 12 37 41 46 50 ,1 9 12 37 41 46 50 
1 9 12 37 41 46 50 ,1 9 12 37 41 46 50 
1 9 12 16 37 41 46 50 ,1 9 12 37 41 46 50 
1 9 16 37 41 46 50 ,1 9 12 16 37 41 46 50 
1 9 16 37 41 46 50 ,1 9 16 37 41 46 50 
1 9 16 37 41 46 50 ,1 9 16 37 41 46 50 
1 9 16 37 41 46 50 ,1 9 16 37 41 46 50 
1 9 16 35 37 41 46 50 ,1 9 16 37 41 46 50 
1 9 16 35 37 41 46 50 ,1 9 16 35 37 41 46 50 
1 9 16 35 37 41 46 50 ,1 9 16 35 37 41 46 50 
1 9 16 35 37 41 46 50 ,1 9 16 35 37 41 46 50 
1 9 16 35 41 46 50 ,1 9 16 35 37 41 46 50 
1 9 16 35 41 46 50 ,1 9 16 35 41 46 50 
1 9 16 35 41 46 50 ,1 9 16 35 41 46 50 
1 9 16 35 41 46 50 ,1 9 16 35 41 46 50 
1 9 16 35 41 46 50 ,1 9 16 35 41 46 50 
1 9 16 35 41 46 50 ,1 9 16 35 41 46 50 
1 9 16 35 41 46 50 ,1 9 16 35 41 46 50 
1 16 22 35 41 46 50 ,1 9 16 35 41 46 50 
1 16 22 41 46 50 ,1 16 22 35 41 46 50 
1 16 22 41 46 50 ,1 16 22 41 46 50 
1 22 41 46 50 ,1 16 22 41 46 50 
1 4 41 46 50 ,1 22 41 46 50 
1 4 41 46 50 ,1 4 41 46 50 
1 4 41 46 ,1 4 41 46 50 
1 4 35 41 46 ,1 4 41 46 
1 4 23 35 41 46 ,1 4 35 41 46 
1 23 35 41 46 ,1 4 23 35 41 46 
1 23 35 41 46 ,1 23 35 41 46 
1 23 35 41 46 ,1 23 35 41 46 
1 23 35 41 46 ,1 23 35 41 46 
1 23 41 46 ,1 23 35 41 46 
1 23 46 ,1 23 41 46 
1 23 ,1 23 46 
1 ,1 23 
1 ,1 
1 ,1 
1 ,1 
1 ,1 
1 ,1 
1 ,1 
1 ,1 
,1 
,
,
,
--------
,
11 ,
,11 
,
,
,
,
,
33 ,
33 ,33 
33 ,33 
33 ,33 
33 ,33 
33 ,33 
,33 
,
,
,
41 ,
41 ,41 
12 41 ,41 
12 41 ,12 41 
12 ,12 41 
12 23 ,12 
12 23 ,12 23 
23 ,12 23 
23 ,23 
23 ,23 
23 ,23 
23 ,23 
23 27 ,23 
23 24 27 46 ,23 27 
23 24 27 46 ,23 24 27 46 
23 24 27 46 ,23 24 27 46 
23 24 27 46 ,23 24 27 46 
23 24 27 46 ,23 24 27 46 
23 24 27 46 ,23 24 27 46 
5 23 24 27 46 ,23 24 27 46 
5 23 24 27 46 ,5 23 24 27 46 
5 23 24 46 ,5 23 24 27 46 
5 23 24 46 ,5 23 24 46 
5 23 24 34 46 ,5 23 24 46 
5 24 34 46 ,5 23 24 34 46 
5 24 34 46 ,5 24 34 46 
5 22 24 34 46 ,5 24 34 46 
5 22 34 46 ,5 22 24 34 46 
5 22 34 46 ,5 22 34 46 
5 22 34 46 ,5 22 34 46 
5 22 34 ,5 22 34 46 
5 34 ,5 22 34 
5 19 34 ,5 34 
5 12 34 ,5 19 34 
5 12 17 34 ,5 12 34 
5 12 34 ,5 12 17 34 
5 12 25 34 ,5 12 34 
5 12 25 27 ,5 12 25 34 
5 12 25 27 ,5 12 25 27 
5 12 27 ,5 12 25 27 
5 12 27 ,5 12 27 
5 12 27 ,5 12 27 
5 12 27 ,5 12 27 
5 12 15 21 27 ,5 12 27 
5 12 15 21 27 ,5 12 15 21 27 
5 12 15 21 27 ,5 12 15 21 27 
12 15 17 18 21 27 ,5 12 15 21 27 
12 15 17 18 21 27 ,12 15 17 18 21 27 
12 15 17 18 21 27 ,12 15 17 18 21 27 
12 15 17 18 27 36 ,12 15 17 18 21 27 
12 15 17 18 27 36 ,12 15 17 18 27 36 
12 15 17 18 27 36 ,12 15 17 18 27 36 
12 15 17 18 36 47 ,12 15 17 18 27 36 
12 15 17 18 36 41 46 47 ,12 15 17 18 36 47 
12 15 17 18 36 41 46 47 ,12 15 17 18 36 41 46 47 
12 15 17 18 36 41 46 47 ,12 15 17 18 36 41 46 47 
12 15 17 18 36 41 46 47 ,12 15 17 18 36 41 46 47 
12 15 17 18 36 41 46 47 ,12 15 17 18 36 41 46 47 
12 15 17 36 41 45 46 47 ,12 15 17 18 36 41 46 47 
12 15 17 36 41 45 46 47 ,12 15 17 36 41 45 46 47 
12 15 17 36 41 45 46 47 ,12 15 17 36 41 45 46 47 
12 15 17 36 41 45 46 47 ,12 15 17 36 41 45 46 47 
12 15 17 36 41 45 46 47 ,12 15 17 36 41 45 46 47 
12 15 17 36 41 42 45 46 47 ,12 15 17 36 41 45 46 47 
12 15 17 36 41 42 45 46 47 ,12 15 17 36 41 42 45 46 47 
12 15 17 36 41 42 45 46 47 ,12 15 17 36 41 42 45 46 47 
12 15 17 41 42 45 46 47 ,12 15 17 36 41 42 45 46 47 
12 15 17 31 41 42 45 46 47 ,12 15 17 41 42 45 46 47 
12 15 17 22 31 41 42 45 46 47 ,12 15 17 31 41 42 45 46 47 
12 15 17 22 31 41 42 45 46 47 ,12 15 17 22 31 41 42 45 46 47 
12 15 17 22 27 31 41 42 45 46 47 ,12 15 17 22 31 41 42 45 46 47 
12 15 17 22 27 31 41 42 45 46 47 ,12 15 17 22 27 31 41 42 45 46 47 
12 15 17 22 27 31 41 42 45 46 47 ,12 15 17 22 27 31 41 42 45 46 47 
12 15 17 22 27 31 41 42 45 46 47 ,12 15 17 22 27 31 41 42 45 46 47 
12 15 17 22 27 31 41 42 45 46 47 ,12 15 17 22 27 31 41 42 45 46 47 
12 15 17 22 27 31 41 42 45 46 47 ,12 15 17 22 27 31 41 42 45 46 47 
1 12 15 17 22 27 31 41 42 45 46 47 ,12 15 17 22 27 31 41 42 45 46 47 
1 12 15 17 22 27 31 41 42 45 46 47 ,1 12 15 17 22 27 31 41 42 45 46 47 
1 9 12 15 17 22 27 31 41 42 45 46 47 ,1 12 15 17 22 27 31 41 42 45 46 47 
1 9 12 15 17 22 27 31 41 42 45 46 47 ,1 9 12 15 17 22 27 31 41 42 45 46 47 
1 9 12 15 17 22 27 31 38 41 42 45 46 47 ,1 9 12 15 17 22 27 31 41 42 45 46 47 
1 9 12 15 17 22 27 31 35 38 41 42 45 46 47 ,1 9 12 15 17 22 27 31 38 41 42 45 46 47 
1 9 12 15 17 27 31 35 38 41 42 45 46 47 ,1 9 12 15 17 22 27 31 35 38 41 42 45 46 47 
1 9 12 15 17 27 31 35 38 41 42 45 46 47 ,1 9 12 15 17 27 31 35 38 41 42 45 46 47 
1 9 12 15 17 27 31 35 38 41 42 46 47 ,1 9 12 15 17 27 31 35 38 41 42 45 46 47 
1 9 12 15 17 27 31 35 38 41 42 46 47 ,1 9 12 15 17 27 31 35 38 41 42 46 47 
1 9 12 15 17 27 31 35 38 41 42 46 47 ,1 9 12 15 17 27 31 35 38 41 42 46 47 
1 9 12 15 17 27 31 35 38 41 42 46 47 ,1 9 12 15 17 27 31 35 38 41 42 46 47 
1 9 12 17 27 31 35 38 41 42 46 47 ,1 9 12 15 17 27 31 35 38 41 42 46 47 
1 9 12 17 27 28 31 35 38 41 42 46 47 ,1 9 12 17 27 31 35 38 41 42 46 47 
1 9 12 17 27 28 31 35 38 41 42 46 47 ,1 9 12 17 27 28 31 35 38 41 42 46 47 
1 9 12 17 27 28 31 35 38 41 42 46 47 ,1 9 12 17 27 28 31 35 38 41 42 46 47 
1 9 12 15 17 27 28 31 35 38 41 42 46 47 ,1 9 12 17 27 28 31 35 38 41 42 46 47 
1 9 12 14 15 17 23 27 28 31 35 38 41 42 46 47 ,1 9 12 15 17 27 28 31 35 38 41 42 46 47 
1 9 12 14 15 17 23 27 28 31 35 38 41 42 46 47 ,1 9 12 14 15 17 23 27 28 31 35 38 41 42 46 47 
1 9 12 14 17 23 27 28 31 35 38 41 42 46 47 ,1 9 12 14 15 17 23 27 28 31 35 38 41 42 46 47 
1 9 12 14 17 23 27 28 31 35 38 41 42 46 47 ,1 9 12 14 17 23 27 28 31 35 38 41 42 46 47 
1 9 12 14 17 23 27 28 31 35 38 41 42 46 47 ,1 9 12 14 17 23 27 28 31 35 38 41 42 46 47 
1 9 12 14 17 22 23 27 28 31 35 38 41 42 46 47 ,1 9 12 14 17 23 27 28 31 35 38 41 42 46 47 
1 9 12 14 17 22 23 27 28 31 35 38 41 42 46 47 50 ,1 9 12 14 17 22 23 27 28 31 35 38 41 42 46 47 
1 9 12 14 17 22 23 27 28 31 35 38 41 42 46 47 50 ,1 9 12 14 17 22 23 27 28 31 35 38 41 42 46 47 50 
1 9 12 14 17 22 23 28 31 35 38 41 42 46 47 50 ,1 9 12 14 17 22 23 27 28 31 35 38 41 42 46 47 50 
1 9 12 14 17 22 23 28 31 35 38 41 42 46 47 50 ,1 9 12 14 17 22 23 28 31 35 38 41 42 46 47 50 
1 9 12 14 17 22 23 28 31 35 38 41 42 46 47 50 ,1 9 12 14 17 22 23 28 31 35 38 41 42 46 47 50 
1 9 12 14 17 22 23 28 31 35 38 41 42 46 47 50 ,1 9 12 14 17 22 23 28 31 35 38 41 42 46 47 50 
1 9 12 14 22 23 28 31 35 38 41 42 46 47 50 ,1 9 12 14 17 22 23 28 31 35 38 41 42 46 47 50 
1 9 12 14 22 23 28 31 35 38 41 42 46 47 50 ,1 9 12 14 22 23 28 31 35 38 41 42 46 47 50 
1 9 12 14 22 23 28 31 35 38 41 42 46 47 50 ,1 9 12 14 22 23 28 31 35 38 41 42 46 47 50 
1 9 12 14 22 23 28 31 35 38 41 42 46 47 50 ,1 9 12 14 22 23 28 31 35 38 41 42 46 47 50 
1 9 12 14 22 23 28 35 38 41 42 46 47 50 ,1 9 12 14 22 23 28 31 35 38 41 42 46 47 50 
9 12 14 22 23 28 35 38 41 42 46 47 50 ,1 9 12 14 22 23 28 35 38 41 42 46 47 50 
9 12 14 22 23 28 35 38 41 42 46 47 50 ,9 12 14 22 23 28 35 38 41 42 46 47 50 
9 12 14 22 23 28 35 37 38 41 42 46 47 50 ,9 12 14 22 23 28 35 38 41 42 46 47 50 
9 12 22 23 28 35 37 38 41 42 46 47 50 ,9 12 14 22 23 28 35 37 38 41 42 46 47 50 
9 12 22 23 28 35 37 38 41 42 46 47 50 ,9 12 22 23 28 35 37 38 41 42 46 47 50 
1 9 12 22 23 28 35 37 41 42 46 47 50 ,9 12 22 23 28 35 37 38 41 42 46 47 50 
1 9 12 22 23 28 35 37 41 42 46 47 50 ,1 9 12 22 23 28 35 37 41 42 46 47 50 
1 9 12 22 23 28 35 37 41 42 46 50 ,1 9 12 22 23 28 35 37 41 42 46 47 50 
1 9 12 15 22 23 28 35 37 41 42 46 50 ,1 9 12 22 23 28 35 37 41 42 46 50 
1 9 12 14 15 22 23 28 35 37 41 42 46 50 ,1 9 12 15 22 23 28 35 37 41 42 46 50 
1 9 12 14 15 22 23 28 35 37 41 42 46 50 ,1 9 12 14 15 22 23 28 35 37 41 42 46 50 
1 9 12 14 15 22 23 28 35 37 41 42 46 50 ,1 9 12 14 15 22 23 28 35 37 41 42 46 50 
1 9 12 14 22 23 28 35 37 41 42 46 50 ,1 9 12 14 15 22 23 28 35 37 41 42 46 50 
1 9 12 14 22 28 35 37 41 42 46 50 ,1 9 12 14 22 23 28 35 37 41 42 46 50 
1 9 12 14 22 28 35 37 41 42 46 50 ,1 9 12 14 22 28 35 37 41 42 46 50 
1 9 12 14 22 28 35 37 41 42 46 50 ,1 9 12 14 22 28 35 37 41 42 46 50 
1 9 12 22 28 35 37 41 42 46 50 ,1 9 12 14 22 28 35 37 41 42 46 50 
1 9 12 22 28 37 41 42 46 50 ,1 9 12 22 28 35 37 41 42 46 50 
1 9 12 22 37 41 42 46 50 ,1 9 12 22 28 37 41 42 46 50 
1 9 12 22 37 41 42 46 50 ,1 9 12 22 37 41 42 46 50 
1 9 12 22 37 41 42 46 50 ,1 9 12 22 37 41 42 46 50 
1 9 12 37 41 42 46 50 ,1 9 12 22 37 41 42 46 50 
1 9 12 37 41 42 46 50 ,1 9 12 37 41 42 46 50 
1 9 12 37 41 42 46 50 ,1 9 12 37 41 42 46 50 
1 9 12 37 41 46 50 ,1 9 12 37 41 42 46 50 
1 9 12 37 41 46 50 ,1 9 12 37 41 46 50 
1 9 12 37 41 46 50 ,1 9 12 37 41 46 50 
1 9 12 37 41 46 50 ,1 9 12 37 41 46 50 
1 9 12 16 37 41 46 50 ,1 9 12 37 41 46 50 
1 9 16 37 41 46 50 ,1 9 12 16 37 41 46 50 
1 9 16 37 41 46 50 ,1 9 16 37 41 46 50 
1 9 16 37 41 46 50 ,1 9 16 37 41 46 50 
1 9 16 37 41 46 50 ,1 9 16 37 41 46 50 
1 9 16 35 37 41 46 50 ,1 9 16 37 41 46 50 
1 9 16 35 37 41 46 50 ,1 9 16 35 37 41 46 50 
1 9 16 35 37 41 46 50 ,1 9 16 35 37 41 46 50 
1 9 16 35 37 41 46 50 ,1 9 16 35 37 41 46 50 
1 9 16 35 41 46 50 ,1 9 16 35 37 41 46 50 
1 9 16 35 41 46 50 ,1 9 16 35 41 46 50 
1 9 16 35 41 46 50 ,1 9 16 35 41 46 50 
1 9 16 35 41 46 50 ,1 9 16 35 41 46 50 
1 9 16 35 41 46 50 ,1 9 16 35 41 46 50 
1 9 16 35 41 46 50 ,1 9 16 35 41 46 50 
1 9 16 35 41 46 50 ,1 9 16 35 41 46 50 
1 16 22 35 41 46 50 ,1 9 16 35 41 46 50 
1 16 22 41 46 50 ,1 16 22 35 41 46 50 
1 16 22 41 46 50 ,1 16 22 41 46 50 
1 22 41 46 50 ,1 16 22 41 46 50 
1 4 41 46 50 ,1 22 41 46 50 
1 4 41 46 50 ,1 4 41 46 50 
1 4 41 46 ,1 4 41 46 50 
1 4 35 41 46 ,1 4 41 46 
1 4 23 35 41 46 ,1 4 35 41 46 
1 23 35 41 46 ,1 4 23 35 41 46 
1 23 35 41 46 ,1 23 35 41 46 
1 23 35 41 46 ,1 23 35 41 46 
1 23 35 41 46 ,1 23 35 41 46 
1 23 41 46 ,1 23 35 41 46 
1 23 46 ,1 23 41 46 
1 23 ,1 23 46 
1 ,1 23 
1 ,1 
1 ,1 
1 ,1 
1 ,1 
1 ,1 
1 ,1 
1 ,1 
,1 
,
,
,
-------------
-------
1(-1)->4 9 12 14 15 16 17 22 23 27 28 31 35 37 38 41 42 45 46 47 50 
4(-1)->1 23 35 41 46 50 
5(-1)->12 15 17 19 21 22 23 24 25 27 34 46 
9(-1)->1 12 14 15 16 17 22 23 27 28 31 35 37 38 41 42 45 46 47 50 
11(-1)->
12(-1)->1 5 9 14 15 16 17 18 21 22 23 25 27 28 31 34 35 36 37 38 41 42 45 46 47 50 
14(-1)->1 9 12 15 17 22 23 27 28 31 35 37 38 41 42 46 47 50 
15(-1)->1 5 9 12 14 17 18 21 22 23 27 28 31 35 36 37 38 41 42 45 46 47 50 
16(-1)->1 9 12 22 35 37 41 46 50 
17(-1)->1 5 9 12 14 15 18 21 22 23 27 28 31 34 35 36 38 41 42 45 46 47 50 
18(-1)->12 15 17 21 27 36 41 46 47 
19(-1)->5 34 
21(-1)->5 12 15 17 18 27 
22(-1)->1 5 9 12 14 15 16 17 23 24 27 28 31 34 35 37 38 41 42 45 46 47 50 
23(-1)->1 4 5 9 12 14 15 17 22 24 27 28 31 34 35 37 38 41 42 46 47 50 
24(-1)->5 22 23 27 34 46 
25(-1)->5 12 27 34 
27(-1)->1 5 9 12 14 15 17 18 21 22 23 24 25 28 31 35 36 38 41 42 45 46 47 50 
28(-1)->1 9 12 14 15 17 22 23 27 31 35 37 38 41 42 46 47 50 
31(-1)->1 9 12 14 15 17 22 23 27 28 35 38 41 42 45 46 47 50 
33(-1)->
34(-1)->5 12 17 19 22 23 24 25 46 
35(-1)->1 4 9 12 14 15 16 17 22 23 27 28 31 37 38 41 42 45 46 47 50 
36(-1)->12 15 17 18 27 41 42 45 46 47 
37(-1)->1 9 12 14 15 16 22 23 28 35 38 41 42 46 47 50 
38(-1)->1 9 12 14 15 17 22 23 27 28 31 35 37 41 42 45 46 47 50 
41(-1)->1 4 9 12 14 15 16 17 18 22 23 27 28 31 35 36 37 38 42 45 46 47 50 
42(-1)->1 9 12 14 15 17 22 23 27 28 31 35 36 37 38 41 45 46 47 50 
45(-1)->1 9 12 15 17 22 27 31 35 36 38 41 42 46 47 
46(-1)->1 4 5 9 12 14 15 16 17 18 22 23 24 27 28 31 34 35 36 37 38 41 42 45 47 50 
47(-1)->1 9 12 14 15 17 18 22 23 27 28 31 35 36 37 38 41 42 45 46 50 
50(-1)->1 4 9 12 14 15 16 17 22 23 27 28 31 35 37 38 41 42 46 47 
-------
Node 12 maps to position 0
Node 46 maps to position 1
Node 27 maps to position 2
Node 15 maps to position 3
Node 17 maps to position 4
Node 22 maps to position 5
Node 41 maps to position 6
Node 23 maps to position 7
Node 1 maps to position 8
Node 35 maps to position 9
Node 47 maps to position 10
Node 9 maps to position 11
Node 42 maps to position 12
Node 50 maps to position 13
Node 38 maps to position 14
Node 14 maps to position 15
Node 28 maps to position 16
Node 31 maps to position 17
Node 37 maps to position 18
Node 45 maps to position 19
Node 5 maps to position 20
Node 36 maps to position 21
Node 16 maps to position 22
Node 18 maps to position 23
Node 34 maps to position 24
Node 4 maps to position 25
Node 21 maps to position 26
Node 24 maps to position 27
Node 25 maps to position 28
Node 19 maps to position 29
Node 11 maps to position 30
Node 33 maps to position 31
12(-1)->1 5 9 14 15 16 17 18 21 22 23 25 27 28 31 34 35 36 37 38 41 42 45 46 47 50 
46(-1)->1 4 5 9 12 14 15 16 17 18 22 23 24 27 28 31 34 35 36 37 38 41 42 45 47 50 
27(-1)->1 5 9 12 14 15 17 18 21 22 23 24 25 28 31 35 36 38 41 42 45 46 47 50 
15(-1)->1 5 9 12 14 17 18 21 22 23 27 28 31 35 36 37 38 41 42 45 46 47 50 
17(-1)->1 5 9 12 14 15 18 21 22 23 27 28 31 34 35 36 38 41 42 45 46 47 50 
22(-1)->1 5 9 12 14 15 16 17 23 24 27 28 31 34 35 37 38 41 42 45 46 47 50 
41(-1)->1 4 9 12 14 15 16 17 18 22 23 27 28 31 35 36 37 38 42 45 46 47 50 
23(-1)->1 4 5 9 12 14 15 17 22 24 27 28 31 34 35 37 38 41 42 46 47 50 
1(-1)->4 9 12 14 15 16 17 22 23 27 28 31 35 37 38 41 42 45 46 47 50 
35(-1)->1 4 9 12 14 15 16 17 22 23 27 28 31 37 38 41 42 45 46 47 50 
47(-1)->1 9 12 14 15 17 18 22 23 27 28 31 35 36 37 38 41 42 45 46 50 
9(-1)->1 12 14 15 16 17 22 23 27 28 31 35 37 38 41 42 45 46 47 50 
42(-1)->1 9 12 14 15 17 22 23 27 28 31 35 36 37 38 41 45 46 47 50 
50(-1)->1 4 9 12 14 15 16 17 22 23 27 28 31 35 37 38 41 42 46 47 
38(-1)->1 9 12 14 15 17 22 23 27 28 31 35 37 41 42 45 46 47 50 
14(-1)->1 9 12 15 17 22 23 27 28 31 35 37 38 41 42 46 47 50 
28(-1)->1 9 12 14 15 17 22 23 27 31 35 37 38 41 42 46 47 50 
31(-1)->1 9 12 14 15 17 22 23 27 28 35 38 41 42 45 46 47 50 
37(-1)->1 9 12 14 15 16 22 23 28 35 38 41 42 46 47 50 
45(-1)->1 9 12 15 17 22 27 31 35 36 38 41 42 46 47 
5(-1)->12 15 17 19 21 22 23 24 25 27 34 46 
36(-1)->12 15 17 18 27 41 42 45 46 47 
16(-1)->1 9 12 22 35 37 41 46 50 
18(-1)->12 15 17 21 27 36 41 46 47 
34(-1)->5 12 17 19 22 23 24 25 46 
4(-1)->1 23 35 41 46 50 
21(-1)->5 12 15 17 18 27 
24(-1)->5 22 23 27 34 46 
25(-1)->5 12 27 34 
19(-1)->5 34 
11(-1)->
33(-1)->
-------
BLAH
START TIME: 1433732183
Cq = 17 and is assigned to x17
BACKTRACKED TO DEPTH: 16
0 1 2 3 4 5 6 7 8 9 10 11 12 13 14 15 16 
1(8)->4 9 12 14 15 16 17 22 23 27 28 31 35 37 38 41 42 45 46 47 50 
4(0)->1 23 35 41 46 50 
5(6)->12 15 17 19 21 22 23 24 25 27 34 46 
9(11)->1 12 14 15 16 17 22 23 27 28 31 35 37 38 41 42 45 46 47 50 
11(0)->
12(0)->1 5 9 14 15 16 17 18 21 22 23 25 27 28 31 34 35 36 37 38 41 42 45 46 47 50 
14(15)->1 9 12 15 17 22 23 27 28 31 35 37 38 41 42 46 47 50 
15(3)->1 5 9 12 14 17 18 21 22 23 27 28 31 35 36 37 38 41 42 45 46 47 50 
16(3)->1 9 12 22 35 37 41 46 50 
17(4)->1 5 9 12 14 15 18 21 22 23 27 28 31 34 35 36 38 41 42 45 46 47 50 
18(7)->12 15 17 21 27 36 41 46 47 
19(0)->5 34 
21(1)->5 12 15 17 18 27 
22(5)->1 5 9 12 14 15 16 17 23 24 27 28 31 34 35 37 38 41 42 45 46 47 50 
23(7)->1 4 5 9 12 14 15 17 22 24 27 28 31 34 35 37 38 41 42 46 47 50 
24(0)->5 22 23 27 34 46 
25(1)->5 12 27 34 
27(2)->1 5 9 12 14 15 17 18 21 22 23 24 25 28 31 35 36 38 41 42 45 46 47 50 
28(16)->1 9 12 14 15 17 22 23 27 31 35 37 38 41 42 46 47 50 
31(17)->1 9 12 14 15 17 22 23 27 28 35 38 41 42 45 46 47 50 
33(0)->
34(2)->5 12 17 19 22 23 24 25 46 
35(9)->1 4 9 12 14 15 16 17 22 23 27 28 31 37 38 41 42 45 46 47 50 
36(5)->12 15 17 18 27 41 42 45 46 47 
37(2)->1 9 12 14 15 16 22 23 28 35 38 41 42 46 47 50 
38(14)->1 9 12 14 15 17 22 23 27 28 31 35 37 41 42 45 46 47 50 
41(6)->1 4 9 12 14 15 16 17 18 22 23 27 28 31 35 36 37 38 42 45 46 47 50 
42(12)->1 9 12 14 15 17 22 23 27 28 31 35 36 37 38 41 45 46 47 50 
45(7)->1 9 12 15 17 22 27 31 35 36 38 41 42 46 47 
46(1)->1 4 5 9 12 14 15 16 17 18 22 23 24 27 28 31 34 35 36 37 38 41 42 45 47 50 
47(10)->1 9 12 14 15 17 18 22 23 27 28 31 35 36 37 38 41 42 45 46 50 
50(13)->1 4 9 12 14 15 16 17 22 23 27 28 31 35 37 38 41 42 46 47 
COUNT: 32
COLORS: 18
EDGES: 0
18
32
