33=-1,-1,-1
-1=-1,-1,-1
1=-1,-1,-1
14=-1,-1,-1
-1=-1,-1,-1
-1=-1,-1,-1
-1=-1,-1,-1
-1=-1,-1,-1
-1=-1,-1,-1
23=-1,-1,-1
46=-1,-1,-1
41=33,-1,-1
35=-1,-1,-1
21=-1,-1,-1
-1=35,-1,-1
4=-1,-1,-1
-1=21,-1,-1
-1=-1,-1,-1
50=-1,-1,-1
-1=-1,-1,-1
22=-1,-1,-1
16=-1,-1,-1
-1=-1,-1,-1
35=23,-1,-1
9=-1,-1,-1
-1=4,-1,-1
21=-1,-1,-1
-1=-1,-1,-1
20=-1,-1,-1
37=-1,-1,-1
-1=-1,-1,-1
-1=-1,-1,-1
-1=-1,-1,-1
19=14,35,-1
-1=22,-1,-1
-1=-1,-1,-1
12=-1,-1,-1
26=-1,-1,-1
-1=26,-1,-1
-1=-1,-1,-1
42=-1,-1,-1
26=9,-1,-1
22=-1,-1,-1
39=-1,-1,-1
28=-1,-1,-1
35=-1,-1,-1
14=-1,-1,-1
32=-1,-1,-1
23=-1,-1,-1
15=14,-1,-1
48=19,-1,-1
48=48,-1,-1
47=-1,-1,-1
10=48,-1,-1
-1=28,-1,-1
-1=-1,-1,-1
14=15,-1,-1
-1=39,-1,-1
13=-1,-1,-1
3=-1,-1,-1
-1=-1,-1,-1
-1=32,-1,-1
-1=-1,-1,-1
-1=35,-1,-1
17=-1,-1,-1
-1=-1,-1,-1
-1=37,-1,-1
-1=-1,-1,-1
27=-1,-1,-1
32=16,22,-1
48=3,41,-1
-1=48,-1,-1
15=46,-1,-1
-1=15,-1,-1
48=-1,-1,-1
-1=-1,-1,-1
-1=1,-1,-1
-1=13,-1,-1
15=-1,-1,-1
35=-1,-1,-1
-1=42,-1,-1
45=-1,-1,-1
13=27,-1,-1
49=-1,-1,-1
-1=15,26,-1
-1=-1,-1,-1
-1=-1,-1,-1
-1=-1,-1,-1
-1=-1,-1,-1
30=21,-1,-1
-1=47,-1,-1
-1=-1,-1,-1
-1=-1,-1,-1
19=-1,-1,-1
-1=13,-1,-1
-1=14,-1,-1
36=-1,-1,-1
-1=-1,-1,-1
-1=32,35,-1
-1=-1,-1,-1
-1=-1,-1,-1
-1=45,-1,-1
-1=-1,-1,-1
5=49,-1,-1
16=5,-1,-1
-1=48,-1,-1
-1=17,-1,-1
-1=23,-1,-1
-1=50,-1,-1
27=-1,-1,-1
-1=-1,-1,-1
13=-1,-1,-1
17=-1,-1,-1
-1=-1,-1,-1
5=12,-1,-1
35=20,27,-1
-1=-1,-1,-1
-1=5,-1,-1
-1=19,-1,-1
2=30,-1,-1
23=-1,-1,-1
34=13,-1,-1
12=-1,-1,-1
48=12,36,-1
19=-1,-1,-1
11=-1,-1,-1
12=-1,-1,-1
-1=10,12,48
-1=17,-1,-1
-1=23,-1,-1
24=-1,-1,-1
-1=34,-1,-1
-1=-1,-1,-1
23=-1,-1,-1
-1=-1,-1,-1
-1=-1,-1,-1
27=-1,-1,-1
-1=24,-1,-1
34=-1,-1,-1
-1=35,-1,-1
-1=16,-1,-1
-1=-1,-1,-1
-1=-1,-1,-1
37=-1,-1,-1
25=-1,-1,-1
16=-1,-1,-1
12=-1,-1,-1
-1=19,-1,-1
3=-1,-1,-1
-1=-1,-1,-1
47=3,23,-1
-1=-1,-1,-1
44=12,-1,-1
-1=2,27,-1
7=-1,-1,-1
-1=7,37,-1
-1=-1,-1,-1
-1=34,-1,-1
-1=11,-1,-1
31=-1,-1,-1
21=-1,-1,-1
20=25,-1,-1
41=20,-1,-1
11=-1,-1,-1
49=-1,-1,-1
-1=-1,-1,-1
42=41,-1,-1
-1=-1,-1,-1
-1=44,-1,-1
37=-1,-1,-1
7=16,47,-1
-1=-1,-1,-1
-1=42,-1,-1
44=-1,-1,-1
16=7,-1,-1
9=16,-1,-1
36=37,-1,-1
10=11,44,-1
16=49,-1,-1
-1=21,31,-1
-1=-1,-1,-1
35=-1,-1,-1
-1=-1,-1,-1
27=-1,-1,-1
-1=9,35,-1
-1=-1,-1,-1
-1=16,-1,-1
-1=36,-1,-1
32=10,27,-1
21=-1,-1,-1
-1=-1,-1,-1
-1=32,-1,-1
47=-1,-1,-1
43=21,-1,-1
-1=47,-1,-1
-1=43,-1,-1
-1=-1,-1,-1
21=-1,-1,-1
-1=21,-1,-1
-1=-1,-1,-1
--------
,
21 ,
,21 
,
43 ,
43 47 ,43 
21 47 ,43 47 
21 ,21 47 
21 32 ,21 
21 32 ,21 32 
32 ,21 32 
10 27 ,32 
10 27 36 ,10 27 
10 16 27 36 ,10 27 36 
10 16 27 36 ,10 16 27 36 
9 10 16 27 35 36 ,10 16 27 36 
9 10 16 35 36 ,9 10 16 27 35 36 
9 10 16 35 36 ,9 10 16 35 36 
9 10 16 36 ,9 10 16 35 36 
9 10 16 36 ,9 10 16 36 
9 10 16 21 31 36 ,9 10 16 36 
9 10 21 31 36 49 ,9 10 16 21 31 36 
9 11 21 31 36 44 49 ,9 10 21 31 36 49 
9 11 21 31 37 44 49 ,9 11 21 31 36 44 49 
11 16 21 31 37 44 49 ,9 11 21 31 37 44 49 
7 11 21 31 37 44 49 ,11 16 21 31 37 44 49 
7 11 21 31 37 49 ,7 11 21 31 37 44 49 
7 11 21 31 37 42 49 ,7 11 21 31 37 49 
7 11 21 31 37 42 49 ,7 11 21 31 37 42 49 
11 16 21 31 37 42 47 49 ,7 11 21 31 37 42 49 
11 16 21 31 42 47 49 ,11 16 21 31 37 42 47 49 
11 16 21 31 42 44 47 49 ,11 16 21 31 42 47 49 
11 16 21 31 42 44 47 49 ,11 16 21 31 42 44 47 49 
11 16 21 31 41 44 47 49 ,11 16 21 31 42 44 47 49 
11 16 21 31 41 44 47 49 ,11 16 21 31 41 44 47 49 
11 16 21 31 41 44 47 ,11 16 21 31 41 44 47 49 
16 21 31 41 44 47 ,11 16 21 31 41 44 47 
16 20 21 31 44 47 ,16 21 31 41 44 47 
16 21 25 31 44 47 ,16 20 21 31 44 47 
16 25 31 44 47 ,16 21 25 31 44 47 
16 25 44 47 ,16 25 31 44 47 
11 16 25 44 47 ,16 25 44 47 
11 16 25 34 44 47 ,11 16 25 44 47 
11 16 25 34 44 47 ,11 16 25 34 44 47 
7 11 16 25 34 37 44 47 ,11 16 25 34 44 47 
11 16 25 34 37 44 47 ,7 11 16 25 34 37 44 47 
2 11 16 25 27 34 37 44 47 ,11 16 25 34 37 44 47 
2 11 12 16 25 27 34 37 47 ,2 11 16 25 27 34 37 44 47 
2 11 12 16 25 27 34 37 47 ,2 11 12 16 25 27 34 37 47 
2 3 11 12 16 23 25 27 34 37 ,2 11 12 16 25 27 34 37 47 
2 3 11 12 16 23 25 27 34 37 ,2 3 11 12 16 23 25 27 34 37 
2 11 12 16 23 25 27 34 37 ,2 3 11 12 16 23 25 27 34 37 
2 11 12 16 19 23 25 27 34 37 ,2 11 12 16 23 25 27 34 37 
2 11 16 19 23 25 27 34 37 ,2 11 12 16 19 23 25 27 34 37 
2 11 19 23 25 27 34 37 ,2 11 16 19 23 25 27 34 37 
2 11 19 23 27 34 37 ,2 11 19 23 25 27 34 37 
2 11 19 23 27 34 ,2 11 19 23 27 34 37 
2 11 19 23 27 34 ,2 11 19 23 27 34 
2 11 19 23 27 34 ,2 11 19 23 27 34 
2 11 16 19 23 27 34 ,2 11 19 23 27 34 
2 11 16 19 23 27 34 35 ,2 11 16 19 23 27 34 
2 11 16 19 23 27 35 ,2 11 16 19 23 27 34 35 
2 11 16 19 23 24 27 35 ,2 11 16 19 23 27 35 
2 11 16 19 23 24 35 ,2 11 16 19 23 24 27 35 
2 11 16 19 23 24 35 ,2 11 16 19 23 24 35 
2 11 16 19 23 24 35 ,2 11 16 19 23 24 35 
2 11 16 19 24 35 ,2 11 16 19 23 24 35 
2 11 16 19 24 35 ,2 11 16 19 24 35 
2 11 16 19 24 34 35 ,2 11 16 19 24 35 
2 11 16 19 34 35 ,2 11 16 19 24 34 35 
2 11 16 19 23 34 35 ,2 11 16 19 34 35 
2 11 16 17 19 23 34 35 ,2 11 16 19 23 34 35 
2 10 11 12 16 17 19 23 34 35 48 ,2 11 16 17 19 23 34 35 
2 10 11 16 17 19 23 34 35 48 ,2 10 11 12 16 17 19 23 34 35 48 
2 10 16 17 19 23 34 35 48 ,2 10 11 16 17 19 23 34 35 48 
2 10 16 17 23 34 35 48 ,2 10 16 17 19 23 34 35 48 
2 10 12 16 17 23 34 35 36 ,2 10 16 17 23 34 35 48 
2 10 16 17 23 34 35 36 ,2 10 12 16 17 23 34 35 36 
2 10 13 16 17 23 35 36 ,2 10 16 17 23 34 35 36 
2 10 13 16 17 35 36 ,2 10 13 16 17 23 35 36 
10 13 16 17 30 35 36 ,2 10 13 16 17 35 36 
10 13 16 17 19 30 35 36 ,10 13 16 17 30 35 36 
5 10 13 16 17 19 30 35 36 ,10 13 16 17 19 30 35 36 
5 10 13 16 17 19 30 35 36 ,5 10 13 16 17 19 30 35 36 
5 10 13 16 17 19 20 27 30 36 ,5 10 13 16 17 19 30 35 36 
10 12 13 16 17 19 20 27 30 36 ,5 10 13 16 17 19 20 27 30 36 
10 12 13 16 17 19 20 27 30 36 ,10 12 13 16 17 19 20 27 30 36 
10 12 13 16 19 20 27 30 36 ,10 12 13 16 17 19 20 27 30 36 
10 12 16 19 20 27 30 36 ,10 12 13 16 19 20 27 30 36 
10 12 16 19 20 27 30 36 ,10 12 16 19 20 27 30 36 
10 12 16 19 20 30 36 ,10 12 16 19 20 27 30 36 
10 12 16 19 20 30 36 50 ,10 12 16 19 20 30 36 
10 12 16 19 20 23 30 36 50 ,10 12 16 19 20 30 36 50 
10 12 16 17 19 20 23 30 36 50 ,10 12 16 19 20 23 30 36 50 
10 12 16 17 19 20 23 30 36 48 50 ,10 12 16 17 19 20 23 30 36 50 
5 10 12 17 19 20 23 30 36 48 50 ,10 12 16 17 19 20 23 30 36 48 50 
10 12 17 19 20 23 30 36 48 49 50 ,5 10 12 17 19 20 23 30 36 48 50 
10 12 17 19 20 23 30 36 48 49 50 ,10 12 17 19 20 23 30 36 48 49 50 
10 12 17 19 20 23 30 36 45 48 49 50 ,10 12 17 19 20 23 30 36 48 49 50 
10 12 17 19 20 23 30 36 45 48 49 50 ,10 12 17 19 20 23 30 36 45 48 49 50 
10 12 17 19 20 23 30 36 45 48 49 50 ,10 12 17 19 20 23 30 36 45 48 49 50 
10 12 17 19 20 23 30 32 35 36 45 48 49 50 ,10 12 17 19 20 23 30 36 45 48 49 50 
10 12 17 19 20 23 30 32 35 36 45 48 49 50 ,10 12 17 19 20 23 30 32 35 36 45 48 49 50 
10 12 17 19 20 23 30 32 35 45 48 49 50 ,10 12 17 19 20 23 30 32 35 36 45 48 49 50 
10 12 14 17 19 20 23 30 32 35 45 48 49 50 ,10 12 17 19 20 23 30 32 35 45 48 49 50 
10 12 13 14 17 19 20 23 30 32 35 45 48 49 50 ,10 12 14 17 19 20 23 30 32 35 45 48 49 50 
10 12 13 14 17 20 23 30 32 35 45 48 49 50 ,10 12 13 14 17 19 20 23 30 32 35 45 48 49 50 
10 12 13 14 17 20 23 30 32 35 45 48 49 50 ,10 12 13 14 17 20 23 30 32 35 45 48 49 50 
10 12 13 14 17 20 23 30 32 35 45 48 49 50 ,10 12 13 14 17 20 23 30 32 35 45 48 49 50 
10 12 13 14 17 20 23 30 32 35 45 47 48 49 50 ,10 12 13 14 17 20 23 30 32 35 45 48 49 50 
10 12 13 14 17 20 21 23 32 35 45 47 48 49 50 ,10 12 13 14 17 20 23 30 32 35 45 47 48 49 50 
10 12 13 14 17 20 21 23 32 35 45 47 48 49 50 ,10 12 13 14 17 20 21 23 32 35 45 47 48 49 50 
10 12 13 14 17 20 21 23 32 35 45 47 48 49 50 ,10 12 13 14 17 20 21 23 32 35 45 47 48 49 50 
10 12 13 14 17 20 21 23 32 35 45 47 48 49 50 ,10 12 13 14 17 20 21 23 32 35 45 47 48 49 50 
10 12 13 14 17 20 21 23 32 35 45 47 48 49 50 ,10 12 13 14 17 20 21 23 32 35 45 47 48 49 50 
10 12 13 14 15 17 20 21 23 26 32 35 45 47 48 49 50 ,10 12 13 14 17 20 21 23 32 35 45 47 48 49 50 
10 12 13 14 15 17 20 21 23 26 32 35 45 47 48 50 ,10 12 13 14 15 17 20 21 23 26 32 35 45 47 48 49 50 
10 12 14 15 17 20 21 23 26 27 32 35 45 47 48 50 ,10 12 13 14 15 17 20 21 23 26 32 35 45 47 48 50 
10 12 14 15 17 20 21 23 26 27 32 35 47 48 50 ,10 12 14 15 17 20 21 23 26 27 32 35 45 47 48 50 
10 12 14 15 17 20 21 23 26 27 32 35 42 47 48 50 ,10 12 14 15 17 20 21 23 26 27 32 35 47 48 50 
10 12 14 15 17 20 21 23 26 27 32 42 47 48 50 ,10 12 14 15 17 20 21 23 26 27 32 35 42 47 48 50 
10 12 14 17 20 21 23 26 27 32 42 47 48 50 ,10 12 14 15 17 20 21 23 26 27 32 42 47 48 50 
10 12 13 14 17 20 21 23 26 27 32 42 47 48 50 ,10 12 14 17 20 21 23 26 27 32 42 47 48 50 
1 10 12 13 14 17 20 21 23 26 27 32 42 47 48 50 ,10 12 13 14 17 20 21 23 26 27 32 42 47 48 50 
1 10 12 13 14 17 20 21 23 26 27 32 42 47 48 50 ,1 10 12 13 14 17 20 21 23 26 27 32 42 47 48 50 
1 10 12 13 14 17 20 21 23 26 27 32 42 47 50 ,1 10 12 13 14 17 20 21 23 26 27 32 42 47 48 50 
1 10 12 13 14 15 17 20 21 23 26 27 32 42 47 50 ,1 10 12 13 14 17 20 21 23 26 27 32 42 47 50 
1 10 12 13 14 17 20 21 23 26 27 32 42 46 47 50 ,1 10 12 13 14 15 17 20 21 23 26 27 32 42 47 50 
1 10 12 13 14 17 20 21 23 26 27 32 42 46 47 48 50 ,1 10 12 13 14 17 20 21 23 26 27 32 42 46 47 50 
1 3 10 12 13 14 17 20 21 23 26 27 32 41 42 46 47 50 ,1 10 12 13 14 17 20 21 23 26 27 32 42 46 47 48 50 
1 3 10 12 13 14 16 17 20 21 22 23 26 27 41 42 46 47 50 ,1 3 10 12 13 14 17 20 21 23 26 27 32 41 42 46 47 50 
1 3 10 12 13 14 16 17 20 21 22 23 26 41 42 46 47 50 ,1 3 10 12 13 14 16 17 20 21 22 23 26 27 41 42 46 47 50 
1 3 10 12 13 14 16 17 20 21 22 23 26 41 42 46 47 50 ,1 3 10 12 13 14 16 17 20 21 22 23 26 41 42 46 47 50 
1 3 10 12 13 14 16 17 20 21 22 23 26 37 41 42 46 47 50 ,1 3 10 12 13 14 16 17 20 21 22 23 26 41 42 46 47 50 
1 3 10 12 13 14 16 17 20 21 22 23 26 37 41 42 46 47 50 ,1 3 10 12 13 14 16 17 20 21 22 23 26 37 41 42 46 47 50 
1 3 10 12 13 14 16 20 21 22 23 26 37 41 42 46 47 50 ,1 3 10 12 13 14 16 17 20 21 22 23 26 37 41 42 46 47 50 
1 3 10 12 13 14 16 20 21 22 23 26 35 37 41 42 46 47 50 ,1 3 10 12 13 14 16 20 21 22 23 26 37 41 42 46 47 50 
1 3 10 12 13 14 16 20 21 22 23 26 35 37 41 42 46 47 50 ,1 3 10 12 13 14 16 20 21 22 23 26 35 37 41 42 46 47 50 
1 3 10 12 13 14 16 20 21 22 23 26 32 35 37 41 42 46 47 50 ,1 3 10 12 13 14 16 20 21 22 23 26 35 37 41 42 46 47 50 
1 3 10 12 13 14 16 20 21 22 23 26 32 35 37 41 42 46 47 50 ,1 3 10 12 13 14 16 20 21 22 23 26 32 35 37 41 42 46 47 50 
1 10 12 13 14 16 20 21 22 23 26 32 35 37 41 42 46 47 50 ,1 3 10 12 13 14 16 20 21 22 23 26 32 35 37 41 42 46 47 50 
1 10 12 14 16 20 21 22 23 26 32 35 37 41 42 46 47 50 ,1 10 12 13 14 16 20 21 22 23 26 32 35 37 41 42 46 47 50 
1 10 12 14 16 20 21 22 23 26 32 35 37 39 41 42 46 47 50 ,1 10 12 14 16 20 21 22 23 26 32 35 37 41 42 46 47 50 
1 10 12 15 16 20 21 22 23 26 32 35 37 39 41 42 46 47 50 ,1 10 12 14 16 20 21 22 23 26 32 35 37 39 41 42 46 47 50 
1 10 12 15 16 20 21 22 23 26 32 35 37 39 41 42 46 47 50 ,1 10 12 15 16 20 21 22 23 26 32 35 37 39 41 42 46 47 50 
1 10 12 15 16 20 21 22 23 26 28 32 35 37 39 41 42 46 47 50 ,1 10 12 15 16 20 21 22 23 26 32 35 37 39 41 42 46 47 50 
1 12 15 16 20 21 22 23 26 28 32 35 37 39 41 42 46 47 48 50 ,1 10 12 15 16 20 21 22 23 26 28 32 35 37 39 41 42 46 47 50 
1 12 15 16 20 21 22 23 26 28 32 35 37 39 41 42 46 48 50 ,1 12 15 16 20 21 22 23 26 28 32 35 37 39 41 42 46 47 48 50 
1 12 15 16 20 21 22 23 26 28 32 35 37 39 41 42 46 48 50 ,1 12 15 16 20 21 22 23 26 28 32 35 37 39 41 42 46 48 50 
1 12 15 16 19 20 21 22 23 26 28 32 35 37 39 41 42 46 50 ,1 12 15 16 20 21 22 23 26 28 32 35 37 39 41 42 46 48 50 
1 12 14 16 19 20 21 22 23 26 28 32 35 37 39 41 42 46 50 ,1 12 15 16 19 20 21 22 23 26 28 32 35 37 39 41 42 46 50 
1 12 14 16 19 20 21 22 26 28 32 35 37 39 41 42 46 50 ,1 12 14 16 19 20 21 22 23 26 28 32 35 37 39 41 42 46 50 
1 12 14 16 19 20 21 22 26 28 35 37 39 41 42 46 50 ,1 12 14 16 19 20 21 22 26 28 32 35 37 39 41 42 46 50 
1 12 16 19 20 21 22 26 28 35 37 39 41 42 46 50 ,1 12 14 16 19 20 21 22 26 28 35 37 39 41 42 46 50 
1 12 16 19 20 21 22 26 28 37 39 41 42 46 50 ,1 12 16 19 20 21 22 26 28 35 37 39 41 42 46 50 
1 12 16 19 20 21 22 26 37 39 41 42 46 50 ,1 12 16 19 20 21 22 26 28 37 39 41 42 46 50 
1 12 16 19 20 21 22 26 37 41 42 46 50 ,1 12 16 19 20 21 22 26 37 39 41 42 46 50 
1 12 16 19 20 21 26 37 41 42 46 50 ,1 12 16 19 20 21 22 26 37 41 42 46 50 
1 9 12 16 19 20 21 37 41 42 46 50 ,1 12 16 19 20 21 26 37 41 42 46 50 
1 9 12 16 19 20 21 37 41 46 50 ,1 9 12 16 19 20 21 37 41 42 46 50 
1 9 12 16 19 20 21 37 41 46 50 ,1 9 12 16 19 20 21 37 41 46 50 
1 9 12 16 19 20 21 26 37 41 46 50 ,1 9 12 16 19 20 21 37 41 46 50 
1 9 12 16 19 20 21 37 41 46 50 ,1 9 12 16 19 20 21 26 37 41 46 50 
1 9 16 19 20 21 37 41 46 50 ,1 9 12 16 19 20 21 37 41 46 50 
1 9 16 19 20 21 37 41 46 50 ,1 9 16 19 20 21 37 41 46 50 
1 9 16 19 20 21 22 37 41 46 50 ,1 9 16 19 20 21 37 41 46 50 
1 9 14 16 20 21 22 35 37 41 46 50 ,1 9 16 19 20 21 22 37 41 46 50 
1 9 14 16 20 21 22 35 37 41 46 50 ,1 9 14 16 20 21 22 35 37 41 46 50 
1 9 14 16 20 21 22 35 37 41 46 50 ,1 9 14 16 20 21 22 35 37 41 46 50 
1 9 14 16 20 21 22 35 37 41 46 50 ,1 9 14 16 20 21 22 35 37 41 46 50 
1 9 14 16 20 21 22 35 41 46 50 ,1 9 14 16 20 21 22 35 37 41 46 50 
1 9 14 16 21 22 35 41 46 50 ,1 9 14 16 20 21 22 35 41 46 50 
1 9 14 16 21 22 35 41 46 50 ,1 9 14 16 21 22 35 41 46 50 
1 9 14 16 22 35 41 46 50 ,1 9 14 16 21 22 35 41 46 50 
1 4 9 14 16 22 35 41 46 50 ,1 9 14 16 22 35 41 46 50 
1 4 14 16 22 35 41 46 50 ,1 4 9 14 16 22 35 41 46 50 
1 4 14 16 22 23 41 46 50 ,1 4 14 16 22 35 41 46 50 
1 4 14 16 22 23 41 46 50 ,1 4 14 16 22 23 41 46 50 
1 4 14 22 23 41 46 50 ,1 4 14 16 22 23 41 46 50 
1 4 14 23 41 46 50 ,1 4 14 22 23 41 46 50 
1 4 14 23 41 46 50 ,1 4 14 23 41 46 50 
1 4 14 23 41 46 ,1 4 14 23 41 46 50 
1 4 14 23 41 46 ,1 4 14 23 41 46 
1 4 14 21 23 41 46 ,1 4 14 23 41 46 
1 14 21 23 41 46 ,1 4 14 21 23 41 46 
1 14 21 23 35 41 46 ,1 14 21 23 41 46 
1 14 23 35 41 46 ,1 14 21 23 35 41 46 
1 14 23 41 46 ,1 14 23 35 41 46 
1 14 23 33 46 ,1 14 23 41 46 
1 14 23 33 ,1 14 23 33 46 
1 14 33 ,1 14 23 33 
1 14 33 ,1 14 33 
1 14 33 ,1 14 33 
1 14 33 ,1 14 33 
1 14 33 ,1 14 33 
1 14 33 ,1 14 33 
1 33 ,1 14 33 
33 ,1 33 
33 ,33 
,33 
--------
,
21 ,
,21 
,
43 ,
43 47 ,43 
21 47 ,43 47 
21 ,21 47 
21 32 ,21 
21 32 ,21 32 
32 ,21 32 
10 27 ,32 
10 27 36 ,10 27 
10 16 27 36 ,10 27 36 
10 16 27 36 ,10 16 27 36 
9 10 16 27 35 36 ,10 16 27 36 
9 10 16 35 36 ,9 10 16 27 35 36 
9 10 16 35 36 ,9 10 16 35 36 
9 10 16 36 ,9 10 16 35 36 
9 10 16 36 ,9 10 16 36 
9 10 16 21 31 36 ,9 10 16 36 
9 10 21 31 36 49 ,9 10 16 21 31 36 
9 11 21 31 36 44 49 ,9 10 21 31 36 49 
9 11 21 31 37 44 49 ,9 11 21 31 36 44 49 
11 16 21 31 37 44 49 ,9 11 21 31 37 44 49 
7 11 21 31 37 44 49 ,11 16 21 31 37 44 49 
7 11 21 31 37 49 ,7 11 21 31 37 44 49 
7 11 21 31 37 42 49 ,7 11 21 31 37 49 
7 11 21 31 37 42 49 ,7 11 21 31 37 42 49 
11 16 21 31 37 42 47 49 ,7 11 21 31 37 42 49 
11 16 21 31 42 47 49 ,11 16 21 31 37 42 47 49 
11 16 21 31 42 44 47 49 ,11 16 21 31 42 47 49 
11 16 21 31 42 44 47 49 ,11 16 21 31 42 44 47 49 
11 16 21 31 41 44 47 49 ,11 16 21 31 42 44 47 49 
11 16 21 31 41 44 47 49 ,11 16 21 31 41 44 47 49 
11 16 21 31 41 44 47 ,11 16 21 31 41 44 47 49 
16 21 31 41 44 47 ,11 16 21 31 41 44 47 
16 20 21 31 44 47 ,16 21 31 41 44 47 
16 21 25 31 44 47 ,16 20 21 31 44 47 
16 25 31 44 47 ,16 21 25 31 44 47 
16 25 44 47 ,16 25 31 44 47 
11 16 25 44 47 ,16 25 44 47 
11 16 25 34 44 47 ,11 16 25 44 47 
11 16 25 34 44 47 ,11 16 25 34 44 47 
7 11 16 25 34 37 44 47 ,11 16 25 34 44 47 
11 16 25 34 37 44 47 ,7 11 16 25 34 37 44 47 
2 11 16 25 27 34 37 44 47 ,11 16 25 34 37 44 47 
2 11 12 16 25 27 34 37 47 ,2 11 16 25 27 34 37 44 47 
2 11 12 16 25 27 34 37 47 ,2 11 12 16 25 27 34 37 47 
2 3 11 12 16 23 25 27 34 37 ,2 11 12 16 25 27 34 37 47 
2 3 11 12 16 23 25 27 34 37 ,2 3 11 12 16 23 25 27 34 37 
2 11 12 16 23 25 27 34 37 ,2 3 11 12 16 23 25 27 34 37 
2 11 12 16 19 23 25 27 34 37 ,2 11 12 16 23 25 27 34 37 
2 11 16 19 23 25 27 34 37 ,2 11 12 16 19 23 25 27 34 37 
2 11 19 23 25 27 34 37 ,2 11 16 19 23 25 27 34 37 
2 11 19 23 27 34 37 ,2 11 19 23 25 27 34 37 
2 11 19 23 27 34 ,2 11 19 23 27 34 37 
2 11 19 23 27 34 ,2 11 19 23 27 34 
2 11 19 23 27 34 ,2 11 19 23 27 34 
2 11 16 19 23 27 34 ,2 11 19 23 27 34 
2 11 16 19 23 27 34 35 ,2 11 16 19 23 27 34 
2 11 16 19 23 27 35 ,2 11 16 19 23 27 34 35 
2 11 16 19 23 24 27 35 ,2 11 16 19 23 27 35 
2 11 16 19 23 24 35 ,2 11 16 19 23 24 27 35 
2 11 16 19 23 24 35 ,2 11 16 19 23 24 35 
2 11 16 19 23 24 35 ,2 11 16 19 23 24 35 
2 11 16 19 24 35 ,2 11 16 19 23 24 35 
2 11 16 19 24 35 ,2 11 16 19 24 35 
2 11 16 19 24 34 35 ,2 11 16 19 24 35 
2 11 16 19 34 35 ,2 11 16 19 24 34 35 
2 11 16 19 23 34 35 ,2 11 16 19 34 35 
2 11 16 17 19 23 34 35 ,2 11 16 19 23 34 35 
2 10 11 12 16 17 19 23 34 35 48 ,2 11 16 17 19 23 34 35 
2 10 11 16 17 19 23 34 35 48 ,2 10 11 12 16 17 19 23 34 35 48 
2 10 16 17 19 23 34 35 48 ,2 10 11 16 17 19 23 34 35 48 
2 10 16 17 23 34 35 48 ,2 10 16 17 19 23 34 35 48 
2 10 12 16 17 23 34 35 36 ,2 10 16 17 23 34 35 48 
2 10 16 17 23 34 35 36 ,2 10 12 16 17 23 34 35 36 
2 10 13 16 17 23 35 36 ,2 10 16 17 23 34 35 36 
2 10 13 16 17 35 36 ,2 10 13 16 17 23 35 36 
10 13 16 17 30 35 36 ,2 10 13 16 17 35 36 
10 13 16 17 19 30 35 36 ,10 13 16 17 30 35 36 
5 10 13 16 17 19 30 35 36 ,10 13 16 17 19 30 35 36 
5 10 13 16 17 19 30 35 36 ,5 10 13 16 17 19 30 35 36 
5 10 13 16 17 19 20 27 30 36 ,5 10 13 16 17 19 30 35 36 
10 12 13 16 17 19 20 27 30 36 ,5 10 13 16 17 19 20 27 30 36 
10 12 13 16 17 19 20 27 30 36 ,10 12 13 16 17 19 20 27 30 36 
10 12 13 16 19 20 27 30 36 ,10 12 13 16 17 19 20 27 30 36 
10 12 16 19 20 27 30 36 ,10 12 13 16 19 20 27 30 36 
10 12 16 19 20 27 30 36 ,10 12 16 19 20 27 30 36 
10 12 16 19 20 30 36 ,10 12 16 19 20 27 30 36 
10 12 16 19 20 30 36 50 ,10 12 16 19 20 30 36 
10 12 16 19 20 23 30 36 50 ,10 12 16 19 20 30 36 50 
10 12 16 17 19 20 23 30 36 50 ,10 12 16 19 20 23 30 36 50 
10 12 16 17 19 20 23 30 36 48 50 ,10 12 16 17 19 20 23 30 36 50 
5 10 12 17 19 20 23 30 36 48 50 ,10 12 16 17 19 20 23 30 36 48 50 
10 12 17 19 20 23 30 36 48 49 50 ,5 10 12 17 19 20 23 30 36 48 50 
10 12 17 19 20 23 30 36 48 49 50 ,10 12 17 19 20 23 30 36 48 49 50 
10 12 17 19 20 23 30 36 45 48 49 50 ,10 12 17 19 20 23 30 36 48 49 50 
10 12 17 19 20 23 30 36 45 48 49 50 ,10 12 17 19 20 23 30 36 45 48 49 50 
10 12 17 19 20 23 30 36 45 48 49 50 ,10 12 17 19 20 23 30 36 45 48 49 50 
10 12 17 19 20 23 30 32 35 36 45 48 49 50 ,10 12 17 19 20 23 30 36 45 48 49 50 
10 12 17 19 20 23 30 32 35 36 45 48 49 50 ,10 12 17 19 20 23 30 32 35 36 45 48 49 50 
10 12 17 19 20 23 30 32 35 45 48 49 50 ,10 12 17 19 20 23 30 32 35 36 45 48 49 50 
10 12 14 17 19 20 23 30 32 35 45 48 49 50 ,10 12 17 19 20 23 30 32 35 45 48 49 50 
10 12 13 14 17 19 20 23 30 32 35 45 48 49 50 ,10 12 14 17 19 20 23 30 32 35 45 48 49 50 
10 12 13 14 17 20 23 30 32 35 45 48 49 50 ,10 12 13 14 17 19 20 23 30 32 35 45 48 49 50 
10 12 13 14 17 20 23 30 32 35 45 48 49 50 ,10 12 13 14 17 20 23 30 32 35 45 48 49 50 
10 12 13 14 17 20 23 30 32 35 45 48 49 50 ,10 12 13 14 17 20 23 30 32 35 45 48 49 50 
10 12 13 14 17 20 23 30 32 35 45 47 48 49 50 ,10 12 13 14 17 20 23 30 32 35 45 48 49 50 
10 12 13 14 17 20 21 23 32 35 45 47 48 49 50 ,10 12 13 14 17 20 23 30 32 35 45 47 48 49 50 
10 12 13 14 17 20 21 23 32 35 45 47 48 49 50 ,10 12 13 14 17 20 21 23 32 35 45 47 48 49 50 
10 12 13 14 17 20 21 23 32 35 45 47 48 49 50 ,10 12 13 14 17 20 21 23 32 35 45 47 48 49 50 
10 12 13 14 17 20 21 23 32 35 45 47 48 49 50 ,10 12 13 14 17 20 21 23 32 35 45 47 48 49 50 
10 12 13 14 17 20 21 23 32 35 45 47 48 49 50 ,10 12 13 14 17 20 21 23 32 35 45 47 48 49 50 
10 12 13 14 15 17 20 21 23 26 32 35 45 47 48 49 50 ,10 12 13 14 17 20 21 23 32 35 45 47 48 49 50 
10 12 13 14 15 17 20 21 23 26 32 35 45 47 48 50 ,10 12 13 14 15 17 20 21 23 26 32 35 45 47 48 49 50 
10 12 14 15 17 20 21 23 26 27 32 35 45 47 48 50 ,10 12 13 14 15 17 20 21 23 26 32 35 45 47 48 50 
10 12 14 15 17 20 21 23 26 27 32 35 47 48 50 ,10 12 14 15 17 20 21 23 26 27 32 35 45 47 48 50 
10 12 14 15 17 20 21 23 26 27 32 35 42 47 48 50 ,10 12 14 15 17 20 21 23 26 27 32 35 47 48 50 
10 12 14 15 17 20 21 23 26 27 32 42 47 48 50 ,10 12 14 15 17 20 21 23 26 27 32 35 42 47 48 50 
10 12 14 17 20 21 23 26 27 32 42 47 48 50 ,10 12 14 15 17 20 21 23 26 27 32 42 47 48 50 
10 12 13 14 17 20 21 23 26 27 32 42 47 48 50 ,10 12 14 17 20 21 23 26 27 32 42 47 48 50 
1 10 12 13 14 17 20 21 23 26 27 32 42 47 48 50 ,10 12 13 14 17 20 21 23 26 27 32 42 47 48 50 
1 10 12 13 14 17 20 21 23 26 27 32 42 47 48 50 ,1 10 12 13 14 17 20 21 23 26 27 32 42 47 48 50 
1 10 12 13 14 17 20 21 23 26 27 32 42 47 50 ,1 10 12 13 14 17 20 21 23 26 27 32 42 47 48 50 
1 10 12 13 14 15 17 20 21 23 26 27 32 42 47 50 ,1 10 12 13 14 17 20 21 23 26 27 32 42 47 50 
1 10 12 13 14 17 20 21 23 26 27 32 42 46 47 50 ,1 10 12 13 14 15 17 20 21 23 26 27 32 42 47 50 
1 10 12 13 14 17 20 21 23 26 27 32 42 46 47 48 50 ,1 10 12 13 14 17 20 21 23 26 27 32 42 46 47 50 
1 3 10 12 13 14 17 20 21 23 26 27 32 41 42 46 47 50 ,1 10 12 13 14 17 20 21 23 26 27 32 42 46 47 48 50 
1 3 10 12 13 14 16 17 20 21 22 23 26 27 41 42 46 47 50 ,1 3 10 12 13 14 17 20 21 23 26 27 32 41 42 46 47 50 
1 3 10 12 13 14 16 17 20 21 22 23 26 41 42 46 47 50 ,1 3 10 12 13 14 16 17 20 21 22 23 26 27 41 42 46 47 50 
1 3 10 12 13 14 16 17 20 21 22 23 26 41 42 46 47 50 ,1 3 10 12 13 14 16 17 20 21 22 23 26 41 42 46 47 50 
1 3 10 12 13 14 16 17 20 21 22 23 26 37 41 42 46 47 50 ,1 3 10 12 13 14 16 17 20 21 22 23 26 41 42 46 47 50 
1 3 10 12 13 14 16 17 20 21 22 23 26 37 41 42 46 47 50 ,1 3 10 12 13 14 16 17 20 21 22 23 26 37 41 42 46 47 50 
1 3 10 12 13 14 16 20 21 22 23 26 37 41 42 46 47 50 ,1 3 10 12 13 14 16 17 20 21 22 23 26 37 41 42 46 47 50 
1 3 10 12 13 14 16 20 21 22 23 26 35 37 41 42 46 47 50 ,1 3 10 12 13 14 16 20 21 22 23 26 37 41 42 46 47 50 
1 3 10 12 13 14 16 20 21 22 23 26 35 37 41 42 46 47 50 ,1 3 10 12 13 14 16 20 21 22 23 26 35 37 41 42 46 47 50 
1 3 10 12 13 14 16 20 21 22 23 26 32 35 37 41 42 46 47 50 ,1 3 10 12 13 14 16 20 21 22 23 26 35 37 41 42 46 47 50 
1 3 10 12 13 14 16 20 21 22 23 26 32 35 37 41 42 46 47 50 ,1 3 10 12 13 14 16 20 21 22 23 26 32 35 37 41 42 46 47 50 
1 10 12 13 14 16 20 21 22 23 26 32 35 37 41 42 46 47 50 ,1 3 10 12 13 14 16 20 21 22 23 26 32 35 37 41 42 46 47 50 
1 10 12 14 16 20 21 22 23 26 32 35 37 41 42 46 47 50 ,1 10 12 13 14 16 20 21 22 23 26 32 35 37 41 42 46 47 50 
1 10 12 14 16 20 21 22 23 26 32 35 37 39 41 42 46 47 50 ,1 10 12 14 16 20 21 22 23 26 32 35 37 41 42 46 47 50 
1 10 12 15 16 20 21 22 23 26 32 35 37 39 41 42 46 47 50 ,1 10 12 14 16 20 21 22 23 26 32 35 37 39 41 42 46 47 50 
1 10 12 15 16 20 21 22 23 26 32 35 37 39 41 42 46 47 50 ,1 10 12 15 16 20 21 22 23 26 32 35 37 39 41 42 46 47 50 
1 10 12 15 16 20 21 22 23 26 28 32 35 37 39 41 42 46 47 50 ,1 10 12 15 16 20 21 22 23 26 32 35 37 39 41 42 46 47 50 
1 12 15 16 20 21 22 23 26 28 32 35 37 39 41 42 46 47 48 50 ,1 10 12 15 16 20 21 22 23 26 28 32 35 37 39 41 42 46 47 50 
1 12 15 16 20 21 22 23 26 28 32 35 37 39 41 42 46 48 50 ,1 12 15 16 20 21 22 23 26 28 32 35 37 39 41 42 46 47 48 50 
1 12 15 16 20 21 22 23 26 28 32 35 37 39 41 42 46 48 50 ,1 12 15 16 20 21 22 23 26 28 32 35 37 39 41 42 46 48 50 
1 12 15 16 19 20 21 22 23 26 28 32 35 37 39 41 42 46 50 ,1 12 15 16 20 21 22 23 26 28 32 35 37 39 41 42 46 48 50 
1 12 14 16 19 20 21 22 23 26 28 32 35 37 39 41 42 46 50 ,1 12 15 16 19 20 21 22 23 26 28 32 35 37 39 41 42 46 50 
1 12 14 16 19 20 21 22 26 28 32 35 37 39 41 42 46 50 ,1 12 14 16 19 20 21 22 23 26 28 32 35 37 39 41 42 46 50 
1 12 14 16 19 20 21 22 26 28 35 37 39 41 42 46 50 ,1 12 14 16 19 20 21 22 26 28 32 35 37 39 41 42 46 50 
1 12 16 19 20 21 22 26 28 35 37 39 41 42 46 50 ,1 12 14 16 19 20 21 22 26 28 35 37 39 41 42 46 50 
1 12 16 19 20 21 22 26 28 37 39 41 42 46 50 ,1 12 16 19 20 21 22 26 28 35 37 39 41 42 46 50 
1 12 16 19 20 21 22 26 37 39 41 42 46 50 ,1 12 16 19 20 21 22 26 28 37 39 41 42 46 50 
1 12 16 19 20 21 22 26 37 41 42 46 50 ,1 12 16 19 20 21 22 26 37 39 41 42 46 50 
1 12 16 19 20 21 26 37 41 42 46 50 ,1 12 16 19 20 21 22 26 37 41 42 46 50 
1 9 12 16 19 20 21 37 41 42 46 50 ,1 12 16 19 20 21 26 37 41 42 46 50 
1 9 12 16 19 20 21 37 41 46 50 ,1 9 12 16 19 20 21 37 41 42 46 50 
1 9 12 16 19 20 21 37 41 46 50 ,1 9 12 16 19 20 21 37 41 46 50 
1 9 12 16 19 20 21 26 37 41 46 50 ,1 9 12 16 19 20 21 37 41 46 50 
1 9 12 16 19 20 21 37 41 46 50 ,1 9 12 16 19 20 21 26 37 41 46 50 
1 9 16 19 20 21 37 41 46 50 ,1 9 12 16 19 20 21 37 41 46 50 
1 9 16 19 20 21 37 41 46 50 ,1 9 16 19 20 21 37 41 46 50 
1 9 16 19 20 21 22 37 41 46 50 ,1 9 16 19 20 21 37 41 46 50 
1 9 14 16 20 21 22 35 37 41 46 50 ,1 9 16 19 20 21 22 37 41 46 50 
1 9 14 16 20 21 22 35 37 41 46 50 ,1 9 14 16 20 21 22 35 37 41 46 50 
1 9 14 16 20 21 22 35 37 41 46 50 ,1 9 14 16 20 21 22 35 37 41 46 50 
1 9 14 16 20 21 22 35 37 41 46 50 ,1 9 14 16 20 21 22 35 37 41 46 50 
1 9 14 16 20 21 22 35 41 46 50 ,1 9 14 16 20 21 22 35 37 41 46 50 
1 9 14 16 21 22 35 41 46 50 ,1 9 14 16 20 21 22 35 41 46 50 
1 9 14 16 21 22 35 41 46 50 ,1 9 14 16 21 22 35 41 46 50 
1 9 14 16 22 35 41 46 50 ,1 9 14 16 21 22 35 41 46 50 
1 4 9 14 16 22 35 41 46 50 ,1 9 14 16 22 35 41 46 50 
1 4 14 16 22 35 41 46 50 ,1 4 9 14 16 22 35 41 46 50 
1 4 14 16 22 23 41 46 50 ,1 4 14 16 22 35 41 46 50 
1 4 14 16 22 23 41 46 50 ,1 4 14 16 22 23 41 46 50 
1 4 14 22 23 41 46 50 ,1 4 14 16 22 23 41 46 50 
1 4 14 23 41 46 50 ,1 4 14 22 23 41 46 50 
1 4 14 23 41 46 50 ,1 4 14 23 41 46 50 
1 4 14 23 41 46 ,1 4 14 23 41 46 50 
1 4 14 23 41 46 ,1 4 14 23 41 46 
1 4 14 21 23 41 46 ,1 4 14 23 41 46 
1 14 21 23 41 46 ,1 4 14 21 23 41 46 
1 14 21 23 35 41 46 ,1 14 21 23 41 46 
1 14 23 35 41 46 ,1 14 21 23 35 41 46 
1 14 23 41 46 ,1 14 23 35 41 46 
1 14 23 33 46 ,1 14 23 41 46 
1 14 23 33 ,1 14 23 33 46 
1 14 33 ,1 14 23 33 
1 14 33 ,1 14 33 
1 14 33 ,1 14 33 
1 14 33 ,1 14 33 
1 14 33 ,1 14 33 
1 14 33 ,1 14 33 
1 33 ,1 14 33 
33 ,1 33 
33 ,33 
,33 
-------------
-------
1(-1)->3 4 9 10 12 13 14 15 16 17 19 20 21 22 23 26 27 28 32 33 35 37 39 41 42 46 47 48 50 
2(-1)->3 10 11 12 13 16 17 19 23 24 25 27 34 35 36 37 44 47 48 
3(-1)->1 2 10 11 12 13 14 16 17 20 21 22 23 25 26 27 32 34 35 37 41 42 46 47 50 
4(-1)->1 9 14 16 21 22 23 35 41 46 50 
5(-1)->10 12 13 16 17 19 20 23 27 30 35 36 48 50 
7(-1)->11 16 21 25 31 34 37 42 44 47 49 
9(-1)->1 4 10 11 12 14 16 19 20 21 22 26 27 31 35 36 37 41 42 44 46 49 50 
10(-1)->1 2 3 5 9 11 12 13 14 15 16 17 19 20 21 22 23 26 27 28 30 31 32 34 35 36 37 39 41 42 45 46 47 48 49 50 
11(-1)->2 3 7 9 10 12 16 17 19 21 23 24 25 27 31 34 35 36 37 41 42 44 47 48 49 
12(-1)->1 2 3 5 9 10 11 13 14 15 16 17 19 20 21 22 23 25 26 27 28 30 32 34 35 36 37 39 41 42 45 46 47 48 49 50 
13(-1)->1 2 3 5 10 12 14 15 16 17 19 20 21 22 23 26 27 30 32 35 36 37 41 42 45 46 47 48 49 50 
14(-1)->1 3 4 9 10 12 13 15 16 17 19 20 21 22 23 26 27 28 30 32 33 35 37 39 41 42 45 46 47 48 49 50 
15(-1)->1 10 12 13 14 16 17 19 20 21 22 23 26 27 28 32 35 37 39 41 42 45 46 47 48 49 50 
16(-1)->1 2 3 4 5 7 9 10 11 12 13 14 15 17 19 20 21 22 23 24 25 26 27 28 30 31 32 34 35 36 37 39 41 42 44 46 47 48 49 50 
17(-1)->1 2 3 5 10 11 12 13 14 15 16 19 20 21 22 23 26 27 30 32 34 35 36 37 41 42 45 46 47 48 49 50 
19(-1)->1 2 5 9 10 11 12 13 14 15 16 17 20 21 22 23 24 25 26 27 28 30 32 34 35 36 37 39 41 42 45 46 48 49 50 
20(-1)->1 3 5 9 10 12 13 14 15 16 17 19 21 22 23 26 27 28 30 31 32 35 36 37 39 41 42 44 45 46 47 48 49 50 
21(-1)->1 3 4 7 9 10 11 12 13 14 15 16 17 19 20 22 23 25 26 27 28 31 32 35 36 37 39 41 42 44 45 46 47 48 49 50 
22(-1)->1 3 4 9 10 12 13 14 15 16 17 19 20 21 23 26 27 28 32 35 37 39 41 42 46 47 48 50 
23(-1)->1 2 3 4 5 10 11 12 13 14 15 16 17 19 20 21 22 24 25 26 27 28 30 32 33 34 35 36 37 39 41 42 45 46 47 48 49 50 
24(-1)->2 11 16 19 23 27 34 35 
25(-1)->2 3 7 11 12 16 19 21 23 27 31 34 37 44 47 
26(-1)->1 3 9 10 12 13 14 15 16 17 19 20 21 22 23 27 28 32 35 37 39 41 42 45 46 47 48 49 50 
27(-1)->1 2 3 5 9 10 11 12 13 14 15 16 17 19 20 21 22 23 24 25 26 30 32 34 35 36 37 41 42 44 45 46 47 48 50 
28(-1)->1 10 12 14 15 16 19 20 21 22 23 26 32 35 37 39 41 42 46 47 48 50 
30(-1)->5 10 12 13 14 16 17 19 20 23 27 32 35 36 45 47 48 49 50 
31(-1)->7 9 10 11 16 20 21 25 36 37 41 42 44 47 49 
32(-1)->1 3 10 12 13 14 15 16 17 19 20 21 22 23 26 27 28 30 35 36 37 39 41 42 45 46 47 48 49 50 
33(-1)->1 14 23 46 
34(-1)->2 3 7 10 11 12 16 17 19 23 24 25 27 35 36 37 44 47 48 
35(-1)->1 2 3 4 5 9 10 11 12 13 14 15 16 17 19 20 21 22 23 24 26 27 28 30 32 34 36 37 39 41 42 45 46 47 48 49 50 
36(-1)->2 5 9 10 11 12 13 16 17 19 20 21 23 27 30 31 32 34 35 44 45 48 49 50 
37(-1)->1 2 3 7 9 10 11 12 13 14 15 16 17 19 20 21 22 23 25 26 27 28 31 32 34 35 39 41 42 44 46 47 48 49 50 
39(-1)->1 10 12 14 15 16 19 20 21 22 23 26 28 32 35 37 41 42 46 47 48 50 
41(-1)->1 3 4 9 10 11 12 13 14 15 16 17 19 20 21 22 23 26 27 28 31 32 35 37 39 42 44 46 47 48 49 50 
42(-1)->1 3 7 9 10 11 12 13 14 15 16 17 19 20 21 22 23 26 27 28 31 32 35 37 39 41 44 46 47 48 49 50 
43(-1)->47 
44(-1)->2 7 9 11 16 20 21 25 27 31 34 36 37 41 42 47 49 
45(-1)->10 12 13 14 15 17 19 20 21 23 26 27 30 32 35 36 47 48 49 50 
46(-1)->1 3 4 9 10 12 13 14 15 16 17 19 20 21 22 23 26 27 28 32 33 35 37 39 41 42 47 48 50 
47(-1)->1 2 3 7 10 11 12 13 14 15 16 17 20 21 22 23 25 26 27 28 30 31 32 34 35 37 39 41 42 43 44 45 46 48 49 50 
48(-1)->1 2 5 10 11 12 13 14 15 16 17 19 20 21 22 23 26 27 28 30 32 34 35 36 37 39 41 42 45 46 47 49 50 
49(-1)->7 9 10 11 12 13 14 15 16 17 19 20 21 23 26 30 31 32 35 36 37 41 42 44 45 47 48 50 
50(-1)->1 3 4 5 9 10 12 13 14 15 16 17 19 20 21 22 23 26 27 28 30 32 35 36 37 39 41 42 45 46 47 48 49 
-------
Node 16 maps to position 0
Node 23 maps to position 1
Node 35 maps to position 2
Node 10 maps to position 3
Node 12 maps to position 4
Node 21 maps to position 5
Node 47 maps to position 6
Node 19 maps to position 7
Node 27 maps to position 8
Node 37 maps to position 9
Node 20 maps to position 10
Node 48 maps to position 11
Node 50 maps to position 12
Node 14 maps to position 13
Node 17 maps to position 14
Node 41 maps to position 15
Node 42 maps to position 16
Node 13 maps to position 17
Node 32 maps to position 18
Node 1 maps to position 19
Node 26 maps to position 20
Node 46 maps to position 21
Node 22 maps to position 22
Node 49 maps to position 23
Node 15 maps to position 24
Node 3 maps to position 25
Node 11 maps to position 26
Node 36 maps to position 27
Node 9 maps to position 28
Node 28 maps to position 29
Node 39 maps to position 30
Node 45 maps to position 31
Node 2 maps to position 32
Node 30 maps to position 33
Node 34 maps to position 34
Node 44 maps to position 35
Node 25 maps to position 36
Node 31 maps to position 37
Node 5 maps to position 38
Node 4 maps to position 39
Node 7 maps to position 40
Node 24 maps to position 41
Node 33 maps to position 42
Node 43 maps to position 43
16(-1)->1 2 3 4 5 7 9 10 11 12 13 14 15 17 19 20 21 22 23 24 25 26 27 28 30 31 32 34 35 36 37 39 41 42 44 46 47 48 49 50 
23(-1)->1 2 3 4 5 10 11 12 13 14 15 16 17 19 20 21 22 24 25 26 27 28 30 32 33 34 35 36 37 39 41 42 45 46 47 48 49 50 
35(-1)->1 2 3 4 5 9 10 11 12 13 14 15 16 17 19 20 21 22 23 24 26 27 28 30 32 34 36 37 39 41 42 45 46 47 48 49 50 
10(-1)->1 2 3 5 9 11 12 13 14 15 16 17 19 20 21 22 23 26 27 28 30 31 32 34 35 36 37 39 41 42 45 46 47 48 49 50 
12(-1)->1 2 3 5 9 10 11 13 14 15 16 17 19 20 21 22 23 25 26 27 28 30 32 34 35 36 37 39 41 42 45 46 47 48 49 50 
21(-1)->1 3 4 7 9 10 11 12 13 14 15 16 17 19 20 22 23 25 26 27 28 31 32 35 36 37 39 41 42 44 45 46 47 48 49 50 
47(-1)->1 2 3 7 10 11 12 13 14 15 16 17 20 21 22 23 25 26 27 28 30 31 32 34 35 37 39 41 42 43 44 45 46 48 49 50 
19(-1)->1 2 5 9 10 11 12 13 14 15 16 17 20 21 22 23 24 25 26 27 28 30 32 34 35 36 37 39 41 42 45 46 48 49 50 
27(-1)->1 2 3 5 9 10 11 12 13 14 15 16 17 19 20 21 22 23 24 25 26 30 32 34 35 36 37 41 42 44 45 46 47 48 50 
37(-1)->1 2 3 7 9 10 11 12 13 14 15 16 17 19 20 21 22 23 25 26 27 28 31 32 34 35 39 41 42 44 46 47 48 49 50 
20(-1)->1 3 5 9 10 12 13 14 15 16 17 19 21 22 23 26 27 28 30 31 32 35 36 37 39 41 42 44 45 46 47 48 49 50 
48(-1)->1 2 5 10 11 12 13 14 15 16 17 19 20 21 22 23 26 27 28 30 32 34 35 36 37 39 41 42 45 46 47 49 50 
50(-1)->1 3 4 5 9 10 12 13 14 15 16 17 19 20 21 22 23 26 27 28 30 32 35 36 37 39 41 42 45 46 47 48 49 
14(-1)->1 3 4 9 10 12 13 15 16 17 19 20 21 22 23 26 27 28 30 32 33 35 37 39 41 42 45 46 47 48 49 50 
17(-1)->1 2 3 5 10 11 12 13 14 15 16 19 20 21 22 23 26 27 30 32 34 35 36 37 41 42 45 46 47 48 49 50 
41(-1)->1 3 4 9 10 11 12 13 14 15 16 17 19 20 21 22 23 26 27 28 31 32 35 37 39 42 44 46 47 48 49 50 
42(-1)->1 3 7 9 10 11 12 13 14 15 16 17 19 20 21 22 23 26 27 28 31 32 35 37 39 41 44 46 47 48 49 50 
13(-1)->1 2 3 5 10 12 14 15 16 17 19 20 21 22 23 26 27 30 32 35 36 37 41 42 45 46 47 48 49 50 
32(-1)->1 3 10 12 13 14 15 16 17 19 20 21 22 23 26 27 28 30 35 36 37 39 41 42 45 46 47 48 49 50 
1(-1)->3 4 9 10 12 13 14 15 16 17 19 20 21 22 23 26 27 28 32 33 35 37 39 41 42 46 47 48 50 
26(-1)->1 3 9 10 12 13 14 15 16 17 19 20 21 22 23 27 28 32 35 37 39 41 42 45 46 47 48 49 50 
46(-1)->1 3 4 9 10 12 13 14 15 16 17 19 20 21 22 23 26 27 28 32 33 35 37 39 41 42 47 48 50 
22(-1)->1 3 4 9 10 12 13 14 15 16 17 19 20 21 23 26 27 28 32 35 37 39 41 42 46 47 48 50 
49(-1)->7 9 10 11 12 13 14 15 16 17 19 20 21 23 26 30 31 32 35 36 37 41 42 44 45 47 48 50 
15(-1)->1 10 12 13 14 16 17 19 20 21 22 23 26 27 28 32 35 37 39 41 42 45 46 47 48 49 50 
3(-1)->1 2 10 11 12 13 14 16 17 20 21 22 23 25 26 27 32 34 35 37 41 42 46 47 50 
11(-1)->2 3 7 9 10 12 16 17 19 21 23 24 25 27 31 34 35 36 37 41 42 44 47 48 49 
36(-1)->2 5 9 10 11 12 13 16 17 19 20 21 23 27 30 31 32 34 35 44 45 48 49 50 
9(-1)->1 4 10 11 12 14 16 19 20 21 22 26 27 31 35 36 37 41 42 44 46 49 50 
28(-1)->1 10 12 14 15 16 19 20 21 22 23 26 32 35 37 39 41 42 46 47 48 50 
39(-1)->1 10 12 14 15 16 19 20 21 22 23 26 28 32 35 37 41 42 46 47 48 50 
45(-1)->10 12 13 14 15 17 19 20 21 23 26 27 30 32 35 36 47 48 49 50 
2(-1)->3 10 11 12 13 16 17 19 23 24 25 27 34 35 36 37 44 47 48 
30(-1)->5 10 12 13 14 16 17 19 20 23 27 32 35 36 45 47 48 49 50 
34(-1)->2 3 7 10 11 12 16 17 19 23 24 25 27 35 36 37 44 47 48 
44(-1)->2 7 9 11 16 20 21 25 27 31 34 36 37 41 42 47 49 
25(-1)->2 3 7 11 12 16 19 21 23 27 31 34 37 44 47 
31(-1)->7 9 10 11 16 20 21 25 36 37 41 42 44 47 49 
5(-1)->10 12 13 16 17 19 20 23 27 30 35 36 48 50 
4(-1)->1 9 14 16 21 22 23 35 41 46 50 
7(-1)->11 16 21 25 31 34 37 42 44 47 49 
24(-1)->2 11 16 19 23 27 34 35 
33(-1)->1 14 23 46 
43(-1)->47 
-------
BLAH
START TIME: 1433731998
Cq = 22 and is assigned to x24
BACKTRACKED TO DEPTH: 23
0 1 2 3 4 5 6 7 8 9 10 11 12 13 14 15 16 17 18 19 20 21 
1(18)->3 4 9 10 12 13 14 15 16 17 19 20 21 22 23 26 27 28 32 33 35 37 39 41 42 46 47 48 50 
2(5)->3 10 11 12 13 16 17 19 23 24 25 27 34 35 36 37 44 47 48 
3(10)->1 2 10 11 12 13 14 16 17 20 21 22 23 25 26 27 32 34 35 37 41 42 46 47 50 
4(3)->1 9 14 16 21 22 23 35 41 46 50 
5(12)->10 12 13 16 17 19 20 23 27 30 35 36 48 50 
7(1)->11 16 21 25 31 34 37 42 44 47 49 
9(1)->1 4 10 11 12 14 16 19 20 21 22 26 27 31 35 36 37 41 42 44 46 49 50 
10(3)->1 2 3 5 9 11 12 13 14 15 16 17 19 20 21 22 23 26 27 28 30 31 32 34 35 36 37 39 41 42 45 46 47 48 49 50 
11(9)->2 3 7 9 10 12 16 17 19 21 23 24 25 27 31 34 35 36 37 41 42 44 47 48 49 
12(4)->1 2 3 5 9 10 11 13 14 15 16 17 19 20 21 22 23 25 26 27 28 30 32 34 35 36 37 39 41 42 45 46 47 48 49 50 
13(16)->1 2 3 5 10 12 14 15 16 17 19 20 21 22 23 26 27 30 32 35 36 37 41 42 45 46 47 48 49 50 
14(12)->1 3 4 9 10 12 13 15 16 17 19 20 21 22 23 26 27 28 30 32 33 35 37 39 41 42 45 46 47 48 49 50 
15(22)->1 10 12 13 14 16 17 19 20 21 22 23 26 27 28 32 35 37 39 41 42 45 46 47 48 49 50 
16(0)->1 2 3 4 5 7 9 10 11 12 13 14 15 17 19 20 21 22 23 24 25 26 27 28 30 31 32 34 35 36 37 39 41 42 44 46 47 48 49 50 
17(13)->1 2 3 5 10 11 12 13 14 15 16 19 20 21 22 23 26 27 30 32 34 35 36 37 41 42 45 46 47 48 49 50 
19(6)->1 2 5 9 10 11 12 13 14 15 16 17 20 21 22 23 24 25 26 27 28 30 32 34 35 36 37 39 41 42 45 46 48 49 50 
20(9)->1 3 5 9 10 12 13 14 15 16 17 19 21 22 23 26 27 28 30 31 32 35 36 37 39 41 42 44 45 46 47 48 49 50 
21(5)->1 3 4 7 9 10 11 12 13 14 15 16 17 19 20 22 23 25 26 27 28 31 32 35 36 37 39 41 42 44 45 46 47 48 49 50 
22(21)->1 3 4 9 10 12 13 14 15 16 17 19 20 21 23 26 27 28 32 35 37 39 41 42 46 47 48 50 
23(1)->1 2 3 4 5 10 11 12 13 14 15 16 17 19 20 21 22 24 25 26 27 28 30 32 33 34 35 36 37 39 41 42 45 46 47 48 49 50 
24(3)->2 11 16 19 23 27 34 35 
25(3)->2 3 7 11 12 16 19 21 23 27 31 34 37 44 47 
26(19)->1 3 9 10 12 13 14 15 16 17 19 20 21 22 23 27 28 32 35 37 39 41 42 45 46 47 48 49 50 
27(7)->1 2 3 5 9 10 11 12 13 14 15 16 17 19 20 21 22 23 24 25 26 30 32 34 35 36 37 41 42 44 45 46 47 48 50 
28(7)->1 10 12 14 15 16 19 20 21 22 23 26 32 35 37 39 41 42 46 47 48 50 
30(5)->5 10 12 13 14 16 17 19 20 23 27 32 35 36 45 47 48 49 50 
31(4)->7 9 10 11 16 20 21 25 36 37 41 42 44 47 49 
32(17)->1 3 10 12 13 14 15 16 17 19 20 21 22 23 26 27 28 30 35 36 37 39 41 42 45 46 47 48 49 50 
33(0)->1 14 23 46 
34(11)->2 3 7 10 11 12 16 17 19 23 24 25 27 35 36 37 44 47 48 
35(2)->1 2 3 4 5 9 10 11 12 13 14 15 16 17 19 20 21 22 23 24 26 27 28 30 32 34 36 37 39 41 42 45 46 47 48 49 50 
36(8)->2 5 9 10 11 12 13 16 17 19 20 21 23 27 30 31 32 34 35 44 45 48 49 50 
37(8)->1 2 3 7 9 10 11 12 13 14 15 16 17 19 20 21 22 23 25 26 27 28 31 32 34 35 39 41 42 44 46 47 48 49 50 
39(13)->1 10 12 14 15 16 19 20 21 22 23 26 28 32 35 37 41 42 46 47 48 50 
41(14)->1 3 4 9 10 11 12 13 14 15 16 17 19 20 21 22 23 26 27 28 31 32 35 37 39 42 44 46 47 48 49 50 
42(15)->1 3 7 9 10 11 12 13 14 15 16 17 19 20 21 22 23 26 27 28 31 32 35 37 39 41 44 46 47 48 49 50 
43(0)->47 
44(2)->2 7 9 11 16 20 21 25 27 31 34 36 37 41 42 47 49 
45(0)->10 12 13 14 15 17 19 20 21 23 26 27 30 32 35 36 47 48 49 50 
46(20)->1 3 4 9 10 12 13 14 15 16 17 19 20 21 22 23 26 27 28 32 33 35 37 39 41 42 47 48 50 
47(6)->1 2 3 7 10 11 12 13 14 15 16 17 20 21 22 23 25 26 27 28 30 31 32 34 35 37 39 41 42 43 44 45 46 48 49 50 
48(10)->1 2 5 10 11 12 13 14 15 16 17 19 20 21 22 23 26 27 28 30 32 34 35 36 37 39 41 42 45 46 47 49 50 
49(7)->7 9 10 11 12 13 14 15 16 17 19 20 21 23 26 30 31 32 35 36 37 41 42 44 45 47 48 50 
50(11)->1 3 4 5 9 10 12 13 14 15 16 17 19 20 21 22 23 26 27 28 30 32 35 36 37 39 41 42 45 46 47 48 49 
COUNT: 62
COLORS: 23
EDGES: 0
23
62
