-1=-1,-1,-1
-1=-1,-1,-1
-1=-1,-1,-1
-1=-1,-1,-1
34=-1,-1,-1
-1=-1,-1,-1
-1=-1,-1,-1
-1=-1,-1,-1
-1=-1,-1,-1
-1=-1,-1,-1
-1=-1,-1,-1
-1=-1,-1,-1
-1=-1,-1,-1
-1=-1,-1,-1
-1=-1,-1,-1
28=-1,-1,-1
-1=-1,-1,-1
-1=-1,-1,-1
-1=-1,-1,-1
-1=-1,-1,-1
-1=-1,-1,-1
-1=34,-1,-1
41=-1,-1,-1
-1=-1,-1,-1
-1=-1,-1,-1
10=-1,-1,-1
-1=-1,-1,-1
-1=-1,-1,-1
-1=-1,-1,-1
-1=-1,-1,-1
33=-1,-1,-1
-1=-1,-1,-1
-1=-1,-1,-1
-1=-1,-1,-1
-1=-1,-1,-1
-1=-1,-1,-1
-1=-1,-1,-1
-1=-1,-1,-1
-1=-1,-1,-1
19=-1,-1,-1
-1=-1,-1,-1
-1=-1,-1,-1
-1=-1,-1,-1
45=-1,-1,-1
-1=-1,-1,-1
34=-1,-1,-1
-1=-1,-1,-1
25=-1,-1,-1
11=-1,-1,-1
-1=-1,-1,-1
-1=-1,-1,-1
39=-1,-1,-1
17=-1,-1,-1
-1=-1,-1,-1
-1=-1,-1,-1
-1=33,-1,-1
-1=10,-1,-1
-1=25,-1,-1
50=-1,-1,-1
22=-1,-1,-1
-1=-1,-1,-1
-1=34,-1,-1
-1=19,-1,-1
49=-1,-1,-1
-1=-1,-1,-1
-1=-1,-1,-1
-1=-1,-1,-1
-1=39,-1,-1
-1=-1,-1,-1
-1=-1,-1,-1
-1=-1,-1,-1
-1=22,-1,-1
-1=-1,-1,-1
-1=-1,-1,-1
38=-1,-1,-1
-1=-1,-1,-1
-1=-1,-1,-1
-1=-1,-1,-1
2=-1,-1,-1
30=-1,-1,-1
-1=2,-1,-1
-1=-1,-1,-1
-1=-1,-1,-1
-1=-1,-1,-1
-1=-1,-1,-1
-1=-1,-1,-1
-1=-1,-1,-1
-1=-1,-1,-1
-1=-1,-1,-1
-1=11,-1,-1
-1=-1,-1,-1
19=-1,-1,-1
-1=-1,-1,-1
-1=-1,-1,-1
-1=41,-1,-1
-1=-1,-1,-1
-1=-1,-1,-1
-1=-1,-1,-1
-1=-1,-1,-1
-1=-1,-1,-1
-1=-1,-1,-1
-1=-1,-1,-1
-1=-1,-1,-1
-1=-1,-1,-1
-1=-1,-1,-1
-1=-1,-1,-1
23=-1,-1,-1
2=-1,-1,-1
-1=-1,-1,-1
36=2,-1,-1
-1=19,49,-1
-1=-1,-1,-1
-1=-1,-1,-1
10=-1,-1,-1
-1=-1,-1,-1
-1=10,-1,-1
-1=-1,-1,-1
-1=-1,-1,-1
-1=-1,-1,-1
-1=-1,-1,-1
-1=30,-1,-1
19=45,-1,-1
32=-1,-1,-1
-1=32,38,-1
32=-1,-1,-1
6=-1,-1,-1
-1=-1,-1,-1
-1=-1,-1,-1
-1=-1,-1,-1
-1=-1,-1,-1
-1=-1,-1,-1
42=-1,-1,-1
31=-1,-1,-1
-1=-1,-1,-1
-1=-1,-1,-1
-1=50,-1,-1
-1=-1,-1,-1
-1=23,-1,-1
-1=-1,-1,-1
48=-1,-1,-1
-1=-1,-1,-1
-1=-1,-1,-1
-1=-1,-1,-1
-1=-1,-1,-1
-1=-1,-1,-1
-1=-1,-1,-1
41=-1,-1,-1
-1=-1,-1,-1
-1=36,-1,-1
-1=-1,-1,-1
43=-1,-1,-1
-1=-1,-1,-1
-1=6,-1,-1
-1=41,-1,-1
-1=-1,-1,-1
5=19,-1,-1
-1=-1,-1,-1
-1=31,-1,-1
-1=5,42,-1
9=-1,-1,-1
-1=-1,-1,-1
50=28,48,-1
-1=9,-1,-1
-1=50,-1,-1
-1=-1,-1,-1
-1=-1,-1,-1
37=-1,-1,-1
28=-1,-1,-1
-1=28,43,-1
-1=32,-1,-1
4=-1,-1,-1
-1=17,-1,-1
27=-1,-1,-1
15=-1,-1,-1
29=27,-1,-1
-1=-1,-1,-1
12=15,-1,-1
-1=29,-1,-1
-1=-1,-1,-1
-1=37,-1,-1
16=-1,-1,-1
29=4,-1,-1
-1=-1,-1,-1
-1=-1,-1,-1
17=-1,-1,-1
-1=12,-1,-1
-1=16,-1,-1
-1=17,-1,-1
-1=29,-1,-1
-1=-1,-1,-1
-1=-1,-1,-1
-1=-1,-1,-1
-1=-1,-1,-1
-1=-1,-1,-1
-1=-1,-1,-1
-1=-1,-1,-1
-1=-1,-1,-1
32=-1,-1,-1
-1=32,-1,-1
-1=-1,-1,-1
--------
,
32 ,
,32 
,
,
,
,
,
,
,
,
29 ,
17 29 ,29 
16 17 29 ,17 29 
12 16 17 29 ,16 17 29 
12 16 29 ,12 16 17 29 
12 16 29 ,12 16 29 
12 16 29 ,12 16 29 
4 12 16 ,12 16 29 
4 12 ,4 12 16 
4 12 37 ,4 12 
4 12 37 ,4 12 37 
4 12 29 37 ,4 12 37 
4 15 29 37 ,4 12 29 37 
4 15 29 37 ,4 15 29 37 
4 15 27 37 ,4 15 29 37 
4 27 37 ,4 15 27 37 
4 37 ,4 27 37 
4 17 37 ,4 37 
17 37 ,4 17 37 
17 32 37 ,17 37 
17 28 32 37 43 ,17 32 37 
17 32 37 43 ,17 28 32 37 43 
17 32 43 ,17 32 37 43 
17 32 43 ,17 32 43 
17 32 43 ,17 32 43 
17 32 43 50 ,17 32 43 
9 17 32 43 50 ,17 32 43 50 
9 17 28 32 43 48 ,9 17 32 43 50 
9 17 28 32 43 48 ,9 17 28 32 43 48 
17 28 32 43 48 ,9 17 28 32 43 48 
5 17 28 32 42 43 48 ,17 28 32 43 48 
5 17 28 31 32 42 43 48 ,5 17 28 32 42 43 48 
5 17 28 31 32 42 43 48 ,5 17 28 31 32 42 43 48 
17 19 28 31 32 42 43 48 ,5 17 28 31 32 42 43 48 
17 19 28 31 32 42 43 48 ,17 19 28 31 32 42 43 48 
17 19 28 31 32 41 42 43 48 ,17 19 28 31 32 42 43 48 
6 17 19 28 31 32 41 42 43 48 ,17 19 28 31 32 41 42 43 48 
6 17 19 28 31 32 41 42 43 48 ,6 17 19 28 31 32 41 42 43 48 
6 17 19 28 31 32 41 42 48 ,6 17 19 28 31 32 41 42 43 48 
6 17 19 28 31 32 41 42 48 ,6 17 19 28 31 32 41 42 48 
6 17 19 28 31 32 36 41 42 48 ,6 17 19 28 31 32 41 42 48 
6 17 19 28 31 32 36 41 42 48 ,6 17 19 28 31 32 36 41 42 48 
6 17 19 28 31 32 36 42 48 ,6 17 19 28 31 32 36 41 42 48 
6 17 19 28 31 32 36 42 48 ,6 17 19 28 31 32 36 42 48 
6 17 19 28 31 32 36 42 48 ,6 17 19 28 31 32 36 42 48 
6 17 19 28 31 32 36 42 48 ,6 17 19 28 31 32 36 42 48 
6 17 19 28 31 32 36 42 48 ,6 17 19 28 31 32 36 42 48 
6 17 19 28 31 32 36 42 48 ,6 17 19 28 31 32 36 42 48 
6 17 19 28 31 32 36 42 48 ,6 17 19 28 31 32 36 42 48 
6 17 19 28 31 32 36 42 ,6 17 19 28 31 32 36 42 48 
6 17 19 28 31 32 36 42 ,6 17 19 28 31 32 36 42 
6 17 19 23 28 31 32 36 42 ,6 17 19 28 31 32 36 42 
6 17 19 23 28 31 32 36 42 ,6 17 19 23 28 31 32 36 42 
6 17 19 23 28 31 32 36 42 50 ,6 17 19 23 28 31 32 36 42 
6 17 19 23 28 31 32 36 42 50 ,6 17 19 23 28 31 32 36 42 50 
6 17 19 23 28 31 32 36 42 50 ,6 17 19 23 28 31 32 36 42 50 
6 17 19 23 28 32 36 42 50 ,6 17 19 23 28 31 32 36 42 50 
6 17 19 23 28 32 36 50 ,6 17 19 23 28 32 36 42 50 
6 17 19 23 28 32 36 50 ,6 17 19 23 28 32 36 50 
6 17 19 23 28 32 36 50 ,6 17 19 23 28 32 36 50 
6 17 19 23 28 32 36 50 ,6 17 19 23 28 32 36 50 
6 17 19 23 28 32 36 50 ,6 17 19 23 28 32 36 50 
6 17 19 23 28 32 36 50 ,6 17 19 23 28 32 36 50 
17 19 23 28 32 36 50 ,6 17 19 23 28 32 36 50 
17 19 23 28 36 50 ,17 19 23 28 32 36 50 
17 19 23 28 32 36 38 50 ,17 19 23 28 36 50 
17 19 23 28 36 38 50 ,17 19 23 28 32 36 38 50 
17 23 28 36 38 45 50 ,17 19 23 28 36 38 50 
17 23 28 30 36 38 45 50 ,17 23 28 36 38 45 50 
17 23 28 30 36 38 45 50 ,17 23 28 30 36 38 45 50 
17 23 28 30 36 38 45 50 ,17 23 28 30 36 38 45 50 
17 23 28 30 36 38 45 50 ,17 23 28 30 36 38 45 50 
17 23 28 30 36 38 45 50 ,17 23 28 30 36 38 45 50 
10 17 23 28 30 36 38 45 50 ,17 23 28 30 36 38 45 50 
10 17 23 28 30 36 38 45 50 ,10 17 23 28 30 36 38 45 50 
17 23 28 30 36 38 45 50 ,10 17 23 28 30 36 38 45 50 
17 23 28 30 36 38 45 50 ,17 23 28 30 36 38 45 50 
17 23 28 30 36 38 45 50 ,17 23 28 30 36 38 45 50 
17 19 23 28 30 36 38 45 49 50 ,17 23 28 30 36 38 45 50 
2 17 19 23 28 30 38 45 49 50 ,17 19 23 28 30 36 38 45 49 50 
2 17 19 23 28 30 38 45 49 50 ,2 17 19 23 28 30 38 45 49 50 
17 19 23 28 30 38 45 49 50 ,2 17 19 23 28 30 38 45 49 50 
17 19 28 30 38 45 49 50 ,17 19 23 28 30 38 45 49 50 
17 19 28 30 38 45 49 50 ,17 19 28 30 38 45 49 50 
17 19 28 30 38 45 49 50 ,17 19 28 30 38 45 49 50 
17 19 28 30 38 45 49 50 ,17 19 28 30 38 45 49 50 
17 19 28 30 38 45 49 50 ,17 19 28 30 38 45 49 50 
17 19 28 30 38 45 49 50 ,17 19 28 30 38 45 49 50 
17 19 28 30 38 45 49 50 ,17 19 28 30 38 45 49 50 
17 19 28 30 38 45 49 50 ,17 19 28 30 38 45 49 50 
17 19 28 30 38 45 49 50 ,17 19 28 30 38 45 49 50 
17 19 28 30 38 45 49 50 ,17 19 28 30 38 45 49 50 
17 19 28 30 38 45 49 50 ,17 19 28 30 38 45 49 50 
17 19 28 30 38 45 49 50 ,17 19 28 30 38 45 49 50 
17 19 28 30 38 41 45 49 50 ,17 19 28 30 38 45 49 50 
17 19 28 30 38 41 45 49 50 ,17 19 28 30 38 41 45 49 50 
17 19 28 30 38 41 45 49 50 ,17 19 28 30 38 41 45 49 50 
17 28 30 38 41 45 49 50 ,17 19 28 30 38 41 45 49 50 
17 28 30 38 41 45 49 50 ,17 28 30 38 41 45 49 50 
11 17 28 30 38 41 45 49 50 ,17 28 30 38 41 45 49 50 
11 17 28 30 38 41 45 49 50 ,11 17 28 30 38 41 45 49 50 
11 17 28 30 38 41 45 49 50 ,11 17 28 30 38 41 45 49 50 
11 17 28 30 38 41 45 49 50 ,11 17 28 30 38 41 45 49 50 
11 17 28 30 38 41 45 49 50 ,11 17 28 30 38 41 45 49 50 
11 17 28 30 38 41 45 49 50 ,11 17 28 30 38 41 45 49 50 
11 17 28 30 38 41 45 49 50 ,11 17 28 30 38 41 45 49 50 
11 17 28 30 38 41 45 49 50 ,11 17 28 30 38 41 45 49 50 
11 17 28 30 38 41 45 49 50 ,11 17 28 30 38 41 45 49 50 
2 11 17 28 30 38 41 45 49 50 ,11 17 28 30 38 41 45 49 50 
2 11 17 28 38 41 45 49 50 ,2 11 17 28 30 38 41 45 49 50 
11 17 28 38 41 45 49 50 ,2 11 17 28 38 41 45 49 50 
11 17 28 38 41 45 49 50 ,11 17 28 38 41 45 49 50 
11 17 28 38 41 45 49 50 ,11 17 28 38 41 45 49 50 
11 17 28 38 41 45 49 50 ,11 17 28 38 41 45 49 50 
11 17 28 41 45 49 50 ,11 17 28 38 41 45 49 50 
11 17 28 41 45 49 50 ,11 17 28 41 45 49 50 
11 17 28 41 45 49 50 ,11 17 28 41 45 49 50 
11 17 22 28 41 45 49 50 ,11 17 28 41 45 49 50 
11 17 22 28 41 45 49 50 ,11 17 22 28 41 45 49 50 
11 17 22 28 41 45 49 50 ,11 17 22 28 41 45 49 50 
11 17 22 28 41 45 49 50 ,11 17 22 28 41 45 49 50 
11 17 22 28 39 41 45 49 50 ,11 17 22 28 41 45 49 50 
11 17 22 28 39 41 45 49 50 ,11 17 22 28 39 41 45 49 50 
11 17 22 28 39 41 45 49 50 ,11 17 22 28 39 41 45 49 50 
11 17 22 28 39 41 45 49 50 ,11 17 22 28 39 41 45 49 50 
11 17 22 28 39 41 45 50 ,11 17 22 28 39 41 45 49 50 
11 17 19 22 28 39 41 45 50 ,11 17 22 28 39 41 45 50 
11 17 19 22 28 34 39 41 45 50 ,11 17 19 22 28 39 41 45 50 
11 17 19 22 28 34 39 41 45 50 ,11 17 19 22 28 34 39 41 45 50 
11 17 19 28 34 39 41 45 50 ,11 17 19 22 28 34 39 41 45 50 
11 17 19 28 34 39 41 45 ,11 17 19 28 34 39 41 45 50 
11 17 19 25 28 34 39 41 45 ,11 17 19 28 34 39 41 45 
10 11 17 19 25 28 34 39 41 45 ,11 17 19 25 28 34 39 41 45 
10 11 17 19 25 28 33 34 39 41 45 ,10 11 17 19 25 28 34 39 41 45 
10 11 17 19 25 28 33 34 39 41 45 ,10 11 17 19 25 28 33 34 39 41 45 
10 11 17 19 25 28 33 34 39 41 45 ,10 11 17 19 25 28 33 34 39 41 45 
10 11 19 25 28 33 34 39 41 45 ,10 11 17 19 25 28 33 34 39 41 45 
10 11 19 25 28 33 34 41 45 ,10 11 19 25 28 33 34 39 41 45 
10 11 19 25 28 33 34 41 45 ,10 11 19 25 28 33 34 41 45 
10 11 19 25 28 33 34 41 45 ,10 11 19 25 28 33 34 41 45 
10 19 25 28 33 34 41 45 ,10 11 19 25 28 33 34 41 45 
10 19 28 33 34 41 45 ,10 19 25 28 33 34 41 45 
10 19 28 33 34 41 45 ,10 19 28 33 34 41 45 
10 19 28 33 41 45 ,10 19 28 33 34 41 45 
10 19 28 33 41 45 ,10 19 28 33 41 45 
10 19 28 33 41 ,10 19 28 33 41 45 
10 19 28 33 41 ,10 19 28 33 41 
10 19 28 33 41 ,10 19 28 33 41 
10 19 28 33 41 ,10 19 28 33 41 
10 28 33 41 ,10 19 28 33 41 
10 28 33 41 ,10 28 33 41 
10 28 33 41 ,10 28 33 41 
10 28 33 41 ,10 28 33 41 
10 28 33 41 ,10 28 33 41 
10 28 33 41 ,10 28 33 41 
10 28 33 41 ,10 28 33 41 
10 28 33 41 ,10 28 33 41 
10 28 33 41 ,10 28 33 41 
10 28 41 ,10 28 33 41 
10 28 41 ,10 28 41 
10 28 41 ,10 28 41 
10 28 41 ,10 28 41 
10 28 41 ,10 28 41 
28 41 ,10 28 41 
28 41 ,28 41 
28 41 ,28 41 
28 ,28 41 
28 34 ,28 
28 34 ,28 34 
28 34 ,28 34 
28 34 ,28 34 
28 34 ,28 34 
28 34 ,28 34 
34 ,28 34 
34 ,34 
34 ,34 
34 ,34 
34 ,34 
34 ,34 
34 ,34 
34 ,34 
34 ,34 
34 ,34 
34 ,34 
,34 
,
,
,
,
--------
,
32 ,
,32 
,
,
,
,
,
,
,
,
29 ,
17 29 ,29 
16 17 29 ,17 29 
12 16 17 29 ,16 17 29 
12 16 29 ,12 16 17 29 
12 16 29 ,12 16 29 
12 16 29 ,12 16 29 
4 12 16 ,12 16 29 
4 12 ,4 12 16 
4 12 37 ,4 12 
4 12 37 ,4 12 37 
4 12 29 37 ,4 12 37 
4 15 29 37 ,4 12 29 37 
4 15 29 37 ,4 15 29 37 
4 15 27 37 ,4 15 29 37 
4 27 37 ,4 15 27 37 
4 37 ,4 27 37 
4 17 37 ,4 37 
17 37 ,4 17 37 
17 32 37 ,17 37 
17 28 32 37 43 ,17 32 37 
17 32 37 43 ,17 28 32 37 43 
17 32 43 ,17 32 37 43 
17 32 43 ,17 32 43 
17 32 43 ,17 32 43 
17 32 43 50 ,17 32 43 
9 17 32 43 50 ,17 32 43 50 
9 17 28 32 43 48 ,9 17 32 43 50 
9 17 28 32 43 48 ,9 17 28 32 43 48 
17 28 32 43 48 ,9 17 28 32 43 48 
5 17 28 32 42 43 48 ,17 28 32 43 48 
5 17 28 31 32 42 43 48 ,5 17 28 32 42 43 48 
5 17 28 31 32 42 43 48 ,5 17 28 31 32 42 43 48 
17 19 28 31 32 42 43 48 ,5 17 28 31 32 42 43 48 
17 19 28 31 32 42 43 48 ,17 19 28 31 32 42 43 48 
17 19 28 31 32 41 42 43 48 ,17 19 28 31 32 42 43 48 
6 17 19 28 31 32 41 42 43 48 ,17 19 28 31 32 41 42 43 48 
6 17 19 28 31 32 41 42 43 48 ,6 17 19 28 31 32 41 42 43 48 
6 17 19 28 31 32 41 42 48 ,6 17 19 28 31 32 41 42 43 48 
6 17 19 28 31 32 41 42 48 ,6 17 19 28 31 32 41 42 48 
6 17 19 28 31 32 36 41 42 48 ,6 17 19 28 31 32 41 42 48 
6 17 19 28 31 32 36 41 42 48 ,6 17 19 28 31 32 36 41 42 48 
6 17 19 28 31 32 36 42 48 ,6 17 19 28 31 32 36 41 42 48 
6 17 19 28 31 32 36 42 48 ,6 17 19 28 31 32 36 42 48 
6 17 19 28 31 32 36 42 48 ,6 17 19 28 31 32 36 42 48 
6 17 19 28 31 32 36 42 48 ,6 17 19 28 31 32 36 42 48 
6 17 19 28 31 32 36 42 48 ,6 17 19 28 31 32 36 42 48 
6 17 19 28 31 32 36 42 48 ,6 17 19 28 31 32 36 42 48 
6 17 19 28 31 32 36 42 48 ,6 17 19 28 31 32 36 42 48 
6 17 19 28 31 32 36 42 ,6 17 19 28 31 32 36 42 48 
6 17 19 28 31 32 36 42 ,6 17 19 28 31 32 36 42 
6 17 19 23 28 31 32 36 42 ,6 17 19 28 31 32 36 42 
6 17 19 23 28 31 32 36 42 ,6 17 19 23 28 31 32 36 42 
6 17 19 23 28 31 32 36 42 50 ,6 17 19 23 28 31 32 36 42 
6 17 19 23 28 31 32 36 42 50 ,6 17 19 23 28 31 32 36 42 50 
6 17 19 23 28 31 32 36 42 50 ,6 17 19 23 28 31 32 36 42 50 
6 17 19 23 28 32 36 42 50 ,6 17 19 23 28 31 32 36 42 50 
6 17 19 23 28 32 36 50 ,6 17 19 23 28 32 36 42 50 
6 17 19 23 28 32 36 50 ,6 17 19 23 28 32 36 50 
6 17 19 23 28 32 36 50 ,6 17 19 23 28 32 36 50 
6 17 19 23 28 32 36 50 ,6 17 19 23 28 32 36 50 
6 17 19 23 28 32 36 50 ,6 17 19 23 28 32 36 50 
6 17 19 23 28 32 36 50 ,6 17 19 23 28 32 36 50 
17 19 23 28 32 36 50 ,6 17 19 23 28 32 36 50 
17 19 23 28 36 50 ,17 19 23 28 32 36 50 
17 19 23 28 32 36 38 50 ,17 19 23 28 36 50 
17 19 23 28 36 38 50 ,17 19 23 28 32 36 38 50 
17 23 28 36 38 45 50 ,17 19 23 28 36 38 50 
17 23 28 30 36 38 45 50 ,17 23 28 36 38 45 50 
17 23 28 30 36 38 45 50 ,17 23 28 30 36 38 45 50 
17 23 28 30 36 38 45 50 ,17 23 28 30 36 38 45 50 
17 23 28 30 36 38 45 50 ,17 23 28 30 36 38 45 50 
17 23 28 30 36 38 45 50 ,17 23 28 30 36 38 45 50 
10 17 23 28 30 36 38 45 50 ,17 23 28 30 36 38 45 50 
10 17 23 28 30 36 38 45 50 ,10 17 23 28 30 36 38 45 50 
17 23 28 30 36 38 45 50 ,10 17 23 28 30 36 38 45 50 
17 23 28 30 36 38 45 50 ,17 23 28 30 36 38 45 50 
17 23 28 30 36 38 45 50 ,17 23 28 30 36 38 45 50 
17 19 23 28 30 36 38 45 49 50 ,17 23 28 30 36 38 45 50 
2 17 19 23 28 30 38 45 49 50 ,17 19 23 28 30 36 38 45 49 50 
2 17 19 23 28 30 38 45 49 50 ,2 17 19 23 28 30 38 45 49 50 
17 19 23 28 30 38 45 49 50 ,2 17 19 23 28 30 38 45 49 50 
17 19 28 30 38 45 49 50 ,17 19 23 28 30 38 45 49 50 
17 19 28 30 38 45 49 50 ,17 19 28 30 38 45 49 50 
17 19 28 30 38 45 49 50 ,17 19 28 30 38 45 49 50 
17 19 28 30 38 45 49 50 ,17 19 28 30 38 45 49 50 
17 19 28 30 38 45 49 50 ,17 19 28 30 38 45 49 50 
17 19 28 30 38 45 49 50 ,17 19 28 30 38 45 49 50 
17 19 28 30 38 45 49 50 ,17 19 28 30 38 45 49 50 
17 19 28 30 38 45 49 50 ,17 19 28 30 38 45 49 50 
17 19 28 30 38 45 49 50 ,17 19 28 30 38 45 49 50 
17 19 28 30 38 45 49 50 ,17 19 28 30 38 45 49 50 
17 19 28 30 38 45 49 50 ,17 19 28 30 38 45 49 50 
17 19 28 30 38 45 49 50 ,17 19 28 30 38 45 49 50 
17 19 28 30 38 41 45 49 50 ,17 19 28 30 38 45 49 50 
17 19 28 30 38 41 45 49 50 ,17 19 28 30 38 41 45 49 50 
17 19 28 30 38 41 45 49 50 ,17 19 28 30 38 41 45 49 50 
17 28 30 38 41 45 49 50 ,17 19 28 30 38 41 45 49 50 
17 28 30 38 41 45 49 50 ,17 28 30 38 41 45 49 50 
11 17 28 30 38 41 45 49 50 ,17 28 30 38 41 45 49 50 
11 17 28 30 38 41 45 49 50 ,11 17 28 30 38 41 45 49 50 
11 17 28 30 38 41 45 49 50 ,11 17 28 30 38 41 45 49 50 
11 17 28 30 38 41 45 49 50 ,11 17 28 30 38 41 45 49 50 
11 17 28 30 38 41 45 49 50 ,11 17 28 30 38 41 45 49 50 
11 17 28 30 38 41 45 49 50 ,11 17 28 30 38 41 45 49 50 
11 17 28 30 38 41 45 49 50 ,11 17 28 30 38 41 45 49 50 
11 17 28 30 38 41 45 49 50 ,11 17 28 30 38 41 45 49 50 
11 17 28 30 38 41 45 49 50 ,11 17 28 30 38 41 45 49 50 
2 11 17 28 30 38 41 45 49 50 ,11 17 28 30 38 41 45 49 50 
2 11 17 28 38 41 45 49 50 ,2 11 17 28 30 38 41 45 49 50 
11 17 28 38 41 45 49 50 ,2 11 17 28 38 41 45 49 50 
11 17 28 38 41 45 49 50 ,11 17 28 38 41 45 49 50 
11 17 28 38 41 45 49 50 ,11 17 28 38 41 45 49 50 
11 17 28 38 41 45 49 50 ,11 17 28 38 41 45 49 50 
11 17 28 41 45 49 50 ,11 17 28 38 41 45 49 50 
11 17 28 41 45 49 50 ,11 17 28 41 45 49 50 
11 17 28 41 45 49 50 ,11 17 28 41 45 49 50 
11 17 22 28 41 45 49 50 ,11 17 28 41 45 49 50 
11 17 22 28 41 45 49 50 ,11 17 22 28 41 45 49 50 
11 17 22 28 41 45 49 50 ,11 17 22 28 41 45 49 50 
11 17 22 28 41 45 49 50 ,11 17 22 28 41 45 49 50 
11 17 22 28 39 41 45 49 50 ,11 17 22 28 41 45 49 50 
11 17 22 28 39 41 45 49 50 ,11 17 22 28 39 41 45 49 50 
11 17 22 28 39 41 45 49 50 ,11 17 22 28 39 41 45 49 50 
11 17 22 28 39 41 45 49 50 ,11 17 22 28 39 41 45 49 50 
11 17 22 28 39 41 45 50 ,11 17 22 28 39 41 45 49 50 
11 17 19 22 28 39 41 45 50 ,11 17 22 28 39 41 45 50 
11 17 19 22 28 34 39 41 45 50 ,11 17 19 22 28 39 41 45 50 
11 17 19 22 28 34 39 41 45 50 ,11 17 19 22 28 34 39 41 45 50 
11 17 19 28 34 39 41 45 50 ,11 17 19 22 28 34 39 41 45 50 
11 17 19 28 34 39 41 45 ,11 17 19 28 34 39 41 45 50 
11 17 19 25 28 34 39 41 45 ,11 17 19 28 34 39 41 45 
10 11 17 19 25 28 34 39 41 45 ,11 17 19 25 28 34 39 41 45 
10 11 17 19 25 28 33 34 39 41 45 ,10 11 17 19 25 28 34 39 41 45 
10 11 17 19 25 28 33 34 39 41 45 ,10 11 17 19 25 28 33 34 39 41 45 
10 11 17 19 25 28 33 34 39 41 45 ,10 11 17 19 25 28 33 34 39 41 45 
10 11 19 25 28 33 34 39 41 45 ,10 11 17 19 25 28 33 34 39 41 45 
10 11 19 25 28 33 34 41 45 ,10 11 19 25 28 33 34 39 41 45 
10 11 19 25 28 33 34 41 45 ,10 11 19 25 28 33 34 41 45 
10 11 19 25 28 33 34 41 45 ,10 11 19 25 28 33 34 41 45 
10 19 25 28 33 34 41 45 ,10 11 19 25 28 33 34 41 45 
10 19 28 33 34 41 45 ,10 19 25 28 33 34 41 45 
10 19 28 33 34 41 45 ,10 19 28 33 34 41 45 
10 19 28 33 41 45 ,10 19 28 33 34 41 45 
10 19 28 33 41 45 ,10 19 28 33 41 45 
10 19 28 33 41 ,10 19 28 33 41 45 
10 19 28 33 41 ,10 19 28 33 41 
10 19 28 33 41 ,10 19 28 33 41 
10 19 28 33 41 ,10 19 28 33 41 
10 28 33 41 ,10 19 28 33 41 
10 28 33 41 ,10 28 33 41 
10 28 33 41 ,10 28 33 41 
10 28 33 41 ,10 28 33 41 
10 28 33 41 ,10 28 33 41 
10 28 33 41 ,10 28 33 41 
10 28 33 41 ,10 28 33 41 
10 28 33 41 ,10 28 33 41 
10 28 33 41 ,10 28 33 41 
10 28 41 ,10 28 33 41 
10 28 41 ,10 28 41 
10 28 41 ,10 28 41 
10 28 41 ,10 28 41 
10 28 41 ,10 28 41 
28 41 ,10 28 41 
28 41 ,28 41 
28 41 ,28 41 
28 ,28 41 
28 34 ,28 
28 34 ,28 34 
28 34 ,28 34 
28 34 ,28 34 
28 34 ,28 34 
28 34 ,28 34 
34 ,28 34 
34 ,34 
34 ,34 
34 ,34 
34 ,34 
34 ,34 
34 ,34 
34 ,34 
34 ,34 
34 ,34 
34 ,34 
,34 
,
,
,
,
-------------
-------
2(-1)->11 17 19 23 28 30 38 41 45 49 50 
4(-1)->12 15 16 17 27 29 37 
5(-1)->17 28 31 32 42 43 48 
6(-1)->17 19 23 28 31 32 36 41 42 43 48 50 
9(-1)->17 28 32 43 48 50 
10(-1)->11 17 19 23 25 28 30 33 34 36 38 39 41 45 50 
11(-1)->2 10 17 19 22 25 28 30 33 34 38 39 41 45 49 50 
12(-1)->4 16 17 29 37 
15(-1)->4 27 29 37 
16(-1)->4 12 17 29 
17(-1)->2 4 5 6 9 10 11 12 16 19 22 23 25 28 29 30 31 32 33 34 36 37 38 39 41 42 43 45 48 49 50 
19(-1)->2 6 10 11 17 22 23 25 28 30 31 32 33 34 36 38 39 41 42 43 45 48 49 50 
22(-1)->11 17 19 28 34 39 41 45 49 50 
23(-1)->2 6 10 17 19 28 30 31 32 36 38 42 45 49 50 
25(-1)->10 11 17 19 28 33 34 39 41 45 
27(-1)->4 15 37 
28(-1)->2 5 6 9 10 11 17 19 22 23 25 30 31 32 33 34 36 37 38 39 41 42 43 45 48 49 50 
29(-1)->4 12 15 16 17 37 
30(-1)->2 10 11 17 19 23 28 36 38 41 45 49 50 
31(-1)->5 6 17 19 23 28 32 36 41 42 43 48 50 
32(-1)->5 6 9 17 19 23 28 31 36 37 38 41 42 43 48 50 
33(-1)->10 11 17 19 25 28 34 39 41 45 
34(-1)->10 11 17 19 22 25 28 33 39 41 45 50 
36(-1)->6 10 17 19 23 28 30 31 32 38 41 42 45 48 49 50 
37(-1)->4 12 15 17 27 28 29 32 43 
38(-1)->2 10 11 17 19 23 28 30 32 36 41 45 49 50 
39(-1)->10 11 17 19 22 25 28 33 34 41 45 49 50 
41(-1)->2 6 10 11 17 19 22 25 28 30 31 32 33 34 36 38 39 42 43 45 48 49 50 
42(-1)->5 6 17 19 23 28 31 32 36 41 43 48 50 
43(-1)->5 6 9 17 19 28 31 32 37 41 42 48 50 
45(-1)->2 10 11 17 19 22 23 25 28 30 33 34 36 38 39 41 49 50 
48(-1)->5 6 9 17 19 28 31 32 36 41 42 43 
49(-1)->2 11 17 19 22 23 28 30 36 38 39 41 45 50 
50(-1)->2 6 9 10 11 17 19 22 23 28 30 31 32 34 36 38 39 41 42 43 45 49 
-------
Node 17 maps to position 0
Node 28 maps to position 1
Node 19 maps to position 2
Node 41 maps to position 3
Node 50 maps to position 4
Node 45 maps to position 5
Node 11 maps to position 6
Node 32 maps to position 7
Node 36 maps to position 8
Node 10 maps to position 9
Node 23 maps to position 10
Node 38 maps to position 11
Node 49 maps to position 12
Node 30 maps to position 13
Node 31 maps to position 14
Node 39 maps to position 15
Node 42 maps to position 16
Node 43 maps to position 17
Node 6 maps to position 18
Node 34 maps to position 19
Node 48 maps to position 20
Node 2 maps to position 21
Node 22 maps to position 22
Node 25 maps to position 23
Node 33 maps to position 24
Node 37 maps to position 25
Node 4 maps to position 26
Node 5 maps to position 27
Node 9 maps to position 28
Node 29 maps to position 29
Node 12 maps to position 30
Node 15 maps to position 31
Node 16 maps to position 32
Node 27 maps to position 33
17(-1)->2 4 5 6 9 10 11 12 16 19 22 23 25 28 29 30 31 32 33 34 36 37 38 39 41 42 43 45 48 49 50 
28(-1)->2 5 6 9 10 11 17 19 22 23 25 30 31 32 33 34 36 37 38 39 41 42 43 45 48 49 50 
19(-1)->2 6 10 11 17 22 23 25 28 30 31 32 33 34 36 38 39 41 42 43 45 48 49 50 
41(-1)->2 6 10 11 17 19 22 25 28 30 31 32 33 34 36 38 39 42 43 45 48 49 50 
50(-1)->2 6 9 10 11 17 19 22 23 28 30 31 32 34 36 38 39 41 42 43 45 49 
45(-1)->2 10 11 17 19 22 23 25 28 30 33 34 36 38 39 41 49 50 
11(-1)->2 10 17 19 22 25 28 30 33 34 38 39 41 45 49 50 
32(-1)->5 6 9 17 19 23 28 31 36 37 38 41 42 43 48 50 
36(-1)->6 10 17 19 23 28 30 31 32 38 41 42 45 48 49 50 
10(-1)->11 17 19 23 25 28 30 33 34 36 38 39 41 45 50 
23(-1)->2 6 10 17 19 28 30 31 32 36 38 42 45 49 50 
38(-1)->2 10 11 17 19 23 28 30 32 36 41 45 49 50 
49(-1)->2 11 17 19 22 23 28 30 36 38 39 41 45 50 
30(-1)->2 10 11 17 19 23 28 36 38 41 45 49 50 
31(-1)->5 6 17 19 23 28 32 36 41 42 43 48 50 
39(-1)->10 11 17 19 22 25 28 33 34 41 45 49 50 
42(-1)->5 6 17 19 23 28 31 32 36 41 43 48 50 
43(-1)->5 6 9 17 19 28 31 32 37 41 42 48 50 
6(-1)->17 19 23 28 31 32 36 41 42 43 48 50 
34(-1)->10 11 17 19 22 25 28 33 39 41 45 50 
48(-1)->5 6 9 17 19 28 31 32 36 41 42 43 
2(-1)->11 17 19 23 28 30 38 41 45 49 50 
22(-1)->11 17 19 28 34 39 41 45 49 50 
25(-1)->10 11 17 19 28 33 34 39 41 45 
33(-1)->10 11 17 19 25 28 34 39 41 45 
37(-1)->4 12 15 17 27 28 29 32 43 
4(-1)->12 15 16 17 27 29 37 
5(-1)->17 28 31 32 42 43 48 
9(-1)->17 28 32 43 48 50 
29(-1)->4 12 15 16 17 37 
12(-1)->4 16 17 29 37 
15(-1)->4 27 29 37 
16(-1)->4 12 17 29 
27(-1)->4 15 37 
-------
BLAH
START TIME: 1433732183
Cq = 10 and is assigned to x21
BACKTRACKED TO DEPTH: 20
0 1 2 3 4 5 6 7 8 9 
2(10)->11 17 19 23 28 30 38 41 45 49 50 
4(1)->12 15 16 17 27 29 37 
5(2)->17 28 31 32 42 43 48 
6(9)->17 19 23 28 31 32 36 41 42 43 48 50 
9(2)->17 28 32 43 48 50 
10(7)->11 17 19 23 25 28 30 33 34 36 38 39 41 45 50 
11(6)->2 10 17 19 22 25 28 30 33 34 38 39 41 45 49 50 
12(4)->4 16 17 29 37 
15(0)->4 27 29 37 
16(2)->4 12 17 29 
17(0)->2 4 5 6 9 10 11 12 16 19 22 23 25 28 29 30 31 32 33 34 36 37 38 39 41 42 43 45 48 49 50 
19(2)->2 6 10 11 17 22 23 25 28 30 31 32 33 34 36 38 39 41 42 43 45 48 49 50 
22(10)->11 17 19 28 34 39 41 45 49 50 
23(3)->2 6 10 17 19 28 30 31 32 36 38 42 45 49 50 
25(4)->10 11 17 19 28 33 34 39 41 45 
27(3)->4 15 37 
28(1)->2 5 6 9 10 11 17 19 22 23 25 30 31 32 33 34 36 37 38 39 41 42 43 45 48 49 50 
29(3)->4 12 15 16 17 37 
30(9)->2 10 11 17 19 23 28 36 38 41 45 49 50 
31(7)->5 6 17 19 23 28 32 36 41 42 43 48 50 
32(5)->5 6 9 17 19 23 28 31 36 37 38 41 42 43 48 50 
33(10)->10 11 17 19 25 28 34 39 41 45 
34(9)->10 11 17 19 22 25 28 33 39 41 45 50 
36(6)->6 10 17 19 23 28 30 31 32 38 41 42 45 48 49 50 
37(2)->4 12 15 17 27 28 29 32 43 
38(8)->2 10 11 17 19 23 28 30 32 36 41 45 49 50 
39(8)->10 11 17 19 22 25 28 33 34 41 45 49 50 
41(3)->2 6 10 11 17 19 22 25 28 30 31 32 33 34 36 38 39 42 43 45 48 49 50 
42(8)->5 6 17 19 23 28 31 32 36 41 43 48 50 
43(6)->5 6 9 17 19 28 31 32 37 41 42 48 50 
45(5)->2 10 11 17 19 22 23 25 28 30 33 34 36 38 39 41 49 50 
48(4)->5 6 9 17 19 28 31 32 36 41 42 43 
49(7)->2 11 17 19 22 23 28 30 36 38 39 41 45 50 
50(4)->2 6 9 10 11 17 19 22 23 28 30 31 32 34 36 38 39 41 42 43 45 49 
COUNT: 320
COLORS: 11
EDGES: 0
11
320
