-1=-1,-1,-1
-1=-1,-1,-1
44=-1,-1,-1
26=-1,-1,-1
-1=-1,-1,-1
28=26,-1,-1
-1=28,-1,-1
19=-1,-1,-1
-1=-1,-1,-1
-1=-1,-1,-1
-1=-1,-1,-1
12=-1,-1,-1
26=-1,-1,-1
-1=19,-1,-1
-1=-1,-1,-1
-1=-1,-1,-1
-1=-1,-1,-1
-1=-1,-1,-1
15=-1,-1,-1
-1=15,-1,-1
-1=-1,-1,-1
-1=-1,-1,-1
14=-1,-1,-1
15=-1,-1,-1
-1=-1,-1,-1
45=-1,-1,-1
-1=-1,-1,-1
19=-1,-1,-1
-1=19,-1,-1
22=-1,-1,-1
-1=-1,-1,-1
30=-1,-1,-1
29=12,-1,-1
-1=29,-1,-1
1=-1,-1,-1
27=14,-1,-1
5=-1,-1,-1
-1=-1,-1,-1
-1=-1,-1,-1
-1=-1,-1,-1
-1=-1,-1,-1
-1=27,-1,-1
29=30,-1,-1
31=-1,-1,-1
-1=-1,-1,-1
28=-1,-1,-1
-1=5,-1,-1
14=-1,-1,-1
-1=31,-1,-1
-1=44,-1,-1
36=29,-1,-1
-1=-1,-1,-1
31=-1,-1,-1
19=-1,-1,-1
-1=-1,-1,-1
-1=-1,-1,-1
-1=-1,-1,-1
18=-1,-1,-1
-1=-1,-1,-1
-1=-1,-1,-1
-1=-1,-1,-1
-1=-1,-1,-1
-1=26,-1,-1
-1=-1,-1,-1
40=36,-1,-1
-1=-1,-1,-1
-1=40,-1,-1
23=-1,-1,-1
-1=-1,-1,-1
32=-1,-1,-1
40=-1,-1,-1
40=40,-1,-1
-1=-1,-1,-1
-1=-1,-1,-1
-1=-1,-1,-1
37=-1,-1,-1
-1=-1,-1,-1
49=-1,-1,-1
-1=18,-1,-1
-1=1,-1,-1
-1=-1,-1,-1
-1=49,-1,-1
-1=-1,-1,-1
43=-1,-1,-1
-1=-1,-1,-1
49=43,-1,-1
48=-1,-1,-1
-1=-1,-1,-1
-1=32,-1,-1
4=-1,-1,-1
20=23,-1,-1
-1=40,-1,-1
-1=-1,-1,-1
-1=-1,-1,-1
29=19,-1,-1
5=-1,-1,-1
-1=-1,-1,-1
-1=-1,-1,-1
23=-1,-1,-1
-1=37,-1,-1
-1=-1,-1,-1
-1=15,45,49
-1=-1,-1,-1
36=29,31,-1
-1=23,-1,-1
-1=-1,-1,-1
-1=-1,-1,-1
3=-1,-1,-1
-1=-1,-1,-1
32=-1,-1,-1
40=-1,-1,-1
1=4,40,-1
23=-1,-1,-1
-1=-1,-1,-1
-1=-1,-1,-1
25=-1,-1,-1
-1=20,28,32
-1=23,-1,-1
-1=-1,-1,-1
50=36,-1,-1
-1=-1,-1,-1
-1=-1,-1,-1
-1=-1,-1,-1
-1=-1,-1,-1
-1=5,-1,-1
33=50,-1,-1
-1=-1,-1,-1
-1=-1,-1,-1
-1=-1,-1,-1
-1=-1,-1,-1
35=48,-1,-1
-1=-1,-1,-1
-1=-1,-1,-1
-1=-1,-1,-1
31=-1,-1,-1
-1=-1,-1,-1
-1=-1,-1,-1
42=1,-1,-1
-1=3,-1,-1
-1=-1,-1,-1
-1=-1,-1,-1
30=-1,-1,-1
-1=-1,-1,-1
-1=35,-1,-1
-1=-1,-1,-1
10=-1,-1,-1
-1=25,-1,-1
4=-1,-1,-1
-1=-1,-1,-1
-1=-1,-1,-1
-1=-1,-1,-1
39=22,33,-1
-1=39,-1,-1
-1=-1,-1,-1
48=-1,-1,-1
-1=-1,-1,-1
-1=4,31,-1
-1=-1,-1,-1
-1=-1,-1,-1
18=14,42,-1
39=-1,-1,-1
12=-1,-1,-1
7=-1,-1,-1
-1=10,-1,-1
-1=-1,-1,-1
-1=30,-1,-1
-1=-1,-1,-1
-1=-1,-1,-1
-1=-1,-1,-1
-1=-1,-1,-1
-1=18,-1,-1
13=-1,-1,-1
-1=13,39,-1
22=12,-1,-1
-1=48,-1,-1
6=7,-1,-1
-1=-1,-1,-1
13=-1,-1,-1
-1=6,22,-1
-1=-1,-1,-1
3=-1,-1,-1
-1=-1,-1,-1
-1=3,13,-1
-1=-1,-1,-1
-1=-1,-1,-1
-1=-1,-1,-1
-1=-1,-1,-1
-1=-1,-1,-1
-1=-1,-1,-1
-1=-1,-1,-1
-1=-1,-1,-1
16=-1,-1,-1
31=-1,-1,-1
-1=-1,-1,-1
-1=16,-1,-1
-1=31,-1,-1
-1=-1,-1,-1
14=-1,-1,-1
-1=14,-1,-1
-1=-1,-1,-1
--------
,
14 ,
,14 
,
31 ,
16 31 ,31 
16 31 ,16 31 
16 ,16 31 
,16 
,
,
,
,
,
,
,
,
3 13 ,
3 13 ,3 13 
13 ,3 13 
13 ,13 
6 13 22 ,13 
6 22 ,6 13 22 
6 22 ,6 22 
7 22 ,6 22 
7 22 48 ,7 22 
7 12 48 ,7 22 48 
7 12 13 39 48 ,7 12 48 
7 12 39 48 ,7 12 13 39 48 
7 12 18 39 48 ,7 12 39 48 
7 12 18 39 48 ,7 12 18 39 48 
7 12 18 39 48 ,7 12 18 39 48 
7 12 18 39 48 ,7 12 18 39 48 
7 12 18 39 48 ,7 12 18 39 48 
7 12 18 30 39 48 ,7 12 18 39 48 
7 12 18 30 39 48 ,7 12 18 30 39 48 
7 10 12 18 30 39 48 ,7 12 18 30 39 48 
10 12 18 30 39 48 ,7 10 12 18 30 39 48 
10 18 30 39 48 ,10 12 18 30 39 48 
10 18 30 48 ,10 18 30 39 48 
10 14 30 42 48 ,10 18 30 48 
10 14 30 42 48 ,10 14 30 42 48 
10 14 30 42 48 ,10 14 30 42 48 
4 10 14 30 31 42 48 ,10 14 30 42 48 
4 10 14 30 31 42 48 ,4 10 14 30 31 42 48 
4 10 14 30 31 42 ,4 10 14 30 31 42 48 
4 10 14 30 31 42 ,4 10 14 30 31 42 
4 10 14 30 31 39 42 ,4 10 14 30 31 42 
4 10 14 22 30 31 33 42 ,4 10 14 30 31 39 42 
4 10 14 22 30 31 33 42 ,4 10 14 22 30 31 33 42 
4 10 14 22 30 31 33 42 ,4 10 14 22 30 31 33 42 
4 10 14 22 30 31 33 42 ,4 10 14 22 30 31 33 42 
10 14 22 30 31 33 42 ,4 10 14 22 30 31 33 42 
10 14 22 25 30 31 33 42 ,10 14 22 30 31 33 42 
14 22 25 30 31 33 42 ,10 14 22 25 30 31 33 42 
14 22 25 30 31 33 42 ,14 22 25 30 31 33 42 
14 22 25 30 31 33 35 42 ,14 22 25 30 31 33 42 
14 22 25 30 31 33 35 42 ,14 22 25 30 31 33 35 42 
14 22 25 31 33 35 42 ,14 22 25 30 31 33 35 42 
14 22 25 31 33 35 42 ,14 22 25 31 33 35 42 
14 22 25 31 33 35 42 ,14 22 25 31 33 35 42 
3 14 22 25 31 33 35 42 ,14 22 25 31 33 35 42 
1 3 14 22 25 31 33 35 ,3 14 22 25 31 33 35 42 
1 3 14 22 25 31 33 35 ,1 3 14 22 25 31 33 35 
1 3 14 22 25 31 33 35 ,1 3 14 22 25 31 33 35 
1 3 14 22 25 33 35 ,1 3 14 22 25 31 33 35 
1 3 14 22 25 33 35 ,1 3 14 22 25 33 35 
1 3 14 22 25 33 35 ,1 3 14 22 25 33 35 
1 3 14 22 25 33 35 ,1 3 14 22 25 33 35 
1 3 14 22 25 33 48 ,1 3 14 22 25 33 35 
1 3 14 22 25 33 48 ,1 3 14 22 25 33 48 
1 3 14 22 25 33 48 ,1 3 14 22 25 33 48 
1 3 14 22 25 33 48 ,1 3 14 22 25 33 48 
1 3 14 22 25 33 48 ,1 3 14 22 25 33 48 
1 3 14 22 25 48 50 ,1 3 14 22 25 33 48 
1 3 5 14 22 25 48 50 ,1 3 14 22 25 48 50 
1 3 5 14 22 25 48 50 ,1 3 5 14 22 25 48 50 
1 3 5 14 22 25 48 50 ,1 3 5 14 22 25 48 50 
1 3 5 14 22 25 48 50 ,1 3 5 14 22 25 48 50 
1 3 5 14 22 25 48 50 ,1 3 5 14 22 25 48 50 
1 3 5 14 22 25 36 48 ,1 3 5 14 22 25 48 50 
1 3 5 14 22 25 36 48 ,1 3 5 14 22 25 36 48 
1 3 5 14 22 23 25 36 48 ,1 3 5 14 22 25 36 48 
1 3 5 14 20 22 23 25 28 32 36 48 ,1 3 5 14 22 23 25 36 48 
1 3 5 14 20 22 23 28 32 36 48 ,1 3 5 14 20 22 23 25 28 32 36 48 
1 3 5 14 20 22 23 28 32 36 48 ,1 3 5 14 20 22 23 28 32 36 48 
1 3 5 14 20 22 23 28 32 36 48 ,1 3 5 14 20 22 23 28 32 36 48 
1 3 5 14 20 22 28 32 36 48 ,1 3 5 14 20 22 23 28 32 36 48 
3 4 5 14 20 22 28 32 36 40 48 ,1 3 5 14 20 22 28 32 36 48 
3 4 5 14 20 22 28 32 36 48 ,3 4 5 14 20 22 28 32 36 40 48 
3 4 5 14 20 22 28 36 48 ,3 4 5 14 20 22 28 32 36 48 
3 4 5 14 20 22 28 36 48 ,3 4 5 14 20 22 28 36 48 
4 5 14 20 22 28 36 48 ,3 4 5 14 20 22 28 36 48 
4 5 14 20 22 28 36 48 ,4 5 14 20 22 28 36 48 
4 5 14 20 22 28 36 48 ,4 5 14 20 22 28 36 48 
4 5 14 20 22 23 28 36 48 ,4 5 14 20 22 28 36 48 
4 5 14 20 22 23 28 29 31 48 ,4 5 14 20 22 23 28 36 48 
4 5 14 20 22 23 28 29 31 48 ,4 5 14 20 22 23 28 29 31 48 
4 5 14 15 20 22 23 28 29 31 45 48 49 ,4 5 14 20 22 23 28 29 31 48 
4 5 14 15 20 22 23 28 29 31 45 48 49 ,4 5 14 15 20 22 23 28 29 31 45 48 49 
4 5 14 15 20 22 23 28 29 31 37 45 48 49 ,4 5 14 15 20 22 23 28 29 31 45 48 49 
4 5 14 15 20 22 28 29 31 37 45 48 49 ,4 5 14 15 20 22 23 28 29 31 37 45 48 49 
4 5 14 15 20 22 28 29 31 37 45 48 49 ,4 5 14 15 20 22 28 29 31 37 45 48 49 
4 5 14 15 20 22 28 29 31 37 45 48 49 ,4 5 14 15 20 22 28 29 31 37 45 48 49 
4 14 15 20 22 28 29 31 37 45 48 49 ,4 5 14 15 20 22 28 29 31 37 45 48 49 
4 14 15 19 20 22 28 31 37 45 48 49 ,4 14 15 20 22 28 29 31 37 45 48 49 
4 14 15 19 20 22 28 31 37 45 48 49 ,4 14 15 19 20 22 28 31 37 45 48 49 
4 14 15 19 20 22 28 31 37 45 48 49 ,4 14 15 19 20 22 28 31 37 45 48 49 
4 14 15 19 20 22 28 31 37 40 45 48 49 ,4 14 15 19 20 22 28 31 37 45 48 49 
4 14 15 19 22 23 28 31 37 40 45 48 49 ,4 14 15 19 20 22 28 31 37 40 45 48 49 
14 15 19 22 23 28 31 37 40 45 48 49 ,4 14 15 19 22 23 28 31 37 40 45 48 49 
14 15 19 22 23 28 31 32 37 40 45 48 49 ,14 15 19 22 23 28 31 37 40 45 48 49 
14 15 19 22 23 28 31 32 37 40 45 48 49 ,14 15 19 22 23 28 31 32 37 40 45 48 49 
14 15 19 22 23 28 31 32 37 40 45 49 ,14 15 19 22 23 28 31 32 37 40 45 48 49 
14 15 19 22 23 28 31 32 37 40 43 45 ,14 15 19 22 23 28 31 32 37 40 45 49 
14 15 19 22 23 28 31 32 37 40 43 45 ,14 15 19 22 23 28 31 32 37 40 43 45 
14 15 19 22 23 28 31 32 37 40 45 ,14 15 19 22 23 28 31 32 37 40 43 45 
14 15 19 22 23 28 31 32 37 40 45 ,14 15 19 22 23 28 31 32 37 40 45 
14 15 19 22 23 28 31 32 37 40 45 49 ,14 15 19 22 23 28 31 32 37 40 45 
14 15 19 22 23 28 31 32 37 40 45 49 ,14 15 19 22 23 28 31 32 37 40 45 49 
1 14 15 19 22 23 28 31 32 37 40 45 49 ,14 15 19 22 23 28 31 32 37 40 45 49 
1 14 15 18 19 22 23 28 31 32 37 40 45 49 ,1 14 15 19 22 23 28 31 32 37 40 45 49 
1 14 15 18 19 22 23 28 31 32 37 40 45 ,1 14 15 18 19 22 23 28 31 32 37 40 45 49 
1 14 15 18 19 22 23 28 31 32 37 40 45 ,1 14 15 18 19 22 23 28 31 32 37 40 45 
1 14 15 18 19 22 23 28 31 32 40 45 ,1 14 15 18 19 22 23 28 31 32 37 40 45 
1 14 15 18 19 22 23 28 31 32 40 45 ,1 14 15 18 19 22 23 28 31 32 40 45 
1 14 15 18 19 22 23 28 31 32 40 45 ,1 14 15 18 19 22 23 28 31 32 40 45 
1 14 15 18 19 22 23 28 31 32 40 45 ,1 14 15 18 19 22 23 28 31 32 40 45 
1 14 15 18 19 22 23 28 31 32 40 45 ,1 14 15 18 19 22 23 28 31 32 40 45 
1 14 15 18 19 22 23 28 31 32 45 ,1 14 15 18 19 22 23 28 31 32 40 45 
1 14 15 18 19 22 23 28 31 45 ,1 14 15 18 19 22 23 28 31 32 45 
1 14 15 18 19 22 23 28 31 45 ,1 14 15 18 19 22 23 28 31 45 
1 14 15 18 19 22 28 31 45 ,1 14 15 18 19 22 23 28 31 45 
1 14 15 18 19 22 28 31 40 45 ,1 14 15 18 19 22 28 31 45 
1 14 15 18 19 22 28 31 40 45 ,1 14 15 18 19 22 28 31 40 45 
1 14 15 18 19 22 28 31 36 45 ,1 14 15 18 19 22 28 31 40 45 
1 14 15 18 19 22 28 31 36 45 ,1 14 15 18 19 22 28 31 36 45 
1 14 15 18 19 22 26 28 31 36 45 ,1 14 15 18 19 22 28 31 36 45 
1 14 15 18 19 22 26 28 31 36 45 ,1 14 15 18 19 22 26 28 31 36 45 
1 14 15 18 19 22 26 28 31 36 45 ,1 14 15 18 19 22 26 28 31 36 45 
1 14 15 18 19 22 26 28 31 36 45 ,1 14 15 18 19 22 26 28 31 36 45 
1 14 15 18 19 22 26 28 31 36 45 ,1 14 15 18 19 22 26 28 31 36 45 
1 14 15 19 22 26 28 31 36 45 ,1 14 15 18 19 22 26 28 31 36 45 
1 14 15 19 22 26 28 31 36 45 ,1 14 15 19 22 26 28 31 36 45 
1 14 15 19 22 26 28 31 36 45 ,1 14 15 19 22 26 28 31 36 45 
1 14 15 19 22 26 28 31 36 45 ,1 14 15 19 22 26 28 31 36 45 
1 14 15 22 26 28 31 36 45 ,1 14 15 19 22 26 28 31 36 45 
1 14 15 22 26 28 36 45 ,1 14 15 22 26 28 31 36 45 
1 14 15 22 26 28 36 45 ,1 14 15 22 26 28 36 45 
1 14 15 22 26 28 29 45 ,1 14 15 22 26 28 36 45 
1 14 15 22 26 28 29 44 45 ,1 14 15 22 26 28 29 45 
1 14 15 22 26 28 29 31 44 45 ,1 14 15 22 26 28 29 44 45 
1 15 22 26 28 29 31 44 45 ,1 14 15 22 26 28 29 31 44 45 
1 5 15 22 26 28 29 31 44 45 ,1 15 22 26 28 29 31 44 45 
1 5 15 22 26 29 31 44 45 ,1 5 15 22 26 28 29 31 44 45 
1 5 15 22 26 29 31 44 45 ,1 5 15 22 26 29 31 44 45 
1 5 15 22 26 29 44 45 ,1 5 15 22 26 29 31 44 45 
1 5 15 22 26 30 44 45 ,1 5 15 22 26 29 44 45 
1 5 15 22 26 27 30 44 45 ,1 5 15 22 26 30 44 45 
1 5 15 22 26 27 30 44 45 ,1 5 15 22 26 27 30 44 45 
1 5 15 22 26 27 30 44 45 ,1 5 15 22 26 27 30 44 45 
1 5 15 22 26 27 30 44 45 ,1 5 15 22 26 27 30 44 45 
1 5 15 22 26 27 30 44 45 ,1 5 15 22 26 27 30 44 45 
1 15 22 26 27 30 44 45 ,1 5 15 22 26 27 30 44 45 
1 14 15 22 26 30 44 45 ,1 15 22 26 27 30 44 45 
14 15 22 26 30 44 45 ,1 14 15 22 26 30 44 45 
14 15 22 26 29 30 44 45 ,14 15 22 26 30 44 45 
12 14 15 22 26 30 44 45 ,14 15 22 26 29 30 44 45 
12 14 15 22 26 44 45 ,12 14 15 22 26 30 44 45 
12 14 15 22 26 44 45 ,12 14 15 22 26 44 45 
12 14 15 26 44 45 ,12 14 15 22 26 44 45 
12 14 15 19 26 44 45 ,12 14 15 26 44 45 
12 14 15 26 44 45 ,12 14 15 19 26 44 45 
12 14 15 26 44 45 ,12 14 15 26 44 45 
12 14 15 26 44 ,12 14 15 26 44 45 
12 14 15 26 44 ,12 14 15 26 44 
12 14 26 44 ,12 14 15 26 44 
12 26 44 ,12 14 26 44 
12 26 44 ,12 26 44 
12 26 44 ,12 26 44 
12 15 26 44 ,12 26 44 
12 26 44 ,12 15 26 44 
12 26 44 ,12 26 44 
12 26 44 ,12 26 44 
12 26 44 ,12 26 44 
12 26 44 ,12 26 44 
12 19 26 44 ,12 26 44 
12 19 44 ,12 19 26 44 
19 44 ,12 19 44 
19 44 ,19 44 
19 44 ,19 44 
19 44 ,19 44 
44 ,19 44 
28 44 ,44 
26 44 ,28 44 
26 44 ,26 44 
44 ,26 44 
,44 
,
,
--------
,
14 ,
,14 
,
31 ,
16 31 ,31 
16 31 ,16 31 
16 ,16 31 
,16 
,
,
,
,
,
,
,
,
3 13 ,
3 13 ,3 13 
13 ,3 13 
13 ,13 
6 13 22 ,13 
6 22 ,6 13 22 
6 22 ,6 22 
7 22 ,6 22 
7 22 48 ,7 22 
7 12 48 ,7 22 48 
7 12 13 39 48 ,7 12 48 
7 12 39 48 ,7 12 13 39 48 
7 12 18 39 48 ,7 12 39 48 
7 12 18 39 48 ,7 12 18 39 48 
7 12 18 39 48 ,7 12 18 39 48 
7 12 18 39 48 ,7 12 18 39 48 
7 12 18 39 48 ,7 12 18 39 48 
7 12 18 30 39 48 ,7 12 18 39 48 
7 12 18 30 39 48 ,7 12 18 30 39 48 
7 10 12 18 30 39 48 ,7 12 18 30 39 48 
10 12 18 30 39 48 ,7 10 12 18 30 39 48 
10 18 30 39 48 ,10 12 18 30 39 48 
10 18 30 48 ,10 18 30 39 48 
10 14 30 42 48 ,10 18 30 48 
10 14 30 42 48 ,10 14 30 42 48 
10 14 30 42 48 ,10 14 30 42 48 
4 10 14 30 31 42 48 ,10 14 30 42 48 
4 10 14 30 31 42 48 ,4 10 14 30 31 42 48 
4 10 14 30 31 42 ,4 10 14 30 31 42 48 
4 10 14 30 31 42 ,4 10 14 30 31 42 
4 10 14 30 31 39 42 ,4 10 14 30 31 42 
4 10 14 22 30 31 33 42 ,4 10 14 30 31 39 42 
4 10 14 22 30 31 33 42 ,4 10 14 22 30 31 33 42 
4 10 14 22 30 31 33 42 ,4 10 14 22 30 31 33 42 
4 10 14 22 30 31 33 42 ,4 10 14 22 30 31 33 42 
10 14 22 30 31 33 42 ,4 10 14 22 30 31 33 42 
10 14 22 25 30 31 33 42 ,10 14 22 30 31 33 42 
14 22 25 30 31 33 42 ,10 14 22 25 30 31 33 42 
14 22 25 30 31 33 42 ,14 22 25 30 31 33 42 
14 22 25 30 31 33 35 42 ,14 22 25 30 31 33 42 
14 22 25 30 31 33 35 42 ,14 22 25 30 31 33 35 42 
14 22 25 31 33 35 42 ,14 22 25 30 31 33 35 42 
14 22 25 31 33 35 42 ,14 22 25 31 33 35 42 
14 22 25 31 33 35 42 ,14 22 25 31 33 35 42 
3 14 22 25 31 33 35 42 ,14 22 25 31 33 35 42 
1 3 14 22 25 31 33 35 ,3 14 22 25 31 33 35 42 
1 3 14 22 25 31 33 35 ,1 3 14 22 25 31 33 35 
1 3 14 22 25 31 33 35 ,1 3 14 22 25 31 33 35 
1 3 14 22 25 33 35 ,1 3 14 22 25 31 33 35 
1 3 14 22 25 33 35 ,1 3 14 22 25 33 35 
1 3 14 22 25 33 35 ,1 3 14 22 25 33 35 
1 3 14 22 25 33 35 ,1 3 14 22 25 33 35 
1 3 14 22 25 33 48 ,1 3 14 22 25 33 35 
1 3 14 22 25 33 48 ,1 3 14 22 25 33 48 
1 3 14 22 25 33 48 ,1 3 14 22 25 33 48 
1 3 14 22 25 33 48 ,1 3 14 22 25 33 48 
1 3 14 22 25 33 48 ,1 3 14 22 25 33 48 
1 3 14 22 25 48 50 ,1 3 14 22 25 33 48 
1 3 5 14 22 25 48 50 ,1 3 14 22 25 48 50 
1 3 5 14 22 25 48 50 ,1 3 5 14 22 25 48 50 
1 3 5 14 22 25 48 50 ,1 3 5 14 22 25 48 50 
1 3 5 14 22 25 48 50 ,1 3 5 14 22 25 48 50 
1 3 5 14 22 25 48 50 ,1 3 5 14 22 25 48 50 
1 3 5 14 22 25 36 48 ,1 3 5 14 22 25 48 50 
1 3 5 14 22 25 36 48 ,1 3 5 14 22 25 36 48 
1 3 5 14 22 23 25 36 48 ,1 3 5 14 22 25 36 48 
1 3 5 14 20 22 23 25 28 32 36 48 ,1 3 5 14 22 23 25 36 48 
1 3 5 14 20 22 23 28 32 36 48 ,1 3 5 14 20 22 23 25 28 32 36 48 
1 3 5 14 20 22 23 28 32 36 48 ,1 3 5 14 20 22 23 28 32 36 48 
1 3 5 14 20 22 23 28 32 36 48 ,1 3 5 14 20 22 23 28 32 36 48 
1 3 5 14 20 22 28 32 36 48 ,1 3 5 14 20 22 23 28 32 36 48 
3 4 5 14 20 22 28 32 36 40 48 ,1 3 5 14 20 22 28 32 36 48 
3 4 5 14 20 22 28 32 36 48 ,3 4 5 14 20 22 28 32 36 40 48 
3 4 5 14 20 22 28 36 48 ,3 4 5 14 20 22 28 32 36 48 
3 4 5 14 20 22 28 36 48 ,3 4 5 14 20 22 28 36 48 
4 5 14 20 22 28 36 48 ,3 4 5 14 20 22 28 36 48 
4 5 14 20 22 28 36 48 ,4 5 14 20 22 28 36 48 
4 5 14 20 22 28 36 48 ,4 5 14 20 22 28 36 48 
4 5 14 20 22 23 28 36 48 ,4 5 14 20 22 28 36 48 
4 5 14 20 22 23 28 29 31 48 ,4 5 14 20 22 23 28 36 48 
4 5 14 20 22 23 28 29 31 48 ,4 5 14 20 22 23 28 29 31 48 
4 5 14 15 20 22 23 28 29 31 45 48 49 ,4 5 14 20 22 23 28 29 31 48 
4 5 14 15 20 22 23 28 29 31 45 48 49 ,4 5 14 15 20 22 23 28 29 31 45 48 49 
4 5 14 15 20 22 23 28 29 31 37 45 48 49 ,4 5 14 15 20 22 23 28 29 31 45 48 49 
4 5 14 15 20 22 28 29 31 37 45 48 49 ,4 5 14 15 20 22 23 28 29 31 37 45 48 49 
4 5 14 15 20 22 28 29 31 37 45 48 49 ,4 5 14 15 20 22 28 29 31 37 45 48 49 
4 5 14 15 20 22 28 29 31 37 45 48 49 ,4 5 14 15 20 22 28 29 31 37 45 48 49 
4 14 15 20 22 28 29 31 37 45 48 49 ,4 5 14 15 20 22 28 29 31 37 45 48 49 
4 14 15 19 20 22 28 31 37 45 48 49 ,4 14 15 20 22 28 29 31 37 45 48 49 
4 14 15 19 20 22 28 31 37 45 48 49 ,4 14 15 19 20 22 28 31 37 45 48 49 
4 14 15 19 20 22 28 31 37 45 48 49 ,4 14 15 19 20 22 28 31 37 45 48 49 
4 14 15 19 20 22 28 31 37 40 45 48 49 ,4 14 15 19 20 22 28 31 37 45 48 49 
4 14 15 19 22 23 28 31 37 40 45 48 49 ,4 14 15 19 20 22 28 31 37 40 45 48 49 
14 15 19 22 23 28 31 37 40 45 48 49 ,4 14 15 19 22 23 28 31 37 40 45 48 49 
14 15 19 22 23 28 31 32 37 40 45 48 49 ,14 15 19 22 23 28 31 37 40 45 48 49 
14 15 19 22 23 28 31 32 37 40 45 48 49 ,14 15 19 22 23 28 31 32 37 40 45 48 49 
14 15 19 22 23 28 31 32 37 40 45 49 ,14 15 19 22 23 28 31 32 37 40 45 48 49 
14 15 19 22 23 28 31 32 37 40 43 45 ,14 15 19 22 23 28 31 32 37 40 45 49 
14 15 19 22 23 28 31 32 37 40 43 45 ,14 15 19 22 23 28 31 32 37 40 43 45 
14 15 19 22 23 28 31 32 37 40 45 ,14 15 19 22 23 28 31 32 37 40 43 45 
14 15 19 22 23 28 31 32 37 40 45 ,14 15 19 22 23 28 31 32 37 40 45 
14 15 19 22 23 28 31 32 37 40 45 49 ,14 15 19 22 23 28 31 32 37 40 45 
14 15 19 22 23 28 31 32 37 40 45 49 ,14 15 19 22 23 28 31 32 37 40 45 49 
1 14 15 19 22 23 28 31 32 37 40 45 49 ,14 15 19 22 23 28 31 32 37 40 45 49 
1 14 15 18 19 22 23 28 31 32 37 40 45 49 ,1 14 15 19 22 23 28 31 32 37 40 45 49 
1 14 15 18 19 22 23 28 31 32 37 40 45 ,1 14 15 18 19 22 23 28 31 32 37 40 45 49 
1 14 15 18 19 22 23 28 31 32 37 40 45 ,1 14 15 18 19 22 23 28 31 32 37 40 45 
1 14 15 18 19 22 23 28 31 32 40 45 ,1 14 15 18 19 22 23 28 31 32 37 40 45 
1 14 15 18 19 22 23 28 31 32 40 45 ,1 14 15 18 19 22 23 28 31 32 40 45 
1 14 15 18 19 22 23 28 31 32 40 45 ,1 14 15 18 19 22 23 28 31 32 40 45 
1 14 15 18 19 22 23 28 31 32 40 45 ,1 14 15 18 19 22 23 28 31 32 40 45 
1 14 15 18 19 22 23 28 31 32 40 45 ,1 14 15 18 19 22 23 28 31 32 40 45 
1 14 15 18 19 22 23 28 31 32 45 ,1 14 15 18 19 22 23 28 31 32 40 45 
1 14 15 18 19 22 23 28 31 45 ,1 14 15 18 19 22 23 28 31 32 45 
1 14 15 18 19 22 23 28 31 45 ,1 14 15 18 19 22 23 28 31 45 
1 14 15 18 19 22 28 31 45 ,1 14 15 18 19 22 23 28 31 45 
1 14 15 18 19 22 28 31 40 45 ,1 14 15 18 19 22 28 31 45 
1 14 15 18 19 22 28 31 40 45 ,1 14 15 18 19 22 28 31 40 45 
1 14 15 18 19 22 28 31 36 45 ,1 14 15 18 19 22 28 31 40 45 
1 14 15 18 19 22 28 31 36 45 ,1 14 15 18 19 22 28 31 36 45 
1 14 15 18 19 22 26 28 31 36 45 ,1 14 15 18 19 22 28 31 36 45 
1 14 15 18 19 22 26 28 31 36 45 ,1 14 15 18 19 22 26 28 31 36 45 
1 14 15 18 19 22 26 28 31 36 45 ,1 14 15 18 19 22 26 28 31 36 45 
1 14 15 18 19 22 26 28 31 36 45 ,1 14 15 18 19 22 26 28 31 36 45 
1 14 15 18 19 22 26 28 31 36 45 ,1 14 15 18 19 22 26 28 31 36 45 
1 14 15 19 22 26 28 31 36 45 ,1 14 15 18 19 22 26 28 31 36 45 
1 14 15 19 22 26 28 31 36 45 ,1 14 15 19 22 26 28 31 36 45 
1 14 15 19 22 26 28 31 36 45 ,1 14 15 19 22 26 28 31 36 45 
1 14 15 19 22 26 28 31 36 45 ,1 14 15 19 22 26 28 31 36 45 
1 14 15 22 26 28 31 36 45 ,1 14 15 19 22 26 28 31 36 45 
1 14 15 22 26 28 36 45 ,1 14 15 22 26 28 31 36 45 
1 14 15 22 26 28 36 45 ,1 14 15 22 26 28 36 45 
1 14 15 22 26 28 29 45 ,1 14 15 22 26 28 36 45 
1 14 15 22 26 28 29 44 45 ,1 14 15 22 26 28 29 45 
1 14 15 22 26 28 29 31 44 45 ,1 14 15 22 26 28 29 44 45 
1 15 22 26 28 29 31 44 45 ,1 14 15 22 26 28 29 31 44 45 
1 5 15 22 26 28 29 31 44 45 ,1 15 22 26 28 29 31 44 45 
1 5 15 22 26 29 31 44 45 ,1 5 15 22 26 28 29 31 44 45 
1 5 15 22 26 29 31 44 45 ,1 5 15 22 26 29 31 44 45 
1 5 15 22 26 29 44 45 ,1 5 15 22 26 29 31 44 45 
1 5 15 22 26 30 44 45 ,1 5 15 22 26 29 44 45 
1 5 15 22 26 27 30 44 45 ,1 5 15 22 26 30 44 45 
1 5 15 22 26 27 30 44 45 ,1 5 15 22 26 27 30 44 45 
1 5 15 22 26 27 30 44 45 ,1 5 15 22 26 27 30 44 45 
1 5 15 22 26 27 30 44 45 ,1 5 15 22 26 27 30 44 45 
1 5 15 22 26 27 30 44 45 ,1 5 15 22 26 27 30 44 45 
1 15 22 26 27 30 44 45 ,1 5 15 22 26 27 30 44 45 
1 14 15 22 26 30 44 45 ,1 15 22 26 27 30 44 45 
14 15 22 26 30 44 45 ,1 14 15 22 26 30 44 45 
14 15 22 26 29 30 44 45 ,14 15 22 26 30 44 45 
12 14 15 22 26 30 44 45 ,14 15 22 26 29 30 44 45 
12 14 15 22 26 44 45 ,12 14 15 22 26 30 44 45 
12 14 15 22 26 44 45 ,12 14 15 22 26 44 45 
12 14 15 26 44 45 ,12 14 15 22 26 44 45 
12 14 15 19 26 44 45 ,12 14 15 26 44 45 
12 14 15 26 44 45 ,12 14 15 19 26 44 45 
12 14 15 26 44 45 ,12 14 15 26 44 45 
12 14 15 26 44 ,12 14 15 26 44 45 
12 14 15 26 44 ,12 14 15 26 44 
12 14 26 44 ,12 14 15 26 44 
12 26 44 ,12 14 26 44 
12 26 44 ,12 26 44 
12 26 44 ,12 26 44 
12 15 26 44 ,12 26 44 
12 26 44 ,12 15 26 44 
12 26 44 ,12 26 44 
12 26 44 ,12 26 44 
12 26 44 ,12 26 44 
12 26 44 ,12 26 44 
12 19 26 44 ,12 26 44 
12 19 44 ,12 19 26 44 
19 44 ,12 19 44 
19 44 ,19 44 
19 44 ,19 44 
19 44 ,19 44 
44 ,19 44 
28 44 ,44 
26 44 ,28 44 
26 44 ,26 44 
44 ,26 44 
,44 
,
,
-------------
-------
1(-1)->3 5 14 15 18 19 20 22 23 25 26 27 28 29 30 31 32 33 35 36 37 40 44 45 48 49 50 
3(-1)->1 4 5 13 14 20 22 23 25 28 31 32 33 35 36 40 42 48 50 
4(-1)->3 5 10 14 15 19 20 22 23 28 29 30 31 32 33 36 37 39 40 42 45 48 49 
5(-1)->1 3 4 14 15 20 22 23 25 26 27 28 29 30 31 32 36 37 40 44 45 48 49 50 
6(-1)->13 22 
7(-1)->10 12 13 18 22 30 39 48 
10(-1)->4 7 12 14 18 22 25 30 31 33 39 42 48 
12(-1)->7 10 13 14 15 18 19 22 26 30 39 44 45 48 
13(-1)->3 6 7 12 22 39 48 
14(-1)->1 3 4 5 10 12 15 18 19 20 22 23 25 26 28 29 30 31 32 33 35 36 37 39 40 42 43 44 45 48 49 50 
15(-1)->1 4 5 12 14 18 19 20 22 23 26 27 28 29 30 31 32 36 37 40 43 44 45 48 49 
16(-1)->31 
18(-1)->1 7 10 12 14 15 19 22 23 26 28 30 31 32 36 37 39 40 45 48 49 
19(-1)->1 4 12 14 15 18 20 22 23 26 28 31 32 36 37 40 43 44 45 48 49 
20(-1)->1 3 4 5 14 15 19 22 23 25 28 29 31 32 36 37 40 45 48 49 
22(-1)->1 3 4 5 6 7 10 12 13 14 15 18 19 20 23 25 26 27 28 29 30 31 32 33 35 36 37 40 42 43 44 45 48 49 50 
23(-1)->1 3 4 5 14 15 18 19 20 22 25 28 29 31 32 36 37 40 43 45 48 49 
25(-1)->1 3 5 10 14 20 22 23 28 30 31 32 33 35 36 42 48 50 
26(-1)->1 5 12 14 15 18 19 22 27 28 29 30 31 36 44 45 
27(-1)->1 5 15 22 26 30 44 45 
28(-1)->1 3 4 5 14 15 18 19 20 22 23 25 26 29 31 32 36 37 40 43 44 45 48 49 
29(-1)->1 4 5 14 15 20 22 23 26 28 30 31 37 44 45 48 49 
30(-1)->1 4 5 7 10 12 14 15 18 22 25 26 27 29 31 33 35 39 42 44 45 48 
31(-1)->1 3 4 5 10 14 15 16 18 19 20 22 23 25 26 28 29 30 32 33 35 36 37 39 40 42 43 44 45 48 49 
32(-1)->1 3 4 5 14 15 18 19 20 22 23 25 28 31 36 37 40 43 45 48 49 
33(-1)->1 3 4 10 14 22 25 30 31 35 42 48 
35(-1)->1 3 14 22 25 30 31 33 42 
36(-1)->1 3 4 5 14 15 18 19 20 22 23 25 26 28 31 32 40 45 48 
37(-1)->1 4 5 14 15 18 19 20 22 23 28 29 31 32 40 43 45 48 49 
39(-1)->4 7 10 12 13 14 18 30 31 42 48 
40(-1)->1 3 4 5 14 15 18 19 20 22 23 28 31 32 36 37 43 45 48 49 
42(-1)->3 4 10 14 22 25 30 31 33 35 39 48 
43(-1)->14 15 19 22 23 28 31 32 37 40 45 
44(-1)->1 5 12 14 15 19 22 26 27 28 29 30 31 45 
45(-1)->1 4 5 12 14 15 18 19 20 22 23 26 27 28 29 30 31 32 36 37 40 43 44 48 49 
48(-1)->1 3 4 5 7 10 12 13 14 15 18 19 20 22 23 25 28 29 30 31 32 33 36 37 39 40 42 45 49 50 
49(-1)->1 4 5 14 15 18 19 20 22 23 28 29 31 32 37 40 45 48 
50(-1)->1 3 5 14 22 25 48 
-------
Node 22 maps to position 0
Node 14 maps to position 1
Node 31 maps to position 2
Node 48 maps to position 3
Node 1 maps to position 4
Node 15 maps to position 5
Node 45 maps to position 6
Node 5 maps to position 7
Node 28 maps to position 8
Node 4 maps to position 9
Node 23 maps to position 10
Node 30 maps to position 11
Node 18 maps to position 12
Node 19 maps to position 13
Node 32 maps to position 14
Node 20 maps to position 15
Node 40 maps to position 16
Node 3 maps to position 17
Node 36 maps to position 18
Node 37 maps to position 19
Node 25 maps to position 20
Node 49 maps to position 21
Node 29 maps to position 22
Node 26 maps to position 23
Node 12 maps to position 24
Node 44 maps to position 25
Node 10 maps to position 26
Node 33 maps to position 27
Node 42 maps to position 28
Node 39 maps to position 29
Node 43 maps to position 30
Node 35 maps to position 31
Node 7 maps to position 32
Node 27 maps to position 33
Node 13 maps to position 34
Node 50 maps to position 35
Node 6 maps to position 36
Node 16 maps to position 37
22(-1)->1 3 4 5 6 7 10 12 13 14 15 18 19 20 23 25 26 27 28 29 30 31 32 33 35 36 37 40 42 43 44 45 48 49 50 
14(-1)->1 3 4 5 10 12 15 18 19 20 22 23 25 26 28 29 30 31 32 33 35 36 37 39 40 42 43 44 45 48 49 50 
31(-1)->1 3 4 5 10 14 15 16 18 19 20 22 23 25 26 28 29 30 32 33 35 36 37 39 40 42 43 44 45 48 49 
48(-1)->1 3 4 5 7 10 12 13 14 15 18 19 20 22 23 25 28 29 30 31 32 33 36 37 39 40 42 45 49 50 
1(-1)->3 5 14 15 18 19 20 22 23 25 26 27 28 29 30 31 32 33 35 36 37 40 44 45 48 49 50 
15(-1)->1 4 5 12 14 18 19 20 22 23 26 27 28 29 30 31 32 36 37 40 43 44 45 48 49 
45(-1)->1 4 5 12 14 15 18 19 20 22 23 26 27 28 29 30 31 32 36 37 40 43 44 48 49 
5(-1)->1 3 4 14 15 20 22 23 25 26 27 28 29 30 31 32 36 37 40 44 45 48 49 50 
28(-1)->1 3 4 5 14 15 18 19 20 22 23 25 26 29 31 32 36 37 40 43 44 45 48 49 
4(-1)->3 5 10 14 15 19 20 22 23 28 29 30 31 32 33 36 37 39 40 42 45 48 49 
23(-1)->1 3 4 5 14 15 18 19 20 22 25 28 29 31 32 36 37 40 43 45 48 49 
30(-1)->1 4 5 7 10 12 14 15 18 22 25 26 27 29 31 33 35 39 42 44 45 48 
18(-1)->1 7 10 12 14 15 19 22 23 26 28 30 31 32 36 37 39 40 45 48 49 
19(-1)->1 4 12 14 15 18 20 22 23 26 28 31 32 36 37 40 43 44 45 48 49 
32(-1)->1 3 4 5 14 15 18 19 20 22 23 25 28 31 36 37 40 43 45 48 49 
20(-1)->1 3 4 5 14 15 19 22 23 25 28 29 31 32 36 37 40 45 48 49 
40(-1)->1 3 4 5 14 15 18 19 20 22 23 28 31 32 36 37 43 45 48 49 
3(-1)->1 4 5 13 14 20 22 23 25 28 31 32 33 35 36 40 42 48 50 
36(-1)->1 3 4 5 14 15 18 19 20 22 23 25 26 28 31 32 40 45 48 
37(-1)->1 4 5 14 15 18 19 20 22 23 28 29 31 32 40 43 45 48 49 
25(-1)->1 3 5 10 14 20 22 23 28 30 31 32 33 35 36 42 48 50 
49(-1)->1 4 5 14 15 18 19 20 22 23 28 29 31 32 37 40 45 48 
29(-1)->1 4 5 14 15 20 22 23 26 28 30 31 37 44 45 48 49 
26(-1)->1 5 12 14 15 18 19 22 27 28 29 30 31 36 44 45 
12(-1)->7 10 13 14 15 18 19 22 26 30 39 44 45 48 
44(-1)->1 5 12 14 15 19 22 26 27 28 29 30 31 45 
10(-1)->4 7 12 14 18 22 25 30 31 33 39 42 48 
33(-1)->1 3 4 10 14 22 25 30 31 35 42 48 
42(-1)->3 4 10 14 22 25 30 31 33 35 39 48 
39(-1)->4 7 10 12 13 14 18 30 31 42 48 
43(-1)->14 15 19 22 23 28 31 32 37 40 45 
35(-1)->1 3 14 22 25 30 31 33 42 
7(-1)->10 12 13 18 22 30 39 48 
27(-1)->1 5 15 22 26 30 44 45 
13(-1)->3 6 7 12 22 39 48 
50(-1)->1 3 5 14 22 25 48 
6(-1)->13 22 
16(-1)->31 
-------
BLAH
START TIME: 1433732183
Cq = 15 and is assigned to x21
BACKTRACKED TO DEPTH: 20
0 1 2 3 4 5 6 7 8 9 10 11 12 13 14 
Cq = 14 and is assigned to x21
BACKTRACKED TO DEPTH: 20
0 1 2 3 4 5 6 7 8 9 10 11 12 13 
1(4)->3 5 14 15 18 19 20 22 23 25 26 27 28 29 30 31 32 33 35 36 37 40 44 45 48 49 50 
3(5)->1 4 5 13 14 20 22 23 25 28 31 32 33 35 36 40 42 48 50 
4(4)->3 5 10 14 15 19 20 22 23 28 29 30 31 32 33 36 37 39 40 42 45 48 49 
5(7)->1 3 4 14 15 20 22 23 25 26 27 28 29 30 31 32 36 37 40 44 45 48 49 50 
6(1)->13 22 
7(1)->10 12 13 18 22 30 39 48 
10(5)->4 7 12 14 18 22 25 30 31 33 39 42 48 
12(2)->7 10 13 14 15 18 19 22 26 30 39 44 45 48 
13(4)->3 6 7 12 22 39 48 
14(1)->1 3 4 5 10 12 15 18 19 20 22 23 25 26 28 29 30 31 32 33 35 36 37 39 40 42 43 44 45 48 49 50 
15(5)->1 4 5 12 14 18 19 20 22 23 26 27 28 29 30 31 32 36 37 40 43 44 45 48 49 
16(0)->31 
18(10)->1 7 10 12 14 15 19 22 23 26 28 30 31 32 36 37 39 40 45 48 49 
19(7)->1 4 12 14 15 18 20 22 23 26 28 31 32 36 37 40 43 44 45 48 49 
20(10)->1 3 4 5 14 15 19 22 23 25 28 29 31 32 36 37 40 45 48 49 
22(0)->1 3 4 5 6 7 10 12 13 14 15 18 19 20 23 25 26 27 28 29 30 31 32 33 35 36 37 40 42 43 44 45 48 49 50 
23(9)->1 3 4 5 14 15 18 19 20 22 25 28 29 31 32 36 37 40 43 45 48 49 
25(6)->1 3 5 10 14 20 22 23 28 30 31 32 33 35 36 42 48 50 
26(3)->1 5 12 14 15 18 19 22 27 28 29 30 31 36 44 45 
27(1)->1 5 15 22 26 30 44 45 
28(8)->1 3 4 5 14 15 18 19 20 22 23 25 26 29 31 32 36 37 40 43 44 45 48 49 
29(11)->1 4 5 14 15 20 22 23 26 28 30 31 37 44 45 48 49 
30(8)->1 4 5 7 10 12 14 15 18 22 25 26 27 29 31 33 35 39 42 44 45 48 
31(2)->1 3 4 5 10 14 15 16 18 19 20 22 23 25 26 28 29 30 32 33 35 36 37 39 40 42 43 44 45 48 49 
32(11)->1 3 4 5 14 15 18 19 20 22 23 25 28 31 36 37 40 43 45 48 49 
33(7)->1 3 4 10 14 22 25 30 31 35 42 48 
35(3)->1 3 14 22 25 30 31 33 42 
36(13)->1 3 4 5 14 15 18 19 20 22 23 25 26 28 31 32 40 45 48 
37(13)->1 4 5 14 15 18 19 20 22 23 28 29 31 32 40 43 45 48 49 
39(0)->4 7 10 12 13 14 18 30 31 42 48 
40(12)->1 3 4 5 14 15 18 19 20 22 23 28 31 32 36 37 43 45 48 49 
42(9)->3 4 10 14 22 25 30 31 33 35 39 48 
43(3)->14 15 19 22 23 28 31 32 37 40 45 
44(9)->1 5 12 14 15 19 22 26 27 28 29 30 31 45 
45(6)->1 4 5 12 14 15 18 19 20 22 23 26 27 28 29 30 31 32 36 37 40 43 44 48 49 
48(3)->1 3 4 5 7 10 12 13 14 15 18 19 20 22 23 25 28 29 30 31 32 33 36 37 39 40 42 45 49 50 
49(14)->1 4 5 14 15 18 19 20 22 23 28 29 31 32 37 40 45 48 
50(2)->1 3 5 14 22 25 48 
COUNT: 349
COLORS: 15
EDGES: 0
15
349
