-1=-1,-1,-1
20=-1,-1,-1
4=-1,-1,-1
-1=-1,-1,-1
-1=-1,-1,-1
-1=-1,-1,-1
-1=-1,-1,-1
-1=-1,-1,-1
-1=-1,-1,-1
-1=-1,-1,-1
-1=-1,-1,-1
11=-1,-1,-1
-1=-1,-1,-1
-1=-1,-1,-1
-1=-1,-1,-1
-1=-1,-1,-1
-1=-1,-1,-1
-1=-1,-1,-1
-1=-1,-1,-1
-1=-1,-1,-1
-1=-1,-1,-1
-1=-1,-1,-1
31=-1,-1,-1
-1=-1,-1,-1
-1=-1,-1,-1
-1=-1,-1,-1
-1=-1,-1,-1
47=-1,-1,-1
-1=-1,-1,-1
-1=-1,-1,-1
-1=-1,-1,-1
-1=-1,-1,-1
-1=-1,-1,-1
-1=-1,-1,-1
-1=-1,-1,-1
-1=-1,-1,-1
-1=-1,-1,-1
-1=-1,-1,-1
-1=-1,-1,-1
16=-1,-1,-1
-1=-1,-1,-1
3=-1,-1,-1
-1=-1,-1,-1
-1=-1,-1,-1
-1=-1,-1,-1
-1=-1,-1,-1
-1=16,-1,-1
-1=3,-1,-1
-1=-1,-1,-1
-1=-1,-1,-1
-1=4,-1,-1
-1=-1,-1,-1
-1=-1,-1,-1
-1=-1,-1,-1
-1=-1,-1,-1
-1=-1,-1,-1
-1=-1,-1,-1
-1=-1,-1,-1
4=-1,-1,-1
-1=-1,-1,-1
-1=-1,-1,-1
-1=-1,-1,-1
-1=-1,-1,-1
-1=-1,-1,-1
-1=-1,-1,-1
-1=-1,-1,-1
35=20,-1,-1
-1=-1,-1,-1
-1=-1,-1,-1
-1=-1,-1,-1
-1=-1,-1,-1
15=-1,-1,-1
-1=11,-1,-1
-1=-1,-1,-1
-1=-1,-1,-1
-1=-1,-1,-1
-1=-1,-1,-1
-1=-1,-1,-1
-1=-1,-1,-1
-1=-1,-1,-1
-1=-1,-1,-1
20=-1,-1,-1
-1=31,-1,-1
-1=-1,-1,-1
3=-1,-1,-1
-1=-1,-1,-1
-1=3,-1,-1
-1=-1,-1,-1
-1=-1,-1,-1
50=-1,-1,-1
-1=-1,-1,-1
-1=-1,-1,-1
3=-1,-1,-1
-1=3,-1,-1
-1=-1,-1,-1
3=-1,-1,-1
-1=-1,-1,-1
-1=-1,-1,-1
-1=-1,-1,-1
27=-1,-1,-1
-1=-1,-1,-1
-1=3,-1,-1
-1=15,-1,-1
-1=20,-1,-1
-1=-1,-1,-1
-1=-1,-1,-1
22=-1,-1,-1
-1=35,-1,-1
-1=4,-1,-1
-1=-1,-1,-1
-1=-1,-1,-1
13=-1,-1,-1
-1=-1,-1,-1
-1=-1,-1,-1
-1=50,-1,-1
-1=-1,-1,-1
3=-1,-1,-1
-1=-1,-1,-1
-1=-1,-1,-1
-1=-1,-1,-1
-1=-1,-1,-1
-1=-1,-1,-1
-1=-1,-1,-1
-1=-1,-1,-1
-1=-1,-1,-1
-1=-1,-1,-1
11=-1,-1,-1
-1=-1,-1,-1
-1=-1,-1,-1
-1=-1,-1,-1
-1=-1,-1,-1
-1=-1,-1,-1
-1=-1,-1,-1
-1=47,-1,-1
-1=-1,-1,-1
-1=-1,-1,-1
-1=-1,-1,-1
-1=-1,-1,-1
-1=-1,-1,-1
-1=3,-1,-1
-1=-1,-1,-1
49=-1,-1,-1
-1=22,49,-1
-1=13,-1,-1
45=11,-1,-1
49=-1,-1,-1
-1=-1,-1,-1
9=-1,-1,-1
-1=-1,-1,-1
-1=27,-1,-1
-1=-1,-1,-1
-1=-1,-1,-1
-1=-1,-1,-1
47=-1,-1,-1
44=-1,-1,-1
41=-1,-1,-1
-1=9,-1,-1
-1=-1,-1,-1
-1=-1,-1,-1
-1=-1,-1,-1
-1=-1,-1,-1
-1=-1,-1,-1
-1=41,49,-1
-1=-1,-1,-1
-1=-1,-1,-1
-1=44,-1,-1
-1=-1,-1,-1
2=-1,-1,-1
-1=-1,-1,-1
-1=-1,-1,-1
-1=2,-1,-1
-1=-1,-1,-1
19=47,-1,-1
-1=-1,-1,-1
-1=-1,-1,-1
42=-1,-1,-1
-1=19,-1,-1
28=-1,-1,-1
-1=-1,-1,-1
-1=-1,-1,-1
-1=-1,-1,-1
-1=-1,-1,-1
-1=-1,-1,-1
-1=-1,-1,-1
6=28,45,-1
-1=6,-1,-1
-1=42,-1,-1
-1=-1,-1,-1
-1=-1,-1,-1
-1=-1,-1,-1
-1=-1,-1,-1
45=-1,-1,-1
-1=-1,-1,-1
-1=45,-1,-1
-1=-1,-1,-1
-1=-1,-1,-1
-1=-1,-1,-1
-1=-1,-1,-1
-1=-1,-1,-1
-1=-1,-1,-1
20 starts at 1 and ends at 103
4 starts at 2 and ends at 108
11 starts at 11 and ends at 144
31 starts at 22 and ends at 82
47 starts at 27 and ends at 172
16 starts at 39 and ends at 46
3 starts at 41 and ends at 139
35 starts at 66 and ends at 107
15 starts at 71 and ends at 102
50 starts at 89 and ends at 114
27 starts at 99 and ends at 149
22 starts at 106 and ends at 142
13 starts at 111 and ends at 143
49 starts at 141 and ends at 162
45 starts at 144 and ends at 193
9 starts at 147 and ends at 156
44 starts at 154 and ends at 165
41 starts at 155 and ends at 162
2 starts at 167 and ends at 170
19 starts at 172 and ends at 176
42 starts at 175 and ends at 186
28 starts at 177 and ends at 184
6 starts at 184 and ends at 185
2(1)->
3(6)->
4(1)->
6(1)->
9(1)->
11(2)->
13(1)->
15(7)->
16(5)->
19(1)->
20(0)->
22(0)->
27(8)->
28(1)->
31(3)->
35(5)->
41(5)->
42(2)->
44(2)->
45(0)->
47(4)->
49(3)->
50(3)->
COLORS: 9
9
9
