-1=-1,-1,-1
-1=-1,-1,-1
-1=-1,-1,-1
1=-1,-1,-1
-1=-1,-1,-1
-1=-1,-1,-1
-1=-1,-1,-1
-1=-1,-1,-1
-1=-1,-1,-1
-1=-1,-1,-1
-1=-1,-1,-1
23=-1,-1,-1
46=-1,-1,-1
41=-1,-1,-1
35=-1,-1,-1
-1=-1,-1,-1
-1=-1,-1,-1
-1=-1,-1,-1
4=-1,-1,-1
-1=23,-1,-1
-1=35,-1,-1
50=-1,-1,-1
-1=-1,-1,-1
22=4,-1,-1
16=-1,-1,-1
-1=-1,-1,-1
35=-1,-1,-1
9=22,-1,-1
-1=-1,-1,-1
-1=-1,-1,-1
-1=-1,-1,-1
-1=-1,-1,-1
-1=-1,-1,-1
-1=-1,-1,-1
37=-1,-1,-1
-1=-1,-1,-1
-1=-1,-1,-1
-1=-1,-1,-1
-1=35,-1,-1
-1=-1,-1,-1
-1=-1,-1,-1
-1=-1,-1,-1
12=-1,-1,-1
-1=16,-1,-1
-1=-1,-1,-1
-1=-1,-1,-1
-1=-1,-1,-1
42=-1,-1,-1
-1=-1,-1,-1
-1=-1,-1,-1
22=-1,-1,-1
-1=-1,-1,-1
-1=-1,-1,-1
28=-1,-1,-1
35=-1,-1,-1
14=-1,-1,-1
-1=-1,-1,-1
-1=-1,-1,-1
23=-1,-1,-1
15=-1,-1,-1
-1=-1,-1,-1
-1=-1,-1,-1
-1=14,-1,-1
-1=15,-1,-1
47=-1,-1,-1
-1=-1,-1,-1
38=1,-1,-1
-1=-1,-1,-1
14=-1,-1,-1
-1=37,-1,-1
-1=-1,-1,-1
1=-1,-1,-1
31=-1,-1,-1
-1=-1,-1,-1
-1=-1,-1,-1
-1=-1,-1,-1
17=-1,-1,-1
-1=-1,-1,-1
-1=-1,-1,-1
-1=-1,-1,-1
27=-1,-1,-1
-1=-1,-1,-1
-1=50,-1,-1
-1=22,-1,-1
-1=-1,-1,-1
-1=-1,-1,-1
15=-1,-1,-1
-1=-1,-1,-1
-1=14,23,-1
-1=15,-1,-1
-1=-1,-1,-1
-1=-1,-1,-1
-1=28,-1,-1
15=-1,-1,-1
-1=-1,-1,-1
-1=-1,-1,-1
-1=-1,-1,-1
45=-1,-1,-1
-1=-1,-1,-1
22=-1,-1,-1
-1=35,-1,-1
-1=38,-1,-1
-1=-1,-1,-1
-1=9,-1,-1
-1=-1,-1,-1
-1=1,-1,-1
-1=-1,-1,-1
-1=-1,-1,-1
-1=-1,-1,-1
-1=-1,-1,-1
-1=-1,-1,-1
-1=27,-1,-1
-1=-1,-1,-1
-1=22,-1,-1
-1=31,-1,-1
36=-1,-1,-1
-1=-1,-1,-1
-1=-1,-1,-1
-1=42,-1,-1
-1=-1,-1,-1
-1=-1,-1,-1
-1=-1,-1,-1
-1=-1,-1,-1
18=45,-1,-1
-1=-1,-1,-1
-1=-1,-1,-1
-1=-1,-1,-1
-1=-1,-1,-1
-1=41,46,-1
27=47,-1,-1
-1=-1,-1,-1
-1=-1,-1,-1
21=36,-1,-1
-1=-1,-1,-1
-1=-1,-1,-1
5=17,18,-1
-1=-1,-1,-1
-1=-1,-1,-1
-1=15,21,-1
-1=-1,-1,-1
-1=-1,-1,-1
-1=-1,-1,-1
25=-1,-1,-1
-1=-1,-1,-1
34=27,-1,-1
-1=25,-1,-1
17=-1,-1,-1
-1=17,-1,-1
19=12,-1,-1
-1=19,-1,-1
22=-1,-1,-1
46=-1,-1,-1
-1=-1,-1,-1
-1=-1,-1,-1
24=-1,-1,-1
-1=22,-1,-1
-1=-1,-1,-1
23=-1,-1,-1
-1=34,-1,-1
-1=-1,-1,-1
27=-1,-1,-1
-1=-1,-1,-1
-1=5,-1,-1
-1=-1,-1,-1
-1=-1,-1,-1
-1=-1,-1,-1
-1=-1,-1,-1
-1=-1,-1,-1
-1=24,46,-1
-1=27,-1,-1
-1=-1,-1,-1
-1=-1,-1,-1
-1=-1,-1,-1
-1=-1,-1,-1
12=-1,-1,-1
-1=-1,-1,-1
-1=23,-1,-1
41=-1,-1,-1
-1=-1,-1,-1
-1=12,-1,-1
-1=-1,-1,-1
-1=41,-1,-1
-1=-1,-1,-1
-1=-1,-1,-1
-1=-1,-1,-1
33=-1,-1,-1
-1=-1,-1,-1
-1=-1,-1,-1
-1=-1,-1,-1
-1=-1,-1,-1
-1=-1,-1,-1
-1=33,-1,-1
-1=-1,-1,-1
-1=-1,-1,-1
-1=-1,-1,-1
-1=-1,-1,-1
-1=-1,-1,-1
11=-1,-1,-1
-1=11,-1,-1
-1=-1,-1,-1
1 starts at 3 and ends at 105
23 starts at 11 and ends at 176
46 starts at 12 and ends at 168
41 starts at 13 and ends at 181
35 starts at 14 and ends at 100
4 starts at 18 and ends at 23
50 starts at 21 and ends at 82
22 starts at 23 and ends at 155
16 starts at 24 and ends at 43
9 starts at 27 and ends at 103
37 starts at 34 and ends at 69
12 starts at 42 and ends at 179
42 starts at 47 and ends at 118
28 starts at 53 and ends at 92
14 starts at 55 and ends at 88
15 starts at 59 and ends at 138
47 starts at 64 and ends at 129
38 starts at 66 and ends at 101
31 starts at 72 and ends at 114
17 starts at 76 and ends at 147
27 starts at 80 and ends at 169
45 starts at 97 and ends at 123
36 starts at 115 and ends at 132
18 starts at 123 and ends at 135
21 starts at 132 and ends at 138
5 starts at 135 and ends at 162
25 starts at 142 and ends at 145
34 starts at 144 and ends at 158
19 starts at 148 and ends at 149
24 starts at 154 and ends at 168
33 starts at 185 and ends at 191
11 starts at 197 and ends at 198
1(0)->
4(5)->
5(4)->
9(8)->
11(0)->
12(10)->
14(12)->
15(13)->
16(7)->
17(16)->
18(4)->
19(0)->
21(0)->
22(5)->
23(1)->
24(0)->
25(0)->
27(17)->
28(11)->
31(9)->
33(0)->
34(6)->
35(4)->
36(0)->
37(9)->
38(15)->
41(3)->
42(7)->
45(6)->
46(2)->
47(14)->
50(6)->
COLORS: 18
18
18
