6=-1,-1,-1
-1=-1,-1,-1
4=-1,-1,-1
-1=-1,-1,-1
-1=6,-1,-1
-1=-1,-1,-1
-1=-1,-1,-1
27=-1,-1,-1
-1=-1,-1,-1
6=-1,-1,-1
47=-1,-1,-1
-1=-1,-1,-1
-1=-1,-1,-1
-1=-1,-1,-1
16=47,-1,-1
-1=-1,-1,-1
-1=-1,-1,-1
-1=-1,-1,-1
-1=-1,-1,-1
31=-1,-1,-1
-1=16,-1,-1
-1=-1,-1,-1
24=-1,-1,-1
47=4,-1,-1
-1=-1,-1,-1
-1=-1,-1,-1
-1=-1,-1,-1
-1=-1,-1,-1
-1=-1,-1,-1
-1=-1,-1,-1
-1=-1,-1,-1
-1=-1,-1,-1
-1=-1,-1,-1
-1=-1,-1,-1
-1=-1,-1,-1
16=-1,-1,-1
-1=-1,-1,-1
3=-1,-1,-1
-1=-1,-1,-1
-1=-1,-1,-1
-1=-1,-1,-1
-1=-1,-1,-1
-1=-1,-1,-1
-1=-1,-1,-1
21=-1,-1,-1
32=-1,-1,-1
-1=-1,-1,-1
-1=-1,-1,-1
-1=3,-1,-1
-1=-1,-1,-1
-1=-1,-1,-1
-1=-1,-1,-1
4=-1,-1,-1
39=-1,-1,-1
-1=-1,-1,-1
17=-1,-1,-1
23=-1,-1,-1
35=23,-1,-1
-1=-1,-1,-1
-1=21,-1,-1
-1=-1,-1,-1
-1=-1,-1,-1
15=-1,-1,-1
-1=4,-1,-1
-1=-1,-1,-1
-1=6,-1,-1
-1=-1,-1,-1
-1=-1,-1,-1
-1=27,-1,-1
-1=-1,-1,-1
23=-1,-1,-1
20=-1,-1,-1
-1=31,-1,-1
-1=-1,-1,-1
3=-1,-1,-1
40=-1,-1,-1
-1=3,47,-1
-1=-1,-1,-1
50=-1,-1,-1
-1=-1,-1,-1
3=-1,-1,-1
9=3,50,-1
-1=-1,-1,-1
3=-1,-1,-1
-1=32,-1,-1
50=9,-1,-1
27=-1,-1,-1
-1=-1,-1,-1
-1=-1,-1,-1
-1=-1,-1,-1
-1=-1,-1,-1
21=-1,-1,-1
22=-1,-1,-1
45=3,-1,-1
-1=22,-1,-1
-1=-1,-1,-1
13=24,-1,-1
11=-1,-1,-1
44=-1,-1,-1
3=-1,-1,-1
-1=-1,-1,-1
-1=-1,-1,-1
-1=15,-1,-1
-1=50,-1,-1
-1=11,-1,-1
-1=-1,-1,-1
-1=-1,-1,-1
-1=-1,-1,-1
-1=21,-1,-1
11=39,-1,-1
-1=-1,-1,-1
-1=-1,-1,-1
-1=-1,-1,-1
-1=20,-1,-1
-1=-1,-1,-1
-1=-1,-1,-1
-1=-1,-1,-1
-1=11,-1,-1
-1=45,-1,-1
-1=16,-1,-1
-1=-1,-1,-1
-1=-1,-1,-1
-1=44,-1,-1
-1=17,-1,-1
49=35,-1,-1
-1=49,-1,-1
-1=-1,-1,-1
45=-1,-1,-1
49=-1,-1,-1
-1=-1,-1,-1
9=3,-1,-1
-1=23,-1,-1
-1=-1,-1,-1
-1=-1,-1,-1
-1=-1,-1,-1
1=9,-1,-1
-1=40,-1,-1
44=-1,-1,-1
41=-1,-1,-1
-1=-1,-1,-1
-1=27,45,-1
-1=-1,-1,-1
-1=41,-1,-1
34=-1,-1,-1
-1=-1,-1,-1
-1=-1,-1,-1
-1=-1,-1,-1
-1=-1,-1,-1
-1=-1,-1,-1
2=-1,-1,-1
-1=1,-1,-1
-1=-1,-1,-1
-1=-1,-1,-1
-1=-1,-1,-1
19=-1,-1,-1
-1=-1,-1,-1
-1=-1,-1,-1
42=-1,-1,-1
-1=19,-1,-1
28=-1,-1,-1
-1=34,49,-1
-1=-1,-1,-1
-1=-1,-1,-1
25=28,-1,-1
-1=44,-1,-1
6=-1,-1,-1
-1=-1,-1,-1
-1=-1,-1,-1
-1=-1,-1,-1
-1=-1,-1,-1
-1=-1,-1,-1
-1=42,-1,-1
45=2,-1,-1
16=-1,-1,-1
-1=16,-1,-1
-1=-1,-1,-1
-1=-1,-1,-1
44=6,13,-1
8=25,-1,-1
-1=-1,-1,-1
-1=8,-1,-1
-1=-1,-1,-1
-1=-1,-1,-1
-1=-1,-1,-1
16=44,-1,-1
-1=45,-1,-1
-1=-1,-1,-1
-1=16,-1,-1
-1=-1,-1,-1
13=-1,-1,-1
-1=-1,-1,-1
-1=13,-1,-1
-1=-1,-1,-1
-1=-1,-1,-1
-1=-1,-1,-1
-1=-1,-1,-1
-1=-1,-1,-1
-1=-1,-1,-1
-1=-1,-1,-1
-1=-1,-1,-1
6 starts at 0 and ends at 177
4 starts at 2 and ends at 63
27 starts at 7 and ends at 140
47 starts at 10 and ends at 76
16 starts at 14 and ends at 187
31 starts at 19 and ends at 72
24 starts at 22 and ends at 96
3 starts at 37 and ends at 130
21 starts at 44 and ends at 108
32 starts at 45 and ends at 84
39 starts at 53 and ends at 109
17 starts at 55 and ends at 123
23 starts at 56 and ends at 131
35 starts at 57 and ends at 124
15 starts at 62 and ends at 102
20 starts at 71 and ends at 113
40 starts at 75 and ends at 136
50 starts at 78 and ends at 103
9 starts at 81 and ends at 135
22 starts at 92 and ends at 94
45 starts at 93 and ends at 185
13 starts at 96 and ends at 191
11 starts at 97 and ends at 117
44 starts at 98 and ends at 184
49 starts at 124 and ends at 160
1 starts at 135 and ends at 150
41 starts at 138 and ends at 142
34 starts at 143 and ends at 160
2 starts at 149 and ends at 172
19 starts at 154 and ends at 158
42 starts at 157 and ends at 171
28 starts at 159 and ends at 163
25 starts at 163 and ends at 178
8 starts at 178 and ends at 180
1(3)->
2(5)->
3(7)->
4(1)->
6(0)->
8(0)->
9(15)->
11(9)->
13(6)->
15(14)->
16(4)->
17(11)->
19(3)->
20(1)->
21(8)->
22(9)->
23(12)->
24(6)->
25(1)->
27(2)->
28(3)->
31(5)->
32(9)->
34(2)->
35(13)->
39(10)->
40(5)->
41(5)->
42(7)->
44(17)->
45(16)->
47(3)->
49(1)->
50(3)->
COLORS: 18
18
18
