-1=-1,-1,-1
-1=-1,-1,-1
-1=-1,-1,-1
-1=-1,-1,-1
-1=-1,-1,-1
-1=-1,-1,-1
-1=-1,-1,-1
-1=-1,-1,-1
-1=-1,-1,-1
-1=-1,-1,-1
16=-1,-1,-1
41=-1,-1,-1
-1=-1,-1,-1
50=-1,-1,-1
-1=-1,-1,-1
-1=-1,-1,-1
-1=-1,-1,-1
1=-1,-1,-1
-1=-1,-1,-1
10=-1,-1,-1
-1=-1,-1,-1
24=-1,-1,-1
-1=-1,-1,-1
-1=-1,-1,-1
-1=-1,-1,-1
-1=41,-1,-1
-1=-1,-1,-1
-1=-1,-1,-1
-1=-1,-1,-1
-1=-1,-1,-1
-1=-1,-1,-1
-1=-1,-1,-1
-1=-1,-1,-1
-1=-1,-1,-1
-1=-1,-1,-1
-1=-1,-1,-1
-1=-1,-1,-1
39=-1,-1,-1
-1=-1,-1,-1
-1=50,-1,-1
-1=-1,-1,-1
-1=-1,-1,-1
-1=-1,-1,-1
11=1,-1,-1
-1=-1,-1,-1
-1=-1,-1,-1
-1=-1,-1,-1
-1=-1,-1,-1
32=-1,-1,-1
-1=-1,-1,-1
-1=32,-1,-1
17=-1,-1,-1
-1=-1,-1,-1
-1=-1,-1,-1
13=17,-1,-1
3=-1,-1,-1
-1=-1,-1,-1
-1=39,-1,-1
-1=-1,-1,-1
-1=-1,-1,-1
-1=-1,-1,-1
-1=-1,-1,-1
33=-1,-1,-1
22=-1,-1,-1
-1=33,-1,-1
-1=-1,-1,-1
-1=22,-1,-1
-1=-1,-1,-1
-1=-1,-1,-1
-1=-1,-1,-1
-1=-1,-1,-1
-1=-1,-1,-1
-1=-1,-1,-1
-1=-1,-1,-1
50=-1,-1,-1
-1=3,-1,-1
-1=10,-1,-1
-1=-1,-1,-1
-1=-1,-1,-1
-1=-1,-1,-1
5=-1,-1,-1
-1=-1,-1,-1
-1=11,-1,-1
-1=-1,-1,-1
-1=16,-1,-1
-1=24,-1,-1
-1=-1,-1,-1
-1=-1,-1,-1
-1=-1,-1,-1
-1=-1,-1,-1
-1=-1,-1,-1
46=-1,-1,-1
-1=-1,-1,-1
-1=5,46,-1
-1=-1,-1,-1
-1=-1,-1,-1
-1=-1,-1,-1
-1=-1,-1,-1
-1=-1,-1,-1
-1=-1,-1,-1
-1=-1,-1,-1
-1=-1,-1,-1
2=-1,-1,-1
-1=-1,-1,-1
-1=-1,-1,-1
-1=-1,-1,-1
-1=-1,-1,-1
-1=2,-1,-1
-1=-1,-1,-1
-1=-1,-1,-1
-1=-1,-1,-1
-1=-1,-1,-1
12=-1,-1,-1
-1=-1,-1,-1
-1=50,-1,-1
-1=13,-1,-1
-1=-1,-1,-1
-1=-1,-1,-1
-1=-1,-1,-1
14=-1,-1,-1
-1=-1,-1,-1
9=-1,-1,-1
-1=-1,-1,-1
-1=-1,-1,-1
19=-1,-1,-1
-1=-1,-1,-1
-1=12,-1,-1
-1=-1,-1,-1
-1=-1,-1,-1
-1=-1,-1,-1
2=-1,-1,-1
46=-1,-1,-1
-1=-1,-1,-1
-1=-1,-1,-1
32=-1,-1,-1
-1=-1,-1,-1
-1=-1,-1,-1
-1=32,-1,-1
-1=9,-1,-1
28=-1,-1,-1
-1=-1,-1,-1
-1=-1,-1,-1
-1=-1,-1,-1
-1=-1,-1,-1
-1=-1,-1,-1
-1=-1,-1,-1
-1=2,-1,-1
-1=-1,-1,-1
-1=-1,-1,-1
-1=28,-1,-1
-1=-1,-1,-1
-1=-1,-1,-1
-1=-1,-1,-1
-1=46,-1,-1
-1=-1,-1,-1
-1=-1,-1,-1
-1=-1,-1,-1
-1=19,-1,-1
32=-1,-1,-1
-1=14,-1,-1
-1=-1,-1,-1
-1=-1,-1,-1
-1=-1,-1,-1
-1=-1,-1,-1
-1=-1,-1,-1
-1=-1,-1,-1
-1=-1,-1,-1
38=-1,-1,-1
31=32,-1,-1
-1=-1,-1,-1
-1=-1,-1,-1
-1=-1,-1,-1
-1=-1,-1,-1
-1=-1,-1,-1
-1=-1,-1,-1
-1=-1,-1,-1
16=-1,-1,-1
-1=16,-1,-1
-1=-1,-1,-1
-1=-1,-1,-1
-1=31,-1,-1
-1=38,-1,-1
-1=-1,-1,-1
-1=-1,-1,-1
-1=-1,-1,-1
-1=-1,-1,-1
-1=-1,-1,-1
-1=-1,-1,-1
-1=-1,-1,-1
-1=-1,-1,-1
-1=-1,-1,-1
-1=-1,-1,-1
-1=-1,-1,-1
-1=-1,-1,-1
25=-1,-1,-1
-1=-1,-1,-1
-1=25,-1,-1
-1=-1,-1,-1
-1=-1,-1,-1
-1=-1,-1,-1
16 starts at 10 and ends at 177
41 starts at 11 and ends at 25
50 starts at 13 and ends at 114
1 starts at 17 and ends at 43
10 starts at 19 and ends at 76
24 starts at 21 and ends at 85
39 starts at 37 and ends at 57
11 starts at 43 and ends at 82
32 starts at 48 and ends at 168
17 starts at 51 and ends at 54
13 starts at 54 and ends at 115
3 starts at 55 and ends at 75
33 starts at 62 and ends at 64
22 starts at 63 and ends at 66
5 starts at 80 and ends at 93
46 starts at 91 and ends at 153
2 starts at 102 and ends at 146
12 starts at 112 and ends at 126
14 starts at 119 and ends at 159
9 starts at 121 and ends at 138
19 starts at 124 and ends at 157
28 starts at 139 and ends at 149
38 starts at 167 and ends at 181
31 starts at 168 and ends at 180
25 starts at 194 and ends at 196
1(3)->
2(1)->
3(8)->
5(1)->
9(5)->
10(4)->
11(3)->
12(4)->
13(7)->
14(2)->
16(0)->
17(7)->
19(7)->
22(9)->
24(5)->
25(0)->
28(4)->
31(2)->
32(6)->
33(1)->
38(1)->
39(1)->
41(1)->
46(3)->
50(2)->
COLORS: 10
10
10
