36=-1,-1,-1
-1=-1,-1,-1
-1=-1,-1,-1
-1=-1,-1,-1
-1=-1,-1,-1
-1=-1,-1,-1
-1=-1,-1,-1
-1=-1,-1,-1
-1=-1,-1,-1
-1=-1,-1,-1
-1=-1,-1,-1
12=-1,-1,-1
-1=-1,-1,-1
-1=-1,-1,-1
-1=-1,-1,-1
-1=-1,-1,-1
-1=-1,-1,-1
28=-1,-1,-1
-1=-1,-1,-1
33=-1,-1,-1
17=-1,-1,-1
11=-1,-1,-1
-1=-1,-1,-1
-1=17,-1,-1
-1=-1,-1,-1
-1=-1,-1,-1
-1=-1,-1,-1
-1=-1,-1,-1
-1=-1,-1,-1
30=-1,-1,-1
-1=-1,-1,-1
5=-1,-1,-1
-1=-1,-1,-1
-1=-1,-1,-1
23=-1,-1,-1
40=-1,-1,-1
-1=-1,-1,-1
41=-1,-1,-1
15=-1,-1,-1
38=-1,-1,-1
27=-1,-1,-1
25=-1,-1,-1
-1=12,-1,-1
-1=-1,-1,-1
-1=-1,-1,-1
-1=36,-1,-1
-1=-1,-1,-1
-1=-1,-1,-1
24=-1,-1,-1
44=28,-1,-1
-1=-1,-1,-1
8=33,-1,-1
-1=15,-1,-1
-1=-1,-1,-1
36=-1,-1,-1
-1=-1,-1,-1
-1=8,-1,-1
-1=-1,-1,-1
-1=-1,-1,-1
-1=30,-1,-1
-1=-1,-1,-1
-1=-1,-1,-1
32=11,-1,-1
-1=-1,-1,-1
-1=-1,-1,-1
-1=-1,-1,-1
16=-1,-1,-1
-1=36,-1,-1
-1=-1,-1,-1
-1=41,-1,-1
-1=-1,-1,-1
-1=-1,-1,-1
-1=-1,-1,-1
8=-1,-1,-1
12=-1,-1,-1
-1=-1,-1,-1
-1=-1,-1,-1
31=-1,-1,-1
-1=-1,-1,-1
-1=24,25,-1
-1=-1,-1,-1
-1=-1,-1,-1
-1=-1,-1,-1
-1=-1,-1,-1
-1=-1,-1,-1
-1=-1,-1,-1
-1=-1,-1,-1
-1=-1,-1,-1
-1=27,-1,-1
-1=-1,-1,-1
-1=-1,-1,-1
-1=-1,-1,-1
-1=-1,-1,-1
-1=44,-1,-1
-1=-1,-1,-1
-1=-1,-1,-1
47=12,-1,-1
-1=-1,-1,-1
-1=-1,-1,-1
-1=-1,-1,-1
11=32,-1,-1
-1=-1,-1,-1
13=-1,-1,-1
-1=-1,-1,-1
-1=-1,-1,-1
-1=-1,-1,-1
-1=-1,-1,-1
-1=-1,-1,-1
-1=11,-1,-1
-1=-1,-1,-1
12=-1,-1,-1
37=-1,-1,-1
34=-1,-1,-1
33=-1,-1,-1
-1=-1,-1,-1
-1=40,-1,-1
-1=-1,-1,-1
-1=-1,-1,-1
-1=-1,-1,-1
21=16,-1,-1
-1=37,-1,-1
-1=-1,-1,-1
-1=-1,-1,-1
-1=5,-1,-1
35=23,-1,-1
-1=21,35,-1
-1=-1,-1,-1
44=-1,-1,-1
-1=13,-1,-1
-1=-1,-1,-1
-1=8,31,-1
-1=-1,-1,-1
-1=44,-1,-1
40=-1,-1,-1
-1=-1,-1,-1
19=-1,-1,-1
-1=47,-1,-1
23=-1,-1,-1
-1=-1,-1,-1
-1=-1,-1,-1
-1=12,-1,-1
-1=40,-1,-1
-1=-1,-1,-1
35=-1,-1,-1
-1=-1,-1,-1
50=-1,-1,-1
50=50,-1,-1
-1=23,-1,-1
-1=-1,-1,-1
-1=33,-1,-1
-1=-1,-1,-1
-1=-1,-1,-1
-1=35,-1,-1
-1=38,-1,-1
7=-1,-1,-1
-1=-1,-1,-1
-1=-1,-1,-1
-1=-1,-1,-1
-1=50,-1,-1
-1=-1,-1,-1
-1=-1,-1,-1
-1=19,-1,-1
-1=-1,-1,-1
22=-1,-1,-1
-1=-1,-1,-1
-1=-1,-1,-1
-1=-1,-1,-1
-1=-1,-1,-1
-1=-1,-1,-1
-1=-1,-1,-1
2=-1,-1,-1
-1=-1,-1,-1
-1=-1,-1,-1
-1=2,7,-1
-1=22,-1,-1
12=-1,-1,-1
13=-1,-1,-1
-1=34,-1,-1
5=-1,-1,-1
-1=-1,-1,-1
-1=5,-1,-1
34=-1,-1,-1
-1=-1,-1,-1
-1=12,-1,-1
-1=-1,-1,-1
-1=34,-1,-1
38=-1,-1,-1
-1=13,38,-1
-1=-1,-1,-1
19=-1,-1,-1
-1=19,-1,-1
-1=-1,-1,-1
-1=-1,-1,-1
-1=-1,-1,-1
-1=-1,-1,-1
-1=-1,-1,-1
-1=-1,-1,-1
-1=-1,-1,-1
-1=-1,-1,-1
-1=-1,-1,-1
36 starts at 0 and ends at 67
12 starts at 11 and ends at 183
28 starts at 17 and ends at 49
33 starts at 19 and ends at 149
17 starts at 20 and ends at 23
11 starts at 21 and ends at 108
30 starts at 29 and ends at 59
5 starts at 31 and ends at 180
23 starts at 34 and ends at 147
40 starts at 35 and ends at 141
41 starts at 37 and ends at 69
15 starts at 38 and ends at 52
38 starts at 39 and ends at 187
27 starts at 40 and ends at 88
25 starts at 41 and ends at 79
24 starts at 48 and ends at 79
44 starts at 49 and ends at 132
8 starts at 51 and ends at 130
32 starts at 62 and ends at 100
16 starts at 66 and ends at 119
31 starts at 77 and ends at 130
47 starts at 96 and ends at 136
13 starts at 102 and ends at 187
37 starts at 111 and ends at 120
34 starts at 112 and ends at 185
21 starts at 119 and ends at 125
35 starts at 124 and ends at 152
19 starts at 135 and ends at 190
50 starts at 145 and ends at 158
7 starts at 154 and ends at 173
22 starts at 163 and ends at 174
2 starts at 170 and ends at 173
2(5)->
5(6)->
7(3)->
8(15)->
11(5)->
12(1)->
13(4)->
15(10)->
16(10)->
17(4)->
19(0)->
21(10)->
22(2)->
23(7)->
24(14)->
25(13)->
27(12)->
28(2)->
30(4)->
31(0)->
32(4)->
33(3)->
34(12)->
35(5)->
36(0)->
37(5)->
38(11)->
40(8)->
41(9)->
44(2)->
47(9)->
50(2)->
COLORS: 16
16
16
