-1=-1,-1,-1
-1=-1,-1,-1
13=-1,-1,-1
-1=-1,-1,-1
40=-1,-1,-1
24=-1,-1,-1
-1=-1,-1,-1
-1=-1,-1,-1
-1=-1,-1,-1
38=-1,-1,-1
-1=-1,-1,-1
46=-1,-1,-1
-1=-1,-1,-1
-1=-1,-1,-1
-1=-1,-1,-1
37=-1,-1,-1
-1=-1,-1,-1
-1=-1,-1,-1
6=38,-1,-1
31=-1,-1,-1
-1=-1,-1,-1
-1=-1,-1,-1
44=-1,-1,-1
41=-1,-1,-1
-1=41,-1,-1
36=-1,-1,-1
42=-1,-1,-1
-1=-1,-1,-1
25=-1,-1,-1
-1=-1,-1,-1
17=-1,-1,-1
-1=-1,-1,-1
29=-1,-1,-1
49=-1,-1,-1
-1=-1,-1,-1
5=-1,-1,-1
26=-1,-1,-1
-1=31,-1,-1
28=-1,-1,-1
-1=-1,-1,-1
-1=29,-1,-1
-1=24,-1,-1
-1=-1,-1,-1
-1=-1,-1,-1
-1=40,-1,-1
-1=-1,-1,-1
30=-1,-1,-1
29=5,-1,-1
10=-1,-1,-1
31=26,-1,-1
-1=-1,-1,-1
5=36,-1,-1
-1=-1,-1,-1
-1=31,-1,-1
-1=37,-1,-1
-1=-1,-1,-1
-1=-1,-1,-1
-1=-1,-1,-1
-1=-1,-1,-1
36=-1,-1,-1
41=-1,-1,-1
-1=-1,-1,-1
-1=-1,-1,-1
-1=-1,-1,-1
-1=-1,-1,-1
-1=-1,-1,-1
34=-1,-1,-1
-1=-1,-1,-1
-1=10,-1,-1
-1=-1,-1,-1
31=-1,-1,-1
32=28,41,-1
-1=29,-1,-1
37=32,-1,-1
12=-1,-1,-1
-1=25,44,-1
41=-1,-1,-1
8=-1,-1,-1
-1=-1,-1,-1
29=-1,-1,-1
-1=41,-1,-1
-1=-1,-1,-1
-1=-1,-1,-1
32=-1,-1,-1
-1=-1,-1,-1
-1=-1,-1,-1
19=-1,-1,-1
-1=-1,-1,-1
2=-1,-1,-1
-1=13,-1,-1
7=-1,-1,-1
41=-1,-1,-1
-1=-1,-1,-1
22=6,-1,-1
13=34,-1,-1
33=7,-1,-1
10=12,29,-1
-1=13,-1,-1
6=-1,-1,-1
-1=41,-1,-1
18=36,-1,-1
-1=-1,-1,-1
-1=-1,-1,-1
-1=17,-1,-1
34=-1,-1,-1
-1=2,34,-1
34=-1,-1,-1
-1=34,42,-1
13=18,-1,-1
-1=-1,-1,-1
9=10,31,-1
21=30,-1,-1
-1=19,-1,-1
-1=21,-1,-1
18=13,-1,-1
-1=-1,-1,-1
29=-1,-1,-1
38=5,32,-1
3=-1,-1,-1
13=8,-1,-1
-1=-1,-1,-1
15=-1,-1,-1
48=-1,-1,-1
-1=-1,-1,-1
-1=49,-1,-1
-1=-1,-1,-1
21=-1,-1,-1
-1=-1,-1,-1
10=21,-1,-1
12=-1,-1,-1
-1=-1,-1,-1
44=37,-1,-1
-1=6,-1,-1
21=-1,-1,-1
-1=29,-1,-1
34=15,-1,-1
23=-1,-1,-1
8=13,34,-1
-1=9,-1,-1
29=-1,-1,-1
-1=8,-1,-1
-1=23,-1,-1
16=12,33,-1
41=-1,-1,-1
-1=16,22,-1
-1=21,-1,-1
50=-1,-1,-1
-1=-1,-1,-1
37=41,-1,-1
-1=10,29,44
34=37,-1,-1
11=-1,-1,-1
-1=18,50,-1
42=-1,-1,-1
-1=-1,-1,-1
6=-1,-1,-1
-1=46,-1,-1
-1=6,34,-1
49=-1,-1,-1
43=-1,-1,-1
5=48,-1,-1
23=-1,-1,-1
-1=-1,-1,-1
-1=38,-1,-1
27=23,-1,-1
-1=-1,-1,-1
44=-1,-1,-1
1=-1,-1,-1
35=3,5,11
-1=-1,-1,-1
-1=-1,-1,-1
-1=-1,-1,-1
-1=-1,-1,-1
38=-1,-1,-1
-1=1,38,-1
-1=27,-1,-1
-1=42,43,-1
-1=44,49,-1
-1=-1,-1,-1
27=-1,-1,-1
30=35,-1,-1
8=-1,-1,-1
40=8,-1,-1
-1=40,-1,-1
32=-1,-1,-1
9=30,-1,-1
-1=-1,-1,-1
20=27,-1,-1
-1=-1,-1,-1
24=9,-1,-1
3=-1,-1,-1
27=24,32,-1
21=20,27,-1
21=21,-1,-1
46=3,21,-1
43=-1,-1,-1
-1=46,-1,-1
24=43,-1,-1
-1=24,-1,-1
-1=-1,-1,-1
13 starts at 2 and ends at 137
40 starts at 4 and ends at 183
24 starts at 5 and ends at 198
38 starts at 9 and ends at 174
46 starts at 11 and ends at 196
37 starts at 15 and ends at 150
6 starts at 18 and ends at 157
31 starts at 19 and ends at 110
44 starts at 22 and ends at 177
41 starts at 23 and ends at 148
36 starts at 25 and ends at 100
42 starts at 26 and ends at 176
25 starts at 28 and ends at 75
17 starts at 30 and ends at 103
29 starts at 32 and ends at 149
49 starts at 33 and ends at 177
5 starts at 35 and ends at 168
26 starts at 36 and ends at 49
28 starts at 38 and ends at 71
30 starts at 46 and ends at 185
10 starts at 48 and ends at 149
34 starts at 66 and ends at 157
32 starts at 71 and ends at 191
12 starts at 74 and ends at 142
8 starts at 77 and ends at 182
19 starts at 86 and ends at 112
2 starts at 88 and ends at 105
7 starts at 90 and ends at 95
22 starts at 93 and ends at 144
33 starts at 95 and ends at 142
18 starts at 100 and ends at 152
9 starts at 110 and ends at 189
21 starts at 111 and ends at 194
3 starts at 118 and ends at 194
15 starts at 121 and ends at 135
48 starts at 122 and ends at 160
23 starts at 136 and ends at 164
16 starts at 142 and ends at 144
50 starts at 146 and ends at 152
11 starts at 151 and ends at 168
43 starts at 159 and ends at 197
27 starts at 164 and ends at 192
1 starts at 167 and ends at 174
35 starts at 168 and ends at 180
20 starts at 187 and ends at 192
1(9)->
2(23)->
3(22)->
5(16)->
6(6)->
7(24)->
8(12)->
9(7)->
10(20)->
11(5)->
12(21)->
13(0)->
15(23)->
16(0)->
17(13)->
18(10)->
19(22)->
20(1)->
21(13)->
22(25)->
23(23)->
24(2)->
25(12)->
26(17)->
27(6)->
28(18)->
29(14)->
30(19)->
31(7)->
32(18)->
33(24)->
34(17)->
35(5)->
36(10)->
37(5)->
38(3)->
40(1)->
41(9)->
42(11)->
43(0)->
44(8)->
46(4)->
48(26)->
49(15)->
50(0)->
COLORS: 27
27
27
