1: 2 3 4 5 6 7 8 9 10 11 12 13 14 15 16 17 18 19 20 21 22 23 24 25 26 27 28 29 30 31 32 33 34 35 36 37 38 39 40
2: 1 3 4 5 6 7 8 9 10 11 12 13 14 15 16 17 18 19 20 21 22 23 24 25 26 27 28 29 30 31 32 33 34 35 36 37 38 39
3: 1 2 4 5 6 7 8 9 10 11 12 13 14 15 16 17 18 19 20 21 22 23 24 25 26 27 28 29 30 31 32 33 34 35 36 37 38 39 40
4: 1 2 3 5 6 7 8 9 10 11 12 13 14 15 16 17 18 19 20 21 22 23 24 25 26 27 28 29 30 31 32 33 34 35 36 37 38 39
5: 1 2 3 4 6 7 8 9 10 11 12 13 14 15 16 17 18 19 20 21 22 23 24 25 26 27 28 29 30 31 32 33 34 35 36 37 38 39
6: 1 2 3 4 5 7 8 9 10 11 12 13 14 15 16 17 18 19 20 21 22 23 24 25 26 27 28 29 30 31 32 33 34 35 36 37 38 39 40
7: 1 2 3 4 5 6 8 9 10 11 12 13 14 15 16 17 18 19 20 21 22 23 24 25 26 27 28 29 30 31 32 33 34 35 36 37 38 39
8: 1 2 3 4 5 6 7 9 10 11 12 13 14 15 16 17 18 19 20 21 22 23 24 25 26 27 28 29 30 31 32 33 34 35 36 37 38 39
9: 1 2 3 4 5 6 7 8 10 11 12 13 14 15 16 17 18 19 20 21 22 23 24 25 27 28 29 30 33 34 36 37 38 39
10: 1 2 3 4 5 6 7 8 9 11 12 13 14 15 16 17 18 19 20 22 23 25 28 30 32 33 34 35 36 37 38 39
11: 1 2 3 4 5 6 7 8 9 10 12 13 14 15 16 17 18 20 21 22 23 25 28 29 31 32 33 34 36 37 38 39
12: 1 2 3 4 5 6 7 8 9 10 11 13 14 15 16 17 18 20 22 23 25 26 27 28 29 31 32 33 34 35 36 37 38
13: 1 2 3 4 5 6 7 8 9 10 11 12 14 15 16 17 18 19 20 21 22 23 24 25 28 30 32 33 34 35 36 37 38 40
14: 1 2 3 4 5 6 7 8 9 10 11 12 13 15 16 17 18 20 21 22 23 26 27 29 30 31 34 36 37 38 39 40
15: 1 2 3 4 5 6 7 8 9 10 11 12 13 14 16 17 19 20 21 23 25 27 28 29 30 31 32 34 37 38
16: 1 2 3 4 5 6 7 8 9 10 11 12 13 14 15 17 18 19 20 21 24 25 26 29 31 35 37 38 39 40
17: 1 2 3 4 5 6 7 8 9 10 11 12 13 14 15 16 18 19 21 22 26 29 31 32 33 34 38
18: 1 2 3 4 5 6 7 8 9 10 11 12 13 14 16 17 21 22 23 25 26 27 28 31 32 33 35 36 37 38 40
19: 1 2 3 4 5 6 7 8 9 10 13 15 16 17 20 21 24 26 27 35 38 39
20: 1 2 3 4 5 6 7 8 9 10 11 12 13 14 15 16 19 23 24 25 26 27 28 30 34 36 37 38 39 40
21: 1 2 3 4 5 6 7 8 9 11 13 14 15 16 17 18 19 23 25 26 28 30 32 33 38 39
22: 1 2 3 4 5 6 7 8 9 10 11 12 13 14 17 18 23 24 25 27 29 30 32 33 34 35 36 38 39 40
23: 1 2 3 4 5 6 7 8 9 10 11 12 13 14 15 18 20 21 22 25 27 28 29 30 32 39
24: 1 2 3 4 5 6 7 8 9 13 16 19 20 22 25 26 27 28 30 31 32 34 35 37 38 39
25: 1 2 3 4 5 6 7 8 9 10 11 12 13 15 16 18 20 21 22 23 24 27 28 31 34 35 36 38 39 40
26: 1 2 3 4 5 6 7 8 12 14 16 17 18 19 20 21 24 28 29 31 33 34
27: 1 2 3 4 5 6 7 8 9 12 14 15 18 19 20 22 23 24 25 28 29 31 37 40
28: 1 2 3 4 5 6 7 8 9 10 11 12 13 15 18 20 21 23 24 25 26 27 31 33 34 35 36 37 38 39 40
29: 1 2 3 4 5 6 7 8 9 11 12 14 15 16 17 22 23 26 27 31 32 36 39 40
30: 1 2 3 4 5 6 7 8 9 10 13 14 15 20 21 22 23 24 31 32 33 34 35 36 37 39
31: 1 2 3 4 5 6 7 8 11 12 14 15 16 17 18 24 25 26 27 28 29 30 33 34 37 38 40
32: 1 2 3 4 5 6 7 8 10 11 12 13 15 17 18 21 22 23 24 29 30 35 36 37 40
33: 1 2 3 4 5 6 7 8 9 10 11 12 13 17 18 21 22 26 28 30 31 35 37 40
34: 1 2 3 4 5 6 7 8 9 10 11 12 13 14 15 17 20 22 24 25 26 28 30 31 35 36 40
35: 1 2 3 4 5 6 7 8 10 12 13 16 18 19 22 24 25 28 30 32 33 34 37 38 39 40
36: 1 2 3 4 5 6 7 8 9 10 11 12 13 14 18 20 22 25 28 29 30 32 34 37 38 39 40
37: 1 2 3 4 5 6 7 8 9 10 11 12 13 14 15 16 18 20 24 27 28 30 31 32 33 35 36 39 40
38: 1 2 3 4 5 6 7 8 9 10 11 12 13 14 15 16 17 18 19 20 21 22 24 25 28 31 35 36 40
39: 1 2 3 4 5 6 7 8 9 10 11 14 16 19 20 21 22 23 24 25 28 29 30 35 36 37
40: 32 1 34 35 36 6 38 33 13 14 29 16 18 3 20 22 25 27 28 37 31
-------
1(-1)->2 3 4 5 6 7 8 9 10 11 12 13 14 15 16 17 18 19 20 21 22 23 24 25 26 27 28 29 30 31 32 33 34 35 36 37 38 39 40 
2(-1)->1 3 4 5 6 7 8 9 10 11 12 13 14 15 16 17 18 19 20 21 22 23 24 25 26 27 28 29 30 31 32 33 34 35 36 37 38 39 
3(-1)->1 2 4 5 6 7 8 9 10 11 12 13 14 15 16 17 18 19 20 21 22 23 24 25 26 27 28 29 30 31 32 33 34 35 36 37 38 39 40 
4(-1)->1 2 3 5 6 7 8 9 10 11 12 13 14 15 16 17 18 19 20 21 22 23 24 25 26 27 28 29 30 31 32 33 34 35 36 37 38 39 
5(-1)->1 2 3 4 6 7 8 9 10 11 12 13 14 15 16 17 18 19 20 21 22 23 24 25 26 27 28 29 30 31 32 33 34 35 36 37 38 39 
6(-1)->1 2 3 4 5 7 8 9 10 11 12 13 14 15 16 17 18 19 20 21 22 23 24 25 26 27 28 29 30 31 32 33 34 35 36 37 38 39 40 
7(-1)->1 2 3 4 5 6 8 9 10 11 12 13 14 15 16 17 18 19 20 21 22 23 24 25 26 27 28 29 30 31 32 33 34 35 36 37 38 39 
8(-1)->1 2 3 4 5 6 7 9 10 11 12 13 14 15 16 17 18 19 20 21 22 23 24 25 26 27 28 29 30 31 32 33 34 35 36 37 38 39 
9(-1)->1 2 3 4 5 6 7 8 10 11 12 13 14 15 16 17 18 19 20 21 22 23 24 25 27 28 29 30 33 34 36 37 38 39 
10(-1)->1 2 3 4 5 6 7 8 9 11 12 13 14 15 16 17 18 19 20 22 23 25 28 30 32 33 34 35 36 37 38 39 
11(-1)->1 2 3 4 5 6 7 8 9 10 12 13 14 15 16 17 18 20 21 22 23 25 28 29 31 32 33 34 36 37 38 39 
12(-1)->1 2 3 4 5 6 7 8 9 10 11 13 14 15 16 17 18 20 22 23 25 26 27 28 29 31 32 33 34 35 36 37 38 
13(-1)->1 2 3 4 5 6 7 8 9 10 11 12 14 15 16 17 18 19 20 21 22 23 24 25 28 30 32 33 34 35 36 37 38 40 
14(-1)->1 2 3 4 5 6 7 8 9 10 11 12 13 15 16 17 18 20 21 22 23 26 27 29 30 31 34 36 37 38 39 40 
15(-1)->1 2 3 4 5 6 7 8 9 10 11 12 13 14 16 17 19 20 21 23 25 27 28 29 30 31 32 34 37 38 
16(-1)->1 2 3 4 5 6 7 8 9 10 11 12 13 14 15 17 18 19 20 21 24 25 26 29 31 35 37 38 39 40 
17(-1)->1 2 3 4 5 6 7 8 9 10 11 12 13 14 15 16 18 19 21 22 26 29 31 32 33 34 38 
18(-1)->1 2 3 4 5 6 7 8 9 10 11 12 13 14 16 17 21 22 23 25 26 27 28 31 32 33 35 36 37 38 40 
19(-1)->1 2 3 4 5 6 7 8 9 10 13 15 16 17 20 21 24 26 27 35 38 39 
20(-1)->1 2 3 4 5 6 7 8 9 10 11 12 13 14 15 16 19 23 24 25 26 27 28 30 34 36 37 38 39 40 
21(-1)->1 2 3 4 5 6 7 8 9 11 13 14 15 16 17 18 19 23 25 26 28 30 32 33 38 39 
22(-1)->1 2 3 4 5 6 7 8 9 10 11 12 13 14 17 18 23 24 25 27 29 30 32 33 34 35 36 38 39 40 
23(-1)->1 2 3 4 5 6 7 8 9 10 11 12 13 14 15 18 20 21 22 25 27 28 29 30 32 39 
24(-1)->1 2 3 4 5 6 7 8 9 13 16 19 20 22 25 26 27 28 30 31 32 34 35 37 38 39 
25(-1)->1 2 3 4 5 6 7 8 9 10 11 12 13 15 16 18 20 21 22 23 24 27 28 31 34 35 36 38 39 40 
26(-1)->1 2 3 4 5 6 7 8 12 14 16 17 18 19 20 21 24 28 29 31 33 34 
27(-1)->1 2 3 4 5 6 7 8 9 12 14 15 18 19 20 22 23 24 25 28 29 31 37 40 
28(-1)->1 2 3 4 5 6 7 8 9 10 11 12 13 15 18 20 21 23 24 25 26 27 31 33 34 35 36 37 38 39 40 
29(-1)->1 2 3 4 5 6 7 8 9 11 12 14 15 16 17 22 23 26 27 31 32 36 39 40 
30(-1)->1 2 3 4 5 6 7 8 9 10 13 14 15 20 21 22 23 24 31 32 33 34 35 36 37 39 
31(-1)->1 2 3 4 5 6 7 8 11 12 14 15 16 17 18 24 25 26 27 28 29 30 33 34 37 38 40 
32(-1)->1 2 3 4 5 6 7 8 10 11 12 13 15 17 18 21 22 23 24 29 30 35 36 37 40 
33(-1)->1 2 3 4 5 6 7 8 9 10 11 12 13 17 18 21 22 26 28 30 31 35 37 40 
34(-1)->1 2 3 4 5 6 7 8 9 10 11 12 13 14 15 17 20 22 24 25 26 28 30 31 35 36 40 
35(-1)->1 2 3 4 5 6 7 8 10 12 13 16 18 19 22 24 25 28 30 32 33 34 37 38 39 40 
36(-1)->1 2 3 4 5 6 7 8 9 10 11 12 13 14 18 20 22 25 28 29 30 32 34 37 38 39 40 
37(-1)->1 2 3 4 5 6 7 8 9 10 11 12 13 14 15 16 18 20 24 27 28 30 31 32 33 35 36 39 40 
38(-1)->1 2 3 4 5 6 7 8 9 10 11 12 13 14 15 16 17 18 19 20 21 22 24 25 28 31 35 36 40 
39(-1)->1 2 3 4 5 6 7 8 9 10 11 14 16 19 20 21 22 23 24 25 28 29 30 35 36 37 
40(-1)->1 3 6 13 14 16 18 20 22 25 27 28 29 31 32 33 34 35 36 37 38 
-------
1(0)->2 3 4 5 6 7 8 9 10 11 12 13 14 15 16 17 18 19 20 21 22 23 24 25 26 27 28 29 30 31 32 33 34 35 36 37 38 39 40 
2(1)->1 3 4 5 6 7 8 9 10 11 12 13 14 15 16 17 18 19 20 21 22 23 24 25 26 27 28 29 30 31 32 33 34 35 36 37 38 39 
3(2)->1 2 4 5 6 7 8 9 10 11 12 13 14 15 16 17 18 19 20 21 22 23 24 25 26 27 28 29 30 31 32 33 34 35 36 37 38 39 40 
4(3)->1 2 3 5 6 7 8 9 10 11 12 13 14 15 16 17 18 19 20 21 22 23 24 25 26 27 28 29 30 31 32 33 34 35 36 37 38 39 
5(4)->1 2 3 4 6 7 8 9 10 11 12 13 14 15 16 17 18 19 20 21 22 23 24 25 26 27 28 29 30 31 32 33 34 35 36 37 38 39 
6(5)->1 2 3 4 5 7 8 9 10 11 12 13 14 15 16 17 18 19 20 21 22 23 24 25 26 27 28 29 30 31 32 33 34 35 36 37 38 39 40 
7(6)->1 2 3 4 5 6 8 9 10 11 12 13 14 15 16 17 18 19 20 21 22 23 24 25 26 27 28 29 30 31 32 33 34 35 36 37 38 39 
8(7)->1 2 3 4 5 6 7 9 10 11 12 13 14 15 16 17 18 19 20 21 22 23 24 25 26 27 28 29 30 31 32 33 34 35 36 37 38 39 
9(8)->1 2 3 4 5 6 7 8 10 11 12 13 14 15 16 17 18 19 20 21 22 23 24 25 27 28 29 30 33 34 36 37 38 39 
10(9)->1 2 3 4 5 6 7 8 9 11 12 13 14 15 16 17 18 19 20 22 23 25 28 30 32 33 34 35 36 37 38 39 
11(10)->1 2 3 4 5 6 7 8 9 10 12 13 14 15 16 17 18 20 21 22 23 25 28 29 31 32 33 34 36 37 38 39 
12(11)->1 2 3 4 5 6 7 8 9 10 11 13 14 15 16 17 18 20 22 23 25 26 27 28 29 31 32 33 34 35 36 37 38 
13(12)->1 2 3 4 5 6 7 8 9 10 11 12 14 15 16 17 18 19 20 21 22 23 24 25 28 30 32 33 34 35 36 37 38 40 
14(13)->1 2 3 4 5 6 7 8 9 10 11 12 13 15 16 17 18 20 21 22 23 26 27 29 30 31 34 36 37 38 39 40 
15(14)->1 2 3 4 5 6 7 8 9 10 11 12 13 14 16 17 19 20 21 23 25 27 28 29 30 31 32 34 37 38 
16(15)->1 2 3 4 5 6 7 8 9 10 11 12 13 14 15 17 18 19 20 21 24 25 26 29 31 35 37 38 39 40 
17(16)->1 2 3 4 5 6 7 8 9 10 11 12 13 14 15 16 18 19 21 22 26 29 31 32 33 34 38 
18(14)->1 2 3 4 5 6 7 8 9 10 11 12 13 14 16 17 21 22 23 25 26 27 28 31 32 33 35 36 37 38 40 
19(10)->1 2 3 4 5 6 7 8 9 10 13 15 16 17 20 21 24 26 27 35 38 39 
20(16)->1 2 3 4 5 6 7 8 9 10 11 12 13 14 15 16 19 23 24 25 26 27 28 30 34 36 37 38 39 40 
21(9)->1 2 3 4 5 6 7 8 9 11 13 14 15 16 17 18 19 23 25 26 28 30 32 33 38 39 
22(15)->1 2 3 4 5 6 7 8 9 10 11 12 13 14 17 18 23 24 25 27 29 30 32 33 34 35 36 38 39 40 
23(17)->1 2 3 4 5 6 7 8 9 10 11 12 13 14 15 18 20 21 22 25 27 28 29 30 32 39 
24(9)->1 2 3 4 5 6 7 8 9 13 16 19 20 22 25 26 27 28 30 31 32 34 35 37 38 39 
25(13)->1 2 3 4 5 6 7 8 9 10 11 12 13 15 16 18 20 21 22 23 24 27 28 31 34 35 36 38 39 40 
26(8)->1 2 3 4 5 6 7 8 12 14 16 17 18 19 20 21 24 28 29 31 33 34 
27(12)->1 2 3 4 5 6 7 8 9 12 14 15 18 19 20 22 23 24 25 28 29 31 37 40 
28(15)->1 2 3 4 5 6 7 8 9 10 11 12 13 15 18 20 21 23 24 25 26 27 31 33 34 35 36 37 38 39 40 
29(9)->1 2 3 4 5 6 7 8 9 11 12 14 15 16 17 22 23 26 27 31 32 36 39 40 
30(10)->1 2 3 4 5 6 7 8 9 10 13 14 15 20 21 22 23 24 31 32 33 34 35 36 37 39 
31(17)->1 2 3 4 5 6 7 8 11 12 14 15 16 17 18 24 25 26 27 28 29 30 33 34 37 38 40 
32(8)->1 2 3 4 5 6 7 8 10 11 12 13 15 17 18 21 22 23 24 29 30 35 36 37 40 
33(13)->1 2 3 4 5 6 7 8 9 10 11 12 13 17 18 21 22 26 28 30 31 35 37 40 
34(18)->1 2 3 4 5 6 7 8 9 10 11 12 13 14 15 17 20 22 24 25 26 28 30 31 35 36 40 
35(16)->1 2 3 4 5 6 7 8 10 12 13 16 18 19 22 24 25 28 30 32 33 34 37 38 39 40 
36(17)->1 2 3 4 5 6 7 8 9 10 11 12 13 14 18 20 22 25 28 29 30 32 34 37 38 39 40 
37(18)->1 2 3 4 5 6 7 8 9 10 11 12 13 14 15 16 18 20 24 27 28 30 31 32 33 35 36 39 40 
38(18)->1 2 3 4 5 6 7 8 9 10 11 12 13 14 15 16 17 18 19 20 21 22 24 25 28 31 35 36 40 
39(11)->1 2 3 4 5 6 7 8 9 10 11 14 16 19 20 21 22 23 24 25 28 29 30 35 36 37 
40(1)->1 3 6 13 14 16 18 20 22 25 27 28 29 31 32 33 34 35 36 37 38 
COUNT: 0
BEST COST: 19
19
19
