1: 2 3 4 5 6 7 8 9 10 11 12 13 14 15 16 17 18 19 20 21 22 23 24 25 26 27 28 29 30 31 32 33 34 35 36 37 38 39 40
2: 1 3 4 5 6 7 8 9 10 11 12 13 14 15 16 17 18 19 20 21 22 23 24 25 26 27 28 29 30 31 32 33 34 35 36 37 38 39 40
3: 1 2 4 5 6 7 8 9 10 11 12 13 14 15 16 17 18 19 20 21 22 23 24 25 26 27 28 29 30 31 32 33 34 35 36 37 38 39
4: 1 2 3 5 6 7 8 9 10 11 12 13 14 15 16 17 18 19 20 21 22 23 24 25 26 27 28 29 30 31 32 33 34 35 36 37 38 39 40
5: 1 2 3 4 6 7 8 9 10 11 12 13 14 15 16 17 18 19 20 21 22 23 24 25 26 27 28 29 30 31 32 33 34 35 36 37 38 39 40
6: 1 2 3 4 5 7 8 9 10 11 12 13 14 15 16 17 18 19 20 21 22 23 24 25 26 27 28 29 30 31 32 33 34 35 36 37 38 39
7: 1 2 3 4 5 6 8 9 10 11 12 13 14 15 16 17 18 19 20 21 22 23 24 25 26 27 28 29 30 31 32 33 34 36 37 38 39
8: 1 2 3 4 5 6 7 9 10 11 12 13 14 15 16 17 18 19 20 21 22 23 24 25 26 28 29 30 31 32 33 34 36 37 38 39
9: 1 2 3 4 5 6 7 8 10 11 12 13 14 15 16 17 18 19 20 21 22 23 24 25 26 27 28 29 30 31 32 33 34 35 36 37 39 40
10: 1 2 3 4 5 6 7 8 9 11 12 13 14 15 16 17 18 19 20 22 23 24 25 26 27 28 29 30 31 32 34 35 36 38 39 40
11: 1 2 3 4 5 6 7 8 9 10 12 13 14 15 16 17 18 19 20 21 22 23 24 25 26 30 31 32 33 36 37 39 40
12: 1 2 3 4 5 6 7 8 9 10 11 13 14 15 16 17 18 19 20 22 23 24 25 26 28 29 30 32 36 37 39
13: 1 2 3 4 5 6 7 8 9 10 11 12 14 15 16 19 20 22 23 24 26 27 28 30 31 32 33 34 35 36 37 40
14: 1 2 3 4 5 6 7 8 9 10 11 12 13 15 16 19 22 23 26 27 29 30 31 32 35 36 37 38
15: 1 2 3 4 5 6 7 8 9 10 11 12 13 14 16 18 19 20 21 22 25 26 27 28 30 32 33 34 36
16: 1 2 3 4 5 6 7 8 9 10 11 12 13 14 15 17 18 19 21 22 23 24 25 27 30 32 33 34 36 38 40
17: 1 2 3 4 5 6 7 8 9 10 11 12 16 18 19 22 24 26 28 30 31 32 33 34 37 38
18: 1 2 3 4 5 6 7 8 9 10 11 12 15 16 17 20 21 22 23 26 27 31 32 34 36 37
19: 1 2 3 4 5 6 7 8 9 10 11 12 13 14 15 16 17 20 22 23 25 29 31 37 38 39 40
20: 1 2 3 4 5 6 7 8 9 10 11 12 13 15 18 19 22 23 26 27 28 30 33 38 39 40
21: 1 2 3 4 5 6 7 8 9 11 15 16 18 22 23 24 26 28 29 31 32 34 35 38 39 40
22: 1 2 3 4 5 6 7 8 9 10 11 12 13 14 15 16 17 18 19 20 21 23 24 25 26 32 37 39
23: 1 2 3 4 5 6 7 8 9 10 11 12 13 14 16 18 19 20 21 22 26 27 28 29 31 34 35 37 38 39
24: 1 2 3 4 5 6 7 8 9 10 11 12 13 16 17 21 22 25 26 28 29 30 31 34 36 37 39
25: 1 2 3 4 5 6 7 8 9 10 11 12 15 16 19 22 24 26 27 28 29 30 31 32 33 34 35 36 37 39
26: 1 2 3 4 5 6 7 8 9 10 11 12 13 14 15 17 18 20 21 22 23 24 25 27 29 32 35 37 39 40
27: 1 2 3 4 5 6 7 9 10 13 14 15 16 18 20 23 25 26 30 32 34 35 37 38 39 40
28: 1 2 3 4 5 6 7 8 9 10 12 13 15 17 20 21 23 24 25 29 31 34 37 38
29: 1 2 3 4 5 6 7 8 9 10 12 14 19 21 23 24 25 26 28 30 31 33 34 35 38 39
30: 1 2 3 4 5 6 7 8 9 10 11 12 13 14 15 16 17 20 24 25 27 29 32 33 34 36 37 38 40
31: 1 2 3 4 5 6 7 8 9 10 11 13 14 17 18 19 21 23 24 25 28 29 33 39
32: 1 2 3 4 5 6 7 8 9 10 11 12 13 14 15 16 17 18 21 22 25 26 27 30 34 36 37 40
33: 1 2 3 4 5 6 7 8 9 11 13 15 16 17 20 25 29 30 31 34 35 36 37 39 40
34: 1 2 3 4 5 6 7 8 9 10 13 15 16 17 18 21 23 24 25 27 28 29 30 32 33 35 36 37 39 40
35: 33 2 34 4 37 6 1 9 10 13 14 3 21 23 25 26 27 29 5
36: 1 2 3 4 5 6 7 8 9 10 11 12 13 14 15 16 18 24 25 30 32 33 34 37 38 40
37: 1 2 3 4 5 6 7 8 9 11 12 13 14 17 18 19 22 23 24 25 26 27 28 30 32 33 34 35 36 38 39 40
38: 1 2 3 4 5 6 7 8 10 14 16 17 19 20 21 23 27 28 29 30 36 37 40
39: 1 2 3 4 5 6 7 8 9 10 11 12 19 20 21 22 23 24 25 26 27 29 31 33 34 37 40
40: 1 2 4 5 9 10 11 13 16 19 20 21 26 27 30 32 33 34 36 37 38 39
-------
1(-1)->2 3 4 5 6 7 8 9 10 11 12 13 14 15 16 17 18 19 20 21 22 23 24 25 26 27 28 29 30 31 32 33 34 35 36 37 38 39 40 
2(-1)->1 3 4 5 6 7 8 9 10 11 12 13 14 15 16 17 18 19 20 21 22 23 24 25 26 27 28 29 30 31 32 33 34 35 36 37 38 39 40 
3(-1)->1 2 4 5 6 7 8 9 10 11 12 13 14 15 16 17 18 19 20 21 22 23 24 25 26 27 28 29 30 31 32 33 34 35 36 37 38 39 
4(-1)->1 2 3 5 6 7 8 9 10 11 12 13 14 15 16 17 18 19 20 21 22 23 24 25 26 27 28 29 30 31 32 33 34 35 36 37 38 39 40 
5(-1)->1 2 3 4 6 7 8 9 10 11 12 13 14 15 16 17 18 19 20 21 22 23 24 25 26 27 28 29 30 31 32 33 34 35 36 37 38 39 40 
6(-1)->1 2 3 4 5 7 8 9 10 11 12 13 14 15 16 17 18 19 20 21 22 23 24 25 26 27 28 29 30 31 32 33 34 35 36 37 38 39 
7(-1)->1 2 3 4 5 6 8 9 10 11 12 13 14 15 16 17 18 19 20 21 22 23 24 25 26 27 28 29 30 31 32 33 34 36 37 38 39 
8(-1)->1 2 3 4 5 6 7 9 10 11 12 13 14 15 16 17 18 19 20 21 22 23 24 25 26 28 29 30 31 32 33 34 36 37 38 39 
9(-1)->1 2 3 4 5 6 7 8 10 11 12 13 14 15 16 17 18 19 20 21 22 23 24 25 26 27 28 29 30 31 32 33 34 35 36 37 39 40 
10(-1)->1 2 3 4 5 6 7 8 9 11 12 13 14 15 16 17 18 19 20 22 23 24 25 26 27 28 29 30 31 32 34 35 36 38 39 40 
11(-1)->1 2 3 4 5 6 7 8 9 10 12 13 14 15 16 17 18 19 20 21 22 23 24 25 26 30 31 32 33 36 37 39 40 
12(-1)->1 2 3 4 5 6 7 8 9 10 11 13 14 15 16 17 18 19 20 22 23 24 25 26 28 29 30 32 36 37 39 
13(-1)->1 2 3 4 5 6 7 8 9 10 11 12 14 15 16 19 20 22 23 24 26 27 28 30 31 32 33 34 35 36 37 40 
14(-1)->1 2 3 4 5 6 7 8 9 10 11 12 13 15 16 19 22 23 26 27 29 30 31 32 35 36 37 38 
15(-1)->1 2 3 4 5 6 7 8 9 10 11 12 13 14 16 18 19 20 21 22 25 26 27 28 30 32 33 34 36 
16(-1)->1 2 3 4 5 6 7 8 9 10 11 12 13 14 15 17 18 19 21 22 23 24 25 27 30 32 33 34 36 38 40 
17(-1)->1 2 3 4 5 6 7 8 9 10 11 12 16 18 19 22 24 26 28 30 31 32 33 34 37 38 
18(-1)->1 2 3 4 5 6 7 8 9 10 11 12 15 16 17 20 21 22 23 26 27 31 32 34 36 37 
19(-1)->1 2 3 4 5 6 7 8 9 10 11 12 13 14 15 16 17 20 22 23 25 29 31 37 38 39 40 
20(-1)->1 2 3 4 5 6 7 8 9 10 11 12 13 15 18 19 22 23 26 27 28 30 33 38 39 40 
21(-1)->1 2 3 4 5 6 7 8 9 11 15 16 18 22 23 24 26 28 29 31 32 34 35 38 39 40 
22(-1)->1 2 3 4 5 6 7 8 9 10 11 12 13 14 15 16 17 18 19 20 21 23 24 25 26 32 37 39 
23(-1)->1 2 3 4 5 6 7 8 9 10 11 12 13 14 16 18 19 20 21 22 26 27 28 29 31 34 35 37 38 39 
24(-1)->1 2 3 4 5 6 7 8 9 10 11 12 13 16 17 21 22 25 26 28 29 30 31 34 36 37 39 
25(-1)->1 2 3 4 5 6 7 8 9 10 11 12 15 16 19 22 24 26 27 28 29 30 31 32 33 34 35 36 37 39 
26(-1)->1 2 3 4 5 6 7 8 9 10 11 12 13 14 15 17 18 20 21 22 23 24 25 27 29 32 35 37 39 40 
27(-1)->1 2 3 4 5 6 7 9 10 13 14 15 16 18 20 23 25 26 30 32 34 35 37 38 39 40 
28(-1)->1 2 3 4 5 6 7 8 9 10 12 13 15 17 20 21 23 24 25 29 31 34 37 38 
29(-1)->1 2 3 4 5 6 7 8 9 10 12 14 19 21 23 24 25 26 28 30 31 33 34 35 38 39 
30(-1)->1 2 3 4 5 6 7 8 9 10 11 12 13 14 15 16 17 20 24 25 27 29 32 33 34 36 37 38 40 
31(-1)->1 2 3 4 5 6 7 8 9 10 11 13 14 17 18 19 21 23 24 25 28 29 33 39 
32(-1)->1 2 3 4 5 6 7 8 9 10 11 12 13 14 15 16 17 18 21 22 25 26 27 30 34 36 37 40 
33(-1)->1 2 3 4 5 6 7 8 9 11 13 15 16 17 20 25 29 30 31 34 35 36 37 39 40 
34(-1)->1 2 3 4 5 6 7 8 9 10 13 15 16 17 18 21 23 24 25 27 28 29 30 32 33 35 36 37 39 40 
35(-1)->1 2 3 4 5 6 9 10 13 14 21 23 25 26 27 29 33 34 37 
36(-1)->1 2 3 4 5 6 7 8 9 10 11 12 13 14 15 16 18 24 25 30 32 33 34 37 38 40 
37(-1)->1 2 3 4 5 6 7 8 9 11 12 13 14 17 18 19 22 23 24 25 26 27 28 30 32 33 34 35 36 38 39 40 
38(-1)->1 2 3 4 5 6 7 8 10 14 16 17 19 20 21 23 27 28 29 30 36 37 40 
39(-1)->1 2 3 4 5 6 7 8 9 10 11 12 19 20 21 22 23 24 25 26 27 29 31 33 34 37 40 
40(-1)->1 2 4 5 9 10 11 13 16 19 20 21 26 27 30 32 33 34 36 37 38 39 
-------
1(0)->2 3 4 5 6 7 8 9 10 11 12 13 14 15 16 17 18 19 20 21 22 23 24 25 26 27 28 29 30 31 32 33 34 35 36 37 38 39 40 
2(1)->1 3 4 5 6 7 8 9 10 11 12 13 14 15 16 17 18 19 20 21 22 23 24 25 26 27 28 29 30 31 32 33 34 35 36 37 38 39 40 
3(2)->1 2 4 5 6 7 8 9 10 11 12 13 14 15 16 17 18 19 20 21 22 23 24 25 26 27 28 29 30 31 32 33 34 35 36 37 38 39 
4(3)->1 2 3 5 6 7 8 9 10 11 12 13 14 15 16 17 18 19 20 21 22 23 24 25 26 27 28 29 30 31 32 33 34 35 36 37 38 39 40 
5(4)->1 2 3 4 6 7 8 9 10 11 12 13 14 15 16 17 18 19 20 21 22 23 24 25 26 27 28 29 30 31 32 33 34 35 36 37 38 39 40 
6(5)->1 2 3 4 5 7 8 9 10 11 12 13 14 15 16 17 18 19 20 21 22 23 24 25 26 27 28 29 30 31 32 33 34 35 36 37 38 39 
7(6)->1 2 3 4 5 6 8 9 10 11 12 13 14 15 16 17 18 19 20 21 22 23 24 25 26 27 28 29 30 31 32 33 34 36 37 38 39 
8(7)->1 2 3 4 5 6 7 9 10 11 12 13 14 15 16 17 18 19 20 21 22 23 24 25 26 28 29 30 31 32 33 34 36 37 38 39 
9(8)->1 2 3 4 5 6 7 8 10 11 12 13 14 15 16 17 18 19 20 21 22 23 24 25 26 27 28 29 30 31 32 33 34 35 36 37 39 40 
10(9)->1 2 3 4 5 6 7 8 9 11 12 13 14 15 16 17 18 19 20 22 23 24 25 26 27 28 29 30 31 32 34 35 36 38 39 40 
11(10)->1 2 3 4 5 6 7 8 9 10 12 13 14 15 16 17 18 19 20 21 22 23 24 25 26 30 31 32 33 36 37 39 40 
12(11)->1 2 3 4 5 6 7 8 9 10 11 13 14 15 16 17 18 19 20 22 23 24 25 26 28 29 30 32 36 37 39 
13(12)->1 2 3 4 5 6 7 8 9 10 11 12 14 15 16 19 20 22 23 24 26 27 28 30 31 32 33 34 35 36 37 40 
14(13)->1 2 3 4 5 6 7 8 9 10 11 12 13 15 16 19 22 23 26 27 29 30 31 32 35 36 37 38 
15(14)->1 2 3 4 5 6 7 8 9 10 11 12 13 14 16 18 19 20 21 22 25 26 27 28 30 32 33 34 36 
16(15)->1 2 3 4 5 6 7 8 9 10 11 12 13 14 15 17 18 19 21 22 23 24 25 27 30 32 33 34 36 38 40 
17(12)->1 2 3 4 5 6 7 8 9 10 11 12 16 18 19 22 24 26 28 30 31 32 33 34 37 38 
18(13)->1 2 3 4 5 6 7 8 9 10 11 12 15 16 17 20 21 22 23 26 27 31 32 34 36 37 
19(16)->1 2 3 4 5 6 7 8 9 10 11 12 13 14 15 16 17 20 22 23 25 29 31 37 38 39 40 
20(15)->1 2 3 4 5 6 7 8 9 10 11 12 13 15 18 19 22 23 26 27 28 30 33 38 39 40 
21(9)->1 2 3 4 5 6 7 8 9 11 15 16 18 22 23 24 26 28 29 31 32 34 35 38 39 40 
22(17)->1 2 3 4 5 6 7 8 9 10 11 12 13 14 15 16 17 18 19 20 21 23 24 25 26 32 37 39 
23(14)->1 2 3 4 5 6 7 8 9 10 11 12 13 14 16 18 19 20 21 22 26 27 28 29 31 34 35 37 38 39 
24(13)->1 2 3 4 5 6 7 8 9 10 11 12 13 16 17 21 22 25 26 28 29 30 31 34 36 37 39 
25(12)->1 2 3 4 5 6 7 8 9 10 11 12 15 16 19 22 24 26 27 28 29 30 31 32 33 34 35 36 37 39 
26(16)->1 2 3 4 5 6 7 8 9 10 11 12 13 14 15 17 18 20 21 22 23 24 25 27 29 32 35 37 39 40 
27(7)->1 2 3 4 5 6 7 9 10 13 14 15 16 18 20 23 25 26 30 32 34 35 37 38 39 40 
28(10)->1 2 3 4 5 6 7 8 9 10 12 13 15 17 20 21 23 24 25 29 31 34 37 38 
29(15)->1 2 3 4 5 6 7 8 9 10 12 14 19 21 23 24 25 26 28 30 31 33 34 35 38 39 
30(16)->1 2 3 4 5 6 7 8 9 10 11 12 13 14 15 16 17 20 24 25 27 29 32 33 34 36 37 38 40 
31(11)->1 2 3 4 5 6 7 8 9 10 11 13 14 17 18 19 21 23 24 25 28 29 33 39 
32(18)->1 2 3 4 5 6 7 8 9 10 11 12 13 14 15 16 17 18 21 22 25 26 27 30 34 36 37 40 
33(9)->1 2 3 4 5 6 7 8 9 11 13 15 16 17 20 25 29 30 31 34 35 36 37 39 40 
34(11)->1 2 3 4 5 6 7 8 9 10 13 15 16 17 18 21 23 24 25 27 28 29 30 32 33 35 36 37 39 40 
35(6)->1 2 3 4 5 6 9 10 13 14 21 23 25 26 27 29 33 34 37 
36(17)->1 2 3 4 5 6 7 8 9 10 11 12 13 14 15 16 18 24 25 30 32 33 34 37 38 40 
37(15)->1 2 3 4 5 6 7 8 9 11 12 13 14 17 18 19 22 23 24 25 26 27 28 30 32 33 34 35 36 38 39 40 
38(8)->1 2 3 4 5 6 7 8 10 14 16 17 19 20 21 23 27 28 29 30 36 37 40 
39(18)->1 2 3 4 5 6 7 8 9 10 11 12 19 20 21 22 23 24 25 26 27 29 31 33 34 37 40 
40(2)->1 2 4 5 9 10 11 13 16 19 20 21 26 27 30 32 33 34 36 37 38 39 
COUNT: 0
BEST COST: 19
19
19
