1: 2 11 13 14
2: 1
3: 25 37 6
4: 10 28
5: 16
6: 3 29 31
7: 8 16
8: 34 36 38 7
9: 40 10 31
10: 9 4 39
11: 40 1 17
12: 36
13: 1
14: 1 28
15: 36
16: 34 27 5 7
17: 11 37
18: 
19: 26 20
20: 26 19 38
21: 34 29 22
22: 21
23: 
24: 37 30
25: 3
26: 19 20
27: 16 39
28: 4 14
29: 38 6 21
30: 24
31: 9 6
32: 
33: 
34: 8 16 21
35: 
36: 8 12 15
37: 24 17 3
38: 8 20 29
39: 10 27
40: 9 11
-------
1(-1)->2 11 13 14 
2(-1)->1 
3(-1)->6 25 37 
4(-1)->10 28 
5(-1)->16 
6(-1)->3 29 31 
7(-1)->8 16 
8(-1)->7 34 36 38 
9(-1)->10 31 40 
10(-1)->4 9 39 
11(-1)->1 17 40 
12(-1)->36 
13(-1)->1 
14(-1)->1 28 
15(-1)->36 
16(-1)->5 7 27 34 
17(-1)->11 37 
18(-1)->
19(-1)->20 26 
20(-1)->19 26 38 
21(-1)->22 29 34 
22(-1)->21 
23(-1)->
24(-1)->30 37 
25(-1)->3 
26(-1)->19 20 
27(-1)->16 39 
28(-1)->4 14 
29(-1)->6 21 38 
30(-1)->24 
31(-1)->6 9 
32(-1)->
33(-1)->
34(-1)->8 16 21 
35(-1)->
36(-1)->8 12 15 
37(-1)->3 17 24 
38(-1)->8 20 29 
39(-1)->10 27 
40(-1)->9 11 
-------
1(0)->2 11 13 14 
2(1)->1 
3(0)->6 25 37 
4(0)->10 28 
5(0)->16 
6(1)->3 29 31 
7(0)->8 16 
8(1)->7 34 36 38 
9(0)->10 31 40 
10(1)->4 9 39 
11(1)->1 17 40 
12(0)->36 
13(1)->1 
14(1)->1 28 
15(0)->36 
16(1)->5 7 27 34 
17(0)->11 37 
18(0)->
19(0)->20 26 
20(1)->19 26 38 
21(0)->22 29 34 
22(1)->21 
23(0)->
24(0)->30 37 
25(1)->3 
26(2)->19 20 
27(0)->16 39 
28(2)->4 14 
29(2)->6 21 38 
30(1)->24 
31(2)->6 9 
32(0)->
33(0)->
34(2)->8 16 21 
35(0)->
36(2)->8 12 15 
37(1)->3 17 24 
38(0)->8 20 29 
39(2)->10 27 
40(2)->9 11 
COUNT: 0
BEST COST: 3
3
3
