1: 2 3 4 5 6 7 8 9 10 11 12 13 14 15 16 17 18 19 20 21 22 23 24 25 26 27 28 29 30 31 32 33 34 35 36 37 38 39
2: 1 3 4 5 6 7 8 9 10 11 12 13 14 15 16 17 18 19 20 21 22 23 24 25 26 27 28 29 30 31 32 33 34 35 36 37 38 39 40
3: 1 2 4 5 6 7 8 9 10 11 12 13 14 15 16 17 18 19 20 21 22 23 24 25 26 27 28 29 30 31 32 33 34 35 36 37 38 39 40
4: 1 2 3 5 6 7 8 9 10 11 12 13 14 15 16 17 18 19 20 21 22 23 24 25 26 27 28 29 30 31 32 33 34 35 36 37 38 39 40
5: 1 2 3 4 6 7 8 9 10 11 12 13 14 15 16 17 18 19 20 21 22 23 24 25 26 27 28 29 30 31 32 33 34 35 36 37 38 40
6: 1 2 3 4 5 7 8 9 10 11 12 13 14 15 16 17 18 19 20 21 22 23 24 25 26 27 28 29 31 32 33 34 36 37 38 40
7: 1 2 3 4 5 6 8 9 10 11 12 13 14 15 16 17 18 19 20 21 22 23 25 26 27 28 29 32 33 34 36 37 39
8: 1 2 3 4 5 6 7 9 10 11 12 13 14 15 16 17 18 21 22 23 25 26 27 29 30 32 33 34 36 37 38 40
9: 1 2 3 4 5 6 7 8 10 11 12 13 14 15 16 17 18 19 21 22 23 24 25 26 27 28 32 33 34 35 36 40
10: 1 2 3 4 5 6 7 8 9 11 12 13 15 18 21 22 23 25 26 27 32 33 34 35 36 37 38 39 40
11: 1 2 3 4 5 6 7 8 9 10 12 13 15 17 18 19 20 22 23 24 26 27 29 30 32 33 34 35 37
12: 1 2 3 4 5 6 7 8 9 10 11 13 15 17 18 19 25 26 27 29 30 32 35 39 40
13: 1 2 3 4 5 6 7 8 9 10 11 12 15 16 17 18 20 24 25 27 28 29 30 33 39 40
14: 1 2 3 4 5 6 7 8 9 15 17 18 19 22 24 25 27 28 34 35 37 40
15: 1 2 3 4 5 6 7 8 9 10 11 12 13 14 17 18 20 21 22 29 31 33 34 35 36 37 38
16: 1 2 3 4 37 6 39 40 9 7 13 8 18 20 23 24 25 26 38 30 5
17: 1 2 3 4 5 6 7 8 9 11 12 13 14 15 19 21 24 25 26 30 37 40
18: 1 2 3 4 5 6 7 8 9 10 11 12 13 14 15 16 24 31 32 33 34 35 37 38 39
19: 1 2 3 4 5 6 7 9 11 12 14 17 20 22 23 24 29 30 31 32 33 34 36 38 40
20: 1 2 3 4 5 6 7 11 13 15 16 19 21 23 24 25 28 30 32 36 38 39
21: 32 1 2 3 4 37 6 39 8 9 10 7 15 17 35 20 22 23 24 25 5
22: 1 2 3 4 5 6 7 8 9 10 11 14 15 19 21 25 26 28 35 36 37 40
23: 32 1 2 3 4 37 6 7 8 9 10 11 16 19 20 21 24 26 27 30 5
24: 1 2 3 4 5 6 9 11 13 14 16 17 18 19 20 21 23 26 27 28 30 33 35 39 40
25: 1 2 3 4 5 6 7 8 9 10 12 13 14 16 17 20 21 22 28 31 34 35 36 39
26: 1 2 3 4 5 6 7 8 9 10 11 12 16 17 22 23 24 27 28 29 31 32 34 35 39
27: 1 2 3 4 5 6 7 8 9 10 11 12 13 14 23 24 26 30 31 34 35 36 38 39 40
28: 32 33 2 3 4 5 6 1 9 7 13 14 20 22 24 25 26 29 30
29: 32 1 2 35 4 5 38 7 40 11 12 13 15 6 8 19 26 28 30 3
30: 1 2 3 4 5 8 11 12 13 16 17 19 20 23 24 27 28 29 31 32 35 37
31: 3 1 2 35 4 37 6 40 15 18 19 25 26 27 30 5
32: 1 2 3 4 5 6 7 8 9 10 11 12 18 19 20 21 23 26 28 29 30 33 35 38 39
33: 32 1 2 3 4 5 38 39 40 9 10 11 13 15 8 18 19 24 7 6 28
34: 1 2 3 4 5 6 7 8 9 10 11 14 15 18 19 25 26 27 35 37 39 40
35: 1 2 3 4 5 9 10 11 12 14 15 18 21 22 24 25 26 27 29 30 31 32 34 36 37 38 40
36: 3 1 2 35 4 37 6 7 40 9 10 15 8 19 20 22 25 27 5
37: 1 2 3 4 5 6 7 8 10 11 14 15 16 17 18 21 22 23 30 31 34 35 36 38
38: 32 33 2 35 4 5 6 1 8 10 15 16 18 19 20 27 3 29 37
39: 32 33 34 3 1 7 40 10 2 12 13 16 18 20 21 24 25 26 27 4
40: 2 3 4 5 6 8 9 10 12 13 14 16 17 19 22 24 27 29 31 33 34 35 36 39
-------
1(-1)->2 3 4 5 6 7 8 9 10 11 12 13 14 15 16 17 18 19 20 21 22 23 24 25 26 27 28 29 30 31 32 33 34 35 36 37 38 39 
2(-1)->1 3 4 5 6 7 8 9 10 11 12 13 14 15 16 17 18 19 20 21 22 23 24 25 26 27 28 29 30 31 32 33 34 35 36 37 38 39 40 
3(-1)->1 2 4 5 6 7 8 9 10 11 12 13 14 15 16 17 18 19 20 21 22 23 24 25 26 27 28 29 30 31 32 33 34 35 36 37 38 39 40 
4(-1)->1 2 3 5 6 7 8 9 10 11 12 13 14 15 16 17 18 19 20 21 22 23 24 25 26 27 28 29 30 31 32 33 34 35 36 37 38 39 40 
5(-1)->1 2 3 4 6 7 8 9 10 11 12 13 14 15 16 17 18 19 20 21 22 23 24 25 26 27 28 29 30 31 32 33 34 35 36 37 38 40 
6(-1)->1 2 3 4 5 7 8 9 10 11 12 13 14 15 16 17 18 19 20 21 22 23 24 25 26 27 28 29 31 32 33 34 36 37 38 40 
7(-1)->1 2 3 4 5 6 8 9 10 11 12 13 14 15 16 17 18 19 20 21 22 23 25 26 27 28 29 32 33 34 36 37 39 
8(-1)->1 2 3 4 5 6 7 9 10 11 12 13 14 15 16 17 18 21 22 23 25 26 27 29 30 32 33 34 36 37 38 40 
9(-1)->1 2 3 4 5 6 7 8 10 11 12 13 14 15 16 17 18 19 21 22 23 24 25 26 27 28 32 33 34 35 36 40 
10(-1)->1 2 3 4 5 6 7 8 9 11 12 13 15 18 21 22 23 25 26 27 32 33 34 35 36 37 38 39 40 
11(-1)->1 2 3 4 5 6 7 8 9 10 12 13 15 17 18 19 20 22 23 24 26 27 29 30 32 33 34 35 37 
12(-1)->1 2 3 4 5 6 7 8 9 10 11 13 15 17 18 19 25 26 27 29 30 32 35 39 40 
13(-1)->1 2 3 4 5 6 7 8 9 10 11 12 15 16 17 18 20 24 25 27 28 29 30 33 39 40 
14(-1)->1 2 3 4 5 6 7 8 9 15 17 18 19 22 24 25 27 28 34 35 37 40 
15(-1)->1 2 3 4 5 6 7 8 9 10 11 12 13 14 17 18 20 21 22 29 31 33 34 35 36 37 38 
16(-1)->1 2 3 4 5 6 7 8 9 13 18 20 23 24 25 26 30 37 38 39 40 
17(-1)->1 2 3 4 5 6 7 8 9 11 12 13 14 15 19 21 24 25 26 30 37 40 
18(-1)->1 2 3 4 5 6 7 8 9 10 11 12 13 14 15 16 24 31 32 33 34 35 37 38 39 
19(-1)->1 2 3 4 5 6 7 9 11 12 14 17 20 22 23 24 29 30 31 32 33 34 36 38 40 
20(-1)->1 2 3 4 5 6 7 11 13 15 16 19 21 23 24 25 28 30 32 36 38 39 
21(-1)->1 2 3 4 5 6 7 8 9 10 15 17 20 22 23 24 25 32 35 37 39 
22(-1)->1 2 3 4 5 6 7 8 9 10 11 14 15 19 21 25 26 28 35 36 37 40 
23(-1)->1 2 3 4 5 6 7 8 9 10 11 16 19 20 21 24 26 27 30 32 37 
24(-1)->1 2 3 4 5 6 9 11 13 14 16 17 18 19 20 21 23 26 27 28 30 33 35 39 40 
25(-1)->1 2 3 4 5 6 7 8 9 10 12 13 14 16 17 20 21 22 28 31 34 35 36 39 
26(-1)->1 2 3 4 5 6 7 8 9 10 11 12 16 17 22 23 24 27 28 29 31 32 34 35 39 
27(-1)->1 2 3 4 5 6 7 8 9 10 11 12 13 14 23 24 26 30 31 34 35 36 38 39 40 
28(-1)->1 2 3 4 5 6 7 9 13 14 20 22 24 25 26 29 30 32 33 
29(-1)->1 2 3 4 5 6 7 8 11 12 13 15 19 26 28 30 32 35 38 40 
30(-1)->1 2 3 4 5 8 11 12 13 16 17 19 20 23 24 27 28 29 31 32 35 37 
31(-1)->1 2 3 4 5 6 15 18 19 25 26 27 30 35 37 40 
32(-1)->1 2 3 4 5 6 7 8 9 10 11 12 18 19 20 21 23 26 28 29 30 33 35 38 39 
33(-1)->1 2 3 4 5 6 7 8 9 10 11 13 15 18 19 24 28 32 38 39 40 
34(-1)->1 2 3 4 5 6 7 8 9 10 11 14 15 18 19 25 26 27 35 37 39 40 
35(-1)->1 2 3 4 5 9 10 11 12 14 15 18 21 22 24 25 26 27 29 30 31 32 34 36 37 38 40 
36(-1)->1 2 3 4 5 6 7 8 9 10 15 19 20 22 25 27 35 37 40 
37(-1)->1 2 3 4 5 6 7 8 10 11 14 15 16 17 18 21 22 23 30 31 34 35 36 38 
38(-1)->1 2 3 4 5 6 8 10 15 16 18 19 20 27 29 32 33 35 37 
39(-1)->1 2 3 4 7 10 12 13 16 18 20 21 24 25 26 27 32 33 34 40 
40(-1)->2 3 4 5 6 8 9 10 12 13 14 16 17 19 22 24 27 29 31 33 34 35 36 39 
-------
1(0)->2 3 4 5 6 7 8 9 10 11 12 13 14 15 16 17 18 19 20 21 22 23 24 25 26 27 28 29 30 31 32 33 34 35 36 37 38 39 
2(1)->1 3 4 5 6 7 8 9 10 11 12 13 14 15 16 17 18 19 20 21 22 23 24 25 26 27 28 29 30 31 32 33 34 35 36 37 38 39 40 
3(2)->1 2 4 5 6 7 8 9 10 11 12 13 14 15 16 17 18 19 20 21 22 23 24 25 26 27 28 29 30 31 32 33 34 35 36 37 38 39 40 
4(3)->1 2 3 5 6 7 8 9 10 11 12 13 14 15 16 17 18 19 20 21 22 23 24 25 26 27 28 29 30 31 32 33 34 35 36 37 38 39 40 
5(4)->1 2 3 4 6 7 8 9 10 11 12 13 14 15 16 17 18 19 20 21 22 23 24 25 26 27 28 29 30 31 32 33 34 35 36 37 38 40 
6(5)->1 2 3 4 5 7 8 9 10 11 12 13 14 15 16 17 18 19 20 21 22 23 24 25 26 27 28 29 31 32 33 34 36 37 38 40 
7(6)->1 2 3 4 5 6 8 9 10 11 12 13 14 15 16 17 18 19 20 21 22 23 25 26 27 28 29 32 33 34 36 37 39 
8(7)->1 2 3 4 5 6 7 9 10 11 12 13 14 15 16 17 18 21 22 23 25 26 27 29 30 32 33 34 36 37 38 40 
9(8)->1 2 3 4 5 6 7 8 10 11 12 13 14 15 16 17 18 19 21 22 23 24 25 26 27 28 32 33 34 35 36 40 
10(9)->1 2 3 4 5 6 7 8 9 11 12 13 15 18 21 22 23 25 26 27 32 33 34 35 36 37 38 39 40 
11(10)->1 2 3 4 5 6 7 8 9 10 12 13 15 17 18 19 20 22 23 24 26 27 29 30 32 33 34 35 37 
12(11)->1 2 3 4 5 6 7 8 9 10 11 13 15 17 18 19 25 26 27 29 30 32 35 39 40 
13(12)->1 2 3 4 5 6 7 8 9 10 11 12 15 16 17 18 20 24 25 27 28 29 30 33 39 40 
14(9)->1 2 3 4 5 6 7 8 9 15 17 18 19 22 24 25 27 28 34 35 37 40 
15(13)->1 2 3 4 5 6 7 8 9 10 11 12 13 14 17 18 20 21 22 29 31 33 34 35 36 37 38 
16(9)->1 2 3 4 5 6 7 8 9 13 18 20 23 24 25 26 30 37 38 39 40 
17(14)->1 2 3 4 5 6 7 8 9 11 12 13 14 15 19 21 24 25 26 30 37 40 
18(14)->1 2 3 4 5 6 7 8 9 10 11 12 13 14 15 16 24 31 32 33 34 35 37 38 39 
19(7)->1 2 3 4 5 6 7 9 11 12 14 17 20 22 23 24 29 30 31 32 33 34 36 38 40 
20(8)->1 2 3 4 5 6 7 11 13 15 16 19 21 23 24 25 28 30 32 36 38 39 
21(10)->1 2 3 4 5 6 7 8 9 10 15 17 20 22 23 24 25 32 35 37 39 
22(11)->1 2 3 4 5 6 7 8 9 10 11 14 15 19 21 25 26 28 35 36 37 40 
23(11)->1 2 3 4 5 6 7 8 9 10 11 16 19 20 21 24 26 27 30 32 37 
24(6)->1 2 3 4 5 6 9 11 13 14 16 17 18 19 20 21 23 26 27 28 30 33 35 39 40 
25(13)->1 2 3 4 5 6 7 8 9 10 12 13 14 16 17 20 21 22 28 31 34 35 36 39 
26(12)->1 2 3 4 5 6 7 8 9 10 11 12 16 17 22 23 24 27 28 29 31 32 34 35 39 
27(13)->1 2 3 4 5 6 7 8 9 10 11 12 13 14 23 24 26 30 31 34 35 36 38 39 40 
28(7)->1 2 3 4 5 6 7 9 13 14 20 22 24 25 26 29 30 32 33 
29(8)->1 2 3 4 5 6 7 8 11 12 13 15 19 26 28 30 32 35 38 40 
30(5)->1 2 3 4 5 8 11 12 13 16 17 19 20 23 24 27 28 29 31 32 35 37 
31(6)->1 2 3 4 5 6 15 18 19 25 26 27 30 35 37 40 
32(13)->1 2 3 4 5 6 7 8 9 10 11 12 18 19 20 21 23 26 28 29 30 33 35 38 39 
33(11)->1 2 3 4 5 6 7 8 9 10 11 13 15 18 19 24 28 32 38 39 40 
34(11)->1 2 3 4 5 6 7 8 9 10 11 14 15 18 19 25 26 27 35 37 39 40 
35(7)->1 2 3 4 5 9 10 11 12 14 15 18 21 22 24 25 26 27 29 30 31 32 34 36 37 38 40 
36(10)->1 2 3 4 5 6 7 8 9 10 15 19 20 22 25 27 35 37 40 
37(8)->1 2 3 4 5 6 7 8 10 11 14 15 16 17 18 21 22 23 30 31 34 35 36 38 
38(6)->1 2 3 4 5 6 8 10 15 16 18 19 20 27 29 32 33 35 37 
39(4)->1 2 3 4 7 10 12 13 16 18 20 21 24 25 26 27 32 33 34 40 
40(0)->2 3 4 5 6 8 9 10 12 13 14 16 17 19 22 24 27 29 31 33 34 35 36 39 
COUNT: 0
BEST COST: 15
15
15
