1: 2 3 4 5 6 7 8 9 10 11 12 13 14 15 16 17 18 19 20 21 22 23 24 25 26 27 28 29 30 31 32 33 34 35 36 37 38 39
2: 1 3 4 5 6 7 8 9 10 11 12 13 14 15 16 17 18 19 20 21 22 23 24 25 26 27 28 29 30 31 32 33 34 35 36 37 38 39 40
3: 1 2 4 5 6 7 8 9 10 11 12 13 14 15 16 17 18 19 20 21 22 23 24 25 26 27 28 29 30 31 32 33 34 35 36 37 38 39
4: 1 2 3 5 6 7 8 9 10 11 12 13 14 15 16 17 18 19 20 21 22 23 24 25 26 27 28 29 30 31 32 33 34 35 36 37 38 39
5: 1 2 3 4 6 7 8 9 10 11 12 13 14 15 16 17 18 19 20 21 22 23 24 25 26 27 28 29 30 31 32 33 34 35 36 38 39
6: 1 2 3 4 5 7 8 9 10 11 12 13 14 15 16 17 18 19 20 21 22 23 24 25 26 27 28 29 30 31 32 33 34 35 36 37 38 39 40
7: 1 2 3 4 5 6 8 9 10 11 12 13 14 15 17 18 19 20 22 24 25 26 27 28 29 30 31 32 33 35 37 38 39
8: 1 2 3 4 5 6 7 9 10 11 12 13 14 15 16 17 18 19 20 22 23 24 25 26 29 31 33 34 36 37 38 40
9: 1 2 3 4 5 6 7 8 10 11 12 13 14 15 22 23 24 29 33 34 37 38
10: 1 2 3 4 5 6 7 8 9 11 12 13 14 15 17 19 21 22 24 25 29 33 34 35 39 40
11: 1 2 3 4 5 6 7 8 9 10 12 13 14 16 17 19 20 22 24 27 31 32 35 40
12: 1 2 3 4 5 6 7 8 9 10 11 13 14 15 16 18 19 20 22 23 24 28 29 30 31 34 38 39 40
13: 1 2 3 4 5 6 7 8 9 10 11 12 14 15 16 17 18 19 21 22 24 25 26 31 35 38 39
14: 1 2 3 4 5 6 7 8 9 10 11 12 13 15 17 18 20 25 26 27 28 29 30 33 40
15: 1 2 3 4 5 6 7 8 9 10 12 13 14 16 17 18 19 20 21 22 24 25 26 28 29 30 31 34 35 37 38 39
16: 1 2 3 4 5 6 8 11 12 13 15 17 20 21 29 31 32 33 34 36 38 39 40
17: 1 2 3 4 5 6 7 8 10 11 13 14 15 16 18 19 21 22 24 26 28 30 31 32 35 38 39 40
18: 1 2 3 4 5 6 7 8 12 13 14 15 17 20 22 26 29 34 35 36 38 39
19: 1 2 3 4 5 6 7 8 10 11 12 13 15 17 20 21 22 26 31 32 33 34 35 36 37 40
20: 1 2 3 4 5 6 7 8 11 12 14 15 16 18 19 24 26 27 29 31 32 34 35 38 39
21: 1 2 3 4 37 38 40 15 10 34 13 16 17 19 6 26 27 5 30 31
22: 1 2 3 4 5 6 7 8 9 10 11 12 13 15 17 18 19 23 28 30 31 33 38 39
23: 32 33 34 3 1 37 6 39 8 9 12 2 22 4 24 25 30 5
24: 1 2 3 4 5 6 7 8 9 10 11 12 13 15 17 20 23 26 28 31 34 36 37 38 39
25: 32 1 2 35 4 33 38 7 8 10 13 14 15 6 3 23 26 29 30 5
26: 1 2 3 4 5 6 7 8 13 14 15 17 18 19 20 21 24 25 27 28 33 34 35 36 40
27: 32 33 34 3 36 5 38 7 1 11 2 14 6 20 21 39 26 4
28: 1 2 3 4 37 38 39 40 7 12 14 15 17 26 22 24 6 31 29 5
29: 1 2 3 4 5 6 7 8 9 10 12 14 15 16 18 20 25 28 30 36 37 38 40
30: 1 2 3 4 5 6 7 12 14 15 17 21 22 23 25 29 32 33 34 36 38 39
31: 1 2 3 4 5 6 7 8 11 12 13 15 16 17 19 20 21 22 24 28 32 35
32: 1 2 3 36 4 6 7 40 11 16 17 19 20 23 25 27 5 30 31
33: 1 2 3 4 5 6 7 8 9 10 14 16 19 22 23 25 26 27 30 34 36 37 38
34: 1 2 3 4 5 6 8 9 10 12 15 16 18 19 20 21 23 24 26 27 30 33 35 38 39
35: 1 2 3 4 5 6 7 10 11 13 15 17 18 19 20 25 26 31 34 36 39 40
36: 32 33 2 35 4 37 6 39 40 16 8 18 19 1 24 26 27 3 29 30 5
37: 33 2 3 36 6 38 7 40 9 1 15 8 19 21 23 24 4 28 29
38: 1 2 3 4 5 6 7 8 9 12 13 15 16 17 18 20 21 22 24 25 27 28 29 30 33 34 37 40
39: 1 2 3 4 5 6 7 10 12 13 15 16 17 18 20 22 23 24 27 28 30 34 35 36
40: 32 2 35 36 37 6 8 10 11 12 14 16 17 19 21 26 38 28 29
-------
1(-1)->2 3 4 5 6 7 8 9 10 11 12 13 14 15 16 17 18 19 20 21 22 23 24 25 26 27 28 29 30 31 32 33 34 35 36 37 38 39 
2(-1)->1 3 4 5 6 7 8 9 10 11 12 13 14 15 16 17 18 19 20 21 22 23 24 25 26 27 28 29 30 31 32 33 34 35 36 37 38 39 40 
3(-1)->1 2 4 5 6 7 8 9 10 11 12 13 14 15 16 17 18 19 20 21 22 23 24 25 26 27 28 29 30 31 32 33 34 35 36 37 38 39 
4(-1)->1 2 3 5 6 7 8 9 10 11 12 13 14 15 16 17 18 19 20 21 22 23 24 25 26 27 28 29 30 31 32 33 34 35 36 37 38 39 
5(-1)->1 2 3 4 6 7 8 9 10 11 12 13 14 15 16 17 18 19 20 21 22 23 24 25 26 27 28 29 30 31 32 33 34 35 36 38 39 
6(-1)->1 2 3 4 5 7 8 9 10 11 12 13 14 15 16 17 18 19 20 21 22 23 24 25 26 27 28 29 30 31 32 33 34 35 36 37 38 39 40 
7(-1)->1 2 3 4 5 6 8 9 10 11 12 13 14 15 17 18 19 20 22 24 25 26 27 28 29 30 31 32 33 35 37 38 39 
8(-1)->1 2 3 4 5 6 7 9 10 11 12 13 14 15 16 17 18 19 20 22 23 24 25 26 29 31 33 34 36 37 38 40 
9(-1)->1 2 3 4 5 6 7 8 10 11 12 13 14 15 22 23 24 29 33 34 37 38 
10(-1)->1 2 3 4 5 6 7 8 9 11 12 13 14 15 17 19 21 22 24 25 29 33 34 35 39 40 
11(-1)->1 2 3 4 5 6 7 8 9 10 12 13 14 16 17 19 20 22 24 27 31 32 35 40 
12(-1)->1 2 3 4 5 6 7 8 9 10 11 13 14 15 16 18 19 20 22 23 24 28 29 30 31 34 38 39 40 
13(-1)->1 2 3 4 5 6 7 8 9 10 11 12 14 15 16 17 18 19 21 22 24 25 26 31 35 38 39 
14(-1)->1 2 3 4 5 6 7 8 9 10 11 12 13 15 17 18 20 25 26 27 28 29 30 33 40 
15(-1)->1 2 3 4 5 6 7 8 9 10 12 13 14 16 17 18 19 20 21 22 24 25 26 28 29 30 31 34 35 37 38 39 
16(-1)->1 2 3 4 5 6 8 11 12 13 15 17 20 21 29 31 32 33 34 36 38 39 40 
17(-1)->1 2 3 4 5 6 7 8 10 11 13 14 15 16 18 19 21 22 24 26 28 30 31 32 35 38 39 40 
18(-1)->1 2 3 4 5 6 7 8 12 13 14 15 17 20 22 26 29 34 35 36 38 39 
19(-1)->1 2 3 4 5 6 7 8 10 11 12 13 15 17 20 21 22 26 31 32 33 34 35 36 37 40 
20(-1)->1 2 3 4 5 6 7 8 11 12 14 15 16 18 19 24 26 27 29 31 32 34 35 38 39 
21(-1)->1 2 3 4 5 6 10 13 15 16 17 19 26 27 30 31 34 37 38 40 
22(-1)->1 2 3 4 5 6 7 8 9 10 11 12 13 15 17 18 19 23 28 30 31 33 38 39 
23(-1)->1 2 3 4 5 6 8 9 12 22 24 25 30 32 33 34 37 39 
24(-1)->1 2 3 4 5 6 7 8 9 10 11 12 13 15 17 20 23 26 28 31 34 36 37 38 39 
25(-1)->1 2 3 4 5 6 7 8 10 13 14 15 23 26 29 30 32 33 35 38 
26(-1)->1 2 3 4 5 6 7 8 13 14 15 17 18 19 20 21 24 25 27 28 33 34 35 36 40 
27(-1)->1 2 3 4 5 6 7 11 14 20 21 26 32 33 34 36 38 39 
28(-1)->1 2 3 4 5 6 7 12 14 15 17 22 24 26 29 31 37 38 39 40 
29(-1)->1 2 3 4 5 6 7 8 9 10 12 14 15 16 18 20 25 28 30 36 37 38 40 
30(-1)->1 2 3 4 5 6 7 12 14 15 17 21 22 23 25 29 32 33 34 36 38 39 
31(-1)->1 2 3 4 5 6 7 8 11 12 13 15 16 17 19 20 21 22 24 28 32 35 
32(-1)->1 2 3 4 5 6 7 11 16 17 19 20 23 25 27 30 31 36 40 
33(-1)->1 2 3 4 5 6 7 8 9 10 14 16 19 22 23 25 26 27 30 34 36 37 38 
34(-1)->1 2 3 4 5 6 8 9 10 12 15 16 18 19 20 21 23 24 26 27 30 33 35 38 39 
35(-1)->1 2 3 4 5 6 7 10 11 13 15 17 18 19 20 25 26 31 34 36 39 40 
36(-1)->1 2 3 4 5 6 8 16 18 19 24 26 27 29 30 32 33 35 37 39 40 
37(-1)->1 2 3 4 6 7 8 9 15 19 21 23 24 28 29 33 36 38 40 
38(-1)->1 2 3 4 5 6 7 8 9 12 13 15 16 17 18 20 21 22 24 25 27 28 29 30 33 34 37 40 
39(-1)->1 2 3 4 5 6 7 10 12 13 15 16 17 18 20 22 23 24 27 28 30 34 35 36 
40(-1)->2 6 8 10 11 12 14 16 17 19 21 26 28 29 32 35 36 37 38 
-------
1(0)->2 3 4 5 6 7 8 9 10 11 12 13 14 15 16 17 18 19 20 21 22 23 24 25 26 27 28 29 30 31 32 33 34 35 36 37 38 39 
2(1)->1 3 4 5 6 7 8 9 10 11 12 13 14 15 16 17 18 19 20 21 22 23 24 25 26 27 28 29 30 31 32 33 34 35 36 37 38 39 40 
3(2)->1 2 4 5 6 7 8 9 10 11 12 13 14 15 16 17 18 19 20 21 22 23 24 25 26 27 28 29 30 31 32 33 34 35 36 37 38 39 
4(3)->1 2 3 5 6 7 8 9 10 11 12 13 14 15 16 17 18 19 20 21 22 23 24 25 26 27 28 29 30 31 32 33 34 35 36 37 38 39 
5(4)->1 2 3 4 6 7 8 9 10 11 12 13 14 15 16 17 18 19 20 21 22 23 24 25 26 27 28 29 30 31 32 33 34 35 36 38 39 
6(5)->1 2 3 4 5 7 8 9 10 11 12 13 14 15 16 17 18 19 20 21 22 23 24 25 26 27 28 29 30 31 32 33 34 35 36 37 38 39 40 
7(6)->1 2 3 4 5 6 8 9 10 11 12 13 14 15 17 18 19 20 22 24 25 26 27 28 29 30 31 32 33 35 37 38 39 
8(7)->1 2 3 4 5 6 7 9 10 11 12 13 14 15 16 17 18 19 20 22 23 24 25 26 29 31 33 34 36 37 38 40 
9(8)->1 2 3 4 5 6 7 8 10 11 12 13 14 15 22 23 24 29 33 34 37 38 
10(9)->1 2 3 4 5 6 7 8 9 11 12 13 14 15 17 19 21 22 24 25 29 33 34 35 39 40 
11(10)->1 2 3 4 5 6 7 8 9 10 12 13 14 16 17 19 20 22 24 27 31 32 35 40 
12(11)->1 2 3 4 5 6 7 8 9 10 11 13 14 15 16 18 19 20 22 23 24 28 29 30 31 34 38 39 40 
13(12)->1 2 3 4 5 6 7 8 9 10 11 12 14 15 16 17 18 19 21 22 24 25 26 31 35 38 39 
14(13)->1 2 3 4 5 6 7 8 9 10 11 12 13 15 17 18 20 25 26 27 28 29 30 33 40 
15(10)->1 2 3 4 5 6 7 8 9 10 12 13 14 16 17 18 19 20 21 22 24 25 26 28 29 30 31 34 35 37 38 39 
16(6)->1 2 3 4 5 6 8 11 12 13 15 17 20 21 29 31 32 33 34 36 38 39 40 
17(8)->1 2 3 4 5 6 7 8 10 11 13 14 15 16 18 19 21 22 24 26 28 30 31 32 35 38 39 40 
18(9)->1 2 3 4 5 6 7 8 12 13 14 15 17 20 22 26 29 34 35 36 38 39 
19(13)->1 2 3 4 5 6 7 8 10 11 12 13 15 17 20 21 22 26 31 32 33 34 35 36 37 40 
20(8)->1 2 3 4 5 6 7 8 11 12 14 15 16 18 19 24 26 27 29 31 32 34 35 38 39 
21(7)->1 2 3 4 5 6 10 13 15 16 17 19 26 27 30 31 34 37 38 40 
22(14)->1 2 3 4 5 6 7 8 9 10 11 12 13 15 17 18 19 23 28 30 31 33 38 39 
23(6)->1 2 3 4 5 6 8 9 12 22 24 25 30 32 33 34 37 39 
24(13)->1 2 3 4 5 6 7 8 9 10 11 12 13 15 17 20 23 26 28 31 34 36 37 38 39 
25(8)->1 2 3 4 5 6 7 8 10 13 14 15 23 26 29 30 32 33 35 38 
26(11)->1 2 3 4 5 6 7 8 13 14 15 17 18 19 20 21 24 25 27 28 33 34 35 36 40 
27(9)->1 2 3 4 5 6 7 11 14 20 21 26 32 33 34 36 38 39 
28(7)->1 2 3 4 5 6 7 12 14 15 17 22 24 26 29 31 37 38 39 40 
29(12)->1 2 3 4 5 6 7 8 9 10 12 14 15 16 18 20 25 28 30 36 37 38 40 
30(9)->1 2 3 4 5 6 7 12 14 15 17 21 22 23 25 29 32 33 34 36 38 39 
31(9)->1 2 3 4 5 6 7 8 11 12 13 15 16 17 19 20 21 22 24 28 32 35 
32(7)->1 2 3 4 5 6 7 11 16 17 19 20 23 25 27 30 31 36 40 
33(10)->1 2 3 4 5 6 7 8 9 10 14 16 19 22 23 25 26 27 30 34 36 37 38 
34(12)->1 2 3 4 5 6 8 9 10 12 15 16 18 19 20 21 23 24 26 27 30 33 35 38 39 
35(7)->1 2 3 4 5 6 7 10 11 13 15 17 18 19 20 25 26 31 34 36 39 40 
36(8)->1 2 3 4 5 6 8 16 18 19 24 26 27 29 30 32 33 35 37 39 40 
37(4)->1 2 3 4 6 7 8 9 15 19 21 23 24 28 29 33 36 38 40 
38(15)->1 2 3 4 5 6 7 8 9 12 13 15 16 17 18 20 21 22 24 25 27 28 29 30 33 34 37 40 
39(15)->1 2 3 4 5 6 7 10 12 13 15 16 17 18 20 22 23 24 27 28 30 34 35 36 
40(0)->2 6 8 10 11 12 14 16 17 19 21 26 28 29 32 35 36 37 38 
COUNT: 0
BEST COST: 16
16
16
