1: 2 3 4 5 6 7 8 9 10 11 12 13 14 15 16 17 18 19 20 21 22 23 24 25 26 27 28 29 30 31 32 33 34 35 36 37 38 39 40
2: 1 3 4 5 6 7 8 9 10 11 12 13 14 15 16 17 18 19 20 21 22 23 24 25 26 27 28 29 30 31 32 33 34 35 36 37 38 39 40
3: 1 2 4 5 6 7 8 9 10 11 12 13 14 15 16 17 18 19 20 21 22 23 24 25 26 27 28 29 30 31 32 33 34 35 36 37 38 39 40
4: 1 2 3 5 6 7 8 9 10 11 12 13 14 15 16 17 18 19 20 21 22 23 24 25 26 27 28 29 30 31 32 33 34 35 36 37 38 39 40
5: 1 2 3 4 6 7 8 9 10 11 12 13 14 15 16 17 18 19 20 21 22 23 24 25 26 27 28 29 30 31 32 33 34 35 36 37 38 39
6: 1 2 3 4 5 7 8 9 10 11 12 13 14 15 16 17 18 19 20 21 22 23 24 25 26 27 28 29 30 31 32 33 34 35 36 37 38 39 40
7: 1 2 3 4 5 6 8 9 10 11 12 13 14 15 16 17 18 19 20 21 22 23 24 25 26 27 28 29 30 31 32 33 34 35 36 37 38 39 40
8: 1 2 3 4 5 6 7 9 10 11 12 13 14 15 16 17 18 19 20 21 22 23 24 25 26 27 28 29 31 32 33 34 35 36 37 38 39 40
9: 1 2 3 4 5 6 7 8 10 11 12 13 14 15 16 17 18 19 20 21 22 23 24 25 26 27 28 30 31 32 33 34 35 36 38 39
10: 1 2 3 4 5 6 7 8 9 11 12 13 14 15 16 17 18 19 20 22 23 24 25 26 27 28 31 32 33 34 35 36 39 40
11: 1 2 3 4 5 6 7 8 9 10 12 13 14 15 16 17 18 19 20 21 22 23 24 25 26 27 28 29 35 36 37 38 39
12: 1 2 3 4 5 6 7 8 9 10 11 13 14 15 16 17 18 19 20 21 22 23 24 25 26 27 28 29 30 33 35 36 37 38 39
13: 1 2 3 4 5 6 7 8 9 10 11 12 14 15 16 17 18 19 20 21 22 23 25 26 27 29 32 34 35 36 37 38 39
14: 1 2 3 4 5 6 7 8 9 10 11 12 13 15 16 17 19 20 21 22 23 25 26 27 28 31 34 35 36 37 39 40
15: 1 2 3 4 5 6 7 8 9 10 11 12 13 14 16 17 18 19 20 21 22 23 24 25 26 27 29 30 31 32 34 35 36 37 39 40
16: 1 2 3 4 5 6 7 8 9 10 11 12 13 14 15 17 18 19 20 22 24 25 26 27 28 34 35 36 37 39
17: 1 2 3 4 5 6 7 8 9 10 11 12 13 14 15 16 18 19 21 22 24 30 31 32 34 35 36 38 39 40
18: 1 2 3 4 5 6 7 8 9 10 11 12 13 15 16 17 19 22 24 26 29 30 33 35 36 38 40
19: 1 2 3 4 5 6 7 8 9 10 11 12 13 14 15 16 17 18 21 22 31 35 36 37 40
20: 1 2 3 4 5 6 7 8 9 10 11 12 13 14 15 16 21 22 24 25 27 29 33 34 35 36 38 40
21: 1 2 3 4 5 6 7 8 9 11 12 13 14 15 17 19 20 22 26 27 31 32 36
22: 1 2 3 4 5 6 7 8 9 10 11 12 13 14 15 16 17 18 19 20 21 24 25 28 33 35 37 39
23: 1 2 3 4 5 6 7 8 9 10 11 12 13 14 15 26 27 28 29 30 31 36 37 38
24: 1 2 3 4 5 6 7 8 9 10 11 12 15 16 17 18 20 22 25 29 34 36
25: 1 2 3 4 5 6 7 8 9 10 11 12 13 14 15 16 20 22 24 27 28 31 32 33 34 35 37
26: 1 2 3 4 5 6 7 8 9 10 11 12 13 14 15 16 18 21 23 27 32 33 34 35 36 40
27: 1 2 3 4 5 6 7 8 9 10 11 12 13 14 15 16 20 21 23 25 26 28 30 34 35 36 37 39
28: 1 2 3 4 5 6 7 8 9 10 11 12 14 16 22 23 25 27 30 31 35 37 39
29: 1 2 3 4 5 6 7 8 11 12 13 15 18 20 23 24 30 31 32 34 36 37 40
30: 1 2 3 4 5 6 7 9 12 15 17 18 23 27 28 29 31 32 33 35 36 38 39 40
31: 1 2 3 4 5 6 7 8 9 10 14 15 17 19 21 23 25 28 29 30 32 34 35 36 39 40
32: 1 2 3 4 5 6 7 8 9 10 13 15 17 21 25 26 29 30 31 33 35 36 37 38 39
33: 32 1 34 3 36 37 6 7 8 9 10 12 2 18 20 22 4 25 26 30 5
34: 1 2 3 4 5 6 7 8 9 10 13 14 15 16 17 20 24 25 26 27 29 31 33 35 36 38 39 40
35: 1 2 3 4 5 6 7 8 9 10 11 12 13 14 15 16 17 18 19 20 22 25 26 27 28 30 31 32 34 36 38
36: 1 2 3 4 5 6 7 8 9 10 11 12 13 14 15 16 17 18 19 20 21 23 24 26 27 29 30 31 32 33 34 35 37 39 40
37: 1 2 3 4 5 6 7 8 11 12 13 14 15 16 19 22 23 25 27 28 29 32 33 36 38 40
38: 1 2 3 4 5 6 7 8 9 11 12 13 17 18 20 23 30 32 34 35 37 40
39: 1 2 3 4 5 6 7 8 9 10 11 12 13 14 15 16 17 22 27 28 30 31 32 34 36 40
40: 1 2 3 4 6 7 8 10 14 15 17 18 19 20 26 29 30 31 34 36 37 38 39
-------
1(-1)->2 3 4 5 6 7 8 9 10 11 12 13 14 15 16 17 18 19 20 21 22 23 24 25 26 27 28 29 30 31 32 33 34 35 36 37 38 39 40 
2(-1)->1 3 4 5 6 7 8 9 10 11 12 13 14 15 16 17 18 19 20 21 22 23 24 25 26 27 28 29 30 31 32 33 34 35 36 37 38 39 40 
3(-1)->1 2 4 5 6 7 8 9 10 11 12 13 14 15 16 17 18 19 20 21 22 23 24 25 26 27 28 29 30 31 32 33 34 35 36 37 38 39 40 
4(-1)->1 2 3 5 6 7 8 9 10 11 12 13 14 15 16 17 18 19 20 21 22 23 24 25 26 27 28 29 30 31 32 33 34 35 36 37 38 39 40 
5(-1)->1 2 3 4 6 7 8 9 10 11 12 13 14 15 16 17 18 19 20 21 22 23 24 25 26 27 28 29 30 31 32 33 34 35 36 37 38 39 
6(-1)->1 2 3 4 5 7 8 9 10 11 12 13 14 15 16 17 18 19 20 21 22 23 24 25 26 27 28 29 30 31 32 33 34 35 36 37 38 39 40 
7(-1)->1 2 3 4 5 6 8 9 10 11 12 13 14 15 16 17 18 19 20 21 22 23 24 25 26 27 28 29 30 31 32 33 34 35 36 37 38 39 40 
8(-1)->1 2 3 4 5 6 7 9 10 11 12 13 14 15 16 17 18 19 20 21 22 23 24 25 26 27 28 29 31 32 33 34 35 36 37 38 39 40 
9(-1)->1 2 3 4 5 6 7 8 10 11 12 13 14 15 16 17 18 19 20 21 22 23 24 25 26 27 28 30 31 32 33 34 35 36 38 39 
10(-1)->1 2 3 4 5 6 7 8 9 11 12 13 14 15 16 17 18 19 20 22 23 24 25 26 27 28 31 32 33 34 35 36 39 40 
11(-1)->1 2 3 4 5 6 7 8 9 10 12 13 14 15 16 17 18 19 20 21 22 23 24 25 26 27 28 29 35 36 37 38 39 
12(-1)->1 2 3 4 5 6 7 8 9 10 11 13 14 15 16 17 18 19 20 21 22 23 24 25 26 27 28 29 30 33 35 36 37 38 39 
13(-1)->1 2 3 4 5 6 7 8 9 10 11 12 14 15 16 17 18 19 20 21 22 23 25 26 27 29 32 34 35 36 37 38 39 
14(-1)->1 2 3 4 5 6 7 8 9 10 11 12 13 15 16 17 19 20 21 22 23 25 26 27 28 31 34 35 36 37 39 40 
15(-1)->1 2 3 4 5 6 7 8 9 10 11 12 13 14 16 17 18 19 20 21 22 23 24 25 26 27 29 30 31 32 34 35 36 37 39 40 
16(-1)->1 2 3 4 5 6 7 8 9 10 11 12 13 14 15 17 18 19 20 22 24 25 26 27 28 34 35 36 37 39 
17(-1)->1 2 3 4 5 6 7 8 9 10 11 12 13 14 15 16 18 19 21 22 24 30 31 32 34 35 36 38 39 40 
18(-1)->1 2 3 4 5 6 7 8 9 10 11 12 13 15 16 17 19 22 24 26 29 30 33 35 36 38 40 
19(-1)->1 2 3 4 5 6 7 8 9 10 11 12 13 14 15 16 17 18 21 22 31 35 36 37 40 
20(-1)->1 2 3 4 5 6 7 8 9 10 11 12 13 14 15 16 21 22 24 25 27 29 33 34 35 36 38 40 
21(-1)->1 2 3 4 5 6 7 8 9 11 12 13 14 15 17 19 20 22 26 27 31 32 36 
22(-1)->1 2 3 4 5 6 7 8 9 10 11 12 13 14 15 16 17 18 19 20 21 24 25 28 33 35 37 39 
23(-1)->1 2 3 4 5 6 7 8 9 10 11 12 13 14 15 26 27 28 29 30 31 36 37 38 
24(-1)->1 2 3 4 5 6 7 8 9 10 11 12 15 16 17 18 20 22 25 29 34 36 
25(-1)->1 2 3 4 5 6 7 8 9 10 11 12 13 14 15 16 20 22 24 27 28 31 32 33 34 35 37 
26(-1)->1 2 3 4 5 6 7 8 9 10 11 12 13 14 15 16 18 21 23 27 32 33 34 35 36 40 
27(-1)->1 2 3 4 5 6 7 8 9 10 11 12 13 14 15 16 20 21 23 25 26 28 30 34 35 36 37 39 
28(-1)->1 2 3 4 5 6 7 8 9 10 11 12 14 16 22 23 25 27 30 31 35 37 39 
29(-1)->1 2 3 4 5 6 7 8 11 12 13 15 18 20 23 24 30 31 32 34 36 37 40 
30(-1)->1 2 3 4 5 6 7 9 12 15 17 18 23 27 28 29 31 32 33 35 36 38 39 40 
31(-1)->1 2 3 4 5 6 7 8 9 10 14 15 17 19 21 23 25 28 29 30 32 34 35 36 39 40 
32(-1)->1 2 3 4 5 6 7 8 9 10 13 15 17 21 25 26 29 30 31 33 35 36 37 38 39 
33(-1)->1 2 3 4 5 6 7 8 9 10 12 18 20 22 25 26 30 32 34 36 37 
34(-1)->1 2 3 4 5 6 7 8 9 10 13 14 15 16 17 20 24 25 26 27 29 31 33 35 36 38 39 40 
35(-1)->1 2 3 4 5 6 7 8 9 10 11 12 13 14 15 16 17 18 19 20 22 25 26 27 28 30 31 32 34 36 38 
36(-1)->1 2 3 4 5 6 7 8 9 10 11 12 13 14 15 16 17 18 19 20 21 23 24 26 27 29 30 31 32 33 34 35 37 39 40 
37(-1)->1 2 3 4 5 6 7 8 11 12 13 14 15 16 19 22 23 25 27 28 29 32 33 36 38 40 
38(-1)->1 2 3 4 5 6 7 8 9 11 12 13 17 18 20 23 30 32 34 35 37 40 
39(-1)->1 2 3 4 5 6 7 8 9 10 11 12 13 14 15 16 17 22 27 28 30 31 32 34 36 40 
40(-1)->1 2 3 4 6 7 8 10 14 15 17 18 19 20 26 29 30 31 34 36 37 38 39 
-------
1(0)->2 3 4 5 6 7 8 9 10 11 12 13 14 15 16 17 18 19 20 21 22 23 24 25 26 27 28 29 30 31 32 33 34 35 36 37 38 39 40 
2(1)->1 3 4 5 6 7 8 9 10 11 12 13 14 15 16 17 18 19 20 21 22 23 24 25 26 27 28 29 30 31 32 33 34 35 36 37 38 39 40 
3(2)->1 2 4 5 6 7 8 9 10 11 12 13 14 15 16 17 18 19 20 21 22 23 24 25 26 27 28 29 30 31 32 33 34 35 36 37 38 39 40 
4(3)->1 2 3 5 6 7 8 9 10 11 12 13 14 15 16 17 18 19 20 21 22 23 24 25 26 27 28 29 30 31 32 33 34 35 36 37 38 39 40 
5(4)->1 2 3 4 6 7 8 9 10 11 12 13 14 15 16 17 18 19 20 21 22 23 24 25 26 27 28 29 30 31 32 33 34 35 36 37 38 39 
6(5)->1 2 3 4 5 7 8 9 10 11 12 13 14 15 16 17 18 19 20 21 22 23 24 25 26 27 28 29 30 31 32 33 34 35 36 37 38 39 40 
7(6)->1 2 3 4 5 6 8 9 10 11 12 13 14 15 16 17 18 19 20 21 22 23 24 25 26 27 28 29 30 31 32 33 34 35 36 37 38 39 40 
8(7)->1 2 3 4 5 6 7 9 10 11 12 13 14 15 16 17 18 19 20 21 22 23 24 25 26 27 28 29 31 32 33 34 35 36 37 38 39 40 
9(8)->1 2 3 4 5 6 7 8 10 11 12 13 14 15 16 17 18 19 20 21 22 23 24 25 26 27 28 30 31 32 33 34 35 36 38 39 
10(9)->1 2 3 4 5 6 7 8 9 11 12 13 14 15 16 17 18 19 20 22 23 24 25 26 27 28 31 32 33 34 35 36 39 40 
11(10)->1 2 3 4 5 6 7 8 9 10 12 13 14 15 16 17 18 19 20 21 22 23 24 25 26 27 28 29 35 36 37 38 39 
12(11)->1 2 3 4 5 6 7 8 9 10 11 13 14 15 16 17 18 19 20 21 22 23 24 25 26 27 28 29 30 33 35 36 37 38 39 
13(12)->1 2 3 4 5 6 7 8 9 10 11 12 14 15 16 17 18 19 20 21 22 23 25 26 27 29 32 34 35 36 37 38 39 
14(13)->1 2 3 4 5 6 7 8 9 10 11 12 13 15 16 17 19 20 21 22 23 25 26 27 28 31 34 35 36 37 39 40 
15(14)->1 2 3 4 5 6 7 8 9 10 11 12 13 14 16 17 18 19 20 21 22 23 24 25 26 27 29 30 31 32 34 35 36 37 39 40 
16(15)->1 2 3 4 5 6 7 8 9 10 11 12 13 14 15 17 18 19 20 22 24 25 26 27 28 34 35 36 37 39 
17(16)->1 2 3 4 5 6 7 8 9 10 11 12 13 14 15 16 18 19 21 22 24 30 31 32 34 35 36 38 39 40 
18(13)->1 2 3 4 5 6 7 8 9 10 11 12 13 15 16 17 19 22 24 26 29 30 33 35 36 38 40 
19(17)->1 2 3 4 5 6 7 8 9 10 11 12 13 14 15 16 17 18 21 22 31 35 36 37 40 
20(16)->1 2 3 4 5 6 7 8 9 10 11 12 13 14 15 16 21 22 24 25 27 29 33 34 35 36 38 40 
21(9)->1 2 3 4 5 6 7 8 9 11 12 13 14 15 17 19 20 22 26 27 31 32 36 
22(18)->1 2 3 4 5 6 7 8 9 10 11 12 13 14 15 16 17 18 19 20 21 24 25 28 33 35 37 39 
23(15)->1 2 3 4 5 6 7 8 9 10 11 12 13 14 15 26 27 28 29 30 31 36 37 38 
24(12)->1 2 3 4 5 6 7 8 9 10 11 12 15 16 17 18 20 22 25 29 34 36 
25(17)->1 2 3 4 5 6 7 8 9 10 11 12 13 14 15 16 20 22 24 27 28 31 32 33 34 35 37 
26(16)->1 2 3 4 5 6 7 8 9 10 11 12 13 14 15 16 18 21 23 27 32 33 34 35 36 40 
27(18)->1 2 3 4 5 6 7 8 9 10 11 12 13 14 15 16 20 21 23 25 26 28 30 34 35 36 37 39 
28(12)->1 2 3 4 5 6 7 8 9 10 11 12 14 16 22 23 25 27 30 31 35 37 39 
29(8)->1 2 3 4 5 6 7 8 11 12 13 15 18 20 23 24 30 31 32 34 36 37 40 
30(7)->1 2 3 4 5 6 7 9 12 15 17 18 23 27 28 29 31 32 33 35 36 38 39 40 
31(10)->1 2 3 4 5 6 7 8 9 10 14 15 17 19 21 23 25 28 29 30 32 34 35 36 39 40 
32(11)->1 2 3 4 5 6 7 8 9 10 13 15 17 21 25 26 29 30 31 33 35 36 37 38 39 
33(10)->1 2 3 4 5 6 7 8 9 10 12 18 20 22 25 26 30 32 34 36 37 
34(11)->1 2 3 4 5 6 7 8 9 10 13 14 15 16 17 20 24 25 26 27 29 31 33 35 36 38 39 40 
35(19)->1 2 3 4 5 6 7 8 9 10 11 12 13 14 15 16 17 18 19 20 22 25 26 27 28 30 31 32 34 36 38 
36(20)->1 2 3 4 5 6 7 8 9 10 11 12 13 14 15 16 17 18 19 20 21 23 24 26 27 29 30 31 32 33 34 35 37 39 40 
37(9)->1 2 3 4 5 6 7 8 11 12 13 14 15 16 19 22 23 25 27 28 29 32 33 36 38 40 
38(14)->1 2 3 4 5 6 7 8 9 11 12 13 17 18 20 23 30 32 34 35 37 40 
39(17)->1 2 3 4 5 6 7 8 9 10 11 12 13 14 15 16 17 22 27 28 30 31 32 34 36 40 
40(4)->1 2 3 4 6 7 8 10 14 15 17 18 19 20 26 29 30 31 34 36 37 38 39 
COUNT: 0
BEST COST: 21
21
21
