1: 2 3 4 5 6 7 8 9 10 11 12 13 14 15 16 17 18 19 20 21 22 23 24 25 26 27 28 29 30 31 32 33 34 35 36 37 38 39 40
2: 1 3 4 5 6 7 8 9 10 11 12 13 14 15 16 17 18 19 20 21 22 23 24 25 26 27 28 29 30 31 32 33 34 35 36 37 38 39 40
3: 1 2 4 5 6 7 8 9 10 11 12 13 14 15 16 17 18 19 20 21 22 23 24 25 26 27 28 29 30 31 32 33 34 35 36 37 39 40
4: 1 2 3 5 6 7 8 9 10 11 12 13 14 15 16 17 18 19 20 21 22 25 26 27 28 29 30 31 32 33 34 35 36 39 40
5: 1 2 3 4 6 7 8 9 10 11 12 13 14 16 17 19 20 22 25 26 27 28 29 31 32 33 35 36 37 39
6: 1 2 3 4 5 7 8 9 10 11 12 15 16 17 18 19 20 25 26 27 28 31 36 39 40
7: 1 2 3 4 5 6 8 9 10 13 16 17 18 20 21 25 26 27 28 31 32 35 36 39 40
8: 1 2 3 4 5 6 7 9 10 11 12 17 19 20 21 22 23 25 26 27 28 29 33 34 35 36 38 40
9: 1 2 3 4 5 6 7 8 10 11 16 17 19 20 23 25 26 31 32 33 35 36 38 39
10: 1 2 3 4 5 6 7 8 9 13 14 16 17 20 22 23 24 34 35 36 39 40
11: 1 2 35 4 37 38 39 8 9 6 3 21 23 26 27 29 5
12: 1 2 3 4 37 38 33 8 6 14 15 16 17 22 23 24 36 26 28 30 5
13: 1 2 3 4 5 7 10 14 15 18 22 23 25 26 27 29 32 34 35 36 37 38
14: 1 2 3 4 5 10 12 13 19 20 21 22 23 25 26 27 28 34 35 37 39 40
15: 32 1 2 3 36 37 6 39 40 12 13 17 18 22 4 24 25 29 30 31
16: 1 34 3 4 37 6 39 9 10 7 12 2 17 19 22 28 5
17: 1 2 3 4 5 6 7 8 9 10 12 15 16 21 22 24 31 32 34 38 39 40
18: 33 2 35 1 6 7 40 13 15 3 24 4 29 30
19: 1 2 3 4 37 6 8 9 14 16 22 31 5
20: 1 2 35 4 5 6 38 40 9 10 7 34 14 8 3 22 24 36 27 29
21: 1 2 3 36 7 8 11 14 17 22 4 31
22: 1 2 3 4 5 8 10 12 13 14 15 16 17 19 20 21 24 25 28 33 37 39
23: 1 2 3 36 37 38 8 9 10 11 12 13 14 26 27 28 29 30 31
24: 1 34 3 36 10 12 2 15 17 18 20 22 25 29
25: 1 2 3 4 5 6 7 8 9 13 14 15 22 24 27 28 31 32 33 34 35 37
26: 32 1 2 34 36 5 6 7 40 9 11 12 13 14 8 3 23 4 27
27: 1 2 35 36 37 6 39 8 11 34 14 13 3 20 23 7 25 26 28 4 5
28: 1 2 3 4 5 6 39 8 7 12 14 16 22 23 25 27 30
29: 32 1 34 3 36 37 40 11 13 15 8 18 20 23 24 4 2 30 5
30: 32 33 2 35 36 38 39 12 15 18 3 1 23 4 28 29 31
31: 32 1 2 35 36 5 6 39 40 9 7 34 15 17 19 4 21 23 25 30 3
32: 33 2 3 36 37 38 39 9 7 13 15 17 35 1 4 25 26 5 29 30 31
33: 32 1 34 3 4 37 8 9 12 2 18 22 25 30 5
34: 1 2 3 4 8 10 13 14 16 17 20 24 25 26 27 29 31 33 35 36 38 39 40
35: 32 1 34 3 4 5 38 7 8 9 10 11 13 14 18 20 2 25 27 30 31
36: 1 2 3 4 5 6 7 8 9 10 12 13 15 20 21 23 24 26 27 29 30 31 32 34 37 39 40
37: 32 33 2 3 36 5 38 1 40 11 12 13 14 15 16 19 22 23 25 27 29
38: 32 1 34 35 37 8 9 11 12 13 17 20 23 2 30
39: 1 2 3 4 5 6 7 9 10 11 14 15 16 17 22 27 28 30 31 32 34 36
40: 1 34 3 36 37 6 7 8 10 2 14 15 17 18 20 4 26 29 31
-------
1(-1)->2 3 4 5 6 7 8 9 10 11 12 13 14 15 16 17 18 19 20 21 22 23 24 25 26 27 28 29 30 31 32 33 34 35 36 37 38 39 40 
2(-1)->1 3 4 5 6 7 8 9 10 11 12 13 14 15 16 17 18 19 20 21 22 23 24 25 26 27 28 29 30 31 32 33 34 35 36 37 38 39 40 
3(-1)->1 2 4 5 6 7 8 9 10 11 12 13 14 15 16 17 18 19 20 21 22 23 24 25 26 27 28 29 30 31 32 33 34 35 36 37 39 40 
4(-1)->1 2 3 5 6 7 8 9 10 11 12 13 14 15 16 17 18 19 20 21 22 25 26 27 28 29 30 31 32 33 34 35 36 39 40 
5(-1)->1 2 3 4 6 7 8 9 10 11 12 13 14 16 17 19 20 22 25 26 27 28 29 31 32 33 35 36 37 39 
6(-1)->1 2 3 4 5 7 8 9 10 11 12 15 16 17 18 19 20 25 26 27 28 31 36 39 40 
7(-1)->1 2 3 4 5 6 8 9 10 13 16 17 18 20 21 25 26 27 28 31 32 35 36 39 40 
8(-1)->1 2 3 4 5 6 7 9 10 11 12 17 19 20 21 22 23 25 26 27 28 29 33 34 35 36 38 40 
9(-1)->1 2 3 4 5 6 7 8 10 11 16 17 19 20 23 25 26 31 32 33 35 36 38 39 
10(-1)->1 2 3 4 5 6 7 8 9 13 14 16 17 20 22 23 24 34 35 36 39 40 
11(-1)->1 2 3 4 5 6 8 9 21 23 26 27 29 35 37 38 39 
12(-1)->1 2 3 4 5 6 8 14 15 16 17 22 23 24 26 28 30 33 36 37 38 
13(-1)->1 2 3 4 5 7 10 14 15 18 22 23 25 26 27 29 32 34 35 36 37 38 
14(-1)->1 2 3 4 5 10 12 13 19 20 21 22 23 25 26 27 28 34 35 37 39 40 
15(-1)->1 2 3 4 6 12 13 17 18 22 24 25 29 30 31 32 36 37 39 40 
16(-1)->1 2 3 4 5 6 7 9 10 12 17 19 22 28 34 37 39 
17(-1)->1 2 3 4 5 6 7 8 9 10 12 15 16 21 22 24 31 32 34 38 39 40 
18(-1)->1 2 3 4 6 7 13 15 24 29 30 33 35 40 
19(-1)->1 2 3 4 5 6 8 9 14 16 22 31 37 
20(-1)->1 2 3 4 5 6 7 8 9 10 14 22 24 27 29 34 35 36 38 40 
21(-1)->1 2 3 4 7 8 11 14 17 22 31 36 
22(-1)->1 2 3 4 5 8 10 12 13 14 15 16 17 19 20 21 24 25 28 33 37 39 
23(-1)->1 2 3 8 9 10 11 12 13 14 26 27 28 29 30 31 36 37 38 
24(-1)->1 2 3 10 12 15 17 18 20 22 25 29 34 36 
25(-1)->1 2 3 4 5 6 7 8 9 13 14 15 22 24 27 28 31 32 33 34 35 37 
26(-1)->1 2 3 4 5 6 7 8 9 11 12 13 14 23 27 32 34 36 40 
27(-1)->1 2 3 4 5 6 7 8 11 13 14 20 23 25 26 28 34 35 36 37 39 
28(-1)->1 2 3 4 5 6 7 8 12 14 16 22 23 25 27 30 39 
29(-1)->1 2 3 4 5 8 11 13 15 18 20 23 24 30 32 34 36 37 40 
30(-1)->1 2 3 4 12 15 18 23 28 29 31 32 33 35 36 38 39 
31(-1)->1 2 3 4 5 6 7 9 15 17 19 21 23 25 30 32 34 35 36 39 40 
32(-1)->1 2 3 4 5 7 9 13 15 17 25 26 29 30 31 33 35 36 37 38 39 
33(-1)->1 2 3 4 5 8 9 12 18 22 25 30 32 34 37 
34(-1)->1 2 3 4 8 10 13 14 16 17 20 24 25 26 27 29 31 33 35 36 38 39 40 
35(-1)->1 2 3 4 5 7 8 9 10 11 13 14 18 20 25 27 30 31 32 34 38 
36(-1)->1 2 3 4 5 6 7 8 9 10 12 13 15 20 21 23 24 26 27 29 30 31 32 34 37 39 40 
37(-1)->1 2 3 5 11 12 13 14 15 16 19 22 23 25 27 29 32 33 36 38 40 
38(-1)->1 2 8 9 11 12 13 17 20 23 30 32 34 35 37 
39(-1)->1 2 3 4 5 6 7 9 10 11 14 15 16 17 22 27 28 30 31 32 34 36 
40(-1)->1 2 3 4 6 7 8 10 14 15 17 18 20 26 29 31 34 36 37 
-------
1(0)->2 3 4 5 6 7 8 9 10 11 12 13 14 15 16 17 18 19 20 21 22 23 24 25 26 27 28 29 30 31 32 33 34 35 36 37 38 39 40 
2(1)->1 3 4 5 6 7 8 9 10 11 12 13 14 15 16 17 18 19 20 21 22 23 24 25 26 27 28 29 30 31 32 33 34 35 36 37 38 39 40 
3(2)->1 2 4 5 6 7 8 9 10 11 12 13 14 15 16 17 18 19 20 21 22 23 24 25 26 27 28 29 30 31 32 33 34 35 36 37 39 40 
4(3)->1 2 3 5 6 7 8 9 10 11 12 13 14 15 16 17 18 19 20 21 22 25 26 27 28 29 30 31 32 33 34 35 36 39 40 
5(4)->1 2 3 4 6 7 8 9 10 11 12 13 14 16 17 19 20 22 25 26 27 28 29 31 32 33 35 36 37 39 
6(5)->1 2 3 4 5 7 8 9 10 11 12 15 16 17 18 19 20 25 26 27 28 31 36 39 40 
7(6)->1 2 3 4 5 6 8 9 10 13 16 17 18 20 21 25 26 27 28 31 32 35 36 39 40 
8(7)->1 2 3 4 5 6 7 9 10 11 12 17 19 20 21 22 23 25 26 27 28 29 33 34 35 36 38 40 
9(8)->1 2 3 4 5 6 7 8 10 11 16 17 19 20 23 25 26 31 32 33 35 36 38 39 
10(9)->1 2 3 4 5 6 7 8 9 13 14 16 17 20 22 23 24 34 35 36 39 40 
11(6)->1 2 3 4 5 6 8 9 21 23 26 27 29 35 37 38 39 
12(6)->1 2 3 4 5 6 8 14 15 16 17 22 23 24 26 28 30 33 36 37 38 
13(5)->1 2 3 4 5 7 10 14 15 18 22 23 25 26 27 29 32 34 35 36 37 38 
14(7)->1 2 3 4 5 10 12 13 19 20 21 22 23 25 26 27 28 34 35 37 39 40 
15(4)->1 2 3 4 6 12 13 17 18 22 24 25 29 30 31 32 36 37 39 40 
16(7)->1 2 3 4 5 6 7 9 10 12 17 19 22 28 34 37 39 
17(10)->1 2 3 4 5 6 7 8 9 10 12 15 16 21 22 24 31 32 34 38 39 40 
18(7)->1 2 3 4 6 7 13 15 24 29 30 33 35 40 
19(6)->1 2 3 4 5 6 8 9 14 16 22 31 37 
20(10)->1 2 3 4 5 6 7 8 9 10 14 22 24 27 29 34 35 36 38 40 
21(4)->1 2 3 4 7 8 11 14 17 22 31 36 
22(8)->1 2 3 4 5 8 10 12 13 14 15 16 17 19 20 21 24 25 28 33 37 39 
23(3)->1 2 3 8 9 10 11 12 13 14 26 27 28 29 30 31 36 37 38 
24(3)->1 2 3 10 12 15 17 18 20 22 25 29 34 36 
25(9)->1 2 3 4 5 6 7 8 9 13 14 15 22 24 27 28 31 32 33 34 35 37 
26(9)->1 2 3 4 5 6 7 8 9 11 12 13 14 23 27 32 34 36 40 
27(8)->1 2 3 4 5 6 7 8 11 13 14 20 23 25 26 28 34 35 36 37 39 
28(10)->1 2 3 4 5 6 7 8 12 14 16 22 23 25 27 30 39 
29(8)->1 2 3 4 5 8 11 13 15 18 20 23 24 30 32 34 36 37 40 
30(5)->1 2 3 4 12 15 18 23 28 29 31 32 33 35 36 38 39 
31(7)->1 2 3 4 5 6 7 9 15 17 19 21 23 25 30 32 34 35 36 39 40 
32(11)->1 2 3 4 5 7 9 13 15 17 25 26 29 30 31 33 35 36 37 38 39 
33(10)->1 2 3 4 5 8 9 12 18 22 25 30 32 34 37 
34(4)->1 2 3 4 8 10 13 14 16 17 20 24 25 26 27 29 31 33 35 36 38 39 40 
35(12)->1 2 3 4 5 7 8 9 10 11 13 14 18 20 25 27 30 31 32 34 38 
36(12)->1 2 3 4 5 6 7 8 9 10 12 13 15 20 21 23 24 26 27 29 30 31 32 34 37 39 40 
37(13)->1 2 3 5 11 12 13 14 15 16 19 22 23 25 27 29 32 33 36 38 40 
38(2)->1 2 8 9 11 12 13 17 20 23 30 32 34 35 37 
39(13)->1 2 3 4 5 6 7 9 10 11 14 15 16 17 22 27 28 30 31 32 34 36 
40(11)->1 2 3 4 6 7 8 10 14 15 17 18 20 26 29 31 34 36 37 
COUNT: 0
BEST COST: 14
14
14
