1: 2 3 4 5 6 7 8 9 10 11 12 13 14 15 16 17 18 19 20 21 22 23 24 25 26 27 28 29 30 31 32 33 34 35 36 37 38 39
2: 1 3 4 5 6 7 8 9 10 11 12 13 14 15 16 17 18 19 20 21 22 23 24 25 26 27 28 29 30 31 32 33 34 35 36 37 38 39 40
3: 1 2 4 5 6 7 8 9 10 11 12 13 14 15 16 17 18 19 20 21 22 23 24 25 26 27 28 29 30 31 32 33 34 35 38 39
4: 1 2 3 5 6 7 8 9 10 11 12 13 14 15 16 17 18 19 21 22 23 24 25 26 27 28 29 30 31 32 33 34 36 37 38 39
5: 1 2 3 4 6 7 8 9 10 11 12 13 14 16 17 18 19 21 22 23 24 25 26 27 28 29 30 33 34 36 38 39
6: 1 2 3 4 5 7 8 9 10 11 12 13 18 22 24 28 29 32 33 36 38 40
7: 1 2 3 4 5 6 8 9 10 11 12 13 15 17 19 20 22 24 25 26 27 30 31 32 35 37 38
8: 1 2 3 4 5 6 7 9 10 11 12 13 14 15 16 17 18 19 22 23 24 29 36
9: 1 34 3 4 6 38 7 8 10 11 12 13 15 22 23 24 2 33 5 29 37
10: 1 2 3 4 5 6 7 8 9 11 12 13 14 17 19 21 22 25 29 33 34 35 39
11: 32 1 2 35 4 5 3 7 8 9 10 16 17 19 22 24 6 27 31
12: 1 2 3 4 5 6 7 8 9 10 14 15 18 19 23 24 28 29 30 31 34 38
13: 1 2 3 4 5 6 7 8 9 10 14 15 16 17 19 24 25 26 31 35 38 39
14: 33 2 3 4 5 1 8 10 12 13 15 17 18 20 40 25 27 28 29 30
15: 1 2 3 4 7 8 9 12 13 14 16 17 18 20 22 24 25 26 28 29 30 31 34 35 37 38
16: 32 33 2 3 36 5 38 39 8 1 11 13 15 17 20 21 4 29 31
17: 1 2 3 4 5 7 8 10 11 13 14 15 16 18 19 21 22 24 26 28 30 31 32 35 38 39
18: 1 34 35 36 5 38 39 8 12 2 14 15 6 17 3 20 4 26 29
19: 1 2 3 4 5 7 8 10 11 12 13 17 21 22 26 31 32 34 35 36 37 40
20: 32 1 34 35 38 7 39 2 14 15 16 18 3 24 26 27 29 31
21: 1 2 3 4 37 38 40 10 34 16 17 19 26 27 5 30 31
22: 1 2 3 4 5 38 33 8 9 10 11 15 17 19 23 7 6 28 31
23: 33 34 3 1 37 39 8 9 12 2 22 4 24 25 30 5
24: 1 2 3 4 5 6 7 8 9 11 12 13 15 17 20 23 26 28 31 34 36 37 39
25: 32 1 2 35 4 33 38 7 10 13 14 15 3 23 26 29 30 5
26: 19 33 2 35 36 5 7 40 1 13 15 17 18 3 20 21 25 24 4 28
27: 32 33 34 3 36 5 38 7 1 11 2 14 20 21 39 4
28: 1 2 3 4 37 38 39 40 12 14 15 17 26 22 24 6 31 29 5
29: 1 2 3 4 5 6 8 9 10 12 14 15 16 18 20 25 28 30 36 37 38 40
30: 32 1 34 3 4 33 38 7 39 12 2 14 15 17 21 23 25 5 29 36
31: 32 1 2 35 4 3 7 11 12 13 15 16 17 19 20 21 22 24 28
32: 1 2 3 36 6 7 40 11 16 17 19 20 4 25 27 30 31
33: 1 34 3 4 37 38 9 10 2 14 16 6 22 23 25 26 27 36 30 5
34: 1 2 3 4 5 33 9 10 12 15 18 19 20 21 23 24 27 30
35: 3 1 2 11 36 7 40 10 39 13 15 17 18 19 20 25 26 31
36: 32 33 2 35 4 37 6 1 40 16 8 18 19 24 26 27 29 30 5
37: 33 2 36 38 7 40 9 1 15 19 21 23 24 4 28 29
38: 1 2 3 4 5 6 7 9 12 13 15 16 17 18 20 21 22 25 27 28 29 30 33 37
39: 1 2 35 4 5 10 13 16 17 18 3 20 23 24 27 28 30
40: 32 2 35 36 37 6 14 19 21 26 28 29
-------
1(-1)->2 3 4 5 6 7 8 9 10 11 12 13 14 15 16 17 18 19 20 21 22 23 24 25 26 27 28 29 30 31 32 33 34 35 36 37 38 39 
2(-1)->1 3 4 5 6 7 8 9 10 11 12 13 14 15 16 17 18 19 20 21 22 23 24 25 26 27 28 29 30 31 32 33 34 35 36 37 38 39 40 
3(-1)->1 2 4 5 6 7 8 9 10 11 12 13 14 15 16 17 18 19 20 21 22 23 24 25 26 27 28 29 30 31 32 33 34 35 38 39 
4(-1)->1 2 3 5 6 7 8 9 10 11 12 13 14 15 16 17 18 19 21 22 23 24 25 26 27 28 29 30 31 32 33 34 36 37 38 39 
5(-1)->1 2 3 4 6 7 8 9 10 11 12 13 14 16 17 18 19 21 22 23 24 25 26 27 28 29 30 33 34 36 38 39 
6(-1)->1 2 3 4 5 7 8 9 10 11 12 13 18 22 24 28 29 32 33 36 38 40 
7(-1)->1 2 3 4 5 6 8 9 10 11 12 13 15 17 19 20 22 24 25 26 27 30 31 32 35 37 38 
8(-1)->1 2 3 4 5 6 7 9 10 11 12 13 14 15 16 17 18 19 22 23 24 29 36 
9(-1)->1 2 3 4 5 6 7 8 10 11 12 13 15 22 23 24 29 33 34 37 38 
10(-1)->1 2 3 4 5 6 7 8 9 11 12 13 14 17 19 21 22 25 29 33 34 35 39 
11(-1)->1 2 3 4 5 6 7 8 9 10 16 17 19 22 24 27 31 32 35 
12(-1)->1 2 3 4 5 6 7 8 9 10 14 15 18 19 23 24 28 29 30 31 34 38 
13(-1)->1 2 3 4 5 6 7 8 9 10 14 15 16 17 19 24 25 26 31 35 38 39 
14(-1)->1 2 3 4 5 8 10 12 13 15 17 18 20 25 27 28 29 30 33 40 
15(-1)->1 2 3 4 7 8 9 12 13 14 16 17 18 20 22 24 25 26 28 29 30 31 34 35 37 38 
16(-1)->1 2 3 4 5 8 11 13 15 17 20 21 29 31 32 33 36 38 39 
17(-1)->1 2 3 4 5 7 8 10 11 13 14 15 16 18 19 21 22 24 26 28 30 31 32 35 38 39 
18(-1)->1 2 3 4 5 6 8 12 14 15 17 20 26 29 34 35 36 38 39 
19(-1)->1 2 3 4 5 7 8 10 11 12 13 17 21 22 26 31 32 34 35 36 37 40 
20(-1)->1 2 3 7 14 15 16 18 24 26 27 29 31 32 34 35 38 39 
21(-1)->1 2 3 4 5 10 16 17 19 26 27 30 31 34 37 38 40 
22(-1)->1 2 3 4 5 6 7 8 9 10 11 15 17 19 23 28 31 33 38 
23(-1)->1 2 3 4 5 8 9 12 22 24 25 30 33 34 37 39 
24(-1)->1 2 3 4 5 6 7 8 9 11 12 13 15 17 20 23 26 28 31 34 36 37 39 
25(-1)->1 2 3 4 5 7 10 13 14 15 23 26 29 30 32 33 35 38 
26(-1)->1 2 3 4 5 7 13 15 17 18 19 20 21 24 25 28 33 35 36 40 
27(-1)->1 2 3 4 5 7 11 14 20 21 32 33 34 36 38 39 
28(-1)->1 2 3 4 5 6 12 14 15 17 22 24 26 29 31 37 38 39 40 
29(-1)->1 2 3 4 5 6 8 9 10 12 14 15 16 18 20 25 28 30 36 37 38 40 
30(-1)->1 2 3 4 5 7 12 14 15 17 21 23 25 29 32 33 34 36 38 39 
31(-1)->1 2 3 4 7 11 12 13 15 16 17 19 20 21 22 24 28 32 35 
32(-1)->1 2 3 4 6 7 11 16 17 19 20 25 27 30 31 36 40 
33(-1)->1 2 3 4 5 6 9 10 14 16 22 23 25 26 27 30 34 36 37 38 
34(-1)->1 2 3 4 5 9 10 12 15 18 19 20 21 23 24 27 30 33 
35(-1)->1 2 3 7 10 11 13 15 17 18 19 20 25 26 31 36 39 40 
36(-1)->1 2 4 5 6 8 16 18 19 24 26 27 29 30 32 33 35 37 40 
37(-1)->1 2 4 7 9 15 19 21 23 24 28 29 33 36 38 40 
38(-1)->1 2 3 4 5 6 7 9 12 13 15 16 17 18 20 21 22 25 27 28 29 30 33 37 
39(-1)->1 2 3 4 5 10 13 16 17 18 20 23 24 27 28 30 35 
40(-1)->2 6 14 19 21 26 28 29 32 35 36 37 
-------
1(0)->2 3 4 5 6 7 8 9 10 11 12 13 14 15 16 17 18 19 20 21 22 23 24 25 26 27 28 29 30 31 32 33 34 35 36 37 38 39 
2(1)->1 3 4 5 6 7 8 9 10 11 12 13 14 15 16 17 18 19 20 21 22 23 24 25 26 27 28 29 30 31 32 33 34 35 36 37 38 39 40 
3(2)->1 2 4 5 6 7 8 9 10 11 12 13 14 15 16 17 18 19 20 21 22 23 24 25 26 27 28 29 30 31 32 33 34 35 38 39 
4(3)->1 2 3 5 6 7 8 9 10 11 12 13 14 15 16 17 18 19 21 22 23 24 25 26 27 28 29 30 31 32 33 34 36 37 38 39 
5(4)->1 2 3 4 6 7 8 9 10 11 12 13 14 16 17 18 19 21 22 23 24 25 26 27 28 29 30 33 34 36 38 39 
6(5)->1 2 3 4 5 7 8 9 10 11 12 13 18 22 24 28 29 32 33 36 38 40 
7(6)->1 2 3 4 5 6 8 9 10 11 12 13 15 17 19 20 22 24 25 26 27 30 31 32 35 37 38 
8(7)->1 2 3 4 5 6 7 9 10 11 12 13 14 15 16 17 18 19 22 23 24 29 36 
9(8)->1 2 3 4 5 6 7 8 10 11 12 13 15 22 23 24 29 33 34 37 38 
10(9)->1 2 3 4 5 6 7 8 9 11 12 13 14 17 19 21 22 25 29 33 34 35 39 
11(10)->1 2 3 4 5 6 7 8 9 10 16 17 19 22 24 27 31 32 35 
12(10)->1 2 3 4 5 6 7 8 9 10 14 15 18 19 23 24 28 29 30 31 34 38 
13(10)->1 2 3 4 5 6 7 8 9 10 14 15 16 17 19 24 25 26 31 35 38 39 
14(5)->1 2 3 4 5 8 10 12 13 15 17 18 20 25 27 28 29 30 33 40 
15(4)->1 2 3 4 7 8 9 12 13 14 16 17 18 20 22 24 25 26 28 29 30 31 34 35 37 38 
16(5)->1 2 3 4 5 8 11 13 15 17 20 21 29 31 32 33 36 38 39 
17(8)->1 2 3 4 5 7 8 10 11 13 14 15 16 18 19 21 22 24 26 28 30 31 32 35 38 39 
18(6)->1 2 3 4 5 6 8 12 14 15 17 20 26 29 34 35 36 38 39 
19(5)->1 2 3 4 5 7 8 10 11 12 13 17 21 22 26 31 32 34 35 36 37 40 
20(3)->1 2 3 7 14 15 16 18 24 26 27 29 31 32 34 35 38 39 
21(6)->1 2 3 4 5 10 16 17 19 26 27 30 31 34 37 38 40 
22(11)->1 2 3 4 5 6 7 8 9 10 11 15 17 19 23 28 31 33 38 
23(5)->1 2 3 4 5 8 9 12 22 24 25 30 33 34 37 39 
24(9)->1 2 3 4 5 6 7 8 9 11 12 13 15 17 20 23 26 28 31 34 36 37 39 
25(7)->1 2 3 4 5 7 10 13 14 15 23 26 29 30 32 33 35 38 
26(11)->1 2 3 4 5 7 13 15 17 18 19 20 21 24 25 28 33 35 36 40 
27(7)->1 2 3 4 5 7 11 14 20 21 32 33 34 36 38 39 
28(6)->1 2 3 4 5 6 12 14 15 17 22 24 26 29 31 37 38 39 40 
29(11)->1 2 3 4 5 6 8 9 10 12 14 15 16 18 20 25 28 30 36 37 38 40 
30(9)->1 2 3 4 5 7 12 14 15 17 21 23 25 29 32 33 34 36 38 39 
31(7)->1 2 3 4 7 11 12 13 15 16 17 19 20 21 22 24 28 32 35 
32(4)->1 2 3 4 6 7 11 16 17 19 20 25 27 30 31 36 40 
33(6)->1 2 3 4 5 6 9 10 14 16 22 23 25 26 27 30 34 36 37 38 
34(11)->1 2 3 4 5 9 10 12 15 18 19 20 21 23 24 27 30 33 
35(12)->1 2 3 7 10 11 13 15 17 18 19 20 25 26 31 36 39 40 
36(2)->1 2 4 5 6 8 16 18 19 24 26 27 29 30 32 33 35 37 40 
37(7)->1 2 4 7 9 15 19 21 23 24 28 29 33 36 38 40 
38(12)->1 2 3 4 5 6 7 9 12 13 15 16 17 18 20 21 22 25 27 28 29 30 33 37 
39(11)->1 2 3 4 5 10 13 16 17 18 20 23 24 27 28 30 35 
40(0)->2 6 14 19 21 26 28 29 32 35 36 37 
COUNT: 0
BEST COST: 13
13
13
