1: 17 4 21 9
2: 16 15
3: 36 23
4: 17 26 36 22 1
5: 24 40 10 12 37
6: 25 35
7: 24 30
8: 36
9: 1 11
10: 25 5
11: 40 9
12: 33 5
13: 
14: 
15: 2 19
16: 17 2 20 30
17: 16 1 4
18: 
19: 29 15
20: 16 37
21: 1 37
22: 4
23: 25 3
24: 27 7 36 5 31
25: 10 39 6 23
26: 4
27: 24 30
28: 
29: 19 39
30: 16 27 7
31: 24
32: 
33: 12
34: 
35: 6
36: 8 24 3 4
37: 20 21 5
38: 
39: 25 29
40: 11 5
-------
1(-1)->4 9 17 21 
2(-1)->15 16 
3(-1)->23 36 
4(-1)->1 17 22 26 36 
5(-1)->10 12 24 37 40 
6(-1)->25 35 
7(-1)->24 30 
8(-1)->36 
9(-1)->1 11 
10(-1)->5 25 
11(-1)->9 40 
12(-1)->5 33 
13(-1)->
14(-1)->
15(-1)->2 19 
16(-1)->2 17 20 30 
17(-1)->1 4 16 
18(-1)->
19(-1)->15 29 
20(-1)->16 37 
21(-1)->1 37 
22(-1)->4 
23(-1)->3 25 
24(-1)->5 7 27 31 36 
25(-1)->6 10 23 39 
26(-1)->4 
27(-1)->24 30 
28(-1)->
29(-1)->19 39 
30(-1)->7 16 27 
31(-1)->24 
32(-1)->
33(-1)->12 
34(-1)->
35(-1)->6 
36(-1)->3 4 8 24 
37(-1)->5 20 21 
38(-1)->
39(-1)->25 29 
40(-1)->5 11 
-------
1(0)->4 9 17 21 
2(0)->15 16 
3(0)->23 36 
4(1)->1 17 22 26 36 
5(0)->10 12 24 37 40 
6(0)->25 35 
7(0)->24 30 
8(0)->36 
9(1)->1 11 
10(1)->5 25 
11(0)->9 40 
12(1)->5 33 
13(0)->
14(0)->
15(1)->2 19 
16(1)->2 17 20 30 
17(2)->1 4 16 
18(0)->
19(0)->15 29 
20(0)->16 37 
21(1)->1 37 
22(0)->4 
23(1)->3 25 
24(1)->5 7 27 31 36 
25(2)->6 10 23 39 
26(0)->4 
27(0)->24 30 
28(0)->
29(1)->19 39 
30(2)->7 16 27 
31(0)->24 
32(0)->
33(0)->12 
34(0)->
35(1)->6 
36(2)->3 4 8 24 
37(2)->5 20 21 
38(0)->
39(0)->25 29 
40(1)->5 11 
COUNT: 0
BEST COST: 3
3
3
