1: 2 3 4 5 6 7 40 9 10 11 12 13 14 15 8 19 24
2: 33 3 4 6 1 10 11 12 14 16 18 21 22
3: 1 26 27 2
4: 1 2 12 14 19 31
5: 1 35 36 10 13 30
6: 33 2 35 1 39 10 18 20 22 28 30
7: 1 26 28
8: 1 10 15 18 22 23 31
9: 33 35 1 15 21 22 25 29
10: 1 2 35 5 6 8 12
11: 32 1 34 2 19 20 24 28
12: 1 2 4 39 10 14 18 27 31
13: 16 1 36 5
14: 33 2 4 38 1 12
15: 1 34 8 9 18 20 24 29 30
16: 25 2 20 13 39
17: 25 35
18: 2 6 8 12 15 23
19: 1 4 37 40 11 21
20: 6 39 11 15 16 23 31
21: 9 2 19 37
22: 33 2 6 8 9 23
23: 8 18 20 22 30
24: 1 11 15
25: 16 9 34 29 17
26: 3 7
27: 3 12 38
28: 40 34 11 6 7
29: 34 35 38 9 15 25
30: 34 5 6 15 23 37
31: 8 4 20 12 40
32: 33 11 38
33: 32 34 36 6 40 9 2 14 22
34: 33 11 15 25 28 29 30
35: 5 6 9 10 17 29
36: 40 33 13 5
37: 19 21 30
38: 32 27 29 14
39: 16 12 20 6
40: 1 36 33 19 28 31
-------
1(-1)->2 3 4 5 6 7 8 9 10 11 12 13 14 15 19 24 40 
2(-1)->1 3 4 6 10 11 12 14 16 18 21 22 33 
3(-1)->1 2 26 27 
4(-1)->1 2 12 14 19 31 
5(-1)->1 10 13 30 35 36 
6(-1)->1 2 10 18 20 22 28 30 33 35 39 
7(-1)->1 26 28 
8(-1)->1 10 15 18 22 23 31 
9(-1)->1 15 21 22 25 29 33 35 
10(-1)->1 2 5 6 8 12 35 
11(-1)->1 2 19 20 24 28 32 34 
12(-1)->1 2 4 10 14 18 27 31 39 
13(-1)->1 5 16 36 
14(-1)->1 2 4 12 33 38 
15(-1)->1 8 9 18 20 24 29 30 34 
16(-1)->2 13 20 25 39 
17(-1)->25 35 
18(-1)->2 6 8 12 15 23 
19(-1)->1 4 11 21 37 40 
20(-1)->6 11 15 16 23 31 39 
21(-1)->2 9 19 37 
22(-1)->2 6 8 9 23 33 
23(-1)->8 18 20 22 30 
24(-1)->1 11 15 
25(-1)->9 16 17 29 34 
26(-1)->3 7 
27(-1)->3 12 38 
28(-1)->6 7 11 34 40 
29(-1)->9 15 25 34 35 38 
30(-1)->5 6 15 23 34 37 
31(-1)->4 8 12 20 40 
32(-1)->11 33 38 
33(-1)->2 6 9 14 22 32 34 36 40 
34(-1)->11 15 25 28 29 30 33 
35(-1)->5 6 9 10 17 29 
36(-1)->5 13 33 40 
37(-1)->19 21 30 
38(-1)->14 27 29 32 
39(-1)->6 12 16 20 
40(-1)->1 19 28 31 33 36 
-------
1(0)->2 3 4 5 6 7 8 9 10 11 12 13 14 15 19 24 40 
2(1)->1 3 4 6 10 11 12 14 16 18 21 22 33 
3(2)->1 2 26 27 
4(2)->1 2 12 14 19 31 
5(1)->1 10 13 30 35 36 
6(2)->1 2 10 18 20 22 28 30 33 35 39 
7(1)->1 26 28 
8(1)->1 10 15 18 22 23 31 
9(1)->1 15 21 22 25 29 33 35 
10(3)->1 2 5 6 8 12 35 
11(2)->1 2 19 20 24 28 32 34 
12(4)->1 2 4 10 14 18 27 31 39 
13(2)->1 5 16 36 
14(3)->1 2 4 12 33 38 
15(2)->1 8 9 18 20 24 29 30 34 
16(0)->2 13 20 25 39 
17(0)->25 35 
18(0)->2 6 8 12 15 23 
19(1)->1 4 11 21 37 40 
20(1)->6 11 15 16 23 31 39 
21(0)->2 9 19 37 
22(0)->2 6 8 9 23 33 
23(2)->8 18 20 22 30 
24(1)->1 11 15 
25(2)->9 16 17 29 34 
26(0)->3 7 
27(0)->3 12 38 
28(0)->6 7 11 34 40 
29(0)->9 15 25 34 35 38 
30(0)->5 6 15 23 34 37 
31(0)->4 8 12 20 40 
32(0)->11 33 38 
33(4)->2 6 9 14 22 32 34 36 40 
34(1)->11 15 25 28 29 30 33 
35(4)->5 6 9 10 17 29 
36(0)->5 13 33 40 
37(2)->19 21 30 
38(1)->14 27 29 32 
39(3)->6 12 16 20 
40(2)->1 19 28 31 33 36 
COUNT: 0
BEST COST: 5
5
5
