1: 2 3 4 5 6 7 8 9 10 11 12 19 23 28
2: 1 3 7 10 11 14 15 16 18 30
3: 1 2 4 5 6 12 24 30
4: 1 3 39 8 35 25 26 31
5: 1 3 13 14 17 18 21
6: 3 1 35 21 14
7: 33 2 1 39 40 24 27 28
8: 1 4 37 23 27 28
9: 1 36 37 10 13 24
10: 1 2 35 36 9 18 19 29
11: 1 2 37 39 18 24 27 29
12: 25 3 1
13: 37 9 19 26 27 5
14: 2 5 6
15: 40 33 2 36 38
16: 2 36 18 19 24 31
17: 25 20 29 22 5
18: 2 5 10 11 16 21
19: 1 36 10 13 16 21 22
20: 17 37 29
21: 34 5 6 40 18 19 38 37
22: 17 19 38 23
23: 8 1 37 22
24: 3 7 9 11 16 27
25: 17 4 12 30 33
26: 4 13 39
27: 32 34 7 8 11 13 24
28: 8 1 7
29: 35 39 40 10 11 17 20 31
30: 33 2 3 37 39 34 25 31
31: 32 4 37 16 29 30
32: 27 36 31
33: 25 15 30 7
34: 27 21 30
35: 10 4 29 6
36: 32 9 10 15 16 19
37: 8 9 11 13 20 21 23 30 31
38: 40 15 21 22 39
39: 4 38 7 11 26 29 30
40: 7 15 29 38 21
-------
1(-1)->2 3 4 5 6 7 8 9 10 11 12 19 23 28 
2(-1)->1 3 7 10 11 14 15 16 18 30 
3(-1)->1 2 4 5 6 12 24 30 
4(-1)->1 3 8 25 26 31 35 39 
5(-1)->1 3 13 14 17 18 21 
6(-1)->1 3 14 21 35 
7(-1)->1 2 24 27 28 33 39 40 
8(-1)->1 4 23 27 28 37 
9(-1)->1 10 13 24 36 37 
10(-1)->1 2 9 18 19 29 35 36 
11(-1)->1 2 18 24 27 29 37 39 
12(-1)->1 3 25 
13(-1)->5 9 19 26 27 37 
14(-1)->2 5 6 
15(-1)->2 33 36 38 40 
16(-1)->2 18 19 24 31 36 
17(-1)->5 20 22 25 29 
18(-1)->2 5 10 11 16 21 
19(-1)->1 10 13 16 21 22 36 
20(-1)->17 29 37 
21(-1)->5 6 18 19 34 37 38 40 
22(-1)->17 19 23 38 
23(-1)->1 8 22 37 
24(-1)->3 7 9 11 16 27 
25(-1)->4 12 17 30 33 
26(-1)->4 13 39 
27(-1)->7 8 11 13 24 32 34 
28(-1)->1 7 8 
29(-1)->10 11 17 20 31 35 39 40 
30(-1)->2 3 25 31 33 34 37 39 
31(-1)->4 16 29 30 32 37 
32(-1)->27 31 36 
33(-1)->7 15 25 30 
34(-1)->21 27 30 
35(-1)->4 6 10 29 
36(-1)->9 10 15 16 19 32 
37(-1)->8 9 11 13 20 21 23 30 31 
38(-1)->15 21 22 39 40 
39(-1)->4 7 11 26 29 30 38 
40(-1)->7 15 21 29 38 
-------
1(0)->2 3 4 5 6 7 8 9 10 11 12 19 23 28 
2(1)->1 3 7 10 11 14 15 16 18 30 
3(2)->1 2 4 5 6 12 24 30 
4(1)->1 3 8 25 26 31 35 39 
5(1)->1 3 13 14 17 18 21 
6(1)->1 3 14 21 35 
7(2)->1 2 24 27 28 33 39 40 
8(2)->1 4 23 27 28 37 
9(1)->1 10 13 24 36 37 
10(2)->1 2 9 18 19 29 35 36 
11(2)->1 2 18 24 27 29 37 39 
12(1)->1 3 25 
13(0)->5 9 19 26 27 37 
14(0)->2 5 6 
15(0)->2 33 36 38 40 
16(0)->2 18 19 24 31 36 
17(0)->5 20 22 25 29 
18(3)->2 5 10 11 16 21 
19(1)->1 10 13 16 21 22 36 
20(1)->17 29 37 
21(0)->5 6 18 19 34 37 38 40 
22(2)->17 19 23 38 
23(1)->1 8 22 37 
24(3)->3 7 9 11 16 27 
25(2)->4 12 17 30 33 
26(2)->4 13 39 
27(1)->7 8 11 13 24 32 34 
28(1)->1 7 8 
29(3)->10 11 17 20 31 35 39 40 
30(0)->2 3 25 31 33 34 37 39 
31(2)->4 16 29 30 32 37 
32(0)->27 31 36 
33(1)->7 15 25 30 
34(2)->21 27 30 
35(0)->4 6 10 29 
36(3)->9 10 15 16 19 32 
37(3)->8 9 11 13 20 21 23 30 31 
38(1)->15 21 22 39 40 
39(4)->4 7 11 26 29 30 38 
40(4)->7 15 21 29 38 
COUNT: 0
BEST COST: 5
5
5
