1: 2 3 4 5 6 39 7 17 19
2: 1 35 6 7 40 12 15 18 3 22 27
3: 1 2 4 9 14 21 22 27 28 29 31
4: 27 1 18 3 5
5: 1 4 6 7 40 9 15 26
6: 1 34 5 7 10 2 22 25
7: 1 34 5 6 39 9 2 13 20 29 31
8: 24 9 10 32
9: 34 3 5 7 8 10 14
10: 6 8 9 20 21 23 24
11: 24 12 28 14 15
12: 33 2 35 11 17 19 30
13: 24 33 36 7
14: 11 9 3 33
15: 2 36 5 39 11 22 23 26
16: 24 35 27 39
17: 1 34 12 38 31
18: 4 2 35 28 39
19: 24 1 27 12 20
20: 31 10 19 34 7
21: 25 10 3
22: 32 2 3 36 38 6 40 15
23: 10 15 31
24: 8 10 11 13 16 19 28
25: 21 6 37
26: 40 39 5 38 15
27: 32 2 3 4 40 16 19
28: 32 3 39 11 18 35 24
29: 3 7
30: 33 12
31: 7 17 3 20 23
32: 35 36 37 8 22 27 28
33: 35 37 40 12 13 14 30
34: 38 6 7 40 9 17 20
35: 32 33 2 12 16 18 28
36: 32 13 22 15
37: 32 25 33
38: 40 17 26 34 22
39: 1 7 15 16 18 26 28
40: 33 34 5 38 2 22 26 27
-------
1(-1)->2 3 4 5 6 7 17 19 39 
2(-1)->1 3 6 7 12 15 18 22 27 35 40 
3(-1)->1 2 4 9 14 21 22 27 28 29 31 
4(-1)->1 3 5 18 27 
5(-1)->1 4 6 7 9 15 26 40 
6(-1)->1 2 5 7 10 22 25 34 
7(-1)->1 2 5 6 9 13 20 29 31 34 39 
8(-1)->9 10 24 32 
9(-1)->3 5 7 8 10 14 34 
10(-1)->6 8 9 20 21 23 24 
11(-1)->12 14 15 24 28 
12(-1)->2 11 17 19 30 33 35 
13(-1)->7 24 33 36 
14(-1)->3 9 11 33 
15(-1)->2 5 11 22 23 26 36 39 
16(-1)->24 27 35 39 
17(-1)->1 12 31 34 38 
18(-1)->2 4 28 35 39 
19(-1)->1 12 20 24 27 
20(-1)->7 10 19 31 34 
21(-1)->3 10 25 
22(-1)->2 3 6 15 32 36 38 40 
23(-1)->10 15 31 
24(-1)->8 10 11 13 16 19 28 
25(-1)->6 21 37 
26(-1)->5 15 38 39 40 
27(-1)->2 3 4 16 19 32 40 
28(-1)->3 11 18 24 32 35 39 
29(-1)->3 7 
30(-1)->12 33 
31(-1)->3 7 17 20 23 
32(-1)->8 22 27 28 35 36 37 
33(-1)->12 13 14 30 35 37 40 
34(-1)->6 7 9 17 20 38 40 
35(-1)->2 12 16 18 28 32 33 
36(-1)->13 15 22 32 
37(-1)->25 32 33 
38(-1)->17 22 26 34 40 
39(-1)->1 7 15 16 18 26 28 
40(-1)->2 5 22 26 27 33 34 38 
-------
1(0)->2 3 4 5 6 7 17 19 39 
2(1)->1 3 6 7 12 15 18 22 27 35 40 
3(2)->1 2 4 9 14 21 22 27 28 29 31 
4(1)->1 3 5 18 27 
5(2)->1 4 6 7 9 15 26 40 
6(3)->1 2 5 7 10 22 25 34 
7(4)->1 2 5 6 9 13 20 29 31 34 39 
8(0)->9 10 24 32 
9(1)->3 5 7 8 10 14 34 
10(2)->6 8 9 20 21 23 24 
11(0)->12 14 15 24 28 
12(2)->2 11 17 19 30 33 35 
13(0)->7 24 33 36 
14(3)->3 9 11 33 
15(3)->2 5 11 22 23 26 36 39 
16(0)->24 27 35 39 
17(1)->1 12 31 34 38 
18(0)->2 4 28 35 39 
19(1)->1 12 20 24 27 
20(0)->7 10 19 31 34 
21(0)->3 10 25 
22(0)->2 3 6 15 32 36 38 40 
23(0)->10 15 31 
24(3)->8 10 11 13 16 19 28 
25(1)->6 21 37 
26(0)->5 15 38 39 40 
27(3)->2 3 4 16 19 32 40 
28(1)->3 11 18 24 32 35 39 
29(0)->3 7 
30(0)->12 33 
31(3)->3 7 17 20 23 
32(2)->8 22 27 28 35 36 37 
33(1)->12 13 14 30 35 37 40 
34(2)->6 7 9 17 20 38 40 
35(3)->2 12 16 18 28 32 33 
36(1)->13 15 22 32 
37(0)->25 32 33 
38(3)->17 22 26 34 40 
39(2)->1 7 15 16 18 26 28 
40(4)->2 5 22 26 27 33 34 38 
COUNT: 0
BEST COST: 5
5
5
