1: 2 3 4 5 6 7 8 9 10 11 12 13 14 15 16 17 18 20 21 23 28 37 39
2: 32 1 3 36 38 6 39 40 9 15 16 17 8 4 5
3: 32 1 2 35 36 37 17 40 12 15 8 20 22 23 25 28 4
4: 1 2 3 36 5 39 7 15 17 21 22 23 26 27 31
5: 32 1 2 4 37 40 10 12 14 24 29
6: 1 2 35 7 9 11 12 15 23 25 27 28
7: 1 36 6 38 39 16 22 24 4 27 30
8: 32 1 2 3 36 39 9 18 21 23 25 29
9: 32 1 2 6 8 11 16 18 24 25 30
10: 32 33 1 5 39 11 13 14 25 29
11: 1 34 35 6 40 9 10 15
12: 33 34 3 5 6 1 19 29
13: 33 34 1 10 16 18 29
14: 32 1 34 35 5 10 17 22 26 30
15: 3 1 2 35 36 6 11 17 19 4 26 30
16: 33 2 1 7 9 13 17 20 26 30 31
17: 1 2 3 4 40 14 15 16 28
18: 1 38 8 9 13 25 30
19: 32 35 12 15 21 22 23 24 26 28 29
20: 33 3 36 37 38 1 16 25 26
21: 1 4 37 8 19 22 36
22: 3 36 37 38 7 14 19 21 25 4 26 27
23: 1 3 4 6 39 8 19 25 35
24: 36 5 7 40 9 19 25 27 31
25: 3 6 39 40 9 10 8 18 20 22 23 24 30
26: 4 14 15 16 19 20 22
27: 4 6 7 22 24 30
28: 35 3 6 1 17 19
29: 5 38 39 8 10 12 13 19 31
30: 7 9 14 15 16 18 25 27
31: 4 37 16 24 36 29
32: 2 3 5 40 9 10 14 8 19
33: 40 10 12 13 16 20
34: 40 11 12 13 14
35: 3 6 11 14 15 19 23 28
36: 2 3 4 37 7 8 15 20 21 22 24 31
37: 1 3 36 5 38 39 20 21 22 31
38: 2 37 7 40 18 20 22 29
39: 1 2 4 37 7 8 10 23 25 29
40: 32 33 2 3 5 38 11 34 17 24 25
-------
1(-1)->2 3 4 5 6 7 8 9 10 11 12 13 14 15 16 17 18 20 21 23 28 37 39 
2(-1)->1 3 4 5 6 8 9 15 16 17 32 36 38 39 40 
3(-1)->1 2 4 8 12 15 17 20 22 23 25 28 32 35 36 37 40 
4(-1)->1 2 3 5 7 15 17 21 22 23 26 27 31 36 39 
5(-1)->1 2 4 10 12 14 24 29 32 37 40 
6(-1)->1 2 7 9 11 12 15 23 25 27 28 35 
7(-1)->1 4 6 16 22 24 27 30 36 38 39 
8(-1)->1 2 3 9 18 21 23 25 29 32 36 39 
9(-1)->1 2 6 8 11 16 18 24 25 30 32 
10(-1)->1 5 11 13 14 25 29 32 33 39 
11(-1)->1 6 9 10 15 34 35 40 
12(-1)->1 3 5 6 19 29 33 34 
13(-1)->1 10 16 18 29 33 34 
14(-1)->1 5 10 17 22 26 30 32 34 35 
15(-1)->1 2 3 4 6 11 17 19 26 30 35 36 
16(-1)->1 2 7 9 13 17 20 26 30 31 33 
17(-1)->1 2 3 4 14 15 16 28 40 
18(-1)->1 8 9 13 25 30 38 
19(-1)->12 15 21 22 23 24 26 28 29 32 35 
20(-1)->1 3 16 25 26 33 36 37 38 
21(-1)->1 4 8 19 22 36 37 
22(-1)->3 4 7 14 19 21 25 26 27 36 37 38 
23(-1)->1 3 4 6 8 19 25 35 39 
24(-1)->5 7 9 19 25 27 31 36 40 
25(-1)->3 6 8 9 10 18 20 22 23 24 30 39 40 
26(-1)->4 14 15 16 19 20 22 
27(-1)->4 6 7 22 24 30 
28(-1)->1 3 6 17 19 35 
29(-1)->5 8 10 12 13 19 31 38 39 
30(-1)->7 9 14 15 16 18 25 27 
31(-1)->4 16 24 29 36 37 
32(-1)->2 3 5 8 9 10 14 19 40 
33(-1)->10 12 13 16 20 40 
34(-1)->11 12 13 14 40 
35(-1)->3 6 11 14 15 19 23 28 
36(-1)->2 3 4 7 8 15 20 21 22 24 31 37 
37(-1)->1 3 5 20 21 22 31 36 38 39 
38(-1)->2 7 18 20 22 29 37 40 
39(-1)->1 2 4 7 8 10 23 25 29 37 
40(-1)->2 3 5 11 17 24 25 32 33 34 38 
-------
1(0)->2 3 4 5 6 7 8 9 10 11 12 13 14 15 16 17 18 20 21 23 28 37 39 
2(1)->1 3 4 5 6 8 9 15 16 17 32 36 38 39 40 
3(2)->1 2 4 8 12 15 17 20 22 23 25 28 32 35 36 37 40 
4(3)->1 2 3 5 7 15 17 21 22 23 26 27 31 36 39 
5(2)->1 2 4 10 12 14 24 29 32 37 40 
6(2)->1 2 7 9 11 12 15 23 25 27 28 35 
7(1)->1 4 6 16 22 24 27 30 36 38 39 
8(3)->1 2 3 9 18 21 23 25 29 32 36 39 
9(4)->1 2 6 8 11 16 18 24 25 30 32 
10(1)->1 5 11 13 14 25 29 32 33 39 
11(3)->1 6 9 10 15 34 35 40 
12(1)->1 3 5 6 19 29 33 34 
13(2)->1 10 16 18 29 33 34 
14(3)->1 5 10 17 22 26 30 32 34 35 
15(4)->1 2 3 4 6 11 17 19 26 30 35 36 
16(3)->1 2 7 9 13 17 20 26 30 31 33 
17(5)->1 2 3 4 14 15 16 28 40 
18(1)->1 8 9 13 25 30 38 
19(0)->12 15 21 22 23 24 26 28 29 32 35 
20(1)->1 3 16 25 26 33 36 37 38 
21(1)->1 4 8 19 22 36 37 
22(4)->3 4 7 14 19 21 25 26 27 36 37 38 
23(1)->1 3 4 6 8 19 25 35 39 
24(3)->5 7 9 19 25 27 31 36 40 
25(0)->3 6 8 9 10 18 20 22 23 24 30 39 40 
26(2)->4 14 15 16 19 20 22 
27(0)->4 6 7 22 24 30 
28(1)->1 3 6 17 19 35 
29(4)->5 8 10 12 13 19 31 38 39 
30(2)->7 9 14 15 16 18 25 27 
31(0)->4 16 24 29 36 37 
32(5)->2 3 5 8 9 10 14 19 40 
33(0)->10 12 13 16 20 40 
34(0)->11 12 13 14 40 
35(5)->3 6 11 14 15 19 23 28 
36(5)->2 3 4 7 8 15 20 21 22 24 31 37 
37(3)->1 3 5 20 21 22 31 36 38 39 
38(0)->2 7 18 20 22 29 37 40 
39(2)->1 2 4 7 8 10 23 25 29 37 
40(4)->2 3 5 11 17 24 25 32 33 34 38 
COUNT: 0
BEST COST: 6
6
6
