1: 2 3 4 5 6 7 8 9 10 11 12 13 14 15 16 17 18 19 20 21 22 23 24 25 26 27 28 29 30 31 32
2: 1 3 37 6 7 12 15 22 27 28 31
3: 33 34 35 4 6 1 40 7 2 15 16 17 18 21
4: 33 34 3 38 1 8 13 14 15 17 20 40 24 25 26
5: 1 38 15 21 24 25 26 27 29 30
6: 1 34 3 36 38 40 11 2 16 17 20 25 26
7: 1 2 3 36 12 13 15 23 26 27 29
8: 1 4 38 40 13 14 18 23
9: 32 1 35 16 18 23 27
10: 40 32 1 23
11: 33 6 1 15 17 19 20 24 30
12: 1 2 35 7 40 19 26 27 29
13: 33 4 7 8 16 1 25
14: 1 34 35 4 37 8
15: 33 2 3 4 5 38 1 11 35 20 7 31
16: 1 3 37 6 40 9 13 18 20 24 30
17: 1 3 4 37 6 11 25 30
18: 32 33 34 3 1 37 38 39 8 9 16
19: 33 34 36 38 1 11 12 20 22 24 29 30 31
20: 32 1 4 6 11 15 16 19
21: 32 1 3 37 39 5
22: 1 2 35 36 19 26 28
23: 32 1 37 7 8 9 10 26 27 30
24: 33 35 4 5 39 11 16 19 1
25: 1 36 5 6 13 17 4 31
26: 32 1 35 4 5 6 7 12 22 23 28 29
27: 1 2 36 5 39 9 7 12 23
28: 32 33 2 1 22 26 30
29: 1 35 5 38 7 40 12 19 26
30: 32 1 5 11 16 17 19 23 28 37
31: 1 2 37 40 15 19 25
32: 33 35 38 1 9 10 18 20 21 23 26 28 30
33: 32 3 4 38 40 11 13 15 18 19 24 28
34: 3 4 37 6 40 14 18 19
35: 32 3 37 9 12 14 15 22 24 26 29
36: 6 7 40 19 22 25 27
37: 2 35 34 14 16 17 18 21 23 30 31
38: 32 33 4 5 6 8 15 18 19 29
39: 24 18 27 21
40: 33 34 3 36 6 8 10 12 16 4 29 31
-------
1(-1)->2 3 4 5 6 7 8 9 10 11 12 13 14 15 16 17 18 19 20 21 22 23 24 25 26 27 28 29 30 31 32 
2(-1)->1 3 6 7 12 15 22 27 28 31 37 
3(-1)->1 2 4 6 7 15 16 17 18 21 33 34 35 40 
4(-1)->1 3 8 13 14 15 17 20 24 25 26 33 34 38 40 
5(-1)->1 15 21 24 25 26 27 29 30 38 
6(-1)->1 2 3 11 16 17 20 25 26 34 36 38 40 
7(-1)->1 2 3 12 13 15 23 26 27 29 36 
8(-1)->1 4 13 14 18 23 38 40 
9(-1)->1 16 18 23 27 32 35 
10(-1)->1 23 32 40 
11(-1)->1 6 15 17 19 20 24 30 33 
12(-1)->1 2 7 19 26 27 29 35 40 
13(-1)->1 4 7 8 16 25 33 
14(-1)->1 4 8 34 35 37 
15(-1)->1 2 3 4 5 7 11 20 31 33 35 38 
16(-1)->1 3 6 9 13 18 20 24 30 37 40 
17(-1)->1 3 4 6 11 25 30 37 
18(-1)->1 3 8 9 16 32 33 34 37 38 39 
19(-1)->1 11 12 20 22 24 29 30 31 33 34 36 38 
20(-1)->1 4 6 11 15 16 19 32 
21(-1)->1 3 5 32 37 39 
22(-1)->1 2 19 26 28 35 36 
23(-1)->1 7 8 9 10 26 27 30 32 37 
24(-1)->1 4 5 11 16 19 33 35 39 
25(-1)->1 4 5 6 13 17 31 36 
26(-1)->1 4 5 6 7 12 22 23 28 29 32 35 
27(-1)->1 2 5 7 9 12 23 36 39 
28(-1)->1 2 22 26 30 32 33 
29(-1)->1 5 7 12 19 26 35 38 40 
30(-1)->1 5 11 16 17 19 23 28 32 37 
31(-1)->1 2 15 19 25 37 40 
32(-1)->1 9 10 18 20 21 23 26 28 30 33 35 38 
33(-1)->3 4 11 13 15 18 19 24 28 32 38 40 
34(-1)->3 4 6 14 18 19 37 40 
35(-1)->3 9 12 14 15 22 24 26 29 32 37 
36(-1)->6 7 19 22 25 27 40 
37(-1)->2 14 16 17 18 21 23 30 31 34 35 
38(-1)->4 5 6 8 15 18 19 29 32 33 
39(-1)->18 21 24 27 
40(-1)->3 4 6 8 10 12 16 29 31 33 34 36 
-------
1(0)->2 3 4 5 6 7 8 9 10 11 12 13 14 15 16 17 18 19 20 21 22 23 24 25 26 27 28 29 30 31 32 
2(1)->1 3 6 7 12 15 22 27 28 31 37 
3(2)->1 2 4 6 7 15 16 17 18 21 33 34 35 40 
4(1)->1 3 8 13 14 15 17 20 24 25 26 33 34 38 40 
5(1)->1 15 21 24 25 26 27 29 30 38 
6(3)->1 2 3 11 16 17 20 25 26 34 36 38 40 
7(3)->1 2 3 12 13 15 23 26 27 29 36 
8(2)->1 4 13 14 18 23 38 40 
9(1)->1 16 18 23 27 32 35 
10(1)->1 23 32 40 
11(1)->1 6 15 17 19 20 24 30 33 
12(2)->1 2 7 19 26 27 29 35 40 
13(4)->1 4 7 8 16 25 33 
14(3)->1 4 8 34 35 37 
15(4)->1 2 3 4 5 7 11 20 31 33 35 38 
16(5)->1 3 6 9 13 18 20 24 30 37 40 
17(4)->1 3 4 6 11 25 30 37 
18(3)->1 3 8 9 16 32 33 34 37 38 39 
19(3)->1 11 12 20 22 24 29 30 31 33 34 36 38 
20(2)->1 4 6 11 15 16 19 32 
21(3)->1 3 5 32 37 39 
22(2)->1 2 19 26 28 35 36 
23(4)->1 7 8 9 10 26 27 30 32 37 
24(2)->1 4 5 11 16 19 33 35 39 
25(2)->1 4 5 6 13 17 31 36 
26(5)->1 4 5 6 7 12 22 23 28 29 32 35 
27(5)->1 2 5 7 9 12 23 36 39 
28(3)->1 2 22 26 30 32 33 
29(4)->1 5 7 12 19 26 35 38 40 
30(2)->1 5 11 16 17 19 23 28 32 37 
31(5)->1 2 15 19 25 37 40 
32(6)->1 9 10 18 20 21 23 26 28 30 33 35 38 
33(0)->3 4 11 13 15 18 19 24 28 32 38 40 
34(0)->3 4 6 14 18 19 37 40 
35(0)->3 9 12 14 15 22 24 26 29 32 37 
36(0)->6 7 19 22 25 27 40 
37(6)->2 14 16 17 18 21 23 30 31 34 35 
38(5)->4 5 6 8 15 18 19 29 32 33 
39(0)->18 21 24 27 
40(6)->3 4 6 8 10 12 16 29 31 33 34 36 
COUNT: 0
BEST COST: 7
7
7
