1: 2 3 4 5 6 7 8 9 10 11 12 13 14 15 16 17 18 19 20 21 22 23 24 25 26 27 28 29 30 39
2: 1 3 36 5 6 40 10 11 13 14 16 25 26
3: 1 2 37 6 40 13 25 31 30 5
4: 32 1 39 10 18 25 28
5: 1 34 3 39 2 16 18 21 24 26
6: 1 2 3 33 39 14 19 20 25 29 31
7: 1 8 11 16 17 18 19 20 29
8: 1 34 36 38 39 10 7 24 30
9: 1 34 40 10 12 22 29 31
10: 1 2 4 39 8 9 15 17 22 30
11: 1 34 7 40 12 2 17 24 26
12: 32 1 34 36 38 9 11 13 24 25
13: 1 34 3 36 40 12 2 23 28
14: 1 2 36 6 15 27 28 29 31
15: 33 34 36 38 39 40 10 14 16 17 18 20 1 25 27 30
16: 1 34 5 7 2 15 18 22 23 27
17: 1 37 7 10 11 15 18 25
18: 1 35 4 5 7 15 16 17 26 30
19: 1 35 6 7 20 26 29
20: 1 34 6 38 7 15 19 22 25 26 30
21: 33 34 35 5 1 22 29 31
22: 1 34 39 40 9 10 16 20 21
23: 1 34 38 13 16 30
24: 33 36 37 38 1 40 11 12 8 29 30 5
25: 1 2 3 4 6 33 12 15 17 20 27
26: 32 1 2 5 39 11 18 19 20 30
27: 1 35 38 39 14 15 16 25
28: 1 34 4 40 13 14
29: 1 6 38 7 9 14 19 21 24 30
30: 32 1 3 37 38 8 10 15 18 20 23 24 26 29
31: 33 3 6 39 9 14 21
32: 4 37 39 40 12 26 30
33: 34 6 15 21 24 25 31
34: 33 5 8 9 11 12 13 15 16 20 21 22 23 28
35: 27 18 19 21 37
36: 2 37 8 12 13 14 15 24
37: 32 3 36 38 17 35 24 30
38: 37 8 12 15 40 20 23 24 27 29 30
39: 32 1 4 5 6 8 10 15 22 26 27 31
40: 32 2 3 38 9 11 13 15 22 24 28
-------
1(-1)->2 3 4 5 6 7 8 9 10 11 12 13 14 15 16 17 18 19 20 21 22 23 24 25 26 27 28 29 30 39 
2(-1)->1 3 5 6 10 11 13 14 16 25 26 36 40 
3(-1)->1 2 5 6 13 25 30 31 37 40 
4(-1)->1 10 18 25 28 32 39 
5(-1)->1 2 3 16 18 21 24 26 34 39 
6(-1)->1 2 3 14 19 20 25 29 31 33 39 
7(-1)->1 8 11 16 17 18 19 20 29 
8(-1)->1 7 10 24 30 34 36 38 39 
9(-1)->1 10 12 22 29 31 34 40 
10(-1)->1 2 4 8 9 15 17 22 30 39 
11(-1)->1 2 7 12 17 24 26 34 40 
12(-1)->1 9 11 13 24 25 32 34 36 38 
13(-1)->1 2 3 12 23 28 34 36 40 
14(-1)->1 2 6 15 27 28 29 31 36 
15(-1)->1 10 14 16 17 18 20 25 27 30 33 34 36 38 39 40 
16(-1)->1 2 5 7 15 18 22 23 27 34 
17(-1)->1 7 10 11 15 18 25 37 
18(-1)->1 4 5 7 15 16 17 26 30 35 
19(-1)->1 6 7 20 26 29 35 
20(-1)->1 6 7 15 19 22 25 26 30 34 38 
21(-1)->1 5 22 29 31 33 34 35 
22(-1)->1 9 10 16 20 21 34 39 40 
23(-1)->1 13 16 30 34 38 
24(-1)->1 5 8 11 12 29 30 33 36 37 38 40 
25(-1)->1 2 3 4 6 12 15 17 20 27 33 
26(-1)->1 2 5 11 18 19 20 30 32 39 
27(-1)->1 14 15 16 25 35 38 39 
28(-1)->1 4 13 14 34 40 
29(-1)->1 6 7 9 14 19 21 24 30 38 
30(-1)->1 3 8 10 15 18 20 23 24 26 29 32 37 38 
31(-1)->3 6 9 14 21 33 39 
32(-1)->4 12 26 30 37 39 40 
33(-1)->6 15 21 24 25 31 34 
34(-1)->5 8 9 11 12 13 15 16 20 21 22 23 28 33 
35(-1)->18 19 21 27 37 
36(-1)->2 8 12 13 14 15 24 37 
37(-1)->3 17 24 30 32 35 36 38 
38(-1)->8 12 15 20 23 24 27 29 30 37 40 
39(-1)->1 4 5 6 8 10 15 22 26 27 31 32 
40(-1)->2 3 9 11 13 15 22 24 28 32 38 
-------
1(0)->2 3 4 5 6 7 8 9 10 11 12 13 14 15 16 17 18 19 20 21 22 23 24 25 26 27 28 29 30 39 
2(1)->1 3 5 6 10 11 13 14 16 25 26 36 40 
3(2)->1 2 5 6 13 25 30 31 37 40 
4(1)->1 10 18 25 28 32 39 
5(3)->1 2 3 16 18 21 24 26 34 39 
6(3)->1 2 3 14 19 20 25 29 31 33 39 
7(1)->1 8 11 16 17 18 19 20 29 
8(2)->1 7 10 24 30 34 36 38 39 
9(1)->1 10 12 22 29 31 34 40 
10(3)->1 2 4 8 9 15 17 22 30 39 
11(2)->1 2 7 12 17 24 26 34 40 
12(3)->1 9 11 13 24 25 32 34 36 38 
13(4)->1 2 3 12 23 28 34 36 40 
14(2)->1 2 6 15 27 28 29 31 36 
15(1)->1 10 14 16 17 18 20 25 27 30 33 34 36 38 39 40 
16(2)->1 2 5 7 15 18 22 23 27 34 
17(4)->1 7 10 11 15 18 25 37 
18(5)->1 4 5 7 15 16 17 26 30 35 
19(2)->1 6 7 20 26 29 35 
20(4)->1 6 7 15 19 22 25 26 30 34 38 
21(1)->1 5 22 29 31 33 34 35 
22(5)->1 9 10 16 20 21 34 39 40 
23(1)->1 13 16 30 34 38 
24(1)->1 5 8 11 12 29 30 33 36 37 38 40 
25(5)->1 2 3 4 6 12 15 17 20 27 33 
26(6)->1 2 5 11 18 19 20 30 32 39 
27(3)->1 14 15 16 25 35 38 39 
28(3)->1 4 13 14 34 40 
29(4)->1 6 7 9 14 19 21 24 30 38 
30(7)->1 3 8 10 15 18 20 23 24 26 29 32 37 38 
31(0)->3 6 9 14 21 33 39 
32(0)->4 12 26 30 37 39 40 
33(2)->6 15 21 24 25 31 34 
34(0)->5 8 9 11 12 13 15 16 20 21 22 23 28 33 
35(0)->18 19 21 27 37 
36(0)->2 8 12 13 14 15 24 37 
37(3)->3 17 24 30 32 35 36 38 
38(0)->8 12 15 20 23 24 27 29 30 37 40 
39(4)->1 4 5 6 8 10 15 22 26 27 31 32 
40(6)->2 3 9 11 13 15 22 24 28 32 38 
COUNT: 0
BEST COST: 8
8
8
