1: 2 3 4 5 6 7 8 9 10 11 12 13 14 15 16 17 18 19 20 21 22 23 24 25 26 27 28 29 30 31 32 33 34 35 36 37 38 39 40 41 42 43 44 45 46 47 48 49
2: 1 3 4 5 6 7 8 9 10 11 12 13 14 15 16 17 18 19 20 21 22 23 24 25 26 27 28 29 30 31 32 33 34 35 36 37 38 39 40 41 42 43 44 45 46 47 48 49
3: 1 2 4 5 6 7 8 9 10 11 12 13 14 15 16 17 18 19 20 21 22 23 24 26 28 30 31 33 36 38 39 40 41 42 43 44 48 49
4: 1 2 3 5 6 7 8 9 10 11 12 13 14 15 16 17 18 19 20 21 22 28 30 31 32 34 36 37 38 39 41 43 44 48
5: 1 2 3 4 6 7 8 9 10 11 12 13 14 15 16 17 18 22 24 26 28 33 34 36 37 38 39 41 42 44 46 48
6: 1 2 3 4 5 7 8 9 10 11 14 15 16 17 18 20 22 23 27 28 29 30 34 35 36 39 42 44 45 48
7: 33 2 3 4 5 6 1 8 41 11 12 45 14 15 43 35 9 27 28 13 31
8: 32 1 2 3 4 5 6 33 40 39 45 46 47 48 11 50 21 7 25 30 31
9: 1 2 3 4 5 6 7 10 11 13 14 15 16 19 21 24 25 27 34 38 40 43 45 47 50
10: 1 2 3 4 5 6 9 11 13 14 15 17 18 20 21 22 23 27 29 30 33 36 42 45 47
11: 1 2 3 4 5 6 7 8 9 42 13 46 18 19 41 36 10 30
12: 48 2 3 4 5 7 41 42 43 13 47 16 49 1 21 24 36 28 29 30
13: 1 2 43 4 5 7 12 10 23 44 14 15 11 49 50 3 41 9 24 26 31
14: 1 2 3 4 5 6 7 9 10 13 16 20 21 22 24 25 27 28 30 34 37 38 40
15: 1 2 3 4 5 6 7 9 10 13 18 24 30 34 35 36 37 38 39 43 47 49
16: 32 1 2 3 4 5 6 9 12 14 47 48 19 20 22 24 26 27 31
17: 3 33 2 35 36 37 6 39 10 44 50 19 1 22 4 26 5 30 21
18: 1 2 3 4 5 6 10 11 15 21 23 25 30 31 32 33 34 37 38 39 41 43 46 48
19: 48 2 3 36 1 9 11 44 45 47 16 17 20 22 4 26 27 30 31
20: 16 2 3 36 6 38 1 40 41 10 14 48 50 19 21 24 4 26 42
21: 1 2 3 4 8 9 10 12 14 17 18 20 23 26 27 28 29 38 39 40 43 47 49
22: 3 16 2 35 4 37 1 33 10 44 14 48 49 19 17 24 25 6 42 5
23: 33 2 27 36 6 1 41 10 44 45 46 13 18 3 21 24 47 28 31
24: 1 2 3 5 9 12 13 14 15 16 20 22 23 27 30 32 38 39 40 42 44 45 46 49 50
25: 33 34 36 37 38 39 8 9 44 2 14 48 18 1 22
26: 32 16 34 3 1 5 39 42 2 13 46 48 17 50 19 20 21 37
27: 1 2 6 7 9 10 14 16 19 21 23 24 28 29 34 35 37 38 41 44 47 49 50
28: 32 1 2 3 4 38 6 7 42 39 12 45 14 21 23 27 29 30 5
29: 1 2 37 6 40 42 12 45 46 48 21 27 28 10
30: 1 2 3 4 6 8 10 11 12 14 15 17 18 19 24 28 33 34 38 42 46 47
31: 33 2 3 1 37 7 8 41 43 13 47 16 40 18 19 23 4
32: 33 34 4 1 8 41 42 44 2 16 49 18 40 24 26 28
33: 32 1 34 3 5 7 8 41 10 2 44 45 17 18 22 23 25 30 31
34: 1 2 4 5 6 9 14 15 18 25 26 27 30 32 33 36 40 42 45 47 48 49
35: 1 2 17 6 38 7 15 46 47 48 49 50 22 27
36: 1 34 3 4 37 6 49 12 10 11 44 2 46 47 17 19 20 23 25 15 5
37: 1 2 27 36 5 17 39 45 14 47 49 18 22 25 26 15 29 4 31
38: 1 2 3 4 5 9 14 15 18 20 21 24 25 27 28 30 35 39 40 41 42 47
39: 1 2 3 4 37 38 8 43 44 15 6 17 18 21 24 25 26 28 5
40: 32 1 34 3 38 8 9 2 45 14 49 50 20 21 24 29 31
41: 32 33 2 3 1 5 38 7 42 11 12 45 46 47 18 20 23 4 27 13 31
42: 32 1 34 3 5 38 41 10 11 12 2 47 26 20 22 24 6 44 28 29 30
43: 1 2 3 4 7 9 18 12 13 45 49 50 21 39 15 31
44: 32 33 2 3 36 5 6 17 42 39 13 49 50 19 1 22 23 24 25 27 4
45: 33 34 1 37 6 7 40 9 10 43 2 47 8 50 19 41 23 24 49 28 29
46: 1 2 35 36 5 8 41 11 48 18 23 24 26 29 30
47: 1 2 8 9 10 12 15 16 19 21 23 27 30 31 34 35 36 37 38 41 42 45 50
48: 3 1 34 35 4 5 6 8 12 2 46 16 18 19 20 22 25 26 29
49: 32 1 34 35 36 37 40 12 43 44 2 15 45 3 21 22 24 27 13
50: 35 8 9 43 44 45 47 17 20 40 24 26 27 13
-------
1(-1)->2 3 4 5 6 7 8 9 10 11 12 13 14 15 16 17 18 19 20 21 22 23 24 25 26 27 28 29 30 31 32 33 34 35 36 37 38 39 40 41 42 43 44 45 46 47 48 49 
2(-1)->1 3 4 5 6 7 8 9 10 11 12 13 14 15 16 17 18 19 20 21 22 23 24 25 26 27 28 29 30 31 32 33 34 35 36 37 38 39 40 41 42 43 44 45 46 47 48 49 
3(-1)->1 2 4 5 6 7 8 9 10 11 12 13 14 15 16 17 18 19 20 21 22 23 24 26 28 30 31 33 36 38 39 40 41 42 43 44 48 49 
4(-1)->1 2 3 5 6 7 8 9 10 11 12 13 14 15 16 17 18 19 20 21 22 28 30 31 32 34 36 37 38 39 41 43 44 48 
5(-1)->1 2 3 4 6 7 8 9 10 11 12 13 14 15 16 17 18 22 24 26 28 33 34 36 37 38 39 41 42 44 46 48 
6(-1)->1 2 3 4 5 7 8 9 10 11 14 15 16 17 18 20 22 23 27 28 29 30 34 35 36 39 42 44 45 48 
7(-1)->1 2 3 4 5 6 8 9 11 12 13 14 15 27 28 31 33 35 41 43 45 
8(-1)->1 2 3 4 5 6 7 11 21 25 30 31 32 33 39 40 45 46 47 48 50 
9(-1)->1 2 3 4 5 6 7 10 11 13 14 15 16 19 21 24 25 27 34 38 40 43 45 47 50 
10(-1)->1 2 3 4 5 6 9 11 13 14 15 17 18 20 21 22 23 27 29 30 33 36 42 45 47 
11(-1)->1 2 3 4 5 6 7 8 9 10 13 18 19 30 36 41 42 46 
12(-1)->1 2 3 4 5 7 13 16 21 24 28 29 30 36 41 42 43 47 48 49 
13(-1)->1 2 3 4 5 7 9 10 11 12 14 15 23 24 26 31 41 43 44 49 50 
14(-1)->1 2 3 4 5 6 7 9 10 13 16 20 21 22 24 25 27 28 30 34 37 38 40 
15(-1)->1 2 3 4 5 6 7 9 10 13 18 24 30 34 35 36 37 38 39 43 47 49 
16(-1)->1 2 3 4 5 6 9 12 14 19 20 22 24 26 27 31 32 47 48 
17(-1)->1 2 3 4 5 6 10 19 21 22 26 30 33 35 36 37 39 44 50 
18(-1)->1 2 3 4 5 6 10 11 15 21 23 25 30 31 32 33 34 37 38 39 41 43 46 48 
19(-1)->1 2 3 4 9 11 16 17 20 22 26 27 30 31 36 44 45 47 48 
20(-1)->1 2 3 4 6 10 14 16 19 21 24 26 36 38 40 41 42 48 50 
21(-1)->1 2 3 4 8 9 10 12 14 17 18 20 23 26 27 28 29 38 39 40 43 47 49 
22(-1)->1 2 3 4 5 6 10 14 16 17 19 24 25 33 35 37 42 44 48 49 
23(-1)->1 2 3 6 10 13 18 21 24 27 28 31 33 36 41 44 45 46 47 
24(-1)->1 2 3 5 9 12 13 14 15 16 20 22 23 27 30 32 38 39 40 42 44 45 46 49 50 
25(-1)->1 2 8 9 14 18 22 33 34 36 37 38 39 44 48 
26(-1)->1 2 3 5 13 16 17 19 20 21 32 34 37 39 42 46 48 50 
27(-1)->1 2 6 7 9 10 14 16 19 21 23 24 28 29 34 35 37 38 41 44 47 49 50 
28(-1)->1 2 3 4 5 6 7 12 14 21 23 27 29 30 32 38 39 42 45 
29(-1)->1 2 6 10 12 21 27 28 37 40 42 45 46 48 
30(-1)->1 2 3 4 6 8 10 11 12 14 15 17 18 19 24 28 33 34 38 42 46 47 
31(-1)->1 2 3 4 7 8 13 16 18 19 23 33 37 40 41 43 47 
32(-1)->1 2 4 8 16 18 24 26 28 33 34 40 41 42 44 49 
33(-1)->1 2 3 5 7 8 10 17 18 22 23 25 30 31 32 34 41 44 45 
34(-1)->1 2 4 5 6 9 14 15 18 25 26 27 30 32 33 36 40 42 45 47 48 49 
35(-1)->1 2 6 7 15 17 22 27 38 46 47 48 49 50 
36(-1)->1 2 3 4 5 6 10 11 12 15 17 19 20 23 25 34 37 44 46 47 49 
37(-1)->1 2 4 5 14 15 17 18 22 25 26 27 29 31 36 39 45 47 49 
38(-1)->1 2 3 4 5 9 14 15 18 20 21 24 25 27 28 30 35 39 40 41 42 47 
39(-1)->1 2 3 4 5 6 8 15 17 18 21 24 25 26 28 37 38 43 44 
40(-1)->1 2 3 8 9 14 20 21 24 29 31 32 34 38 45 49 50 
41(-1)->1 2 3 4 5 7 11 12 13 18 20 23 27 31 32 33 38 42 45 46 47 
42(-1)->1 2 3 5 6 10 11 12 20 22 24 26 28 29 30 32 34 38 41 44 47 
43(-1)->1 2 3 4 7 9 12 13 15 18 21 31 39 45 49 50 
44(-1)->1 2 3 4 5 6 13 17 19 22 23 24 25 27 32 33 36 39 42 49 50 
45(-1)->1 2 6 7 8 9 10 19 23 24 28 29 33 34 37 40 41 43 47 49 50 
46(-1)->1 2 5 8 11 18 23 24 26 29 30 35 36 41 48 
47(-1)->1 2 8 9 10 12 15 16 19 21 23 27 30 31 34 35 36 37 38 41 42 45 50 
48(-1)->1 2 3 4 5 6 8 12 16 18 19 20 22 25 26 29 34 35 46 
49(-1)->1 2 3 12 13 15 21 22 24 27 32 34 35 36 37 40 43 44 45 
50(-1)->8 9 13 17 20 24 26 27 35 40 43 44 45 47 
-------
1(0)->2 3 4 5 6 7 8 9 10 11 12 13 14 15 16 17 18 19 20 21 22 23 24 25 26 27 28 29 30 31 32 33 34 35 36 37 38 39 40 41 42 43 44 45 46 47 48 49 
2(1)->1 3 4 5 6 7 8 9 10 11 12 13 14 15 16 17 18 19 20 21 22 23 24 25 26 27 28 29 30 31 32 33 34 35 36 37 38 39 40 41 42 43 44 45 46 47 48 49 
3(2)->1 2 4 5 6 7 8 9 10 11 12 13 14 15 16 17 18 19 20 21 22 23 24 26 28 30 31 33 36 38 39 40 41 42 43 44 48 49 
4(3)->1 2 3 5 6 7 8 9 10 11 12 13 14 15 16 17 18 19 20 21 22 28 30 31 32 34 36 37 38 39 41 43 44 48 
5(4)->1 2 3 4 6 7 8 9 10 11 12 13 14 15 16 17 18 22 24 26 28 33 34 36 37 38 39 41 42 44 46 48 
6(5)->1 2 3 4 5 7 8 9 10 11 14 15 16 17 18 20 22 23 27 28 29 30 34 35 36 39 42 44 45 48 
7(6)->1 2 3 4 5 6 8 9 11 12 13 14 15 27 28 31 33 35 41 43 45 
8(7)->1 2 3 4 5 6 7 11 21 25 30 31 32 33 39 40 45 46 47 48 50 
9(7)->1 2 3 4 5 6 7 10 11 13 14 15 16 19 21 24 25 27 34 38 40 43 45 47 50 
10(6)->1 2 3 4 5 6 9 11 13 14 15 17 18 20 21 22 23 27 29 30 33 36 42 45 47 
11(8)->1 2 3 4 5 6 7 8 9 10 13 18 19 30 36 41 42 46 
12(5)->1 2 3 4 5 7 13 16 21 24 28 29 30 36 41 42 43 47 48 49 
13(9)->1 2 3 4 5 7 9 10 11 12 14 15 23 24 26 31 41 43 44 49 50 
14(8)->1 2 3 4 5 6 7 9 10 13 16 20 21 22 24 25 27 28 30 34 37 38 40 
15(8)->1 2 3 4 5 6 7 9 10 13 18 24 30 34 35 36 37 38 39 43 47 49 
16(6)->1 2 3 4 5 6 9 12 14 19 20 22 24 26 27 31 32 47 48 
17(7)->1 2 3 4 5 6 10 19 21 22 26 30 33 35 36 37 39 44 50 
18(7)->1 2 3 4 5 6 10 11 15 21 23 25 30 31 32 33 34 37 38 39 41 43 46 48 
19(4)->1 2 3 4 9 11 16 17 20 22 26 27 30 31 36 44 45 47 48 
20(7)->1 2 3 4 6 10 14 16 19 21 24 26 36 38 40 41 42 48 50 
21(4)->1 2 3 4 8 9 10 12 14 17 18 20 23 26 27 28 29 38 39 40 43 47 49 
22(9)->1 2 3 4 5 6 10 14 16 17 19 24 25 33 35 37 42 44 48 49 
23(3)->1 2 3 6 10 13 18 21 24 27 28 31 33 36 41 44 45 46 47 
24(10)->1 2 3 5 9 12 13 14 15 16 20 22 23 27 30 32 38 39 40 42 44 45 46 49 50 
25(2)->1 2 8 9 14 18 22 33 34 36 37 38 39 44 48 
26(3)->1 2 3 5 13 16 17 19 20 21 32 34 37 39 42 46 48 50 
27(2)->1 2 6 7 9 10 14 16 19 21 23 24 28 29 34 35 37 38 41 44 47 49 50 
28(7)->1 2 3 4 5 6 7 12 14 21 23 27 29 30 32 38 39 42 45 
29(3)->1 2 6 10 12 21 27 28 37 40 42 45 46 48 
30(9)->1 2 3 4 6 8 10 11 12 14 15 17 18 19 24 28 33 34 38 42 46 47 
31(5)->1 2 3 4 7 8 13 16 18 19 23 33 37 40 41 43 47 
32(2)->1 2 4 8 16 18 24 26 28 33 34 40 41 42 44 49 
33(8)->1 2 3 5 7 8 10 17 18 22 23 25 30 31 32 34 41 44 45 
34(6)->1 2 4 5 6 9 14 15 18 25 26 27 30 32 33 36 40 42 45 47 48 49 
35(3)->1 2 6 7 15 17 22 27 38 46 47 48 49 50 
36(9)->1 2 3 4 5 6 10 11 12 15 17 19 20 23 25 34 37 44 46 47 49 
37(6)->1 2 4 5 14 15 17 18 22 25 26 27 29 31 36 39 45 47 49 
38(5)->1 2 3 4 5 9 14 15 18 20 21 24 25 27 28 30 35 39 40 41 42 47 
39(9)->1 2 3 4 5 6 8 15 17 18 21 24 25 26 28 37 38 43 44 
40(9)->1 2 3 8 9 14 20 21 24 29 31 32 34 38 45 49 50 
41(10)->1 2 3 4 5 7 11 12 13 18 20 23 27 31 32 33 38 42 45 46 47 
42(11)->1 2 3 5 6 10 11 12 20 22 24 26 28 29 30 32 34 38 41 44 47 
43(10)->1 2 3 4 7 9 12 13 15 18 21 31 39 45 49 50 
44(6)->1 2 3 4 5 6 13 17 19 22 23 24 25 27 32 33 36 39 42 49 50 
45(2)->1 2 6 7 8 9 10 19 23 24 28 29 33 34 37 40 41 43 47 49 50 
46(2)->1 2 5 8 11 18 23 24 26 29 30 35 36 41 48 
47(12)->1 2 8 9 10 12 15 16 19 21 23 27 30 31 34 35 36 37 38 41 42 45 50 
48(8)->1 2 3 4 5 6 8 12 16 18 19 20 22 25 26 29 34 35 46 
49(7)->1 2 3 12 13 15 21 22 24 27 32 34 35 36 37 40 43 44 45 
50(0)->8 9 13 17 20 24 26 27 35 40 43 44 45 47 
COUNT: 0
BEST COST: 13
13
13
