1: 2 3 4 5
2: 1 3 12
3: 1 2 5 38
4: 32 1
5: 1 3
6: 27
7: 17
8: 30
9: 49 35
10: 34 46
11: 16 45
12: 17 2 44
13: 43
14: 33 46 23
15: 
16: 24 34 11 46
17: 12 7
18: 50 45
19: 
20: 45 22
21: 
22: 36 20
23: 14
24: 16 27 45
25: 37 47
26: 50 42 47
27: 24 29 6
28: 48
29: 27 47
30: 8 33
31: 
32: 4
33: 14 30
34: 16 10
35: 9
36: 48 22 38
37: 25 42 50 46
38: 3 36
39: 40
40: 45 39
41: 
42: 26 37
43: 13
44: 12
45: 40 24 18 11 20
46: 16 10 37 14
47: 25 26 29
48: 36 28
49: 9
50: 26 18 37
-------
1(-1)->2 3 4 5 
2(-1)->1 3 12 
3(-1)->1 2 5 38 
4(-1)->1 32 
5(-1)->1 3 
6(-1)->27 
7(-1)->17 
8(-1)->30 
9(-1)->35 49 
10(-1)->34 46 
11(-1)->16 45 
12(-1)->2 17 44 
13(-1)->43 
14(-1)->23 33 46 
15(-1)->
16(-1)->11 24 34 46 
17(-1)->7 12 
18(-1)->45 50 
19(-1)->
20(-1)->22 45 
21(-1)->
22(-1)->20 36 
23(-1)->14 
24(-1)->16 27 45 
25(-1)->37 47 
26(-1)->42 47 50 
27(-1)->6 24 29 
28(-1)->48 
29(-1)->27 47 
30(-1)->8 33 
31(-1)->
32(-1)->4 
33(-1)->14 30 
34(-1)->10 16 
35(-1)->9 
36(-1)->22 38 48 
37(-1)->25 42 46 50 
38(-1)->3 36 
39(-1)->40 
40(-1)->39 45 
41(-1)->
42(-1)->26 37 
43(-1)->13 
44(-1)->12 
45(-1)->11 18 20 24 40 
46(-1)->10 14 16 37 
47(-1)->25 26 29 
48(-1)->28 36 
49(-1)->9 
50(-1)->18 26 37 
-------
1(0)->2 3 4 5 
2(1)->1 3 12 
3(2)->1 2 5 38 
4(1)->1 32 
5(1)->1 3 
6(0)->27 
7(0)->17 
8(0)->30 
9(0)->35 49 
10(0)->34 46 
11(0)->16 45 
12(0)->2 17 44 
13(0)->43 
14(0)->23 33 46 
15(0)->
16(1)->11 24 34 46 
17(1)->7 12 
18(0)->45 50 
19(0)->
20(0)->22 45 
21(0)->
22(1)->20 36 
23(1)->14 
24(0)->16 27 45 
25(0)->37 47 
26(0)->42 47 50 
27(1)->6 24 29 
28(0)->48 
29(0)->27 47 
30(1)->8 33 
31(0)->
32(0)->4 
33(2)->14 30 
34(2)->10 16 
35(1)->9 
36(0)->22 38 48 
37(1)->25 42 46 50 
38(1)->3 36 
39(0)->40 
40(1)->39 45 
41(0)->
42(2)->26 37 
43(1)->13 
44(1)->12 
45(2)->11 18 20 24 40 
46(2)->10 14 16 37 
47(1)->25 26 29 
48(1)->28 36 
49(1)->9 
50(2)->18 26 37 
COUNT: 0
BEST COST: 3
3
3
