1: 2 3 4 5 6 7 8 9 10 11 12 13 14 15 16 17 18 19 20 21 22 23 24 25 26 27 28 29 30 31 32 33 34 35 36 37 38 39 40 41 42 43 44 45 46 47 48 49 50
2: 1 3 4 5 6 7 8 9 10 11 12 13 14 15 16 17 18 19 20 21 22 23 24 25 26 27 28 29 30 31 32 33 34 35 36 37 38 39 40 41 42 43 44 45 46 47 48 49
3: 1 2 4 5 6 7 8 9 10 11 12 13 14 15 16 17 18 19 20 21 22 23 24 25 26 27 28 29 30 31 32 33 34 35 36 37 38 39 40 41 42 43 44 45 46 47 48 49
4: 1 2 3 5 6 7 8 9 10 11 12 13 14 15 16 17 18 19 20 21 22 23 24 25 26 27 28 29 30 31 32 33 34 35 36 37 40 41 42 44 45 46 47 48 49
5: 1 2 3 4 6 7 8 9 10 11 12 13 14 15 16 17 18 19 20 21 22 23 24 26 27 28 29 30 31 32 33 34 35 37 38 40 41 42 45 46 48 49 50
6: 1 2 3 4 5 7 8 9 10 11 12 13 14 15 16 17 18 20 21 22 23 24 26 27 28 29 30 31 32 33 34 35 37 38 40 41 44 45 46 48 49
7: 1 2 3 4 5 6 8 9 11 12 13 14 16 17 18 20 22 23 24 25 26 27 28 29 30 31 32 33 34 36 37 38 41 44 45 46 47 48 49 50
8: 1 2 3 4 5 6 7 9 11 12 13 14 16 17 18 20 22 24 29 30 32 34 35 37 38 39 40 42 43 44 45 47 48
9: 1 2 3 4 5 6 7 8 10 11 13 14 16 17 21 23 26 27 28 29 31 32 35 40 43 46
10: 1 2 3 4 5 6 9 11 12 13 14 15 17 19 20 21 27 28 29 32 35 37 39
11: 1 2 3 4 5 6 7 8 9 10 12 13 15 17 18 20 24 26 27 28 29 30 31 36 37 38 41 42 43 46 47
12: 1 2 3 4 37 6 7 8 10 11 13 15 17 23 5
13: 1 2 3 4 5 6 7 8 9 10 11 12 14 15 20 22 23 24 25 27 30 31 34 35 40 41 42 43 44 46 47 48 49
14: 1 2 3 4 5 6 7 8 9 10 13 25 27 29 30 35 36 39 40 42 48 49
15: 1 2 3 4 5 6 10 11 12 13 17 18 19 22 23 28 29 34 35 36 37 39 41 49
16: 1 2 3 4 5 6 7 8 9 42 49 50 20 21 23 26 28 30
17: 1 2 3 4 5 6 7 8 9 10 11 12 15 22 28 29 30 37 38 44 45 47 48 50
18: 1 2 3 4 5 6 7 8 11 15 20 22 24 29 30 33 34 37 40 41 42 44 45 46
19: 1 2 3 4 5 10 15 20 22 23 24 25 26 31 32 35 36 38 39 40 42 44 45
20: 1 2 3 4 5 6 7 8 10 11 13 16 18 19 30 31 36 40 43 44 48 49
21: 32 1 2 3 4 5 6 41 42 43 44 16 10 9 22 23 24 26 28 29
22: 1 2 3 4 5 6 7 8 13 15 17 18 19 21 23 24 29 30 31 32 33 36 38 39 41 47
23: 1 2 3 4 5 6 7 9 12 13 15 16 19 21 22 29 30 33 35 37 38 39 40 41 44 47 48
24: 1 2 3 4 5 6 7 8 11 13 18 19 21 22 26 27 31 33 35 36 42 43 44 46 50
25: 1 2 3 4 7 13 14 19 27 28 29 31 34 36 38 39 40 41 45 48 49 50
26: 33 2 3 1 5 38 39 9 11 44 46 47 48 19 21 24 7 6 27 4 16
27: 1 2 3 4 5 6 7 9 10 11 13 14 24 25 26 30 35 38 40 41 42 44 45 46 49
28: 1 2 3 4 5 6 7 9 10 11 15 16 17 21 25 30 37 38 41 45 46 47 50
29: 1 2 3 4 5 6 7 8 9 10 11 14 15 17 18 21 22 23 25 30 33 35 36 37 38 45
30: 1 2 3 4 5 6 7 8 11 13 14 16 17 18 20 22 23 27 28 29 35 36 37 40 44
31: 1 2 3 4 5 6 7 9 11 13 19 20 22 24 25 32 33 37 41 42 48 49
32: 1 2 3 4 5 6 7 8 9 42 45 46 48 40 19 21 22 10 31
33: 1 2 3 4 5 6 7 18 22 23 24 26 29 31 36 38 39 42 44 45 47 50
34: 1 18 35 4 37 6 7 8 41 39 13 45 46 47 43 50 3 2 25 15 5
35: 1 2 3 4 5 6 8 9 10 13 14 15 19 23 24 27 29 30 34 37 42 43 46 49 50
36: 1 2 3 4 7 11 14 15 19 20 22 24 25 29 30 33 40 42 44 45 47 48 50
37: 1 2 3 4 5 6 7 8 10 11 12 15 17 18 23 28 29 30 31 34 35 38 46 47
38: 1 2 3 5 6 7 8 11 17 19 22 23 25 26 27 28 29 33 37 40 42 43 46
39: 33 34 3 1 8 10 43 45 46 15 50 19 14 22 23 2 25 26
40: 1 2 3 4 5 6 8 9 13 14 18 19 20 23 25 27 30 32 36 38 41 48 49 50
41: 1 2 3 4 5 6 7 11 13 15 18 21 22 23 25 27 28 31 34 40 42 45 47 50
42: 1 2 3 4 5 8 11 13 14 16 18 19 21 24 27 31 32 33 35 36 38 41 43 49
43: 1 34 35 38 39 8 9 42 11 13 50 3 20 21 24 2
44: 1 2 3 4 6 7 8 13 17 18 19 20 21 23 24 26 27 30 33 36 46 50
45: 1 2 3 4 5 6 7 8 17 18 19 25 27 28 29 32 33 34 36 39 41 47
46: 1 2 3 4 5 6 7 9 11 13 18 24 26 27 28 32 34 35 37 38 39 44 49
47: 33 34 3 36 37 7 8 41 11 13 45 17 1 22 23 2 4 26 28
48: 32 1 2 3 36 49 6 7 40 13 14 17 20 8 23 25 26 5 4 31
49: 48 2 35 1 5 6 7 40 42 13 46 15 16 3 20 14 25 27 4 31
50: 1 34 35 36 5 39 40 41 43 44 16 17 24 25 33 28 7
-------
1(-1)->2 3 4 5 6 7 8 9 10 11 12 13 14 15 16 17 18 19 20 21 22 23 24 25 26 27 28 29 30 31 32 33 34 35 36 37 38 39 40 41 42 43 44 45 46 47 48 49 50 
2(-1)->1 3 4 5 6 7 8 9 10 11 12 13 14 15 16 17 18 19 20 21 22 23 24 25 26 27 28 29 30 31 32 33 34 35 36 37 38 39 40 41 42 43 44 45 46 47 48 49 
3(-1)->1 2 4 5 6 7 8 9 10 11 12 13 14 15 16 17 18 19 20 21 22 23 24 25 26 27 28 29 30 31 32 33 34 35 36 37 38 39 40 41 42 43 44 45 46 47 48 49 
4(-1)->1 2 3 5 6 7 8 9 10 11 12 13 14 15 16 17 18 19 20 21 22 23 24 25 26 27 28 29 30 31 32 33 34 35 36 37 40 41 42 44 45 46 47 48 49 
5(-1)->1 2 3 4 6 7 8 9 10 11 12 13 14 15 16 17 18 19 20 21 22 23 24 26 27 28 29 30 31 32 33 34 35 37 38 40 41 42 45 46 48 49 50 
6(-1)->1 2 3 4 5 7 8 9 10 11 12 13 14 15 16 17 18 20 21 22 23 24 26 27 28 29 30 31 32 33 34 35 37 38 40 41 44 45 46 48 49 
7(-1)->1 2 3 4 5 6 8 9 11 12 13 14 16 17 18 20 22 23 24 25 26 27 28 29 30 31 32 33 34 36 37 38 41 44 45 46 47 48 49 50 
8(-1)->1 2 3 4 5 6 7 9 11 12 13 14 16 17 18 20 22 24 29 30 32 34 35 37 38 39 40 42 43 44 45 47 48 
9(-1)->1 2 3 4 5 6 7 8 10 11 13 14 16 17 21 23 26 27 28 29 31 32 35 40 43 46 
10(-1)->1 2 3 4 5 6 9 11 12 13 14 15 17 19 20 21 27 28 29 32 35 37 39 
11(-1)->1 2 3 4 5 6 7 8 9 10 12 13 15 17 18 20 24 26 27 28 29 30 31 36 37 38 41 42 43 46 47 
12(-1)->1 2 3 4 5 6 7 8 10 11 13 15 17 23 37 
13(-1)->1 2 3 4 5 6 7 8 9 10 11 12 14 15 20 22 23 24 25 27 30 31 34 35 40 41 42 43 44 46 47 48 49 
14(-1)->1 2 3 4 5 6 7 8 9 10 13 25 27 29 30 35 36 39 40 42 48 49 
15(-1)->1 2 3 4 5 6 10 11 12 13 17 18 19 22 23 28 29 34 35 36 37 39 41 49 
16(-1)->1 2 3 4 5 6 7 8 9 20 21 23 26 28 30 42 49 50 
17(-1)->1 2 3 4 5 6 7 8 9 10 11 12 15 22 28 29 30 37 38 44 45 47 48 50 
18(-1)->1 2 3 4 5 6 7 8 11 15 20 22 24 29 30 33 34 37 40 41 42 44 45 46 
19(-1)->1 2 3 4 5 10 15 20 22 23 24 25 26 31 32 35 36 38 39 40 42 44 45 
20(-1)->1 2 3 4 5 6 7 8 10 11 13 16 18 19 30 31 36 40 43 44 48 49 
21(-1)->1 2 3 4 5 6 9 10 16 22 23 24 26 28 29 32 41 42 43 44 
22(-1)->1 2 3 4 5 6 7 8 13 15 17 18 19 21 23 24 29 30 31 32 33 36 38 39 41 47 
23(-1)->1 2 3 4 5 6 7 9 12 13 15 16 19 21 22 29 30 33 35 37 38 39 40 41 44 47 48 
24(-1)->1 2 3 4 5 6 7 8 11 13 18 19 21 22 26 27 31 33 35 36 42 43 44 46 50 
25(-1)->1 2 3 4 7 13 14 19 27 28 29 31 34 36 38 39 40 41 45 48 49 50 
26(-1)->1 2 3 4 5 6 7 9 11 16 19 21 24 27 33 38 39 44 46 47 48 
27(-1)->1 2 3 4 5 6 7 9 10 11 13 14 24 25 26 30 35 38 40 41 42 44 45 46 49 
28(-1)->1 2 3 4 5 6 7 9 10 11 15 16 17 21 25 30 37 38 41 45 46 47 50 
29(-1)->1 2 3 4 5 6 7 8 9 10 11 14 15 17 18 21 22 23 25 30 33 35 36 37 38 45 
30(-1)->1 2 3 4 5 6 7 8 11 13 14 16 17 18 20 22 23 27 28 29 35 36 37 40 44 
31(-1)->1 2 3 4 5 6 7 9 11 13 19 20 22 24 25 32 33 37 41 42 48 49 
32(-1)->1 2 3 4 5 6 7 8 9 10 19 21 22 31 40 42 45 46 48 
33(-1)->1 2 3 4 5 6 7 18 22 23 24 26 29 31 36 38 39 42 44 45 47 50 
34(-1)->1 2 3 4 5 6 7 8 13 15 18 25 35 37 39 41 43 45 46 47 50 
35(-1)->1 2 3 4 5 6 8 9 10 13 14 15 19 23 24 27 29 30 34 37 42 43 46 49 50 
36(-1)->1 2 3 4 7 11 14 15 19 20 22 24 25 29 30 33 40 42 44 45 47 48 50 
37(-1)->1 2 3 4 5 6 7 8 10 11 12 15 17 18 23 28 29 30 31 34 35 38 46 47 
38(-1)->1 2 3 5 6 7 8 11 17 19 22 23 25 26 27 28 29 33 37 40 42 43 46 
39(-1)->1 2 3 8 10 14 15 19 22 23 25 26 33 34 43 45 46 50 
40(-1)->1 2 3 4 5 6 8 9 13 14 18 19 20 23 25 27 30 32 36 38 41 48 49 50 
41(-1)->1 2 3 4 5 6 7 11 13 15 18 21 22 23 25 27 28 31 34 40 42 45 47 50 
42(-1)->1 2 3 4 5 8 11 13 14 16 18 19 21 24 27 31 32 33 35 36 38 41 43 49 
43(-1)->1 2 3 8 9 11 13 20 21 24 34 35 38 39 42 50 
44(-1)->1 2 3 4 6 7 8 13 17 18 19 20 21 23 24 26 27 30 33 36 46 50 
45(-1)->1 2 3 4 5 6 7 8 17 18 19 25 27 28 29 32 33 34 36 39 41 47 
46(-1)->1 2 3 4 5 6 7 9 11 13 18 24 26 27 28 32 34 35 37 38 39 44 49 
47(-1)->1 2 3 4 7 8 11 13 17 22 23 26 28 33 34 36 37 41 45 
48(-1)->1 2 3 4 5 6 7 8 13 14 17 20 23 25 26 31 32 36 40 49 
49(-1)->1 2 3 4 5 6 7 13 14 15 16 20 25 27 31 35 40 42 46 48 
50(-1)->1 5 7 16 17 24 25 28 33 34 35 36 39 40 41 43 44 
-------
1(0)->2 3 4 5 6 7 8 9 10 11 12 13 14 15 16 17 18 19 20 21 22 23 24 25 26 27 28 29 30 31 32 33 34 35 36 37 38 39 40 41 42 43 44 45 46 47 48 49 50 
2(1)->1 3 4 5 6 7 8 9 10 11 12 13 14 15 16 17 18 19 20 21 22 23 24 25 26 27 28 29 30 31 32 33 34 35 36 37 38 39 40 41 42 43 44 45 46 47 48 49 
3(2)->1 2 4 5 6 7 8 9 10 11 12 13 14 15 16 17 18 19 20 21 22 23 24 25 26 27 28 29 30 31 32 33 34 35 36 37 38 39 40 41 42 43 44 45 46 47 48 49 
4(3)->1 2 3 5 6 7 8 9 10 11 12 13 14 15 16 17 18 19 20 21 22 23 24 25 26 27 28 29 30 31 32 33 34 35 36 37 40 41 42 44 45 46 47 48 49 
5(4)->1 2 3 4 6 7 8 9 10 11 12 13 14 15 16 17 18 19 20 21 22 23 24 26 27 28 29 30 31 32 33 34 35 37 38 40 41 42 45 46 48 49 50 
6(5)->1 2 3 4 5 7 8 9 10 11 12 13 14 15 16 17 18 20 21 22 23 24 26 27 28 29 30 31 32 33 34 35 37 38 40 41 44 45 46 48 49 
7(6)->1 2 3 4 5 6 8 9 11 12 13 14 16 17 18 20 22 23 24 25 26 27 28 29 30 31 32 33 34 36 37 38 41 44 45 46 47 48 49 50 
8(7)->1 2 3 4 5 6 7 9 11 12 13 14 16 17 18 20 22 24 29 30 32 34 35 37 38 39 40 42 43 44 45 47 48 
9(8)->1 2 3 4 5 6 7 8 10 11 13 14 16 17 21 23 26 27 28 29 31 32 35 40 43 46 
10(6)->1 2 3 4 5 6 9 11 12 13 14 15 17 19 20 21 27 28 29 32 35 37 39 
11(9)->1 2 3 4 5 6 7 8 9 10 12 13 15 17 18 20 24 26 27 28 29 30 31 36 37 38 41 42 43 46 47 
12(8)->1 2 3 4 5 6 7 8 10 11 13 15 17 23 37 
13(10)->1 2 3 4 5 6 7 8 9 10 11 12 14 15 20 22 23 24 25 27 30 31 34 35 40 41 42 43 44 46 47 48 49 
14(9)->1 2 3 4 5 6 7 8 9 10 13 25 27 29 30 35 36 39 40 42 48 49 
15(7)->1 2 3 4 5 6 10 11 12 13 17 18 19 22 23 28 29 34 35 36 37 39 41 49 
16(9)->1 2 3 4 5 6 7 8 9 20 21 23 26 28 30 42 49 50 
17(10)->1 2 3 4 5 6 7 8 9 10 11 12 15 22 28 29 30 37 38 44 45 47 48 50 
18(8)->1 2 3 4 5 6 7 8 11 15 20 22 24 29 30 33 34 37 40 41 42 44 45 46 
19(5)->1 2 3 4 5 10 15 20 22 23 24 25 26 31 32 35 36 38 39 40 42 44 45 
20(11)->1 2 3 4 5 6 7 8 10 11 13 16 18 19 30 31 36 40 43 44 48 49 
21(7)->1 2 3 4 5 6 9 10 16 22 23 24 26 28 29 32 41 42 43 44 
22(9)->1 2 3 4 5 6 7 8 13 15 17 18 19 21 23 24 29 30 31 32 33 36 38 39 41 47 
23(11)->1 2 3 4 5 6 7 9 12 13 15 16 19 21 22 29 30 33 35 37 38 39 40 41 44 47 48 
24(11)->1 2 3 4 5 6 7 8 11 13 18 19 21 22 26 27 31 33 35 36 42 43 44 46 50 
25(4)->1 2 3 4 7 13 14 19 27 28 29 31 34 36 38 39 40 41 45 48 49 50 
26(10)->1 2 3 4 5 6 7 9 11 16 19 21 24 27 33 38 39 44 46 47 48 
27(7)->1 2 3 4 5 6 7 9 10 11 13 14 24 25 26 30 35 38 40 41 42 44 45 46 49 
28(11)->1 2 3 4 5 6 7 9 10 11 15 16 17 21 25 30 37 38 41 45 46 47 50 
29(12)->1 2 3 4 5 6 7 8 9 10 11 14 15 17 18 21 22 23 25 30 33 35 36 37 38 45 
30(13)->1 2 3 4 5 6 7 8 11 13 14 16 17 18 20 22 23 27 28 29 35 36 37 40 44 
31(7)->1 2 3 4 5 6 7 9 11 13 19 20 22 24 25 32 33 37 41 42 48 49 
32(10)->1 2 3 4 5 6 7 8 9 10 19 21 22 31 40 42 45 46 48 
33(13)->1 2 3 4 5 6 7 18 22 23 24 26 29 31 36 38 39 42 44 45 47 50 
34(9)->1 2 3 4 5 6 7 8 13 15 18 25 35 37 39 41 43 45 46 47 50 
35(14)->1 2 3 4 5 6 8 9 10 13 14 15 19 23 24 27 29 30 34 37 42 43 46 49 50 
36(8)->1 2 3 4 7 11 14 15 19 20 22 24 25 29 30 33 40 42 44 45 47 48 50 
37(15)->1 2 3 4 5 6 7 8 10 11 12 15 17 18 23 28 29 30 31 34 35 38 46 47 
38(3)->1 2 3 5 6 7 8 11 17 19 22 23 25 26 27 28 29 33 37 40 42 43 46 
39(3)->1 2 3 8 10 14 15 19 22 23 25 26 33 34 43 45 46 50 
40(6)->1 2 3 4 5 6 8 9 13 14 18 19 20 23 25 27 30 32 36 38 41 48 49 50 
41(12)->1 2 3 4 5 6 7 11 13 15 18 21 22 23 25 27 28 31 34 40 42 45 47 50 
42(6)->1 2 3 4 5 8 11 13 14 16 18 19 21 24 27 31 32 33 35 36 38 41 43 49 
43(4)->1 2 3 8 9 11 13 20 21 24 34 35 38 39 42 50 
44(4)->1 2 3 4 6 7 8 13 17 18 19 20 21 23 24 26 27 30 33 36 46 50 
45(14)->1 2 3 4 5 6 7 8 17 18 19 25 27 28 29 32 33 34 36 39 41 47 
46(12)->1 2 3 4 5 6 7 9 11 13 18 24 26 27 28 32 34 35 37 38 39 44 49 
47(4)->1 2 3 4 7 8 11 13 17 22 23 26 28 33 34 36 37 41 45 
48(12)->1 2 3 4 5 6 7 8 13 14 17 20 23 25 26 31 32 36 40 49 
49(8)->1 2 3 4 5 6 7 13 14 15 16 20 25 27 31 35 40 42 46 48 
50(1)->1 5 7 16 17 24 25 28 33 34 35 36 39 40 41 43 44 
COUNT: 0
BEST COST: 16
16
16
