1: 
2: 24 34 22
3: 49 26 11 39
4: 33 28 5 36
5: 4 23
6: 8 9 50
7: 12 13
8: 48 17 6 25
9: 6
10: 30
11: 3
12: 7
13: 29 7
14: 21
15: 42 43 37 23
16: 41 44 30
17: 8
18: 45
19: 32 27
20: 34 44 29
21: 14 38
22: 2 35 42
23: 5 29 15
24: 34 2
25: 8
26: 3
27: 19 44
28: 4 45
29: 23 20 13 39
30: 16 10 35
31: 
32: 48 19
33: 50 4
34: 24 2 20
35: 40 30 22
36: 4
37: 15
38: 21
39: 3 29
40: 35
41: 16 44
42: 48 22 15
43: 15
44: 16 41 27 20
45: 18 28
46: 
47: 
48: 32 8 42
49: 3
50: 33 6
-------
1(-1)->
2(-1)->22 24 34 
3(-1)->11 26 39 49 
4(-1)->5 28 33 36 
5(-1)->4 23 
6(-1)->8 9 50 
7(-1)->12 13 
8(-1)->6 17 25 48 
9(-1)->6 
10(-1)->30 
11(-1)->3 
12(-1)->7 
13(-1)->7 29 
14(-1)->21 
15(-1)->23 37 42 43 
16(-1)->30 41 44 
17(-1)->8 
18(-1)->45 
19(-1)->27 32 
20(-1)->29 34 44 
21(-1)->14 38 
22(-1)->2 35 42 
23(-1)->5 15 29 
24(-1)->2 34 
25(-1)->8 
26(-1)->3 
27(-1)->19 44 
28(-1)->4 45 
29(-1)->13 20 23 39 
30(-1)->10 16 35 
31(-1)->
32(-1)->19 48 
33(-1)->4 50 
34(-1)->2 20 24 
35(-1)->22 30 40 
36(-1)->4 
37(-1)->15 
38(-1)->21 
39(-1)->3 29 
40(-1)->35 
41(-1)->16 44 
42(-1)->15 22 48 
43(-1)->15 
44(-1)->16 20 27 41 
45(-1)->18 28 
46(-1)->
47(-1)->
48(-1)->8 32 42 
49(-1)->3 
50(-1)->6 33 
-------
1(0)->
2(0)->22 24 34 
3(0)->11 26 39 49 
4(0)->5 28 33 36 
5(1)->4 23 
6(0)->8 9 50 
7(0)->12 13 
8(1)->6 17 25 48 
9(1)->6 
10(0)->30 
11(1)->3 
12(1)->7 
13(1)->7 29 
14(0)->21 
15(0)->23 37 42 43 
16(0)->30 41 44 
17(0)->8 
18(0)->45 
19(0)->27 32 
20(0)->29 34 44 
21(1)->14 38 
22(1)->2 35 42 
23(2)->5 15 29 
24(1)->2 34 
25(0)->8 
26(1)->3 
27(1)->19 44 
28(1)->4 45 
29(3)->13 20 23 39 
30(1)->10 16 35 
31(0)->
32(1)->19 48 
33(1)->4 50 
34(2)->2 20 24 
35(0)->22 30 40 
36(1)->4 
37(1)->15 
38(0)->21 
39(1)->3 29 
40(1)->35 
41(1)->16 44 
42(2)->15 22 48 
43(1)->15 
44(2)->16 20 27 41 
45(2)->18 28 
46(0)->
47(0)->
48(0)->8 32 42 
49(1)->3 
50(2)->6 33 
COUNT: 0
BEST COST: 4
4
4
