1: 2 3 4 5 6 7 8 9 10 11 12 13 14 15 16 17 18 19 20 21 22 23 24 25 26 27 28 29 30 31 32 33 34 35 36 37 38 39 40 41 42 43 44 45 46 47 48 49 50
2: 1 3 4 5 6 7 8 9 10 11 12 13 14 15 16 17 18 19 20 21 22 23 24 25 26 27 28 29 30 31 32 33 34 35 36 37 38 39 40 41 42 43 44 45 46 47 48 49
3: 1 2 4 5 6 7 8 9 10 11 12 13 14 15 16 17 18 19 20 21 22 23 24 25 26 27 28 29 30 31 32 34 35 36 37 39 41 42 43 45 46 47 48 49
4: 1 2 3 5 6 7 8 9 10 11 12 13 14 16 19 20 21 23 24 25 26 31 32 33 34 35 42 43 46 47 48 50
5: 1 2 3 4 6 7 8 9 11 13 14 15 16 19 21 23 24 25 26 28 29 35 41 46 47 48
6: 1 2 3 4 5 7 8 9 11 12 13 14 15 21 22 23 25 28 33 34 35 37 42 43 46 47 48
7: 1 2 3 4 5 6 8 9 11 13 14 16 20 24 25 27 28 30 31 32 33 35 42 45 47 48
8: 1 2 3 4 5 6 7 11 12 14 16 23 28 29 33 34 35 37 45 46 48 49
9: 1 2 3 4 5 6 7 12 14 20 22 23 24 25 28 30 32 34 35 36 38 41 42 45 46 47 49
10: 1 2 3 4 38 42 12 45 15 16 19 22 25 31
11: 1 45 3 36 49 6 7 8 2 44 13 15 17 21 22 24 4 47 5
12: 14 1 2 3 4 6 8 9 10 13 46 47 17 19 21 22 40 25 27 28 30
13: 1 2 3 4 5 6 39 40 41 11 12 15 16 43 21 22 23 7 49
14: 32 1 2 3 36 37 6 7 8 41 5 12 45 48 19 25 9 4 27 28 31
15: 3 1 34 43 5 38 40 41 10 11 44 13 46 47 16 19 2 6
16: 1 2 35 4 5 7 8 41 10 43 44 13 47 18 3 20 24 26 15 28 31
17: 33 2 35 37 1 40 11 12 45 48 49 50 3 20 21 26 29 30
18: 32 33 34 35 36 37 38 39 1 2 16 50 19 21 24 26 3
19: 1 2 3 4 5 38 33 40 10 43 12 14 47 18 21 25 26 15 29
20: 32 1 2 3 36 49 39 9 7 44 46 47 16 17 50 22 4 26 31
21: 1 2 3 4 5 6 39 40 42 11 12 13 48 17 18 19 22 36 26 28
22: 1 2 3 6 9 10 11 12 13 20 21 26 29 32 33 34 38 41 42 44 45 46 47 49 50
23: 32 33 2 3 4 5 6 1 8 9 13 47 45 48 40 35 25 26 27 31
24: 32 33 34 3 4 5 16 1 9 11 45 48 18 7 2 30 31
25: 3 33 2 35 1 37 6 7 9 10 12 34 14 47 48 49 19 23 4 42 5
26: 32 33 2 35 4 5 3 1 41 47 16 17 18 19 20 21 22 23 31 37
27: 32 33 2 3 1 37 7 40 44 42 39 12 14 47 49 50 41 23 29 31
28: 32 1 34 35 5 6 7 40 9 2 12 45 14 16 49 3 21 8 30
29: 1 2 3 36 37 38 8 43 17 19 22 40 27 5
30: 32 33 34 3 1 38 39 40 9 7 12 2 46 47 48 17 24 28
31: 1 2 3 4 7 10 14 16 20 23 24 26 27 34 35 38 43 44 45 47 48 49
32: 1 2 3 36 7 9 42 39 50 14 49 18 20 22 23 24 4 26 27 28 30
33: 1 34 35 4 6 38 7 8 2 46 17 18 19 22 23 24 25 26 27 30
34: 1 2 3 4 6 8 9 15 18 22 24 25 28 30 31 33 35 36 39 41 44 49 50
35: 1 2 3 4 5 6 7 8 9 16 17 18 23 25 26 28 31 33 34 42 43 45 46 47 48 50
36: 32 1 34 3 38 39 9 11 50 14 45 48 18 20 21 2 29
37: 1 2 3 6 17 8 41 39 44 14 49 18 25 26 27 29
38: 33 2 36 39 40 9 42 44 46 15 48 49 18 19 1 22 29 10 30 31
39: 32 1 34 3 36 37 38 43 50 46 13 48 18 20 21 2 27 30
40: 1 2 38 12 13 45 46 15 17 19 21 23 27 28 29 30
41: 1 34 3 37 9 2 13 14 15 16 49 46 22 26 27 5
42: 32 1 2 3 4 6 38 7 9 10 43 44 35 21 22 25 27
43: 3 1 2 35 4 6 39 42 13 45 15 16 49 50 19 29 31
44: 48 34 37 38 1 47 42 11 2 46 15 16 49 50 20 22 27 31
45: 1 2 3 7 8 9 10 11 14 17 22 23 24 28 31 35 36 40 43 46 48 49
46: 1 2 3 4 5 6 8 9 12 15 20 22 30 33 35 38 39 40 41 44 45 49 50
47: 1 2 3 4 5 6 7 9 11 12 15 16 19 20 22 23 25 26 27 30 31 35 44 50
48: 1 2 3 4 5 6 7 8 14 17 21 23 24 25 30 31 35 36 38 39 44 45 50
49: 1 2 3 8 9 11 13 17 20 22 25 27 28 31 32 34 37 38 41 43 44 45 46
50: 32 1 34 35 36 39 43 44 46 47 48 17 18 20 22 4 27
-------
1(-1)->2 3 4 5 6 7 8 9 10 11 12 13 14 15 16 17 18 19 20 21 22 23 24 25 26 27 28 29 30 31 32 33 34 35 36 37 38 39 40 41 42 43 44 45 46 47 48 49 50 
2(-1)->1 3 4 5 6 7 8 9 10 11 12 13 14 15 16 17 18 19 20 21 22 23 24 25 26 27 28 29 30 31 32 33 34 35 36 37 38 39 40 41 42 43 44 45 46 47 48 49 
3(-1)->1 2 4 5 6 7 8 9 10 11 12 13 14 15 16 17 18 19 20 21 22 23 24 25 26 27 28 29 30 31 32 34 35 36 37 39 41 42 43 45 46 47 48 49 
4(-1)->1 2 3 5 6 7 8 9 10 11 12 13 14 16 19 20 21 23 24 25 26 31 32 33 34 35 42 43 46 47 48 50 
5(-1)->1 2 3 4 6 7 8 9 11 13 14 15 16 19 21 23 24 25 26 28 29 35 41 46 47 48 
6(-1)->1 2 3 4 5 7 8 9 11 12 13 14 15 21 22 23 25 28 33 34 35 37 42 43 46 47 48 
7(-1)->1 2 3 4 5 6 8 9 11 13 14 16 20 24 25 27 28 30 31 32 33 35 42 45 47 48 
8(-1)->1 2 3 4 5 6 7 11 12 14 16 23 28 29 33 34 35 37 45 46 48 49 
9(-1)->1 2 3 4 5 6 7 12 14 20 22 23 24 25 28 30 32 34 35 36 38 41 42 45 46 47 49 
10(-1)->1 2 3 4 12 15 16 19 22 25 31 38 42 45 
11(-1)->1 2 3 4 5 6 7 8 13 15 17 21 22 24 36 44 45 47 49 
12(-1)->1 2 3 4 6 8 9 10 13 14 17 19 21 22 25 27 28 30 40 46 47 
13(-1)->1 2 3 4 5 6 7 11 12 15 16 21 22 23 39 40 41 43 49 
14(-1)->1 2 3 4 5 6 7 8 9 12 19 25 27 28 31 32 36 37 41 45 48 
15(-1)->1 2 3 5 6 10 11 13 16 19 34 38 40 41 43 44 46 47 
16(-1)->1 2 3 4 5 7 8 10 13 15 18 20 24 26 28 31 35 41 43 44 47 
17(-1)->1 2 3 11 12 20 21 26 29 30 33 35 37 40 45 48 49 50 
18(-1)->1 2 3 16 19 21 24 26 32 33 34 35 36 37 38 39 50 
19(-1)->1 2 3 4 5 10 12 14 15 18 21 25 26 29 33 38 40 43 47 
20(-1)->1 2 3 4 7 9 16 17 22 26 31 32 36 39 44 46 47 49 50 
21(-1)->1 2 3 4 5 6 11 12 13 17 18 19 22 26 28 36 39 40 42 48 
22(-1)->1 2 3 6 9 10 11 12 13 20 21 26 29 32 33 34 38 41 42 44 45 46 47 49 50 
23(-1)->1 2 3 4 5 6 8 9 13 25 26 27 31 32 33 35 40 45 47 48 
24(-1)->1 2 3 4 5 7 9 11 16 18 30 31 32 33 34 45 48 
25(-1)->1 2 3 4 5 6 7 9 10 12 14 19 23 33 34 35 37 42 47 48 49 
26(-1)->1 2 3 4 5 16 17 18 19 20 21 22 23 31 32 33 35 37 41 47 
27(-1)->1 2 3 7 12 14 23 29 31 32 33 37 39 40 41 42 44 47 49 50 
28(-1)->1 2 3 5 6 7 8 9 12 14 16 21 30 32 34 35 40 45 49 
29(-1)->1 2 3 5 8 17 19 22 27 36 37 38 40 43 
30(-1)->1 2 3 7 9 12 17 24 28 32 33 34 38 39 40 46 47 48 
31(-1)->1 2 3 4 7 10 14 16 20 23 24 26 27 34 35 38 43 44 45 47 48 49 
32(-1)->1 2 3 4 7 9 14 18 20 22 23 24 26 27 28 30 36 39 42 49 50 
33(-1)->1 2 4 6 7 8 17 18 19 22 23 24 25 26 27 30 34 35 38 46 
34(-1)->1 2 3 4 6 8 9 15 18 22 24 25 28 30 31 33 35 36 39 41 44 49 50 
35(-1)->1 2 3 4 5 6 7 8 9 16 17 18 23 25 26 28 31 33 34 42 43 45 46 47 48 50 
36(-1)->1 2 3 9 11 14 18 20 21 29 32 34 38 39 45 48 50 
37(-1)->1 2 3 6 8 14 17 18 25 26 27 29 39 41 44 49 
38(-1)->1 2 9 10 15 18 19 22 29 30 31 33 36 39 40 42 44 46 48 49 
39(-1)->1 2 3 13 18 20 21 27 30 32 34 36 37 38 43 46 48 50 
40(-1)->1 2 12 13 15 17 19 21 23 27 28 29 30 38 45 46 
41(-1)->1 2 3 5 9 13 14 15 16 22 26 27 34 37 46 49 
42(-1)->1 2 3 4 6 7 9 10 21 22 25 27 32 35 38 43 44 
43(-1)->1 2 3 4 6 13 15 16 19 29 31 35 39 42 45 49 50 
44(-1)->1 2 11 15 16 20 22 27 31 34 37 38 42 46 47 48 49 50 
45(-1)->1 2 3 7 8 9 10 11 14 17 22 23 24 28 31 35 36 40 43 46 48 49 
46(-1)->1 2 3 4 5 6 8 9 12 15 20 22 30 33 35 38 39 40 41 44 45 49 50 
47(-1)->1 2 3 4 5 6 7 9 11 12 15 16 19 20 22 23 25 26 27 30 31 35 44 50 
48(-1)->1 2 3 4 5 6 7 8 14 17 21 23 24 25 30 31 35 36 38 39 44 45 50 
49(-1)->1 2 3 8 9 11 13 17 20 22 25 27 28 31 32 34 37 38 41 43 44 45 46 
50(-1)->1 4 17 18 20 22 27 32 34 35 36 39 43 44 46 47 48 
-------
1(0)->2 3 4 5 6 7 8 9 10 11 12 13 14 15 16 17 18 19 20 21 22 23 24 25 26 27 28 29 30 31 32 33 34 35 36 37 38 39 40 41 42 43 44 45 46 47 48 49 50 
2(1)->1 3 4 5 6 7 8 9 10 11 12 13 14 15 16 17 18 19 20 21 22 23 24 25 26 27 28 29 30 31 32 33 34 35 36 37 38 39 40 41 42 43 44 45 46 47 48 49 
3(2)->1 2 4 5 6 7 8 9 10 11 12 13 14 15 16 17 18 19 20 21 22 23 24 25 26 27 28 29 30 31 32 34 35 36 37 39 41 42 43 45 46 47 48 49 
4(3)->1 2 3 5 6 7 8 9 10 11 12 13 14 16 19 20 21 23 24 25 26 31 32 33 34 35 42 43 46 47 48 50 
5(4)->1 2 3 4 6 7 8 9 11 13 14 15 16 19 21 23 24 25 26 28 29 35 41 46 47 48 
6(5)->1 2 3 4 5 7 8 9 11 12 13 14 15 21 22 23 25 28 33 34 35 37 42 43 46 47 48 
7(6)->1 2 3 4 5 6 8 9 11 13 14 16 20 24 25 27 28 30 31 32 33 35 42 45 47 48 
8(7)->1 2 3 4 5 6 7 11 12 14 16 23 28 29 33 34 35 37 45 46 48 49 
9(7)->1 2 3 4 5 6 7 12 14 20 22 23 24 25 28 30 32 34 35 36 38 41 42 45 46 47 49 
10(4)->1 2 3 4 12 15 16 19 22 25 31 38 42 45 
11(8)->1 2 3 4 5 6 7 8 13 15 17 21 22 24 36 44 45 47 49 
12(6)->1 2 3 4 6 8 9 10 13 14 17 19 21 22 25 27 28 30 40 46 47 
13(7)->1 2 3 4 5 6 7 11 12 15 16 21 22 23 39 40 41 43 49 
14(8)->1 2 3 4 5 6 7 8 9 12 19 25 27 28 31 32 36 37 41 45 48 
15(3)->1 2 3 5 6 10 11 13 16 19 34 38 40 41 43 44 46 47 
16(5)->1 2 3 4 5 7 8 10 13 15 18 20 24 26 28 31 35 41 43 44 47 
17(3)->1 2 3 11 12 20 21 26 29 30 33 35 37 40 45 48 49 50 
18(3)->1 2 3 16 19 21 24 26 32 33 34 35 36 37 38 39 50 
19(5)->1 2 3 4 5 10 12 14 15 18 21 25 26 29 33 38 40 43 47 
20(4)->1 2 3 4 7 9 16 17 22 26 31 32 36 39 44 46 47 49 50 
21(9)->1 2 3 4 5 6 11 12 13 17 18 19 22 26 28 36 39 40 42 48 
22(3)->1 2 3 6 9 10 11 12 13 20 21 26 29 32 33 34 38 41 42 44 45 46 47 49 50 
23(6)->1 2 3 4 5 6 8 9 13 25 26 27 31 32 33 35 40 45 47 48 
24(9)->1 2 3 4 5 7 9 11 16 18 30 31 32 33 34 45 48 
25(9)->1 2 3 4 5 6 7 9 10 12 14 19 23 33 34 35 37 42 47 48 49 
26(7)->1 2 3 4 5 16 17 18 19 20 21 22 23 31 32 33 35 37 41 47 
27(3)->1 2 3 7 12 14 23 29 31 32 33 37 39 40 41 42 44 47 49 50 
28(3)->1 2 3 5 6 7 8 9 12 14 16 21 30 32 34 35 40 45 49 
29(6)->1 2 3 5 8 17 19 22 27 36 37 38 40 43 
30(4)->1 2 3 7 9 12 17 24 28 32 33 34 38 39 40 46 47 48 
31(10)->1 2 3 4 7 10 14 16 20 23 24 26 27 34 35 38 43 44 45 47 48 49 
32(5)->1 2 3 4 7 9 14 18 20 22 23 24 26 27 28 30 36 39 42 49 50 
33(2)->1 2 4 6 7 8 17 18 19 22 23 24 25 26 27 30 34 35 38 46 
34(6)->1 2 3 4 6 8 9 15 18 22 24 25 28 30 31 33 35 36 39 41 44 49 50 
35(8)->1 2 3 4 5 6 7 8 9 16 17 18 23 25 26 28 31 33 34 42 43 45 46 47 48 50 
36(10)->1 2 3 9 11 14 18 20 21 29 32 34 38 39 45 48 50 
37(4)->1 2 3 6 8 14 17 18 25 26 27 29 39 41 44 49 
38(8)->1 2 9 10 15 18 19 22 29 30 31 33 36 39 40 42 44 46 48 49 
39(11)->1 2 3 13 18 20 21 27 30 32 34 36 37 38 43 46 48 50 
40(2)->1 2 12 13 15 17 19 21 23 27 28 29 30 38 45 46 
41(9)->1 2 3 5 9 13 14 15 16 22 26 27 34 37 46 49 
42(10)->1 2 3 4 6 7 9 10 21 22 25 27 32 35 38 43 44 
43(4)->1 2 3 4 6 13 15 16 19 29 31 35 39 42 45 49 50 
44(2)->1 2 11 15 16 20 22 27 31 34 37 38 42 46 47 48 49 50 
45(5)->1 2 3 7 8 9 10 11 14 17 22 23 24 28 31 35 36 40 43 46 48 49 
46(10)->1 2 3 4 5 6 8 9 12 15 20 22 30 33 35 38 39 40 41 44 45 49 50 
47(11)->1 2 3 4 5 6 7 9 11 12 15 16 19 20 22 23 25 26 27 30 31 35 44 50 
48(12)->1 2 3 4 5 6 7 8 14 17 21 23 24 25 30 31 35 36 38 39 44 45 50 
49(11)->1 2 3 8 9 11 13 17 20 22 25 27 28 31 32 34 37 38 41 43 44 45 46 
50(1)->1 4 17 18 20 22 27 32 34 35 36 39 43 44 46 47 48 
COUNT: 0
BEST COST: 13
13
13
