1: 2 3 4 5 6 7 8 9 10 11 12 13 14 15 16 17 18 19 20 21 22 23 24 25 26 27 28 29 30 31 32 33 34 35 36 37 38 39 40 41 42 43 44 45 46 47 48 49 50
2: 1 3 4 5 6 7 8 9 10 11 12 13 14 15 16 17 18 19 20 21 22 23 24 25 26 27 28 29 30 31 32 33 34 35 36 37 38 39 40 41 42 43 44 45 46 47 48 49 50
3: 1 2 4 5 6 7 8 9 10 11 12 13 14 15 16 17 18 19 20 21 22 23 24 25 26 27 28 29 30 31 32 33 34 35 36 37 38 39 40 41 42 43 44 45 46 47 48 49
4: 1 2 3 5 6 7 8 9 10 11 12 13 14 15 16 17 18 19 20 21 22 23 24 25 26 27 28 29 30 31 32 33 34 35 36 37 38 39 40 41 42 43 44 45 46 47 48 49 50
5: 1 2 3 4 6 7 8 9 10 11 12 13 14 15 16 17 18 19 20 21 22 23 24 25 26 27 28 29 31 32 33 34 35 36 37 39 40 41 42 43 44 45 46 47 48 49
6: 1 2 3 4 5 7 8 9 10 11 12 13 14 15 16 17 18 19 20 21 22 23 24 25 26 28 31 32 33 34 35 37 41 42 43 44 45 46 47 48
7: 1 2 3 4 5 6 8 9 10 11 12 13 14 15 16 17 18 19 20 21 22 23 24 25 26 27 28 29 30 31 32 33 34 35 42 43 45 46 47 48 50
8: 1 2 3 4 5 6 7 9 10 11 12 13 14 15 16 17 19 20 21 23 25 27 28 29 31 33 34 35 37 38 42 43 45 46 47 48 49
9: 1 2 3 4 5 6 7 8 10 11 12 13 14 15 16 17 20 22 23 24 25 26 28 30 31 32 33 34 35 36 38 41 42 45 46 47 48 49
10: 1 2 3 4 5 6 7 8 9 11 12 13 14 15 16 17 19 22 23 25 27 28 30 31 35 36 38 42 45 46 47 48
11: 1 2 3 4 5 6 7 8 9 10 12 13 14 15 16 17 21 22 24 25 27 28 29 32 35 36 42 44 45 46 47 48 49
12: 1 2 3 4 5 6 7 8 9 10 11 13 14 15 16 17 19 21 22 25 27 28 30 32 35 40 42 46 47 49
13: 1 2 3 4 5 6 7 8 9 10 11 12 14 15 16 17 18 21 22 23 26 35 37 39 40 41 43 46 47 49
14: 1 2 3 4 5 6 7 8 9 10 11 12 13 15 16 17 19 20 23 25 27 28 31 32 33 36 37 40 41 42 45 46 48
15: 1 2 3 4 5 6 7 8 9 10 11 12 13 14 16 17 19 34 35 38 40 41 43 44 46 47
16: 1 2 3 4 5 6 7 8 9 10 11 12 13 14 15 18 19 20 24 26 28 31 33 35 41 42 43 44 46 47 49
17: 1 2 3 4 5 6 7 8 9 10 11 12 13 14 15 20 21 25 26 29 30 32 33 35 37 38 39 40 44 45 48 49 50
18: 1 2 3 4 5 6 7 13 16 19 21 22 24 26 27 29 32 33 34 35 36 37 38 39 41 42 44 50
19: 1 2 3 4 5 6 7 8 10 12 14 15 16 18 21 25 26 29 33 38 40 43 45 46 47
20: 1 2 3 4 5 6 7 8 9 14 16 17 22 26 31 32 36 39 44 46 47 49 50
21: 1 2 3 4 5 6 7 8 11 12 13 17 18 19 22 26 28 36 37 39 40 42 48
22: 1 2 3 4 5 6 7 9 10 11 12 13 18 20 21 24 26 29 32 33 34 36 38 39 41 42 44 45 46 47 49 50
23: 1 2 3 4 5 6 7 8 9 10 13 14 24 25 26 27 31 32 33 35 38 40 43 45 47 48 50
24: 32 33 34 3 4 5 16 1 9 11 45 46 48 18 22 23 7 2 6 30 31
25: 1 2 3 4 5 6 7 8 9 10 11 12 14 17 19 23 28 33 34 35 37 42 43 44 47 48 49
26: 1 2 3 4 5 6 7 9 13 16 17 18 19 20 21 22 23 31 32 33 35 36 37 38 41 42 47
27: 1 2 3 4 5 7 8 10 11 12 14 18 23 29 31 32 33 36 37 39 40 41 42 44 47 49 50
28: 1 2 3 4 5 6 7 8 9 10 11 12 14 16 21 25 30 32 34 35 40 45 47 49 50
29: 1 2 3 4 5 7 8 11 17 18 19 22 27 32 33 34 36 37 38 40 43 47
30: 32 33 34 3 1 38 39 40 9 42 7 12 2 46 47 48 17 24 4 28 10
31: 1 2 3 4 5 6 7 8 9 10 14 16 20 23 24 26 27 32 34 35 38 43 44 45 47 48 49
32: 1 2 3 4 5 6 7 9 11 12 14 17 18 20 22 23 24 26 27 28 29 30 31 36 39 41 42 48 49 50
33: 1 2 3 4 5 6 7 8 9 14 16 17 18 19 22 23 24 25 26 27 29 30 34 35 36 38 46
34: 1 2 3 4 5 6 7 8 9 15 18 22 24 25 28 29 30 31 33 35 36 37 39 41 44 49 50
35: 1 2 3 4 5 6 7 8 9 10 11 12 13 15 16 17 18 23 25 26 28 31 33 34 42 43 45 46 47 48 50
36: 1 2 3 4 5 9 10 11 14 18 20 21 22 26 27 29 32 33 34 37 38 39 40 41 45 46 48 50
37: 1 2 3 4 5 6 8 13 14 17 18 21 25 26 27 29 34 36 39 41 44 49
38: 1 2 3 4 8 9 10 15 17 18 19 22 23 26 29 30 31 33 36 39 40 42 43 44 45 46 48 49
39: 1 2 3 4 5 13 17 18 20 21 22 27 30 32 34 36 37 38 43 46 48 50
40: 1 2 3 4 5 12 13 14 15 17 19 21 23 27 28 29 30 36 38 42 45 46
41: 32 1 34 3 36 37 6 9 2 13 14 15 16 49 18 46 22 4 26 27 5
42: 1 2 3 4 5 6 7 8 9 10 11 12 14 16 18 21 22 25 26 27 30 32 35 38 40 43 44 50
43: 1 2 3 4 5 6 7 8 13 15 16 19 23 25 29 31 35 38 39 42 45 49 50
44: 1 2 3 4 5 6 11 15 16 17 18 20 22 25 27 31 34 37 38 42 46 47 48 49 50
45: 1 2 3 4 5 6 7 8 9 10 11 14 17 19 22 23 24 28 31 35 36 38 40 43 46 48 49 50
46: 1 2 3 4 5 6 7 8 9 10 11 12 13 14 15 16 19 20 22 24 30 33 35 36 38 39 40 41 44 45 49 50
47: 1 2 3 4 5 6 7 8 9 10 11 12 13 15 16 19 20 22 23 25 26 27 28 29 30 31 35 44 50
48: 1 2 3 4 5 6 7 8 9 10 11 14 17 21 23 24 25 30 31 32 35 36 38 39 44 45 50
49: 1 2 3 4 5 8 9 11 12 13 16 17 20 22 25 27 28 31 32 34 37 38 41 43 44 45 46
50: 1 2 4 7 17 18 20 22 23 27 28 32 34 35 36 39 42 43 44 45 46 47 48
-------
1(-1)->2 3 4 5 6 7 8 9 10 11 12 13 14 15 16 17 18 19 20 21 22 23 24 25 26 27 28 29 30 31 32 33 34 35 36 37 38 39 40 41 42 43 44 45 46 47 48 49 50 
2(-1)->1 3 4 5 6 7 8 9 10 11 12 13 14 15 16 17 18 19 20 21 22 23 24 25 26 27 28 29 30 31 32 33 34 35 36 37 38 39 40 41 42 43 44 45 46 47 48 49 50 
3(-1)->1 2 4 5 6 7 8 9 10 11 12 13 14 15 16 17 18 19 20 21 22 23 24 25 26 27 28 29 30 31 32 33 34 35 36 37 38 39 40 41 42 43 44 45 46 47 48 49 
4(-1)->1 2 3 5 6 7 8 9 10 11 12 13 14 15 16 17 18 19 20 21 22 23 24 25 26 27 28 29 30 31 32 33 34 35 36 37 38 39 40 41 42 43 44 45 46 47 48 49 50 
5(-1)->1 2 3 4 6 7 8 9 10 11 12 13 14 15 16 17 18 19 20 21 22 23 24 25 26 27 28 29 31 32 33 34 35 36 37 39 40 41 42 43 44 45 46 47 48 49 
6(-1)->1 2 3 4 5 7 8 9 10 11 12 13 14 15 16 17 18 19 20 21 22 23 24 25 26 28 31 32 33 34 35 37 41 42 43 44 45 46 47 48 
7(-1)->1 2 3 4 5 6 8 9 10 11 12 13 14 15 16 17 18 19 20 21 22 23 24 25 26 27 28 29 30 31 32 33 34 35 42 43 45 46 47 48 50 
8(-1)->1 2 3 4 5 6 7 9 10 11 12 13 14 15 16 17 19 20 21 23 25 27 28 29 31 33 34 35 37 38 42 43 45 46 47 48 49 
9(-1)->1 2 3 4 5 6 7 8 10 11 12 13 14 15 16 17 20 22 23 24 25 26 28 30 31 32 33 34 35 36 38 41 42 45 46 47 48 49 
10(-1)->1 2 3 4 5 6 7 8 9 11 12 13 14 15 16 17 19 22 23 25 27 28 30 31 35 36 38 42 45 46 47 48 
11(-1)->1 2 3 4 5 6 7 8 9 10 12 13 14 15 16 17 21 22 24 25 27 28 29 32 35 36 42 44 45 46 47 48 49 
12(-1)->1 2 3 4 5 6 7 8 9 10 11 13 14 15 16 17 19 21 22 25 27 28 30 32 35 40 42 46 47 49 
13(-1)->1 2 3 4 5 6 7 8 9 10 11 12 14 15 16 17 18 21 22 23 26 35 37 39 40 41 43 46 47 49 
14(-1)->1 2 3 4 5 6 7 8 9 10 11 12 13 15 16 17 19 20 23 25 27 28 31 32 33 36 37 40 41 42 45 46 48 
15(-1)->1 2 3 4 5 6 7 8 9 10 11 12 13 14 16 17 19 34 35 38 40 41 43 44 46 47 
16(-1)->1 2 3 4 5 6 7 8 9 10 11 12 13 14 15 18 19 20 24 26 28 31 33 35 41 42 43 44 46 47 49 
17(-1)->1 2 3 4 5 6 7 8 9 10 11 12 13 14 15 20 21 25 26 29 30 32 33 35 37 38 39 40 44 45 48 49 50 
18(-1)->1 2 3 4 5 6 7 13 16 19 21 22 24 26 27 29 32 33 34 35 36 37 38 39 41 42 44 50 
19(-1)->1 2 3 4 5 6 7 8 10 12 14 15 16 18 21 25 26 29 33 38 40 43 45 46 47 
20(-1)->1 2 3 4 5 6 7 8 9 14 16 17 22 26 31 32 36 39 44 46 47 49 50 
21(-1)->1 2 3 4 5 6 7 8 11 12 13 17 18 19 22 26 28 36 37 39 40 42 48 
22(-1)->1 2 3 4 5 6 7 9 10 11 12 13 18 20 21 24 26 29 32 33 34 36 38 39 41 42 44 45 46 47 49 50 
23(-1)->1 2 3 4 5 6 7 8 9 10 13 14 24 25 26 27 31 32 33 35 38 40 43 45 47 48 50 
24(-1)->1 2 3 4 5 6 7 9 11 16 18 22 23 30 31 32 33 34 45 46 48 
25(-1)->1 2 3 4 5 6 7 8 9 10 11 12 14 17 19 23 28 33 34 35 37 42 43 44 47 48 49 
26(-1)->1 2 3 4 5 6 7 9 13 16 17 18 19 20 21 22 23 31 32 33 35 36 37 38 41 42 47 
27(-1)->1 2 3 4 5 7 8 10 11 12 14 18 23 29 31 32 33 36 37 39 40 41 42 44 47 49 50 
28(-1)->1 2 3 4 5 6 7 8 9 10 11 12 14 16 21 25 30 32 34 35 40 45 47 49 50 
29(-1)->1 2 3 4 5 7 8 11 17 18 19 22 27 32 33 34 36 37 38 40 43 47 
30(-1)->1 2 3 4 7 9 10 12 17 24 28 32 33 34 38 39 40 42 46 47 48 
31(-1)->1 2 3 4 5 6 7 8 9 10 14 16 20 23 24 26 27 32 34 35 38 43 44 45 47 48 49 
32(-1)->1 2 3 4 5 6 7 9 11 12 14 17 18 20 22 23 24 26 27 28 29 30 31 36 39 41 42 48 49 50 
33(-1)->1 2 3 4 5 6 7 8 9 14 16 17 18 19 22 23 24 25 26 27 29 30 34 35 36 38 46 
34(-1)->1 2 3 4 5 6 7 8 9 15 18 22 24 25 28 29 30 31 33 35 36 37 39 41 44 49 50 
35(-1)->1 2 3 4 5 6 7 8 9 10 11 12 13 15 16 17 18 23 25 26 28 31 33 34 42 43 45 46 47 48 50 
36(-1)->1 2 3 4 5 9 10 11 14 18 20 21 22 26 27 29 32 33 34 37 38 39 40 41 45 46 48 50 
37(-1)->1 2 3 4 5 6 8 13 14 17 18 21 25 26 27 29 34 36 39 41 44 49 
38(-1)->1 2 3 4 8 9 10 15 17 18 19 22 23 26 29 30 31 33 36 39 40 42 43 44 45 46 48 49 
39(-1)->1 2 3 4 5 13 17 18 20 21 22 27 30 32 34 36 37 38 43 46 48 50 
40(-1)->1 2 3 4 5 12 13 14 15 17 19 21 23 27 28 29 30 36 38 42 45 46 
41(-1)->1 2 3 4 5 6 9 13 14 15 16 18 22 26 27 32 34 36 37 46 49 
42(-1)->1 2 3 4 5 6 7 8 9 10 11 12 14 16 18 21 22 25 26 27 30 32 35 38 40 43 44 50 
43(-1)->1 2 3 4 5 6 7 8 13 15 16 19 23 25 29 31 35 38 39 42 45 49 50 
44(-1)->1 2 3 4 5 6 11 15 16 17 18 20 22 25 27 31 34 37 38 42 46 47 48 49 50 
45(-1)->1 2 3 4 5 6 7 8 9 10 11 14 17 19 22 23 24 28 31 35 36 38 40 43 46 48 49 50 
46(-1)->1 2 3 4 5 6 7 8 9 10 11 12 13 14 15 16 19 20 22 24 30 33 35 36 38 39 40 41 44 45 49 50 
47(-1)->1 2 3 4 5 6 7 8 9 10 11 12 13 15 16 19 20 22 23 25 26 27 28 29 30 31 35 44 50 
48(-1)->1 2 3 4 5 6 7 8 9 10 11 14 17 21 23 24 25 30 31 32 35 36 38 39 44 45 50 
49(-1)->1 2 3 4 5 8 9 11 12 13 16 17 20 22 25 27 28 31 32 34 37 38 41 43 44 45 46 
50(-1)->1 2 4 7 17 18 20 22 23 27 28 32 34 35 36 39 42 43 44 45 46 47 48 
-------
1(0)->2 3 4 5 6 7 8 9 10 11 12 13 14 15 16 17 18 19 20 21 22 23 24 25 26 27 28 29 30 31 32 33 34 35 36 37 38 39 40 41 42 43 44 45 46 47 48 49 50 
2(1)->1 3 4 5 6 7 8 9 10 11 12 13 14 15 16 17 18 19 20 21 22 23 24 25 26 27 28 29 30 31 32 33 34 35 36 37 38 39 40 41 42 43 44 45 46 47 48 49 50 
3(2)->1 2 4 5 6 7 8 9 10 11 12 13 14 15 16 17 18 19 20 21 22 23 24 25 26 27 28 29 30 31 32 33 34 35 36 37 38 39 40 41 42 43 44 45 46 47 48 49 
4(3)->1 2 3 5 6 7 8 9 10 11 12 13 14 15 16 17 18 19 20 21 22 23 24 25 26 27 28 29 30 31 32 33 34 35 36 37 38 39 40 41 42 43 44 45 46 47 48 49 50 
5(4)->1 2 3 4 6 7 8 9 10 11 12 13 14 15 16 17 18 19 20 21 22 23 24 25 26 27 28 29 31 32 33 34 35 36 37 39 40 41 42 43 44 45 46 47 48 49 
6(5)->1 2 3 4 5 7 8 9 10 11 12 13 14 15 16 17 18 19 20 21 22 23 24 25 26 28 31 32 33 34 35 37 41 42 43 44 45 46 47 48 
7(6)->1 2 3 4 5 6 8 9 10 11 12 13 14 15 16 17 18 19 20 21 22 23 24 25 26 27 28 29 30 31 32 33 34 35 42 43 45 46 47 48 50 
8(7)->1 2 3 4 5 6 7 9 10 11 12 13 14 15 16 17 19 20 21 23 25 27 28 29 31 33 34 35 37 38 42 43 45 46 47 48 49 
9(8)->1 2 3 4 5 6 7 8 10 11 12 13 14 15 16 17 20 22 23 24 25 26 28 30 31 32 33 34 35 36 38 41 42 45 46 47 48 49 
10(9)->1 2 3 4 5 6 7 8 9 11 12 13 14 15 16 17 19 22 23 25 27 28 30 31 35 36 38 42 45 46 47 48 
11(10)->1 2 3 4 5 6 7 8 9 10 12 13 14 15 16 17 21 22 24 25 27 28 29 32 35 36 42 44 45 46 47 48 49 
12(11)->1 2 3 4 5 6 7 8 9 10 11 13 14 15 16 17 19 21 22 25 27 28 30 32 35 40 42 46 47 49 
13(12)->1 2 3 4 5 6 7 8 9 10 11 12 14 15 16 17 18 21 22 23 26 35 37 39 40 41 43 46 47 49 
14(13)->1 2 3 4 5 6 7 8 9 10 11 12 13 15 16 17 19 20 23 25 27 28 31 32 33 36 37 40 41 42 45 46 48 
15(14)->1 2 3 4 5 6 7 8 9 10 11 12 13 14 16 17 19 34 35 38 40 41 43 44 46 47 
16(15)->1 2 3 4 5 6 7 8 9 10 11 12 13 14 15 18 19 20 24 26 28 31 33 35 41 42 43 44 46 47 49 
17(15)->1 2 3 4 5 6 7 8 9 10 11 12 13 14 15 20 21 25 26 29 30 32 33 35 37 38 39 40 44 45 48 49 50 
18(7)->1 2 3 4 5 6 7 13 16 19 21 22 24 26 27 29 32 33 34 35 36 37 38 39 41 42 44 50 
19(8)->1 2 3 4 5 6 7 8 10 12 14 15 16 18 21 25 26 29 33 38 40 43 45 46 47 
20(9)->1 2 3 4 5 6 7 8 9 14 16 17 22 26 31 32 36 39 44 46 47 49 50 
21(9)->1 2 3 4 5 6 7 8 11 12 13 17 18 19 22 26 28 36 37 39 40 42 48 
22(13)->1 2 3 4 5 6 7 9 10 11 12 13 18 20 21 24 26 29 32 33 34 36 38 39 41 42 44 45 46 47 49 50 
23(10)->1 2 3 4 5 6 7 8 9 10 13 14 24 25 26 27 31 32 33 35 38 40 43 45 47 48 50 
24(9)->1 2 3 4 5 6 7 9 11 16 18 22 23 30 31 32 33 34 45 46 48 
25(12)->1 2 3 4 5 6 7 8 9 10 11 12 14 17 19 23 28 33 34 35 37 42 43 44 47 48 49 
26(11)->1 2 3 4 5 6 7 9 13 16 17 18 19 20 21 22 23 31 32 33 35 36 37 38 41 42 47 
27(5)->1 2 3 4 5 7 8 10 11 12 14 18 23 29 31 32 33 36 37 39 40 41 42 44 47 49 50 
28(14)->1 2 3 4 5 6 7 8 9 10 11 12 14 16 21 25 30 32 34 35 40 45 47 49 50 
29(9)->1 2 3 4 5 7 8 11 17 18 19 22 27 32 33 34 36 37 38 40 43 47 
30(4)->1 2 3 4 7 9 10 12 17 24 28 32 33 34 38 39 40 42 46 47 48 
31(12)->1 2 3 4 5 6 7 8 9 10 14 16 20 23 24 26 27 32 34 35 38 43 44 45 47 48 49 
32(16)->1 2 3 4 5 6 7 9 11 12 14 17 18 20 22 23 24 26 27 28 29 30 31 36 39 41 42 48 49 50 
33(14)->1 2 3 4 5 6 7 8 9 14 16 17 18 19 22 23 24 25 26 27 29 30 34 35 36 38 46 
34(10)->1 2 3 4 5 6 7 8 9 15 18 22 24 25 28 29 30 31 33 35 36 37 39 41 44 49 50 
35(13)->1 2 3 4 5 6 7 8 9 10 11 12 13 15 16 17 18 23 25 26 28 31 33 34 42 43 45 46 47 48 50 
36(6)->1 2 3 4 5 9 10 11 14 18 20 21 22 26 27 29 32 33 34 37 38 39 40 41 45 46 48 50 
37(8)->1 2 3 4 5 6 8 13 14 17 18 21 25 26 27 29 34 36 39 41 44 49 
38(5)->1 2 3 4 8 9 10 15 17 18 19 22 23 26 29 30 31 33 36 39 40 42 43 44 45 46 48 49 
39(11)->1 2 3 4 5 13 17 18 20 21 22 27 30 32 34 36 37 38 43 46 48 50 
40(7)->1 2 3 4 5 12 13 14 15 17 19 21 23 27 28 29 30 36 38 42 45 46 
41(9)->1 2 3 4 5 6 9 13 14 15 16 18 22 26 27 32 34 36 37 46 49 
42(14)->1 2 3 4 5 6 7 8 9 10 11 12 14 16 18 21 22 25 26 27 30 32 35 38 40 43 44 50 
43(16)->1 2 3 4 5 6 7 8 13 15 16 19 23 25 29 31 35 38 39 42 45 49 50 
44(6)->1 2 3 4 5 6 11 15 16 17 18 20 22 25 27 31 34 37 38 42 46 47 48 49 50 
45(11)->1 2 3 4 5 6 7 8 9 10 11 14 17 19 22 23 24 28 31 35 36 38 40 43 46 48 49 50 
46(16)->1 2 3 4 5 6 7 8 9 10 11 12 13 14 15 16 19 20 22 24 30 33 35 36 38 39 40 41 44 45 49 50 
47(16)->1 2 3 4 5 6 7 8 9 10 11 12 13 15 16 19 20 22 23 25 26 27 28 29 30 31 35 44 50 
48(14)->1 2 3 4 5 6 7 8 9 10 11 14 17 21 23 24 25 30 31 32 35 36 38 39 44 45 50 
49(17)->1 2 3 4 5 8 9 11 12 13 16 17 20 22 25 27 28 31 32 34 37 38 41 43 44 45 46 
50(2)->1 2 4 7 17 18 20 22 23 27 28 32 34 35 36 39 42 43 44 45 46 47 48 
COUNT: 0
BEST COST: 18
18
18
