1: 2 3 4 5 6 7 8 9 10 11 12 13 14 15 16 17 18 19 20 21 22 23 24 25 26 27 28 29 30 31 32 33 34 35 36 37 38 39 40 41 42 43 44 45 46 47 48 49 50
2: 1 3 4 5 6 7 8 9 10 11 12 13 14 15 16 17 18 19 20 21 22 23 24 25 26 27 28 29 30 31 32 33 34 35 36 37 38 39 40 41 42 43 44 45 46 47 48 49 50
3: 1 2 4 5 6 7 8 9 10 11 12 13 14 15 16 17 18 19 20 21 22 23 24 25 26 27 28 29 30 31 32 33 34 35 36 37 38 39 40 41 42 43 44 45 46 47 48 49
4: 1 2 3 5 6 7 8 9 10 11 12 13 14 15 16 17 18 19 20 21 22 23 25 26 27 28 29 31 32 33 34 35 36 37 39 40 41 42 43 44 45 46 47 48 49 50
5: 1 2 3 4 6 7 8 9 10 11 12 13 14 15 16 17 18 20 21 22 24 25 27 31 32 33 34 35 36 39 40 42 43 44 45 47 48 49 50
6: 1 2 3 4 5 7 8 9 10 11 12 13 14 15 20 21 22 24 25 29 31 32 33 35 37 39 42 44 46 47 49
7: 1 2 3 4 5 6 8 9 10 11 12 13 14 15 16 19 20 21 22 23 24 25 27 28 32 33 34 35 38 42 44 45 49 50
8: 1 2 3 4 5 6 7 9 10 11 12 13 18 20 23 24 25 26 27 28 29 31 32 33 34 35 39 41 44 45 48 49 50
9: 1 2 3 4 5 6 7 8 10 11 16 18 20 22 23 24 25 26 29 31 32 33 36 39 40 41 43 44 47 50
10: 1 2 3 4 5 6 7 8 9 11 12 13 15 23 25 28 29 31 32 36 41 42 44 45 48 50
11: 1 2 3 4 5 6 7 8 9 10 12 13 14 20 21 24 25 37 40 41 44 47 48
12: 32 1 2 3 4 5 6 39 8 10 11 44 50 47 16 17 18 7 25 28
13: 1 2 3 4 5 6 7 8 10 11 20 21 25 26 27 29 30 32 34 38 40 43 44 45 47 49 50
14: 1 2 3 4 5 6 7 11 15 18 22 27 29 30 32 33 35 36 37 38 45 47 48 50
15: 1 2 3 4 5 6 7 10 14 17 18 19 20 21 26 27 28 29 32 34 35 38 41 44 45 46 47 48
16: 1 2 3 4 5 7 9 12 17 18 22 28 31 32 34 36 40 42 44 45 46 47
17: 32 33 34 35 4 5 38 1 44 42 12 2 46 15 16 50 3 23 25 27 28
18: 1 2 3 4 5 8 9 12 14 15 16 19 22 23 24 26 29 32 34 35 36 38 39 45 49 50
19: 1 2 3 4 7 15 18 20 24 26 28 29 31 36 38 39 40 42 43 44 46 48
20: 1 2 3 4 5 6 7 8 9 11 13 15 19 22 23 27 28 29 30 32 35 46 47 49
21: 1 2 43 4 6 38 39 11 13 47 48 49 50 3 7 26 15 5 30 37
22: 1 2 3 4 5 6 7 9 14 16 18 20 23 26 28 30 32 36 37 40 41 43 50
23: 32 1 2 3 4 37 7 8 9 42 45 47 17 18 20 22 24 10
24: 33 2 3 36 5 6 7 8 9 11 44 50 46 18 19 1 23 39 26 27
25: 1 2 3 4 5 6 7 8 9 10 11 12 13 17 26 28 29 30 31 33 36 37 41 42 43 45 47 50
26: 3 1 34 50 4 33 39 8 9 2 13 45 18 19 21 22 24 25 15 28
27: 1 2 3 17 5 38 7 8 41 39 44 13 14 15 49 20 24 4 31
28: 1 2 3 4 7 8 10 12 15 16 17 19 20 22 25 26 30 31 35 37 43 44 46 47 48
29: 1 2 3 4 6 8 9 10 13 14 15 18 19 20 25 32 34 36 38 40 44 45 46 47
30: 1 2 3 36 42 13 14 45 48 20 21 22 25 28 31
31: 1 2 3 4 5 6 8 9 10 16 19 25 27 28 30 33 34 35 39 40 42 44
32: 1 2 3 4 5 6 7 8 9 10 12 13 14 15 16 17 18 20 22 23 29 34 40 41 43 47 50
33: 1 2 3 4 5 6 7 8 9 14 17 24 25 26 31 35 36 38 40 41 45 46 48
34: 1 2 3 4 5 7 8 13 15 16 17 18 26 29 31 32 38 40 41 43 45 46 49
35: 33 2 3 4 38 6 1 8 17 43 5 14 15 48 49 18 20 46 7 28 31
36: 1 2 3 4 5 9 10 14 16 18 19 22 24 25 29 30 33 37 39 40 42 44 45 46 50
37: 1 2 11 36 6 38 40 42 43 14 47 48 3 21 22 23 25 28 4
38: 1 2 3 7 13 14 15 17 18 19 21 27 29 33 34 35 37 40 41 42 44 45 47 49
39: 1 2 3 4 5 6 8 9 42 12 45 47 49 18 19 21 24 36 26 27 31
40: 1 2 3 4 5 9 11 13 16 19 22 29 31 32 33 34 36 37 38 41 44 46 48 49
41: 32 33 34 3 4 38 1 40 9 42 11 44 2 46 15 8 22 25 27 10
42: 1 2 3 4 5 6 7 10 16 17 19 23 25 30 31 36 37 38 39 41 43 44 45 47 48 49
43: 32 1 34 35 4 37 3 9 42 2 44 13 45 48 19 21 22 25 28 5
44: 1 2 3 4 5 6 7 8 9 10 11 12 13 15 16 17 19 24 27 28 29 31 36 38 40 41 42 43 47
45: 1 2 3 4 5 7 8 10 13 14 15 16 18 23 25 26 29 30 33 34 36 38 39 42 43 47 48 49 50
46: 3 33 34 35 36 6 1 40 41 2 15 16 17 50 19 20 24 4 47 28 29
47: 1 2 3 4 5 6 9 11 12 13 14 15 16 20 21 23 25 28 29 32 37 38 39 42 44 45 46
48: 1 2 3 4 5 8 10 11 14 15 19 21 28 30 33 35 37 40 42 43 45 50
49: 1 34 3 4 5 6 39 40 38 42 2 13 45 8 18 35 20 21 7 27
50: 1 2 4 5 7 8 9 10 12 13 14 17 18 21 22 24 25 26 32 36 45 46 48
-------
1(-1)->2 3 4 5 6 7 8 9 10 11 12 13 14 15 16 17 18 19 20 21 22 23 24 25 26 27 28 29 30 31 32 33 34 35 36 37 38 39 40 41 42 43 44 45 46 47 48 49 50 
2(-1)->1 3 4 5 6 7 8 9 10 11 12 13 14 15 16 17 18 19 20 21 22 23 24 25 26 27 28 29 30 31 32 33 34 35 36 37 38 39 40 41 42 43 44 45 46 47 48 49 50 
3(-1)->1 2 4 5 6 7 8 9 10 11 12 13 14 15 16 17 18 19 20 21 22 23 24 25 26 27 28 29 30 31 32 33 34 35 36 37 38 39 40 41 42 43 44 45 46 47 48 49 
4(-1)->1 2 3 5 6 7 8 9 10 11 12 13 14 15 16 17 18 19 20 21 22 23 25 26 27 28 29 31 32 33 34 35 36 37 39 40 41 42 43 44 45 46 47 48 49 50 
5(-1)->1 2 3 4 6 7 8 9 10 11 12 13 14 15 16 17 18 20 21 22 24 25 27 31 32 33 34 35 36 39 40 42 43 44 45 47 48 49 50 
6(-1)->1 2 3 4 5 7 8 9 10 11 12 13 14 15 20 21 22 24 25 29 31 32 33 35 37 39 42 44 46 47 49 
7(-1)->1 2 3 4 5 6 8 9 10 11 12 13 14 15 16 19 20 21 22 23 24 25 27 28 32 33 34 35 38 42 44 45 49 50 
8(-1)->1 2 3 4 5 6 7 9 10 11 12 13 18 20 23 24 25 26 27 28 29 31 32 33 34 35 39 41 44 45 48 49 50 
9(-1)->1 2 3 4 5 6 7 8 10 11 16 18 20 22 23 24 25 26 29 31 32 33 36 39 40 41 43 44 47 50 
10(-1)->1 2 3 4 5 6 7 8 9 11 12 13 15 23 25 28 29 31 32 36 41 42 44 45 48 50 
11(-1)->1 2 3 4 5 6 7 8 9 10 12 13 14 20 21 24 25 37 40 41 44 47 48 
12(-1)->1 2 3 4 5 6 7 8 10 11 16 17 18 25 28 32 39 44 47 50 
13(-1)->1 2 3 4 5 6 7 8 10 11 20 21 25 26 27 29 30 32 34 38 40 43 44 45 47 49 50 
14(-1)->1 2 3 4 5 6 7 11 15 18 22 27 29 30 32 33 35 36 37 38 45 47 48 50 
15(-1)->1 2 3 4 5 6 7 10 14 17 18 19 20 21 26 27 28 29 32 34 35 38 41 44 45 46 47 48 
16(-1)->1 2 3 4 5 7 9 12 17 18 22 28 31 32 34 36 40 42 44 45 46 47 
17(-1)->1 2 3 4 5 12 15 16 23 25 27 28 32 33 34 35 38 42 44 46 50 
18(-1)->1 2 3 4 5 8 9 12 14 15 16 19 22 23 24 26 29 32 34 35 36 38 39 45 49 50 
19(-1)->1 2 3 4 7 15 18 20 24 26 28 29 31 36 38 39 40 42 43 44 46 48 
20(-1)->1 2 3 4 5 6 7 8 9 11 13 15 19 22 23 27 28 29 30 32 35 46 47 49 
21(-1)->1 2 3 4 5 6 7 11 13 15 26 30 37 38 39 43 47 48 49 50 
22(-1)->1 2 3 4 5 6 7 9 14 16 18 20 23 26 28 30 32 36 37 40 41 43 50 
23(-1)->1 2 3 4 7 8 9 10 17 18 20 22 24 32 37 42 45 47 
24(-1)->1 2 3 5 6 7 8 9 11 18 19 23 26 27 33 36 39 44 46 50 
25(-1)->1 2 3 4 5 6 7 8 9 10 11 12 13 17 26 28 29 30 31 33 36 37 41 42 43 45 47 50 
26(-1)->1 2 3 4 8 9 13 15 18 19 21 22 24 25 28 33 34 39 45 50 
27(-1)->1 2 3 4 5 7 8 13 14 15 17 20 24 31 38 39 41 44 49 
28(-1)->1 2 3 4 7 8 10 12 15 16 17 19 20 22 25 26 30 31 35 37 43 44 46 47 48 
29(-1)->1 2 3 4 6 8 9 10 13 14 15 18 19 20 25 32 34 36 38 40 44 45 46 47 
30(-1)->1 2 3 13 14 20 21 22 25 28 31 36 42 45 48 
31(-1)->1 2 3 4 5 6 8 9 10 16 19 25 27 28 30 33 34 35 39 40 42 44 
32(-1)->1 2 3 4 5 6 7 8 9 10 12 13 14 15 16 17 18 20 22 23 29 34 40 41 43 47 50 
33(-1)->1 2 3 4 5 6 7 8 9 14 17 24 25 26 31 35 36 38 40 41 45 46 48 
34(-1)->1 2 3 4 5 7 8 13 15 16 17 18 26 29 31 32 38 40 41 43 45 46 49 
35(-1)->1 2 3 4 5 6 7 8 14 15 17 18 20 28 31 33 38 43 46 48 49 
36(-1)->1 2 3 4 5 9 10 14 16 18 19 22 24 25 29 30 33 37 39 40 42 44 45 46 50 
37(-1)->1 2 3 4 6 11 14 21 22 23 25 28 36 38 40 42 43 47 48 
38(-1)->1 2 3 7 13 14 15 17 18 19 21 27 29 33 34 35 37 40 41 42 44 45 47 49 
39(-1)->1 2 3 4 5 6 8 9 12 18 19 21 24 26 27 31 36 42 45 47 49 
40(-1)->1 2 3 4 5 9 11 13 16 19 22 29 31 32 33 34 36 37 38 41 44 46 48 49 
41(-1)->1 2 3 4 8 9 10 11 15 22 25 27 32 33 34 38 40 42 44 46 
42(-1)->1 2 3 4 5 6 7 10 16 17 19 23 25 30 31 36 37 38 39 41 43 44 45 47 48 49 
43(-1)->1 2 3 4 5 9 13 19 21 22 25 28 32 34 35 37 42 44 45 48 
44(-1)->1 2 3 4 5 6 7 8 9 10 11 12 13 15 16 17 19 24 27 28 29 31 36 38 40 41 42 43 47 
45(-1)->1 2 3 4 5 7 8 10 13 14 15 16 18 23 25 26 29 30 33 34 36 38 39 42 43 47 48 49 50 
46(-1)->1 2 3 4 6 15 16 17 19 20 24 28 29 33 34 35 36 40 41 47 50 
47(-1)->1 2 3 4 5 6 9 11 12 13 14 15 16 20 21 23 25 28 29 32 37 38 39 42 44 45 46 
48(-1)->1 2 3 4 5 8 10 11 14 15 19 21 28 30 33 35 37 40 42 43 45 50 
49(-1)->1 2 3 4 5 6 7 8 13 18 20 21 27 34 35 38 39 40 42 45 
50(-1)->1 2 4 5 7 8 9 10 12 13 14 17 18 21 22 24 25 26 32 36 45 46 48 
-------
1(0)->2 3 4 5 6 7 8 9 10 11 12 13 14 15 16 17 18 19 20 21 22 23 24 25 26 27 28 29 30 31 32 33 34 35 36 37 38 39 40 41 42 43 44 45 46 47 48 49 50 
2(1)->1 3 4 5 6 7 8 9 10 11 12 13 14 15 16 17 18 19 20 21 22 23 24 25 26 27 28 29 30 31 32 33 34 35 36 37 38 39 40 41 42 43 44 45 46 47 48 49 50 
3(2)->1 2 4 5 6 7 8 9 10 11 12 13 14 15 16 17 18 19 20 21 22 23 24 25 26 27 28 29 30 31 32 33 34 35 36 37 38 39 40 41 42 43 44 45 46 47 48 49 
4(3)->1 2 3 5 6 7 8 9 10 11 12 13 14 15 16 17 18 19 20 21 22 23 25 26 27 28 29 31 32 33 34 35 36 37 39 40 41 42 43 44 45 46 47 48 49 50 
5(4)->1 2 3 4 6 7 8 9 10 11 12 13 14 15 16 17 18 20 21 22 24 25 27 31 32 33 34 35 36 39 40 42 43 44 45 47 48 49 50 
6(5)->1 2 3 4 5 7 8 9 10 11 12 13 14 15 20 21 22 24 25 29 31 32 33 35 37 39 42 44 46 47 49 
7(6)->1 2 3 4 5 6 8 9 10 11 12 13 14 15 16 19 20 21 22 23 24 25 27 28 32 33 34 35 38 42 44 45 49 50 
8(7)->1 2 3 4 5 6 7 9 10 11 12 13 18 20 23 24 25 26 27 28 29 31 32 33 34 35 39 41 44 45 48 49 50 
9(8)->1 2 3 4 5 6 7 8 10 11 16 18 20 22 23 24 25 26 29 31 32 33 36 39 40 41 43 44 47 50 
10(9)->1 2 3 4 5 6 7 8 9 11 12 13 15 23 25 28 29 31 32 36 41 42 44 45 48 50 
11(10)->1 2 3 4 5 6 7 8 9 10 12 13 14 20 21 24 25 37 40 41 44 47 48 
12(8)->1 2 3 4 5 6 7 8 10 11 16 17 18 25 28 32 39 44 47 50 
13(8)->1 2 3 4 5 6 7 8 10 11 20 21 25 26 27 29 30 32 34 38 40 43 44 45 47 49 50 
14(7)->1 2 3 4 5 6 7 11 15 18 22 27 29 30 32 33 35 36 37 38 45 47 48 50 
15(8)->1 2 3 4 5 6 7 10 14 17 18 19 20 21 26 27 28 29 32 34 35 38 41 44 45 46 47 48 
16(5)->1 2 3 4 5 7 9 12 17 18 22 28 31 32 34 36 40 42 44 45 46 47 
17(6)->1 2 3 4 5 12 15 16 23 25 27 28 32 33 34 35 38 42 44 46 50 
18(6)->1 2 3 4 5 8 9 12 14 15 16 19 22 23 24 26 29 32 34 35 36 38 39 45 49 50 
19(4)->1 2 3 4 7 15 18 20 24 26 28 29 31 36 38 39 40 42 43 44 46 48 
20(9)->1 2 3 4 5 6 7 8 9 11 13 15 19 22 23 27 28 29 30 32 35 46 47 49 
21(7)->1 2 3 4 5 6 7 11 13 15 26 30 37 38 39 43 47 48 49 50 
22(10)->1 2 3 4 5 6 7 9 14 16 18 20 23 26 28 30 32 36 37 40 41 43 50 
23(4)->1 2 3 4 7 8 9 10 17 18 20 22 24 32 37 42 45 47 
24(3)->1 2 3 5 6 7 8 9 11 18 19 23 26 27 33 36 39 44 46 50 
25(11)->1 2 3 4 5 6 7 8 9 10 11 12 13 17 26 28 29 30 31 33 36 37 41 42 43 45 47 50 
26(5)->1 2 3 4 8 9 13 15 18 19 21 22 24 25 28 33 34 39 45 50 
27(5)->1 2 3 4 5 7 8 13 14 15 17 20 24 31 38 39 41 44 49 
28(12)->1 2 3 4 7 8 10 12 15 16 17 19 20 22 25 26 30 31 35 37 43 44 46 47 48 
29(10)->1 2 3 4 6 8 9 10 13 14 15 18 19 20 25 32 34 36 38 40 44 45 46 47 
30(3)->1 2 3 13 14 20 21 22 25 28 31 36 42 45 48 
31(6)->1 2 3 4 5 6 8 9 10 16 19 25 27 28 30 33 34 35 39 40 42 44 
32(11)->1 2 3 4 5 6 7 8 9 10 12 13 14 15 16 17 18 20 22 23 29 34 40 41 43 47 50 
33(9)->1 2 3 4 5 6 7 8 9 14 17 24 25 26 31 35 36 38 40 41 45 46 48 
34(9)->1 2 3 4 5 7 8 13 15 16 17 18 26 29 31 32 38 40 41 43 45 46 49 
35(10)->1 2 3 4 5 6 7 8 14 15 17 18 20 28 31 33 38 43 46 48 49 
36(12)->1 2 3 4 5 9 10 14 16 18 19 22 24 25 29 30 33 37 39 40 42 44 45 46 50 
37(6)->1 2 3 4 6 11 14 21 22 23 25 28 36 38 40 42 43 47 48 
38(3)->1 2 3 7 13 14 15 17 18 19 21 27 29 33 34 35 37 40 41 42 44 45 47 49 
39(9)->1 2 3 4 5 6 8 9 12 18 19 21 24 26 27 31 36 42 45 47 49 
40(7)->1 2 3 4 5 9 11 13 16 19 22 29 31 32 33 34 36 37 38 41 44 46 48 49 
41(4)->1 2 3 4 8 9 10 11 15 22 25 27 32 33 34 38 40 42 44 46 
42(7)->1 2 3 4 5 6 7 10 16 17 19 23 25 30 31 36 37 38 39 41 43 44 45 47 48 49 
43(5)->1 2 3 4 5 9 13 19 21 22 25 28 32 34 35 37 42 44 45 48 
44(11)->1 2 3 4 5 6 7 8 9 10 11 12 13 15 16 17 19 24 27 28 29 31 36 38 40 41 42 43 47 
45(13)->1 2 3 4 5 7 8 10 13 14 15 16 18 23 25 26 29 30 33 34 36 38 39 42 43 47 48 49 50 
46(11)->1 2 3 4 6 15 16 17 19 20 24 28 29 33 34 35 36 40 41 47 50 
47(14)->1 2 3 4 5 6 9 11 12 13 14 15 16 20 21 23 25 28 29 32 37 38 39 42 44 45 46 
48(11)->1 2 3 4 5 8 10 11 14 15 19 21 28 30 33 35 37 40 42 43 45 50 
49(11)->1 2 3 4 5 6 7 8 13 18 20 21 27 34 35 38 39 40 42 45 
50(2)->1 2 4 5 7 8 9 10 12 13 14 17 18 21 22 24 25 26 32 36 45 46 48 
COUNT: 0
BEST COST: 15
15
15
