1: 2 3 4 5 6 7 8 9 10 11 12 13 14 15 16 17 18 19 20 21 22 23 24 25 26 27 28 29 30 31 32 33 34 35 36 37 38 39 40 41 42 43 44 45 46 47 48 49 50
2: 1 3 4 5 6 7 8 9 10 11 12 13 14 15 16 17 18 19 20 21 22 23 24 25 26 27 28 29 30 31 32 33 34 35 36 37 38 39 40 41 42 43 44 45 46 47 48 49 50
3: 1 2 4 5 6 7 8 9 10 11 12 13 14 15 16 17 18 19 20 21 22 23 24 25 26 27 31 32 33 34 35 36 37 39 41 42 44 45 46 47 48 49
4: 1 2 3 5 6 7 8 9 10 11 12 13 14 15 17 18 19 20 21 22 25 28 31 32 34 35 39 40 42 43 44 47 48 49 50
5: 1 2 3 4 6 7 8 9 11 12 13 14 15 16 17 20 21 22 24 25 32 33 35 36 40 42 44 45 49 50
6: 1 2 3 4 5 7 8 9 10 11 12 14 15 20 21 22 24 25 29 31 32 33 35 39 42 44 46 47 49
7: 1 2 3 4 5 6 8 9 11 16 19 20 21 22 23 24 25 27 34 35 38 44 45 49
8: 1 2 3 4 5 6 7 9 10 12 18 20 23 24 26 27 32 34 39 41 48 50
9: 1 2 3 4 5 6 7 8 10 16 20 22 23 24 25 26 31 32 33 36 39 40 41 43 44 47 50
10: 32 1 2 3 36 6 8 41 42 11 44 45 12 15 48 50 9 4 28 29 31
11: 1 2 3 4 37 6 7 40 12 10 44 13 47 48 20 21 41 24 25 5
12: 32 1 2 3 4 5 6 39 8 10 11 44 47 16 17 25 28
13: 32 1 2 43 4 5 11 44 45 47 34 49 50 3 20 21 25 26 27 29 30
14: 32 33 2 3 36 5 6 1 45 47 48 18 35 22 4 27 29 30
15: 1 2 3 4 5 6 10 17 19 20 21 26 27 28 29 35 38 41 45 46 47 48
16: 32 1 34 3 36 5 12 40 9 42 7 44 45 46 47 17 18 22 2 28 31
17: 32 33 34 3 4 5 1 44 42 12 2 46 15 16 50 23 25 27 28
18: 32 1 34 35 4 38 39 8 2 45 14 16 49 50 19 22 23 24 26 29 3
19: 1 2 3 36 38 39 40 43 46 15 48 24 18 7 4 26 28 29 31
20: 32 1 2 35 4 5 6 7 8 9 11 13 46 15 49 3 22 28 30
21: 1 2 43 4 6 38 39 11 13 47 48 49 50 3 7 26 15 5 30 37
22: 1 2 3 4 5 6 7 40 9 43 18 14 16 50 20 41 36 26 28 30 37
23: 32 1 2 3 37 7 8 9 42 45 47 17 18
24: 1 2 3 36 5 6 7 8 9 11 44 50 46 18 19 39 27
25: 1 2 3 4 5 6 7 9 11 12 13 17 26 28 30 33 36 41 42 43 45 47 50
26: 1 2 3 33 39 8 9 13 45 18 19 21 22 25 15 28
27: 1 2 3 17 38 7 8 41 39 44 13 14 15 49 24 31
28: 48 2 35 4 37 1 12 10 44 46 15 16 17 19 20 22 25 26 47 30 31
29: 32 1 34 36 6 38 10 45 44 13 46 15 18 19 14 2 47
30: 1 2 36 42 13 14 45 20 21 22 25 28 31
31: 3 33 34 35 1 6 39 40 9 42 44 2 16 19 4 27 28 10 30
32: 1 2 3 4 5 6 8 9 10 12 13 14 16 17 18 20 23 29 34 41 43 47 50
33: 1 2 35 5 6 40 9 45 46 48 17 3 14 25 26 38 31
34: 32 1 2 3 4 38 17 8 7 45 46 13 16 49 18 43 29 31
35: 33 2 3 4 38 6 1 43 5 14 15 48 49 18 20 7 28 31
36: 1 2 3 5 9 10 14 16 19 22 24 25 29 30 37 39 40 42 44 45 46 50
37: 1 2 11 36 38 40 42 43 47 48 3 21 22 23 28
38: 33 34 35 1 37 7 40 41 42 2 44 45 15 47 49 18 19 21 27 29
39: 1 2 3 4 6 8 9 42 12 45 47 49 18 19 21 24 36 26 27 31
40: 33 2 36 37 38 48 41 11 44 46 16 49 19 1 22 9 4 5 31
41: 32 1 2 3 38 40 9 42 11 46 15 8 22 25 27 10
42: 1 2 3 4 5 6 10 16 17 23 25 30 31 36 37 38 39 41 43 44 45 48 49
43: 32 1 34 35 4 37 9 42 2 44 13 45 48 19 21 22 25
44: 1 2 3 4 5 6 7 9 10 11 12 13 16 17 24 27 28 29 31 36 38 40 42 43 47
45: 1 2 3 5 7 10 13 14 15 16 18 23 25 26 29 30 33 34 36 38 39 42 43 47 48 49 50
46: 33 34 3 36 6 1 40 41 2 15 16 17 50 19 20 24 47 28 29
47: 1 2 3 4 6 9 11 12 13 14 15 16 21 23 25 28 29 32 37 38 39 44 45 46
48: 3 33 2 35 4 37 1 8 42 11 45 14 15 40 19 21 43 28 10
49: 1 34 3 4 5 6 39 40 38 42 2 13 45 18 35 20 21 7 27
50: 32 1 2 4 5 8 9 10 13 46 45 17 18 21 22 25 24 36
-------
1(-1)->2 3 4 5 6 7 8 9 10 11 12 13 14 15 16 17 18 19 20 21 22 23 24 25 26 27 28 29 30 31 32 33 34 35 36 37 38 39 40 41 42 43 44 45 46 47 48 49 50 
2(-1)->1 3 4 5 6 7 8 9 10 11 12 13 14 15 16 17 18 19 20 21 22 23 24 25 26 27 28 29 30 31 32 33 34 35 36 37 38 39 40 41 42 43 44 45 46 47 48 49 50 
3(-1)->1 2 4 5 6 7 8 9 10 11 12 13 14 15 16 17 18 19 20 21 22 23 24 25 26 27 31 32 33 34 35 36 37 39 41 42 44 45 46 47 48 49 
4(-1)->1 2 3 5 6 7 8 9 10 11 12 13 14 15 17 18 19 20 21 22 25 28 31 32 34 35 39 40 42 43 44 47 48 49 50 
5(-1)->1 2 3 4 6 7 8 9 11 12 13 14 15 16 17 20 21 22 24 25 32 33 35 36 40 42 44 45 49 50 
6(-1)->1 2 3 4 5 7 8 9 10 11 12 14 15 20 21 22 24 25 29 31 32 33 35 39 42 44 46 47 49 
7(-1)->1 2 3 4 5 6 8 9 11 16 19 20 21 22 23 24 25 27 34 35 38 44 45 49 
8(-1)->1 2 3 4 5 6 7 9 10 12 18 20 23 24 26 27 32 34 39 41 48 50 
9(-1)->1 2 3 4 5 6 7 8 10 16 20 22 23 24 25 26 31 32 33 36 39 40 41 43 44 47 50 
10(-1)->1 2 3 4 6 8 9 11 12 15 28 29 31 32 36 41 42 44 45 48 50 
11(-1)->1 2 3 4 5 6 7 10 12 13 20 21 24 25 37 40 41 44 47 48 
12(-1)->1 2 3 4 5 6 8 10 11 16 17 25 28 32 39 44 47 
13(-1)->1 2 3 4 5 11 20 21 25 26 27 29 30 32 34 43 44 45 47 49 50 
14(-1)->1 2 3 4 5 6 18 22 27 29 30 32 33 35 36 45 47 48 
15(-1)->1 2 3 4 5 6 10 17 19 20 21 26 27 28 29 35 38 41 45 46 47 48 
16(-1)->1 2 3 5 7 9 12 17 18 22 28 31 32 34 36 40 42 44 45 46 47 
17(-1)->1 2 3 4 5 12 15 16 23 25 27 28 32 33 34 42 44 46 50 
18(-1)->1 2 3 4 8 14 16 19 22 23 24 26 29 32 34 35 38 39 45 49 50 
19(-1)->1 2 3 4 7 15 18 24 26 28 29 31 36 38 39 40 43 46 48 
20(-1)->1 2 3 4 5 6 7 8 9 11 13 15 22 28 30 32 35 46 49 
21(-1)->1 2 3 4 5 6 7 11 13 15 26 30 37 38 39 43 47 48 49 50 
22(-1)->1 2 3 4 5 6 7 9 14 16 18 20 26 28 30 36 37 40 41 43 50 
23(-1)->1 2 3 7 8 9 17 18 32 37 42 45 47 
24(-1)->1 2 3 5 6 7 8 9 11 18 19 27 36 39 44 46 50 
25(-1)->1 2 3 4 5 6 7 9 11 12 13 17 26 28 30 33 36 41 42 43 45 47 50 
26(-1)->1 2 3 8 9 13 15 18 19 21 22 25 28 33 39 45 
27(-1)->1 2 3 7 8 13 14 15 17 24 31 38 39 41 44 49 
28(-1)->1 2 4 10 12 15 16 17 19 20 22 25 26 30 31 35 37 44 46 47 48 
29(-1)->1 2 6 10 13 14 15 18 19 32 34 36 38 44 45 46 47 
30(-1)->1 2 13 14 20 21 22 25 28 31 36 42 45 
31(-1)->1 2 3 4 6 9 10 16 19 27 28 30 33 34 35 39 40 42 44 
32(-1)->1 2 3 4 5 6 8 9 10 12 13 14 16 17 18 20 23 29 34 41 43 47 50 
33(-1)->1 2 3 5 6 9 14 17 25 26 31 35 38 40 45 46 48 
34(-1)->1 2 3 4 7 8 13 16 17 18 29 31 32 38 43 45 46 49 
35(-1)->1 2 3 4 5 6 7 14 15 18 20 28 31 33 38 43 48 49 
36(-1)->1 2 3 5 9 10 14 16 19 22 24 25 29 30 37 39 40 42 44 45 46 50 
37(-1)->1 2 3 11 21 22 23 28 36 38 40 42 43 47 48 
38(-1)->1 2 7 15 18 19 21 27 29 33 34 35 37 40 41 42 44 45 47 49 
39(-1)->1 2 3 4 6 8 9 12 18 19 21 24 26 27 31 36 42 45 47 49 
40(-1)->1 2 4 5 9 11 16 19 22 31 33 36 37 38 41 44 46 48 49 
41(-1)->1 2 3 8 9 10 11 15 22 25 27 32 38 40 42 46 
42(-1)->1 2 3 4 5 6 10 16 17 23 25 30 31 36 37 38 39 41 43 44 45 48 49 
43(-1)->1 2 4 9 13 19 21 22 25 32 34 35 37 42 44 45 48 
44(-1)->1 2 3 4 5 6 7 9 10 11 12 13 16 17 24 27 28 29 31 36 38 40 42 43 47 
45(-1)->1 2 3 5 7 10 13 14 15 16 18 23 25 26 29 30 33 34 36 38 39 42 43 47 48 49 50 
46(-1)->1 2 3 6 15 16 17 19 20 24 28 29 33 34 36 40 41 47 50 
47(-1)->1 2 3 4 6 9 11 12 13 14 15 16 21 23 25 28 29 32 37 38 39 44 45 46 
48(-1)->1 2 3 4 8 10 11 14 15 19 21 28 33 35 37 40 42 43 45 
49(-1)->1 2 3 4 5 6 7 13 18 20 21 27 34 35 38 39 40 42 45 
50(-1)->1 2 4 5 8 9 10 13 17 18 21 22 24 25 32 36 45 46 
-------
1(0)->2 3 4 5 6 7 8 9 10 11 12 13 14 15 16 17 18 19 20 21 22 23 24 25 26 27 28 29 30 31 32 33 34 35 36 37 38 39 40 41 42 43 44 45 46 47 48 49 50 
2(1)->1 3 4 5 6 7 8 9 10 11 12 13 14 15 16 17 18 19 20 21 22 23 24 25 26 27 28 29 30 31 32 33 34 35 36 37 38 39 40 41 42 43 44 45 46 47 48 49 50 
3(2)->1 2 4 5 6 7 8 9 10 11 12 13 14 15 16 17 18 19 20 21 22 23 24 25 26 27 31 32 33 34 35 36 37 39 41 42 44 45 46 47 48 49 
4(3)->1 2 3 5 6 7 8 9 10 11 12 13 14 15 17 18 19 20 21 22 25 28 31 32 34 35 39 40 42 43 44 47 48 49 50 
5(4)->1 2 3 4 6 7 8 9 11 12 13 14 15 16 17 20 21 22 24 25 32 33 35 36 40 42 44 45 49 50 
6(5)->1 2 3 4 5 7 8 9 10 11 12 14 15 20 21 22 24 25 29 31 32 33 35 39 42 44 46 47 49 
7(6)->1 2 3 4 5 6 8 9 11 16 19 20 21 22 23 24 25 27 34 35 38 44 45 49 
8(7)->1 2 3 4 5 6 7 9 10 12 18 20 23 24 26 27 32 34 39 41 48 50 
9(8)->1 2 3 4 5 6 7 8 10 16 20 22 23 24 25 26 31 32 33 36 39 40 41 43 44 47 50 
10(4)->1 2 3 4 6 8 9 11 12 15 28 29 31 32 36 41 42 44 45 48 50 
11(7)->1 2 3 4 5 6 7 10 12 13 20 21 24 25 37 40 41 44 47 48 
12(6)->1 2 3 4 5 6 8 10 11 16 17 25 28 32 39 44 47 
13(5)->1 2 3 4 5 11 20 21 25 26 27 29 30 32 34 43 44 45 47 49 50 
14(6)->1 2 3 4 5 6 18 22 27 29 30 32 33 35 36 45 47 48 
15(6)->1 2 3 4 5 6 10 17 19 20 21 26 27 28 29 35 38 41 45 46 47 48 
16(3)->1 2 3 5 7 9 12 17 18 22 28 31 32 34 36 40 42 44 45 46 47 
17(5)->1 2 3 4 5 12 15 16 23 25 27 28 32 33 34 42 44 46 50 
18(4)->1 2 3 4 8 14 16 19 22 23 24 26 29 32 34 35 38 39 45 49 50 
19(5)->1 2 3 4 7 15 18 24 26 28 29 31 36 38 39 40 43 46 48 
20(9)->1 2 3 4 5 6 7 8 9 11 13 15 22 28 30 32 35 46 49 
21(8)->1 2 3 4 5 6 7 11 13 15 26 30 37 38 39 43 47 48 49 50 
22(7)->1 2 3 4 5 6 7 9 14 16 18 20 26 28 30 36 37 40 41 43 50 
23(3)->1 2 3 7 8 9 17 18 32 37 42 45 47 
24(3)->1 2 3 5 6 7 8 9 11 18 19 27 36 39 44 46 50 
25(9)->1 2 3 4 5 6 7 9 11 12 13 17 26 28 30 33 36 41 42 43 45 47 50 
26(3)->1 2 3 8 9 13 15 18 19 21 22 25 28 33 39 45 
27(4)->1 2 3 7 8 13 14 15 17 24 31 38 39 41 44 49 
28(2)->1 2 4 10 12 15 16 17 19 20 22 25 26 30 31 35 37 44 46 47 48 
29(2)->1 2 6 10 13 14 15 18 19 32 34 36 38 44 45 46 47 
30(3)->1 2 13 14 20 21 22 25 28 31 36 42 45 
31(6)->1 2 3 4 6 9 10 16 19 27 28 30 33 34 35 39 40 42 44 
32(10)->1 2 3 4 5 6 8 9 10 12 13 14 16 17 18 20 23 29 34 41 43 47 50 
33(7)->1 2 3 5 6 9 14 17 25 26 31 35 38 40 45 46 48 
34(8)->1 2 3 4 7 8 13 16 17 18 29 31 32 38 43 45 46 49 
35(8)->1 2 3 4 5 6 7 14 15 18 20 28 31 33 38 43 48 49 
36(10)->1 2 3 5 9 10 14 16 19 22 24 25 29 30 37 39 40 42 44 45 46 50 
37(4)->1 2 3 11 21 22 23 28 36 38 40 42 43 47 48 
38(3)->1 2 7 15 18 19 21 27 29 33 34 35 37 40 41 42 44 45 47 49 
39(9)->1 2 3 4 6 8 9 12 18 19 21 24 26 27 31 36 42 45 47 49 
40(2)->1 2 4 5 9 11 16 19 22 31 33 36 37 38 41 44 46 48 49 
41(5)->1 2 3 8 9 10 11 15 22 25 27 32 38 40 42 46 
42(7)->1 2 3 4 5 6 10 16 17 23 25 30 31 36 37 38 39 41 43 44 45 48 49 
43(2)->1 2 4 9 13 19 21 22 25 32 34 35 37 42 44 45 48 
44(9)->1 2 3 4 5 6 7 9 10 11 12 13 16 17 24 27 28 29 31 36 38 40 42 43 47 
45(11)->1 2 3 5 7 10 13 14 15 16 18 23 25 26 29 30 33 34 36 38 39 42 43 47 48 49 50 
46(4)->1 2 3 6 15 16 17 19 20 24 28 29 33 34 36 40 41 47 50 
47(12)->1 2 3 4 6 9 11 12 13 14 15 16 21 23 25 28 29 32 37 38 39 44 45 46 
48(9)->1 2 3 4 8 10 11 14 15 19 21 28 33 35 37 40 42 43 45 
49(10)->1 2 3 4 5 6 7 13 18 20 21 27 34 35 38 39 40 42 45 
50(2)->1 2 4 5 8 9 10 13 17 18 21 22 24 25 32 36 45 46 
COUNT: 0
BEST COST: 13
13
13
