1: 2 3 4 5 6 7 8 9 10 11 12 13 14 15 16 17 18 19 20 21 22 23 24 25 26 27 28 29 30 31 32 33 34 35 36 37 38 39 40 41 42 43 44 45 46 47 48 49 50
2: 1 3 4 5 6 7 8 9 10 11 12 13 14 15 16 17 18 19 20 21 22 23 24 25 26 27 28 29 30 31 32 33 34 35 36 37 38 39 40 41 42 43 44 45 46 47 48 49
3: 1 2 4 5 6 7 8 9 10 11 12 13 14 15 16 17 18 19 20 21 22 23 24 25 26 27 28 29 30 31 32 33 34 35 37 40 41 42 44 45 46 47 48 49
4: 1 2 3 5 6 7 8 9 11 12 13 14 17 18 19 20 21 22 23 24 26 27 28 29 30 31 32 33 34 37 40 41 42 45 48 49
5: 1 2 3 4 6 7 11 12 13 14 15 16 18 20 22 23 24 26 27 28 29 30 32 33 38 45 46 49 50
6: 1 2 3 4 5 7 8 9 10 11 12 13 16 17 20 22 23 24 29 30 32 33 37 38 40 41 44 45 46 48
7: 1 2 3 4 5 6 8 11 13 16 17 20 22 24 25 26 27 28 29 31 32 34 36 37 41 44 45 46 47 48 49 50
8: 32 1 34 3 4 6 38 7 40 12 42 11 44 13 14 47 48 17 43 2
9: 32 16 2 35 4 6 1 40 43 13 11 17 3 21 23 26 27 29 31
10: 1 2 3 37 6 39 12 13 14 15 19 20 21 27 28 29
11: 1 2 3 4 5 6 7 8 9 13 15 18 24 26 27 28 29 30 31 36 37 38 41 42 43 46 47
12: 1 2 3 4 5 6 8 10 15 17 23
13: 1 2 3 4 5 6 7 8 9 10 11 15 20 22 23 24 25 27 30 31 34 35 40 42 43 44 46 47 48 49
14: 1 2 35 36 5 40 10 29 48 8 3 4 25 27 42 30
15: 1 2 3 5 10 11 12 13 17 18 19 22 23 28 29 34 35 36 37 39 41 49
16: 1 2 3 5 6 7 9 42 49 50 20 21 23 28 30
17: 1 2 50 4 37 38 7 8 9 12 45 47 48 29 3 6 15 28 44 30
18: 1 34 3 4 5 40 41 42 11 45 46 15 20 22 24 2 29 30 37
19: 32 1 2 35 36 38 39 10 15 3 20 22 23 24 25 26 42 4 31
20: 16 2 3 4 5 6 1 40 10 43 44 13 48 49 18 19 7 36 31
21: 32 1 2 3 4 41 42 43 44 16 10 9 22 23 24 26 28 29
22: 1 2 3 4 5 6 7 13 15 18 19 21 23 24 29 30 31 32 33 36 38 39 41 47
23: 1 2 3 4 5 6 9 12 13 15 16 19 21 22 29 30 33 35 37 38 40 41 44 47 48
24: 1 2 3 4 5 6 7 11 13 18 19 21 22 26 27 31 35 36 43 44 46 50
25: 1 34 3 36 38 7 40 41 39 45 14 13 48 49 50 19 2 27 28 29 31
26: 33 2 3 1 5 38 39 9 11 44 46 47 48 19 21 24 7 27 4
27: 1 2 3 4 5 7 9 10 11 13 14 24 25 26 35 38 40 41 42 44 45 46
28: 1 2 3 4 5 38 7 41 10 11 45 46 15 16 17 21 25 47 30
29: 1 2 3 4 5 6 7 9 10 11 14 15 17 18 21 22 23 25 30 35 36 37 38 45
30: 1 2 3 36 37 6 40 11 44 13 14 16 17 18 35 22 23 4 28 29 5
31: 32 33 2 3 1 37 7 41 42 11 13 48 19 20 22 9 24 25 4
32: 1 2 3 4 5 6 7 8 9 42 48 40 19 21 22 31
33: 1 2 3 36 5 38 44 47 6 50 22 23 4 26 31
34: 1 18 35 4 37 7 8 41 39 13 45 46 47 43 50 3 2 25 15
35: 1 34 3 9 42 43 13 14 15 49 50 19 46 23 24 2 27 29 30
36: 33 2 1 7 40 42 11 44 45 14 47 48 19 20 22 24 25 15 29 30
37: 1 34 3 4 38 6 7 10 11 2 46 15 17 18 23 29 30 31
38: 33 2 43 5 6 1 40 42 11 46 8 17 19 22 23 25 26 27 28 29 37
39: 1 34 10 43 45 46 15 50 19 22 2 25 26
40: 1 2 3 4 6 8 9 13 14 18 20 23 25 27 30 32 36 38 41 48 49 50
41: 1 2 3 4 6 7 11 15 18 21 22 23 25 27 28 31 34 40 42 45 47 50
42: 32 3 2 35 36 38 49 8 41 1 11 13 14 16 43 18 19 21 4 27 31
43: 1 34 35 38 39 8 9 42 11 13 50 20 21 24 2
44: 33 2 3 36 6 7 8 1 13 46 17 50 20 21 23 24 26 27 30
45: 1 34 3 36 5 6 7 41 39 2 47 17 18 25 27 28 29 4
46: 1 34 35 37 6 7 11 44 13 27 49 18 3 24 39 26 38 28 2 5
47: 33 34 3 36 7 8 41 11 13 45 17 1 22 23 2 26 28
48: 32 1 2 3 36 49 6 7 40 13 14 17 20 8 23 25 26 4 31
49: 48 2 35 1 5 7 40 42 13 46 15 16 3 20 25 4
50: 1 34 35 5 39 40 41 43 44 16 17 24 25 33 7
-------
1(-1)->2 3 4 5 6 7 8 9 10 11 12 13 14 15 16 17 18 19 20 21 22 23 24 25 26 27 28 29 30 31 32 33 34 35 36 37 38 39 40 41 42 43 44 45 46 47 48 49 50 
2(-1)->1 3 4 5 6 7 8 9 10 11 12 13 14 15 16 17 18 19 20 21 22 23 24 25 26 27 28 29 30 31 32 33 34 35 36 37 38 39 40 41 42 43 44 45 46 47 48 49 
3(-1)->1 2 4 5 6 7 8 9 10 11 12 13 14 15 16 17 18 19 20 21 22 23 24 25 26 27 28 29 30 31 32 33 34 35 37 40 41 42 44 45 46 47 48 49 
4(-1)->1 2 3 5 6 7 8 9 11 12 13 14 17 18 19 20 21 22 23 24 26 27 28 29 30 31 32 33 34 37 40 41 42 45 48 49 
5(-1)->1 2 3 4 6 7 11 12 13 14 15 16 18 20 22 23 24 26 27 28 29 30 32 33 38 45 46 49 50 
6(-1)->1 2 3 4 5 7 8 9 10 11 12 13 16 17 20 22 23 24 29 30 32 33 37 38 40 41 44 45 46 48 
7(-1)->1 2 3 4 5 6 8 11 13 16 17 20 22 24 25 26 27 28 29 31 32 34 36 37 41 44 45 46 47 48 49 50 
8(-1)->1 2 3 4 6 7 11 12 13 14 17 32 34 38 40 42 43 44 47 48 
9(-1)->1 2 3 4 6 11 13 16 17 21 23 26 27 29 31 32 35 40 43 
10(-1)->1 2 3 6 12 13 14 15 19 20 21 27 28 29 37 39 
11(-1)->1 2 3 4 5 6 7 8 9 13 15 18 24 26 27 28 29 30 31 36 37 38 41 42 43 46 47 
12(-1)->1 2 3 4 5 6 8 10 15 17 23 
13(-1)->1 2 3 4 5 6 7 8 9 10 11 15 20 22 23 24 25 27 30 31 34 35 40 42 43 44 46 47 48 49 
14(-1)->1 2 3 4 5 8 10 25 27 29 30 35 36 40 42 48 
15(-1)->1 2 3 5 10 11 12 13 17 18 19 22 23 28 29 34 35 36 37 39 41 49 
16(-1)->1 2 3 5 6 7 9 20 21 23 28 30 42 49 50 
17(-1)->1 2 3 4 6 7 8 9 12 15 28 29 30 37 38 44 45 47 48 50 
18(-1)->1 2 3 4 5 11 15 20 22 24 29 30 34 37 40 41 42 45 46 
19(-1)->1 2 3 4 10 15 20 22 23 24 25 26 31 32 35 36 38 39 42 
20(-1)->1 2 3 4 5 6 7 10 13 16 18 19 31 36 40 43 44 48 49 
21(-1)->1 2 3 4 9 10 16 22 23 24 26 28 29 32 41 42 43 44 
22(-1)->1 2 3 4 5 6 7 13 15 18 19 21 23 24 29 30 31 32 33 36 38 39 41 47 
23(-1)->1 2 3 4 5 6 9 12 13 15 16 19 21 22 29 30 33 35 37 38 40 41 44 47 48 
24(-1)->1 2 3 4 5 6 7 11 13 18 19 21 22 26 27 31 35 36 43 44 46 50 
25(-1)->1 2 3 7 13 14 19 27 28 29 31 34 36 38 39 40 41 45 48 49 50 
26(-1)->1 2 3 4 5 7 9 11 19 21 24 27 33 38 39 44 46 47 48 
27(-1)->1 2 3 4 5 7 9 10 11 13 14 24 25 26 35 38 40 41 42 44 45 46 
28(-1)->1 2 3 4 5 7 10 11 15 16 17 21 25 30 38 41 45 46 47 
29(-1)->1 2 3 4 5 6 7 9 10 11 14 15 17 18 21 22 23 25 30 35 36 37 38 45 
30(-1)->1 2 3 4 5 6 11 13 14 16 17 18 22 23 28 29 35 36 37 40 44 
31(-1)->1 2 3 4 7 9 11 13 19 20 22 24 25 32 33 37 41 42 48 
32(-1)->1 2 3 4 5 6 7 8 9 19 21 22 31 40 42 48 
33(-1)->1 2 3 4 5 6 22 23 26 31 36 38 44 47 50 
34(-1)->1 2 3 4 7 8 13 15 18 25 35 37 39 41 43 45 46 47 50 
35(-1)->1 2 3 9 13 14 15 19 23 24 27 29 30 34 42 43 46 49 50 
36(-1)->1 2 7 11 14 15 19 20 22 24 25 29 30 33 40 42 44 45 47 48 
37(-1)->1 2 3 4 6 7 10 11 15 17 18 23 29 30 31 34 38 46 
38(-1)->1 2 5 6 8 11 17 19 22 23 25 26 27 28 29 33 37 40 42 43 46 
39(-1)->1 2 10 15 19 22 25 26 34 43 45 46 50 
40(-1)->1 2 3 4 6 8 9 13 14 18 20 23 25 27 30 32 36 38 41 48 49 50 
41(-1)->1 2 3 4 6 7 11 15 18 21 22 23 25 27 28 31 34 40 42 45 47 50 
42(-1)->1 2 3 4 8 11 13 14 16 18 19 21 27 31 32 35 36 38 41 43 49 
43(-1)->1 2 8 9 11 13 20 21 24 34 35 38 39 42 50 
44(-1)->1 2 3 6 7 8 13 17 20 21 23 24 26 27 30 33 36 46 50 
45(-1)->1 2 3 4 5 6 7 17 18 25 27 28 29 34 36 39 41 47 
46(-1)->1 2 3 5 6 7 11 13 18 24 26 27 28 34 35 37 38 39 44 49 
47(-1)->1 2 3 7 8 11 13 17 22 23 26 28 33 34 36 41 45 
48(-1)->1 2 3 4 6 7 8 13 14 17 20 23 25 26 31 32 36 40 49 
49(-1)->1 2 3 4 5 7 13 15 16 20 25 35 40 42 46 48 
50(-1)->1 5 7 16 17 24 25 33 34 35 39 40 41 43 44 
-------
1(0)->2 3 4 5 6 7 8 9 10 11 12 13 14 15 16 17 18 19 20 21 22 23 24 25 26 27 28 29 30 31 32 33 34 35 36 37 38 39 40 41 42 43 44 45 46 47 48 49 50 
2(1)->1 3 4 5 6 7 8 9 10 11 12 13 14 15 16 17 18 19 20 21 22 23 24 25 26 27 28 29 30 31 32 33 34 35 36 37 38 39 40 41 42 43 44 45 46 47 48 49 
3(2)->1 2 4 5 6 7 8 9 10 11 12 13 14 15 16 17 18 19 20 21 22 23 24 25 26 27 28 29 30 31 32 33 34 35 37 40 41 42 44 45 46 47 48 49 
4(3)->1 2 3 5 6 7 8 9 11 12 13 14 17 18 19 20 21 22 23 24 26 27 28 29 30 31 32 33 34 37 40 41 42 45 48 49 
5(4)->1 2 3 4 6 7 11 12 13 14 15 16 18 20 22 23 24 26 27 28 29 30 32 33 38 45 46 49 50 
6(5)->1 2 3 4 5 7 8 9 10 11 12 13 16 17 20 22 23 24 29 30 32 33 37 38 40 41 44 45 46 48 
7(6)->1 2 3 4 5 6 8 11 13 16 17 20 22 24 25 26 27 28 29 31 32 34 36 37 41 44 45 46 47 48 49 50 
8(4)->1 2 3 4 6 7 11 12 13 14 17 32 34 38 40 42 43 44 47 48 
9(4)->1 2 3 4 6 11 13 16 17 21 23 26 27 29 31 32 35 40 43 
10(3)->1 2 3 6 12 13 14 15 19 20 21 27 28 29 37 39 
11(7)->1 2 3 4 5 6 7 8 9 13 15 18 24 26 27 28 29 30 31 36 37 38 41 42 43 46 47 
12(6)->1 2 3 4 5 6 8 10 15 17 23 
13(8)->1 2 3 4 5 6 7 8 9 10 11 15 20 22 23 24 25 27 30 31 34 35 40 42 43 44 46 47 48 49 
14(5)->1 2 3 4 5 8 10 25 27 29 30 35 36 40 42 48 
15(5)->1 2 3 5 10 11 12 13 17 18 19 22 23 28 29 34 35 36 37 39 41 49 
16(3)->1 2 3 5 6 7 9 20 21 23 28 30 42 49 50 
17(7)->1 2 3 4 6 7 8 9 12 15 28 29 30 37 38 44 45 47 48 50 
18(6)->1 2 3 4 5 11 15 20 22 24 29 30 34 37 40 41 42 45 46 
19(4)->1 2 3 4 10 15 20 22 23 24 25 26 31 32 35 36 38 39 42 
20(7)->1 2 3 4 5 6 7 10 13 16 18 19 31 36 40 43 44 48 49 
21(5)->1 2 3 4 9 10 16 22 23 24 26 28 29 32 41 42 43 44 
22(7)->1 2 3 4 5 6 7 13 15 18 19 21 23 24 29 30 31 32 33 36 38 39 41 47 
23(9)->1 2 3 4 5 6 9 12 13 15 16 19 21 22 29 30 33 35 37 38 40 41 44 47 48 
24(9)->1 2 3 4 5 6 7 11 13 18 19 21 22 26 27 31 35 36 43 44 46 50 
25(3)->1 2 3 7 13 14 19 27 28 29 31 34 36 38 39 40 41 45 48 49 50 
26(8)->1 2 3 4 5 7 9 11 19 21 24 27 33 38 39 44 46 47 48 
27(10)->1 2 3 4 5 7 9 10 11 13 14 24 25 26 35 38 40 41 42 44 45 46 
28(8)->1 2 3 4 5 7 10 11 15 16 17 21 25 30 38 41 45 46 47 
29(8)->1 2 3 4 5 6 7 9 10 11 14 15 17 18 21 22 23 25 30 35 36 37 38 45 
30(10)->1 2 3 4 5 6 11 13 14 16 17 18 22 23 28 29 35 36 37 40 44 
31(5)->1 2 3 4 7 9 11 13 19 20 22 24 25 32 33 37 41 42 48 
32(8)->1 2 3 4 5 6 7 8 9 19 21 22 31 40 42 48 
33(6)->1 2 3 4 5 6 22 23 26 31 36 38 44 47 50 
34(7)->1 2 3 4 7 8 13 15 18 25 35 37 39 41 43 45 46 47 50 
35(3)->1 2 3 9 13 14 15 19 23 24 27 29 30 34 42 43 46 49 50 
36(2)->1 2 7 11 14 15 19 20 22 24 25 29 30 33 40 42 44 45 47 48 
37(4)->1 2 3 4 6 7 10 11 15 17 18 23 29 30 31 34 38 46 
38(2)->1 2 5 6 8 11 17 19 22 23 25 26 27 28 29 33 37 40 42 43 46 
39(2)->1 2 10 15 19 22 25 26 34 43 45 46 50 
40(11)->1 2 3 4 6 8 9 13 14 18 20 23 25 27 30 32 36 38 41 48 49 50 
41(4)->1 2 3 4 6 7 11 15 18 21 22 23 25 27 28 31 34 40 42 45 47 50 
42(9)->1 2 3 4 8 11 13 14 16 18 19 21 27 31 32 35 36 38 41 43 49 
43(6)->1 2 8 9 11 13 20 21 24 34 35 38 39 42 50 
44(3)->1 2 3 6 7 8 13 17 20 21 23 24 26 27 30 33 36 46 50 
45(9)->1 2 3 4 5 6 7 17 18 25 27 28 29 34 36 39 41 47 
46(11)->1 2 3 5 6 7 11 13 18 24 26 27 28 34 35 37 38 39 44 49 
47(3)->1 2 3 7 8 11 13 17 22 23 26 28 33 34 36 41 45 
48(10)->1 2 3 4 6 7 8 13 14 17 20 23 25 26 31 32 36 40 49 
49(12)->1 2 3 4 5 7 13 15 16 20 25 35 40 42 46 48 
50(1)->1 5 7 16 17 24 25 33 34 35 39 40 41 43 44 
COUNT: 0
BEST COST: 13
13
13
