1: 2 3 4 5 6 7 8 9 10 11 12 13 14 15 16 17 18 19 20 21 22 23 24 25 26 27 28 29 30 31 32 33 34 35 36 37 38 39 40 41 42 43 44 45 46 47 48 49
2: 1 3 4 5 6 7 8 9 10 11 12 13 14 15 16 17 18 19 20 21 22 23 24 25 26 27 28 29 30 31 32 33 34 35 36 37 38 39 40 41 42 43 44 45 46 47 48 49
3: 1 2 4 5 6 7 8 9 10 11 12 13 14 15 16 17 18 19 20 21 22 23 24 25 26 27 28 30 33 35 36 38 39 41 42 43 44 45 46 48 50
4: 1 2 3 5 6 7 8 9 10 11 12 13 14 15 16 17 18 19 20 22 25 27 28 29 32 35 37 40 42 44 45 46 47 49
5: 1 2 3 4 6 7 8 9 10 12 13 14 15 16 18 19 20 25 27 28 34 41 42 44
6: 1 2 3 4 5 7 8 9 12 13 14 15 16 20 23 26 27 30 32 33 34 35 38 41 43 45 46 48 49
7: 1 2 3 4 5 6 8 12 13 14 15 16 17 18 21 23 24 26 27 28 36 40 43 46 48
8: 1 34 3 36 5 38 39 9 2 45 46 13 6 19 21 22 7 4 26 27 28
9: 1 2 3 4 5 6 8 12 13 14 16 17 20 26 28 29 30 32 33 35 36 37 40 44 48
10: 33 2 3 4 5 1 40 44 45 46 15 22 29
11: 1 34 3 4 38 42 2 46 17 19 14 22 23 26 27 28 29 31
12: 33 2 3 4 37 6 1 9 43 44 48 49 35 24 25 29 7 5
13: 32 1 2 35 4 33 38 39 8 9 43 5 16 49 50 3 24 7 6 28 36
14: 33 34 35 36 5 6 1 40 9 43 45 46 11 18 3 7 2 4 28 30 31
15: 1 2 3 4 5 6 7 40 42 18 46 45 50 20 25 26 28 10 30
16: 1 2 3 4 5 6 7 9 13 17 20 22 25 29 30 31 32 33 36 37 42 43 45 46 47
17: 32 1 2 3 36 38 7 9 11 44 16 20 24 25 26 28 4 31
18: 1 2 3 4 5 7 42 14 15 48 19 21 22 26 47 29 30 31
19: 1 2 11 36 5 38 40 43 50 8 49 18 3 22 24 25 27 29 4
20: 1 2 3 4 5 6 9 15 16 17 22 27 29 34 36 37 42 43 45 46 47 48 49
21: 32 33 2 35 1 37 38 7 40 42 44 45 47 8 18 3 24 25 28 29 31
22: 1 2 3 4 8 10 11 16 18 19 20 25 29 33 34 35 39 41 42 45 47 50
23: 33 2 43 36 37 6 7 11 47 49 50 3 1 25 38 29 30 31
24: 1 2 3 7 40 41 42 12 13 46 48 17 50 19 21
25: 1 2 3 4 5 12 15 16 17 19 21 22 23 26 33 36 38 39 42 43 44 45 50
26: 1 2 3 6 7 8 9 11 15 17 18 25 27 30 36 37 38 39 40 41 42 44 48 50
27: 32 1 2 3 4 5 35 39 8 7 45 11 49 19 20 6 26 28 29 31
28: 1 2 27 17 5 7 8 9 42 11 34 14 13 49 3 21 4 15 29
29: 1 2 4 9 10 11 12 16 18 19 20 21 22 23 27 28 30 31 35 36 39 45 49 50
30: 1 18 3 37 6 9 2 44 45 14 15 16 49 50 46 23 26 29
31: 32 1 2 35 38 17 41 11 44 50 14 16 49 18 21 43 23 27 29
32: 1 34 4 38 6 49 41 2 13 45 16 17 21 9 27 31
33: 3 1 2 35 36 6 48 40 9 10 43 12 13 14 16 50 41 21 22 23 25
34: 32 1 2 35 36 5 6 8 42 11 45 14 20 22 28
35: 1 2 3 4 6 9 12 13 14 21 22 27 29 31 33 34 36 37 40 43 45 50
36: 1 2 3 7 8 9 13 14 16 17 19 20 23 25 26 29 33 34 35 37 38 40 41 42 43 44 49 50
37: 1 2 35 36 38 9 41 12 46 16 50 20 21 23 4 26 30
38: 32 1 2 3 36 37 6 8 43 45 13 11 17 50 19 21 23 25 26 31
39: 1 2 3 8 43 13 49 50 22 25 26 27 29
40: 1 2 4 7 9 10 14 15 19 21 24 26 33 35 36 41 42 43 44 45 47 48 50
41: 32 33 2 3 36 5 6 1 40 43 45 46 47 48 49 22 24 26 37 31
42: 1 34 3 4 5 40 11 2 46 15 16 18 20 21 22 24 25 26 28 36
43: 1 2 3 6 7 12 13 14 16 19 20 23 25 31 33 35 36 38 39 40 41 45 50
44: 1 2 3 4 5 17 40 9 10 12 49 21 25 26 36 30 31
45: 1 2 3 4 6 8 10 14 15 16 20 21 22 25 27 29 30 32 34 35 38 40 41 43 47 48
46: 1 2 3 4 37 6 7 8 41 42 11 14 15 16 49 20 24 10 30
47: 1 2 4 40 41 45 16 49 18 20 21 22 23
48: 1 2 3 33 6 7 40 9 12 45 18 20 41 24 26
49: 32 1 2 4 6 39 12 23 44 13 46 47 19 20 41 36 27 28 29 30 31
50: 33 3 36 37 38 39 40 43 13 15 19 22 23 24 25 26 35 29 30 31
-------
1(-1)->2 3 4 5 6 7 8 9 10 11 12 13 14 15 16 17 18 19 20 21 22 23 24 25 26 27 28 29 30 31 32 33 34 35 36 37 38 39 40 41 42 43 44 45 46 47 48 49 
2(-1)->1 3 4 5 6 7 8 9 10 11 12 13 14 15 16 17 18 19 20 21 22 23 24 25 26 27 28 29 30 31 32 33 34 35 36 37 38 39 40 41 42 43 44 45 46 47 48 49 
3(-1)->1 2 4 5 6 7 8 9 10 11 12 13 14 15 16 17 18 19 20 21 22 23 24 25 26 27 28 30 33 35 36 38 39 41 42 43 44 45 46 48 50 
4(-1)->1 2 3 5 6 7 8 9 10 11 12 13 14 15 16 17 18 19 20 22 25 27 28 29 32 35 37 40 42 44 45 46 47 49 
5(-1)->1 2 3 4 6 7 8 9 10 12 13 14 15 16 18 19 20 25 27 28 34 41 42 44 
6(-1)->1 2 3 4 5 7 8 9 12 13 14 15 16 20 23 26 27 30 32 33 34 35 38 41 43 45 46 48 49 
7(-1)->1 2 3 4 5 6 8 12 13 14 15 16 17 18 21 23 24 26 27 28 36 40 43 46 48 
8(-1)->1 2 3 4 5 6 7 9 13 19 21 22 26 27 28 34 36 38 39 45 46 
9(-1)->1 2 3 4 5 6 8 12 13 14 16 17 20 26 28 29 30 32 33 35 36 37 40 44 48 
10(-1)->1 2 3 4 5 15 22 29 33 40 44 45 46 
11(-1)->1 2 3 4 14 17 19 22 23 26 27 28 29 31 34 38 42 46 
12(-1)->1 2 3 4 5 6 7 9 24 25 29 33 35 37 43 44 48 49 
13(-1)->1 2 3 4 5 6 7 8 9 16 24 28 32 33 35 36 38 39 43 49 50 
14(-1)->1 2 3 4 5 6 7 9 11 18 28 30 31 33 34 35 36 40 43 45 46 
15(-1)->1 2 3 4 5 6 7 10 18 20 25 26 28 30 40 42 45 46 50 
16(-1)->1 2 3 4 5 6 7 9 13 17 20 22 25 29 30 31 32 33 36 37 42 43 45 46 47 
17(-1)->1 2 3 4 7 9 11 16 20 24 25 26 28 31 32 36 38 44 
18(-1)->1 2 3 4 5 7 14 15 19 21 22 26 29 30 31 42 47 48 
19(-1)->1 2 3 4 5 8 11 18 22 24 25 27 29 36 38 40 43 49 50 
20(-1)->1 2 3 4 5 6 9 15 16 17 22 27 29 34 36 37 42 43 45 46 47 48 49 
21(-1)->1 2 3 7 8 18 24 25 28 29 31 32 33 35 37 38 40 42 44 45 47 
22(-1)->1 2 3 4 8 10 11 16 18 19 20 25 29 33 34 35 39 41 42 45 47 50 
23(-1)->1 2 3 6 7 11 25 29 30 31 33 36 37 38 43 47 49 50 
24(-1)->1 2 3 7 12 13 17 19 21 40 41 42 46 48 50 
25(-1)->1 2 3 4 5 12 15 16 17 19 21 22 23 26 33 36 38 39 42 43 44 45 50 
26(-1)->1 2 3 6 7 8 9 11 15 17 18 25 27 30 36 37 38 39 40 41 42 44 48 50 
27(-1)->1 2 3 4 5 6 7 8 11 19 20 26 28 29 31 32 35 39 45 49 
28(-1)->1 2 3 4 5 7 8 9 11 13 14 15 17 21 27 29 34 42 49 
29(-1)->1 2 4 9 10 11 12 16 18 19 20 21 22 23 27 28 30 31 35 36 39 45 49 50 
30(-1)->1 2 3 6 9 14 15 16 18 23 26 29 37 44 45 46 49 50 
31(-1)->1 2 11 14 16 17 18 21 23 27 29 32 35 38 41 43 44 49 50 
32(-1)->1 2 4 6 9 13 16 17 21 27 31 34 38 41 45 49 
33(-1)->1 2 3 6 9 10 12 13 14 16 21 22 23 25 35 36 40 41 43 48 50 
34(-1)->1 2 5 6 8 11 14 20 22 28 32 35 36 42 45 
35(-1)->1 2 3 4 6 9 12 13 14 21 22 27 29 31 33 34 36 37 40 43 45 50 
36(-1)->1 2 3 7 8 9 13 14 16 17 19 20 23 25 26 29 33 34 35 37 38 40 41 42 43 44 49 50 
37(-1)->1 2 4 9 12 16 20 21 23 26 30 35 36 38 41 46 50 
38(-1)->1 2 3 6 8 11 13 17 19 21 23 25 26 31 32 36 37 43 45 50 
39(-1)->1 2 3 8 13 22 25 26 27 29 43 49 50 
40(-1)->1 2 4 7 9 10 14 15 19 21 24 26 33 35 36 41 42 43 44 45 47 48 50 
41(-1)->1 2 3 5 6 22 24 26 31 32 33 36 37 40 43 45 46 47 48 49 
42(-1)->1 2 3 4 5 11 15 16 18 20 21 22 24 25 26 28 34 36 40 46 
43(-1)->1 2 3 6 7 12 13 14 16 19 20 23 25 31 33 35 36 38 39 40 41 45 50 
44(-1)->1 2 3 4 5 9 10 12 17 21 25 26 30 31 36 40 49 
45(-1)->1 2 3 4 6 8 10 14 15 16 20 21 22 25 27 29 30 32 34 35 38 40 41 43 47 48 
46(-1)->1 2 3 4 6 7 8 10 11 14 15 16 20 24 30 37 41 42 49 
47(-1)->1 2 4 16 18 20 21 22 23 40 41 45 49 
48(-1)->1 2 3 6 7 9 12 18 20 24 26 33 40 41 45 
49(-1)->1 2 4 6 12 13 19 20 23 27 28 29 30 31 32 36 39 41 44 46 47 
50(-1)->3 13 15 19 22 23 24 25 26 29 30 31 33 35 36 37 38 39 40 43 
-------
1(0)->2 3 4 5 6 7 8 9 10 11 12 13 14 15 16 17 18 19 20 21 22 23 24 25 26 27 28 29 30 31 32 33 34 35 36 37 38 39 40 41 42 43 44 45 46 47 48 49 
2(1)->1 3 4 5 6 7 8 9 10 11 12 13 14 15 16 17 18 19 20 21 22 23 24 25 26 27 28 29 30 31 32 33 34 35 36 37 38 39 40 41 42 43 44 45 46 47 48 49 
3(2)->1 2 4 5 6 7 8 9 10 11 12 13 14 15 16 17 18 19 20 21 22 23 24 25 26 27 28 30 33 35 36 38 39 41 42 43 44 45 46 48 50 
4(3)->1 2 3 5 6 7 8 9 10 11 12 13 14 15 16 17 18 19 20 22 25 27 28 29 32 35 37 40 42 44 45 46 47 49 
5(4)->1 2 3 4 6 7 8 9 10 12 13 14 15 16 18 19 20 25 27 28 34 41 42 44 
6(5)->1 2 3 4 5 7 8 9 12 13 14 15 16 20 23 26 27 30 32 33 34 35 38 41 43 45 46 48 49 
7(6)->1 2 3 4 5 6 8 12 13 14 15 16 17 18 21 23 24 26 27 28 36 40 43 46 48 
8(7)->1 2 3 4 5 6 7 9 13 19 21 22 26 27 28 34 36 38 39 45 46 
9(6)->1 2 3 4 5 6 8 12 13 14 16 17 20 26 28 29 30 32 33 35 36 37 40 44 48 
10(5)->1 2 3 4 5 15 22 29 33 40 44 45 46 
11(4)->1 2 3 4 14 17 19 22 23 26 27 28 29 31 34 38 42 46 
12(7)->1 2 3 4 5 6 7 9 24 25 29 33 35 37 43 44 48 49 
13(8)->1 2 3 4 5 6 7 8 9 16 24 28 32 33 35 36 38 39 43 49 50 
14(7)->1 2 3 4 5 6 7 9 11 18 28 30 31 33 34 35 36 40 43 45 46 
15(7)->1 2 3 4 5 6 7 10 18 20 25 26 28 30 40 42 45 46 50 
16(7)->1 2 3 4 5 6 7 9 13 17 20 22 25 29 30 31 32 33 36 37 42 43 45 46 47 
17(5)->1 2 3 4 7 9 11 16 20 24 25 26 28 31 32 36 38 44 
18(5)->1 2 3 4 5 7 14 15 19 21 22 26 29 30 31 42 47 48 
19(6)->1 2 3 4 5 8 11 18 22 24 25 27 29 36 38 40 43 49 50 
20(8)->1 2 3 4 5 6 9 15 16 17 22 27 29 34 36 37 42 43 45 46 47 48 49 
21(3)->1 2 3 7 8 18 24 25 28 29 31 32 33 35 37 38 40 42 44 45 47 
22(9)->1 2 3 4 8 10 11 16 18 19 20 25 29 33 34 35 39 41 42 45 47 50 
23(3)->1 2 3 6 7 11 25 29 30 31 33 36 37 38 43 47 49 50 
24(4)->1 2 3 7 12 13 17 19 21 40 41 42 46 48 50 
25(8)->1 2 3 4 5 12 15 16 17 19 21 22 23 26 33 36 38 39 42 43 44 45 50 
26(3)->1 2 3 6 7 8 9 11 15 17 18 25 27 30 36 37 38 39 40 41 42 44 48 50 
27(9)->1 2 3 4 5 6 7 8 11 19 20 26 28 29 31 32 35 39 45 49 
28(10)->1 2 3 4 5 7 8 9 11 13 14 15 17 21 27 29 34 42 49 
29(2)->1 2 4 9 10 11 12 16 18 19 20 21 22 23 27 28 30 31 35 36 39 45 49 50 
30(4)->1 2 3 6 9 14 15 16 18 23 26 29 37 44 45 46 49 50 
31(6)->1 2 11 14 16 17 18 21 23 27 29 32 35 38 41 43 44 49 50 
32(2)->1 2 4 6 9 13 16 17 21 27 31 34 38 41 45 49 
33(4)->1 2 3 6 9 10 12 13 14 16 21 22 23 25 35 36 40 41 43 48 50 
34(3)->1 2 5 6 8 11 14 20 22 28 32 35 36 42 45 
35(10)->1 2 3 4 6 9 12 13 14 21 22 27 29 31 33 34 36 37 40 43 45 50 
36(9)->1 2 3 7 8 9 13 14 16 17 19 20 23 25 26 29 33 34 35 37 38 40 41 42 43 44 49 50 
37(2)->1 2 4 9 12 16 20 21 23 26 30 35 36 38 41 46 50 
38(10)->1 2 3 6 8 11 13 17 19 21 23 25 26 31 32 36 37 43 45 50 
39(4)->1 2 3 8 13 22 25 26 27 29 43 49 50 
40(2)->1 2 4 7 9 10 14 15 19 21 24 26 33 35 36 41 42 43 44 45 47 48 50 
41(7)->1 2 3 5 6 22 24 26 31 32 33 36 37 40 43 45 46 47 48 49 
42(6)->1 2 3 4 5 11 15 16 18 20 21 22 24 25 26 28 34 36 40 46 
43(11)->1 2 3 6 7 12 13 14 16 19 20 23 25 31 33 35 36 38 39 40 41 45 50 
44(10)->1 2 3 4 5 9 10 12 17 21 25 26 30 31 36 40 49 
45(6)->1 2 3 4 6 8 10 14 15 16 20 21 22 25 27 29 30 32 34 35 38 40 41 43 47 48 
46(9)->1 2 3 4 6 7 8 10 11 14 15 16 20 24 30 37 41 42 49 
47(4)->1 2 4 16 18 20 21 22 23 40 41 45 49 
48(9)->1 2 3 6 7 9 12 18 20 24 26 33 40 41 45 
49(11)->1 2 4 6 12 13 19 20 23 27 28 29 30 31 32 36 39 41 44 46 47 
50(0)->3 13 15 19 22 23 24 25 26 29 30 31 33 35 36 37 38 39 40 43 
COUNT: 0
BEST COST: 12
12
12
