1: 2 3 4 5 6 7 8 9 10 11 12 13 14 15 16 17 18 19 20 21 22 23 24 25 26 27 28 29 30 31 32 33 34 35 36 37 38 39 40 41 42 43 44 45 46 47 48 49
2: 1 3 4 5 6 7 8 9 10 11 12 13 14 15 16 17 18 19 20 21 22 23 24 25 26 27 28 29 30 31 32 33 34 35 36 37 38 39 40 41 42 43 44 45 46 47 48 49 50
3: 1 2 4 5 6 7 8 9 10 11 12 13 14 15 16 17 19 20 21 22 23 24 25 26 27 28 29 31 33 35 36 37 38 39 40 43 44 45 47 48 49
4: 1 2 3 5 6 7 8 9 10 11 12 13 14 15 18 21 22 23 24 25 26 27 28 29 31 35 36 39 40 42 43 44 46 47 48 49 50
5: 1 2 3 4 6 7 8 9 10 11 12 14 15 18 19 21 22 23 24 26 27 28 32 34 35 36 39 40 41 43 44 45 46 47 49 50
6: 1 2 3 4 5 7 8 9 10 11 12 14 15 18 21 22 31 32 36 37 40 41 43 44 45 46 47 49
7: 1 2 3 4 5 6 8 9 10 11 15 17 20 24 29 30 33 34 35 37 41 44 46 50
8: 1 2 3 4 5 6 7 9 10 11 12 13 14 18 19 30 31 33 37 38 41 49
9: 1 2 3 4 5 6 7 8 11 14 20 27 28 29 32 34 38 39 45 47 48 49 50
10: 1 2 3 4 5 6 7 8 11 12 17 22 24 25 26 29 31 36 37 39 41 42 43 45 48 49
11: 1 2 3 4 37 6 7 8 9 42 45 14 49 10 20 22 24 31 29 30 5
12: 1 2 3 17 5 6 39 40 42 13 14 16 49 19 8 23 24 36 10 4 31
13: 32 1 2 35 36 3 40 44 42 43 12 14 16 8 19 4 31
14: 1 34 3 36 5 6 8 9 11 12 18 13 49 50 24 2 27 28 29 4
15: 1 2 3 36 5 6 7 40 41 42 44 21 22 25 33 4
16: 32 33 2 35 37 1 41 42 43 12 13 48 3 23 24 26 27
17: 32 1 2 35 7 40 42 12 47 18 3 20 21 23 26 27 28 10
18: 32 1 2 4 38 6 17 8 41 42 44 45 14 48 40 50 20 36 26 28 5
19: 32 33 34 3 1 5 38 39 8 12 43 44 13 47 20 21 2 24 25 45
20: 33 2 3 1 49 38 39 9 11 46 48 17 18 19 22 41 7 31
21: 1 2 3 4 5 6 34 15 48 17 50 19 36
22: 33 2 35 36 5 38 1 10 11 15 48 43 50 3 20 30 4 6 47 39 37
23: 1 34 35 36 37 39 41 5 12 2 16 17 50 3 24 4 26 27 28 30 31
24: 1 2 3 4 5 7 10 11 12 14 16 19 23 27 30 32 33 38 42 44 45 49
25: 32 1 34 27 4 3 39 41 10 2 45 47 48 19 26 15 31
26: 1 2 3 4 5 38 39 10 43 45 47 16 17 18 42 23 25 49 27 29
27: 16 34 3 4 5 38 17 9 2 14 47 48 49 35 1 23 24 25 26 30 31
28: 1 2 3 4 5 9 14 17 18 23 30 31 33 34 36 38 41 44 45 46 49 50
29: 1 34 3 4 33 7 9 10 11 44 45 14 47 50 2 26 30 31
30: 1 34 11 37 7 8 39 2 46 49 43 23 24 22 27 28 29 31
31: 1 2 3 4 6 8 41 10 11 12 13 48 49 50 20 23 25 27 28 29 30
32: 33 2 1 5 6 39 9 13 16 17 18 19 24 25 37
33: 32 1 2 3 36 37 7 40 42 15 16 8 19 20 22 24 28 29
34: 1 2 36 37 38 7 9 39 44 14 19 21 23 25 27 28 29 30 5
35: 1 2 3 4 37 7 47 42 39 13 45 16 49 17 22 23 36 27 5
36: 1 2 3 4 5 6 10 12 13 14 15 18 21 22 23 28 33 34 35 39 43 44 47 48
37: 32 33 34 3 1 6 39 8 10 11 45 16 50 35 22 23 7 2 30
38: 1 2 3 39 8 41 42 34 46 49 18 19 20 22 9 24 26 27 28
39: 1 2 3 4 5 9 10 12 19 20 22 23 25 26 30 32 34 35 36 37 38 43 45 46 48
40: 33 2 3 4 5 6 49 44 43 12 13 47 17 18 1 15
41: 1 2 5 38 7 8 10 15 16 18 20 23 25 6 28 31
42: 33 2 35 4 38 49 10 11 12 18 46 15 16 17 50 1 24 26 13
43: 1 2 3 36 5 6 48 40 10 39 13 16 50 19 22 4 26 30
44: 1 2 3 36 5 6 7 40 13 34 46 15 48 18 19 24 4 28 29
45: 3 1 2 35 5 6 39 9 10 11 47 18 19 24 25 26 28 29 37
46: 1 2 4 6 38 7 42 39 44 47 49 20 28 30 5
47: 3 1 2 35 36 5 6 17 40 9 45 46 48 49 19 22 25 26 27 29 4
48: 1 2 3 36 39 9 10 43 44 47 16 49 18 20 21 22 25 27 4 31
49: 1 2 3 4 5 6 8 9 10 11 12 14 20 24 26 27 28 30 31 35 38 40 42 46 47 48
50: 2 4 37 7 9 42 43 14 18 28 21 22 23 5 29 31
-------
1(-1)->2 3 4 5 6 7 8 9 10 11 12 13 14 15 16 17 18 19 20 21 22 23 24 25 26 27 28 29 30 31 32 33 34 35 36 37 38 39 40 41 42 43 44 45 46 47 48 49 
2(-1)->1 3 4 5 6 7 8 9 10 11 12 13 14 15 16 17 18 19 20 21 22 23 24 25 26 27 28 29 30 31 32 33 34 35 36 37 38 39 40 41 42 43 44 45 46 47 48 49 50 
3(-1)->1 2 4 5 6 7 8 9 10 11 12 13 14 15 16 17 19 20 21 22 23 24 25 26 27 28 29 31 33 35 36 37 38 39 40 43 44 45 47 48 49 
4(-1)->1 2 3 5 6 7 8 9 10 11 12 13 14 15 18 21 22 23 24 25 26 27 28 29 31 35 36 39 40 42 43 44 46 47 48 49 50 
5(-1)->1 2 3 4 6 7 8 9 10 11 12 14 15 18 19 21 22 23 24 26 27 28 32 34 35 36 39 40 41 43 44 45 46 47 49 50 
6(-1)->1 2 3 4 5 7 8 9 10 11 12 14 15 18 21 22 31 32 36 37 40 41 43 44 45 46 47 49 
7(-1)->1 2 3 4 5 6 8 9 10 11 15 17 20 24 29 30 33 34 35 37 41 44 46 50 
8(-1)->1 2 3 4 5 6 7 9 10 11 12 13 14 18 19 30 31 33 37 38 41 49 
9(-1)->1 2 3 4 5 6 7 8 11 14 20 27 28 29 32 34 38 39 45 47 48 49 50 
10(-1)->1 2 3 4 5 6 7 8 11 12 17 22 24 25 26 29 31 36 37 39 41 42 43 45 48 49 
11(-1)->1 2 3 4 5 6 7 8 9 10 14 20 22 24 29 30 31 37 42 45 49 
12(-1)->1 2 3 4 5 6 8 10 13 14 16 17 19 23 24 31 36 39 40 42 49 
13(-1)->1 2 3 4 8 12 14 16 19 31 32 35 36 40 42 43 44 
14(-1)->1 2 3 4 5 6 8 9 11 12 13 18 24 27 28 29 34 36 49 50 
15(-1)->1 2 3 4 5 6 7 21 22 25 33 36 40 41 42 44 
16(-1)->1 2 3 12 13 23 24 26 27 32 33 35 37 41 42 43 48 
17(-1)->1 2 3 7 10 12 18 20 21 23 26 27 28 32 35 40 42 47 
18(-1)->1 2 4 5 6 8 14 17 20 26 28 32 36 38 40 41 42 44 45 48 50 
19(-1)->1 2 3 5 8 12 13 20 21 24 25 32 33 34 38 39 43 44 45 47 
20(-1)->1 2 3 7 9 11 17 18 19 22 31 33 38 39 41 46 48 49 
21(-1)->1 2 3 4 5 6 15 17 19 34 36 48 50 
22(-1)->1 2 3 4 5 6 10 11 15 20 30 33 35 36 37 38 39 43 47 48 50 
23(-1)->1 2 3 4 5 12 16 17 24 26 27 28 30 31 34 35 36 37 39 41 50 
24(-1)->1 2 3 4 5 7 10 11 12 14 16 19 23 27 30 32 33 38 42 44 45 49 
25(-1)->1 2 3 4 10 15 19 26 27 31 32 34 39 41 45 47 48 
26(-1)->1 2 3 4 5 10 16 17 18 23 25 27 29 38 39 42 43 45 47 49 
27(-1)->1 2 3 4 5 9 14 16 17 23 24 25 26 30 31 34 35 38 47 48 49 
28(-1)->1 2 3 4 5 9 14 17 18 23 30 31 33 34 36 38 41 44 45 46 49 50 
29(-1)->1 2 3 4 7 9 10 11 14 26 30 31 33 34 44 45 47 50 
30(-1)->1 2 7 8 11 22 23 24 27 28 29 31 34 37 39 43 46 49 
31(-1)->1 2 3 4 6 8 10 11 12 13 20 23 25 27 28 29 30 41 48 49 50 
32(-1)->1 2 5 6 9 13 16 17 18 19 24 25 33 37 39 
33(-1)->1 2 3 7 8 15 16 19 20 22 24 28 29 32 36 37 40 42 
34(-1)->1 2 5 7 9 14 19 21 23 25 27 28 29 30 36 37 38 39 44 
35(-1)->1 2 3 4 5 7 13 16 17 22 23 27 36 37 39 42 45 47 49 
36(-1)->1 2 3 4 5 6 10 12 13 14 15 18 21 22 23 28 33 34 35 39 43 44 47 48 
37(-1)->1 2 3 6 7 8 10 11 16 22 23 30 32 33 34 35 39 45 50 
38(-1)->1 2 3 8 9 18 19 20 22 24 26 27 28 34 39 41 42 46 49 
39(-1)->1 2 3 4 5 9 10 12 19 20 22 23 25 26 30 32 34 35 36 37 38 43 45 46 48 
40(-1)->1 2 3 4 5 6 12 13 15 17 18 33 43 44 47 49 
41(-1)->1 2 5 6 7 8 10 15 16 18 20 23 25 28 31 38 
42(-1)->1 2 4 10 11 12 13 15 16 17 18 24 26 33 35 38 46 49 50 
43(-1)->1 2 3 4 5 6 10 13 16 19 22 26 30 36 39 40 48 50 
44(-1)->1 2 3 4 5 6 7 13 15 18 19 24 28 29 34 36 40 46 48 
45(-1)->1 2 3 5 6 9 10 11 18 19 24 25 26 28 29 35 37 39 47 
46(-1)->1 2 4 5 6 7 20 28 30 38 39 42 44 47 49 
47(-1)->1 2 3 4 5 6 9 17 19 22 25 26 27 29 35 36 40 45 46 48 49 
48(-1)->1 2 3 4 9 10 16 18 20 21 22 25 27 31 36 39 43 44 47 49 
49(-1)->1 2 3 4 5 6 8 9 10 11 12 14 20 24 26 27 28 30 31 35 38 40 42 46 47 48 
50(-1)->2 4 5 7 9 14 18 21 22 23 28 29 31 37 42 43 
-------
1(0)->2 3 4 5 6 7 8 9 10 11 12 13 14 15 16 17 18 19 20 21 22 23 24 25 26 27 28 29 30 31 32 33 34 35 36 37 38 39 40 41 42 43 44 45 46 47 48 49 
2(1)->1 3 4 5 6 7 8 9 10 11 12 13 14 15 16 17 18 19 20 21 22 23 24 25 26 27 28 29 30 31 32 33 34 35 36 37 38 39 40 41 42 43 44 45 46 47 48 49 50 
3(2)->1 2 4 5 6 7 8 9 10 11 12 13 14 15 16 17 19 20 21 22 23 24 25 26 27 28 29 31 33 35 36 37 38 39 40 43 44 45 47 48 49 
4(3)->1 2 3 5 6 7 8 9 10 11 12 13 14 15 18 21 22 23 24 25 26 27 28 29 31 35 36 39 40 42 43 44 46 47 48 49 50 
5(4)->1 2 3 4 6 7 8 9 10 11 12 14 15 18 19 21 22 23 24 26 27 28 32 34 35 36 39 40 41 43 44 45 46 47 49 50 
6(5)->1 2 3 4 5 7 8 9 10 11 12 14 15 18 21 22 31 32 36 37 40 41 43 44 45 46 47 49 
7(6)->1 2 3 4 5 6 8 9 10 11 15 17 20 24 29 30 33 34 35 37 41 44 46 50 
8(7)->1 2 3 4 5 6 7 9 10 11 12 13 14 18 19 30 31 33 37 38 41 49 
9(8)->1 2 3 4 5 6 7 8 11 14 20 27 28 29 32 34 38 39 45 47 48 49 50 
10(8)->1 2 3 4 5 6 7 8 11 12 17 22 24 25 26 29 31 36 37 39 41 42 43 45 48 49 
11(9)->1 2 3 4 5 6 7 8 9 10 14 20 22 24 29 30 31 37 42 45 49 
12(6)->1 2 3 4 5 6 8 10 13 14 16 17 19 23 24 31 36 39 40 42 49 
13(4)->1 2 3 4 8 12 14 16 19 31 32 35 36 40 42 43 44 
14(10)->1 2 3 4 5 6 8 9 11 12 13 18 24 27 28 29 34 36 49 50 
15(7)->1 2 3 4 5 6 7 21 22 25 33 36 40 41 42 44 
16(3)->1 2 3 12 13 23 24 26 27 32 33 35 37 41 42 43 48 
17(3)->1 2 3 7 10 12 18 20 21 23 26 27 28 32 35 40 42 47 
18(2)->1 2 4 5 6 8 14 17 20 26 28 32 36 38 40 41 42 44 45 48 50 
19(3)->1 2 3 5 8 12 13 20 21 24 25 32 33 34 38 39 43 44 45 47 
20(4)->1 2 3 7 9 11 17 18 19 22 31 33 38 39 41 46 48 49 
21(6)->1 2 3 4 5 6 15 17 19 34 36 48 50 
22(6)->1 2 3 4 5 6 10 11 15 20 30 33 35 36 37 38 39 43 47 48 50 
23(5)->1 2 3 4 5 12 16 17 24 26 27 28 30 31 34 35 36 37 39 41 50 
24(7)->1 2 3 4 5 7 10 11 12 14 16 19 23 27 30 32 33 38 42 44 45 49 
25(4)->1 2 3 4 10 15 19 26 27 31 32 34 39 41 45 47 48 
26(6)->1 2 3 4 5 10 16 17 18 23 25 27 29 38 39 42 43 45 47 49 
27(9)->1 2 3 4 5 9 14 16 17 23 24 25 26 30 31 34 35 38 47 48 49 
28(6)->1 2 3 4 5 9 14 17 18 23 30 31 33 34 36 38 41 44 45 46 49 50 
29(4)->1 2 3 4 7 9 10 11 14 26 30 31 33 34 44 45 47 50 
30(2)->1 2 7 8 11 22 23 24 27 28 29 31 34 37 39 43 46 49 
31(10)->1 2 3 4 6 8 10 11 12 13 20 23 25 27 28 29 30 41 48 49 50 
32(6)->1 2 5 6 9 13 16 17 18 19 24 25 33 37 39 
33(5)->1 2 3 7 8 15 16 19 20 22 24 28 29 32 36 37 40 42 
34(7)->1 2 5 7 9 14 19 21 23 25 27 28 29 30 36 37 38 39 44 
35(7)->1 2 3 4 5 7 13 16 17 22 23 27 36 37 39 42 45 47 49 
36(9)->1 2 3 4 5 6 10 12 13 14 15 18 21 22 23 28 33 34 35 39 43 44 47 48 
37(4)->1 2 3 6 7 8 10 11 16 22 23 30 32 33 34 35 39 45 50 
38(5)->1 2 3 8 9 18 19 20 22 24 26 27 28 34 39 41 42 46 49 
39(10)->1 2 3 4 5 9 10 12 19 20 22 23 25 26 30 32 34 35 36 37 38 43 45 46 48 
40(8)->1 2 3 4 5 6 12 13 15 17 18 33 43 44 47 49 
41(9)->1 2 5 6 7 8 10 15 16 18 20 23 25 28 31 38 
42(10)->1 2 4 10 11 12 13 15 16 17 18 24 26 33 35 38 46 49 50 
43(7)->1 2 3 4 5 6 10 13 16 19 22 26 30 36 39 40 48 50 
44(10)->1 2 3 4 5 6 7 13 15 18 19 24 28 29 34 36 40 46 48 
45(11)->1 2 3 5 6 9 10 11 18 19 24 25 26 28 29 35 37 39 47 
46(7)->1 2 4 5 6 7 20 28 30 38 39 42 44 47 49 
47(10)->1 2 3 4 5 6 9 17 19 22 25 26 27 29 35 36 40 45 46 48 49 
48(5)->1 2 3 4 9 10 16 18 20 21 22 25 27 31 36 39 43 44 47 49 
49(11)->1 2 3 4 5 6 8 9 10 11 12 14 20 24 26 27 28 30 31 35 38 40 42 46 47 48 
50(0)->2 4 5 7 9 14 18 21 22 23 28 29 31 37 42 43 
COUNT: 0
BEST COST: 12
12
12
