1: 2 3 4 5 6 7 8 9 10 11 12 13 14 15 16 17 18 19 20 21 22 23 24 25 26 27 28 29 30 31 32 33 34 35 36 37 38 39 40 41 42 43 44 45 46 47 48 49 50
2: 1 3 4 5 6 7 8 9 10 11 12 13 14 15 16 17 18 19 20 21 22 23 24 25 26 27 28 29 30 31 32 33 34 35 36 37 38 39 40 41 42 43 44 45 46 47 48 49 50
3: 1 2 4 5 6 7 8 9 10 12 13 14 15 16 17 18 20 21 22 24 25 30 31 32 35 36 37 39 40 41 44 47 48 49
4: 1 2 3 5 6 7 8 10 12 14 16 17 21 23 25 28 30 31 32 34 35 36 37 39 43 46 50
5: 1 2 3 4 6 7 8 12 13 15 16 17 18 19 20 23 26 31 35 39 40 49 50
6: 1 2 3 4 5 7 10 14 18 19 20 21 23 27 29 30 31 36 37 42 43 45 47 49
7: 1 2 3 4 5 6 8 9 10 11 13 14 17 19 21 23 24 29 30 31 32 33 34 35 36 37 39 41 48 49
8: 1 2 3 4 5 7 10 13 14 15 24 25 31 32 35 36 38 41 42 43 46 47 50
9: 1 2 3 36 37 38 39 7 12 45 46 49 50 20 21 22 23 24
10: 1 2 3 36 38 6 7 8 42 43 12 45 46 15 48 20 21 4 28 29 30
11: 1 34 35 36 37 38 39 42 2 13 16 50 21 7 25 27 29 30
12: 1 2 3 4 5 9 10 15 16 19 21 23 24 27 30 33 35 36 37 44 46 49
13: 32 1 2 35 5 38 7 8 11 50 3
14: 1 2 3 4 6 7 8 15 16 19 20 21 22 23 27 28 30 42 44 45 46 50
15: 32 1 2 3 37 17 40 10 43 12 45 14 47 16 8 21 23 5 30 31
16: 1 2 3 4 5 11 12 14 15 17 20 21 25 27 29 31 32 33 35 37 43 45 49
17: 3 1 34 35 4 5 7 43 45 47 16 18 19 20 21 23 2 25 26 15 30
18: 3 1 34 35 36 37 38 39 42 44 2 46 6 17 50 19 49 24 33 27 5
19: 1 2 5 6 7 12 14 17 18 20 21 22 25 26 27 31 33 34 40 41 42 45 48
20: 3 33 2 35 1 5 6 39 9 10 14 47 16 17 19 46 22 28 29
21: 1 2 3 4 6 7 9 10 11 12 14 15 16 17 19 23 25 26 29 31 37 46 47 48 50
22: 32 33 2 35 36 37 3 1 9 43 44 14 19 20 46 23 26
23: 1 2 4 5 6 7 9 12 14 15 17 21 22 24 25 30 32 33 38 40 43 44 47
24: 1 34 3 36 37 38 7 8 9 43 44 2 12 47 18 23 27 30 31
25: 1 2 3 4 8 11 16 17 19 21 23 26 27 28 29 30 31 32 33 36 38 42 44 48 50
26: 1 2 35 36 5 38 41 43 45 46 17 37 19 21 22 25 27 29 31
27: 19 1 2 11 6 42 43 12 50 14 16 49 18 35 24 25 26 29
28: 32 33 34 36 37 1 42 2 14 47 49 20 25 10 4
29: 33 34 35 1 37 6 48 38 10 11 45 47 16 20 21 7 25 26 27 2
30: 1 2 3 4 6 7 10 11 12 14 15 17 23 24 25 33 35 37 40 41 44 45 46 50
31: 1 2 3 4 5 6 7 40 42 45 34 15 48 8 19 21 24 25 33 26 16
32: 16 2 43 4 49 8 41 7 44 13 15 48 40 3 1 22 23 45 25 28
33: 1 2 7 12 16 18 19 20 22 23 25 28 29 30 31 38 40 41 42 43 44 48
34: 1 2 11 4 37 17 41 43 48 49 18 19 24 7 28 29 31
35: 1 2 3 4 5 7 8 11 12 13 16 17 18 20 22 26 27 29 30 39 43 46 48 50
36: 1 2 3 4 37 6 7 8 9 10 11 12 18 48 50 22 24 25 26 28
37: 1 2 3 4 6 7 9 11 12 15 16 18 21 22 24 26 28 29 30 34 36 39 40 46 47 50
38: 33 2 1 40 9 10 11 13 46 45 48 49 18 8 23 24 25 26 29
39: 1 2 35 4 37 7 9 42 11 44 48 18 3 20 5
40: 32 33 2 3 5 38 1 44 45 47 49 50 19 23 15 37 30 31
41: 32 1 34 3 33 8 42 7 45 19 2 26 30
42: 33 2 1 6 39 8 41 10 11 45 14 47 18 19 46 25 27 28 31
43: 32 48 34 35 4 49 6 33 8 10 2 46 15 16 17 1 22 23 24 26 27
44: 32 33 2 3 1 39 40 12 14 49 18 22 23 24 25 30
45: 1 2 6 9 10 14 15 16 17 19 26 29 30 31 32 38 40 41 42 47 49 50
46: 1 2 35 4 37 38 8 9 10 43 12 14 47 49 18 20 21 22 26 42 30
47: 1 2 3 37 6 17 40 42 45 46 15 49 50 20 21 8 23 24 28 29
48: 32 33 34 35 36 38 1 10 43 2 49 19 21 7 25 3 29 39 31
49: 1 2 3 5 6 7 9 12 16 18 27 28 32 34 38 40 43 44 45 46 47 48 50
50: 1 2 35 4 37 49 40 9 11 13 14 47 8 18 21 45 25 27 5 30 36
-------
1(-1)->2 3 4 5 6 7 8 9 10 11 12 13 14 15 16 17 18 19 20 21 22 23 24 25 26 27 28 29 30 31 32 33 34 35 36 37 38 39 40 41 42 43 44 45 46 47 48 49 50 
2(-1)->1 3 4 5 6 7 8 9 10 11 12 13 14 15 16 17 18 19 20 21 22 23 24 25 26 27 28 29 30 31 32 33 34 35 36 37 38 39 40 41 42 43 44 45 46 47 48 49 50 
3(-1)->1 2 4 5 6 7 8 9 10 12 13 14 15 16 17 18 20 21 22 24 25 30 31 32 35 36 37 39 40 41 44 47 48 49 
4(-1)->1 2 3 5 6 7 8 10 12 14 16 17 21 23 25 28 30 31 32 34 35 36 37 39 43 46 50 
5(-1)->1 2 3 4 6 7 8 12 13 15 16 17 18 19 20 23 26 31 35 39 40 49 50 
6(-1)->1 2 3 4 5 7 10 14 18 19 20 21 23 27 29 30 31 36 37 42 43 45 47 49 
7(-1)->1 2 3 4 5 6 8 9 10 11 13 14 17 19 21 23 24 29 30 31 32 33 34 35 36 37 39 41 48 49 
8(-1)->1 2 3 4 5 7 10 13 14 15 24 25 31 32 35 36 38 41 42 43 46 47 50 
9(-1)->1 2 3 7 12 20 21 22 23 24 36 37 38 39 45 46 49 50 
10(-1)->1 2 3 4 6 7 8 12 15 20 21 28 29 30 36 38 42 43 45 46 48 
11(-1)->1 2 7 13 16 21 25 27 29 30 34 35 36 37 38 39 42 50 
12(-1)->1 2 3 4 5 9 10 15 16 19 21 23 24 27 30 33 35 36 37 44 46 49 
13(-1)->1 2 3 5 7 8 11 32 35 38 50 
14(-1)->1 2 3 4 6 7 8 15 16 19 20 21 22 23 27 28 30 42 44 45 46 50 
15(-1)->1 2 3 5 8 10 12 14 16 17 21 23 30 31 32 37 40 43 45 47 
16(-1)->1 2 3 4 5 11 12 14 15 17 20 21 25 27 29 31 32 33 35 37 43 45 49 
17(-1)->1 2 3 4 5 7 15 16 18 19 20 21 23 25 26 30 34 35 43 45 47 
18(-1)->1 2 3 5 6 17 19 24 27 33 34 35 36 37 38 39 42 44 46 49 50 
19(-1)->1 2 5 6 7 12 14 17 18 20 21 22 25 26 27 31 33 34 40 41 42 45 48 
20(-1)->1 2 3 5 6 9 10 14 16 17 19 22 28 29 33 35 39 46 47 
21(-1)->1 2 3 4 6 7 9 10 11 12 14 15 16 17 19 23 25 26 29 31 37 46 47 48 50 
22(-1)->1 2 3 9 14 19 20 23 26 32 33 35 36 37 43 44 46 
23(-1)->1 2 4 5 6 7 9 12 14 15 17 21 22 24 25 30 32 33 38 40 43 44 47 
24(-1)->1 2 3 7 8 9 12 18 23 27 30 31 34 36 37 38 43 44 47 
25(-1)->1 2 3 4 8 11 16 17 19 21 23 26 27 28 29 30 31 32 33 36 38 42 44 48 50 
26(-1)->1 2 5 17 19 21 22 25 27 29 31 35 36 37 38 41 43 45 46 
27(-1)->1 2 6 11 12 14 16 18 19 24 25 26 29 35 42 43 49 50 
28(-1)->1 2 4 10 14 20 25 32 33 34 36 37 42 47 49 
29(-1)->1 2 6 7 10 11 16 20 21 25 26 27 33 34 35 37 38 45 47 48 
30(-1)->1 2 3 4 6 7 10 11 12 14 15 17 23 24 25 33 35 37 40 41 44 45 46 50 
31(-1)->1 2 3 4 5 6 7 8 15 16 19 21 24 25 26 33 34 40 42 45 48 
32(-1)->1 2 3 4 7 8 13 15 16 22 23 25 28 40 41 43 44 45 48 49 
33(-1)->1 2 7 12 16 18 19 20 22 23 25 28 29 30 31 38 40 41 42 43 44 48 
34(-1)->1 2 4 7 11 17 18 19 24 28 29 31 37 41 43 48 49 
35(-1)->1 2 3 4 5 7 8 11 12 13 16 17 18 20 22 26 27 29 30 39 43 46 48 50 
36(-1)->1 2 3 4 6 7 8 9 10 11 12 18 22 24 25 26 28 37 48 50 
37(-1)->1 2 3 4 6 7 9 11 12 15 16 18 21 22 24 26 28 29 30 34 36 39 40 46 47 50 
38(-1)->1 2 8 9 10 11 13 18 23 24 25 26 29 33 40 45 46 48 49 
39(-1)->1 2 3 4 5 7 9 11 18 20 35 37 42 44 48 
40(-1)->1 2 3 5 15 19 23 30 31 32 33 37 38 44 45 47 49 50 
41(-1)->1 2 3 7 8 19 26 30 32 33 34 42 45 
42(-1)->1 2 6 8 10 11 14 18 19 25 27 28 31 33 39 41 45 46 47 
43(-1)->1 2 4 6 8 10 15 16 17 22 23 24 26 27 32 33 34 35 46 48 49 
44(-1)->1 2 3 12 14 18 22 23 24 25 30 32 33 39 40 49 
45(-1)->1 2 6 9 10 14 15 16 17 19 26 29 30 31 32 38 40 41 42 47 49 50 
46(-1)->1 2 4 8 9 10 12 14 18 20 21 22 26 30 35 37 38 42 43 47 49 
47(-1)->1 2 3 6 8 15 17 20 21 23 24 28 29 37 40 42 45 46 49 50 
48(-1)->1 2 3 7 10 19 21 25 29 31 32 33 34 35 36 38 39 43 49 
49(-1)->1 2 3 5 6 7 9 12 16 18 27 28 32 34 38 40 43 44 45 46 47 48 50 
50(-1)->1 2 4 5 8 9 11 13 14 18 21 25 27 30 35 36 37 40 45 47 49 
-------
1(0)->2 3 4 5 6 7 8 9 10 11 12 13 14 15 16 17 18 19 20 21 22 23 24 25 26 27 28 29 30 31 32 33 34 35 36 37 38 39 40 41 42 43 44 45 46 47 48 49 50 
2(1)->1 3 4 5 6 7 8 9 10 11 12 13 14 15 16 17 18 19 20 21 22 23 24 25 26 27 28 29 30 31 32 33 34 35 36 37 38 39 40 41 42 43 44 45 46 47 48 49 50 
3(2)->1 2 4 5 6 7 8 9 10 12 13 14 15 16 17 18 20 21 22 24 25 30 31 32 35 36 37 39 40 41 44 47 48 49 
4(3)->1 2 3 5 6 7 8 10 12 14 16 17 21 23 25 28 30 31 32 34 35 36 37 39 43 46 50 
5(4)->1 2 3 4 6 7 8 12 13 15 16 17 18 19 20 23 26 31 35 39 40 49 50 
6(5)->1 2 3 4 5 7 10 14 18 19 20 21 23 27 29 30 31 36 37 42 43 45 47 49 
7(6)->1 2 3 4 5 6 8 9 10 11 13 14 17 19 21 23 24 29 30 31 32 33 34 35 36 37 39 41 48 49 
8(5)->1 2 3 4 5 7 10 13 14 15 24 25 31 32 35 36 38 41 42 43 46 47 50 
9(3)->1 2 3 7 12 20 21 22 23 24 36 37 38 39 45 46 49 50 
10(4)->1 2 3 4 6 7 8 12 15 20 21 28 29 30 36 38 42 43 45 46 48 
11(2)->1 2 7 13 16 21 25 27 29 30 34 35 36 37 38 39 42 50 
12(5)->1 2 3 4 5 9 10 15 16 19 21 23 24 27 30 33 35 36 37 44 46 49 
13(3)->1 2 3 5 7 8 11 32 35 38 50 
14(4)->1 2 3 4 6 7 8 15 16 19 20 21 22 23 27 28 30 42 44 45 46 50 
15(3)->1 2 3 5 8 10 12 14 16 17 21 23 30 31 32 37 40 43 45 47 
16(6)->1 2 3 4 5 11 12 14 15 17 20 21 25 27 29 31 32 33 35 37 43 45 49 
17(5)->1 2 3 4 5 7 15 16 18 19 20 21 23 25 26 30 34 35 43 45 47 
18(3)->1 2 3 5 6 17 19 24 27 33 34 35 36 37 38 39 42 44 46 49 50 
19(2)->1 2 5 6 7 12 14 17 18 20 21 22 25 26 27 31 33 34 40 41 42 45 48 
20(7)->1 2 3 5 6 9 10 14 16 17 19 22 28 29 33 35 39 46 47 
21(7)->1 2 3 4 6 7 9 10 11 12 14 15 16 17 19 23 25 26 29 31 37 46 47 48 50 
22(5)->1 2 3 9 14 19 20 23 26 32 33 35 36 37 43 44 46 
23(2)->1 2 4 5 6 7 9 12 14 15 17 21 22 24 25 30 32 33 38 40 43 44 47 
24(4)->1 2 3 7 8 9 12 18 23 27 30 31 34 36 37 38 43 44 47 
25(4)->1 2 3 4 8 11 16 17 19 21 23 26 27 28 29 30 31 32 33 36 38 42 44 48 50 
26(3)->1 2 5 17 19 21 22 25 27 29 31 35 36 37 38 41 43 45 46 
27(7)->1 2 6 11 12 14 16 18 19 24 25 26 29 35 42 43 49 50 
28(2)->1 2 4 10 14 20 25 32 33 34 36 37 42 47 49 
29(8)->1 2 6 7 10 11 16 20 21 25 26 27 33 34 35 37 38 45 47 48 
30(7)->1 2 3 4 6 7 10 11 12 14 15 17 23 24 25 33 35 37 40 41 44 45 46 50 
31(8)->1 2 3 4 5 6 7 8 15 16 19 21 24 25 26 33 34 40 42 45 48 
32(7)->1 2 3 4 7 8 13 15 16 22 23 25 28 40 41 43 44 45 48 49 
33(9)->1 2 7 12 16 18 19 20 22 23 25 28 29 30 31 38 40 41 42 43 44 48 
34(7)->1 2 4 7 11 17 18 19 24 28 29 31 37 41 43 48 49 
35(9)->1 2 3 4 5 7 8 11 12 13 16 17 18 20 22 26 27 29 30 39 43 46 48 50 
36(7)->1 2 3 4 6 7 8 9 10 11 12 18 22 24 25 26 28 37 48 50 
37(9)->1 2 3 4 6 7 9 11 12 15 16 18 21 22 24 26 28 29 30 34 36 39 40 46 47 50 
38(6)->1 2 8 9 10 11 13 18 23 24 25 26 29 33 40 45 46 48 49 
39(5)->1 2 3 4 5 7 9 11 18 20 35 37 42 44 48 
40(5)->1 2 3 5 15 19 23 30 31 32 33 37 38 44 45 47 49 50 
41(4)->1 2 3 7 8 19 26 30 32 33 34 42 45 
42(6)->1 2 6 8 10 11 14 18 19 25 27 28 31 33 39 41 45 46 47 
43(8)->1 2 4 6 8 10 15 16 17 22 23 24 26 27 32 33 34 35 46 48 49 
44(6)->1 2 3 12 14 18 22 23 24 25 30 32 33 39 40 49 
45(9)->1 2 6 9 10 14 15 16 17 19 26 29 30 31 32 38 40 41 42 47 49 50 
46(2)->1 2 4 8 9 10 12 14 18 20 21 22 26 30 35 37 38 42 43 47 49 
47(10)->1 2 3 6 8 15 17 20 21 23 24 28 29 37 40 42 45 46 49 50 
48(3)->1 2 3 7 10 19 21 25 29 31 32 33 34 35 36 38 39 43 49 
49(11)->1 2 3 5 6 7 9 12 16 18 27 28 32 34 38 40 43 44 45 46 47 48 50 
50(6)->1 2 4 5 8 9 11 13 14 18 21 25 27 30 35 36 37 40 45 47 49 
COUNT: 0
BEST COST: 12
12
12
