1: 48 2 39
2: 1 5 12 13 46 15 25 28
3: 36
4: 
5: 2
6: 
7: 17 43
8: 
9: 20 28
10: 33
11: 22 23
12: 48 2 44
13: 2 39
14: 28
15: 2
16: 30
17: 7
18: 
19: 22
20: 9 27 47
21: 40
22: 42 11 47 19 25 29
23: 25 11 37 29
24: 
25: 2 22 23
26: 48 41 50 30 39
27: 20 39
28: 9 2 42 14
29: 22 23
30: 16 26 50
31: 
32: 
33: 40 10
34: 42 36
35: 
36: 34 3 37
37: 36 23
38: 45
39: 1 26 27 13
40: 33 42 21
41: 26
42: 40 34 28 22
43: 50 45 7
44: 12
45: 43 38
46: 2
47: 20 22
48: 1 26 12
49: 
50: 26 43 30
-------
1(-1)->2 39 48 
2(-1)->1 5 12 13 15 25 28 46 
3(-1)->36 
4(-1)->
5(-1)->2 
6(-1)->
7(-1)->17 43 
8(-1)->
9(-1)->20 28 
10(-1)->33 
11(-1)->22 23 
12(-1)->2 44 48 
13(-1)->2 39 
14(-1)->28 
15(-1)->2 
16(-1)->30 
17(-1)->7 
18(-1)->
19(-1)->22 
20(-1)->9 27 47 
21(-1)->40 
22(-1)->11 19 25 29 42 47 
23(-1)->11 25 29 37 
24(-1)->
25(-1)->2 22 23 
26(-1)->30 39 41 48 50 
27(-1)->20 39 
28(-1)->2 9 14 42 
29(-1)->22 23 
30(-1)->16 26 50 
31(-1)->
32(-1)->
33(-1)->10 40 
34(-1)->36 42 
35(-1)->
36(-1)->3 34 37 
37(-1)->23 36 
38(-1)->45 
39(-1)->1 13 26 27 
40(-1)->21 33 42 
41(-1)->26 
42(-1)->22 28 34 40 
43(-1)->7 45 50 
44(-1)->12 
45(-1)->38 43 
46(-1)->2 
47(-1)->20 22 
48(-1)->1 12 26 
49(-1)->
50(-1)->26 30 43 
-------
1(0)->2 39 48 
2(1)->1 5 12 13 15 25 28 46 
3(0)->36 
4(0)->
5(0)->2 
6(0)->
7(0)->17 43 
8(0)->
9(0)->20 28 
10(0)->33 
11(0)->22 23 
12(0)->2 44 48 
13(0)->2 39 
14(0)->28 
15(0)->2 
16(0)->30 
17(1)->7 
18(0)->
19(0)->22 
20(1)->9 27 47 
21(0)->40 
22(1)->11 19 25 29 42 47 
23(1)->11 25 29 37 
24(0)->
25(0)->2 22 23 
26(0)->30 39 41 48 50 
27(0)->20 39 
28(2)->2 9 14 42 
29(0)->22 23 
30(1)->16 26 50 
31(0)->
32(0)->
33(1)->10 40 
34(0)->36 42 
35(0)->
36(1)->3 34 37 
37(0)->23 36 
38(0)->45 
39(1)->1 13 26 27 
40(2)->21 33 42 
41(1)->26 
42(3)->22 28 34 40 
43(1)->7 45 50 
44(1)->12 
45(2)->38 43 
46(0)->2 
47(0)->20 22 
48(1)->1 12 26 
49(0)->
50(2)->26 30 43 
COUNT: 0
BEST COST: 4
4
4
