1: 2 3 36 5 6 7 8 9 42 11 12 13 14 15 16 4 27 10
2: 1 3 7 11 50 21
3: 48 2 35 5 1 46 16 17 50 19 31
4: 1 10 43 22 23 31
5: 1 3 39 9 11 20
6: 48 9 23 1 31
7: 1 2 39
8: 1 34 9 43 12 47 44
9: 32 33 5 6 1 8 41 42 44 21 23 25
10: 32 1 4 15 48 18 19 22
11: 32 1 2 5 38 29
12: 8 1
13: 48 1 27 21 23
14: 1 23 28 31
15: 1 50 35 20 10
16: 48 17 3 28 1
17: 16 3 27
18: 37 10 29 20 22 42
19: 32 3 40 10 45 29
20: 18 31 5 30 15
21: 41 2 13 22 9
22: 34 35 4 10 43 48 18 21 23 29 30
23: 34 4 6 9 13 14 49 22 25 26 28
24: 25 42 38
25: 39 41 50 9 23 24
26: 47 45 23
27: 1 35 33 41 13 46 17 30
28: 16 14 23
29: 11 43 49 18 19 22
30: 33 43 46 20 22 27
31: 3 4 38 6 44 14 35 20 36
32: 11 9 10 19 38
33: 9 42 44 46 27 30
34: 8 35 44 22 23
35: 34 3 36 15 22 27 31
36: 1 35 45 31
37: 18 50 45
38: 24 32 11 31
39: 5 7 44 48 49 25
40: 49 19 47
41: 9 42 49 21 25 27
42: 1 33 41 18 9 24
43: 8 4 22 30 29
44: 33 34 39 8 9 49 31
45: 26 50 19 36 37
46: 3 33 27 30
47: 40 8 26
48: 3 6 39 10 13 16 22
49: 39 40 41 44 50 23 29
50: 2 3 37 45 15 49 25
-------
1(-1)->2 3 4 5 6 7 8 9 10 11 12 13 14 15 16 27 36 42 
2(-1)->1 3 7 11 21 50 
3(-1)->1 2 5 16 17 19 31 35 46 48 50 
4(-1)->1 10 22 23 31 43 
5(-1)->1 3 9 11 20 39 
6(-1)->1 9 23 31 48 
7(-1)->1 2 39 
8(-1)->1 9 12 34 43 44 47 
9(-1)->1 5 6 8 21 23 25 32 33 41 42 44 
10(-1)->1 4 15 18 19 22 32 48 
11(-1)->1 2 5 29 32 38 
12(-1)->1 8 
13(-1)->1 21 23 27 48 
14(-1)->1 23 28 31 
15(-1)->1 10 20 35 50 
16(-1)->1 3 17 28 48 
17(-1)->3 16 27 
18(-1)->10 20 22 29 37 42 
19(-1)->3 10 29 32 40 45 
20(-1)->5 15 18 30 31 
21(-1)->2 9 13 22 41 
22(-1)->4 10 18 21 23 29 30 34 35 43 48 
23(-1)->4 6 9 13 14 22 25 26 28 34 49 
24(-1)->25 38 42 
25(-1)->9 23 24 39 41 50 
26(-1)->23 45 47 
27(-1)->1 13 17 30 33 35 41 46 
28(-1)->14 16 23 
29(-1)->11 18 19 22 43 49 
30(-1)->20 22 27 33 43 46 
31(-1)->3 4 6 14 20 35 36 38 44 
32(-1)->9 10 11 19 38 
33(-1)->9 27 30 42 44 46 
34(-1)->8 22 23 35 44 
35(-1)->3 15 22 27 31 34 36 
36(-1)->1 31 35 45 
37(-1)->18 45 50 
38(-1)->11 24 31 32 
39(-1)->5 7 25 44 48 49 
40(-1)->19 47 49 
41(-1)->9 21 25 27 42 49 
42(-1)->1 9 18 24 33 41 
43(-1)->4 8 22 29 30 
44(-1)->8 9 31 33 34 39 49 
45(-1)->19 26 36 37 50 
46(-1)->3 27 30 33 
47(-1)->8 26 40 
48(-1)->3 6 10 13 16 22 39 
49(-1)->23 29 39 40 41 44 50 
50(-1)->2 3 15 25 37 45 49 
-------
1(0)->2 3 4 5 6 7 8 9 10 11 12 13 14 15 16 27 36 42 
2(1)->1 3 7 11 21 50 
3(2)->1 2 5 16 17 19 31 35 46 48 50 
4(1)->1 10 22 23 31 43 
5(1)->1 3 9 11 20 39 
6(1)->1 9 23 31 48 
7(2)->1 2 39 
8(1)->1 9 12 34 43 44 47 
9(2)->1 5 6 8 21 23 25 32 33 41 42 44 
10(2)->1 4 15 18 19 22 32 48 
11(2)->1 2 5 29 32 38 
12(2)->1 8 
13(1)->1 21 23 27 48 
14(1)->1 23 28 31 
15(1)->1 10 20 35 50 
16(1)->1 3 17 28 48 
17(0)->3 16 27 
18(0)->10 20 22 29 37 42 
19(0)->3 10 29 32 40 45 
20(2)->5 15 18 30 31 
21(0)->2 9 13 22 41 
22(3)->4 10 18 21 23 29 30 34 35 43 48 
23(0)->4 6 9 13 14 22 25 26 28 34 49 
24(0)->25 38 42 
25(1)->9 23 24 39 41 50 
26(1)->23 45 47 
27(2)->1 13 17 30 33 35 41 46 
28(2)->14 16 23 
29(1)->11 18 19 22 43 49 
30(0)->20 22 27 33 43 46 
31(0)->3 4 6 14 20 35 36 38 44 
32(1)->9 10 11 19 38 
33(1)->9 27 30 42 44 46 
34(2)->8 22 23 35 44 
35(4)->3 15 22 27 31 34 36 
36(1)->1 31 35 45 
37(1)->18 45 50 
38(3)->11 24 31 32 
39(0)->5 7 25 44 48 49 
40(1)->19 47 49 
41(3)->9 21 25 27 42 49 
42(4)->1 9 18 24 33 41 
43(2)->4 8 22 29 30 
44(3)->8 9 31 33 34 39 49 
45(2)->19 26 36 37 50 
46(3)->3 27 30 33 
47(0)->8 26 40 
48(4)->3 6 10 13 16 22 39 
49(2)->23 29 39 40 41 44 50 
50(0)->2 3 15 25 37 45 49 
COUNT: 0
BEST COST: 5
5
5
