1: 2 3 36 5 6 7 8 9 10 25 28 29 4
2: 1 3 8 10 35 22 26
3: 32 1 34 4 9 2 46 15 29
4: 3 1 27
5: 32 1 6 40 17 20 21 24
6: 1 5 41 43 12 13 50 24 28
7: 27 1 11
8: 27 1 2 35
9: 1 50 3 46 23
10: 1 2 50 49 18 29
11: 16 30 7
12: 24 49 17 6 33
13: 37 6 42 44 48 22 23 30 31
14: 41 23 36 44 49
15: 3 38 18 20 28 29
16: 40 25 18 11 37
17: 36 5 38 40 44 12 21
18: 48 33 10 43 15 16 24
19: 32 50 27
20: 36 5 15 28 29 30
21: 33 34 36 5 17 24 26
22: 2 35 13 31
23: 34 41 13 14 9 30
24: 5 6 41 46 44 12 18 21 30
25: 16 1 29 31
26: 2 29 21 46 47
27: 4 7 8 42 46 19
28: 1 35 36 6 41 15 20
29: 1 3 10 44 15 48 20 25 26
30: 11 13 45 20 23 24
31: 32 33 13 49 22 25
32: 19 3 43 5 31
33: 36 12 44 46 18 21 31
34: 49 42 3 21 23
35: 8 2 28 45 22
36: 1 38 33 14 17 20 21 28
37: 16 42 50 13
38: 36 43 44 45 15 17
39: 
40: 16 17 44 5
41: 6 43 44 14 47 46 23 24 28
42: 34 27 37 13
43: 32 38 6 41 47 49 18
44: 33 38 40 41 13 14 17 24 29
45: 35 38 30 47
46: 33 3 41 49 50 9 24 26 27
47: 48 41 26 43 45
48: 18 47 29 13
49: 34 10 43 12 14 46 31
50: 37 6 9 10 46 19
-------
1(-1)->2 3 4 5 6 7 8 9 10 25 28 29 36 
2(-1)->1 3 8 10 22 26 35 
3(-1)->1 2 4 9 15 29 32 34 46 
4(-1)->1 3 27 
5(-1)->1 6 17 20 21 24 32 40 
6(-1)->1 5 12 13 24 28 41 43 50 
7(-1)->1 11 27 
8(-1)->1 2 27 35 
9(-1)->1 3 23 46 50 
10(-1)->1 2 18 29 49 50 
11(-1)->7 16 30 
12(-1)->6 17 24 33 49 
13(-1)->6 22 23 30 31 37 42 44 48 
14(-1)->23 36 41 44 49 
15(-1)->3 18 20 28 29 38 
16(-1)->11 18 25 37 40 
17(-1)->5 12 21 36 38 40 44 
18(-1)->10 15 16 24 33 43 48 
19(-1)->27 32 50 
20(-1)->5 15 28 29 30 36 
21(-1)->5 17 24 26 33 34 36 
22(-1)->2 13 31 35 
23(-1)->9 13 14 30 34 41 
24(-1)->5 6 12 18 21 30 41 44 46 
25(-1)->1 16 29 31 
26(-1)->2 21 29 46 47 
27(-1)->4 7 8 19 42 46 
28(-1)->1 6 15 20 35 36 41 
29(-1)->1 3 10 15 20 25 26 44 48 
30(-1)->11 13 20 23 24 45 
31(-1)->13 22 25 32 33 49 
32(-1)->3 5 19 31 43 
33(-1)->12 18 21 31 36 44 46 
34(-1)->3 21 23 42 49 
35(-1)->2 8 22 28 45 
36(-1)->1 14 17 20 21 28 33 38 
37(-1)->13 16 42 50 
38(-1)->15 17 36 43 44 45 
39(-1)->
40(-1)->5 16 17 44 
41(-1)->6 14 23 24 28 43 44 46 47 
42(-1)->13 27 34 37 
43(-1)->6 18 32 38 41 47 49 
44(-1)->13 14 17 24 29 33 38 40 41 
45(-1)->30 35 38 47 
46(-1)->3 9 24 26 27 33 41 49 50 
47(-1)->26 41 43 45 48 
48(-1)->13 18 29 47 
49(-1)->10 12 14 31 34 43 46 
50(-1)->6 9 10 19 37 46 
-------
1(0)->2 3 4 5 6 7 8 9 10 25 28 29 36 
2(1)->1 3 8 10 22 26 35 
3(2)->1 2 4 9 15 29 32 34 46 
4(1)->1 3 27 
5(1)->1 6 17 20 21 24 32 40 
6(2)->1 5 12 13 24 28 41 43 50 
7(1)->1 11 27 
8(2)->1 2 27 35 
9(1)->1 3 23 46 50 
10(2)->1 2 18 29 49 50 
11(0)->7 16 30 
12(0)->6 17 24 33 49 
13(0)->6 22 23 30 31 37 42 44 48 
14(0)->23 36 41 44 49 
15(0)->3 18 20 28 29 38 
16(1)->11 18 25 37 40 
17(2)->5 12 21 36 38 40 44 
18(3)->10 15 16 24 33 43 48 
19(0)->27 32 50 
20(2)->5 15 28 29 30 36 
21(0)->5 17 24 26 33 34 36 
22(2)->2 13 31 35 
23(2)->9 13 14 30 34 41 
24(4)->5 6 12 18 21 30 41 44 46 
25(2)->1 16 29 31 
26(2)->2 21 29 46 47 
27(3)->4 7 8 19 42 46 
28(1)->1 6 15 20 35 36 41 
29(1)->1 3 10 15 20 25 26 44 48 
30(1)->11 13 20 23 24 45 
31(1)->13 22 25 32 33 49 
32(3)->3 5 19 31 43 
33(2)->12 18 21 31 36 44 46 
34(1)->3 21 23 42 49 
35(0)->2 8 22 28 45 
36(3)->1 14 17 20 21 28 33 38 
37(2)->13 16 42 50 
38(1)->15 17 36 43 44 45 
39(0)->
40(0)->5 16 17 44 
41(3)->6 14 23 24 28 43 44 46 47 
42(4)->13 27 34 37 
43(0)->6 18 32 38 41 47 49 
44(5)->13 14 17 24 29 33 38 40 41 
45(2)->30 35 38 47 
46(0)->3 9 24 26 27 33 41 49 50 
47(1)->26 41 43 45 48 
48(2)->13 18 29 47 
49(3)->10 12 14 31 34 43 46 
50(3)->6 9 10 19 37 46 
COUNT: 0
BEST COST: 6
6
6
