1: 2 3 4 5 6 7 8 9 10 11 12 13 14 15 16 17 18 19 20 21 22 23 24 25 26 27 28 29 30 31 32 33 34 35 36 37 38 39 40 41 48
2: 3 1 35 4 37 7 9 12 13 18 19 23 24 26 28
3: 1 2 35 4 5 38 8 20 23 30
4: 32 1 2 3 5 38 8 46 15 16
5: 32 1 3 4 41 10 43 12 47 48 26
6: 1 41 16 17 21 23 27 28
7: 33 2 1 39 44 17 31
8: 1 3 4 41 11 16 50 21 26 29 30
9: 1 34 35 38 2 49 20 23
10: 1 34 35 5 39 41 46 49 26 29
11: 1 8 12 45 46 16 49 30
12: 32 1 2 5 40 11 44 15 16 17 23 24 28
13: 1 2 36 37 43 48 18 22 25 30
14: 33 1 40 46 48 17 23
15: 32 1 4 12 23 24 31
16: 33 34 4 6 1 8 42 11 12 46 24
17: 1 6 7 39 12 14 47 49 31
18: 1 2 44 45 13 48 50 19 23
19: 1 2 34 39 41 50 47 49 18
20: 32 33 3 38 1 9 42 45 50 22 24 27 30 31
21: 1 34 36 6 8 42 40 25 27 31
22: 1 34 36 39 43 13 20 26 27
23: 32 1 2 3 6 44 12 14 15 18 9
24: 1 2 36 12 45 15 16 20 27 29
25: 1 34 37 42 13 47 21 27
26: 1 2 5 8 42 47 50 22 10
27: 1 6 43 20 21 22 24 25 29
28: 48 1 2 12 6
29: 1 8 10 47 24 27
30: 33 3 38 1 8 11 13 46 45 20
31: 1 37 38 7 15 17 20 21
32: 1 4 5 40 41 12 15 49 20 23
33: 48 1 38 7 40 41 39 14 16 20 30
34: 1 35 40 9 10 43 16 19 21 22 25
35: 1 34 3 9 10 2 48
36: 1 45 38 44 13 47 48 21 22 24
37: 1 2 39 42 13 46 49 50 25 31
38: 33 3 4 1 9 46 48 49 20 36 30 31
39: 33 1 37 7 40 10 43 17 19 22
40: 32 33 34 1 39 12 45 14 50 21
41: 32 33 5 6 1 8 10 48 19
42: 37 47 16 20 21 25 26
43: 34 5 39 13 22 27
44: 36 7 12 47 18 23
45: 36 40 11 50 46 47 18 20 24 30
46: 4 37 38 10 11 45 14 16 30
47: 36 5 42 44 45 17 50 19 25 26 29
48: 33 35 36 5 38 1 41 13 14 18 28
49: 32 37 38 9 10 11 17 19
50: 37 8 45 47 40 18 19 20 26
-------
1(-1)->2 3 4 5 6 7 8 9 10 11 12 13 14 15 16 17 18 19 20 21 22 23 24 25 26 27 28 29 30 31 32 33 34 35 36 37 38 39 40 41 48 
2(-1)->1 3 4 7 9 12 13 18 19 23 24 26 28 35 37 
3(-1)->1 2 4 5 8 20 23 30 35 38 
4(-1)->1 2 3 5 8 15 16 32 38 46 
5(-1)->1 3 4 10 12 26 32 41 43 47 48 
6(-1)->1 16 17 21 23 27 28 41 
7(-1)->1 2 17 31 33 39 44 
8(-1)->1 3 4 11 16 21 26 29 30 41 50 
9(-1)->1 2 20 23 34 35 38 49 
10(-1)->1 5 26 29 34 35 39 41 46 49 
11(-1)->1 8 12 16 30 45 46 49 
12(-1)->1 2 5 11 15 16 17 23 24 28 32 40 44 
13(-1)->1 2 18 22 25 30 36 37 43 48 
14(-1)->1 17 23 33 40 46 48 
15(-1)->1 4 12 23 24 31 32 
16(-1)->1 4 6 8 11 12 24 33 34 42 46 
17(-1)->1 6 7 12 14 31 39 47 49 
18(-1)->1 2 13 19 23 44 45 48 50 
19(-1)->1 2 18 34 39 41 47 49 50 
20(-1)->1 3 9 22 24 27 30 31 32 33 38 42 45 50 
21(-1)->1 6 8 25 27 31 34 36 40 42 
22(-1)->1 13 20 26 27 34 36 39 43 
23(-1)->1 2 3 6 9 12 14 15 18 32 44 
24(-1)->1 2 12 15 16 20 27 29 36 45 
25(-1)->1 13 21 27 34 37 42 47 
26(-1)->1 2 5 8 10 22 42 47 50 
27(-1)->1 6 20 21 22 24 25 29 43 
28(-1)->1 2 6 12 48 
29(-1)->1 8 10 24 27 47 
30(-1)->1 3 8 11 13 20 33 38 45 46 
31(-1)->1 7 15 17 20 21 37 38 
32(-1)->1 4 5 12 15 20 23 40 41 49 
33(-1)->1 7 14 16 20 30 38 39 40 41 48 
34(-1)->1 9 10 16 19 21 22 25 35 40 43 
35(-1)->1 2 3 9 10 34 48 
36(-1)->1 13 21 22 24 38 44 45 47 48 
37(-1)->1 2 13 25 31 39 42 46 49 50 
38(-1)->1 3 4 9 20 30 31 33 36 46 48 49 
39(-1)->1 7 10 17 19 22 33 37 40 43 
40(-1)->1 12 14 21 32 33 34 39 45 50 
41(-1)->1 5 6 8 10 19 32 33 48 
42(-1)->16 20 21 25 26 37 47 
43(-1)->5 13 22 27 34 39 
44(-1)->7 12 18 23 36 47 
45(-1)->11 18 20 24 30 36 40 46 47 50 
46(-1)->4 10 11 14 16 30 37 38 45 
47(-1)->5 17 19 25 26 29 36 42 44 45 50 
48(-1)->1 5 13 14 18 28 33 35 36 38 41 
49(-1)->9 10 11 17 19 32 37 38 
50(-1)->8 18 19 20 26 37 40 45 47 
-------
1(0)->2 3 4 5 6 7 8 9 10 11 12 13 14 15 16 17 18 19 20 21 22 23 24 25 26 27 28 29 30 31 32 33 34 35 36 37 38 39 40 41 48 
2(1)->1 3 4 7 9 12 13 18 19 23 24 26 28 35 37 
3(2)->1 2 4 5 8 20 23 30 35 38 
4(3)->1 2 3 5 8 15 16 32 38 46 
5(1)->1 3 4 10 12 26 32 41 43 47 48 
6(1)->1 16 17 21 23 27 28 41 
7(2)->1 2 17 31 33 39 44 
8(1)->1 3 4 11 16 21 26 29 30 41 50 
9(2)->1 2 20 23 34 35 38 49 
10(2)->1 5 26 29 34 35 39 41 46 49 
11(2)->1 8 12 16 30 45 46 49 
12(3)->1 2 5 11 15 16 17 23 24 28 32 40 44 
13(2)->1 2 18 22 25 30 36 37 43 48 
14(1)->1 17 23 33 40 46 48 
15(1)->1 4 12 23 24 31 32 
16(4)->1 4 6 8 11 12 24 33 34 42 46 
17(4)->1 6 7 12 14 31 39 47 49 
18(3)->1 2 13 19 23 44 45 48 50 
19(2)->1 2 18 34 39 41 47 49 50 
20(1)->1 3 9 22 24 27 30 31 32 33 38 42 45 50 
21(2)->1 6 8 25 27 31 34 36 40 42 
22(3)->1 13 20 26 27 34 36 39 43 
23(4)->1 2 3 6 9 12 14 15 18 32 44 
24(2)->1 2 12 15 16 20 27 29 36 45 
25(1)->1 13 21 27 34 37 42 47 
26(4)->1 2 5 8 10 22 42 47 50 
27(4)->1 6 20 21 22 24 25 29 43 
28(2)->1 2 6 12 48 
29(3)->1 8 10 24 27 47 
30(3)->1 3 8 11 13 20 33 38 45 46 
31(3)->1 7 15 17 20 21 37 38 
32(2)->1 4 5 12 15 20 23 40 41 49 
33(5)->1 7 14 16 20 30 38 39 40 41 48 
34(5)->1 9 10 16 19 21 22 25 35 40 43 
35(3)->1 2 3 9 10 34 48 
36(1)->1 13 21 22 24 38 44 45 47 48 
37(4)->1 2 13 25 31 39 42 46 49 50 
38(4)->1 3 4 9 20 30 31 33 36 46 48 49 
39(1)->1 7 10 17 19 22 33 37 40 43 
40(4)->1 12 14 21 32 33 34 39 45 50 
41(3)->1 5 6 8 10 19 32 33 48 
42(0)->16 20 21 25 26 37 47 
43(0)->5 13 22 27 34 39 
44(0)->7 12 18 23 36 47 
45(0)->11 18 20 24 30 36 40 46 47 50 
46(5)->4 10 11 14 16 30 37 38 45 
47(5)->5 17 19 25 26 29 36 42 44 45 50 
48(6)->1 5 13 14 18 28 33 35 36 38 41 
49(0)->9 10 11 17 19 32 37 38 
50(6)->8 18 19 20 26 37 40 45 47 
COUNT: 0
BEST COST: 7
7
7
