1: 2 3 4 5 6 7 8 9 10 11 12 13 14 15 16 17 18 19 20 21 22 23 24 26 31 46
2: 32 1 3 4 6 39 8 7 13 14 11 49 18 23 24 25 31
3: 1 2 35 6 8 44 27
4: 32 1 2 35 37 8 41 10 12 15 48 23 28
5: 32 48 38 1 41 13 46 47 16 17 23 30
6: 1 2 3 37 13 49 50 22
7: 33 2 1 40 45 47 22 23 25 26 29
8: 1 2 3 4 10 27 29
9: 1 36 37 40 10 11 14 19 24
10: 1 35 4 37 8 9 11 12 13 48 22 23 26 31
11: 32 1 2 33 9 10 43 13 46 45 50 20 14 29 21
12: 1 4 37 42 43 16 25 36 27 10
13: 1 2 5 6 10 11 46 42 31
14: 1 2 39 9 11 18 23 24
15: 1 4 37 30 31
16: 1 34 5 40 42 12 45 46 47 50 20 24 30
17: 1 34 35 5 39 40 46 24
18: 1 2 35 43 14 24 31
19: 1 9 45 21 23 29
20: 32 1 43 37 40 11 45 16 50
21: 32 1 35 37 39 40 41 11 19 27
22: 1 6 7 10 26 27 42
23: 32 1 2 4 5 7 42 43 45 14 50 19 28 10
24: 1 2 16 39 9 46 47 48 17 18 14
25: 32 34 35 37 7 12 2 48 29
26: 33 35 1 37 38 7 10 49 22 27 28 30
27: 32 35 40 12 8 49 3 21 22 26
28: 39 26 43 4 23
29: 36 7 8 11 44 19 25
30: 35 37 15 16 26 5 31
31: 33 2 43 38 1 10 45 13 15 18 47 30
32: 33 2 4 5 40 11 46 20 21 23 25 27
33: 32 11 36 7 43 46 50 26 31
34: 16 25 17
35: 3 4 39 10 46 17 18 21 25 26 27 42 30
36: 33 37 9 43 12 44 48 49 29
37: 36 4 6 9 10 12 46 47 48 20 21 41 25 26 15 30
38: 5 39 41 49 26 31
39: 2 35 38 14 17 21 24 28
40: 32 7 9 44 46 16 17 20 21 27
41: 4 5 38 45 46 48 49 50 21 37
42: 35 43 12 13 16 22 23
43: 33 36 42 11 12 50 46 48 18 20 23 28 31
44: 3 36 40 45 46 50 29
45: 7 41 11 44 16 19 20 23 31
46: 32 1 43 37 33 40 41 11 44 13 16 17 35 24 5
47: 16 37 7 48 24 5 31
48: 36 37 41 10 43 47 24 25 4 5
49: 2 36 6 38 41 50 26 27
50: 33 43 6 41 11 44 16 49 20 23
-------
1(-1)->2 3 4 5 6 7 8 9 10 11 12 13 14 15 16 17 18 19 20 21 22 23 24 26 31 46 
2(-1)->1 3 4 6 7 8 11 13 14 18 23 24 25 31 32 39 49 
3(-1)->1 2 6 8 27 35 44 
4(-1)->1 2 8 10 12 15 23 28 32 35 37 41 48 
5(-1)->1 13 16 17 23 30 32 38 41 46 47 48 
6(-1)->1 2 3 13 22 37 49 50 
7(-1)->1 2 22 23 25 26 29 33 40 45 47 
8(-1)->1 2 3 4 10 27 29 
9(-1)->1 10 11 14 19 24 36 37 40 
10(-1)->1 4 8 9 11 12 13 22 23 26 31 35 37 48 
11(-1)->1 2 9 10 13 14 20 21 29 32 33 43 45 46 50 
12(-1)->1 4 10 16 25 27 36 37 42 43 
13(-1)->1 2 5 6 10 11 31 42 46 
14(-1)->1 2 9 11 18 23 24 39 
15(-1)->1 4 30 31 37 
16(-1)->1 5 12 20 24 30 34 40 42 45 46 47 50 
17(-1)->1 5 24 34 35 39 40 46 
18(-1)->1 2 14 24 31 35 43 
19(-1)->1 9 21 23 29 45 
20(-1)->1 11 16 32 37 40 43 45 50 
21(-1)->1 11 19 27 32 35 37 39 40 41 
22(-1)->1 6 7 10 26 27 42 
23(-1)->1 2 4 5 7 10 14 19 28 32 42 43 45 50 
24(-1)->1 2 9 14 16 17 18 39 46 47 48 
25(-1)->2 7 12 29 32 34 35 37 48 
26(-1)->1 7 10 22 27 28 30 33 35 37 38 49 
27(-1)->3 8 12 21 22 26 32 35 40 49 
28(-1)->4 23 26 39 43 
29(-1)->7 8 11 19 25 36 44 
30(-1)->5 15 16 26 31 35 37 
31(-1)->1 2 10 13 15 18 30 33 38 43 45 47 
32(-1)->2 4 5 11 20 21 23 25 27 33 40 46 
33(-1)->7 11 26 31 32 36 43 46 50 
34(-1)->16 17 25 
35(-1)->3 4 10 17 18 21 25 26 27 30 39 42 46 
36(-1)->9 12 29 33 37 43 44 48 49 
37(-1)->4 6 9 10 12 15 20 21 25 26 30 36 41 46 47 48 
38(-1)->5 26 31 39 41 49 
39(-1)->2 14 17 21 24 28 35 38 
40(-1)->7 9 16 17 20 21 27 32 44 46 
41(-1)->4 5 21 37 38 45 46 48 49 50 
42(-1)->12 13 16 22 23 35 43 
43(-1)->11 12 18 20 23 28 31 33 36 42 46 48 50 
44(-1)->3 29 36 40 45 46 50 
45(-1)->7 11 16 19 20 23 31 41 44 
46(-1)->1 5 11 13 16 17 24 32 33 35 37 40 41 43 44 
47(-1)->5 7 16 24 31 37 48 
48(-1)->4 5 10 24 25 36 37 41 43 47 
49(-1)->2 6 26 27 36 38 41 50 
50(-1)->6 11 16 20 23 33 41 43 44 49 
-------
1(0)->2 3 4 5 6 7 8 9 10 11 12 13 14 15 16 17 18 19 20 21 22 23 24 26 31 46 
2(1)->1 3 4 6 7 8 11 13 14 18 23 24 25 31 32 39 49 
3(2)->1 2 6 8 27 35 44 
4(2)->1 2 8 10 12 15 23 28 32 35 37 41 48 
5(1)->1 13 16 17 23 30 32 38 41 46 47 48 
6(3)->1 2 3 13 22 37 49 50 
7(2)->1 2 22 23 25 26 29 33 40 45 47 
8(3)->1 2 3 4 10 27 29 
9(1)->1 10 11 14 19 24 36 37 40 
10(4)->1 4 8 9 11 12 13 22 23 26 31 35 37 48 
11(2)->1 2 9 10 13 14 20 21 29 32 33 43 45 46 50 
12(1)->1 4 10 16 25 27 36 37 42 43 
13(5)->1 2 5 6 10 11 31 42 46 
14(3)->1 2 9 11 18 23 24 39 
15(1)->1 4 30 31 37 
16(2)->1 5 12 20 24 30 34 40 42 45 46 47 50 
17(2)->1 5 24 34 35 39 40 46 
18(2)->1 2 14 24 31 35 43 
19(2)->1 9 21 23 29 45 
20(1)->1 11 16 32 37 40 43 45 50 
21(1)->1 11 19 27 32 35 37 39 40 41 
22(1)->1 6 7 10 26 27 42 
23(5)->1 2 4 5 7 10 14 19 28 32 42 43 45 50 
24(4)->1 2 9 14 16 17 18 39 46 47 48 
25(0)->2 7 12 29 32 34 35 37 48 
26(3)->1 7 10 22 27 28 30 33 35 37 38 49 
27(0)->3 8 12 21 22 26 32 35 40 49 
28(0)->4 23 26 39 43 
29(1)->7 8 11 19 25 36 44 
30(0)->5 15 16 26 31 35 37 
31(3)->1 2 10 13 15 18 30 33 38 43 45 47 
32(3)->2 4 5 11 20 21 23 25 27 33 40 46 
33(0)->7 11 26 31 32 36 43 46 50 
34(1)->16 17 25 
35(5)->3 4 10 17 18 21 25 26 27 30 39 42 46 
36(2)->9 12 29 33 37 43 44 48 49 
37(5)->4 6 9 10 12 15 20 21 25 26 30 36 41 46 47 48 
38(0)->5 26 31 39 41 49 
39(6)->2 14 17 21 24 28 35 38 
40(4)->7 9 16 17 20 21 27 32 44 46 
41(3)->4 5 21 37 38 45 46 48 49 50 
42(0)->12 13 16 22 23 35 43 
43(4)->11 12 18 20 23 28 31 33 36 42 46 48 50 
44(0)->3 29 36 40 45 46 50 
45(4)->7 11 16 19 20 23 31 41 44 
46(6)->1 5 11 13 16 17 24 32 33 35 37 40 41 43 44 
47(0)->5 7 16 24 31 37 48 
48(6)->4 5 10 24 25 36 37 41 43 47 
49(4)->2 6 26 27 36 38 41 50 
50(6)->6 11 16 20 23 33 41 43 44 49 
COUNT: 0
BEST COST: 7
7
7
