1: 2 3 4 5 6 7 8 9 10 11 12 13 14 15 16 17 18 19 20 21 22 23 24 25 26 27 28 29 30 31 32 33 34 35 36 37 38 43 48
2: 48 3 36 1 9 42 12 13 14 16 19 20 46 25 26
3: 1 2 35 5 6 7 41 42 13 14 21 23 31
4: 33 35 6 1 46 47
5: 1 3 8 13 15 19 26
6: 1 34 35 4 37 12 46 3 22 28
7: 33 3 1 42 45 16 27 28
8: 1 34 5 12 46 16 23
9: 32 1 2 35 36 41 45 46 47 20 22 23 24
10: 1 12 15 16 19 25 31
11: 1 36 44 13 15 17 21 22 24
12: 1 2 6 8 10 46 47 17 19 22 27 28
13: 1 2 3 5 41 11 15 16 21 22 23
14: 1 2 3 36 41 48 19 27 31
15: 1 43 5 41 10 11 44 13 47
16: 1 2 35 7 8 10 13 18 28
17: 33 35 37 1 40 11 12 45 50 20 21
18: 32 1 34 35 36 37 39 16 19 21 24
19: 1 2 5 33 10 43 12 14 47 18 21 25 26 29
20: 32 1 2 36 49 39 9 44 47 17 26 31
21: 1 3 39 40 11 13 17 18 19 22 26
22: 33 38 6 1 9 42 11 12 13 49 21 26
23: 1 3 8 9 13 48 26 27
24: 32 33 1 9 11 48 18 30
25: 1 2 37 10 47 48 19
26: 1 2 35 5 41 19 20 21 22 23 37
27: 32 33 1 7 40 39 12 14 47 49 23 29
28: 32 1 34 6 7 40 12 16 49 30
29: 27 1 19 37
30: 1 40 46 47 24 28
31: 1 34 3 38 10 43 44 14 47 48 49 35 20
32: 1 9 42 50 18 20 24 27 28
33: 1 4 38 7 17 19 22 24 27
34: 1 35 6 8 44 50 49 18 28 31
35: 48 34 3 4 6 1 9 43 47 16 17 18 26 31
36: 1 2 38 9 11 14 18 20
37: 1 6 17 49 18 25 26 29
38: 33 36 1 40 42 46 48 49 22 31
39: 50 46 18 20 21 27
40: 38 45 46 17 21 27 28 30
41: 3 9 13 14 15 26
42: 32 2 3 38 7 43 44 22
43: 1 35 42 45 15 19 31
44: 34 42 11 46 15 50 20 31
45: 7 40 9 43 46 17
46: 2 4 6 38 39 40 9 12 45 44 49 8 30
47: 35 4 9 12 15 19 20 25 27 30 31
48: 1 2 35 38 14 50 23 24 25 31
49: 34 37 38 46 20 22 27 28 31
50: 32 34 39 44 48 17
-------
1(-1)->2 3 4 5 6 7 8 9 10 11 12 13 14 15 16 17 18 19 20 21 22 23 24 25 26 27 28 29 30 31 32 33 34 35 36 37 38 43 48 
2(-1)->1 3 9 12 13 14 16 19 20 25 26 36 42 46 48 
3(-1)->1 2 5 6 7 13 14 21 23 31 35 41 42 
4(-1)->1 6 33 35 46 47 
5(-1)->1 3 8 13 15 19 26 
6(-1)->1 3 4 12 22 28 34 35 37 46 
7(-1)->1 3 16 27 28 33 42 45 
8(-1)->1 5 12 16 23 34 46 
9(-1)->1 2 20 22 23 24 32 35 36 41 45 46 47 
10(-1)->1 12 15 16 19 25 31 
11(-1)->1 13 15 17 21 22 24 36 44 
12(-1)->1 2 6 8 10 17 19 22 27 28 46 47 
13(-1)->1 2 3 5 11 15 16 21 22 23 41 
14(-1)->1 2 3 19 27 31 36 41 48 
15(-1)->1 5 10 11 13 41 43 44 47 
16(-1)->1 2 7 8 10 13 18 28 35 
17(-1)->1 11 12 20 21 33 35 37 40 45 50 
18(-1)->1 16 19 21 24 32 34 35 36 37 39 
19(-1)->1 2 5 10 12 14 18 21 25 26 29 33 43 47 
20(-1)->1 2 9 17 26 31 32 36 39 44 47 49 
21(-1)->1 3 11 13 17 18 19 22 26 39 40 
22(-1)->1 6 9 11 12 13 21 26 33 38 42 49 
23(-1)->1 3 8 9 13 26 27 48 
24(-1)->1 9 11 18 30 32 33 48 
25(-1)->1 2 10 19 37 47 48 
26(-1)->1 2 5 19 20 21 22 23 35 37 41 
27(-1)->1 7 12 14 23 29 32 33 39 40 47 49 
28(-1)->1 6 7 12 16 30 32 34 40 49 
29(-1)->1 19 27 37 
30(-1)->1 24 28 40 46 47 
31(-1)->1 3 10 14 20 34 35 38 43 44 47 48 49 
32(-1)->1 9 18 20 24 27 28 42 50 
33(-1)->1 4 7 17 19 22 24 27 38 
34(-1)->1 6 8 18 28 31 35 44 49 50 
35(-1)->1 3 4 6 9 16 17 18 26 31 34 43 47 48 
36(-1)->1 2 9 11 14 18 20 38 
37(-1)->1 6 17 18 25 26 29 49 
38(-1)->1 22 31 33 36 40 42 46 48 49 
39(-1)->18 20 21 27 46 50 
40(-1)->17 21 27 28 30 38 45 46 
41(-1)->3 9 13 14 15 26 
42(-1)->2 3 7 22 32 38 43 44 
43(-1)->1 15 19 31 35 42 45 
44(-1)->11 15 20 31 34 42 46 50 
45(-1)->7 9 17 40 43 46 
46(-1)->2 4 6 8 9 12 30 38 39 40 44 45 49 
47(-1)->4 9 12 15 19 20 25 27 30 31 35 
48(-1)->1 2 14 23 24 25 31 35 38 50 
49(-1)->20 22 27 28 31 34 37 38 46 
50(-1)->17 32 34 39 44 48 
-------
1(0)->2 3 4 5 6 7 8 9 10 11 12 13 14 15 16 17 18 19 20 21 22 23 24 25 26 27 28 29 30 31 32 33 34 35 36 37 38 43 48 
2(1)->1 3 9 12 13 14 16 19 20 25 26 36 42 46 48 
3(2)->1 2 5 6 7 13 14 21 23 31 35 41 42 
4(1)->1 6 33 35 46 47 
5(1)->1 3 8 13 15 19 26 
6(3)->1 3 4 12 22 28 34 35 37 46 
7(1)->1 3 16 27 28 33 42 45 
8(2)->1 5 12 16 23 34 46 
9(2)->1 2 20 22 23 24 32 35 36 41 45 46 47 
10(1)->1 12 15 16 19 25 31 
11(1)->1 13 15 17 21 22 24 36 44 
12(4)->1 2 6 8 10 17 19 22 27 28 46 47 
13(3)->1 2 3 5 11 15 16 21 22 23 41 
14(3)->1 2 3 19 27 31 36 41 48 
15(2)->1 5 10 11 13 41 43 44 47 
16(4)->1 2 7 8 10 13 18 28 35 
17(2)->1 11 12 20 21 33 35 37 40 45 50 
18(1)->1 16 19 21 24 32 34 35 36 37 39 
19(2)->1 2 5 10 12 14 18 21 25 26 29 33 43 47 
20(3)->1 2 9 17 26 31 32 36 39 44 47 49 
21(4)->1 3 11 13 17 18 19 22 26 39 40 
22(5)->1 6 9 11 12 13 21 26 33 38 42 49 
23(1)->1 3 8 9 13 26 27 48 
24(3)->1 9 11 18 30 32 33 48 
25(3)->1 2 10 19 37 47 48 
26(6)->1 2 5 19 20 21 22 23 35 37 41 
27(2)->1 7 12 14 23 29 32 33 39 40 47 49 
28(2)->1 6 7 12 16 30 32 34 40 49 
29(1)->1 19 27 37 
30(1)->1 24 28 40 46 47 
31(4)->1 3 10 14 20 34 35 38 43 44 47 48 49 
32(4)->1 9 18 20 24 27 28 42 50 
33(4)->1 4 7 17 19 22 24 27 38 
34(5)->1 6 8 18 28 31 35 44 49 50 
35(7)->1 3 4 6 9 16 17 18 26 31 34 43 47 48 
36(4)->1 2 9 11 14 18 20 38 
37(4)->1 6 17 18 25 26 29 49 
38(1)->1 22 31 33 36 40 42 46 48 49 
39(0)->18 20 21 27 46 50 
40(0)->17 21 27 28 30 38 45 46 
41(0)->3 9 13 14 15 26 
42(0)->2 3 7 22 32 38 43 44 
43(1)->1 15 19 31 35 42 45 
44(6)->11 15 20 31 34 42 46 50 
45(3)->7 9 17 40 43 46 
46(5)->2 4 6 8 9 12 30 38 39 40 44 45 49 
47(0)->4 9 12 15 19 20 25 27 30 31 35 
48(2)->1 2 14 23 24 25 31 35 38 50 
49(0)->20 22 27 28 31 34 37 38 46 
50(1)->17 32 34 39 44 48 
COUNT: 0
BEST COST: 8
8
8
