1: 2 3 4 5 6 7 8 9 10 11 12 13 14 15 16 17 18 19 20 21 22 23 24 25 26 27 28 29 30 31 32 33 34 35 36 37 38 39 40 41 42 43 44 45 47 49 50
2: 32 1 3 36 37 39 8 42 11 44 13 14 15 17 21 22 7 26 27 5 31
3: 32 1 34 35 17 7 8 41 42 11 2 14 49 9 25
4: 1 43 39 9 11 12 48 49 50 35 21 22 25
5: 32 33 2 36 1 8 9 42 11 13 45 15 49 50 22 24 25 44
6: 32 33 35 1 39 9 10 12 46 44 49 21 24 25 31
7: 1 34 3 38 2 45 16 19 20 22 23 24 27
8: 32 1 34 3 5 39 9 12 2 48 50 20 23 24 26 27
9: 32 33 3 4 5 6 1 8 41 44 16 40 50 22 23 36 26
10: 1 6 41 42 11 44 45 15 48 50 28 29 31
11: 1 2 3 4 5 12 10 44 13 47 48 21 41 24
12: 1 4 6 39 8 11 44 47 16 17 25 28
13: 32 1 2 43 5 11 44 45 47 50 21 26 30
14: 32 1 2 3 47 48 27 30
15: 1 2 35 5 41 10 45 46 48 20 21 27 28 29
16: 32 1 36 12 40 9 42 7 44 45 46 47 17 18 22 28 31
17: 32 33 34 3 1 44 12 2 16 50 25 27 28
18: 32 1 34 38 39 45 16 50 23 24 29
19: 1 36 38 39 40 43 46 48 24 7 28 31
20: 1 35 7 8 15 49 22 28
21: 1 2 4 6 38 39 11 13 47 48 49 50 26 15 30
22: 1 2 4 5 7 40 9 43 16 50 20 41 26 28 30
23: 8 9 18 1 7
24: 1 36 5 6 7 8 11 44 50 46 18 19 27
25: 1 3 36 5 6 42 43 12 45 17 4 28 30
26: 1 2 8 9 13 45 21 22 28
27: 1 2 17 38 7 8 41 39 14 15 49 24 31
28: 48 35 37 1 12 10 44 46 15 16 17 19 20 22 25 26 31
29: 32 1 10 46 15 18 47
30: 1 36 42 13 14 45 21 22 25 31
31: 1 34 35 6 39 40 42 44 2 16 19 27 28 10 30
32: 1 18 3 5 6 8 41 43 13 14 16 17 50 34 9 2 29
33: 1 35 5 6 40 9 45 46 48 17
34: 32 1 3 38 17 8 7 45 46 49 18 43 31
35: 33 3 4 6 1 15 48 20 28 31
36: 1 2 37 40 9 44 45 46 16 50 19 24 25 30 5
37: 1 2 36 40 43 47 48 28
38: 1 34 7 40 41 42 44 47 18 19 21 27
39: 1 2 4 6 8 12 45 49 18 19 21 27 31
40: 33 36 37 38 48 41 46 16 19 1 22 9 31
41: 32 1 3 38 40 9 42 11 46 15 22 27 10
42: 48 2 3 5 38 1 41 10 43 45 16 49 25 30 31
43: 32 1 34 4 37 42 13 45 48 19 22 25
44: 1 2 36 38 6 9 10 11 12 13 47 16 17 24 5 28 31
45: 33 18 34 36 5 16 7 10 43 13 47 48 50 1 25 39 26 15 42 30
46: 33 34 36 6 40 41 15 16 50 19 24 47 28 29
47: 1 37 38 12 11 44 45 14 13 16 21 46 29
48: 33 35 4 37 8 42 11 45 14 15 40 19 21 43 28 10
49: 1 34 3 4 5 6 39 42 20 21 27
50: 32 1 4 5 8 9 10 13 46 45 17 18 21 22 24 36
-------
1(-1)->2 3 4 5 6 7 8 9 10 11 12 13 14 15 16 17 18 19 20 21 22 23 24 25 26 27 28 29 30 31 32 33 34 35 36 37 38 39 40 41 42 43 44 45 47 49 50 
2(-1)->1 3 5 7 8 11 13 14 15 17 21 22 26 27 31 32 36 37 39 42 44 
3(-1)->1 2 7 8 9 11 14 17 25 32 34 35 41 42 49 
4(-1)->1 9 11 12 21 22 25 35 39 43 48 49 50 
5(-1)->1 2 8 9 11 13 15 22 24 25 32 33 36 42 44 45 49 50 
6(-1)->1 9 10 12 21 24 25 31 32 33 35 39 44 46 49 
7(-1)->1 2 3 16 19 20 22 23 24 27 34 38 45 
8(-1)->1 2 3 5 9 12 20 23 24 26 27 32 34 39 48 50 
9(-1)->1 3 4 5 6 8 16 22 23 26 32 33 36 40 41 44 50 
10(-1)->1 6 11 15 28 29 31 41 42 44 45 48 50 
11(-1)->1 2 3 4 5 10 12 13 21 24 41 44 47 48 
12(-1)->1 4 6 8 11 16 17 25 28 39 44 47 
13(-1)->1 2 5 11 21 26 30 32 43 44 45 47 50 
14(-1)->1 2 3 27 30 32 47 48 
15(-1)->1 2 5 10 20 21 27 28 29 35 41 45 46 48 
16(-1)->1 7 9 12 17 18 22 28 31 32 36 40 42 44 45 46 47 
17(-1)->1 2 3 12 16 25 27 28 32 33 34 44 50 
18(-1)->1 16 23 24 29 32 34 38 39 45 50 
19(-1)->1 7 24 28 31 36 38 39 40 43 46 48 
20(-1)->1 7 8 15 22 28 35 49 
21(-1)->1 2 4 6 11 13 15 26 30 38 39 47 48 49 50 
22(-1)->1 2 4 5 7 9 16 20 26 28 30 40 41 43 50 
23(-1)->1 7 8 9 18 
24(-1)->1 5 6 7 8 11 18 19 27 36 44 46 50 
25(-1)->1 3 4 5 6 12 17 28 30 36 42 43 45 
26(-1)->1 2 8 9 13 21 22 28 45 
27(-1)->1 2 7 8 14 15 17 24 31 38 39 41 49 
28(-1)->1 10 12 15 16 17 19 20 22 25 26 31 35 37 44 46 48 
29(-1)->1 10 15 18 32 46 47 
30(-1)->1 13 14 21 22 25 31 36 42 45 
31(-1)->1 2 6 10 16 19 27 28 30 34 35 39 40 42 44 
32(-1)->1 2 3 5 6 8 9 13 14 16 17 18 29 34 41 43 50 
33(-1)->1 5 6 9 17 35 40 45 46 48 
34(-1)->1 3 7 8 17 18 31 32 38 43 45 46 49 
35(-1)->1 3 4 6 15 20 28 31 33 48 
36(-1)->1 2 5 9 16 19 24 25 30 37 40 44 45 46 50 
37(-1)->1 2 28 36 40 43 47 48 
38(-1)->1 7 18 19 21 27 34 40 41 42 44 47 
39(-1)->1 2 4 6 8 12 18 19 21 27 31 45 49 
40(-1)->1 9 16 19 22 31 33 36 37 38 41 46 48 
41(-1)->1 3 9 10 11 15 22 27 32 38 40 42 46 
42(-1)->1 2 3 5 10 16 25 30 31 38 41 43 45 48 49 
43(-1)->1 4 13 19 22 25 32 34 37 42 45 48 
44(-1)->1 2 5 6 9 10 11 12 13 16 17 24 28 31 36 38 47 
45(-1)->1 5 7 10 13 15 16 18 25 26 30 33 34 36 39 42 43 47 48 50 
46(-1)->6 15 16 19 24 28 29 33 34 36 40 41 47 50 
47(-1)->1 11 12 13 14 16 21 29 37 38 44 45 46 
48(-1)->4 8 10 11 14 15 19 21 28 33 35 37 40 42 43 45 
49(-1)->1 3 4 5 6 20 21 27 34 39 42 
50(-1)->1 4 5 8 9 10 13 17 18 21 22 24 32 36 45 46 
-------
1(0)->2 3 4 5 6 7 8 9 10 11 12 13 14 15 16 17 18 19 20 21 22 23 24 25 26 27 28 29 30 31 32 33 34 35 36 37 38 39 40 41 42 43 44 45 47 49 50 
2(1)->1 3 5 7 8 11 13 14 15 17 21 22 26 27 31 32 36 37 39 42 44 
3(2)->1 2 7 8 9 11 14 17 25 32 34 35 41 42 49 
4(1)->1 9 11 12 21 22 25 35 39 43 48 49 50 
5(2)->1 2 8 9 11 13 15 22 24 25 32 33 36 42 44 45 49 50 
6(1)->1 9 10 12 21 24 25 31 32 33 35 39 44 46 49 
7(3)->1 2 3 16 19 20 22 23 24 27 34 38 45 
8(3)->1 2 3 5 9 12 20 23 24 26 27 32 34 39 48 50 
9(4)->1 3 4 5 6 8 16 22 23 26 32 33 36 40 41 44 50 
10(2)->1 6 11 15 28 29 31 41 42 44 45 48 50 
11(3)->1 2 3 4 5 10 12 13 21 24 41 44 47 48 
12(2)->1 4 6 8 11 16 17 25 28 39 44 47 
13(4)->1 2 5 11 21 26 30 32 43 44 45 47 50 
14(3)->1 2 3 27 30 32 47 48 
15(3)->1 2 5 10 20 21 27 28 29 35 41 45 46 48 
16(1)->1 7 9 12 17 18 22 28 31 32 36 40 42 44 45 46 47 
17(3)->1 2 3 12 16 25 27 28 32 33 34 44 50 
18(2)->1 16 23 24 29 32 34 38 39 45 50 
19(1)->1 7 24 28 31 36 38 39 40 43 46 48 
20(1)->1 7 8 15 22 28 35 49 
21(2)->1 2 4 6 11 13 15 26 30 38 39 47 48 49 50 
22(5)->1 2 4 5 7 9 16 20 26 28 30 40 41 43 50 
23(1)->1 7 8 9 18 
24(4)->1 5 6 7 8 11 18 19 27 36 44 46 50 
25(4)->1 3 4 5 6 12 17 28 30 36 42 43 45 
26(6)->1 2 8 9 13 21 22 28 45 
27(2)->1 2 7 8 14 15 17 24 31 38 39 41 49 
28(7)->1 10 12 15 16 17 19 20 22 25 26 31 35 37 44 46 48 
29(1)->1 10 15 18 32 46 47 
30(1)->1 13 14 21 22 25 31 36 42 45 
31(3)->1 2 6 10 16 19 27 28 30 34 35 39 40 42 44 
32(5)->1 2 3 5 6 8 9 13 14 16 17 18 29 34 41 43 50 
33(5)->1 5 6 9 17 35 40 45 46 48 
34(1)->1 3 7 8 17 18 31 32 38 43 45 46 49 
35(4)->1 3 4 6 15 20 28 31 33 48 
36(3)->1 2 5 9 16 19 24 25 30 37 40 44 45 46 50 
37(2)->1 2 28 36 40 43 47 48 
38(4)->1 7 18 19 21 27 34 40 41 42 44 47 
39(4)->1 2 4 6 8 12 18 19 21 27 31 45 49 
40(6)->1 9 16 19 22 31 33 36 37 38 41 46 48 
41(1)->1 3 9 10 11 15 22 27 32 38 40 42 46 
42(5)->1 2 3 5 10 16 25 30 31 38 41 43 45 48 49 
43(3)->1 4 13 19 22 25 32 34 37 42 45 48 
44(5)->1 2 5 6 9 10 11 12 13 16 17 24 28 31 36 38 47 
45(7)->1 5 7 10 13 15 16 18 25 26 30 33 34 36 39 42 43 47 48 50 
46(0)->6 15 16 19 24 28 29 33 34 36 40 41 47 50 
47(6)->1 11 12 13 14 16 21 29 37 38 44 45 46 
48(0)->4 8 10 11 14 15 19 21 28 33 35 37 40 42 43 45 
49(3)->1 3 4 5 6 20 21 27 34 39 42 
50(6)->1 4 5 8 9 10 13 17 18 21 22 24 32 36 45 46 
COUNT: 0
BEST COST: 8
8
8
