1: 2 3 4 5 6 7 8 9 10 11 12 13 14 15 16 17 18 19 20 21 22 23 24 25 26 27 28 29 30 31 32 33 34 35 36 37 38 39 40 41 42 43 44 45 46 47 48
2: 32 1 18 3 4 6 39 8 7 13 14 15 11 49 50 46 23 24 25 26 31
3: 1 2 35 38 6 8 10 11 44 13 47 24 26 27 31
4: 32 1 2 35 37 6 39 8 41 10 12 46 15 48 23 31 28 5
5: 32 48 34 4 38 1 41 44 13 46 47 16 17 19 23 30
6: 32 1 2 3 4 37 13 45 49 50 19 22 31
7: 33 2 1 40 45 47 22 23 25 26 27 29
8: 1 2 3 4 38 10 15 24 27 29
9: 1 36 37 38 40 10 11 14 19 24 25
10: 1 35 4 37 38 8 9 11 12 13 48 3 22 23 26 29 31
11: 32 1 18 3 33 9 10 43 13 46 45 34 50 20 14 2 39 29 21
12: 48 4 37 1 42 43 16 25 36 27 10
13: 1 2 3 5 6 10 11 46 49 19 21 22 42 31
14: 1 2 39 9 11 18 22 23 24
15: 1 2 35 36 37 8 45 19 4 30 31
16: 1 34 5 40 41 42 12 45 46 47 50 20 24 30
17: 1 34 35 5 39 40 46 24 28
18: 1 2 35 37 43 14 11 24 31
19: 1 5 6 9 41 13 45 15 21 22 23 24 29
20: 32 1 43 37 40 11 45 16 50 27
21: 32 1 35 37 39 40 41 11 13 19 27 30
22: 1 6 7 10 13 14 48 19 46 24 26 27 42
23: 32 1 2 34 4 5 7 42 43 45 14 50 19 28 10
24: 1 2 3 37 16 39 8 9 46 47 48 17 18 19 14 22
25: 32 1 34 35 37 7 9 12 2 48 29
26: 33 2 35 1 37 38 7 10 49 3 22 27 28 30
27: 32 1 35 7 40 39 12 8 49 3 20 21 22 26 47 30
28: 32 1 4 39 40 43 17 23 26
29: 33 35 36 7 8 10 11 44 49 19 1 25 42
30: 32 1 35 37 38 15 16 21 26 27 5 31
31: 33 2 43 4 37 38 1 10 45 13 15 18 3 6 47 30
32: 33 2 4 5 6 1 40 41 11 46 50 20 21 23 25 27 28 30
33: 32 1 11 36 7 43 46 50 26 29 31
34: 1 5 11 16 17 23 25
35: 1 3 4 37 39 15 10 46 29 17 18 21 25 26 27 42 30
36: 33 1 37 39 9 43 12 44 48 49 15 29
37: 1 35 36 4 6 9 10 12 46 47 48 18 20 21 41 24 25 26 15 30 31
38: 1 3 5 39 8 41 10 47 49 9 26 42 30 31
39: 1 2 35 36 38 11 14 17 21 24 4 27 28
40: 32 1 7 9 44 46 16 17 20 21 27 28
41: 32 16 4 5 38 1 45 46 48 49 50 19 21 37
42: 1 35 38 43 12 13 16 22 23 29
43: 33 36 1 42 11 12 50 46 48 18 20 23 28 31
44: 1 3 36 5 40 45 46 50 29
45: 1 6 7 41 11 44 47 16 19 20 23 15 31
46: 32 1 2 43 4 37 33 40 41 11 44 13 47 16 17 35 22 24 5
47: 16 3 1 37 38 7 45 46 48 24 27 5 31
48: 1 36 37 41 10 43 12 47 50 22 24 25 4 5
49: 2 36 6 38 41 13 50 26 27 29
50: 32 33 2 43 6 48 41 11 44 16 49 20 23
-------
1(-1)->2 3 4 5 6 7 8 9 10 11 12 13 14 15 16 17 18 19 20 21 22 23 24 25 26 27 28 29 30 31 32 33 34 35 36 37 38 39 40 41 42 43 44 45 46 47 48 
2(-1)->1 3 4 6 7 8 11 13 14 15 18 23 24 25 26 31 32 39 46 49 50 
3(-1)->1 2 6 8 10 11 13 24 26 27 31 35 38 44 47 
4(-1)->1 2 5 6 8 10 12 15 23 28 31 32 35 37 39 41 46 48 
5(-1)->1 4 13 16 17 19 23 30 32 34 38 41 44 46 47 48 
6(-1)->1 2 3 4 13 19 22 31 32 37 45 49 50 
7(-1)->1 2 22 23 25 26 27 29 33 40 45 47 
8(-1)->1 2 3 4 10 15 24 27 29 38 
9(-1)->1 10 11 14 19 24 25 36 37 38 40 
10(-1)->1 3 4 8 9 11 12 13 22 23 26 29 31 35 37 38 48 
11(-1)->1 2 3 9 10 13 14 18 20 21 29 32 33 34 39 43 45 46 50 
12(-1)->1 4 10 16 25 27 36 37 42 43 48 
13(-1)->1 2 3 5 6 10 11 19 21 22 31 42 46 49 
14(-1)->1 2 9 11 18 22 23 24 39 
15(-1)->1 2 4 8 19 30 31 35 36 37 45 
16(-1)->1 5 12 20 24 30 34 40 41 42 45 46 47 50 
17(-1)->1 5 24 28 34 35 39 40 46 
18(-1)->1 2 11 14 24 31 35 37 43 
19(-1)->1 5 6 9 13 15 21 22 23 24 29 41 45 
20(-1)->1 11 16 27 32 37 40 43 45 50 
21(-1)->1 11 13 19 27 30 32 35 37 39 40 41 
22(-1)->1 6 7 10 13 14 19 24 26 27 42 46 48 
23(-1)->1 2 4 5 7 10 14 19 28 32 34 42 43 45 50 
24(-1)->1 2 3 8 9 14 16 17 18 19 22 37 39 46 47 48 
25(-1)->1 2 7 9 12 29 32 34 35 37 48 
26(-1)->1 2 3 7 10 22 27 28 30 33 35 37 38 49 
27(-1)->1 3 7 8 12 20 21 22 26 30 32 35 39 40 47 49 
28(-1)->1 4 17 23 26 32 39 40 43 
29(-1)->1 7 8 10 11 19 25 33 35 36 42 44 49 
30(-1)->1 5 15 16 21 26 27 31 32 35 37 38 
31(-1)->1 2 3 4 6 10 13 15 18 30 33 37 38 43 45 47 
32(-1)->1 2 4 5 6 11 20 21 23 25 27 28 30 33 40 41 46 50 
33(-1)->1 7 11 26 29 31 32 36 43 46 50 
34(-1)->1 5 11 16 17 23 25 
35(-1)->1 3 4 10 15 17 18 21 25 26 27 29 30 37 39 42 46 
36(-1)->1 9 12 15 29 33 37 39 43 44 48 49 
37(-1)->1 4 6 9 10 12 15 18 20 21 24 25 26 30 31 35 36 41 46 47 48 
38(-1)->1 3 5 8 9 10 26 30 31 39 41 42 47 49 
39(-1)->1 2 4 11 14 17 21 24 27 28 35 36 38 
40(-1)->1 7 9 16 17 20 21 27 28 32 44 46 
41(-1)->1 4 5 16 19 21 32 37 38 45 46 48 49 50 
42(-1)->1 12 13 16 22 23 29 35 38 43 
43(-1)->1 11 12 18 20 23 28 31 33 36 42 46 48 50 
44(-1)->1 3 5 29 36 40 45 46 50 
45(-1)->1 6 7 11 15 16 19 20 23 31 41 44 47 
46(-1)->1 2 4 5 11 13 16 17 22 24 32 33 35 37 40 41 43 44 47 
47(-1)->1 3 5 7 16 24 27 31 37 38 45 46 48 
48(-1)->1 4 5 10 12 22 24 25 36 37 41 43 47 50 
49(-1)->2 6 13 26 27 29 36 38 41 50 
50(-1)->2 6 11 16 20 23 32 33 41 43 44 48 49 
-------
1(0)->2 3 4 5 6 7 8 9 10 11 12 13 14 15 16 17 18 19 20 21 22 23 24 25 26 27 28 29 30 31 32 33 34 35 36 37 38 39 40 41 42 43 44 45 46 47 48 
2(1)->1 3 4 6 7 8 11 13 14 15 18 23 24 25 26 31 32 39 46 49 50 
3(2)->1 2 6 8 10 11 13 24 26 27 31 35 38 44 47 
4(2)->1 2 5 6 8 10 12 15 23 28 31 32 35 37 39 41 46 48 
5(1)->1 4 13 16 17 19 23 30 32 34 38 41 44 46 47 48 
6(3)->1 2 3 4 13 19 22 31 32 37 45 49 50 
7(2)->1 2 22 23 25 26 27 29 33 40 45 47 
8(3)->1 2 3 4 10 15 24 27 29 38 
9(1)->1 10 11 14 19 24 25 36 37 38 40 
10(4)->1 3 4 8 9 11 12 13 22 23 26 29 31 35 37 38 48 
11(3)->1 2 3 9 10 13 14 18 20 21 29 32 33 34 39 43 45 46 50 
12(1)->1 4 10 16 25 27 36 37 42 43 48 
13(5)->1 2 3 5 6 10 11 19 21 22 31 42 46 49 
14(2)->1 2 9 11 18 22 23 24 39 
15(4)->1 2 4 8 19 30 31 35 36 37 45 
16(2)->1 5 12 20 24 30 34 40 41 42 45 46 47 50 
17(2)->1 5 24 28 34 35 39 40 46 
18(4)->1 2 11 14 24 31 35 37 43 
19(2)->1 5 6 9 13 15 21 22 23 24 29 41 45 
20(1)->1 11 16 27 32 37 40 43 45 50 
21(1)->1 11 13 19 27 30 32 35 37 39 40 41 
22(1)->1 6 7 10 13 14 19 24 26 27 42 46 48 
23(3)->1 2 4 5 7 10 14 19 28 32 34 42 43 45 50 
24(5)->1 2 3 8 9 14 16 17 18 19 22 37 39 46 47 48 
25(3)->1 2 7 9 12 29 32 34 35 37 48 
26(3)->1 2 3 7 10 22 27 28 30 33 35 37 38 49 
27(4)->1 3 7 8 12 20 21 22 26 30 32 35 39 40 47 49 
28(1)->1 4 17 23 26 32 39 40 43 
29(1)->1 7 8 10 11 19 25 33 35 36 42 44 49 
30(5)->1 5 15 16 21 26 27 31 32 35 37 38 
31(6)->1 2 3 4 6 10 13 15 18 30 33 37 38 43 45 47 
32(6)->1 2 4 5 6 11 20 21 23 25 27 28 30 33 40 41 46 50 
33(4)->1 7 11 26 29 31 32 36 43 46 50 
34(4)->1 5 11 16 17 23 25 
35(6)->1 3 4 10 15 17 18 21 25 26 27 29 30 37 39 42 46 
36(2)->1 9 12 15 29 33 37 39 43 44 48 49 
37(7)->1 4 6 9 10 12 15 18 20 21 24 25 26 30 31 35 36 41 46 47 48 
38(7)->1 3 5 8 9 10 26 30 31 39 41 42 47 49 
39(8)->1 2 4 11 14 17 21 24 27 28 35 36 38 
40(3)->1 7 9 16 17 20 21 27 28 32 44 46 
41(3)->1 4 5 16 19 21 32 37 38 45 46 48 49 50 
42(4)->1 12 13 16 22 23 29 35 38 43 
43(5)->1 11 12 18 20 23 28 31 33 36 42 46 48 50 
44(4)->1 3 5 29 36 40 45 46 50 
45(5)->1 6 7 11 15 16 19 20 23 31 41 44 47 
46(8)->1 2 4 5 11 13 16 17 22 24 32 33 35 37 40 41 43 44 47 
47(3)->1 3 5 7 16 24 27 31 37 38 45 46 48 
48(6)->1 4 5 10 12 22 24 25 36 37 41 43 47 50 
49(0)->2 6 13 26 27 29 36 38 41 50 
50(7)->2 6 11 16 20 23 32 33 41 43 44 48 49 
COUNT: 0
BEST COST: 9
9
9
