1: 2 3 4 5 6 7 8 9 10 11 12 13 14 15 16 17 18 19 20 21 22 23 24 25 26 27 28 29 30 31 32 33 34 35 36 37 38 39 40 41 42 43 44 45 46 47 48 49
2: 1 3 4 5 6 7 8 9 10 11 13 16 17 19 21 24 25 27 28 29 34 37 39 40 44 45 47 48 49
3: 32 1 2 35 36 5 6 7 8 9 11 13 46 47 16 49 19 21 4
4: 1 2 3 36 5 6 39 8 41 42 12 13 15 49 20 9
5: 1 2 3 4 37 6 7 9 39 34 14 13 16 18 19 24 36 31
6: 1 34 3 4 5 38 7 42 12 2 46 16 19 22 28 29 30
7: 32 1 2 3 36 5 6 40 42 44 18 20 26 31
8: 32 1 2 3 4 39 43 45 14 19 21 46 30 31
9: 1 2 3 4 37 42 13 15 16 19 21 26 27 5
10: 16 2 38 1 43 46 15 48 20
11: 1 2 35 43 14 48 3 20
12: 1 4 6 41 42 46 15 17 19 21 24 25 30 31
13: 1 34 3 4 5 38 40 9 2 14 18 21 24 30
14: 1 34 5 8 41 11 13 46 47 21 28
15: 1 34 4 40 9 42 12 45 46 48 49 50 23 24 25 27 10
16: 41 1 2 3 36 5 6 39 9 10 17 19 20 21 22 23 25 28 31
17: 1 2 40 12 47 16 25 27 28
18: 32 33 1 5 7 43 13 26 29 31
19: 32 1 2 3 36 5 6 49 40 9 12 47 16 8 50 20 22 24 29 30
20: 1 4 38 7 10 11 16 50 19 24
21: 1 2 3 8 41 12 13 14 16 49 9 27
22: 33 34 35 6 1 41 16 19 23 29 31
23: 33 36 1 41 46 15 16 49 22
24: 1 2 36 5 41 45 12 13 46 47 48 19 20 15 28 31
25: 1 2 37 12 41 42 44 45 46 15 16 17 50 29 31
26: 1 7 9 43 46 18 27 30
27: 1 34 49 39 40 9 2 15 17 50 21 26
28: 32 1 2 38 6 39 45 14 16 17 50 24 29
29: 1 2 6 38 18 19 22 25 28 30
30: 33 6 38 1 40 42 12 13 47 48 8 19 26 29 31
31: 33 1 5 7 8 43 12 46 16 18 22 24 25 30
32: 1 3 36 37 38 39 40 41 7 45 48 8 18 19 28
33: 1 36 40 41 42 45 48 18 22 23 30 31
34: 1 2 35 5 38 40 13 14 15 48 49 22 6 27
35: 1 34 3 36 39 11 44 48 49 50 22
36: 3 33 35 32 37 7 16 19 1 23 24 4 5
37: 32 1 2 36 5 9 42 46 47 48 25
38: 32 1 34 6 10 43 13 20 28 29 30
39: 32 1 2 35 4 5 8 47 16 27 28
40: 32 1 34 27 33 7 42 43 44 13 15 48 17 19 2 47 30
41: 32 33 4 1 12 14 47 16 21 22 23 24 25
42: 33 4 37 6 7 40 9 12 15 1 25 30
43: 1 38 40 10 11 18 48 8 50 26 31
44: 1 2 35 7 40 50 25
45: 32 1 2 33 8 15 24 25 28
46: 1 3 37 6 8 10 12 14 15 49 23 24 25 26 31
47: 1 2 3 37 39 40 41 14 48 17 19 24 30
48: 32 33 2 35 37 1 40 10 11 34 47 49 43 24 15 30
49: 3 1 2 35 4 34 46 15 48 50 19 21 23 27
50: 35 43 44 15 49 19 20 25 27 28
-------
1(-1)->2 3 4 5 6 7 8 9 10 11 12 13 14 15 16 17 18 19 20 21 22 23 24 25 26 27 28 29 30 31 32 33 34 35 36 37 38 39 40 41 42 43 44 45 46 47 48 49 
2(-1)->1 3 4 5 6 7 8 9 10 11 13 16 17 19 21 24 25 27 28 29 34 37 39 40 44 45 47 48 49 
3(-1)->1 2 4 5 6 7 8 9 11 13 16 19 21 32 35 36 46 47 49 
4(-1)->1 2 3 5 6 8 9 12 13 15 20 36 39 41 42 49 
5(-1)->1 2 3 4 6 7 9 13 14 16 18 19 24 31 34 36 37 39 
6(-1)->1 2 3 4 5 7 12 16 19 22 28 29 30 34 38 42 46 
7(-1)->1 2 3 5 6 18 20 26 31 32 36 40 42 44 
8(-1)->1 2 3 4 14 19 21 30 31 32 39 43 45 46 
9(-1)->1 2 3 4 5 13 15 16 19 21 26 27 37 42 
10(-1)->1 2 15 16 20 38 43 46 48 
11(-1)->1 2 3 14 20 35 43 48 
12(-1)->1 4 6 15 17 19 21 24 25 30 31 41 42 46 
13(-1)->1 2 3 4 5 9 14 18 21 24 30 34 38 40 
14(-1)->1 5 8 11 13 21 28 34 41 46 47 
15(-1)->1 4 9 10 12 23 24 25 27 34 40 42 45 46 48 49 50 
16(-1)->1 2 3 5 6 9 10 17 19 20 21 22 23 25 28 31 36 39 41 
17(-1)->1 2 12 16 25 27 28 40 47 
18(-1)->1 5 7 13 26 29 31 32 33 43 
19(-1)->1 2 3 5 6 8 9 12 16 20 22 24 29 30 32 36 40 47 49 50 
20(-1)->1 4 7 10 11 16 19 24 38 50 
21(-1)->1 2 3 8 9 12 13 14 16 27 41 49 
22(-1)->1 6 16 19 23 29 31 33 34 35 41 
23(-1)->1 15 16 22 33 36 41 46 49 
24(-1)->1 2 5 12 13 15 19 20 28 31 36 41 45 46 47 48 
25(-1)->1 2 12 15 16 17 29 31 37 41 42 44 45 46 50 
26(-1)->1 7 9 18 27 30 43 46 
27(-1)->1 2 9 15 17 21 26 34 39 40 49 50 
28(-1)->1 2 6 14 16 17 24 29 32 38 39 45 50 
29(-1)->1 2 6 18 19 22 25 28 30 38 
30(-1)->1 6 8 12 13 19 26 29 31 33 38 40 42 47 48 
31(-1)->1 5 7 8 12 16 18 22 24 25 30 33 43 46 
32(-1)->1 3 7 8 18 19 28 36 37 38 39 40 41 45 48 
33(-1)->1 18 22 23 30 31 36 40 41 42 45 48 
34(-1)->1 2 5 6 13 14 15 22 27 35 38 40 48 49 
35(-1)->1 3 11 22 34 36 39 44 48 49 50 
36(-1)->1 3 4 5 7 16 19 23 24 32 33 35 37 
37(-1)->1 2 5 9 25 32 36 42 46 47 48 
38(-1)->1 6 10 13 20 28 29 30 32 34 43 
39(-1)->1 2 4 5 8 16 27 28 32 35 47 
40(-1)->1 2 7 13 15 17 19 27 30 32 33 34 42 43 44 47 48 
41(-1)->1 4 12 14 16 21 22 23 24 25 32 33 47 
42(-1)->1 4 6 7 9 12 15 25 30 33 37 40 
43(-1)->1 8 10 11 18 26 31 38 40 48 50 
44(-1)->1 2 7 25 35 40 50 
45(-1)->1 2 8 15 24 25 28 32 33 
46(-1)->1 3 6 8 10 12 14 15 23 24 25 26 31 37 49 
47(-1)->1 2 3 14 17 19 24 30 37 39 40 41 48 
48(-1)->1 2 10 11 15 24 30 32 33 34 35 37 40 43 47 49 
49(-1)->1 2 3 4 15 19 21 23 27 34 35 46 48 50 
50(-1)->15 19 20 25 27 28 35 43 44 49 
-------
1(0)->2 3 4 5 6 7 8 9 10 11 12 13 14 15 16 17 18 19 20 21 22 23 24 25 26 27 28 29 30 31 32 33 34 35 36 37 38 39 40 41 42 43 44 45 46 47 48 49 
2(1)->1 3 4 5 6 7 8 9 10 11 13 16 17 19 21 24 25 27 28 29 34 37 39 40 44 45 47 48 49 
3(2)->1 2 4 5 6 7 8 9 11 13 16 19 21 32 35 36 46 47 49 
4(3)->1 2 3 5 6 8 9 12 13 15 20 36 39 41 42 49 
5(4)->1 2 3 4 6 7 9 13 14 16 18 19 24 31 34 36 37 39 
6(5)->1 2 3 4 5 7 12 16 19 22 28 29 30 34 38 42 46 
7(3)->1 2 3 5 6 18 20 26 31 32 36 40 42 44 
8(4)->1 2 3 4 14 19 21 30 31 32 39 43 45 46 
9(5)->1 2 3 4 5 13 15 16 19 21 26 27 37 42 
10(2)->1 2 15 16 20 38 43 46 48 
11(3)->1 2 3 14 20 35 43 48 
12(1)->1 4 6 15 17 19 21 24 25 30 31 41 42 46 
13(6)->1 2 3 4 5 9 14 18 21 24 30 34 38 40 
14(1)->1 5 8 11 13 21 28 34 41 46 47 
15(4)->1 4 9 10 12 23 24 25 27 34 40 42 45 46 48 49 50 
16(3)->1 2 3 5 6 9 10 17 19 20 21 22 23 25 28 31 36 39 41 
17(2)->1 2 12 16 25 27 28 40 47 
18(1)->1 5 7 13 26 29 31 32 33 43 
19(6)->1 2 3 5 6 8 9 12 16 20 22 24 29 30 32 36 40 47 49 50 
20(1)->1 4 7 10 11 16 19 24 38 50 
21(7)->1 2 3 8 9 12 13 14 16 27 41 49 
22(1)->1 6 16 19 23 29 31 33 34 35 41 
23(2)->1 15 16 22 33 36 41 46 49 
24(2)->1 2 5 12 13 15 19 20 28 31 36 41 45 46 47 48 
25(5)->1 2 12 15 16 17 29 31 37 41 42 44 45 46 50 
26(2)->1 7 9 18 27 30 43 46 
27(3)->1 2 9 15 17 21 26 34 39 40 49 50 
28(4)->1 2 6 14 16 17 24 29 32 38 39 45 50 
29(2)->1 2 6 18 19 22 25 28 30 38 
30(3)->1 6 8 12 13 19 26 29 31 33 38 40 42 47 48 
31(6)->1 5 7 8 12 16 18 22 24 25 30 33 43 46 
32(5)->1 3 7 8 18 19 28 36 37 38 39 40 41 45 48 
33(4)->1 18 22 23 30 31 36 40 41 42 45 48 
34(2)->1 2 5 6 13 14 15 22 27 35 38 40 48 49 
35(4)->1 3 11 22 34 36 39 44 48 49 50 
36(1)->1 3 4 5 7 16 19 23 24 32 33 35 37 
37(2)->1 2 5 9 25 32 36 42 46 47 48 
38(7)->1 6 10 13 20 28 29 30 32 34 43 
39(2)->1 2 4 5 8 16 27 28 32 35 47 
40(7)->1 2 7 13 15 17 19 27 30 32 33 34 42 43 44 47 48 
41(6)->1 4 12 14 16 21 22 23 24 25 32 33 47 
42(6)->1 4 6 7 9 12 15 25 30 33 37 40 
43(5)->1 8 10 11 18 26 31 38 40 48 50 
44(2)->1 2 7 25 35 40 50 
45(3)->1 2 8 15 24 25 28 32 33 
46(3)->1 3 6 8 10 12 14 15 23 24 25 26 31 37 49 
47(4)->1 2 3 14 17 19 24 30 37 39 40 41 48 
48(6)->1 2 10 11 15 24 30 32 33 34 35 37 40 43 47 49 
49(5)->1 2 3 4 15 19 21 23 27 34 35 46 48 50 
50(0)->15 19 20 25 27 28 35 43 44 49 
COUNT: 0
BEST COST: 8
8
8
