1: 2 3 4 5 6 7 8 9 10 11 12 13 14 15 16 17 18 19 20 21 22 23 24 25 26 27 28 29 30 31 32 33 34 35 36 37 38 39 40 41 42 43 44 45 46 47 48 49
2: 1 3 4 5 6 7 8 9 10 11 12 13 14 15 16 17 18 19 20 21 22 23 24 25 26 27 28 29 30 31 32 34 37 39 40 41 44 45 47 48 49
3: 1 2 4 5 6 7 8 9 10 11 13 16 17 19 20 21 22 24 25 26 27 28 29 32 35 36 39 46 47 49
4: 1 2 3 5 6 7 8 9 10 11 12 13 14 15 16 19 20 21 25 29 32 36 39 41 42 48 49
5: 1 2 3 4 37 6 7 8 9 39 34 14 13 16 11 18 19 21 24 36 31
6: 1 34 3 4 5 38 7 42 12 2 46 15 16 10 19 20 22 13 28 29 30
7: 32 1 34 3 36 5 6 40 42 44 2 13 18 20 4 26 31
8: 32 1 2 3 4 5 39 40 43 45 14 19 21 46 30 31
9: 32 1 2 3 4 37 42 13 15 16 19 20 21 23 26 27 5
10: 16 2 3 4 6 38 1 43 46 15 48 49 20
11: 1 2 35 4 5 43 45 14 48 49 50 3 20 26
12: 1 34 35 4 6 39 41 42 2 45 46 15 17 19 21 24 25 30 31
13: 1 34 3 4 5 38 7 40 9 2 14 18 21 24 6 30
14: 1 34 4 5 8 41 11 13 46 47 16 21 22 2 28
15: 1 2 4 6 9 10 12 17 20 23 24 25 27 31 34 40 42 45 46 48 49 50
16: 1 2 3 4 5 6 9 10 14 17 19 20 21 22 23 25 28 31 36 39 41 43 46
17: 1 2 3 40 15 12 47 16 25 27 28
18: 32 33 2 1 5 7 43 13 24 26 29 31
19: 1 2 3 4 5 6 8 9 12 16 20 22 23 24 28 29 30 32 35 36 39 40 47 49 50
20: 1 2 3 4 6 38 7 9 10 11 15 16 50 19 23 24 39 47
21: 1 2 3 4 37 8 41 12 13 14 44 16 49 9 27 5
22: 3 33 34 35 6 1 41 2 14 16 49 19 23 27 29 30 31
23: 33 2 36 1 41 46 15 16 49 19 20 22 9 24
24: 3 1 2 43 36 5 41 45 12 13 46 47 48 18 19 20 23 15 28 31
25: 1 2 35 4 37 12 41 42 44 45 46 15 16 17 50 3 49 29 31
26: 1 2 11 7 9 43 46 18 3 27 30
27: 1 34 3 49 39 40 9 2 15 17 50 21 22 26
28: 32 1 2 35 38 6 39 45 14 16 17 50 19 24 49 29 3
29: 1 2 3 4 6 38 40 18 19 22 25 28 30 31
30: 33 2 6 38 1 40 42 12 13 47 48 8 19 22 26 29 31
31: 33 2 1 5 7 8 43 12 46 15 16 18 22 24 25 29 30 37
32: 1 2 3 36 37 38 39 40 41 7 45 48 8 18 19 9 4 49 28
33: 1 36 40 41 42 45 46 47 48 18 22 23 30 31
34: 1 2 35 5 38 7 40 12 13 14 15 48 49 22 6 27
35: 1 34 3 36 37 38 39 12 42 11 44 48 49 50 19 22 25 28
36: 3 33 35 32 37 7 41 16 19 1 23 24 4 5
37: 32 1 2 35 36 5 38 9 42 46 47 48 21 41 25 31
38: 32 1 34 35 37 6 10 43 13 45 20 28 29 30
39: 32 1 2 35 4 5 3 8 12 47 16 19 20 27 28
40: 32 1 34 27 33 7 8 42 43 44 13 15 48 17 19 2 47 29 30
41: 32 33 2 4 37 1 12 14 47 16 21 22 23 24 25 36
42: 33 35 4 37 6 7 40 9 12 46 15 48 49 1 25 44 30
43: 16 38 1 40 10 11 18 48 8 50 24 26 31
44: 1 2 35 7 40 42 50 21 25
45: 32 1 2 38 33 8 11 12 15 48 24 25 28
46: 33 3 37 6 1 8 10 12 14 15 16 49 23 24 25 26 42 31
47: 33 2 3 1 37 39 40 41 14 48 17 19 20 24 30
48: 32 33 2 35 4 37 1 40 10 11 34 47 49 43 24 45 15 42 30
49: 3 1 2 35 4 32 10 11 34 46 15 48 50 19 21 22 23 25 27 28 42
50: 35 43 44 15 11 49 19 20 25 27 28
-------
1(-1)->2 3 4 5 6 7 8 9 10 11 12 13 14 15 16 17 18 19 20 21 22 23 24 25 26 27 28 29 30 31 32 33 34 35 36 37 38 39 40 41 42 43 44 45 46 47 48 49 
2(-1)->1 3 4 5 6 7 8 9 10 11 12 13 14 15 16 17 18 19 20 21 22 23 24 25 26 27 28 29 30 31 32 34 37 39 40 41 44 45 47 48 49 
3(-1)->1 2 4 5 6 7 8 9 10 11 13 16 17 19 20 21 22 24 25 26 27 28 29 32 35 36 39 46 47 49 
4(-1)->1 2 3 5 6 7 8 9 10 11 12 13 14 15 16 19 20 21 25 29 32 36 39 41 42 48 49 
5(-1)->1 2 3 4 6 7 8 9 11 13 14 16 18 19 21 24 31 34 36 37 39 
6(-1)->1 2 3 4 5 7 10 12 13 15 16 19 20 22 28 29 30 34 38 42 46 
7(-1)->1 2 3 4 5 6 13 18 20 26 31 32 34 36 40 42 44 
8(-1)->1 2 3 4 5 14 19 21 30 31 32 39 40 43 45 46 
9(-1)->1 2 3 4 5 13 15 16 19 20 21 23 26 27 32 37 42 
10(-1)->1 2 3 4 6 15 16 20 38 43 46 48 49 
11(-1)->1 2 3 4 5 14 20 26 35 43 45 48 49 50 
12(-1)->1 2 4 6 15 17 19 21 24 25 30 31 34 35 39 41 42 45 46 
13(-1)->1 2 3 4 5 6 7 9 14 18 21 24 30 34 38 40 
14(-1)->1 2 4 5 8 11 13 16 21 22 28 34 41 46 47 
15(-1)->1 2 4 6 9 10 12 17 20 23 24 25 27 31 34 40 42 45 46 48 49 50 
16(-1)->1 2 3 4 5 6 9 10 14 17 19 20 21 22 23 25 28 31 36 39 41 43 46 
17(-1)->1 2 3 12 15 16 25 27 28 40 47 
18(-1)->1 2 5 7 13 24 26 29 31 32 33 43 
19(-1)->1 2 3 4 5 6 8 9 12 16 20 22 23 24 28 29 30 32 35 36 39 40 47 49 50 
20(-1)->1 2 3 4 6 7 9 10 11 15 16 19 23 24 38 39 47 50 
21(-1)->1 2 3 4 5 8 9 12 13 14 16 27 37 41 44 49 
22(-1)->1 2 3 6 14 16 19 23 27 29 30 31 33 34 35 41 49 
23(-1)->1 2 9 15 16 19 20 22 24 33 36 41 46 49 
24(-1)->1 2 3 5 12 13 15 18 19 20 23 28 31 36 41 43 45 46 47 48 
25(-1)->1 2 3 4 12 15 16 17 29 31 35 37 41 42 44 45 46 49 50 
26(-1)->1 2 3 7 9 11 18 27 30 43 46 
27(-1)->1 2 3 9 15 17 21 22 26 34 39 40 49 50 
28(-1)->1 2 3 6 14 16 17 19 24 29 32 35 38 39 45 49 50 
29(-1)->1 2 3 4 6 18 19 22 25 28 30 31 38 40 
30(-1)->1 2 6 8 12 13 19 22 26 29 31 33 38 40 42 47 48 
31(-1)->1 2 5 7 8 12 15 16 18 22 24 25 29 30 33 37 43 46 
32(-1)->1 2 3 4 7 8 9 18 19 28 36 37 38 39 40 41 45 48 49 
33(-1)->1 18 22 23 30 31 36 40 41 42 45 46 47 48 
34(-1)->1 2 5 6 7 12 13 14 15 22 27 35 38 40 48 49 
35(-1)->1 3 11 12 19 22 25 28 34 36 37 38 39 42 44 48 49 50 
36(-1)->1 3 4 5 7 16 19 23 24 32 33 35 37 41 
37(-1)->1 2 5 9 21 25 31 32 35 36 38 41 42 46 47 48 
38(-1)->1 6 10 13 20 28 29 30 32 34 35 37 43 45 
39(-1)->1 2 3 4 5 8 12 16 19 20 27 28 32 35 47 
40(-1)->1 2 7 8 13 15 17 19 27 29 30 32 33 34 42 43 44 47 48 
41(-1)->1 2 4 12 14 16 21 22 23 24 25 32 33 36 37 47 
42(-1)->1 4 6 7 9 12 15 25 30 33 35 37 40 44 46 48 49 
43(-1)->1 8 10 11 16 18 24 26 31 38 40 48 50 
44(-1)->1 2 7 21 25 35 40 42 50 
45(-1)->1 2 8 11 12 15 24 25 28 32 33 38 48 
46(-1)->1 3 6 8 10 12 14 15 16 23 24 25 26 31 33 37 42 49 
47(-1)->1 2 3 14 17 19 20 24 30 33 37 39 40 41 48 
48(-1)->1 2 4 10 11 15 24 30 32 33 34 35 37 40 42 43 45 47 49 
49(-1)->1 2 3 4 10 11 15 19 21 22 23 25 27 28 32 34 35 42 46 48 50 
50(-1)->11 15 19 20 25 27 28 35 43 44 49 
-------
1(0)->2 3 4 5 6 7 8 9 10 11 12 13 14 15 16 17 18 19 20 21 22 23 24 25 26 27 28 29 30 31 32 33 34 35 36 37 38 39 40 41 42 43 44 45 46 47 48 49 
2(1)->1 3 4 5 6 7 8 9 10 11 12 13 14 15 16 17 18 19 20 21 22 23 24 25 26 27 28 29 30 31 32 34 37 39 40 41 44 45 47 48 49 
3(2)->1 2 4 5 6 7 8 9 10 11 13 16 17 19 20 21 22 24 25 26 27 28 29 32 35 36 39 46 47 49 
4(3)->1 2 3 5 6 7 8 9 10 11 12 13 14 15 16 19 20 21 25 29 32 36 39 41 42 48 49 
5(4)->1 2 3 4 6 7 8 9 11 13 14 16 18 19 21 24 31 34 36 37 39 
6(5)->1 2 3 4 5 7 10 12 13 15 16 19 20 22 28 29 30 34 38 42 46 
7(6)->1 2 3 4 5 6 13 18 20 26 31 32 34 36 40 42 44 
8(5)->1 2 3 4 5 14 19 21 30 31 32 39 40 43 45 46 
9(5)->1 2 3 4 5 13 15 16 19 20 21 23 26 27 32 37 42 
10(4)->1 2 3 4 6 15 16 20 38 43 46 48 49 
11(5)->1 2 3 4 5 14 20 26 35 43 45 48 49 50 
12(2)->1 2 4 6 15 17 19 21 24 25 30 31 34 35 39 41 42 45 46 
13(7)->1 2 3 4 5 6 7 9 14 18 21 24 30 34 38 40 
14(2)->1 2 4 5 8 11 13 16 21 22 28 34 41 46 47 
15(6)->1 2 4 6 9 10 12 17 20 23 24 25 27 31 34 40 42 45 46 48 49 50 
16(6)->1 2 3 4 5 6 9 10 14 17 19 20 21 22 23 25 28 31 36 39 41 43 46 
17(3)->1 2 3 12 15 16 25 27 28 40 47 
18(2)->1 2 5 7 13 24 26 29 31 32 33 43 
19(7)->1 2 3 4 5 6 8 9 12 16 20 22 23 24 28 29 30 32 35 36 39 40 47 49 50 
20(8)->1 2 3 4 6 7 9 10 11 15 16 19 23 24 38 39 47 50 
21(8)->1 2 3 4 5 8 9 12 13 14 16 27 37 41 44 49 
22(3)->1 2 3 6 14 16 19 23 27 29 30 31 33 34 35 41 49 
23(2)->1 2 9 15 16 19 20 22 24 33 36 41 46 49 
24(3)->1 2 3 5 12 13 15 18 19 20 23 28 31 36 41 43 45 46 47 48 
25(4)->1 2 3 4 12 15 16 17 29 31 35 37 41 42 44 45 46 49 50 
26(3)->1 2 3 7 9 11 18 27 30 43 46 
27(4)->1 2 3 9 15 17 21 22 26 34 39 40 49 50 
28(4)->1 2 3 6 14 16 17 19 24 29 32 35 38 39 45 49 50 
29(6)->1 2 3 4 6 18 19 22 25 28 30 31 38 40 
30(4)->1 2 6 8 12 13 19 22 26 29 31 33 38 40 42 47 48 
31(7)->1 2 5 7 8 12 15 16 18 22 24 25 29 30 33 37 43 46 
32(8)->1 2 3 4 7 8 9 18 19 28 36 37 38 39 40 41 45 48 49 
33(1)->1 18 22 23 30 31 36 40 41 42 45 46 47 48 
34(8)->1 2 5 6 7 12 13 14 15 22 27 35 38 40 48 49 
35(1)->1 3 11 12 19 22 25 28 34 36 37 38 39 42 44 48 49 50 
36(5)->1 3 4 5 7 16 19 23 24 32 33 35 37 41 
37(2)->1 2 5 9 21 25 31 32 35 36 38 41 42 46 47 48 
38(3)->1 6 10 13 20 28 29 30 32 34 35 37 43 45 
39(9)->1 2 3 4 5 8 12 16 19 20 27 28 32 35 47 
40(2)->1 2 7 8 13 15 17 19 27 29 30 32 33 34 42 43 44 47 48 
41(7)->1 2 4 12 14 16 21 22 23 24 25 32 33 36 37 47 
42(7)->1 4 6 7 9 12 15 25 30 33 35 37 40 44 46 48 49 
43(1)->1 8 10 11 16 18 24 26 31 38 40 48 50 
44(3)->1 2 7 21 25 35 40 42 50 
45(7)->1 2 8 11 12 15 24 25 28 32 33 38 48 
46(8)->1 3 6 8 10 12 14 15 16 23 24 25 26 31 33 37 42 49 
47(5)->1 2 3 14 17 19 20 24 30 33 37 39 40 41 48 
48(9)->1 2 4 10 11 15 24 30 32 33 34 35 37 40 42 43 45 47 49 
49(10)->1 2 3 4 10 11 15 19 21 22 23 25 27 28 32 34 35 42 46 48 50 
50(0)->11 15 19 20 25 27 28 35 43 44 49 
COUNT: 0
BEST COST: 11
11
11
