
RUNNING 7 200_50_1_0

,0.088,0.531,0.057,0.051,0.076,0.052,0.076,0.057,0.075,0.434,0.05,0.068,0.049,0.07,0.062
RUNNING 4 200_50_1_0

,181.598,0.164,0.058,0.149,0.078,0.052,0.075,0.057,0.074,0.248,0.057,0.068,0.049,0.07,0.073
RUNNING 5 200_50_1_0

,0.058,0.045,0.06,0.055,0.058,0.053,0.08,0.054,0.052,0.289,0.059,0.066,0.049,0.06,0.067
RUNNING rb 200_50_1_0

,0.073,0.512,0.056,0.048,0.077,0.053,0.073,0.054,0.075,0.425,0.049,0.068,0.045,0.068,0.06
RUNNING s 200_50_1_0

,0.047,0.038,0.05,0.048,0.049,0.042,0.065,0.046,0.041,0.054,0.045,0.055,0.043,0.047,0.052
RUNNING ls 200_50_1_0

,0.006,0.005,0.006,0.006,0.006,0.006,0.006,0.006,0.006,0.006,0.006,0.006,0.006,0.006,0.006
RUNNING 7 200_50_3_0

,0.024,0.028,0.028,0.017,0.037,0.463,0.031,0.031,0.028,0.042,0.021,0.032,0.031,0.05,0.043
RUNNING 4 200_50_3_0

,0.02,0.03,0.027,0.019,0.031,0.456,0.036,0.106,0.029,0.154,0.021,0.033,0.042,0.042,180.529
RUNNING 5 200_50_3_0

,0.027,0.023,0.028,0.021,0.03,0.025,0.033,0.032,0.03,0.032,0.024,0.029,0.036,0.08,0.038
RUNNING rb 200_50_3_0

,0.022,0.027,0.026,0.019,0.033,0.464,0.03,0.033,0.028,0.041,0.02,0.031,0.029,0.048,0.037
RUNNING s 200_50_3_0

,0.024,0.022,0.03,0.019,0.027,0.022,0.031,0.028,0.027,0.028,0.018,0.026,0.029,0.029,0.026
RUNNING ls 200_50_3_0

,0.007,0.006,0.006,0.006,0.006,0.006,0.014,0.008,0.006,0.006,0.006,0.007,0.006,0.006,0.006
RUNNING 7 200_50_5_0

,0.014,0.013,0.021,0.014,0.017,0.026,9.699,0.048,0.045,0.035,0.022,0.012,0.017,0.015,0.016
RUNNING 4 200_50_5_0

,0.01,0.01,0.016,0.012,0.012,0.018,9.301,0.036,0.016,0.025,0.016,0.016,0.035,0.017,0.02
RUNNING 5 200_50_5_0

,0.012,0.013,0.023,0.014,0.02,0.027,18.489,0.037,0.018,0.024,0.02,0.015,0.034,0.02,0.02
RUNNING rb 200_50_5_0

,0.011,0.013,0.023,0.015,0.017,0.022,8.932,0.04,0.018,0.024,0.017,0.016,0.026,0.019,0.02
RUNNING s 200_50_5_0

,0.012,0.012,0.021,0.011,0.016,0.024,0.014,0.02,0.017,0.02,0.018,0.012,0.032,0.019,0.025
RUNNING ls 200_50_5_0

,0.01,0.006,0.008,0.006,0.009,0.007,0.009,0.006,0.006,0.006,0.006,0.006,0.01,0.006,0.006
