real	0m0.009s










,0m0.011s,0m0.009s,0m0.008s,0m0.008s,0m0.008s,0m0.008s,0m0.009s,0m0.009s,0m0.008s,0m0.008s










,0m0.008s,0m0.008s,0m0.008s,0m0.010s,0m0.008s,0m0.008s,0m0.008s,0m0.008s,0m0.009s,0m0.008s










,0m0.008s,0m0.008s,0m0.008s,0m0.008s,0m0.008s,0m0.006s,0m0.008s,0m0.010s,0m0.007s,0m0.013s










,0m0.007s,0m0.022s,0m0.053s,0m0.027s,0m0.039s,0m0.033s,0m0.011s,0m0.302s,0m0.020s,0m0.405s










,0m0.009s,0m0.009s,0m0.008s,0m0.009s,0m0.081s,0m0.012s,0m0.077s,0m0.011s,0m0.008s,0m0.008s










,0m0.009s,0m0.041s,0m0.103s,0m0.010s,0m0.047s,0m0.015s,0m0.021s,0m0.009s,0m0.010s,0m0.848s










,0m0.468s,0m0.547s,0m0.688s,0m0.142s,0m0.324s,0m1.795s,0m0.020s,0m0.017s,0m0.014s,0m20.151s










,0m0.297s,0m3.180s,0m1.937s,0m0.174s,0m3.161s,2m0.819s,2m1.027s,0m0.044s,0m0.211s,0m0.677s










,0m0.160s,0m1.065s,0m0.768s,0m0.144s,0m0.026s,0m0.086s,0m14.209s,0m0.287s,0m0.106s,0m0.227s










,0m0.175s,0m1.240s,0m1.419s,0m1.306s,0m0.044s,0m2.800s,0m0.071s,0m7.257s,0m0.707s,0m0.188s










,0m0.474s,0m1.405s,0m2.500s,0m1.061s,0m0.661s,0m3.849s,0m0.097s,0m10.398s,0m3.030s,0m0.202s










,0m0.204s,0m2.092s,0m0.655s,0m0.836s,0m0.160s,0m3.020s,0m0.017s,0m3.394s,0m0.481s,0m1.134s










,0m1.583s,0m8.070s,0m3.880s,0m3.192s,0m0.830s,0m1.898s,0m0.316s,0m1.104s,0m0.074s,0m1.042s










,0m22.945s,0m22.721s,0m11.760s,0m2.249s,0m0.415s,0m1.243s,0m0.353s,0m0.834s,0m0.041s,0m0.749s










,0m2.515s,0m7.047s,0m4.986s,0m2.683s,0m0.661s,0m1.331s,0m0.248s,0m0.809s,0m1.016s,0m0.007s










,0m0.006s,0m0.006s,0m0.006s,0m0.006s,0m0.006s,0m0.006s,0m0.006s,0m0.006s,0m0.006s,0m0.006s










,0m0.006s,0m0.006s,0m0.013s,0m0.006s,0m0.006s,0m0.006s,0m0.008s,0m0.006s,0m0.006s,0m0.007s










,0m0.007s,0m0.007s,0m0.007s,0m0.007s,0m0.007s,0m0.007s,0m0.007s,0m0.007s,0m0.007s,0m0.007s










,0m0.007s,0m0.007s,0m0.007s,0m0.011s,0m0.007s,0m0.007s,0m0.007s,0m0.007s,0m0.007s,0m0.008s






