,40,40,40,40,53,40,40,40,47,40
,58,58,120,63,84,16432,87,275,77,458
,9056,20664,19877,8484,2704,1933,5441,1372,11041,650
,23818,14172,60,1091,938,40202,697,135920,10728,45790
,19444,946,1551,2350,4808,9888,629,4655,3492,925


,50,50,50,50,50,50,59,50,50,50
,41748,51,230,108,205,6926,576,8681,478,50
,1710690,24226,263167,164342,13699,258312,COST: 7,COST: 7,1421,18724
,10795,29208,92253,148110,66377,40478,256220,5271,654958,182361
,41393,989026,981584,606311,111437,20404,65656,18181,43633,1472
