1: 2 3 4 5 6 7 8 9 10 11 12 13 14 15 16 17 18 19 20 21 22 23 24 25 26 27 28 29 30 31 32 33 34 35 36 37 38 39 40
2: 1 3 4 5 6 7 8 9 10 11 12 13 14 15 16 17 18 19 20 21 22 23 24 25 26 27 28 29 30 31 32 33 34 35 36 37 38 39
3: 1 2 4 5 6 7 8 9 10 11 12 13 14 15 16 17 18 19 20 21 22 23 24 25 26 27 28 29 30 31 32 33 34 35 36 37 38 39 40
4: 1 2 3 5 6 7 8 9 10 11 12 13 14 15 16 17 18 19 20 21 22 23 24 25 26 27 28 29 30 31 32 33 34 35 36 37 38 39
5: 1 2 3 4 6 7 8 9 10 11 12 13 14 15 16 17 18 19 20 21 22 23 24 25 26 27 28 29 30 31 32 33 34 35 36 37 38 39
6: 1 2 3 4 5 7 8 9 10 11 12 13 14 15 16 17 18 19 20 21 22 23 24 25 26 27 28 29 30 31 32 33 34 35 36 37 38 39
7: 1 2 3 4 5 6 8 9 10 11 12 13 14 15 16 17 18 19 20 21 22 23 24 25 26 29 30 31 32 33 34 36 37 38
8: 1 2 3 4 5 6 7 9 10 11 12 13 14 15 16 17 18 19 20 21 24 25 29 30 31 34 35 36 37 38 39
9: 1 2 3 4 5 6 7 8 10 11 12 13 14 15 16 17 18 19 20 21 25 28 30 31 34 35 36 37 38 39 40
10: 1 2 3 4 5 6 7 8 9 11 12 13 14 15 16 17 18 19 20 21 22 23 24 25 27 28 30 31 32 33 36 37
11: 1 2 3 4 5 6 7 8 9 10 12 13 14 16 17 22 23 24 25 27 28 30 31 33 38 39
12: 1 2 3 4 5 6 7 8 9 10 11 13 14 15 16 17 18 19 20 22 25 27 31 32 34 36 37 38 39 40
13: 1 2 3 4 5 6 7 8 9 10 11 12 14 15 16 17 18 19 20 22 25 29 31 32 33 35 37
14: 1 2 3 4 37 6 7 8 9 10 11 12 13 15 17 20 22 25 26 5
15: 1 2 3 4 5 6 7 8 9 10 12 13 14 16 18 19 20 21 22 23 24 25 26 28 29 31 32 34 38
16: 1 2 3 4 5 6 7 8 9 10 11 12 13 15 18 19 22 26 30 32 38 39 40
17: 1 2 3 4 5 6 7 8 9 10 11 12 13 14 19 21 22 27 30 33 35 39
18: 1 2 3 4 5 6 7 8 9 10 12 13 15 16 19 22 24 25 26 27 28 29 30 33 36
19: 1 2 3 4 5 6 7 8 9 10 12 13 15 16 17 18 25 26 33 36 37 38 40
20: 1 2 3 4 5 6 7 8 9 10 12 13 14 15 22 23 25 28 29 30 33 34 36 37 38 39 40
21: 32 1 34 35 4 37 6 7 8 9 10 5 2 15 17 3 22 24 28 31
22: 1 2 3 4 5 6 7 10 11 12 13 14 15 16 17 18 20 21 23 28 32 36 39 40
23: 1 34 3 4 5 6 7 10 11 2 15 20 22 24 25 28 30 31
24: 1 2 3 4 5 6 7 8 10 11 15 18 21 23 25 26 30 31 32 34 37 39
25: 1 2 3 4 5 6 7 8 9 10 11 12 13 14 15 18 19 20 23 24 26 29 30 31 32 33 34 36 37
26: 1 2 3 4 5 6 7 14 15 16 18 19 24 25 29 32 33 34 36 37 38 39
27: 32 1 2 3 4 5 38 39 10 11 12 17 18 36 6 37 28 29 31
28: 1 2 3 4 5 6 9 10 11 15 18 20 21 22 23 27 29 30 31 34 35 39 40
29: 1 2 3 4 5 6 7 8 13 15 18 20 25 26 27 28 30 31 33 36 38 39
30: 1 2 3 4 5 6 7 8 9 10 11 16 17 18 20 23 24 25 28 29 33 34 37 38
31: 1 2 3 4 5 6 7 8 9 10 11 12 13 15 21 23 24 25 27 28 29 36 38
32: 1 34 35 4 38 6 7 10 2 12 13 15 16 3 21 22 24 25 26 27 5
33: 1 2 3 4 37 6 7 10 11 13 17 18 19 20 25 26 29 30 5
34: 1 2 3 4 5 6 7 8 9 12 15 20 21 23 24 25 26 28 30 32 36 37 39 40
35: 32 1 2 3 4 5 38 17 40 9 13 8 21 6 28
36: 1 2 3 4 5 6 7 8 9 10 12 18 19 20 22 25 26 27 29 31 34 39
37: 1 2 3 4 5 6 7 8 9 10 12 13 14 19 20 21 24 25 26 27 30 33 34 39
38: 1 2 3 4 5 6 7 8 9 11 12 15 16 19 20 26 27 29 30 31 32 35 40
39: 1 2 3 4 5 6 8 9 11 12 16 17 20 22 24 26 27 28 29 34 36 37 40
40: 3 1 34 35 38 39 9 12 16 19 20 22 28
-------
1(-1)->2 3 4 5 6 7 8 9 10 11 12 13 14 15 16 17 18 19 20 21 22 23 24 25 26 27 28 29 30 31 32 33 34 35 36 37 38 39 40 
2(-1)->1 3 4 5 6 7 8 9 10 11 12 13 14 15 16 17 18 19 20 21 22 23 24 25 26 27 28 29 30 31 32 33 34 35 36 37 38 39 
3(-1)->1 2 4 5 6 7 8 9 10 11 12 13 14 15 16 17 18 19 20 21 22 23 24 25 26 27 28 29 30 31 32 33 34 35 36 37 38 39 40 
4(-1)->1 2 3 5 6 7 8 9 10 11 12 13 14 15 16 17 18 19 20 21 22 23 24 25 26 27 28 29 30 31 32 33 34 35 36 37 38 39 
5(-1)->1 2 3 4 6 7 8 9 10 11 12 13 14 15 16 17 18 19 20 21 22 23 24 25 26 27 28 29 30 31 32 33 34 35 36 37 38 39 
6(-1)->1 2 3 4 5 7 8 9 10 11 12 13 14 15 16 17 18 19 20 21 22 23 24 25 26 27 28 29 30 31 32 33 34 35 36 37 38 39 
7(-1)->1 2 3 4 5 6 8 9 10 11 12 13 14 15 16 17 18 19 20 21 22 23 24 25 26 29 30 31 32 33 34 36 37 38 
8(-1)->1 2 3 4 5 6 7 9 10 11 12 13 14 15 16 17 18 19 20 21 24 25 29 30 31 34 35 36 37 38 39 
9(-1)->1 2 3 4 5 6 7 8 10 11 12 13 14 15 16 17 18 19 20 21 25 28 30 31 34 35 36 37 38 39 40 
10(-1)->1 2 3 4 5 6 7 8 9 11 12 13 14 15 16 17 18 19 20 21 22 23 24 25 27 28 30 31 32 33 36 37 
11(-1)->1 2 3 4 5 6 7 8 9 10 12 13 14 16 17 22 23 24 25 27 28 30 31 33 38 39 
12(-1)->1 2 3 4 5 6 7 8 9 10 11 13 14 15 16 17 18 19 20 22 25 27 31 32 34 36 37 38 39 40 
13(-1)->1 2 3 4 5 6 7 8 9 10 11 12 14 15 16 17 18 19 20 22 25 29 31 32 33 35 37 
14(-1)->1 2 3 4 5 6 7 8 9 10 11 12 13 15 17 20 22 25 26 37 
15(-1)->1 2 3 4 5 6 7 8 9 10 12 13 14 16 18 19 20 21 22 23 24 25 26 28 29 31 32 34 38 
16(-1)->1 2 3 4 5 6 7 8 9 10 11 12 13 15 18 19 22 26 30 32 38 39 40 
17(-1)->1 2 3 4 5 6 7 8 9 10 11 12 13 14 19 21 22 27 30 33 35 39 
18(-1)->1 2 3 4 5 6 7 8 9 10 12 13 15 16 19 22 24 25 26 27 28 29 30 33 36 
19(-1)->1 2 3 4 5 6 7 8 9 10 12 13 15 16 17 18 25 26 33 36 37 38 40 
20(-1)->1 2 3 4 5 6 7 8 9 10 12 13 14 15 22 23 25 28 29 30 33 34 36 37 38 39 40 
21(-1)->1 2 3 4 5 6 7 8 9 10 15 17 22 24 28 31 32 34 35 37 
22(-1)->1 2 3 4 5 6 7 10 11 12 13 14 15 16 17 18 20 21 23 28 32 36 39 40 
23(-1)->1 2 3 4 5 6 7 10 11 15 20 22 24 25 28 30 31 34 
24(-1)->1 2 3 4 5 6 7 8 10 11 15 18 21 23 25 26 30 31 32 34 37 39 
25(-1)->1 2 3 4 5 6 7 8 9 10 11 12 13 14 15 18 19 20 23 24 26 29 30 31 32 33 34 36 37 
26(-1)->1 2 3 4 5 6 7 14 15 16 18 19 24 25 29 32 33 34 36 37 38 39 
27(-1)->1 2 3 4 5 6 10 11 12 17 18 28 29 31 32 36 37 38 39 
28(-1)->1 2 3 4 5 6 9 10 11 15 18 20 21 22 23 27 29 30 31 34 35 39 40 
29(-1)->1 2 3 4 5 6 7 8 13 15 18 20 25 26 27 28 30 31 33 36 38 39 
30(-1)->1 2 3 4 5 6 7 8 9 10 11 16 17 18 20 23 24 25 28 29 33 34 37 38 
31(-1)->1 2 3 4 5 6 7 8 9 10 11 12 13 15 21 23 24 25 27 28 29 36 38 
32(-1)->1 2 3 4 5 6 7 10 12 13 15 16 21 22 24 25 26 27 34 35 38 
33(-1)->1 2 3 4 5 6 7 10 11 13 17 18 19 20 25 26 29 30 37 
34(-1)->1 2 3 4 5 6 7 8 9 12 15 20 21 23 24 25 26 28 30 32 36 37 39 40 
35(-1)->1 2 3 4 5 6 8 9 13 17 21 28 32 38 40 
36(-1)->1 2 3 4 5 6 7 8 9 10 12 18 19 20 22 25 26 27 29 31 34 39 
37(-1)->1 2 3 4 5 6 7 8 9 10 12 13 14 19 20 21 24 25 26 27 30 33 34 39 
38(-1)->1 2 3 4 5 6 7 8 9 11 12 15 16 19 20 26 27 29 30 31 32 35 40 
39(-1)->1 2 3 4 5 6 8 9 11 12 16 17 20 22 24 26 27 28 29 34 36 37 40 
40(-1)->1 3 9 12 16 19 20 22 28 34 35 38 39 
-------
Node 1 maps to position 0
Node 3 maps to position 1
Node 2 maps to position 2
Node 4 maps to position 3
Node 5 maps to position 4
Node 6 maps to position 5
Node 7 maps to position 6
Node 10 maps to position 7
Node 8 maps to position 8
Node 9 maps to position 9
Node 12 maps to position 10
Node 15 maps to position 11
Node 25 maps to position 12
Node 13 maps to position 13
Node 20 maps to position 14
Node 22 maps to position 15
Node 11 maps to position 16
Node 30 maps to position 17
Node 18 maps to position 18
Node 16 maps to position 19
Node 19 maps to position 20
Node 37 maps to position 21
Node 34 maps to position 22
Node 28 maps to position 23
Node 31 maps to position 24
Node 38 maps to position 25
Node 26 maps to position 26
Node 39 maps to position 27
Node 17 maps to position 28
Node 14 maps to position 29
Node 24 maps to position 30
Node 32 maps to position 31
Node 21 maps to position 32
Node 35 maps to position 33
Node 40 maps to position 34
Node 29 maps to position 35
Node 36 maps to position 36
Node 27 maps to position 37
Node 33 maps to position 38
Node 23 maps to position 39
1(-1)->2 3 4 5 6 7 8 9 10 11 12 13 14 15 16 17 18 19 20 21 22 23 24 25 26 27 28 29 30 31 32 33 34 35 36 37 38 39 40 
3(-1)->1 2 4 5 6 7 8 9 10 11 12 13 14 15 16 17 18 19 20 21 22 23 24 25 26 27 28 29 30 31 32 33 34 35 36 37 38 39 40 
2(-1)->1 3 4 5 6 7 8 9 10 11 12 13 14 15 16 17 18 19 20 21 22 23 24 25 26 27 28 29 30 31 32 33 34 35 36 37 38 39 
4(-1)->1 2 3 5 6 7 8 9 10 11 12 13 14 15 16 17 18 19 20 21 22 23 24 25 26 27 28 29 30 31 32 33 34 35 36 37 38 39 
5(-1)->1 2 3 4 6 7 8 9 10 11 12 13 14 15 16 17 18 19 20 21 22 23 24 25 26 27 28 29 30 31 32 33 34 35 36 37 38 39 
6(-1)->1 2 3 4 5 7 8 9 10 11 12 13 14 15 16 17 18 19 20 21 22 23 24 25 26 27 28 29 30 31 32 33 34 35 36 37 38 39 
7(-1)->1 2 3 4 5 6 8 9 10 11 12 13 14 15 16 17 18 19 20 21 22 23 24 25 26 29 30 31 32 33 34 36 37 38 
10(-1)->1 2 3 4 5 6 7 8 9 11 12 13 14 15 16 17 18 19 20 21 22 23 24 25 27 28 30 31 32 33 36 37 
8(-1)->1 2 3 4 5 6 7 9 10 11 12 13 14 15 16 17 18 19 20 21 24 25 29 30 31 34 35 36 37 38 39 
9(-1)->1 2 3 4 5 6 7 8 10 11 12 13 14 15 16 17 18 19 20 21 25 28 30 31 34 35 36 37 38 39 40 
12(-1)->1 2 3 4 5 6 7 8 9 10 11 13 14 15 16 17 18 19 20 22 25 27 31 32 34 36 37 38 39 40 
15(-1)->1 2 3 4 5 6 7 8 9 10 12 13 14 16 18 19 20 21 22 23 24 25 26 28 29 31 32 34 38 
25(-1)->1 2 3 4 5 6 7 8 9 10 11 12 13 14 15 18 19 20 23 24 26 29 30 31 32 33 34 36 37 
13(-1)->1 2 3 4 5 6 7 8 9 10 11 12 14 15 16 17 18 19 20 22 25 29 31 32 33 35 37 
20(-1)->1 2 3 4 5 6 7 8 9 10 12 13 14 15 22 23 25 28 29 30 33 34 36 37 38 39 40 
22(-1)->1 2 3 4 5 6 7 10 11 12 13 14 15 16 17 18 20 21 23 28 32 36 39 40 
11(-1)->1 2 3 4 5 6 7 8 9 10 12 13 14 16 17 22 23 24 25 27 28 30 31 33 38 39 
30(-1)->1 2 3 4 5 6 7 8 9 10 11 16 17 18 20 23 24 25 28 29 33 34 37 38 
18(-1)->1 2 3 4 5 6 7 8 9 10 12 13 15 16 19 22 24 25 26 27 28 29 30 33 36 
16(-1)->1 2 3 4 5 6 7 8 9 10 11 12 13 15 18 19 22 26 30 32 38 39 40 
19(-1)->1 2 3 4 5 6 7 8 9 10 12 13 15 16 17 18 25 26 33 36 37 38 40 
37(-1)->1 2 3 4 5 6 7 8 9 10 12 13 14 19 20 21 24 25 26 27 30 33 34 39 
34(-1)->1 2 3 4 5 6 7 8 9 12 15 20 21 23 24 25 26 28 30 32 36 37 39 40 
28(-1)->1 2 3 4 5 6 9 10 11 15 18 20 21 22 23 27 29 30 31 34 35 39 40 
31(-1)->1 2 3 4 5 6 7 8 9 10 11 12 13 15 21 23 24 25 27 28 29 36 38 
38(-1)->1 2 3 4 5 6 7 8 9 11 12 15 16 19 20 26 27 29 30 31 32 35 40 
26(-1)->1 2 3 4 5 6 7 14 15 16 18 19 24 25 29 32 33 34 36 37 38 39 
39(-1)->1 2 3 4 5 6 8 9 11 12 16 17 20 22 24 26 27 28 29 34 36 37 40 
17(-1)->1 2 3 4 5 6 7 8 9 10 11 12 13 14 19 21 22 27 30 33 35 39 
14(-1)->1 2 3 4 5 6 7 8 9 10 11 12 13 15 17 20 22 25 26 37 
24(-1)->1 2 3 4 5 6 7 8 10 11 15 18 21 23 25 26 30 31 32 34 37 39 
32(-1)->1 2 3 4 5 6 7 10 12 13 15 16 21 22 24 25 26 27 34 35 38 
21(-1)->1 2 3 4 5 6 7 8 9 10 15 17 22 24 28 31 32 34 35 37 
35(-1)->1 2 3 4 5 6 8 9 13 17 21 28 32 38 40 
40(-1)->1 3 9 12 16 19 20 22 28 34 35 38 39 
29(-1)->1 2 3 4 5 6 7 8 13 15 18 20 25 26 27 28 30 31 33 36 38 39 
36(-1)->1 2 3 4 5 6 7 8 9 10 12 18 19 20 22 25 26 27 29 31 34 39 
27(-1)->1 2 3 4 5 6 10 11 12 17 18 28 29 31 32 36 37 38 39 
33(-1)->1 2 3 4 5 6 7 10 11 13 17 18 19 20 25 26 29 30 37 
23(-1)->1 2 3 4 5 6 7 10 11 15 20 22 24 25 28 30 31 34 
-------
BLAH
START TIME: 1433711277
1(0)->2 3 4 5 6 7 8 9 10 11 12 13 14 15 16 17 18 19 20 21 22 23 24 25 26 27 28 29 30 31 32 33 34 35 36 37 38 39 40 
2(2)->1 3 4 5 6 7 8 9 10 11 12 13 14 15 16 17 18 19 20 21 22 23 24 25 26 27 28 29 30 31 32 33 34 35 36 37 38 39 
3(1)->1 2 4 5 6 7 8 9 10 11 12 13 14 15 16 17 18 19 20 21 22 23 24 25 26 27 28 29 30 31 32 33 34 35 36 37 38 39 40 
4(3)->1 2 3 5 6 7 8 9 10 11 12 13 14 15 16 17 18 19 20 21 22 23 24 25 26 27 28 29 30 31 32 33 34 35 36 37 38 39 
5(4)->1 2 3 4 6 7 8 9 10 11 12 13 14 15 16 17 18 19 20 21 22 23 24 25 26 27 28 29 30 31 32 33 34 35 36 37 38 39 
6(5)->1 2 3 4 5 7 8 9 10 11 12 13 14 15 16 17 18 19 20 21 22 23 24 25 26 27 28 29 30 31 32 33 34 35 36 37 38 39 
7(6)->1 2 3 4 5 6 8 9 10 11 12 13 14 15 16 17 18 19 20 21 22 23 24 25 26 29 30 31 32 33 34 36 37 38 
8(8)->1 2 3 4 5 6 7 9 10 11 12 13 14 15 16 17 18 19 20 21 24 25 29 30 31 34 35 36 37 38 39 
9(9)->1 2 3 4 5 6 7 8 10 11 12 13 14 15 16 17 18 19 20 21 25 28 30 31 34 35 36 37 38 39 40 
10(7)->1 2 3 4 5 6 7 8 9 11 12 13 14 15 16 17 18 19 20 21 22 23 24 25 27 28 30 31 32 33 36 37 
11(11)->1 2 3 4 5 6 7 8 9 10 12 13 14 16 17 22 23 24 25 27 28 30 31 33 38 39 
12(10)->1 2 3 4 5 6 7 8 9 10 11 13 14 15 16 17 18 19 20 22 25 27 31 32 34 36 37 38 39 40 
13(13)->1 2 3 4 5 6 7 8 9 10 11 12 14 15 16 17 18 19 20 22 25 29 31 32 33 35 37 
14(15)->1 2 3 4 5 6 7 8 9 10 11 12 13 15 17 20 22 25 26 37 
15(11)->1 2 3 4 5 6 7 8 9 10 12 13 14 16 18 19 20 21 22 23 24 25 26 28 29 31 32 34 38 
16(12)->1 2 3 4 5 6 7 8 9 10 11 12 13 15 18 19 22 26 30 32 38 39 40 
17(12)->1 2 3 4 5 6 7 8 9 10 11 12 13 14 19 21 22 27 30 33 35 39 
18(14)->1 2 3 4 5 6 7 8 9 10 12 13 15 16 19 22 24 25 26 27 28 29 30 33 36 
19(15)->1 2 3 4 5 6 7 8 9 10 12 13 15 16 17 18 25 26 33 36 37 38 40 
20(14)->1 2 3 4 5 6 7 8 9 10 12 13 14 15 22 23 25 28 29 30 33 34 36 37 38 39 40 
21(10)->1 2 3 4 5 6 7 8 9 10 15 17 22 24 28 31 32 34 35 37 
22(8)->1 2 3 4 5 6 7 10 11 12 13 14 15 16 17 18 20 21 23 28 32 36 39 40 
23(13)->1 2 3 4 5 6 7 10 11 15 20 22 24 25 28 30 31 34 
24(9)->1 2 3 4 5 6 7 8 10 11 15 18 21 23 25 26 30 31 32 34 37 39 
25(12)->1 2 3 4 5 6 7 8 9 10 11 12 13 14 15 18 19 20 23 24 26 29 30 31 32 33 34 36 37 
26(8)->1 2 3 4 5 6 7 14 15 16 18 19 24 25 29 32 33 34 36 37 38 39 
27(8)->1 2 3 4 5 6 10 11 12 17 18 28 29 31 32 36 37 38 39 
28(6)->1 2 3 4 5 6 9 10 11 15 18 20 21 22 23 27 29 30 31 34 35 39 40 
29(15)->1 2 3 4 5 6 7 8 13 15 18 20 25 26 27 28 30 31 33 36 38 39 
30(10)->1 2 3 4 5 6 7 8 9 10 11 16 17 18 20 23 24 25 28 29 33 34 37 38 
31(14)->1 2 3 4 5 6 7 8 9 10 11 12 13 15 21 23 24 25 27 28 29 36 38 
32(14)->1 2 3 4 5 6 7 10 12 13 15 16 21 22 24 25 26 27 34 35 38 
33(9)->1 2 3 4 5 6 7 10 11 13 17 18 19 20 25 26 29 30 37 
34(7)->1 2 3 4 5 6 7 8 9 12 15 20 21 23 24 25 26 28 30 32 36 37 39 40 
35(11)->1 2 3 4 5 6 8 9 13 17 21 28 32 38 40 
36(11)->1 2 3 4 5 6 7 8 9 10 12 18 19 20 22 25 26 27 29 31 34 39 
37(11)->1 2 3 4 5 6 7 8 9 10 12 13 14 19 20 21 24 25 26 27 30 33 34 39 
38(7)->1 2 3 4 5 6 7 8 9 11 12 15 16 19 20 26 27 29 30 31 32 35 40 
39(13)->1 2 3 4 5 6 8 9 11 12 16 17 20 22 24 26 27 28 29 34 36 37 40 
40(2)->1 3 9 12 16 19 20 22 28 34 35 38 39 
COUNT: 89
COLORS: 16
EDGES: 520
16
89
