1: 2 3 4 5 6 7 8 9 10 11 12 13 14 15 16 17 18 19 20 21 22 23 24 25 26 27 28 29 30 31 32 33 34 35 36 37 38 39
2: 1 3 4 5 6 7 8 9 10 11 12 13 14 15 16 17 18 19 20 21 22 23 24 25 26 27 28 29 30 31 32 33 34 35 36 37 38 39 40
3: 1 2 4 5 6 7 8 9 10 11 12 13 14 15 16 17 18 19 20 21 22 23 24 25 26 27 28 29 30 31 32 33 34 35 36 37 38 39 40
4: 1 2 3 5 6 7 8 9 10 11 12 13 14 15 16 17 18 19 20 21 22 23 24 25 26 27 28 29 30 31 32 33 34 35 36 37 38 39
5: 1 2 3 4 6 7 8 9 10 11 12 13 14 15 16 17 18 19 20 21 22 23 24 25 26 27 28 29 30 31 32 33 34 35 36 37 38 39 40
6: 1 2 3 4 5 7 8 9 10 11 12 13 14 15 16 17 18 19 20 21 22 23 24 25 26 27 28 29 30 31 32 33 34 35 36 37 38 39 40
7: 1 2 3 4 5 6 8 9 10 11 12 13 14 15 16 17 18 19 20 21 22 23 24 25 26 27 28 29 30 31 32 33 34 35 36 37 38 39
8: 1 2 3 4 5 6 7 9 10 11 12 13 14 15 16 17 18 19 20 21 22 23 24 25 26 27 28 29 30 31 32 33 34 35 36 37 38 39 40
9: 1 2 3 4 5 6 7 8 10 11 12 13 14 15 16 17 18 19 20 21 22 23 24 25 26 27 28 29 30 31 32 34 35 36 37 38 39
10: 1 2 3 4 5 6 7 8 9 11 12 13 14 15 16 17 18 19 20 21 22 23 24 25 26 27 30 31 32 33 34 35 36 37 38 39
11: 1 2 3 4 5 6 7 8 9 10 12 13 14 15 16 17 18 19 20 21 22 23 24 25 26 27 28 29 30 31 32 33 34 36 37 38 39 40
12: 1 2 3 4 5 6 7 8 9 10 11 13 14 15 16 17 18 19 20 21 22 23 24 27 28 30 31 32 33 34 35 37 38 39
13: 1 2 3 4 5 6 7 8 9 10 11 12 14 15 16 17 18 19 20 21 22 23 24 26 27 30 32 33 34 36 37 38 39
14: 1 2 3 4 5 6 7 8 9 10 11 12 13 15 16 17 18 19 20 21 22 23 24 25 30 33 34 36 38 39 40
15: 1 2 3 4 5 6 7 8 9 10 11 12 13 14 16 17 18 19 20 21 22 23 24 25 26 31 33 34 36 37 38 39
16: 1 2 3 4 5 6 7 8 9 10 11 12 13 14 15 17 18 19 20 21 22 23 24 26 27 34 35 38 39 40
17: 1 2 3 4 5 6 7 8 9 10 11 12 13 14 15 16 18 19 20 21 24 30 31 33 34 36 37 38
18: 1 2 3 4 5 6 7 8 9 10 11 12 13 14 15 16 17 19 20 21 23 24 25 26 27 28 29 33 35 37 38 39
19: 1 2 3 4 5 6 7 8 9 10 11 12 13 14 15 16 17 18 20 21 22 23 24 25 27 30 33 34 36
20: 1 2 3 4 5 6 7 8 9 10 11 12 13 14 15 16 17 18 19 21 27 28 31 34 36 38 39
21: 1 2 3 4 5 6 7 8 9 10 11 12 13 14 15 16 17 18 19 20 22 24 25 26 28 31 32 33 34 36 37 38
22: 1 2 3 4 5 6 7 8 9 10 11 12 13 14 15 16 19 21 24 32 36 38 39 40
23: 1 2 3 4 5 6 7 8 9 10 11 12 13 14 15 16 18 19 24 26 29 30 31 32 35 36 38
24: 1 2 3 4 5 6 7 8 9 10 11 12 13 14 15 16 17 18 19 21 22 23 25 27 28 36 37 39 40
25: 1 2 3 4 37 6 39 8 9 10 7 14 15 11 18 19 21 24 27 5 31
26: 1 2 3 4 5 6 7 8 9 10 11 13 15 16 18 21 23 28 29 31 33 36 37 38 39 40
27: 1 2 3 4 5 6 7 8 9 10 11 12 13 16 18 19 20 24 25 28 31 32 33 35 38 40
28: 1 2 3 4 5 6 7 8 9 11 12 18 20 21 24 26 27 30 32 34 35 36 39 40
29: 32 1 2 3 36 5 38 7 8 9 39 11 6 18 23 4 26
30: 1 2 3 4 5 6 7 8 9 10 11 12 13 14 17 19 23 28 32 33 34 36 38 40
31: 1 2 3 4 5 6 7 8 9 10 11 12 15 17 20 21 23 25 26 27 32 33
32: 1 2 3 4 5 6 7 8 9 10 11 12 13 21 22 23 27 28 29 30 31 35 36 37 38 39
33: 1 2 3 4 5 6 7 8 10 11 12 13 14 15 17 18 19 21 26 27 30 31 34 35 36 37 39 40
34: 1 2 3 4 5 6 7 8 9 10 11 12 13 14 15 16 17 19 20 21 28 30 33 35 37 38 39 40
35: 32 33 2 3 4 5 6 1 40 9 10 7 12 34 16 8 18 23 27 28
36: 1 2 3 4 5 6 7 8 9 10 11 13 14 15 17 19 20 21 22 23 24 26 28 29 30 32 33 39 40
37: 1 2 3 4 5 6 7 8 9 10 11 12 13 15 17 18 21 24 25 26 32 33 34 40
38: 1 2 3 4 5 6 7 8 9 10 11 12 13 14 15 16 17 18 20 21 22 23 26 27 29 30 32 34 40
39: 1 2 3 4 5 6 7 8 9 10 11 12 13 14 15 16 18 20 22 24 25 26 28 29 32 33 34 36
40: 33 34 3 36 5 38 8 11 2 14 6 35 22 24 16 26 27 28 30 37
-------
1(-1)->2 3 4 5 6 7 8 9 10 11 12 13 14 15 16 17 18 19 20 21 22 23 24 25 26 27 28 29 30 31 32 33 34 35 36 37 38 39 
2(-1)->1 3 4 5 6 7 8 9 10 11 12 13 14 15 16 17 18 19 20 21 22 23 24 25 26 27 28 29 30 31 32 33 34 35 36 37 38 39 40 
3(-1)->1 2 4 5 6 7 8 9 10 11 12 13 14 15 16 17 18 19 20 21 22 23 24 25 26 27 28 29 30 31 32 33 34 35 36 37 38 39 40 
4(-1)->1 2 3 5 6 7 8 9 10 11 12 13 14 15 16 17 18 19 20 21 22 23 24 25 26 27 28 29 30 31 32 33 34 35 36 37 38 39 
5(-1)->1 2 3 4 6 7 8 9 10 11 12 13 14 15 16 17 18 19 20 21 22 23 24 25 26 27 28 29 30 31 32 33 34 35 36 37 38 39 40 
6(-1)->1 2 3 4 5 7 8 9 10 11 12 13 14 15 16 17 18 19 20 21 22 23 24 25 26 27 28 29 30 31 32 33 34 35 36 37 38 39 40 
7(-1)->1 2 3 4 5 6 8 9 10 11 12 13 14 15 16 17 18 19 20 21 22 23 24 25 26 27 28 29 30 31 32 33 34 35 36 37 38 39 
8(-1)->1 2 3 4 5 6 7 9 10 11 12 13 14 15 16 17 18 19 20 21 22 23 24 25 26 27 28 29 30 31 32 33 34 35 36 37 38 39 40 
9(-1)->1 2 3 4 5 6 7 8 10 11 12 13 14 15 16 17 18 19 20 21 22 23 24 25 26 27 28 29 30 31 32 34 35 36 37 38 39 
10(-1)->1 2 3 4 5 6 7 8 9 11 12 13 14 15 16 17 18 19 20 21 22 23 24 25 26 27 30 31 32 33 34 35 36 37 38 39 
11(-1)->1 2 3 4 5 6 7 8 9 10 12 13 14 15 16 17 18 19 20 21 22 23 24 25 26 27 28 29 30 31 32 33 34 36 37 38 39 40 
12(-1)->1 2 3 4 5 6 7 8 9 10 11 13 14 15 16 17 18 19 20 21 22 23 24 27 28 30 31 32 33 34 35 37 38 39 
13(-1)->1 2 3 4 5 6 7 8 9 10 11 12 14 15 16 17 18 19 20 21 22 23 24 26 27 30 32 33 34 36 37 38 39 
14(-1)->1 2 3 4 5 6 7 8 9 10 11 12 13 15 16 17 18 19 20 21 22 23 24 25 30 33 34 36 38 39 40 
15(-1)->1 2 3 4 5 6 7 8 9 10 11 12 13 14 16 17 18 19 20 21 22 23 24 25 26 31 33 34 36 37 38 39 
16(-1)->1 2 3 4 5 6 7 8 9 10 11 12 13 14 15 17 18 19 20 21 22 23 24 26 27 34 35 38 39 40 
17(-1)->1 2 3 4 5 6 7 8 9 10 11 12 13 14 15 16 18 19 20 21 24 30 31 33 34 36 37 38 
18(-1)->1 2 3 4 5 6 7 8 9 10 11 12 13 14 15 16 17 19 20 21 23 24 25 26 27 28 29 33 35 37 38 39 
19(-1)->1 2 3 4 5 6 7 8 9 10 11 12 13 14 15 16 17 18 20 21 22 23 24 25 27 30 33 34 36 
20(-1)->1 2 3 4 5 6 7 8 9 10 11 12 13 14 15 16 17 18 19 21 27 28 31 34 36 38 39 
21(-1)->1 2 3 4 5 6 7 8 9 10 11 12 13 14 15 16 17 18 19 20 22 24 25 26 28 31 32 33 34 36 37 38 
22(-1)->1 2 3 4 5 6 7 8 9 10 11 12 13 14 15 16 19 21 24 32 36 38 39 40 
23(-1)->1 2 3 4 5 6 7 8 9 10 11 12 13 14 15 16 18 19 24 26 29 30 31 32 35 36 38 
24(-1)->1 2 3 4 5 6 7 8 9 10 11 12 13 14 15 16 17 18 19 21 22 23 25 27 28 36 37 39 40 
25(-1)->1 2 3 4 5 6 7 8 9 10 11 14 15 18 19 21 24 27 31 37 39 
26(-1)->1 2 3 4 5 6 7 8 9 10 11 13 15 16 18 21 23 28 29 31 33 36 37 38 39 40 
27(-1)->1 2 3 4 5 6 7 8 9 10 11 12 13 16 18 19 20 24 25 28 31 32 33 35 38 40 
28(-1)->1 2 3 4 5 6 7 8 9 11 12 18 20 21 24 26 27 30 32 34 35 36 39 40 
29(-1)->1 2 3 4 5 6 7 8 9 11 18 23 26 32 36 38 39 
30(-1)->1 2 3 4 5 6 7 8 9 10 11 12 13 14 17 19 23 28 32 33 34 36 38 40 
31(-1)->1 2 3 4 5 6 7 8 9 10 11 12 15 17 20 21 23 25 26 27 32 33 
32(-1)->1 2 3 4 5 6 7 8 9 10 11 12 13 21 22 23 27 28 29 30 31 35 36 37 38 39 
33(-1)->1 2 3 4 5 6 7 8 10 11 12 13 14 15 17 18 19 21 26 27 30 31 34 35 36 37 39 40 
34(-1)->1 2 3 4 5 6 7 8 9 10 11 12 13 14 15 16 17 19 20 21 28 30 33 35 37 38 39 40 
35(-1)->1 2 3 4 5 6 7 8 9 10 12 16 18 23 27 28 32 33 34 40 
36(-1)->1 2 3 4 5 6 7 8 9 10 11 13 14 15 17 19 20 21 22 23 24 26 28 29 30 32 33 39 40 
37(-1)->1 2 3 4 5 6 7 8 9 10 11 12 13 15 17 18 21 24 25 26 32 33 34 40 
38(-1)->1 2 3 4 5 6 7 8 9 10 11 12 13 14 15 16 17 18 20 21 22 23 26 27 29 30 32 34 40 
39(-1)->1 2 3 4 5 6 7 8 9 10 11 12 13 14 15 16 18 20 22 24 25 26 28 29 32 33 34 36 
40(-1)->2 3 5 6 8 11 14 16 22 24 26 27 28 30 33 34 35 36 37 38 
-------
Node 2 maps to position 0
Node 3 maps to position 1
Node 5 maps to position 2
Node 6 maps to position 3
Node 8 maps to position 4
Node 1 maps to position 5
Node 4 maps to position 6
Node 7 maps to position 7
Node 11 maps to position 8
Node 9 maps to position 9
Node 10 maps to position 10
Node 12 maps to position 11
Node 13 maps to position 12
Node 15 maps to position 13
Node 18 maps to position 14
Node 21 maps to position 15
Node 14 maps to position 16
Node 16 maps to position 17
Node 19 maps to position 18
Node 24 maps to position 19
Node 36 maps to position 20
Node 17 maps to position 21
Node 38 maps to position 22
Node 34 maps to position 23
Node 33 maps to position 24
Node 39 maps to position 25
Node 20 maps to position 26
Node 27 maps to position 27
Node 32 maps to position 28
Node 23 maps to position 29
Node 26 maps to position 30
Node 28 maps to position 31
Node 30 maps to position 32
Node 40 maps to position 33
Node 22 maps to position 34
Node 37 maps to position 35
Node 25 maps to position 36
Node 31 maps to position 37
Node 35 maps to position 38
Node 29 maps to position 39
2(-1)->1 3 4 5 6 7 8 9 10 11 12 13 14 15 16 17 18 19 20 21 22 23 24 25 26 27 28 29 30 31 32 33 34 35 36 37 38 39 40 
3(-1)->1 2 4 5 6 7 8 9 10 11 12 13 14 15 16 17 18 19 20 21 22 23 24 25 26 27 28 29 30 31 32 33 34 35 36 37 38 39 40 
5(-1)->1 2 3 4 6 7 8 9 10 11 12 13 14 15 16 17 18 19 20 21 22 23 24 25 26 27 28 29 30 31 32 33 34 35 36 37 38 39 40 
6(-1)->1 2 3 4 5 7 8 9 10 11 12 13 14 15 16 17 18 19 20 21 22 23 24 25 26 27 28 29 30 31 32 33 34 35 36 37 38 39 40 
8(-1)->1 2 3 4 5 6 7 9 10 11 12 13 14 15 16 17 18 19 20 21 22 23 24 25 26 27 28 29 30 31 32 33 34 35 36 37 38 39 40 
1(-1)->2 3 4 5 6 7 8 9 10 11 12 13 14 15 16 17 18 19 20 21 22 23 24 25 26 27 28 29 30 31 32 33 34 35 36 37 38 39 
4(-1)->1 2 3 5 6 7 8 9 10 11 12 13 14 15 16 17 18 19 20 21 22 23 24 25 26 27 28 29 30 31 32 33 34 35 36 37 38 39 
7(-1)->1 2 3 4 5 6 8 9 10 11 12 13 14 15 16 17 18 19 20 21 22 23 24 25 26 27 28 29 30 31 32 33 34 35 36 37 38 39 
11(-1)->1 2 3 4 5 6 7 8 9 10 12 13 14 15 16 17 18 19 20 21 22 23 24 25 26 27 28 29 30 31 32 33 34 36 37 38 39 40 
9(-1)->1 2 3 4 5 6 7 8 10 11 12 13 14 15 16 17 18 19 20 21 22 23 24 25 26 27 28 29 30 31 32 34 35 36 37 38 39 
10(-1)->1 2 3 4 5 6 7 8 9 11 12 13 14 15 16 17 18 19 20 21 22 23 24 25 26 27 30 31 32 33 34 35 36 37 38 39 
12(-1)->1 2 3 4 5 6 7 8 9 10 11 13 14 15 16 17 18 19 20 21 22 23 24 27 28 30 31 32 33 34 35 37 38 39 
13(-1)->1 2 3 4 5 6 7 8 9 10 11 12 14 15 16 17 18 19 20 21 22 23 24 26 27 30 32 33 34 36 37 38 39 
15(-1)->1 2 3 4 5 6 7 8 9 10 11 12 13 14 16 17 18 19 20 21 22 23 24 25 26 31 33 34 36 37 38 39 
18(-1)->1 2 3 4 5 6 7 8 9 10 11 12 13 14 15 16 17 19 20 21 23 24 25 26 27 28 29 33 35 37 38 39 
21(-1)->1 2 3 4 5 6 7 8 9 10 11 12 13 14 15 16 17 18 19 20 22 24 25 26 28 31 32 33 34 36 37 38 
14(-1)->1 2 3 4 5 6 7 8 9 10 11 12 13 15 16 17 18 19 20 21 22 23 24 25 30 33 34 36 38 39 40 
16(-1)->1 2 3 4 5 6 7 8 9 10 11 12 13 14 15 17 18 19 20 21 22 23 24 26 27 34 35 38 39 40 
19(-1)->1 2 3 4 5 6 7 8 9 10 11 12 13 14 15 16 17 18 20 21 22 23 24 25 27 30 33 34 36 
24(-1)->1 2 3 4 5 6 7 8 9 10 11 12 13 14 15 16 17 18 19 21 22 23 25 27 28 36 37 39 40 
36(-1)->1 2 3 4 5 6 7 8 9 10 11 13 14 15 17 19 20 21 22 23 24 26 28 29 30 32 33 39 40 
17(-1)->1 2 3 4 5 6 7 8 9 10 11 12 13 14 15 16 18 19 20 21 24 30 31 33 34 36 37 38 
38(-1)->1 2 3 4 5 6 7 8 9 10 11 12 13 14 15 16 17 18 20 21 22 23 26 27 29 30 32 34 40 
34(-1)->1 2 3 4 5 6 7 8 9 10 11 12 13 14 15 16 17 19 20 21 28 30 33 35 37 38 39 40 
33(-1)->1 2 3 4 5 6 7 8 10 11 12 13 14 15 17 18 19 21 26 27 30 31 34 35 36 37 39 40 
39(-1)->1 2 3 4 5 6 7 8 9 10 11 12 13 14 15 16 18 20 22 24 25 26 28 29 32 33 34 36 
20(-1)->1 2 3 4 5 6 7 8 9 10 11 12 13 14 15 16 17 18 19 21 27 28 31 34 36 38 39 
27(-1)->1 2 3 4 5 6 7 8 9 10 11 12 13 16 18 19 20 24 25 28 31 32 33 35 38 40 
32(-1)->1 2 3 4 5 6 7 8 9 10 11 12 13 21 22 23 27 28 29 30 31 35 36 37 38 39 
23(-1)->1 2 3 4 5 6 7 8 9 10 11 12 13 14 15 16 18 19 24 26 29 30 31 32 35 36 38 
26(-1)->1 2 3 4 5 6 7 8 9 10 11 13 15 16 18 21 23 28 29 31 33 36 37 38 39 40 
28(-1)->1 2 3 4 5 6 7 8 9 11 12 18 20 21 24 26 27 30 32 34 35 36 39 40 
30(-1)->1 2 3 4 5 6 7 8 9 10 11 12 13 14 17 19 23 28 32 33 34 36 38 40 
40(-1)->2 3 5 6 8 11 14 16 22 24 26 27 28 30 33 34 35 36 37 38 
22(-1)->1 2 3 4 5 6 7 8 9 10 11 12 13 14 15 16 19 21 24 32 36 38 39 40 
37(-1)->1 2 3 4 5 6 7 8 9 10 11 12 13 15 17 18 21 24 25 26 32 33 34 40 
25(-1)->1 2 3 4 5 6 7 8 9 10 11 14 15 18 19 21 24 27 31 37 39 
31(-1)->1 2 3 4 5 6 7 8 9 10 11 12 15 17 20 21 23 25 26 27 32 33 
35(-1)->1 2 3 4 5 6 7 8 9 10 12 16 18 23 27 28 32 33 34 40 
29(-1)->1 2 3 4 5 6 7 8 9 11 18 23 26 32 36 38 39 
-------
BLAH
START TIME: 1433711285
1(5)->2 3 4 5 6 7 8 9 10 11 12 13 14 15 16 17 18 19 20 21 22 23 24 25 26 27 28 29 30 31 32 33 34 35 36 37 38 39 
2(0)->1 3 4 5 6 7 8 9 10 11 12 13 14 15 16 17 18 19 20 21 22 23 24 25 26 27 28 29 30 31 32 33 34 35 36 37 38 39 40 
3(1)->1 2 4 5 6 7 8 9 10 11 12 13 14 15 16 17 18 19 20 21 22 23 24 25 26 27 28 29 30 31 32 33 34 35 36 37 38 39 40 
4(6)->1 2 3 5 6 7 8 9 10 11 12 13 14 15 16 17 18 19 20 21 22 23 24 25 26 27 28 29 30 31 32 33 34 35 36 37 38 39 
5(2)->1 2 3 4 6 7 8 9 10 11 12 13 14 15 16 17 18 19 20 21 22 23 24 25 26 27 28 29 30 31 32 33 34 35 36 37 38 39 40 
6(3)->1 2 3 4 5 7 8 9 10 11 12 13 14 15 16 17 18 19 20 21 22 23 24 25 26 27 28 29 30 31 32 33 34 35 36 37 38 39 40 
7(7)->1 2 3 4 5 6 8 9 10 11 12 13 14 15 16 17 18 19 20 21 22 23 24 25 26 27 28 29 30 31 32 33 34 35 36 37 38 39 
8(4)->1 2 3 4 5 6 7 9 10 11 12 13 14 15 16 17 18 19 20 21 22 23 24 25 26 27 28 29 30 31 32 33 34 35 36 37 38 39 40 
9(9)->1 2 3 4 5 6 7 8 10 11 12 13 14 15 16 17 18 19 20 21 22 23 24 25 26 27 28 29 30 31 32 34 35 36 37 38 39 
10(10)->1 2 3 4 5 6 7 8 9 11 12 13 14 15 16 17 18 19 20 21 22 23 24 25 26 27 30 31 32 33 34 35 36 37 38 39 
11(8)->1 2 3 4 5 6 7 8 9 10 12 13 14 15 16 17 18 19 20 21 22 23 24 25 26 27 28 29 30 31 32 33 34 36 37 38 39 40 
12(11)->1 2 3 4 5 6 7 8 9 10 11 13 14 15 16 17 18 19 20 21 22 23 24 27 28 30 31 32 33 34 35 37 38 39 
13(12)->1 2 3 4 5 6 7 8 9 10 11 12 14 15 16 17 18 19 20 21 22 23 24 26 27 30 32 33 34 36 37 38 39 
14(16)->1 2 3 4 5 6 7 8 9 10 11 12 13 15 16 17 18 19 20 21 22 23 24 25 30 33 34 36 38 39 40 
15(13)->1 2 3 4 5 6 7 8 9 10 11 12 13 14 16 17 18 19 20 21 22 23 24 25 26 31 33 34 36 37 38 39 
16(17)->1 2 3 4 5 6 7 8 9 10 11 12 13 14 15 17 18 19 20 21 22 23 24 26 27 34 35 38 39 40 
17(20)->1 2 3 4 5 6 7 8 9 10 11 12 13 14 15 16 18 19 20 21 24 30 31 33 34 36 37 38 
18(14)->1 2 3 4 5 6 7 8 9 10 11 12 13 14 15 16 17 19 20 21 23 24 25 26 27 28 29 33 35 37 38 39 
19(18)->1 2 3 4 5 6 7 8 9 10 11 12 13 14 15 16 17 18 20 21 22 23 24 25 27 30 33 34 36 
20(19)->1 2 3 4 5 6 7 8 9 10 11 12 13 14 15 16 17 18 19 21 27 28 31 34 36 38 39 
21(15)->1 2 3 4 5 6 7 8 9 10 11 12 13 14 15 16 17 18 19 20 22 24 25 26 28 31 32 33 34 36 37 38 
22(20)->1 2 3 4 5 6 7 8 9 10 11 12 13 14 15 16 19 21 24 32 36 38 39 40 
23(15)->1 2 3 4 5 6 7 8 9 10 11 12 13 14 15 16 18 19 24 26 29 30 31 32 35 36 38 
24(19)->1 2 3 4 5 6 7 8 9 10 11 12 13 14 15 16 17 18 19 21 22 23 25 27 28 36 37 39 40 
25(11)->1 2 3 4 5 6 7 8 9 10 11 14 15 18 19 21 24 27 31 37 39 
26(16)->1 2 3 4 5 6 7 8 9 10 11 13 15 16 18 21 23 28 29 31 33 36 37 38 39 40 
27(13)->1 2 3 4 5 6 7 8 9 10 11 12 13 16 18 19 20 24 25 28 31 32 33 35 38 40 
28(10)->1 2 3 4 5 6 7 8 9 11 12 18 20 21 24 26 27 30 32 34 35 36 39 40 
29(10)->1 2 3 4 5 6 7 8 9 11 18 23 26 32 36 38 39 
30(13)->1 2 3 4 5 6 7 8 9 10 11 12 13 14 17 19 23 28 32 33 34 36 38 40 
31(12)->1 2 3 4 5 6 7 8 9 10 11 12 15 17 20 21 23 25 26 27 32 33 
32(14)->1 2 3 4 5 6 7 8 9 10 11 12 13 21 22 23 27 28 29 30 31 35 36 37 38 39 
33(9)->1 2 3 4 5 6 7 8 10 11 12 13 14 15 17 18 19 21 26 27 30 31 34 35 36 37 39 40 
34(14)->1 2 3 4 5 6 7 8 9 10 11 12 13 14 15 16 17 19 20 21 28 30 33 35 37 38 39 40 
35(8)->1 2 3 4 5 6 7 8 9 10 12 16 18 23 27 28 32 33 34 40 
36(11)->1 2 3 4 5 6 7 8 9 10 11 13 14 15 17 19 20 21 22 23 24 26 28 29 30 32 33 39 40 
37(17)->1 2 3 4 5 6 7 8 9 10 11 12 13 15 17 18 21 24 25 26 32 33 34 40 
38(18)->1 2 3 4 5 6 7 8 9 10 11 12 13 14 15 16 17 18 20 21 22 23 26 27 29 30 32 34 40 
39(15)->1 2 3 4 5 6 7 8 9 10 11 12 13 14 15 16 18 20 22 24 25 26 28 29 32 33 34 36 
40(5)->2 3 5 6 8 11 14 16 22 24 26 27 28 30 33 34 35 36 37 38 
COUNT: 42
COLORS: 21
EDGES: 600
21
42
