1: 2 3 4 5 6 7 8 9 10 11 12 13 14 15 16 17 18 19 20 21 22 23 24 25 26 27 28 29 30 31 32 33 34 35 36 37 38 39
2: 1 3 4 5 6 7 8 9 10 11 12 13 14 15 16 17 18 19 20 21 22 23 24 25 26 27 28 29 30 31 32 33 34 35 36 37 38 39
3: 1 2 4 5 6 7 8 9 10 11 12 13 14 15 16 17 18 19 20 21 22 23 24 25 26 27 28 29 30 31 32 33 34 35 36 37 38 39
4: 1 2 3 5 6 7 8 9 10 11 12 13 14 15 16 17 18 19 20 21 22 23 24 25 26 27 28 29 30 31 32 33 34 35 36 37 38 39
5: 1 2 3 4 6 7 8 9 10 11 12 13 14 15 16 17 18 19 20 21 22 23 24 25 26 27 28 29 30 31 32 33 34 35 36 37 38 39 40
6: 1 2 3 4 5 7 8 9 10 11 12 13 14 15 16 17 18 19 20 21 22 23 24 25 26 27 28 29 30 31 32 33 34 35 36 37 38 39
7: 1 2 3 4 5 6 8 9 10 11 12 13 14 15 16 17 18 19 20 21 22 23 24 25 26 27 28 30 31 32 33 35 37 38 39 40
8: 1 2 3 4 5 6 7 9 10 11 12 13 14 15 16 17 19 20 21 23 24 25 27 28 29 31 32 33 34 37 39 40
9: 1 2 3 4 5 6 7 8 10 11 12 13 14 15 16 17 21 23 24 25 26 27 29 31 32 33 35 36 37 39
10: 1 2 3 4 5 6 7 8 9 11 12 13 14 18 19 20 21 22 24 25 27 29 32 33 34 35 36 37 39
11: 1 2 3 4 5 6 7 8 9 10 12 13 14 15 17 18 19 20 21 23 24 27 29 32 37 39
12: 1 2 3 4 5 6 7 8 9 10 11 13 14 16 18 19 20 21 25 26 27 29 32 34 39
13: 33 34 3 4 37 6 7 8 9 10 11 12 2 14 15 19 1 23 26 27 5
14: 1 2 3 4 5 6 7 8 9 10 11 12 13 15 19 20 22 25 27 29 31 32 34 36 38 39
15: 1 2 3 4 5 6 7 8 9 11 13 14 16 19 25 27 28 31 33 34 36 38 39 40
16: 1 2 3 4 5 6 7 8 9 12 15 18 19 22 24 25 26 27 31 32 34 36 39 40
17: 1 2 3 4 5 6 7 8 9 11 18 19 20 22 24 25 26 27 29 31 32 33 36 37
18: 32 1 2 35 4 5 6 39 10 11 12 3 16 17 19 21 7 26 28 37 31
19: 1 2 3 4 5 6 7 8 10 11 12 13 14 15 16 17 18 21 22 23 25 27 29 36 38 39
20: 1 34 3 36 37 6 7 8 10 11 12 2 14 17 22 40 4 26 27 29 5
21: 1 2 3 4 5 6 7 8 9 10 11 12 18 19 22 23 29 33 34 36 37 38 40
22: 1 2 3 4 5 6 7 10 14 16 17 19 20 21 23 25 26 33 35 38 39 40
23: 3 1 2 11 36 37 6 33 8 9 39 13 19 21 22 7 4 38 28 30 5
24: 32 1 2 3 36 37 6 7 8 9 10 11 16 17 35 4 25 26 27 30 5
25: 1 2 3 4 5 6 7 8 9 10 12 14 15 16 17 19 22 24 27 30 31 32 33 37
26: 1 2 3 4 5 6 7 9 12 13 16 17 18 20 22 24 29 30 32 33 34 36 38 39 40
27: 1 2 3 4 5 6 7 8 9 10 11 12 13 14 15 16 17 19 20 24 25 28 30 31 32 33 34
28: 1 2 3 36 37 38 7 8 15 40 18 23 4 6 27 5 31
29: 1 2 3 4 5 6 8 9 10 11 12 14 17 19 20 21 26 30 31 35 36 38 39 40
30: 33 2 3 1 37 6 39 7 34 23 24 25 26 27 5 29 4 31
31: 1 2 3 4 5 6 7 8 9 14 15 16 17 18 25 27 28 29 30 32 35 37 38 40
32: 1 2 3 4 5 6 7 8 9 10 11 12 14 16 17 18 24 25 26 27 31 36 40
33: 1 2 3 4 5 6 7 8 9 10 13 15 17 21 22 23 25 26 27 30 34 36 37 39
34: 1 2 3 4 5 6 8 10 12 13 14 15 16 20 21 26 27 30 33 37 38 39 40
35: 1 2 3 4 38 6 7 9 10 18 22 24 37 5 29 31
36: 1 2 3 4 5 6 9 10 14 15 16 17 19 20 21 23 24 26 28 29 32 33 37 39 40
37: 1 2 3 4 5 6 7 8 9 10 11 13 17 18 20 21 23 24 25 28 30 31 33 34 35 36
38: 3 1 34 35 4 5 6 39 40 7 2 14 15 19 21 22 23 26 28 29 31
39: 1 2 3 4 5 6 7 8 9 10 11 12 14 15 16 18 19 22 23 26 29 30 33 34 36 38
40: 32 34 36 5 38 7 8 15 16 20 21 22 26 28 29 31
-------
1(-1)->2 3 4 5 6 7 8 9 10 11 12 13 14 15 16 17 18 19 20 21 22 23 24 25 26 27 28 29 30 31 32 33 34 35 36 37 38 39 
2(-1)->1 3 4 5 6 7 8 9 10 11 12 13 14 15 16 17 18 19 20 21 22 23 24 25 26 27 28 29 30 31 32 33 34 35 36 37 38 39 
3(-1)->1 2 4 5 6 7 8 9 10 11 12 13 14 15 16 17 18 19 20 21 22 23 24 25 26 27 28 29 30 31 32 33 34 35 36 37 38 39 
4(-1)->1 2 3 5 6 7 8 9 10 11 12 13 14 15 16 17 18 19 20 21 22 23 24 25 26 27 28 29 30 31 32 33 34 35 36 37 38 39 
5(-1)->1 2 3 4 6 7 8 9 10 11 12 13 14 15 16 17 18 19 20 21 22 23 24 25 26 27 28 29 30 31 32 33 34 35 36 37 38 39 40 
6(-1)->1 2 3 4 5 7 8 9 10 11 12 13 14 15 16 17 18 19 20 21 22 23 24 25 26 27 28 29 30 31 32 33 34 35 36 37 38 39 
7(-1)->1 2 3 4 5 6 8 9 10 11 12 13 14 15 16 17 18 19 20 21 22 23 24 25 26 27 28 30 31 32 33 35 37 38 39 40 
8(-1)->1 2 3 4 5 6 7 9 10 11 12 13 14 15 16 17 19 20 21 23 24 25 27 28 29 31 32 33 34 37 39 40 
9(-1)->1 2 3 4 5 6 7 8 10 11 12 13 14 15 16 17 21 23 24 25 26 27 29 31 32 33 35 36 37 39 
10(-1)->1 2 3 4 5 6 7 8 9 11 12 13 14 18 19 20 21 22 24 25 27 29 32 33 34 35 36 37 39 
11(-1)->1 2 3 4 5 6 7 8 9 10 12 13 14 15 17 18 19 20 21 23 24 27 29 32 37 39 
12(-1)->1 2 3 4 5 6 7 8 9 10 11 13 14 16 18 19 20 21 25 26 27 29 32 34 39 
13(-1)->1 2 3 4 5 6 7 8 9 10 11 12 14 15 19 23 26 27 33 34 37 
14(-1)->1 2 3 4 5 6 7 8 9 10 11 12 13 15 19 20 22 25 27 29 31 32 34 36 38 39 
15(-1)->1 2 3 4 5 6 7 8 9 11 13 14 16 19 25 27 28 31 33 34 36 38 39 40 
16(-1)->1 2 3 4 5 6 7 8 9 12 15 18 19 22 24 25 26 27 31 32 34 36 39 40 
17(-1)->1 2 3 4 5 6 7 8 9 11 18 19 20 22 24 25 26 27 29 31 32 33 36 37 
18(-1)->1 2 3 4 5 6 7 10 11 12 16 17 19 21 26 28 31 32 35 37 39 
19(-1)->1 2 3 4 5 6 7 8 10 11 12 13 14 15 16 17 18 21 22 23 25 27 29 36 38 39 
20(-1)->1 2 3 4 5 6 7 8 10 11 12 14 17 22 26 27 29 34 36 37 40 
21(-1)->1 2 3 4 5 6 7 8 9 10 11 12 18 19 22 23 29 33 34 36 37 38 40 
22(-1)->1 2 3 4 5 6 7 10 14 16 17 19 20 21 23 25 26 33 35 38 39 40 
23(-1)->1 2 3 4 5 6 7 8 9 11 13 19 21 22 28 30 33 36 37 38 39 
24(-1)->1 2 3 4 5 6 7 8 9 10 11 16 17 25 26 27 30 32 35 36 37 
25(-1)->1 2 3 4 5 6 7 8 9 10 12 14 15 16 17 19 22 24 27 30 31 32 33 37 
26(-1)->1 2 3 4 5 6 7 9 12 13 16 17 18 20 22 24 29 30 32 33 34 36 38 39 40 
27(-1)->1 2 3 4 5 6 7 8 9 10 11 12 13 14 15 16 17 19 20 24 25 28 30 31 32 33 34 
28(-1)->1 2 3 4 5 6 7 8 15 18 23 27 31 36 37 38 40 
29(-1)->1 2 3 4 5 6 8 9 10 11 12 14 17 19 20 21 26 30 31 35 36 38 39 40 
30(-1)->1 2 3 4 5 6 7 23 24 25 26 27 29 31 33 34 37 39 
31(-1)->1 2 3 4 5 6 7 8 9 14 15 16 17 18 25 27 28 29 30 32 35 37 38 40 
32(-1)->1 2 3 4 5 6 7 8 9 10 11 12 14 16 17 18 24 25 26 27 31 36 40 
33(-1)->1 2 3 4 5 6 7 8 9 10 13 15 17 21 22 23 25 26 27 30 34 36 37 39 
34(-1)->1 2 3 4 5 6 8 10 12 13 14 15 16 20 21 26 27 30 33 37 38 39 40 
35(-1)->1 2 3 4 5 6 7 9 10 18 22 24 29 31 37 38 
36(-1)->1 2 3 4 5 6 9 10 14 15 16 17 19 20 21 23 24 26 28 29 32 33 37 39 40 
37(-1)->1 2 3 4 5 6 7 8 9 10 11 13 17 18 20 21 23 24 25 28 30 31 33 34 35 36 
38(-1)->1 2 3 4 5 6 7 14 15 19 21 22 23 26 28 29 31 34 35 39 40 
39(-1)->1 2 3 4 5 6 7 8 9 10 11 12 14 15 16 18 19 22 23 26 29 30 33 34 36 38 
40(-1)->5 7 8 15 16 20 21 22 26 28 29 31 32 34 36 38 
-------
Node 5 maps to position 0
Node 1 maps to position 1
Node 2 maps to position 2
Node 3 maps to position 3
Node 4 maps to position 4
Node 6 maps to position 5
Node 7 maps to position 6
Node 8 maps to position 7
Node 9 maps to position 8
Node 10 maps to position 9
Node 27 maps to position 10
Node 11 maps to position 11
Node 14 maps to position 12
Node 19 maps to position 13
Node 39 maps to position 14
Node 12 maps to position 15
Node 26 maps to position 16
Node 36 maps to position 17
Node 37 maps to position 18
Node 17 maps to position 19
Node 25 maps to position 20
Node 15 maps to position 21
Node 16 maps to position 22
Node 31 maps to position 23
Node 29 maps to position 24
Node 21 maps to position 25
Node 33 maps to position 26
Node 34 maps to position 27
Node 13 maps to position 28
Node 23 maps to position 29
Node 22 maps to position 30
Node 20 maps to position 31
Node 40 maps to position 32
Node 32 maps to position 33
Node 18 maps to position 34
Node 28 maps to position 35
Node 38 maps to position 36
Node 35 maps to position 37
Node 24 maps to position 38
Node 30 maps to position 39
5(-1)->1 2 3 4 6 7 8 9 10 11 12 13 14 15 16 17 18 19 20 21 22 23 24 25 26 27 28 29 30 31 32 33 34 35 36 37 38 39 40 
1(-1)->2 3 4 5 6 7 8 9 10 11 12 13 14 15 16 17 18 19 20 21 22 23 24 25 26 27 28 29 30 31 32 33 34 35 36 37 38 39 
2(-1)->1 3 4 5 6 7 8 9 10 11 12 13 14 15 16 17 18 19 20 21 22 23 24 25 26 27 28 29 30 31 32 33 34 35 36 37 38 39 
3(-1)->1 2 4 5 6 7 8 9 10 11 12 13 14 15 16 17 18 19 20 21 22 23 24 25 26 27 28 29 30 31 32 33 34 35 36 37 38 39 
4(-1)->1 2 3 5 6 7 8 9 10 11 12 13 14 15 16 17 18 19 20 21 22 23 24 25 26 27 28 29 30 31 32 33 34 35 36 37 38 39 
6(-1)->1 2 3 4 5 7 8 9 10 11 12 13 14 15 16 17 18 19 20 21 22 23 24 25 26 27 28 29 30 31 32 33 34 35 36 37 38 39 
7(-1)->1 2 3 4 5 6 8 9 10 11 12 13 14 15 16 17 18 19 20 21 22 23 24 25 26 27 28 30 31 32 33 35 37 38 39 40 
8(-1)->1 2 3 4 5 6 7 9 10 11 12 13 14 15 16 17 19 20 21 23 24 25 27 28 29 31 32 33 34 37 39 40 
9(-1)->1 2 3 4 5 6 7 8 10 11 12 13 14 15 16 17 21 23 24 25 26 27 29 31 32 33 35 36 37 39 
10(-1)->1 2 3 4 5 6 7 8 9 11 12 13 14 18 19 20 21 22 24 25 27 29 32 33 34 35 36 37 39 
27(-1)->1 2 3 4 5 6 7 8 9 10 11 12 13 14 15 16 17 19 20 24 25 28 30 31 32 33 34 
11(-1)->1 2 3 4 5 6 7 8 9 10 12 13 14 15 17 18 19 20 21 23 24 27 29 32 37 39 
14(-1)->1 2 3 4 5 6 7 8 9 10 11 12 13 15 19 20 22 25 27 29 31 32 34 36 38 39 
19(-1)->1 2 3 4 5 6 7 8 10 11 12 13 14 15 16 17 18 21 22 23 25 27 29 36 38 39 
39(-1)->1 2 3 4 5 6 7 8 9 10 11 12 14 15 16 18 19 22 23 26 29 30 33 34 36 38 
12(-1)->1 2 3 4 5 6 7 8 9 10 11 13 14 16 18 19 20 21 25 26 27 29 32 34 39 
26(-1)->1 2 3 4 5 6 7 9 12 13 16 17 18 20 22 24 29 30 32 33 34 36 38 39 40 
36(-1)->1 2 3 4 5 6 9 10 14 15 16 17 19 20 21 23 24 26 28 29 32 33 37 39 40 
37(-1)->1 2 3 4 5 6 7 8 9 10 11 13 17 18 20 21 23 24 25 28 30 31 33 34 35 36 
17(-1)->1 2 3 4 5 6 7 8 9 11 18 19 20 22 24 25 26 27 29 31 32 33 36 37 
25(-1)->1 2 3 4 5 6 7 8 9 10 12 14 15 16 17 19 22 24 27 30 31 32 33 37 
15(-1)->1 2 3 4 5 6 7 8 9 11 13 14 16 19 25 27 28 31 33 34 36 38 39 40 
16(-1)->1 2 3 4 5 6 7 8 9 12 15 18 19 22 24 25 26 27 31 32 34 36 39 40 
31(-1)->1 2 3 4 5 6 7 8 9 14 15 16 17 18 25 27 28 29 30 32 35 37 38 40 
29(-1)->1 2 3 4 5 6 8 9 10 11 12 14 17 19 20 21 26 30 31 35 36 38 39 40 
21(-1)->1 2 3 4 5 6 7 8 9 10 11 12 18 19 22 23 29 33 34 36 37 38 40 
33(-1)->1 2 3 4 5 6 7 8 9 10 13 15 17 21 22 23 25 26 27 30 34 36 37 39 
34(-1)->1 2 3 4 5 6 8 10 12 13 14 15 16 20 21 26 27 30 33 37 38 39 40 
13(-1)->1 2 3 4 5 6 7 8 9 10 11 12 14 15 19 23 26 27 33 34 37 
23(-1)->1 2 3 4 5 6 7 8 9 11 13 19 21 22 28 30 33 36 37 38 39 
22(-1)->1 2 3 4 5 6 7 10 14 16 17 19 20 21 23 25 26 33 35 38 39 40 
20(-1)->1 2 3 4 5 6 7 8 10 11 12 14 17 22 26 27 29 34 36 37 40 
40(-1)->5 7 8 15 16 20 21 22 26 28 29 31 32 34 36 38 
32(-1)->1 2 3 4 5 6 7 8 9 10 11 12 14 16 17 18 24 25 26 27 31 36 40 
18(-1)->1 2 3 4 5 6 7 10 11 12 16 17 19 21 26 28 31 32 35 37 39 
28(-1)->1 2 3 4 5 6 7 8 15 18 23 27 31 36 37 38 40 
38(-1)->1 2 3 4 5 6 7 14 15 19 21 22 23 26 28 29 31 34 35 39 40 
35(-1)->1 2 3 4 5 6 7 9 10 18 22 24 29 31 37 38 
24(-1)->1 2 3 4 5 6 7 8 9 10 11 16 17 25 26 27 30 32 35 36 37 
30(-1)->1 2 3 4 5 6 7 23 24 25 26 27 29 31 33 34 37 39 
-------
BLAH
START TIME: 1433711276
10000
1(1)->2 3 4 5 6 7 8 9 10 11 12 13 14 15 16 17 18 19 20 21 22 23 24 25 26 27 28 29 30 31 32 33 34 35 36 37 38 39 
2(2)->1 3 4 5 6 7 8 9 10 11 12 13 14 15 16 17 18 19 20 21 22 23 24 25 26 27 28 29 30 31 32 33 34 35 36 37 38 39 
3(3)->1 2 4 5 6 7 8 9 10 11 12 13 14 15 16 17 18 19 20 21 22 23 24 25 26 27 28 29 30 31 32 33 34 35 36 37 38 39 
4(4)->1 2 3 5 6 7 8 9 10 11 12 13 14 15 16 17 18 19 20 21 22 23 24 25 26 27 28 29 30 31 32 33 34 35 36 37 38 39 
5(0)->1 2 3 4 6 7 8 9 10 11 12 13 14 15 16 17 18 19 20 21 22 23 24 25 26 27 28 29 30 31 32 33 34 35 36 37 38 39 40 
6(5)->1 2 3 4 5 7 8 9 10 11 12 13 14 15 16 17 18 19 20 21 22 23 24 25 26 27 28 29 30 31 32 33 34 35 36 37 38 39 
7(6)->1 2 3 4 5 6 8 9 10 11 12 13 14 15 16 17 18 19 20 21 22 23 24 25 26 27 28 30 31 32 33 35 37 38 39 40 
8(7)->1 2 3 4 5 6 7 9 10 11 12 13 14 15 16 17 19 20 21 23 24 25 27 28 29 31 32 33 34 37 39 40 
9(8)->1 2 3 4 5 6 7 8 10 11 12 13 14 15 16 17 21 23 24 25 26 27 29 31 32 33 35 36 37 39 
10(9)->1 2 3 4 5 6 7 8 9 11 12 13 14 18 19 20 21 22 24 25 27 29 32 33 34 35 36 37 39 
11(11)->1 2 3 4 5 6 7 8 9 10 12 13 14 15 17 18 19 20 21 23 24 27 29 32 37 39 
12(13)->1 2 3 4 5 6 7 8 9 10 11 13 14 16 18 19 20 21 25 26 27 29 32 34 39 
13(14)->1 2 3 4 5 6 7 8 9 10 11 12 14 15 19 23 26 27 33 34 37 
14(12)->1 2 3 4 5 6 7 8 9 10 11 12 13 15 19 20 22 25 27 29 31 32 34 36 38 39 
15(9)->1 2 3 4 5 6 7 8 9 11 13 14 16 19 25 27 28 31 33 34 36 38 39 40 
16(12)->1 2 3 4 5 6 7 8 9 12 15 18 19 22 24 25 26 27 31 32 34 36 39 40 
17(12)->1 2 3 4 5 6 7 8 9 11 18 19 20 22 24 25 26 27 29 31 32 33 36 37 
18(7)->1 2 3 4 5 6 7 10 11 12 16 17 19 21 26 28 31 32 35 37 39 
19(8)->1 2 3 4 5 6 7 8 10 11 12 13 14 15 16 17 18 21 22 23 25 27 29 36 38 39 
20(8)->1 2 3 4 5 6 7 8 10 11 12 14 17 22 26 27 29 34 36 37 40 
21(12)->1 2 3 4 5 6 7 8 9 10 11 12 18 19 22 23 29 33 34 36 37 38 40 
22(7)->1 2 3 4 5 6 7 10 14 16 17 19 20 21 23 25 26 33 35 38 39 40 
23(9)->1 2 3 4 5 6 7 8 9 11 13 19 21 22 28 30 33 36 37 38 39 
24(13)->1 2 3 4 5 6 7 8 9 10 11 16 17 25 26 27 30 32 35 36 37 
25(11)->1 2 3 4 5 6 7 8 9 10 12 14 15 16 17 19 22 24 27 30 31 32 33 37 
26(9)->1 2 3 4 5 6 7 9 12 13 16 17 18 20 22 24 29 30 32 33 34 36 38 39 40 
27(10)->1 2 3 4 5 6 7 8 9 10 11 12 13 14 15 16 17 19 20 24 25 28 30 31 32 33 34 
28(8)->1 2 3 4 5 6 7 8 15 18 23 27 31 36 37 38 40 
29(14)->1 2 3 4 5 6 8 9 10 11 12 14 17 19 20 21 26 30 31 35 36 38 39 40 
30(7)->1 2 3 4 5 6 7 23 24 25 26 27 29 31 33 34 37 39 
31(13)->1 2 3 4 5 6 7 8 9 14 15 16 17 18 25 27 28 29 30 32 35 37 38 40 
32(14)->1 2 3 4 5 6 7 8 9 10 11 12 14 16 17 18 24 25 26 27 31 36 40 
33(13)->1 2 3 4 5 6 7 8 9 10 13 15 17 21 22 23 25 26 27 30 34 36 37 39 
34(6)->1 2 3 4 5 6 8 10 12 13 14 15 16 20 21 26 27 30 33 37 38 39 40 
35(12)->1 2 3 4 5 6 7 9 10 18 22 24 29 31 37 38 
36(6)->1 2 3 4 5 6 9 10 14 15 16 17 19 20 21 23 24 26 28 29 32 33 37 39 40 
37(10)->1 2 3 4 5 6 7 8 9 10 11 13 17 18 20 21 23 24 25 28 30 31 33 34 35 36 
38(11)->1 2 3 4 5 6 7 14 15 19 21 22 23 26 28 29 31 34 35 39 40 
39(10)->1 2 3 4 5 6 7 8 9 10 11 12 14 15 16 18 19 22 23 26 29 30 33 34 36 38 
40(1)->5 7 8 15 16 20 21 22 26 28 29 31 32 34 36 38 
COUNT: 11581
COLORS: 15
EDGES: 520
15
11581
