1: 2 3 4 5 6 7 8 9 10 11 12 13 14 15 16 17 18 19 20 21 22 23 24 25 26 27 28 29 30 31 32 33 34 35 36 37 38 39 40
2: 1 3 4 5 6 7 8 9 10 11 12 13 14 15 16 17 18 19 20 21 22 23 24 25 26 27 28 29 30 31 32 33 34 35 36 37 38 39 40
3: 1 2 4 5 6 7 8 9 10 11 12 13 14 15 16 17 18 19 20 21 22 23 24 25 26 27 28 29 30 31 32 33 34 35 36 37 38 39 40
4: 1 2 3 5 6 7 8 9 10 11 12 13 14 15 16 17 18 19 20 21 22 23 24 25 26 27 28 29 30 31 32 33 34 35 36 37 38 39 40
5: 1 2 3 4 6 7 8 9 10 11 12 13 14 15 16 17 18 19 20 21 22 23 24 25 26 27 28 29 30 31 32 33 34 35 36 37 38 39
6: 1 2 3 4 5 7 8 9 10 11 12 13 14 15 16 17 18 19 20 21 22 23 24 25 26 27 28 29 30 31 32 33 36 37 39 40
7: 1 2 3 4 5 6 8 9 10 11 12 13 14 15 16 17 18 19 20 21 22 23 24 25 26 27 28 29 30 31 32 33 34 37 38 39 40
8: 1 2 3 4 5 6 7 9 10 11 12 13 14 15 16 17 18 19 20 21 22 23 24 25 26 28 29 30 31 34 36 37 38 39
9: 1 2 3 4 5 6 7 8 10 11 12 13 14 15 16 17 18 19 20 22 23 24 25 26 27 28 29 30 31 34 37 39 40
10: 1 2 3 4 5 6 7 8 9 11 12 13 14 15 16 17 18 19 20 21 22 23 24 25 27 28 29 30 31 35 37 39
11: 1 2 3 4 5 6 7 8 9 10 12 13 14 15 16 17 18 19 20 21 22 23 24 25 26 27 28 29 30 31 34 35 40
12: 1 2 3 4 5 6 7 8 9 10 11 13 14 15 16 17 18 19 21 22 23 24 25 26 28 29 30 31 32 34 36 37 38 40
13: 1 2 3 4 5 6 7 8 9 10 11 12 14 15 16 17 18 19 20 21 22 23 24 25 26 27 28 30 31 33 34 36 39 40
14: 1 2 3 4 5 6 7 8 9 10 11 12 13 15 16 17 18 19 20 21 22 24 25 27 28 29 30 31 35 36 37 39
15: 1 2 3 4 5 6 7 8 9 10 11 12 13 14 16 17 18 19 20 21 22 25 27 29 30 32 33 34 36 37 38 39 40
16: 1 2 3 4 5 6 7 8 9 10 11 12 13 14 15 17 18 19 20 21 22 23 27 28 29 30 31 34 37 38
17: 1 2 3 4 5 6 7 8 9 10 11 12 13 14 15 16 18 19 20 21 22 23 24 25 30 37 38 40
18: 1 2 3 4 5 6 7 8 9 10 11 12 13 14 15 16 17 19 20 21 22 24 25 26 27 28 29 30 34 35 37 38
19: 1 2 3 4 5 6 7 8 9 10 11 12 13 14 15 16 17 18 20 22 24 25 26 28 29 30 32 35 37
20: 1 2 3 4 5 6 7 8 9 10 11 13 14 15 16 17 18 19 21 22 23 24 25 26 29 30 34 35 38 40
21: 1 2 3 4 5 6 7 8 10 11 12 13 14 15 16 17 18 20 22 23 25 28 29 30 31 33 34 35 36 37
22: 1 2 3 4 5 6 7 8 9 10 11 12 13 14 15 16 17 18 19 20 21 24 26 27 28 30 32 33 34 38 39 40
23: 1 2 3 4 5 6 7 8 9 10 11 12 13 16 17 20 21 25 27 28 29 30 34 36 38 39
24: 1 2 3 4 5 6 7 8 9 10 11 12 13 14 17 18 19 20 22 26 27 28 29 30 32 33 35 36 37 38 40
25: 1 2 3 4 5 6 7 8 9 10 11 12 13 14 15 17 18 19 20 21 23 26 27 28 29 32 33 35 36 38 39
26: 1 2 3 4 5 6 7 8 9 11 12 13 18 19 20 22 24 25 30 32 35 36 39
27: 1 2 3 4 5 6 7 9 10 11 13 14 15 16 18 22 23 24 25 29 33 34 35 38 39
28: 1 2 3 4 5 6 7 8 9 10 11 12 13 14 16 18 19 21 22 23 24 25 31 33 34 36 37 39 40
29: 1 2 3 4 5 6 7 8 9 10 11 12 14 15 16 18 19 20 21 23 24 25 27 30 31 32 34 38 39 40
30: 1 2 3 4 5 6 7 8 9 10 11 12 13 14 15 16 17 18 19 20 21 22 23 24 26 29 32 35 37 38 39 40
31: 1 2 3 4 5 6 7 8 9 10 11 12 13 14 16 21 28 29 33 36 38 39
32: 3 1 2 35 4 37 6 39 40 7 12 15 19 22 24 25 26 5 29 30 36
33: 1 34 3 36 5 6 7 2 13 15 21 22 24 25 27 28 4 31
34: 1 2 3 4 5 7 8 9 11 12 13 15 16 18 20 21 22 23 27 28 29 33 37 39
35: 1 2 3 4 5 10 11 14 18 19 20 21 24 25 26 27 30 32 37 38 39 40
36: 1 2 3 4 5 6 8 12 13 14 15 21 23 24 25 26 28 31 32 33 37 40
37: 1 2 3 4 5 6 7 8 9 10 12 14 15 16 17 18 19 21 24 28 30 32 34 35 36 38 40
38: 1 2 3 4 5 7 8 12 15 16 17 18 20 22 23 24 25 27 29 30 31 35 37 40
39: 1 2 3 4 5 6 7 8 9 10 13 14 15 22 23 25 26 27 28 29 30 31 32 34 35 40
40: 1 2 3 4 6 7 9 11 12 13 15 17 20 22 24 28 29 30 32 35 36 37 38 39
-------
1(-1)->2 3 4 5 6 7 8 9 10 11 12 13 14 15 16 17 18 19 20 21 22 23 24 25 26 27 28 29 30 31 32 33 34 35 36 37 38 39 40 
2(-1)->1 3 4 5 6 7 8 9 10 11 12 13 14 15 16 17 18 19 20 21 22 23 24 25 26 27 28 29 30 31 32 33 34 35 36 37 38 39 40 
3(-1)->1 2 4 5 6 7 8 9 10 11 12 13 14 15 16 17 18 19 20 21 22 23 24 25 26 27 28 29 30 31 32 33 34 35 36 37 38 39 40 
4(-1)->1 2 3 5 6 7 8 9 10 11 12 13 14 15 16 17 18 19 20 21 22 23 24 25 26 27 28 29 30 31 32 33 34 35 36 37 38 39 40 
5(-1)->1 2 3 4 6 7 8 9 10 11 12 13 14 15 16 17 18 19 20 21 22 23 24 25 26 27 28 29 30 31 32 33 34 35 36 37 38 39 
6(-1)->1 2 3 4 5 7 8 9 10 11 12 13 14 15 16 17 18 19 20 21 22 23 24 25 26 27 28 29 30 31 32 33 36 37 39 40 
7(-1)->1 2 3 4 5 6 8 9 10 11 12 13 14 15 16 17 18 19 20 21 22 23 24 25 26 27 28 29 30 31 32 33 34 37 38 39 40 
8(-1)->1 2 3 4 5 6 7 9 10 11 12 13 14 15 16 17 18 19 20 21 22 23 24 25 26 28 29 30 31 34 36 37 38 39 
9(-1)->1 2 3 4 5 6 7 8 10 11 12 13 14 15 16 17 18 19 20 22 23 24 25 26 27 28 29 30 31 34 37 39 40 
10(-1)->1 2 3 4 5 6 7 8 9 11 12 13 14 15 16 17 18 19 20 21 22 23 24 25 27 28 29 30 31 35 37 39 
11(-1)->1 2 3 4 5 6 7 8 9 10 12 13 14 15 16 17 18 19 20 21 22 23 24 25 26 27 28 29 30 31 34 35 40 
12(-1)->1 2 3 4 5 6 7 8 9 10 11 13 14 15 16 17 18 19 21 22 23 24 25 26 28 29 30 31 32 34 36 37 38 40 
13(-1)->1 2 3 4 5 6 7 8 9 10 11 12 14 15 16 17 18 19 20 21 22 23 24 25 26 27 28 30 31 33 34 36 39 40 
14(-1)->1 2 3 4 5 6 7 8 9 10 11 12 13 15 16 17 18 19 20 21 22 24 25 27 28 29 30 31 35 36 37 39 
15(-1)->1 2 3 4 5 6 7 8 9 10 11 12 13 14 16 17 18 19 20 21 22 25 27 29 30 32 33 34 36 37 38 39 40 
16(-1)->1 2 3 4 5 6 7 8 9 10 11 12 13 14 15 17 18 19 20 21 22 23 27 28 29 30 31 34 37 38 
17(-1)->1 2 3 4 5 6 7 8 9 10 11 12 13 14 15 16 18 19 20 21 22 23 24 25 30 37 38 40 
18(-1)->1 2 3 4 5 6 7 8 9 10 11 12 13 14 15 16 17 19 20 21 22 24 25 26 27 28 29 30 34 35 37 38 
19(-1)->1 2 3 4 5 6 7 8 9 10 11 12 13 14 15 16 17 18 20 22 24 25 26 28 29 30 32 35 37 
20(-1)->1 2 3 4 5 6 7 8 9 10 11 13 14 15 16 17 18 19 21 22 23 24 25 26 29 30 34 35 38 40 
21(-1)->1 2 3 4 5 6 7 8 10 11 12 13 14 15 16 17 18 20 22 23 25 28 29 30 31 33 34 35 36 37 
22(-1)->1 2 3 4 5 6 7 8 9 10 11 12 13 14 15 16 17 18 19 20 21 24 26 27 28 30 32 33 34 38 39 40 
23(-1)->1 2 3 4 5 6 7 8 9 10 11 12 13 16 17 20 21 25 27 28 29 30 34 36 38 39 
24(-1)->1 2 3 4 5 6 7 8 9 10 11 12 13 14 17 18 19 20 22 26 27 28 29 30 32 33 35 36 37 38 40 
25(-1)->1 2 3 4 5 6 7 8 9 10 11 12 13 14 15 17 18 19 20 21 23 26 27 28 29 32 33 35 36 38 39 
26(-1)->1 2 3 4 5 6 7 8 9 11 12 13 18 19 20 22 24 25 30 32 35 36 39 
27(-1)->1 2 3 4 5 6 7 9 10 11 13 14 15 16 18 22 23 24 25 29 33 34 35 38 39 
28(-1)->1 2 3 4 5 6 7 8 9 10 11 12 13 14 16 18 19 21 22 23 24 25 31 33 34 36 37 39 40 
29(-1)->1 2 3 4 5 6 7 8 9 10 11 12 14 15 16 18 19 20 21 23 24 25 27 30 31 32 34 38 39 40 
30(-1)->1 2 3 4 5 6 7 8 9 10 11 12 13 14 15 16 17 18 19 20 21 22 23 24 26 29 32 35 37 38 39 40 
31(-1)->1 2 3 4 5 6 7 8 9 10 11 12 13 14 16 21 28 29 33 36 38 39 
32(-1)->1 2 3 4 5 6 7 12 15 19 22 24 25 26 29 30 35 36 37 39 40 
33(-1)->1 2 3 4 5 6 7 13 15 21 22 24 25 27 28 31 34 36 
34(-1)->1 2 3 4 5 7 8 9 11 12 13 15 16 18 20 21 22 23 27 28 29 33 37 39 
35(-1)->1 2 3 4 5 10 11 14 18 19 20 21 24 25 26 27 30 32 37 38 39 40 
36(-1)->1 2 3 4 5 6 8 12 13 14 15 21 23 24 25 26 28 31 32 33 37 40 
37(-1)->1 2 3 4 5 6 7 8 9 10 12 14 15 16 17 18 19 21 24 28 30 32 34 35 36 38 40 
38(-1)->1 2 3 4 5 7 8 12 15 16 17 18 20 22 23 24 25 27 29 30 31 35 37 40 
39(-1)->1 2 3 4 5 6 7 8 9 10 13 14 15 22 23 25 26 27 28 29 30 31 32 34 35 40 
40(-1)->1 2 3 4 6 7 9 11 12 13 15 17 20 22 24 28 29 30 32 35 36 37 38 39 
-------
Node 1 maps to position 0
Node 2 maps to position 1
Node 3 maps to position 2
Node 4 maps to position 3
Node 5 maps to position 4
Node 7 maps to position 5
Node 6 maps to position 6
Node 8 maps to position 7
Node 12 maps to position 8
Node 13 maps to position 9
Node 9 maps to position 10
Node 11 maps to position 11
Node 15 maps to position 12
Node 10 maps to position 13
Node 14 maps to position 14
Node 18 maps to position 15
Node 22 maps to position 16
Node 30 maps to position 17
Node 24 maps to position 18
Node 20 maps to position 19
Node 25 maps to position 20
Node 21 maps to position 21
Node 16 maps to position 22
Node 29 maps to position 23
Node 19 maps to position 24
Node 28 maps to position 25
Node 37 maps to position 26
Node 17 maps to position 27
Node 23 maps to position 28
Node 39 maps to position 29
Node 27 maps to position 30
Node 34 maps to position 31
Node 33 maps to position 32
Node 31 maps to position 33
Node 38 maps to position 34
Node 40 maps to position 35
Node 35 maps to position 36
Node 26 maps to position 37
Node 36 maps to position 38
Node 32 maps to position 39
1(-1)->2 3 4 5 6 7 8 9 10 11 12 13 14 15 16 17 18 19 20 21 22 23 24 25 26 27 28 29 30 31 32 33 34 35 36 37 38 39 40 
2(-1)->1 3 4 5 6 7 8 9 10 11 12 13 14 15 16 17 18 19 20 21 22 23 24 25 26 27 28 29 30 31 32 33 34 35 36 37 38 39 40 
3(-1)->1 2 4 5 6 7 8 9 10 11 12 13 14 15 16 17 18 19 20 21 22 23 24 25 26 27 28 29 30 31 32 33 34 35 36 37 38 39 40 
4(-1)->1 2 3 5 6 7 8 9 10 11 12 13 14 15 16 17 18 19 20 21 22 23 24 25 26 27 28 29 30 31 32 33 34 35 36 37 38 39 40 
5(-1)->1 2 3 4 6 7 8 9 10 11 12 13 14 15 16 17 18 19 20 21 22 23 24 25 26 27 28 29 30 31 32 33 34 35 36 37 38 39 
7(-1)->1 2 3 4 5 6 8 9 10 11 12 13 14 15 16 17 18 19 20 21 22 23 24 25 26 27 28 29 30 31 32 33 34 37 38 39 40 
6(-1)->1 2 3 4 5 7 8 9 10 11 12 13 14 15 16 17 18 19 20 21 22 23 24 25 26 27 28 29 30 31 32 33 36 37 39 40 
8(-1)->1 2 3 4 5 6 7 9 10 11 12 13 14 15 16 17 18 19 20 21 22 23 24 25 26 28 29 30 31 34 36 37 38 39 
12(-1)->1 2 3 4 5 6 7 8 9 10 11 13 14 15 16 17 18 19 21 22 23 24 25 26 28 29 30 31 32 34 36 37 38 40 
13(-1)->1 2 3 4 5 6 7 8 9 10 11 12 14 15 16 17 18 19 20 21 22 23 24 25 26 27 28 30 31 33 34 36 39 40 
9(-1)->1 2 3 4 5 6 7 8 10 11 12 13 14 15 16 17 18 19 20 22 23 24 25 26 27 28 29 30 31 34 37 39 40 
11(-1)->1 2 3 4 5 6 7 8 9 10 12 13 14 15 16 17 18 19 20 21 22 23 24 25 26 27 28 29 30 31 34 35 40 
15(-1)->1 2 3 4 5 6 7 8 9 10 11 12 13 14 16 17 18 19 20 21 22 25 27 29 30 32 33 34 36 37 38 39 40 
10(-1)->1 2 3 4 5 6 7 8 9 11 12 13 14 15 16 17 18 19 20 21 22 23 24 25 27 28 29 30 31 35 37 39 
14(-1)->1 2 3 4 5 6 7 8 9 10 11 12 13 15 16 17 18 19 20 21 22 24 25 27 28 29 30 31 35 36 37 39 
18(-1)->1 2 3 4 5 6 7 8 9 10 11 12 13 14 15 16 17 19 20 21 22 24 25 26 27 28 29 30 34 35 37 38 
22(-1)->1 2 3 4 5 6 7 8 9 10 11 12 13 14 15 16 17 18 19 20 21 24 26 27 28 30 32 33 34 38 39 40 
30(-1)->1 2 3 4 5 6 7 8 9 10 11 12 13 14 15 16 17 18 19 20 21 22 23 24 26 29 32 35 37 38 39 40 
24(-1)->1 2 3 4 5 6 7 8 9 10 11 12 13 14 17 18 19 20 22 26 27 28 29 30 32 33 35 36 37 38 40 
20(-1)->1 2 3 4 5 6 7 8 9 10 11 13 14 15 16 17 18 19 21 22 23 24 25 26 29 30 34 35 38 40 
25(-1)->1 2 3 4 5 6 7 8 9 10 11 12 13 14 15 17 18 19 20 21 23 26 27 28 29 32 33 35 36 38 39 
21(-1)->1 2 3 4 5 6 7 8 10 11 12 13 14 15 16 17 18 20 22 23 25 28 29 30 31 33 34 35 36 37 
16(-1)->1 2 3 4 5 6 7 8 9 10 11 12 13 14 15 17 18 19 20 21 22 23 27 28 29 30 31 34 37 38 
29(-1)->1 2 3 4 5 6 7 8 9 10 11 12 14 15 16 18 19 20 21 23 24 25 27 30 31 32 34 38 39 40 
19(-1)->1 2 3 4 5 6 7 8 9 10 11 12 13 14 15 16 17 18 20 22 24 25 26 28 29 30 32 35 37 
28(-1)->1 2 3 4 5 6 7 8 9 10 11 12 13 14 16 18 19 21 22 23 24 25 31 33 34 36 37 39 40 
37(-1)->1 2 3 4 5 6 7 8 9 10 12 14 15 16 17 18 19 21 24 28 30 32 34 35 36 38 40 
17(-1)->1 2 3 4 5 6 7 8 9 10 11 12 13 14 15 16 18 19 20 21 22 23 24 25 30 37 38 40 
23(-1)->1 2 3 4 5 6 7 8 9 10 11 12 13 16 17 20 21 25 27 28 29 30 34 36 38 39 
39(-1)->1 2 3 4 5 6 7 8 9 10 13 14 15 22 23 25 26 27 28 29 30 31 32 34 35 40 
27(-1)->1 2 3 4 5 6 7 9 10 11 13 14 15 16 18 22 23 24 25 29 33 34 35 38 39 
34(-1)->1 2 3 4 5 7 8 9 11 12 13 15 16 18 20 21 22 23 27 28 29 33 37 39 
33(-1)->1 2 3 4 5 6 7 13 15 21 22 24 25 27 28 31 34 36 
31(-1)->1 2 3 4 5 6 7 8 9 10 11 12 13 14 16 21 28 29 33 36 38 39 
38(-1)->1 2 3 4 5 7 8 12 15 16 17 18 20 22 23 24 25 27 29 30 31 35 37 40 
40(-1)->1 2 3 4 6 7 9 11 12 13 15 17 20 22 24 28 29 30 32 35 36 37 38 39 
35(-1)->1 2 3 4 5 10 11 14 18 19 20 21 24 25 26 27 30 32 37 38 39 40 
26(-1)->1 2 3 4 5 6 7 8 9 11 12 13 18 19 20 22 24 25 30 32 35 36 39 
36(-1)->1 2 3 4 5 6 8 12 13 14 15 21 23 24 25 26 28 31 32 33 37 40 
32(-1)->1 2 3 4 5 6 7 12 15 19 22 24 25 26 29 30 35 36 37 39 40 
-------
BLAH
START TIME: 1433711285
1(0)->2 3 4 5 6 7 8 9 10 11 12 13 14 15 16 17 18 19 20 21 22 23 24 25 26 27 28 29 30 31 32 33 34 35 36 37 38 39 40 
2(1)->1 3 4 5 6 7 8 9 10 11 12 13 14 15 16 17 18 19 20 21 22 23 24 25 26 27 28 29 30 31 32 33 34 35 36 37 38 39 40 
3(2)->1 2 4 5 6 7 8 9 10 11 12 13 14 15 16 17 18 19 20 21 22 23 24 25 26 27 28 29 30 31 32 33 34 35 36 37 38 39 40 
4(3)->1 2 3 5 6 7 8 9 10 11 12 13 14 15 16 17 18 19 20 21 22 23 24 25 26 27 28 29 30 31 32 33 34 35 36 37 38 39 40 
5(4)->1 2 3 4 6 7 8 9 10 11 12 13 14 15 16 17 18 19 20 21 22 23 24 25 26 27 28 29 30 31 32 33 34 35 36 37 38 39 
6(6)->1 2 3 4 5 7 8 9 10 11 12 13 14 15 16 17 18 19 20 21 22 23 24 25 26 27 28 29 30 31 32 33 36 37 39 40 
7(5)->1 2 3 4 5 6 8 9 10 11 12 13 14 15 16 17 18 19 20 21 22 23 24 25 26 27 28 29 30 31 32 33 34 37 38 39 40 
8(7)->1 2 3 4 5 6 7 9 10 11 12 13 14 15 16 17 18 19 20 21 22 23 24 25 26 28 29 30 31 34 36 37 38 39 
9(10)->1 2 3 4 5 6 7 8 10 11 12 13 14 15 16 17 18 19 20 22 23 24 25 26 27 28 29 30 31 34 37 39 40 
10(13)->1 2 3 4 5 6 7 8 9 11 12 13 14 15 16 17 18 19 20 21 22 23 24 25 27 28 29 30 31 35 37 39 
11(11)->1 2 3 4 5 6 7 8 9 10 12 13 14 15 16 17 18 19 20 21 22 23 24 25 26 27 28 29 30 31 34 35 40 
12(8)->1 2 3 4 5 6 7 8 9 10 11 13 14 15 16 17 18 19 21 22 23 24 25 26 28 29 30 31 32 34 36 37 38 40 
13(9)->1 2 3 4 5 6 7 8 9 10 11 12 14 15 16 17 18 19 20 21 22 23 24 25 26 27 28 30 31 33 34 36 39 40 
14(14)->1 2 3 4 5 6 7 8 9 10 11 12 13 15 16 17 18 19 20 21 22 24 25 27 28 29 30 31 35 36 37 39 
15(12)->1 2 3 4 5 6 7 8 9 10 11 12 13 14 16 17 18 19 20 21 22 25 27 29 30 32 33 34 36 37 38 39 40 
16(18)->1 2 3 4 5 6 7 8 9 10 11 12 13 14 15 17 18 19 20 21 22 23 27 28 29 30 31 34 37 38 
17(20)->1 2 3 4 5 6 7 8 9 10 11 12 13 14 15 16 18 19 20 21 22 23 24 25 30 37 38 40 
18(15)->1 2 3 4 5 6 7 8 9 10 11 12 13 14 15 16 17 19 20 21 22 24 25 26 27 28 29 30 34 35 37 38 
19(19)->1 2 3 4 5 6 7 8 9 10 11 12 13 14 15 16 17 18 20 22 24 25 26 28 29 30 32 35 37 
20(8)->1 2 3 4 5 6 7 8 9 10 11 13 14 15 16 17 18 19 21 22 23 24 25 26 29 30 34 35 38 40 
21(10)->1 2 3 4 5 6 7 8 10 11 12 13 14 15 16 17 18 20 22 23 25 28 29 30 31 33 34 35 36 37 
22(16)->1 2 3 4 5 6 7 8 9 10 11 12 13 14 15 16 17 18 19 20 21 24 26 27 28 30 32 33 34 38 39 40 
23(12)->1 2 3 4 5 6 7 8 9 10 11 12 13 16 17 20 21 25 27 28 29 30 34 36 38 39 
24(12)->1 2 3 4 5 6 7 8 9 10 11 12 13 14 17 18 19 20 22 26 27 28 29 30 32 33 35 36 37 38 40 
25(16)->1 2 3 4 5 6 7 8 9 10 11 12 13 14 15 17 18 19 20 21 23 26 27 28 29 32 33 35 36 38 39 
26(13)->1 2 3 4 5 6 7 8 9 11 12 13 18 19 20 22 24 25 30 32 35 36 39 
27(7)->1 2 3 4 5 6 7 9 10 11 13 14 15 16 18 22 23 24 25 29 33 34 35 38 39 
28(17)->1 2 3 4 5 6 7 8 9 10 11 12 13 14 16 18 19 21 22 23 24 25 31 33 34 36 37 39 40 
29(9)->1 2 3 4 5 6 7 8 9 10 11 12 14 15 16 18 19 20 21 23 24 25 27 30 31 32 34 38 39 40 
30(17)->1 2 3 4 5 6 7 8 9 10 11 12 13 14 15 16 17 18 19 20 21 22 23 24 26 29 32 35 37 38 39 40 
31(12)->1 2 3 4 5 6 7 8 9 10 11 12 13 14 16 21 28 29 33 36 38 39 
32(7)->1 2 3 4 5 6 7 12 15 19 22 24 25 26 29 30 35 36 37 39 40 
33(8)->1 2 3 4 5 6 7 13 15 21 22 24 25 27 28 31 34 36 
34(6)->1 2 3 4 5 7 8 9 11 12 13 15 16 18 20 21 22 23 27 28 29 33 37 39 
35(5)->1 2 3 4 5 10 11 14 18 19 20 21 24 25 26 27 30 32 37 38 39 40 
36(5)->1 2 3 4 5 6 8 12 13 14 15 21 23 24 25 26 28 31 32 33 37 40 
37(9)->1 2 3 4 5 6 7 8 9 10 12 14 15 16 17 18 19 21 24 28 30 32 34 35 36 38 40 
38(6)->1 2 3 4 5 7 8 12 15 16 17 18 20 22 23 24 25 27 29 30 31 35 37 40 
39(8)->1 2 3 4 5 6 7 8 9 10 13 14 15 22 23 25 26 27 28 29 30 31 32 34 35 40 
40(4)->1 2 3 4 6 7 9 11 12 13 15 17 20 22 24 28 29 30 32 35 36 37 38 39 
COUNT: 263
COLORS: 21
EDGES: 600
21
263
