1: 2 3 4 5 6 7 8 9 10 11 12 13 14 15 16 17 18 19 20 21 22 23 24 25 26 27 28 29 30 31 38
2: 1 3 4 7 10 11 14 15 16 18 19 21 23 28 30
3: 1 2 4 5 6 12 24 30
4: 33 34 3 1 37 39 8 2 35 21 25 26 31
5: 33 3 1 13 14 17 18 21 22
6: 1 3 14 17 35 21 23 25 26
7: 33 2 1 39 40 16 24 27 28 31
8: 33 4 37 1 21 23 27 28 31
9: 1 36 37 39 10 13 24 25
10: 1 2 35 36 9 12 13 18 19 29
11: 32 1 2 37 39 14 18 20 24 27 29
12: 19 25 10 3 1
13: 33 37 1 9 10 19 26 27 5
14: 1 2 5 6 39 11
15: 33 2 36 38 39 40 19 1
16: 1 2 36 7 18 19 22 24 26 27 31
17: 32 1 5 6 20 22 25 27 29
18: 1 2 35 5 10 11 16 21 28
19: 1 2 36 10 12 13 15 16 21 22 23 29
20: 1 34 37 11 17 22 27 29
21: 1 34 4 5 6 40 2 8 18 19 38 37
22: 1 35 5 38 16 17 19 20 23
23: 1 2 37 6 8 19 22
24: 1 3 36 37 7 9 11 16 27 30
25: 33 4 6 1 9 12 17 30
26: 32 1 4 6 39 40 13 16
27: 32 33 34 1 7 8 11 13 16 17 20 24 28 30 31
28: 1 2 7 8 18 27
29: 1 35 36 38 39 40 10 11 17 19 20 31
30: 33 2 3 1 37 39 34 24 25 27 31
31: 32 1 35 4 37 38 7 8 16 27 29 30
32: 36 40 11 17 26 27 31
33: 4 5 39 8 7 13 15 25 27 30
34: 4 38 20 21 27 30
35: 4 6 10 18 22 29 31
36: 32 37 40 9 10 15 16 19 24 29
37: 36 8 9 11 13 20 21 23 24 4 30 31
38: 1 34 39 40 15 21 22 29 31
39: 33 4 38 7 9 11 14 15 26 29 30
40: 32 36 38 7 15 21 26 29
-------
1(-1)->2 3 4 5 6 7 8 9 10 11 12 13 14 15 16 17 18 19 20 21 22 23 24 25 26 27 28 29 30 31 38 
2(-1)->1 3 4 7 10 11 14 15 16 18 19 21 23 28 30 
3(-1)->1 2 4 5 6 12 24 30 
4(-1)->1 2 3 8 21 25 26 31 33 34 35 37 39 
5(-1)->1 3 13 14 17 18 21 22 33 
6(-1)->1 3 14 17 21 23 25 26 35 
7(-1)->1 2 16 24 27 28 31 33 39 40 
8(-1)->1 4 21 23 27 28 31 33 37 
9(-1)->1 10 13 24 25 36 37 39 
10(-1)->1 2 9 12 13 18 19 29 35 36 
11(-1)->1 2 14 18 20 24 27 29 32 37 39 
12(-1)->1 3 10 19 25 
13(-1)->1 5 9 10 19 26 27 33 37 
14(-1)->1 2 5 6 11 39 
15(-1)->1 2 19 33 36 38 39 40 
16(-1)->1 2 7 18 19 22 24 26 27 31 36 
17(-1)->1 5 6 20 22 25 27 29 32 
18(-1)->1 2 5 10 11 16 21 28 35 
19(-1)->1 2 10 12 13 15 16 21 22 23 29 36 
20(-1)->1 11 17 22 27 29 34 37 
21(-1)->1 2 4 5 6 8 18 19 34 37 38 40 
22(-1)->1 5 16 17 19 20 23 35 38 
23(-1)->1 2 6 8 19 22 37 
24(-1)->1 3 7 9 11 16 27 30 36 37 
25(-1)->1 4 6 9 12 17 30 33 
26(-1)->1 4 6 13 16 32 39 40 
27(-1)->1 7 8 11 13 16 17 20 24 28 30 31 32 33 34 
28(-1)->1 2 7 8 18 27 
29(-1)->1 10 11 17 19 20 31 35 36 38 39 40 
30(-1)->1 2 3 24 25 27 31 33 34 37 39 
31(-1)->1 4 7 8 16 27 29 30 32 35 37 38 
32(-1)->11 17 26 27 31 36 40 
33(-1)->4 5 7 8 13 15 25 27 30 39 
34(-1)->4 20 21 27 30 38 
35(-1)->4 6 10 18 22 29 31 
36(-1)->9 10 15 16 19 24 29 32 37 40 
37(-1)->4 8 9 11 13 20 21 23 24 30 31 36 
38(-1)->1 15 21 22 29 31 34 39 40 
39(-1)->4 7 9 11 14 15 26 29 30 33 38 
40(-1)->7 15 21 26 29 32 36 38 
-------
Node 1 maps to position 0
Node 2 maps to position 1
Node 4 maps to position 2
Node 21 maps to position 3
Node 19 maps to position 4
Node 29 maps to position 5
Node 31 maps to position 6
Node 27 maps to position 7
Node 11 maps to position 8
Node 37 maps to position 9
Node 30 maps to position 10
Node 39 maps to position 11
Node 7 maps to position 12
Node 16 maps to position 13
Node 24 maps to position 14
Node 36 maps to position 15
Node 10 maps to position 16
Node 13 maps to position 17
Node 33 maps to position 18
Node 5 maps to position 19
Node 17 maps to position 20
Node 6 maps to position 21
Node 3 maps to position 22
Node 12 maps to position 23
Node 25 maps to position 24
Node 9 maps to position 25
Node 8 maps to position 26
Node 23 maps to position 27
Node 22 maps to position 28
Node 38 maps to position 29
Node 15 maps to position 30
Node 40 maps to position 31
Node 26 maps to position 32
Node 32 maps to position 33
Node 18 maps to position 34
Node 35 maps to position 35
Node 20 maps to position 36
Node 34 maps to position 37
Node 14 maps to position 38
Node 28 maps to position 39
1(-1)->2 3 4 5 6 7 8 9 10 11 12 13 14 15 16 17 18 19 20 21 22 23 24 25 26 27 28 29 30 31 38 
2(-1)->1 3 4 7 10 11 14 15 16 18 19 21 23 28 30 
4(-1)->1 2 3 8 21 25 26 31 33 34 35 37 39 
21(-1)->1 2 4 5 6 8 18 19 34 37 38 40 
19(-1)->1 2 10 12 13 15 16 21 22 23 29 36 
29(-1)->1 10 11 17 19 20 31 35 36 38 39 40 
31(-1)->1 4 7 8 16 27 29 30 32 35 37 38 
27(-1)->1 7 8 11 13 16 17 20 24 28 30 31 32 33 34 
11(-1)->1 2 14 18 20 24 27 29 32 37 39 
37(-1)->4 8 9 11 13 20 21 23 24 30 31 36 
30(-1)->1 2 3 24 25 27 31 33 34 37 39 
39(-1)->4 7 9 11 14 15 26 29 30 33 38 
7(-1)->1 2 16 24 27 28 31 33 39 40 
16(-1)->1 2 7 18 19 22 24 26 27 31 36 
24(-1)->1 3 7 9 11 16 27 30 36 37 
36(-1)->9 10 15 16 19 24 29 32 37 40 
10(-1)->1 2 9 12 13 18 19 29 35 36 
13(-1)->1 5 9 10 19 26 27 33 37 
33(-1)->4 5 7 8 13 15 25 27 30 39 
5(-1)->1 3 13 14 17 18 21 22 33 
17(-1)->1 5 6 20 22 25 27 29 32 
6(-1)->1 3 14 17 21 23 25 26 35 
3(-1)->1 2 4 5 6 12 24 30 
12(-1)->1 3 10 19 25 
25(-1)->1 4 6 9 12 17 30 33 
9(-1)->1 10 13 24 25 36 37 39 
8(-1)->1 4 21 23 27 28 31 33 37 
23(-1)->1 2 6 8 19 22 37 
22(-1)->1 5 16 17 19 20 23 35 38 
38(-1)->1 15 21 22 29 31 34 39 40 
15(-1)->1 2 19 33 36 38 39 40 
40(-1)->7 15 21 26 29 32 36 38 
26(-1)->1 4 6 13 16 32 39 40 
32(-1)->11 17 26 27 31 36 40 
18(-1)->1 2 5 10 11 16 21 28 35 
35(-1)->4 6 10 18 22 29 31 
20(-1)->1 11 17 22 27 29 34 37 
34(-1)->4 20 21 27 30 38 
14(-1)->1 2 5 6 11 39 
28(-1)->1 2 7 8 18 27 
-------
BLAH
START TIME: 1433711232
10000
1(0)->2 3 4 5 6 7 8 9 10 11 12 13 14 15 16 17 18 19 20 21 22 23 24 25 26 27 28 29 30 31 38 
2(1)->1 3 4 7 10 11 14 15 16 18 19 21 23 28 30 
3(4)->1 2 4 5 6 12 24 30 
4(2)->1 2 3 8 21 25 26 31 33 34 35 37 39 
5(1)->1 3 13 14 17 18 21 22 33 
6(1)->1 3 14 17 21 23 25 26 35 
7(2)->1 2 16 24 27 28 31 33 39 40 
8(4)->1 4 21 23 27 28 31 33 37 
9(1)->1 10 13 24 25 36 37 39 
10(3)->1 2 9 12 13 18 19 29 35 36 
11(2)->1 2 14 18 20 24 27 29 32 37 39 
12(1)->1 3 10 19 25 
13(4)->1 5 9 10 19 26 27 33 37 
14(3)->1 2 5 6 11 39 
15(4)->1 2 19 33 36 38 39 40 
16(4)->1 2 7 18 19 22 24 26 27 31 36 
17(2)->1 5 6 20 22 25 27 29 32 
18(5)->1 2 5 10 11 16 21 28 35 
19(2)->1 2 10 12 13 15 16 21 22 23 29 36 
20(3)->1 11 17 22 27 29 34 37 
21(3)->1 2 4 5 6 8 18 19 34 37 38 40 
22(5)->1 5 16 17 19 20 23 35 38 
23(3)->1 2 6 8 19 22 37 
24(3)->1 3 7 9 11 16 27 30 36 37 
25(4)->1 4 6 9 12 17 30 33 
26(3)->1 4 6 13 16 32 39 40 
27(1)->1 7 8 11 13 16 17 20 24 28 30 31 32 33 34 
28(3)->1 2 7 8 18 27 
29(1)->1 10 11 17 19 20 31 35 36 38 39 40 
30(2)->1 2 3 24 25 27 31 33 34 37 39 
31(3)->1 4 7 8 16 27 29 30 32 35 37 38 
32(4)->11 17 26 27 31 36 40 
33(3)->4 5 7 8 13 15 25 27 30 39 
34(0)->4 20 21 27 30 38 
35(0)->4 6 10 18 22 29 31 
36(5)->9 10 15 16 19 24 29 32 37 40 
37(0)->4 8 9 11 13 20 21 23 24 30 31 36 
38(2)->1 15 21 22 29 31 34 39 40 
39(0)->4 7 9 11 14 15 26 29 30 33 38 
40(0)->7 15 21 26 29 32 36 38 
COUNT: 19877
COLORS: 6
EDGES: 200
6
19877
