1: 2 3 4 5 6 7 8 9 10 11 12 13 14 15 16 17 18 19 20 21 22 23 24 25 26 27 28 29 30 31 32 33 34 35 36 37 38
2: 33 34 3 38 1 10 11 12 13 15 16 20 21 7 25 29
3: 33 34 4 37 38 1 11 2 19 26 28 5
4: 1 3 6 10 16 21
5: 1 3 10 17 22 27 28 30
6: 1 34 4 13 18 22 36 26 27
7: 1 2 36 37 33 16 18 19 25 26 29
8: 1 10 12 13 15 18 20 28
9: 1 36 37 11 12 13 18 20 29
10: 1 2 4 5 38 8 14 15 17 19 22
11: 33 2 3 38 1 9 12 17 25
12: 33 2 35 37 38 1 8 9 11 34 15 29
13: 32 1 2 36 6 8 9 15 22 28 30
14: 1 40 10 15 16 17 26 27 31
15: 1 2 38 8 10 12 13 14 20 21 28 30
16: 1 2 35 4 7 14 17 21 24 25 26 29 31
17: 32 1 5 10 11 14 16 18 21 31
18: 1 6 17 40 9 7 8 21 22
19: 1 3 7 10 21 26 27
20: 1 2 37 39 8 9 15 24 26 30
21: 33 2 4 1 39 15 16 17 18 19 28
22: 32 1 5 6 10 13 18 24 25 27
23: 25 27 1 30 39
24: 32 1 37 38 16 20 22
25: 1 2 35 7 11 34 16 22 23 39 27 28 31
26: 1 34 3 6 7 14 16 19 20
27: 1 5 6 40 14 19 22 23 25 28 31
28: 1 3 5 38 39 8 13 15 35 21 25 27
29: 1 2 7 9 12 16
30: 1 37 39 13 15 20 23 5
31: 1 34 40 14 16 17 25 27
32: 1 37 13 17 22 24
33: 1 2 3 7 11 12 35 21
34: 1 2 3 6 12 35 25 26 31
35: 33 34 1 40 12 16 25 28
36: 1 37 6 7 9 13
37: 32 1 3 36 39 9 7 12 20 24 30
38: 1 2 3 40 10 11 12 15 24 28
39: 37 20 21 23 25 28 30
40: 35 38 14 18 27 31
-------
1(-1)->2 3 4 5 6 7 8 9 10 11 12 13 14 15 16 17 18 19 20 21 22 23 24 25 26 27 28 29 30 31 32 33 34 35 36 37 38 
2(-1)->1 3 7 10 11 12 13 15 16 20 21 25 29 33 34 38 
3(-1)->1 2 4 5 11 19 26 28 33 34 37 38 
4(-1)->1 3 6 10 16 21 
5(-1)->1 3 10 17 22 27 28 30 
6(-1)->1 4 13 18 22 26 27 34 36 
7(-1)->1 2 16 18 19 25 26 29 33 36 37 
8(-1)->1 10 12 13 15 18 20 28 
9(-1)->1 11 12 13 18 20 29 36 37 
10(-1)->1 2 4 5 8 14 15 17 19 22 38 
11(-1)->1 2 3 9 12 17 25 33 38 
12(-1)->1 2 8 9 11 15 29 33 34 35 37 38 
13(-1)->1 2 6 8 9 15 22 28 30 32 36 
14(-1)->1 10 15 16 17 26 27 31 40 
15(-1)->1 2 8 10 12 13 14 20 21 28 30 38 
16(-1)->1 2 4 7 14 17 21 24 25 26 29 31 35 
17(-1)->1 5 10 11 14 16 18 21 31 32 
18(-1)->1 6 7 8 9 17 21 22 40 
19(-1)->1 3 7 10 21 26 27 
20(-1)->1 2 8 9 15 24 26 30 37 39 
21(-1)->1 2 4 15 16 17 18 19 28 33 39 
22(-1)->1 5 6 10 13 18 24 25 27 32 
23(-1)->1 25 27 30 39 
24(-1)->1 16 20 22 32 37 38 
25(-1)->1 2 7 11 16 22 23 27 28 31 34 35 39 
26(-1)->1 3 6 7 14 16 19 20 34 
27(-1)->1 5 6 14 19 22 23 25 28 31 40 
28(-1)->1 3 5 8 13 15 21 25 27 35 38 39 
29(-1)->1 2 7 9 12 16 
30(-1)->1 5 13 15 20 23 37 39 
31(-1)->1 14 16 17 25 27 34 40 
32(-1)->1 13 17 22 24 37 
33(-1)->1 2 3 7 11 12 21 35 
34(-1)->1 2 3 6 12 25 26 31 35 
35(-1)->1 12 16 25 28 33 34 40 
36(-1)->1 6 7 9 13 37 
37(-1)->1 3 7 9 12 20 24 30 32 36 39 
38(-1)->1 2 3 10 11 12 15 24 28 40 
39(-1)->20 21 23 25 28 30 37 
40(-1)->14 18 27 31 35 38 
-------
Node 1 maps to position 0
Node 2 maps to position 1
Node 16 maps to position 2
Node 25 maps to position 3
Node 28 maps to position 4
Node 3 maps to position 5
Node 37 maps to position 6
Node 12 maps to position 7
Node 15 maps to position 8
Node 10 maps to position 9
Node 17 maps to position 10
Node 21 maps to position 11
Node 18 maps to position 12
Node 7 maps to position 13
Node 26 maps to position 14
Node 20 maps to position 15
Node 9 maps to position 16
Node 13 maps to position 17
Node 22 maps to position 18
Node 27 maps to position 19
Node 6 maps to position 20
Node 34 maps to position 21
Node 31 maps to position 22
Node 14 maps to position 23
Node 40 maps to position 24
Node 38 maps to position 25
Node 11 maps to position 26
Node 33 maps to position 27
Node 35 maps to position 28
Node 5 maps to position 29
Node 30 maps to position 30
Node 39 maps to position 31
Node 23 maps to position 32
Node 8 maps to position 33
Node 19 maps to position 34
Node 24 maps to position 35
Node 32 maps to position 36
Node 4 maps to position 37
Node 29 maps to position 38
Node 36 maps to position 39
1(-1)->2 3 4 5 6 7 8 9 10 11 12 13 14 15 16 17 18 19 20 21 22 23 24 25 26 27 28 29 30 31 32 33 34 35 36 37 38 
2(-1)->1 3 7 10 11 12 13 15 16 20 21 25 29 33 34 38 
16(-1)->1 2 4 7 14 17 21 24 25 26 29 31 35 
25(-1)->1 2 7 11 16 22 23 27 28 31 34 35 39 
28(-1)->1 3 5 8 13 15 21 25 27 35 38 39 
3(-1)->1 2 4 5 11 19 26 28 33 34 37 38 
37(-1)->1 3 7 9 12 20 24 30 32 36 39 
12(-1)->1 2 8 9 11 15 29 33 34 35 37 38 
15(-1)->1 2 8 10 12 13 14 20 21 28 30 38 
10(-1)->1 2 4 5 8 14 15 17 19 22 38 
17(-1)->1 5 10 11 14 16 18 21 31 32 
21(-1)->1 2 4 15 16 17 18 19 28 33 39 
18(-1)->1 6 7 8 9 17 21 22 40 
7(-1)->1 2 16 18 19 25 26 29 33 36 37 
26(-1)->1 3 6 7 14 16 19 20 34 
20(-1)->1 2 8 9 15 24 26 30 37 39 
9(-1)->1 11 12 13 18 20 29 36 37 
13(-1)->1 2 6 8 9 15 22 28 30 32 36 
22(-1)->1 5 6 10 13 18 24 25 27 32 
27(-1)->1 5 6 14 19 22 23 25 28 31 40 
6(-1)->1 4 13 18 22 26 27 34 36 
34(-1)->1 2 3 6 12 25 26 31 35 
31(-1)->1 14 16 17 25 27 34 40 
14(-1)->1 10 15 16 17 26 27 31 40 
40(-1)->14 18 27 31 35 38 
38(-1)->1 2 3 10 11 12 15 24 28 40 
11(-1)->1 2 3 9 12 17 25 33 38 
33(-1)->1 2 3 7 11 12 21 35 
35(-1)->1 12 16 25 28 33 34 40 
5(-1)->1 3 10 17 22 27 28 30 
30(-1)->1 5 13 15 20 23 37 39 
39(-1)->20 21 23 25 28 30 37 
23(-1)->1 25 27 30 39 
8(-1)->1 10 12 13 15 18 20 28 
19(-1)->1 3 7 10 21 26 27 
24(-1)->1 16 20 22 32 37 38 
32(-1)->1 13 17 22 24 37 
4(-1)->1 3 6 10 16 21 
29(-1)->1 2 7 9 12 16 
36(-1)->1 6 7 9 13 37 
-------
BLAH
START TIME: 1433711234
10000
1(0)->2 3 4 5 6 7 8 9 10 11 12 13 14 15 16 17 18 19 20 21 22 23 24 25 26 27 28 29 30 31 32 33 34 35 36 37 38 
2(1)->1 3 7 10 11 12 13 15 16 20 21 25 29 33 34 38 
3(2)->1 2 4 5 11 19 26 28 33 34 37 38 
4(1)->1 3 6 10 16 21 
5(3)->1 3 10 17 22 27 28 30 
6(3)->1 4 13 18 22 26 27 34 36 
7(4)->1 2 16 18 19 25 26 29 33 36 37 
8(4)->1 10 12 13 15 18 20 28 
9(3)->1 11 12 13 18 20 29 36 37 
10(2)->1 2 4 5 8 14 15 17 19 22 38 
11(5)->1 2 3 9 12 17 25 33 38 
12(2)->1 2 8 9 11 15 29 33 34 35 37 38 
13(2)->1 2 6 8 9 15 22 28 30 32 36 
14(4)->1 10 15 16 17 26 27 31 40 
15(3)->1 2 8 10 12 13 14 20 21 28 30 38 
16(2)->1 2 4 7 14 17 21 24 25 26 29 31 35 
17(1)->1 5 10 11 14 16 18 21 31 32 
18(2)->1 6 7 8 9 17 21 22 40 
19(3)->1 3 7 10 21 26 27 
20(2)->1 2 8 9 15 24 26 30 37 39 
21(4)->1 2 4 15 16 17 18 19 28 33 39 
22(1)->1 5 6 10 13 18 24 25 27 32 
23(1)->1 25 27 30 39 
24(3)->1 16 20 22 32 37 38 
25(3)->1 2 7 11 16 22 23 27 28 31 34 35 39 
26(1)->1 3 6 7 14 16 19 20 34 
27(2)->1 5 6 14 19 22 23 25 28 31 40 
28(1)->1 3 5 8 13 15 21 25 27 35 38 39 
29(5)->1 2 7 9 12 16 
30(4)->1 5 13 15 20 23 37 39 
31(5)->1 14 16 17 25 27 34 40 
32(4)->1 13 17 22 24 37 
33(3)->1 2 3 7 11 12 21 35 
34(4)->1 2 3 6 12 25 26 31 35 
35(5)->1 12 16 25 28 33 34 40 
36(5)->1 6 7 9 13 37 
37(1)->1 3 7 9 12 20 24 30 32 36 39 
38(4)->1 2 3 10 11 12 15 24 28 40 
39(0)->20 21 23 25 28 30 37 
40(0)->14 18 27 31 35 38 
COUNT: 19214
COLORS: 6
EDGES: 200
6
19214
