1: 2 3 4 5 6 7 8 9 10 11 12 13 14 15 16 17 18 19 20 21 22 23 24 25 26 27 28 29 30 31 32 33 34 35 36 37 38 39 40
2: 1 3 4 5 6 7 8 9 10 11 12 13 14 15 17 19 20 22 25 26 28 29 30 31 32 35 36 37 38 39
3: 32 33 34 11 4 37 6 7 8 9 10 2 13 16 17 1 38 28 29 5
4: 1 2 3 5 6 7 8 9 10 11 13 14 19 25 27 31
5: 1 34 3 4 37 6 7 9 2 13 16 18 22 23 25 27 30
6: 32 33 34 3 4 37 1 2 15 16 17 21 25 5 29 36
7: 1 2 3 36 5 10 11 12 34 15 17 24 4 26 30 31
8: 1 2 35 4 39 13 3 21 30 31
9: 1 34 35 4 5 38 2 3 28
10: 32 33 2 3 4 37 7 12 14 15 17 19 20 1 24
11: 1 2 3 4 38 7 12 17 23 24 27 31
12: 32 1 34 36 37 38 39 40 10 11 2 17 18 19 20 22 7 27
13: 32 33 2 3 4 5 1 8 14 15 17 18 20 22 25 31
14: 1 2 4 37 10 13 15 20 22 25 26
15: 32 1 34 38 6 7 10 2 14 13 16 19 21 24 25 29
16: 1 3 5 6 39 40 15 18 19 26 30
17: 3 1 2 11 6 33 10 7 12 13 19 22 39 27
18: 33 5 1 12 13 16 24 25 26 27 28
19: 33 2 36 37 38 1 40 10 12 15 16 17 25 4
20: 33 2 36 37 38 1 40 10 12 13 14 22 23 25 30
21: 32 1 35 37 6 8 15 22
22: 1 2 36 5 40 12 13 14 17 20 21 23 28
23: 1 5 11 20 22 24 25
24: 32 1 34 37 39 10 11 15 18 23 7 25 26 30
25: 1 2 4 37 6 13 14 15 18 19 20 23 24 26 5 30 31
26: 32 33 2 36 38 39 7 34 14 16 18 1 24 25 29
27: 32 1 4 5 38 39 11 12 17 18 28 29 31
28: 1 2 35 39 40 9 18 3 22 27 29 31
29: 1 2 3 6 15 26 27 28 30
30: 1 34 37 38 7 8 2 16 20 24 25 29 5
31: 1 2 4 7 8 11 13 25 27 28
32: 1 34 35 38 6 10 2 12 13 15 3 21 24 26 27
33: 1 3 6 10 13 17 18 19 20 26
34: 32 1 3 5 6 7 9 12 15 24 26 30
35: 32 1 2 40 9 8 21 28
36: 1 2 6 7 12 19 20 22 26
37: 1 2 3 5 6 39 10 12 14 19 20 21 24 25 30
38: 32 1 2 3 9 11 12 15 19 20 26 27 30
39: 1 2 37 17 8 12 16 40 24 26 27 28
40: 1 35 39 12 16 19 20 22 28
-------
1(-1)->2 3 4 5 6 7 8 9 10 11 12 13 14 15 16 17 18 19 20 21 22 23 24 25 26 27 28 29 30 31 32 33 34 35 36 37 38 39 40 
2(-1)->1 3 4 5 6 7 8 9 10 11 12 13 14 15 17 19 20 22 25 26 28 29 30 31 32 35 36 37 38 39 
3(-1)->1 2 4 5 6 7 8 9 10 11 13 16 17 28 29 32 33 34 37 38 
4(-1)->1 2 3 5 6 7 8 9 10 11 13 14 19 25 27 31 
5(-1)->1 2 3 4 6 7 9 13 16 18 22 23 25 27 30 34 37 
6(-1)->1 2 3 4 5 15 16 17 21 25 29 32 33 34 36 37 
7(-1)->1 2 3 4 5 10 11 12 15 17 24 26 30 31 34 36 
8(-1)->1 2 3 4 13 21 30 31 35 39 
9(-1)->1 2 3 4 5 28 34 35 38 
10(-1)->1 2 3 4 7 12 14 15 17 19 20 24 32 33 37 
11(-1)->1 2 3 4 7 12 17 23 24 27 31 38 
12(-1)->1 2 7 10 11 17 18 19 20 22 27 32 34 36 37 38 39 40 
13(-1)->1 2 3 4 5 8 14 15 17 18 20 22 25 31 32 33 
14(-1)->1 2 4 10 13 15 20 22 25 26 37 
15(-1)->1 2 6 7 10 13 14 16 19 21 24 25 29 32 34 38 
16(-1)->1 3 5 6 15 18 19 26 30 39 40 
17(-1)->1 2 3 6 7 10 11 12 13 19 22 27 33 39 
18(-1)->1 5 12 13 16 24 25 26 27 28 33 
19(-1)->1 2 4 10 12 15 16 17 25 33 36 37 38 40 
20(-1)->1 2 10 12 13 14 22 23 25 30 33 36 37 38 40 
21(-1)->1 6 8 15 22 32 35 37 
22(-1)->1 2 5 12 13 14 17 20 21 23 28 36 40 
23(-1)->1 5 11 20 22 24 25 
24(-1)->1 7 10 11 15 18 23 25 26 30 32 34 37 39 
25(-1)->1 2 4 5 6 13 14 15 18 19 20 23 24 26 30 31 37 
26(-1)->1 2 7 14 16 18 24 25 29 32 33 34 36 38 39 
27(-1)->1 4 5 11 12 17 18 28 29 31 32 38 39 
28(-1)->1 2 3 9 18 22 27 29 31 35 39 40 
29(-1)->1 2 3 6 15 26 27 28 30 
30(-1)->1 2 5 7 8 16 20 24 25 29 34 37 38 
31(-1)->1 2 4 7 8 11 13 25 27 28 
32(-1)->1 2 3 6 10 12 13 15 21 24 26 27 34 35 38 
33(-1)->1 3 6 10 13 17 18 19 20 26 
34(-1)->1 3 5 6 7 9 12 15 24 26 30 32 
35(-1)->1 2 8 9 21 28 32 40 
36(-1)->1 2 6 7 12 19 20 22 26 
37(-1)->1 2 3 5 6 10 12 14 19 20 21 24 25 30 39 
38(-1)->1 2 3 9 11 12 15 19 20 26 27 30 32 
39(-1)->1 2 8 12 16 17 24 26 27 28 37 40 
40(-1)->1 12 16 19 20 22 28 35 39 
-------
Node 1 maps to position 0
Node 2 maps to position 1
Node 3 maps to position 2
Node 5 maps to position 3
Node 25 maps to position 4
Node 4 maps to position 5
Node 6 maps to position 6
Node 15 maps to position 7
Node 7 maps to position 8
Node 12 maps to position 9
Node 10 maps to position 10
Node 20 maps to position 11
Node 13 maps to position 12
Node 32 maps to position 13
Node 26 maps to position 14
Node 24 maps to position 15
Node 37 maps to position 16
Node 19 maps to position 17
Node 17 maps to position 18
Node 22 maps to position 19
Node 28 maps to position 20
Node 27 maps to position 21
Node 38 maps to position 22
Node 30 maps to position 23
Node 34 maps to position 24
Node 9 maps to position 25
Node 35 maps to position 26
Node 8 maps to position 27
Node 39 maps to position 28
Node 16 maps to position 29
Node 18 maps to position 30
Node 33 maps to position 31
Node 11 maps to position 32
Node 31 maps to position 33
Node 14 maps to position 34
Node 29 maps to position 35
Node 36 maps to position 36
Node 40 maps to position 37
Node 21 maps to position 38
Node 23 maps to position 39
1(-1)->2 3 4 5 6 7 8 9 10 11 12 13 14 15 16 17 18 19 20 21 22 23 24 25 26 27 28 29 30 31 32 33 34 35 36 37 38 39 40 
2(-1)->1 3 4 5 6 7 8 9 10 11 12 13 14 15 17 19 20 22 25 26 28 29 30 31 32 35 36 37 38 39 
3(-1)->1 2 4 5 6 7 8 9 10 11 13 16 17 28 29 32 33 34 37 38 
5(-1)->1 2 3 4 6 7 9 13 16 18 22 23 25 27 30 34 37 
25(-1)->1 2 4 5 6 13 14 15 18 19 20 23 24 26 30 31 37 
4(-1)->1 2 3 5 6 7 8 9 10 11 13 14 19 25 27 31 
6(-1)->1 2 3 4 5 15 16 17 21 25 29 32 33 34 36 37 
15(-1)->1 2 6 7 10 13 14 16 19 21 24 25 29 32 34 38 
7(-1)->1 2 3 4 5 10 11 12 15 17 24 26 30 31 34 36 
12(-1)->1 2 7 10 11 17 18 19 20 22 27 32 34 36 37 38 39 40 
10(-1)->1 2 3 4 7 12 14 15 17 19 20 24 32 33 37 
20(-1)->1 2 10 12 13 14 22 23 25 30 33 36 37 38 40 
13(-1)->1 2 3 4 5 8 14 15 17 18 20 22 25 31 32 33 
32(-1)->1 2 3 6 10 12 13 15 21 24 26 27 34 35 38 
26(-1)->1 2 7 14 16 18 24 25 29 32 33 34 36 38 39 
24(-1)->1 7 10 11 15 18 23 25 26 30 32 34 37 39 
37(-1)->1 2 3 5 6 10 12 14 19 20 21 24 25 30 39 
19(-1)->1 2 4 10 12 15 16 17 25 33 36 37 38 40 
17(-1)->1 2 3 6 7 10 11 12 13 19 22 27 33 39 
22(-1)->1 2 5 12 13 14 17 20 21 23 28 36 40 
28(-1)->1 2 3 9 18 22 27 29 31 35 39 40 
27(-1)->1 4 5 11 12 17 18 28 29 31 32 38 39 
38(-1)->1 2 3 9 11 12 15 19 20 26 27 30 32 
30(-1)->1 2 5 7 8 16 20 24 25 29 34 37 38 
34(-1)->1 3 5 6 7 9 12 15 24 26 30 32 
9(-1)->1 2 3 4 5 28 34 35 38 
35(-1)->1 2 8 9 21 28 32 40 
8(-1)->1 2 3 4 13 21 30 31 35 39 
39(-1)->1 2 8 12 16 17 24 26 27 28 37 40 
16(-1)->1 3 5 6 15 18 19 26 30 39 40 
18(-1)->1 5 12 13 16 24 25 26 27 28 33 
33(-1)->1 3 6 10 13 17 18 19 20 26 
11(-1)->1 2 3 4 7 12 17 23 24 27 31 38 
31(-1)->1 2 4 7 8 11 13 25 27 28 
14(-1)->1 2 4 10 13 15 20 22 25 26 37 
29(-1)->1 2 3 6 15 26 27 28 30 
36(-1)->1 2 6 7 12 19 20 22 26 
40(-1)->1 12 16 19 20 22 28 35 39 
21(-1)->1 6 8 15 22 32 35 37 
23(-1)->1 5 11 20 22 24 25 
-------
BLAH
START TIME: 1433711245
10000
20000
30000
40000
1(0)->2 3 4 5 6 7 8 9 10 11 12 13 14 15 16 17 18 19 20 21 22 23 24 25 26 27 28 29 30 31 32 33 34 35 36 37 38 39 40 
2(1)->1 3 4 5 6 7 8 9 10 11 12 13 14 15 17 19 20 22 25 26 28 29 30 31 32 35 36 37 38 39 
3(2)->1 2 4 5 6 7 8 9 10 11 13 16 17 28 29 32 33 34 37 38 
4(5)->1 2 3 5 6 7 8 9 10 11 13 14 19 25 27 31 
5(3)->1 2 3 4 6 7 9 13 16 18 22 23 25 27 30 34 37 
6(6)->1 2 3 4 5 15 16 17 21 25 29 32 33 34 36 37 
7(6)->1 2 3 4 5 10 11 12 15 17 24 26 30 31 34 36 
8(3)->1 2 3 4 13 21 30 31 35 39 
9(6)->1 2 3 4 5 28 34 35 38 
10(4)->1 2 3 4 7 12 14 15 17 19 20 24 32 33 37 
11(3)->1 2 3 4 7 12 17 23 24 27 31 38 
12(2)->1 2 7 10 11 17 18 19 20 22 27 32 34 36 37 38 39 40 
13(6)->1 2 3 4 5 8 14 15 17 18 20 22 25 31 32 33 
14(2)->1 2 4 10 13 15 20 22 25 26 37 
15(3)->1 2 6 7 10 13 14 16 19 21 24 25 29 32 34 38 
16(1)->1 3 5 6 15 18 19 26 30 39 40 
17(5)->1 2 3 6 7 10 11 12 13 19 22 27 33 39 
18(5)->1 5 12 13 16 24 25 26 27 28 33 
19(6)->1 2 4 10 12 15 16 17 25 33 36 37 38 40 
20(3)->1 2 10 12 13 14 22 23 25 30 33 36 37 38 40 
21(1)->1 6 8 15 22 32 35 37 
22(4)->1 2 5 12 13 14 17 20 21 23 28 36 40 
23(2)->1 5 11 20 22 24 25 
24(1)->1 7 10 11 15 18 23 25 26 30 32 34 37 39 
25(4)->1 2 4 5 6 13 14 15 18 19 20 23 24 26 30 31 37 
26(3)->1 2 7 14 16 18 24 25 29 32 33 34 36 38 39 
27(1)->1 4 5 11 12 17 18 28 29 31 32 38 39 
28(3)->1 2 3 9 18 22 27 29 31 35 39 40 
29(4)->1 2 3 6 15 26 27 28 30 
30(2)->1 2 5 7 8 16 20 24 25 29 34 37 38 
31(2)->1 2 4 7 8 11 13 25 27 28 
32(5)->1 2 3 6 10 12 13 15 21 24 26 27 34 35 38 
33(1)->1 3 6 10 13 17 18 19 20 26 
34(4)->1 3 5 6 7 9 12 15 24 26 30 32 
35(2)->1 2 8 9 21 28 32 40 
36(5)->1 2 6 7 12 19 20 22 26 
37(5)->1 2 3 5 6 10 12 14 19 20 21 24 25 30 39 
38(4)->1 2 3 9 11 12 15 19 20 26 27 30 32 
39(4)->1 2 8 12 16 17 24 26 27 28 37 40 
40(5)->1 12 16 19 20 22 28 35 39 
COUNT: 40202
COLORS: 7
EDGES: 280
7
40202
