1: 2 3 4 5 6 7 8 9 10 11 12 13 14 15 16 17 18 19 20 21 22 23 24 25 26 27 28 29 30 31 32 33 34 35 36 37 38 39
2: 1 3 4 5 6 7 8 9 10 11 12 14 15 16 17 18 19 20 21 22 23 27 29 31 32 34 35 39 40
3: 32 1 2 35 4 6 38 7 40 9 10 11 5 14 21 22 27 28 29 30 31
4: 1 34 35 5 6 7 10 2 16 18 3 26 27
5: 1 34 3 4 38 6 7 40 9 11 2 15 18 19 23 26
6: 1 34 3 4 5 7 40 10 11 2 14 15 8 21 22 25 27 39 37
7: 1 34 3 4 5 6 39 9 11 13 18 19 20 2 29 31
8: 32 1 2 36 6 9 10 13 18 19 21 24
9: 1 34 3 5 38 7 8 10 39 2 14 21 24 30
10: 1 2 3 36 6 39 8 9 12 13 20 21 22 23 24 4
11: 33 2 3 5 38 1 7 12 14 15 17 18 24 39 6 28 30
12: 33 2 35 37 1 10 11 17 19 28 30 31
13: 33 34 36 7 8 10 15 19 1 24 30
14: 1 34 3 6 33 9 11 2 16 17 19 21
15: 1 2 36 5 6 39 11 13 16 19 22 23 26
16: 1 2 35 4 39 14 15 20 21 24 27
17: 1 34 37 38 11 12 2 14 31
18: 33 2 35 4 37 39 8 7 11 1 23 28 5
19: 1 2 5 7 8 12 13 14 15 20 21 22 24 27
20: 1 34 38 7 10 2 16 19 28 31
21: 1 34 3 6 33 8 9 10 2 14 16 19 22 25 28 31
22: 32 1 2 3 36 38 6 39 40 10 15 19 21 24
23: 32 1 2 5 38 10 15 18 26 29 30 31
24: 1 36 37 8 9 10 11 13 16 40 19 22 28
25: 1 31 21 6 37
26: 33 36 5 38 39 40 15 1 23 4 28 29
27: 32 35 2 3 4 6 1 40 16 19 28 31
28: 32 1 3 36 39 40 11 12 18 35 20 21 24 26 27
29: 1 2 3 36 38 7 23 26
30: 32 33 3 1 40 9 11 12 13 23
31: 1 2 3 7 12 17 20 21 23 25 27
32: 1 2 35 36 37 39 8 3 22 23 27 28 30
33: 1 34 35 37 39 40 11 12 13 14 18 21 26 30
34: 33 2 4 38 6 7 40 9 1 13 14 17 20 21 5
35: 32 33 2 3 4 1 12 16 18 27 28
36: 32 1 39 8 10 13 15 22 24 26 28 29
37: 32 33 6 1 12 17 18 24 25
38: 1 34 3 5 40 9 11 17 20 22 23 26 29
39: 32 1 2 36 33 6 7 9 10 11 15 16 18 22 26 28
40: 33 34 3 5 38 2 6 22 24 26 27 28 30
-------
1(-1)->2 3 4 5 6 7 8 9 10 11 12 13 14 15 16 17 18 19 20 21 22 23 24 25 26 27 28 29 30 31 32 33 34 35 36 37 38 39 
2(-1)->1 3 4 5 6 7 8 9 10 11 12 14 15 16 17 18 19 20 21 22 23 27 29 31 32 34 35 39 40 
3(-1)->1 2 4 5 6 7 9 10 11 14 21 22 27 28 29 30 31 32 35 38 40 
4(-1)->1 2 3 5 6 7 10 16 18 26 27 34 35 
5(-1)->1 2 3 4 6 7 9 11 15 18 19 23 26 34 38 40 
6(-1)->1 2 3 4 5 7 8 10 11 14 15 21 22 25 27 34 37 39 40 
7(-1)->1 2 3 4 5 6 9 11 13 18 19 20 29 31 34 39 
8(-1)->1 2 6 9 10 13 18 19 21 24 32 36 
9(-1)->1 2 3 5 7 8 10 14 21 24 30 34 38 39 
10(-1)->1 2 3 4 6 8 9 12 13 20 21 22 23 24 36 39 
11(-1)->1 2 3 5 6 7 12 14 15 17 18 24 28 30 33 38 39 
12(-1)->1 2 10 11 17 19 28 30 31 33 35 37 
13(-1)->1 7 8 10 15 19 24 30 33 34 36 
14(-1)->1 2 3 6 9 11 16 17 19 21 33 34 
15(-1)->1 2 5 6 11 13 16 19 22 23 26 36 39 
16(-1)->1 2 4 14 15 20 21 24 27 35 39 
17(-1)->1 2 11 12 14 31 34 37 38 
18(-1)->1 2 4 5 7 8 11 23 28 33 35 37 39 
19(-1)->1 2 5 7 8 12 13 14 15 20 21 22 24 27 
20(-1)->1 2 7 10 16 19 28 31 34 38 
21(-1)->1 2 3 6 8 9 10 14 16 19 22 25 28 31 33 34 
22(-1)->1 2 3 6 10 15 19 21 24 32 36 38 39 40 
23(-1)->1 2 5 10 15 18 26 29 30 31 32 38 
24(-1)->1 8 9 10 11 13 16 19 22 28 36 37 40 
25(-1)->1 6 21 31 37 
26(-1)->1 4 5 15 23 28 29 33 36 38 39 40 
27(-1)->1 2 3 4 6 16 19 28 31 32 35 40 
28(-1)->1 3 11 12 18 20 21 24 26 27 32 35 36 39 40 
29(-1)->1 2 3 7 23 26 36 38 
30(-1)->1 3 9 11 12 13 23 32 33 40 
31(-1)->1 2 3 7 12 17 20 21 23 25 27 
32(-1)->1 2 3 8 22 23 27 28 30 35 36 37 39 
33(-1)->1 11 12 13 14 18 21 26 30 34 35 37 39 40 
34(-1)->1 2 4 5 6 7 9 13 14 17 20 21 33 38 40 
35(-1)->1 2 3 4 12 16 18 27 28 32 33 
36(-1)->1 8 10 13 15 22 24 26 28 29 32 39 
37(-1)->1 6 12 17 18 24 25 32 33 
38(-1)->1 3 5 9 11 17 20 22 23 26 29 34 40 
39(-1)->1 2 6 7 9 10 11 15 16 18 22 26 28 32 33 36 
40(-1)->2 3 5 6 22 24 26 27 28 30 33 34 38 
-------
Node 1 maps to position 0
Node 2 maps to position 1
Node 3 maps to position 2
Node 6 maps to position 3
Node 11 maps to position 4
Node 5 maps to position 5
Node 7 maps to position 6
Node 39 maps to position 7
Node 10 maps to position 8
Node 21 maps to position 9
Node 28 maps to position 10
Node 18 maps to position 11
Node 33 maps to position 12
Node 34 maps to position 13
Node 9 maps to position 14
Node 24 maps to position 15
Node 19 maps to position 16
Node 22 maps to position 17
Node 15 maps to position 18
Node 23 maps to position 19
Node 32 maps to position 20
Node 8 maps to position 21
Node 36 maps to position 22
Node 26 maps to position 23
Node 4 maps to position 24
Node 27 maps to position 25
Node 40 maps to position 26
Node 38 maps to position 27
Node 20 maps to position 28
Node 16 maps to position 29
Node 14 maps to position 30
Node 17 maps to position 31
Node 12 maps to position 32
Node 31 maps to position 33
Node 25 maps to position 34
Node 37 maps to position 35
Node 13 maps to position 36
Node 30 maps to position 37
Node 35 maps to position 38
Node 29 maps to position 39
1(-1)->2 3 4 5 6 7 8 9 10 11 12 13 14 15 16 17 18 19 20 21 22 23 24 25 26 27 28 29 30 31 32 33 34 35 36 37 38 39 
2(-1)->1 3 4 5 6 7 8 9 10 11 12 14 15 16 17 18 19 20 21 22 23 27 29 31 32 34 35 39 40 
3(-1)->1 2 4 5 6 7 9 10 11 14 21 22 27 28 29 30 31 32 35 38 40 
6(-1)->1 2 3 4 5 7 8 10 11 14 15 21 22 25 27 34 37 39 40 
11(-1)->1 2 3 5 6 7 12 14 15 17 18 24 28 30 33 38 39 
5(-1)->1 2 3 4 6 7 9 11 15 18 19 23 26 34 38 40 
7(-1)->1 2 3 4 5 6 9 11 13 18 19 20 29 31 34 39 
39(-1)->1 2 6 7 9 10 11 15 16 18 22 26 28 32 33 36 
10(-1)->1 2 3 4 6 8 9 12 13 20 21 22 23 24 36 39 
21(-1)->1 2 3 6 8 9 10 14 16 19 22 25 28 31 33 34 
28(-1)->1 3 11 12 18 20 21 24 26 27 32 35 36 39 40 
18(-1)->1 2 4 5 7 8 11 23 28 33 35 37 39 
33(-1)->1 11 12 13 14 18 21 26 30 34 35 37 39 40 
34(-1)->1 2 4 5 6 7 9 13 14 17 20 21 33 38 40 
9(-1)->1 2 3 5 7 8 10 14 21 24 30 34 38 39 
24(-1)->1 8 9 10 11 13 16 19 22 28 36 37 40 
19(-1)->1 2 5 7 8 12 13 14 15 20 21 22 24 27 
22(-1)->1 2 3 6 10 15 19 21 24 32 36 38 39 40 
15(-1)->1 2 5 6 11 13 16 19 22 23 26 36 39 
23(-1)->1 2 5 10 15 18 26 29 30 31 32 38 
32(-1)->1 2 3 8 22 23 27 28 30 35 36 37 39 
8(-1)->1 2 6 9 10 13 18 19 21 24 32 36 
36(-1)->1 8 10 13 15 22 24 26 28 29 32 39 
26(-1)->1 4 5 15 23 28 29 33 36 38 39 40 
4(-1)->1 2 3 5 6 7 10 16 18 26 27 34 35 
27(-1)->1 2 3 4 6 16 19 28 31 32 35 40 
40(-1)->2 3 5 6 22 24 26 27 28 30 33 34 38 
38(-1)->1 3 5 9 11 17 20 22 23 26 29 34 40 
20(-1)->1 2 7 10 16 19 28 31 34 38 
16(-1)->1 2 4 14 15 20 21 24 27 35 39 
14(-1)->1 2 3 6 9 11 16 17 19 21 33 34 
17(-1)->1 2 11 12 14 31 34 37 38 
12(-1)->1 2 10 11 17 19 28 30 31 33 35 37 
31(-1)->1 2 3 7 12 17 20 21 23 25 27 
25(-1)->1 6 21 31 37 
37(-1)->1 6 12 17 18 24 25 32 33 
13(-1)->1 7 8 10 15 19 24 30 33 34 36 
30(-1)->1 3 9 11 12 13 23 32 33 40 
35(-1)->1 2 3 4 12 16 18 27 28 32 33 
29(-1)->1 2 3 7 23 26 36 38 
-------
BLAH
START TIME: 1433711246
10000
20000
30000
40000
50000
60000
70000
80000
90000
100000
110000
120000
130000
1(0)->2 3 4 5 6 7 8 9 10 11 12 13 14 15 16 17 18 19 20 21 22 23 24 25 26 27 28 29 30 31 32 33 34 35 36 37 38 39 
2(1)->1 3 4 5 6 7 8 9 10 11 12 14 15 16 17 18 19 20 21 22 23 27 29 31 32 34 35 39 40 
3(2)->1 2 4 5 6 7 9 10 11 14 21 22 27 28 29 30 31 32 35 38 40 
4(4)->1 2 3 5 6 7 10 16 18 26 27 34 35 
5(5)->1 2 3 4 6 7 9 11 15 18 19 23 26 34 38 40 
6(3)->1 2 3 4 5 7 8 10 11 14 15 21 22 25 27 34 37 39 40 
7(6)->1 2 3 4 5 6 9 11 13 18 19 20 29 31 34 39 
8(5)->1 2 6 9 10 13 18 19 21 24 32 36 
9(3)->1 2 3 5 7 8 10 14 21 24 30 34 38 39 
10(6)->1 2 3 4 6 8 9 12 13 20 21 22 23 24 36 39 
11(4)->1 2 3 5 6 7 12 14 15 17 18 24 28 30 33 38 39 
12(2)->1 2 10 11 17 19 28 30 31 33 35 37 
13(1)->1 7 8 10 15 19 24 30 33 34 36 
14(6)->1 2 3 6 9 11 16 17 19 21 33 34 
15(6)->1 2 5 6 11 13 16 19 22 23 26 36 39 
16(3)->1 2 4 14 15 20 21 24 27 35 39 
17(5)->1 2 11 12 14 31 34 37 38 
18(3)->1 2 4 5 7 8 11 23 28 33 35 37 39 
19(3)->1 2 5 7 8 12 13 14 15 20 21 22 24 27 
20(4)->1 2 7 10 16 19 28 31 34 38 
21(4)->1 2 3 6 8 9 10 14 16 19 22 25 28 31 33 34 
22(5)->1 2 3 6 10 15 19 21 24 32 36 38 39 40 
23(2)->1 2 5 10 15 18 26 29 30 31 32 38 
24(2)->1 8 9 10 11 13 16 19 22 28 36 37 40 
25(1)->1 6 21 31 37 
26(3)->1 4 5 15 23 28 29 33 36 38 39 40 
27(5)->1 2 3 4 6 16 19 28 31 32 35 40 
28(1)->1 3 11 12 18 20 21 24 26 27 32 35 36 39 40 
29(5)->1 2 3 7 23 26 36 38 
30(6)->1 3 9 11 12 13 23 32 33 40 
31(3)->1 2 3 7 12 17 20 21 23 25 27 
32(3)->1 2 3 8 22 23 27 28 30 35 36 37 39 
33(5)->1 11 12 13 14 18 21 26 30 34 35 37 39 40 
34(2)->1 2 4 5 6 7 9 13 14 17 20 21 33 38 40 
35(6)->1 2 3 4 12 16 18 27 28 32 33 
36(4)->1 8 10 13 15 22 24 26 28 29 32 39 
37(4)->1 6 12 17 18 24 25 32 33 
38(1)->1 3 5 9 11 17 20 22 23 26 29 34 40 
39(2)->1 2 6 7 9 10 11 15 16 18 22 26 28 32 33 36 
40(0)->2 3 5 6 22 24 26 27 28 30 33 34 38 
COUNT: 135920
COLORS: 7
EDGES: 280
7
135920
