1: 2 3 4 5 6 7 8 9 10 11 12 13 14 15 16 17 18 19 20 21 22 23 24 25 26 27 28 29 30 31 32 33 34 35 36 37 38 39
2: 1 3 4 5 6 7 8 9 10 11 12 13 14 15 16 17 18 19 20 21 22 23 24 25 26 27 28 30 32 34 35 36 37 38 39 40
3: 1 2 4 5 6 7 8 9 12 14 15 16 17 18 19 20 21 22 23 25 26 28 30 32 35 36 37 39 40
4: 1 2 3 5 6 7 8 9 10 12 15 16 17 19 20 21 22 23 26 27 28 29 31 36 37 38 39
5: 32 1 2 3 36 37 6 33 40 9 10 12 14 15 17 19 23 24 4 28 29
6: 1 2 35 4 37 7 9 11 12 14 15 17 3 23 24 25 26 27 28 30 5
7: 1 2 3 36 6 38 39 40 10 11 12 16 22 24 4 26 27 30 31
8: 32 1 34 3 36 33 39 9 12 2 18 21 23 25 26 29 4
9: 32 1 2 3 36 5 6 8 11 34 16 18 4 24 25 29 30
10: 32 33 2 4 5 39 11 13 14 1 7 25 29
11: 32 1 34 35 6 39 40 9 10 7 2 15 20 22 23 25 26 28
12: 32 33 34 3 4 5 6 1 8 7 2 17 19 20 29 35
13: 33 34 35 1 10 2 16 18 19 26 28 29
14: 32 1 34 35 36 5 38 10 2 6 17 3 22 26 28 30
15: 3 33 2 35 36 38 6 32 11 17 19 1 4 26 27 5 29 30 31
16: 33 2 3 1 38 7 9 39 13 17 20 4 25 26 30 31
17: 1 2 3 4 5 6 39 40 12 14 15 16 26 28 29
18: 1 2 3 38 8 9 13 40 21 25 30
19: 32 33 2 35 4 5 1 12 13 15 3 21 22 23 24 26 27 28 29 31
20: 33 2 3 36 37 38 1 11 12 16 22 24 25 26 4
21: 1 34 3 4 37 39 8 2 18 19 22 36 27 30 31
22: 33 2 3 36 37 38 7 1 11 14 19 20 21 25 24 4 26 27 28 30
23: 1 2 3 4 37 6 39 8 11 5 19 25 26 38 36 29 35
24: 1 34 36 5 38 7 40 9 2 19 20 22 25 6 27 31
25: 33 2 3 1 6 39 40 9 10 11 16 8 18 20 22 23 24 30
26: 32 1 2 3 4 6 7 8 11 13 14 15 16 17 19 20 22 23
27: 1 2 4 6 7 15 19 21 22 24 30
28: 35 2 3 36 33 6 1 39 13 14 11 17 19 22 4 38 5 29 31
29: 32 1 35 4 5 38 39 8 9 10 12 13 15 17 19 23 28 31
30: 1 2 3 6 7 40 9 39 14 15 16 18 21 22 25 27
31: 33 35 4 37 7 1 15 16 19 21 24 36 28 29
32: 35 2 3 5 1 40 9 10 11 12 14 15 8 19 26 29 37
33: 1 5 40 10 12 13 15 16 8 19 20 22 25 28 31
34: 1 2 38 40 9 11 12 13 14 8 21 24
35: 32 1 2 3 6 11 12 13 14 15 19 23 28 29 31
36: 1 2 3 4 37 38 7 8 28 14 15 20 21 22 23 24 9 5 31
37: 32 1 2 3 36 5 38 39 20 21 22 23 4 6 31
38: 1 2 4 37 7 40 34 14 15 16 18 20 22 23 24 36 28 29
39: 1 2 3 4 37 7 8 10 11 16 17 21 23 25 28 29 30
40: 32 33 2 3 5 38 7 11 34 17 18 24 25 30
-------
1(-1)->2 3 4 5 6 7 8 9 10 11 12 13 14 15 16 17 18 19 20 21 22 23 24 25 26 27 28 29 30 31 32 33 34 35 36 37 38 39 
2(-1)->1 3 4 5 6 7 8 9 10 11 12 13 14 15 16 17 18 19 20 21 22 23 24 25 26 27 28 30 32 34 35 36 37 38 39 40 
3(-1)->1 2 4 5 6 7 8 9 12 14 15 16 17 18 19 20 21 22 23 25 26 28 30 32 35 36 37 39 40 
4(-1)->1 2 3 5 6 7 8 9 10 12 15 16 17 19 20 21 22 23 26 27 28 29 31 36 37 38 39 
5(-1)->1 2 3 4 6 9 10 12 14 15 17 19 23 24 28 29 32 33 36 37 40 
6(-1)->1 2 3 4 5 7 9 11 12 14 15 17 23 24 25 26 27 28 30 35 37 
7(-1)->1 2 3 4 6 10 11 12 16 22 24 26 27 30 31 36 38 39 40 
8(-1)->1 2 3 4 9 12 18 21 23 25 26 29 32 33 34 36 39 
9(-1)->1 2 3 4 5 6 8 11 16 18 24 25 29 30 32 34 36 
10(-1)->1 2 4 5 7 11 13 14 25 29 32 33 39 
11(-1)->1 2 6 7 9 10 15 20 22 23 25 26 28 32 34 35 39 40 
12(-1)->1 2 3 4 5 6 7 8 17 19 20 29 32 33 34 35 
13(-1)->1 2 10 16 18 19 26 28 29 33 34 35 
14(-1)->1 2 3 5 6 10 17 22 26 28 30 32 34 35 36 38 
15(-1)->1 2 3 4 5 6 11 17 19 26 27 29 30 31 32 33 35 36 38 
16(-1)->1 2 3 4 7 9 13 17 20 25 26 30 31 33 38 39 
17(-1)->1 2 3 4 5 6 12 14 15 16 26 28 29 39 40 
18(-1)->1 2 3 8 9 13 21 25 30 38 40 
19(-1)->1 2 3 4 5 12 13 15 21 22 23 24 26 27 28 29 31 32 33 35 
20(-1)->1 2 3 4 11 12 16 22 24 25 26 33 36 37 38 
21(-1)->1 2 3 4 8 18 19 22 27 30 31 34 36 37 39 
22(-1)->1 2 3 4 7 11 14 19 20 21 24 25 26 27 28 30 33 36 37 38 
23(-1)->1 2 3 4 5 6 8 11 19 25 26 29 35 36 37 38 39 
24(-1)->1 2 5 6 7 9 19 20 22 25 27 31 34 36 38 40 
25(-1)->1 2 3 6 8 9 10 11 16 18 20 22 23 24 30 33 39 40 
26(-1)->1 2 3 4 6 7 8 11 13 14 15 16 17 19 20 22 23 32 
27(-1)->1 2 4 6 7 15 19 21 22 24 30 
28(-1)->1 2 3 4 5 6 11 13 14 17 19 22 29 31 33 35 36 38 39 
29(-1)->1 4 5 8 9 10 12 13 15 17 19 23 28 31 32 35 38 39 
30(-1)->1 2 3 6 7 9 14 15 16 18 21 22 25 27 39 40 
31(-1)->1 4 7 15 16 19 21 24 28 29 33 35 36 37 
32(-1)->1 2 3 5 8 9 10 11 12 14 15 19 26 29 35 37 40 
33(-1)->1 5 8 10 12 13 15 16 19 20 22 25 28 31 40 
34(-1)->1 2 8 9 11 12 13 14 21 24 38 40 
35(-1)->1 2 3 6 11 12 13 14 15 19 23 28 29 31 32 
36(-1)->1 2 3 4 5 7 8 9 14 15 20 21 22 23 24 28 31 37 38 
37(-1)->1 2 3 4 5 6 20 21 22 23 31 32 36 38 39 
38(-1)->1 2 4 7 14 15 16 18 20 22 23 24 28 29 34 36 37 40 
39(-1)->1 2 3 4 7 8 10 11 16 17 21 23 25 28 29 30 37 
40(-1)->2 3 5 7 11 17 18 24 25 30 32 33 34 38 
-------
Node 1 maps to position 0
Node 2 maps to position 1
Node 3 maps to position 2
Node 4 maps to position 3
Node 5 maps to position 4
Node 6 maps to position 5
Node 7 maps to position 6
Node 22 maps to position 7
Node 19 maps to position 8
Node 15 maps to position 9
Node 36 maps to position 10
Node 28 maps to position 11
Node 11 maps to position 12
Node 25 maps to position 13
Node 8 maps to position 14
Node 26 maps to position 15
Node 23 maps to position 16
Node 29 maps to position 17
Node 38 maps to position 18
Node 14 maps to position 19
Node 32 maps to position 20
Node 9 maps to position 21
Node 16 maps to position 22
Node 39 maps to position 23
Node 30 maps to position 24
Node 21 maps to position 25
Node 37 maps to position 26
Node 20 maps to position 27
Node 12 maps to position 28
Node 17 maps to position 29
Node 40 maps to position 30
Node 24 maps to position 31
Node 31 maps to position 32
Node 33 maps to position 33
Node 10 maps to position 34
Node 13 maps to position 35
Node 35 maps to position 36
Node 34 maps to position 37
Node 18 maps to position 38
Node 27 maps to position 39
1(-1)->2 3 4 5 6 7 8 9 10 11 12 13 14 15 16 17 18 19 20 21 22 23 24 25 26 27 28 29 30 31 32 33 34 35 36 37 38 39 
2(-1)->1 3 4 5 6 7 8 9 10 11 12 13 14 15 16 17 18 19 20 21 22 23 24 25 26 27 28 30 32 34 35 36 37 38 39 40 
3(-1)->1 2 4 5 6 7 8 9 12 14 15 16 17 18 19 20 21 22 23 25 26 28 30 32 35 36 37 39 40 
4(-1)->1 2 3 5 6 7 8 9 10 12 15 16 17 19 20 21 22 23 26 27 28 29 31 36 37 38 39 
5(-1)->1 2 3 4 6 9 10 12 14 15 17 19 23 24 28 29 32 33 36 37 40 
6(-1)->1 2 3 4 5 7 9 11 12 14 15 17 23 24 25 26 27 28 30 35 37 
7(-1)->1 2 3 4 6 10 11 12 16 22 24 26 27 30 31 36 38 39 40 
22(-1)->1 2 3 4 7 11 14 19 20 21 24 25 26 27 28 30 33 36 37 38 
19(-1)->1 2 3 4 5 12 13 15 21 22 23 24 26 27 28 29 31 32 33 35 
15(-1)->1 2 3 4 5 6 11 17 19 26 27 29 30 31 32 33 35 36 38 
36(-1)->1 2 3 4 5 7 8 9 14 15 20 21 22 23 24 28 31 37 38 
28(-1)->1 2 3 4 5 6 11 13 14 17 19 22 29 31 33 35 36 38 39 
11(-1)->1 2 6 7 9 10 15 20 22 23 25 26 28 32 34 35 39 40 
25(-1)->1 2 3 6 8 9 10 11 16 18 20 22 23 24 30 33 39 40 
8(-1)->1 2 3 4 9 12 18 21 23 25 26 29 32 33 34 36 39 
26(-1)->1 2 3 4 6 7 8 11 13 14 15 16 17 19 20 22 23 32 
23(-1)->1 2 3 4 5 6 8 11 19 25 26 29 35 36 37 38 39 
29(-1)->1 4 5 8 9 10 12 13 15 17 19 23 28 31 32 35 38 39 
38(-1)->1 2 4 7 14 15 16 18 20 22 23 24 28 29 34 36 37 40 
14(-1)->1 2 3 5 6 10 17 22 26 28 30 32 34 35 36 38 
32(-1)->1 2 3 5 8 9 10 11 12 14 15 19 26 29 35 37 40 
9(-1)->1 2 3 4 5 6 8 11 16 18 24 25 29 30 32 34 36 
16(-1)->1 2 3 4 7 9 13 17 20 25 26 30 31 33 38 39 
39(-1)->1 2 3 4 7 8 10 11 16 17 21 23 25 28 29 30 37 
30(-1)->1 2 3 6 7 9 14 15 16 18 21 22 25 27 39 40 
21(-1)->1 2 3 4 8 18 19 22 27 30 31 34 36 37 39 
37(-1)->1 2 3 4 5 6 20 21 22 23 31 32 36 38 39 
20(-1)->1 2 3 4 11 12 16 22 24 25 26 33 36 37 38 
12(-1)->1 2 3 4 5 6 7 8 17 19 20 29 32 33 34 35 
17(-1)->1 2 3 4 5 6 12 14 15 16 26 28 29 39 40 
40(-1)->2 3 5 7 11 17 18 24 25 30 32 33 34 38 
24(-1)->1 2 5 6 7 9 19 20 22 25 27 31 34 36 38 40 
31(-1)->1 4 7 15 16 19 21 24 28 29 33 35 36 37 
33(-1)->1 5 8 10 12 13 15 16 19 20 22 25 28 31 40 
10(-1)->1 2 4 5 7 11 13 14 25 29 32 33 39 
13(-1)->1 2 10 16 18 19 26 28 29 33 34 35 
35(-1)->1 2 3 6 11 12 13 14 15 19 23 28 29 31 32 
34(-1)->1 2 8 9 11 12 13 14 21 24 38 40 
18(-1)->1 2 3 8 9 13 21 25 30 38 40 
27(-1)->1 2 4 6 7 15 19 21 22 24 30 
-------
BLAH
START TIME: 1433711255
1(0)->2 3 4 5 6 7 8 9 10 11 12 13 14 15 16 17 18 19 20 21 22 23 24 25 26 27 28 29 30 31 32 33 34 35 36 37 38 39 
2(1)->1 3 4 5 6 7 8 9 10 11 12 13 14 15 16 17 18 19 20 21 22 23 24 25 26 27 28 30 32 34 35 36 37 38 39 40 
3(2)->1 2 4 5 6 7 8 9 12 14 15 16 17 18 19 20 21 22 23 25 26 28 30 32 35 36 37 39 40 
4(3)->1 2 3 5 6 7 8 9 10 12 15 16 17 19 20 21 22 23 26 27 28 29 31 36 37 38 39 
5(4)->1 2 3 4 6 9 10 12 14 15 17 19 23 24 28 29 32 33 36 37 40 
6(5)->1 2 3 4 5 7 9 11 12 14 15 17 23 24 25 26 27 28 30 35 37 
7(4)->1 2 3 4 6 10 11 12 16 22 24 26 27 30 31 36 38 39 40 
8(4)->1 2 3 4 9 12 18 21 23 25 26 29 32 33 34 36 39 
9(8)->1 2 3 4 5 6 8 11 16 18 24 25 29 30 32 34 36 
10(6)->1 2 4 5 7 11 13 14 25 29 32 33 39 
11(2)->1 2 6 7 9 10 15 20 22 23 25 26 28 32 34 35 39 40 
12(7)->1 2 3 4 5 6 7 8 17 19 20 29 32 33 34 35 
13(2)->1 2 10 16 18 19 26 28 29 33 34 35 
14(3)->1 2 3 5 6 10 17 22 26 28 30 32 34 35 36 38 
15(7)->1 2 3 4 5 6 11 17 19 26 27 29 30 31 32 33 35 36 38 
16(7)->1 2 3 4 7 9 13 17 20 25 26 30 31 33 38 39 
17(6)->1 2 3 4 5 6 12 14 15 16 26 28 29 39 40 
18(5)->1 2 3 8 9 13 21 25 30 38 40 
19(6)->1 2 3 4 5 12 13 15 21 22 23 24 26 27 28 29 31 32 33 35 
20(4)->1 2 3 4 11 12 16 22 24 25 26 33 36 37 38 
21(7)->1 2 3 4 8 18 19 22 27 30 31 34 36 37 39 
22(5)->1 2 3 4 7 11 14 19 20 21 24 25 26 27 28 30 33 36 37 38 
23(7)->1 2 3 4 5 6 8 11 19 25 26 29 35 36 37 38 39 
24(7)->1 2 5 6 7 9 19 20 22 25 27 31 34 36 38 40 
25(3)->1 2 3 6 8 9 10 11 16 18 20 22 23 24 30 33 39 40 
26(8)->1 2 3 4 6 7 8 11 13 14 15 16 17 19 20 22 23 32 
27(2)->1 2 4 6 7 15 19 21 22 24 30 
28(7)->1 2 3 4 5 6 11 13 14 17 19 22 29 31 33 35 36 38 39 
29(1)->1 4 5 8 9 10 12 13 15 17 19 23 28 31 32 35 38 39 
30(6)->1 2 3 6 7 9 14 15 16 18 21 22 25 27 39 40 
31(2)->1 4 7 15 16 19 21 24 28 29 33 35 36 37 
32(5)->1 2 3 5 8 9 10 11 12 14 15 19 26 29 35 37 40 
33(1)->1 5 8 10 12 13 15 16 19 20 22 25 28 31 40 
34(5)->1 2 8 9 11 12 13 14 21 24 38 40 
35(4)->1 2 3 6 11 12 13 14 15 19 23 28 29 31 32 
36(6)->1 2 3 4 5 7 8 9 14 15 20 21 22 23 24 28 31 37 38 
37(8)->1 2 3 4 5 6 20 21 22 23 31 32 36 38 39 
38(2)->1 2 4 7 14 15 16 18 20 22 23 24 28 29 34 36 37 40 
39(5)->1 2 3 4 7 8 10 11 16 17 21 23 25 28 29 30 37 
40(0)->2 3 5 7 11 17 18 24 25 30 32 33 34 38 
COUNT: 925
COLORS: 9
EDGES: 360
9
925
