1: 2 3 4 5 6 7 8 9 10 11 12 13 14 15 16 17 18 19 20 21 22 23 24 25 26 27 28 29 30 31 32 33 34 35 36 37 38 39 40
2: 1 3 4 5 6 7 8 9 10 11 12 13 14 15 16 17 18 19 20 21 22 23 24 25 26 27 28 29 30 31 32 33 34 35 36 37 38 39
3: 1 2 4 5 6 7 8 9 10 11 12 13 14 17 18 20 21 22 25 26 27 28 29 30 31 32 33 34 36 37 39 40
4: 1 2 3 5 6 7 8 9 11 12 17 19 20 25 26 28 29 33 34 35 36 39 40
5: 1 2 3 4 6 7 8 9 10 11 12 13 17 19 20 22 25 26 27 28 31 36 37 39
6: 1 2 3 36 5 17 8 9 10 7 15 16 40 18 20 25 4 27 28 39 31
7: 32 1 2 35 4 5 6 39 40 13 16 17 18 3 21 25 26 36 31
8: 3 33 34 35 36 5 6 1 40 9 12 2 38 19 21 22 23 25 27 29 4
9: 19 1 2 3 36 33 38 39 8 10 17 35 4 6 5 31
10: 1 34 3 36 5 6 40 9 2 13 14 17 35 20 22 23 24
11: 1 2 35 4 37 38 39 3 21 26 5
12: 1 2 3 4 37 38 33 8 16 17 22 23 24 36 26 28 5
13: 32 1 34 35 36 37 38 7 10 2 14 15 18 3 22 23 25 26 29 5
14: 3 1 2 35 40 10 13 19 20 22 25 26 27 28
15: 32 1 2 36 37 6 39 40 13 18 22 24 25 29 30 31
16: 1 34 6 39 7 12 2 17 19 22 28
17: 32 1 2 3 4 5 38 39 40 9 10 7 12 16 21 22 24 6 31
18: 33 2 35 1 6 7 13 15 3 24
19: 1 2 4 37 8 9 14 16 22 5
20: 1 2 35 4 5 6 40 10 34 14 3 22 24 36 27 29
21: 1 2 3 36 7 8 11 17 22 31
22: 33 2 3 1 5 39 8 10 12 13 14 15 16 17 19 20 21 24 25 28 37
23: 1 2 36 37 38 8 10 12 13 26 28 29
24: 1 34 36 10 12 2 15 17 18 20 22 25 29
25: 32 33 34 35 4 5 6 7 8 2 13 14 15 3 1 22 24 27 28 31
26: 32 1 2 34 36 5 7 40 11 12 13 14 3 23 4 27
27: 1 2 35 36 37 6 39 8 34 14 3 20 25 26 28 5
28: 1 2 3 4 5 6 39 12 14 16 22 23 25 27 30
29: 32 1 2 3 36 37 40 13 15 8 20 23 24 4 30
30: 32 33 2 35 1 38 39 15 3 28 29
31: 1 2 35 36 5 6 39 9 7 34 15 17 3 21 25
32: 33 2 3 36 37 38 39 7 13 15 17 1 25 26 29 30
33: 32 1 34 3 4 37 8 9 12 2 18 22 25 30
34: 33 2 35 36 38 1 8 10 39 13 16 40 3 20 25 24 4 26 27 31
35: 1 34 4 38 7 8 9 10 11 13 14 18 20 2 25 27 30 31
36: 1 2 3 4 5 6 7 8 9 10 12 13 15 20 21 23 24 26 27 29 31 32 34 37 39 40
37: 32 33 2 3 36 5 38 1 40 11 12 13 15 19 22 23 27 29
38: 32 1 34 35 37 8 9 11 12 13 17 23 2 30
39: 32 1 34 3 36 5 6 7 9 11 2 15 16 17 22 4 27 28 30 31
40: 1 34 3 36 37 6 7 8 10 14 15 17 20 4 26 29
-------
1(-1)->2 3 4 5 6 7 8 9 10 11 12 13 14 15 16 17 18 19 20 21 22 23 24 25 26 27 28 29 30 31 32 33 34 35 36 37 38 39 40 
2(-1)->1 3 4 5 6 7 8 9 10 11 12 13 14 15 16 17 18 19 20 21 22 23 24 25 26 27 28 29 30 31 32 33 34 35 36 37 38 39 
3(-1)->1 2 4 5 6 7 8 9 10 11 12 13 14 17 18 20 21 22 25 26 27 28 29 30 31 32 33 34 36 37 39 40 
4(-1)->1 2 3 5 6 7 8 9 11 12 17 19 20 25 26 28 29 33 34 35 36 39 40 
5(-1)->1 2 3 4 6 7 8 9 10 11 12 13 17 19 20 22 25 26 27 28 31 36 37 39 
6(-1)->1 2 3 4 5 7 8 9 10 15 16 17 18 20 25 27 28 31 36 39 40 
7(-1)->1 2 3 4 5 6 13 16 17 18 21 25 26 31 32 35 36 39 40 
8(-1)->1 2 3 4 5 6 9 12 19 21 22 23 25 27 29 33 34 35 36 38 40 
9(-1)->1 2 3 4 5 6 8 10 17 19 31 33 35 36 38 39 
10(-1)->1 2 3 5 6 9 13 14 17 20 22 23 24 34 35 36 40 
11(-1)->1 2 3 4 5 21 26 35 37 38 39 
12(-1)->1 2 3 4 5 8 16 17 22 23 24 26 28 33 36 37 38 
13(-1)->1 2 3 5 7 10 14 15 18 22 23 25 26 29 32 34 35 36 37 38 
14(-1)->1 2 3 10 13 19 20 22 25 26 27 28 35 40 
15(-1)->1 2 6 13 18 22 24 25 29 30 31 32 36 37 39 40 
16(-1)->1 2 6 7 12 17 19 22 28 34 39 
17(-1)->1 2 3 4 5 6 7 9 10 12 16 21 22 24 31 32 38 39 40 
18(-1)->1 2 3 6 7 13 15 24 33 35 
19(-1)->1 2 4 5 8 9 14 16 22 37 
20(-1)->1 2 3 4 5 6 10 14 22 24 27 29 34 35 36 40 
21(-1)->1 2 3 7 8 11 17 22 31 36 
22(-1)->1 2 3 5 8 10 12 13 14 15 16 17 19 20 21 24 25 28 33 37 39 
23(-1)->1 2 8 10 12 13 26 28 29 36 37 38 
24(-1)->1 2 10 12 15 17 18 20 22 25 29 34 36 
25(-1)->1 2 3 4 5 6 7 8 13 14 15 22 24 27 28 31 32 33 34 35 
26(-1)->1 2 3 4 5 7 11 12 13 14 23 27 32 34 36 40 
27(-1)->1 2 3 5 6 8 14 20 25 26 28 34 35 36 37 39 
28(-1)->1 2 3 4 5 6 12 14 16 22 23 25 27 30 39 
29(-1)->1 2 3 4 8 13 15 20 23 24 30 32 36 37 40 
30(-1)->1 2 3 15 28 29 32 33 35 38 39 
31(-1)->1 2 3 5 6 7 9 15 17 21 25 34 35 36 39 
32(-1)->1 2 3 7 13 15 17 25 26 29 30 33 36 37 38 39 
33(-1)->1 2 3 4 8 9 12 18 22 25 30 32 34 37 
34(-1)->1 2 3 4 8 10 13 16 20 24 25 26 27 31 33 35 36 38 39 40 
35(-1)->1 2 4 7 8 9 10 11 13 14 18 20 25 27 30 31 34 38 
36(-1)->1 2 3 4 5 6 7 8 9 10 12 13 15 20 21 23 24 26 27 29 31 32 34 37 39 40 
37(-1)->1 2 3 5 11 12 13 15 19 22 23 27 29 32 33 36 38 40 
38(-1)->1 2 8 9 11 12 13 17 23 30 32 34 35 37 
39(-1)->1 2 3 4 5 6 7 9 11 15 16 17 22 27 28 30 31 32 34 36 
40(-1)->1 3 4 6 7 8 10 14 15 17 20 26 29 34 36 37 
-------
Node 1 maps to position 0
Node 2 maps to position 1
Node 3 maps to position 2
Node 36 maps to position 3
Node 5 maps to position 4
Node 4 maps to position 5
Node 6 maps to position 6
Node 8 maps to position 7
Node 22 maps to position 8
Node 13 maps to position 9
Node 25 maps to position 10
Node 34 maps to position 11
Node 39 maps to position 12
Node 7 maps to position 13
Node 17 maps to position 14
Node 10 maps to position 15
Node 35 maps to position 16
Node 9 maps to position 17
Node 31 maps to position 18
Node 15 maps to position 19
Node 37 maps to position 20
Node 12 maps to position 21
Node 26 maps to position 22
Node 27 maps to position 23
Node 20 maps to position 24
Node 40 maps to position 25
Node 29 maps to position 26
Node 32 maps to position 27
Node 33 maps to position 28
Node 30 maps to position 29
Node 28 maps to position 30
Node 14 maps to position 31
Node 19 maps to position 32
Node 16 maps to position 33
Node 38 maps to position 34
Node 23 maps to position 35
Node 24 maps to position 36
Node 18 maps to position 37
Node 11 maps to position 38
Node 21 maps to position 39
1(-1)->2 3 4 5 6 7 8 9 10 11 12 13 14 15 16 17 18 19 20 21 22 23 24 25 26 27 28 29 30 31 32 33 34 35 36 37 38 39 40 
2(-1)->1 3 4 5 6 7 8 9 10 11 12 13 14 15 16 17 18 19 20 21 22 23 24 25 26 27 28 29 30 31 32 33 34 35 36 37 38 39 
3(-1)->1 2 4 5 6 7 8 9 10 11 12 13 14 17 18 20 21 22 25 26 27 28 29 30 31 32 33 34 36 37 39 40 
36(-1)->1 2 3 4 5 6 7 8 9 10 12 13 15 20 21 23 24 26 27 29 31 32 34 37 39 40 
5(-1)->1 2 3 4 6 7 8 9 10 11 12 13 17 19 20 22 25 26 27 28 31 36 37 39 
4(-1)->1 2 3 5 6 7 8 9 11 12 17 19 20 25 26 28 29 33 34 35 36 39 40 
6(-1)->1 2 3 4 5 7 8 9 10 15 16 17 18 20 25 27 28 31 36 39 40 
8(-1)->1 2 3 4 5 6 9 12 19 21 22 23 25 27 29 33 34 35 36 38 40 
22(-1)->1 2 3 5 8 10 12 13 14 15 16 17 19 20 21 24 25 28 33 37 39 
13(-1)->1 2 3 5 7 10 14 15 18 22 23 25 26 29 32 34 35 36 37 38 
25(-1)->1 2 3 4 5 6 7 8 13 14 15 22 24 27 28 31 32 33 34 35 
34(-1)->1 2 3 4 8 10 13 16 20 24 25 26 27 31 33 35 36 38 39 40 
39(-1)->1 2 3 4 5 6 7 9 11 15 16 17 22 27 28 30 31 32 34 36 
7(-1)->1 2 3 4 5 6 13 16 17 18 21 25 26 31 32 35 36 39 40 
17(-1)->1 2 3 4 5 6 7 9 10 12 16 21 22 24 31 32 38 39 40 
10(-1)->1 2 3 5 6 9 13 14 17 20 22 23 24 34 35 36 40 
35(-1)->1 2 4 7 8 9 10 11 13 14 18 20 25 27 30 31 34 38 
9(-1)->1 2 3 4 5 6 8 10 17 19 31 33 35 36 38 39 
31(-1)->1 2 3 5 6 7 9 15 17 21 25 34 35 36 39 
15(-1)->1 2 6 13 18 22 24 25 29 30 31 32 36 37 39 40 
37(-1)->1 2 3 5 11 12 13 15 19 22 23 27 29 32 33 36 38 40 
12(-1)->1 2 3 4 5 8 16 17 22 23 24 26 28 33 36 37 38 
26(-1)->1 2 3 4 5 7 11 12 13 14 23 27 32 34 36 40 
27(-1)->1 2 3 5 6 8 14 20 25 26 28 34 35 36 37 39 
20(-1)->1 2 3 4 5 6 10 14 22 24 27 29 34 35 36 40 
40(-1)->1 3 4 6 7 8 10 14 15 17 20 26 29 34 36 37 
29(-1)->1 2 3 4 8 13 15 20 23 24 30 32 36 37 40 
32(-1)->1 2 3 7 13 15 17 25 26 29 30 33 36 37 38 39 
33(-1)->1 2 3 4 8 9 12 18 22 25 30 32 34 37 
30(-1)->1 2 3 15 28 29 32 33 35 38 39 
28(-1)->1 2 3 4 5 6 12 14 16 22 23 25 27 30 39 
14(-1)->1 2 3 10 13 19 20 22 25 26 27 28 35 40 
19(-1)->1 2 4 5 8 9 14 16 22 37 
16(-1)->1 2 6 7 12 17 19 22 28 34 39 
38(-1)->1 2 8 9 11 12 13 17 23 30 32 34 35 37 
23(-1)->1 2 8 10 12 13 26 28 29 36 37 38 
24(-1)->1 2 10 12 15 17 18 20 22 25 29 34 36 
18(-1)->1 2 3 6 7 13 15 24 33 35 
11(-1)->1 2 3 4 5 21 26 35 37 38 39 
21(-1)->1 2 3 7 8 11 17 22 31 36 
-------
BLAH
START TIME: 1433711254
1(0)->2 3 4 5 6 7 8 9 10 11 12 13 14 15 16 17 18 19 20 21 22 23 24 25 26 27 28 29 30 31 32 33 34 35 36 37 38 39 40 
2(1)->1 3 4 5 6 7 8 9 10 11 12 13 14 15 16 17 18 19 20 21 22 23 24 25 26 27 28 29 30 31 32 33 34 35 36 37 38 39 
3(2)->1 2 4 5 6 7 8 9 10 11 12 13 14 17 18 20 21 22 25 26 27 28 29 30 31 32 33 34 36 37 39 40 
4(5)->1 2 3 5 6 7 8 9 11 12 17 19 20 25 26 28 29 33 34 35 36 39 40 
5(4)->1 2 3 4 6 7 8 9 10 11 12 13 17 19 20 22 25 26 27 28 31 36 37 39 
6(6)->1 2 3 4 5 7 8 9 10 15 16 17 18 20 25 27 28 31 36 39 40 
7(9)->1 2 3 4 5 6 13 16 17 18 21 25 26 31 32 35 36 39 40 
8(7)->1 2 3 4 5 6 9 12 19 21 22 23 25 27 29 33 34 35 36 38 40 
9(9)->1 2 3 4 5 6 8 10 17 19 31 33 35 36 38 39 
10(8)->1 2 3 5 6 9 13 14 17 20 22 23 24 34 35 36 40 
11(3)->1 2 3 4 5 21 26 35 37 38 39 
12(8)->1 2 3 4 5 8 16 17 22 23 24 26 28 33 36 37 38 
13(5)->1 2 3 5 7 10 14 15 18 22 23 25 26 29 32 34 35 36 37 38 
14(4)->1 2 3 10 13 19 20 22 25 26 27 28 35 40 
15(2)->1 2 6 13 18 22 24 25 29 30 31 32 36 37 39 40 
16(5)->1 2 6 7 12 17 19 22 28 34 39 
17(7)->1 2 3 4 5 6 7 9 10 12 16 21 22 24 31 32 38 39 40 
18(3)->1 2 3 6 7 13 15 24 33 35 
19(2)->1 2 4 5 8 9 14 16 22 37 
20(7)->1 2 3 4 5 6 10 14 22 24 27 29 34 35 36 40 
21(4)->1 2 3 7 8 11 17 22 31 36 
22(3)->1 2 3 5 8 10 12 13 14 15 16 17 19 20 21 24 25 28 33 37 39 
23(2)->1 2 8 10 12 13 26 28 29 36 37 38 
24(5)->1 2 10 12 15 17 18 20 22 25 29 34 36 
25(8)->1 2 3 4 5 6 7 8 13 14 15 22 24 27 28 31 32 33 34 35 
26(6)->1 2 3 4 5 7 11 12 13 14 23 27 32 34 36 40 
27(5)->1 2 3 5 6 8 14 20 25 26 28 34 35 36 37 39 
28(7)->1 2 3 4 5 6 12 14 16 22 23 25 27 30 39 
29(6)->1 2 3 4 8 13 15 20 23 24 30 32 36 37 40 
30(3)->1 2 3 15 28 29 32 33 35 38 39 
31(5)->1 2 3 5 6 7 9 15 17 21 25 34 35 36 39 
32(4)->1 2 3 7 13 15 17 25 26 29 30 33 36 37 38 39 
33(6)->1 2 3 4 8 9 12 18 22 25 30 32 34 37 
34(4)->1 2 3 4 8 10 13 16 20 24 25 26 27 31 33 35 36 38 39 40 
35(2)->1 2 4 7 8 9 10 11 13 14 18 20 25 27 30 31 34 38 
36(3)->1 2 3 4 5 6 7 8 9 10 12 13 15 20 21 23 24 26 27 29 31 32 34 37 39 40 
37(7)->1 2 3 5 11 12 13 15 19 22 23 27 29 32 33 36 38 40 
38(6)->1 2 8 9 11 12 13 17 23 30 32 34 35 37 
39(8)->1 2 3 4 5 6 7 9 11 15 16 17 22 27 28 30 31 32 34 36 
40(1)->1 3 4 6 7 8 10 14 15 17 20 26 29 34 36 37 
COUNT: 4808
COLORS: 10
EDGES: 360
10
4808
