1: 2 3 4 5 6 7 8 9 10 11 12 13 14 15 16 17 18 19 20 21 22 23 24 25 26 27 28 29 30 31 32 33 34 35 36 37 38 39 40 41 42 43 44 45 46 47 48 49
2: 1 3 4 5 6 7 8 9 10 11 12 13 14 15 16 17 18 19 20 21 22 23 24 25 26 27 28 29 30 31 32 33 34 35 36 37 38 39 40 41 42 43 44 45 46 47 48 49
3: 1 2 4 5 6 7 8 9 10 11 12 13 14 15 16 17 18 19 20 21 22 23 24 25 26 27 28 29 30 31 32 33 34 35 36 37 38 39 40 41 42 43 44 45 46 47 48 49
4: 1 2 3 5 6 7 8 9 10 11 12 13 14 15 16 17 18 19 20 21 22 23 24 25 26 27 28 29 30 32 33 34 35 36 37 39 40 41 42 44 45 46 47 48 49
5: 1 2 3 4 6 7 8 9 10 11 12 13 14 15 16 17 18 19 20 21 22 23 24 25 26 27 29 31 32 34 35 36 37 39 41 42 44 45 47 48 49
6: 1 2 3 4 5 7 8 9 10 11 12 13 14 15 16 17 18 19 20 21 22 23 24 25 26 27 28 29 30 32 34 36 37 38 39 42 44 46 47 48 49 50
7: 1 2 3 4 5 6 8 9 10 11 12 13 14 15 16 18 19 20 21 25 26 30 31 32 34 36 37 39 40 42 43 44 49
8: 1 2 3 4 5 6 7 9 10 11 12 13 14 16 18 19 20 21 26 30 31 32 37 39 40 43 45 46
9: 1 2 3 4 5 6 7 8 10 11 12 13 14 15 16 19 20 21 23 26 27 32 33 35 37 39 42 45
10: 1 2 3 4 5 6 7 8 9 11 12 13 15 16 20 21 22 23 27 38 39 43 46 48 49
11: 1 2 3 4 5 6 7 8 9 10 12 14 20 22 23 26 35 43 45 48 49 50
12: 1 2 3 4 5 6 7 8 9 10 11 13 15 17 19 21 24 25 30 31 33 34 35 39 41 42 45 46 47
13: 1 34 3 4 5 38 7 40 9 10 12 2 14 17 18 21 8 24 6 29 30
14: 1 2 3 4 5 6 7 8 9 11 13 16 21 22 28 34 37 38 40 41 45 46 47 48 49
15: 1 2 3 4 5 6 7 9 10 12 17 20 23 24 25 27 29 31 34 38 40 42 45 46 47 48 49 50
16: 1 2 3 4 5 6 7 8 9 10 14 17 19 20 21 22 23 25 28 31 36 37 39 41 43 46 48
17: 1 34 3 4 5 6 39 40 15 2 12 13 46 47 16 21 25 27 28 30
18: 32 33 2 3 4 5 6 7 8 43 13 1 24 26 29 31
19: 1 2 3 4 5 6 7 8 9 12 16 20 22 23 24 27 28 29 30 32 33 35 36 37 39 40 43 47 49 50
20: 1 2 3 4 5 6 7 8 9 10 11 15 16 19 23 24 27 32 33 38 39 47 50
21: 1 2 3 4 5 6 7 8 9 10 12 13 14 16 17 22 23 26 27 34 36 37 40 41 44 49
22: 1 2 3 4 5 6 10 11 14 16 19 21 23 27 29 30 31 32 33 34 35 41 42 44 49
23: 1 2 3 4 5 6 9 10 11 15 16 19 20 21 22 24 33 35 36 37 39 41 46 49
24: 1 2 3 4 5 6 12 13 15 18 19 20 23 27 28 31 33 36 41 43 45 46 47 48
25: 1 2 3 4 5 6 7 12 15 16 17 27 29 31 32 35 36 37 41 42 44 45 46 49 50
26: 1 2 11 4 6 38 7 8 9 43 45 46 18 3 21 27 5 29 30 37
27: 1 2 3 4 5 6 9 10 15 17 19 20 21 22 24 25 26 34 39 40 41 49 50
28: 32 1 2 35 4 38 6 39 42 45 14 16 17 50 19 46 24 49 29 3
29: 1 2 3 4 6 38 40 5 13 46 15 18 19 22 25 26 28 37 30 31
30: 1 2 3 4 6 7 8 12 13 17 19 22 26 29 31 33 38 40 42 43 47 48 49
31: 1 2 3 5 7 8 12 15 16 18 22 24 25 29 30 33 36 37 38 40 43 46
32: 1 2 3 4 5 6 7 8 9 18 19 20 22 25 28 33 36 37 38 39 40 41 42 45 48 49
33: 1 2 3 4 9 12 18 19 20 22 23 24 30 31 32 36 38 40 41 42 45 46 47 48
34: 1 2 35 17 5 38 7 40 43 12 13 14 15 48 49 3 21 22 4 6 27
35: 1 2 3 4 5 9 11 12 19 22 23 25 28 34 36 37 38 39 42 44 48 49 50
36: 1 2 3 4 5 6 7 16 19 21 23 24 25 31 32 33 35 37 41 45 47 49
37: 1 2 3 4 5 6 7 8 9 14 16 19 21 23 25 26 29 31 32 35 36 38 41 42 45 46 47 48
38: 32 33 34 35 37 6 1 10 43 13 14 45 3 20 2 26 15 28 29 30 31
39: 1 2 3 4 5 6 7 8 9 10 12 16 17 19 20 23 27 28 32 35 40 47
40: 1 2 3 4 7 8 13 14 15 17 19 21 27 29 30 31 32 33 34 39 42 43 44 47 48
41: 32 33 2 3 4 37 1 12 14 47 16 21 22 23 24 25 27 5 36
42: 1 2 3 4 5 6 7 9 12 15 22 25 28 30 32 33 35 37 40 44 46 48 49
43: 16 34 3 1 49 38 7 40 10 11 18 48 8 50 19 24 2 26 30 31
44: 1 2 35 4 5 6 7 40 42 46 50 3 21 22 25
45: 32 1 2 3 36 37 38 33 8 9 11 12 14 15 48 24 25 26 28 4 5
46: 1 2 3 4 6 8 10 12 14 15 16 17 23 24 25 26 28 29 31 33 37 42 44 49
47: 33 2 3 36 37 6 39 40 41 12 14 15 48 17 19 20 1 24 4 30 5
48: 1 2 3 4 5 6 10 11 14 15 16 24 30 32 33 34 35 37 40 42 43 45 47 49 50
49: 1 2 3 4 5 6 7 10 11 14 15 19 21 22 23 25 27 28 30 32 34 35 36 42 43 46 48 50
50: 48 35 6 43 44 15 11 49 19 20 25 27 28
-------
1(-1)->2 3 4 5 6 7 8 9 10 11 12 13 14 15 16 17 18 19 20 21 22 23 24 25 26 27 28 29 30 31 32 33 34 35 36 37 38 39 40 41 42 43 44 45 46 47 48 49 
2(-1)->1 3 4 5 6 7 8 9 10 11 12 13 14 15 16 17 18 19 20 21 22 23 24 25 26 27 28 29 30 31 32 33 34 35 36 37 38 39 40 41 42 43 44 45 46 47 48 49 
3(-1)->1 2 4 5 6 7 8 9 10 11 12 13 14 15 16 17 18 19 20 21 22 23 24 25 26 27 28 29 30 31 32 33 34 35 36 37 38 39 40 41 42 43 44 45 46 47 48 49 
4(-1)->1 2 3 5 6 7 8 9 10 11 12 13 14 15 16 17 18 19 20 21 22 23 24 25 26 27 28 29 30 32 33 34 35 36 37 39 40 41 42 44 45 46 47 48 49 
5(-1)->1 2 3 4 6 7 8 9 10 11 12 13 14 15 16 17 18 19 20 21 22 23 24 25 26 27 29 31 32 34 35 36 37 39 41 42 44 45 47 48 49 
6(-1)->1 2 3 4 5 7 8 9 10 11 12 13 14 15 16 17 18 19 20 21 22 23 24 25 26 27 28 29 30 32 34 36 37 38 39 42 44 46 47 48 49 50 
7(-1)->1 2 3 4 5 6 8 9 10 11 12 13 14 15 16 18 19 20 21 25 26 30 31 32 34 36 37 39 40 42 43 44 49 
8(-1)->1 2 3 4 5 6 7 9 10 11 12 13 14 16 18 19 20 21 26 30 31 32 37 39 40 43 45 46 
9(-1)->1 2 3 4 5 6 7 8 10 11 12 13 14 15 16 19 20 21 23 26 27 32 33 35 37 39 42 45 
10(-1)->1 2 3 4 5 6 7 8 9 11 12 13 15 16 20 21 22 23 27 38 39 43 46 48 49 
11(-1)->1 2 3 4 5 6 7 8 9 10 12 14 20 22 23 26 35 43 45 48 49 50 
12(-1)->1 2 3 4 5 6 7 8 9 10 11 13 15 17 19 21 24 25 30 31 33 34 35 39 41 42 45 46 47 
13(-1)->1 2 3 4 5 6 7 8 9 10 12 14 17 18 21 24 29 30 34 38 40 
14(-1)->1 2 3 4 5 6 7 8 9 11 13 16 21 22 28 34 37 38 40 41 45 46 47 48 49 
15(-1)->1 2 3 4 5 6 7 9 10 12 17 20 23 24 25 27 29 31 34 38 40 42 45 46 47 48 49 50 
16(-1)->1 2 3 4 5 6 7 8 9 10 14 17 19 20 21 22 23 25 28 31 36 37 39 41 43 46 48 
17(-1)->1 2 3 4 5 6 12 13 15 16 21 25 27 28 30 34 39 40 46 47 
18(-1)->1 2 3 4 5 6 7 8 13 24 26 29 31 32 33 43 
19(-1)->1 2 3 4 5 6 7 8 9 12 16 20 22 23 24 27 28 29 30 32 33 35 36 37 39 40 43 47 49 50 
20(-1)->1 2 3 4 5 6 7 8 9 10 11 15 16 19 23 24 27 32 33 38 39 47 50 
21(-1)->1 2 3 4 5 6 7 8 9 10 12 13 14 16 17 22 23 26 27 34 36 37 40 41 44 49 
22(-1)->1 2 3 4 5 6 10 11 14 16 19 21 23 27 29 30 31 32 33 34 35 41 42 44 49 
23(-1)->1 2 3 4 5 6 9 10 11 15 16 19 20 21 22 24 33 35 36 37 39 41 46 49 
24(-1)->1 2 3 4 5 6 12 13 15 18 19 20 23 27 28 31 33 36 41 43 45 46 47 48 
25(-1)->1 2 3 4 5 6 7 12 15 16 17 27 29 31 32 35 36 37 41 42 44 45 46 49 50 
26(-1)->1 2 3 4 5 6 7 8 9 11 18 21 27 29 30 37 38 43 45 46 
27(-1)->1 2 3 4 5 6 9 10 15 17 19 20 21 22 24 25 26 34 39 40 41 49 50 
28(-1)->1 2 3 4 6 14 16 17 19 24 29 32 35 38 39 42 45 46 49 50 
29(-1)->1 2 3 4 5 6 13 15 18 19 22 25 26 28 30 31 37 38 40 46 
30(-1)->1 2 3 4 6 7 8 12 13 17 19 22 26 29 31 33 38 40 42 43 47 48 49 
31(-1)->1 2 3 5 7 8 12 15 16 18 22 24 25 29 30 33 36 37 38 40 43 46 
32(-1)->1 2 3 4 5 6 7 8 9 18 19 20 22 25 28 33 36 37 38 39 40 41 42 45 48 49 
33(-1)->1 2 3 4 9 12 18 19 20 22 23 24 30 31 32 36 38 40 41 42 45 46 47 48 
34(-1)->1 2 3 4 5 6 7 12 13 14 15 17 21 22 27 35 38 40 43 48 49 
35(-1)->1 2 3 4 5 9 11 12 19 22 23 25 28 34 36 37 38 39 42 44 48 49 50 
36(-1)->1 2 3 4 5 6 7 16 19 21 23 24 25 31 32 33 35 37 41 45 47 49 
37(-1)->1 2 3 4 5 6 7 8 9 14 16 19 21 23 25 26 29 31 32 35 36 38 41 42 45 46 47 48 
38(-1)->1 2 3 6 10 13 14 15 20 26 28 29 30 31 32 33 34 35 37 43 45 
39(-1)->1 2 3 4 5 6 7 8 9 10 12 16 17 19 20 23 27 28 32 35 40 47 
40(-1)->1 2 3 4 7 8 13 14 15 17 19 21 27 29 30 31 32 33 34 39 42 43 44 47 48 
41(-1)->1 2 3 4 5 12 14 16 21 22 23 24 25 27 32 33 36 37 47 
42(-1)->1 2 3 4 5 6 7 9 12 15 22 25 28 30 32 33 35 37 40 44 46 48 49 
43(-1)->1 2 3 7 8 10 11 16 18 19 24 26 30 31 34 38 40 48 49 50 
44(-1)->1 2 3 4 5 6 7 21 22 25 35 40 42 46 50 
45(-1)->1 2 3 4 5 8 9 11 12 14 15 24 25 26 28 32 33 36 37 38 48 
46(-1)->1 2 3 4 6 8 10 12 14 15 16 17 23 24 25 26 28 29 31 33 37 42 44 49 
47(-1)->1 2 3 4 5 6 12 14 15 17 19 20 24 30 33 36 37 39 40 41 48 
48(-1)->1 2 3 4 5 6 10 11 14 15 16 24 30 32 33 34 35 37 40 42 43 45 47 49 50 
49(-1)->1 2 3 4 5 6 7 10 11 14 15 19 21 22 23 25 27 28 30 32 34 35 36 42 43 46 48 50 
50(-1)->6 11 15 19 20 25 27 28 35 43 44 48 49 
-------
Node 1 maps to position 0
Node 2 maps to position 1
Node 3 maps to position 2
Node 4 maps to position 3
Node 6 maps to position 4
Node 5 maps to position 5
Node 7 maps to position 6
Node 19 maps to position 7
Node 12 maps to position 8
Node 8 maps to position 9
Node 9 maps to position 10
Node 15 maps to position 11
Node 49 maps to position 12
Node 21 maps to position 13
Node 37 maps to position 14
Node 16 maps to position 15
Node 10 maps to position 16
Node 22 maps to position 17
Node 32 maps to position 18
Node 25 maps to position 19
Node 46 maps to position 20
Node 14 maps to position 21
Node 40 maps to position 22
Node 48 maps to position 23
Node 24 maps to position 24
Node 23 maps to position 25
Node 33 maps to position 26
Node 20 maps to position 27
Node 27 maps to position 28
Node 39 maps to position 29
Node 35 maps to position 30
Node 42 maps to position 31
Node 30 maps to position 32
Node 31 maps to position 33
Node 36 maps to position 34
Node 45 maps to position 35
Node 11 maps to position 36
Node 26 maps to position 37
Node 38 maps to position 38
Node 13 maps to position 39
Node 34 maps to position 40
Node 17 maps to position 41
Node 47 maps to position 42
Node 41 maps to position 43
Node 28 maps to position 44
Node 29 maps to position 45
Node 18 maps to position 46
Node 43 maps to position 47
Node 50 maps to position 48
Node 44 maps to position 49
1(-1)->2 3 4 5 6 7 8 9 10 11 12 13 14 15 16 17 18 19 20 21 22 23 24 25 26 27 28 29 30 31 32 33 34 35 36 37 38 39 40 41 42 43 44 45 46 47 48 49 
2(-1)->1 3 4 5 6 7 8 9 10 11 12 13 14 15 16 17 18 19 20 21 22 23 24 25 26 27 28 29 30 31 32 33 34 35 36 37 38 39 40 41 42 43 44 45 46 47 48 49 
3(-1)->1 2 4 5 6 7 8 9 10 11 12 13 14 15 16 17 18 19 20 21 22 23 24 25 26 27 28 29 30 31 32 33 34 35 36 37 38 39 40 41 42 43 44 45 46 47 48 49 
4(-1)->1 2 3 5 6 7 8 9 10 11 12 13 14 15 16 17 18 19 20 21 22 23 24 25 26 27 28 29 30 32 33 34 35 36 37 39 40 41 42 44 45 46 47 48 49 
6(-1)->1 2 3 4 5 7 8 9 10 11 12 13 14 15 16 17 18 19 20 21 22 23 24 25 26 27 28 29 30 32 34 36 37 38 39 42 44 46 47 48 49 50 
5(-1)->1 2 3 4 6 7 8 9 10 11 12 13 14 15 16 17 18 19 20 21 22 23 24 25 26 27 29 31 32 34 35 36 37 39 41 42 44 45 47 48 49 
7(-1)->1 2 3 4 5 6 8 9 10 11 12 13 14 15 16 18 19 20 21 25 26 30 31 32 34 36 37 39 40 42 43 44 49 
19(-1)->1 2 3 4 5 6 7 8 9 12 16 20 22 23 24 27 28 29 30 32 33 35 36 37 39 40 43 47 49 50 
12(-1)->1 2 3 4 5 6 7 8 9 10 11 13 15 17 19 21 24 25 30 31 33 34 35 39 41 42 45 46 47 
8(-1)->1 2 3 4 5 6 7 9 10 11 12 13 14 16 18 19 20 21 26 30 31 32 37 39 40 43 45 46 
9(-1)->1 2 3 4 5 6 7 8 10 11 12 13 14 15 16 19 20 21 23 26 27 32 33 35 37 39 42 45 
15(-1)->1 2 3 4 5 6 7 9 10 12 17 20 23 24 25 27 29 31 34 38 40 42 45 46 47 48 49 50 
49(-1)->1 2 3 4 5 6 7 10 11 14 15 19 21 22 23 25 27 28 30 32 34 35 36 42 43 46 48 50 
21(-1)->1 2 3 4 5 6 7 8 9 10 12 13 14 16 17 22 23 26 27 34 36 37 40 41 44 49 
37(-1)->1 2 3 4 5 6 7 8 9 14 16 19 21 23 25 26 29 31 32 35 36 38 41 42 45 46 47 48 
16(-1)->1 2 3 4 5 6 7 8 9 10 14 17 19 20 21 22 23 25 28 31 36 37 39 41 43 46 48 
10(-1)->1 2 3 4 5 6 7 8 9 11 12 13 15 16 20 21 22 23 27 38 39 43 46 48 49 
22(-1)->1 2 3 4 5 6 10 11 14 16 19 21 23 27 29 30 31 32 33 34 35 41 42 44 49 
32(-1)->1 2 3 4 5 6 7 8 9 18 19 20 22 25 28 33 36 37 38 39 40 41 42 45 48 49 
25(-1)->1 2 3 4 5 6 7 12 15 16 17 27 29 31 32 35 36 37 41 42 44 45 46 49 50 
46(-1)->1 2 3 4 6 8 10 12 14 15 16 17 23 24 25 26 28 29 31 33 37 42 44 49 
14(-1)->1 2 3 4 5 6 7 8 9 11 13 16 21 22 28 34 37 38 40 41 45 46 47 48 49 
40(-1)->1 2 3 4 7 8 13 14 15 17 19 21 27 29 30 31 32 33 34 39 42 43 44 47 48 
48(-1)->1 2 3 4 5 6 10 11 14 15 16 24 30 32 33 34 35 37 40 42 43 45 47 49 50 
24(-1)->1 2 3 4 5 6 12 13 15 18 19 20 23 27 28 31 33 36 41 43 45 46 47 48 
23(-1)->1 2 3 4 5 6 9 10 11 15 16 19 20 21 22 24 33 35 36 37 39 41 46 49 
33(-1)->1 2 3 4 9 12 18 19 20 22 23 24 30 31 32 36 38 40 41 42 45 46 47 48 
20(-1)->1 2 3 4 5 6 7 8 9 10 11 15 16 19 23 24 27 32 33 38 39 47 50 
27(-1)->1 2 3 4 5 6 9 10 15 17 19 20 21 22 24 25 26 34 39 40 41 49 50 
39(-1)->1 2 3 4 5 6 7 8 9 10 12 16 17 19 20 23 27 28 32 35 40 47 
35(-1)->1 2 3 4 5 9 11 12 19 22 23 25 28 34 36 37 38 39 42 44 48 49 50 
42(-1)->1 2 3 4 5 6 7 9 12 15 22 25 28 30 32 33 35 37 40 44 46 48 49 
30(-1)->1 2 3 4 6 7 8 12 13 17 19 22 26 29 31 33 38 40 42 43 47 48 49 
31(-1)->1 2 3 5 7 8 12 15 16 18 22 24 25 29 30 33 36 37 38 40 43 46 
36(-1)->1 2 3 4 5 6 7 16 19 21 23 24 25 31 32 33 35 37 41 45 47 49 
45(-1)->1 2 3 4 5 8 9 11 12 14 15 24 25 26 28 32 33 36 37 38 48 
11(-1)->1 2 3 4 5 6 7 8 9 10 12 14 20 22 23 26 35 43 45 48 49 50 
26(-1)->1 2 3 4 5 6 7 8 9 11 18 21 27 29 30 37 38 43 45 46 
38(-1)->1 2 3 6 10 13 14 15 20 26 28 29 30 31 32 33 34 35 37 43 45 
13(-1)->1 2 3 4 5 6 7 8 9 10 12 14 17 18 21 24 29 30 34 38 40 
34(-1)->1 2 3 4 5 6 7 12 13 14 15 17 21 22 27 35 38 40 43 48 49 
17(-1)->1 2 3 4 5 6 12 13 15 16 21 25 27 28 30 34 39 40 46 47 
47(-1)->1 2 3 4 5 6 12 14 15 17 19 20 24 30 33 36 37 39 40 41 48 
41(-1)->1 2 3 4 5 12 14 16 21 22 23 24 25 27 32 33 36 37 47 
28(-1)->1 2 3 4 6 14 16 17 19 24 29 32 35 38 39 42 45 46 49 50 
29(-1)->1 2 3 4 5 6 13 15 18 19 22 25 26 28 30 31 37 38 40 46 
18(-1)->1 2 3 4 5 6 7 8 13 24 26 29 31 32 33 43 
43(-1)->1 2 3 7 8 10 11 16 18 19 24 26 30 31 34 38 40 48 49 50 
50(-1)->6 11 15 19 20 25 27 28 35 43 44 48 49 
44(-1)->1 2 3 4 5 6 7 21 22 25 35 40 42 46 50 
-------
BLAH
START TIME: 1433713407
10000
20000
30000
40000
50000
60000
70000
80000
90000
100000
1(0)->2 3 4 5 6 7 8 9 10 11 12 13 14 15 16 17 18 19 20 21 22 23 24 25 26 27 28 29 30 31 32 33 34 35 36 37 38 39 40 41 42 43 44 45 46 47 48 49 
2(1)->1 3 4 5 6 7 8 9 10 11 12 13 14 15 16 17 18 19 20 21 22 23 24 25 26 27 28 29 30 31 32 33 34 35 36 37 38 39 40 41 42 43 44 45 46 47 48 49 
3(2)->1 2 4 5 6 7 8 9 10 11 12 13 14 15 16 17 18 19 20 21 22 23 24 25 26 27 28 29 30 31 32 33 34 35 36 37 38 39 40 41 42 43 44 45 46 47 48 49 
4(3)->1 2 3 5 6 7 8 9 10 11 12 13 14 15 16 17 18 19 20 21 22 23 24 25 26 27 28 29 30 32 33 34 35 36 37 39 40 41 42 44 45 46 47 48 49 
5(5)->1 2 3 4 6 7 8 9 10 11 12 13 14 15 16 17 18 19 20 21 22 23 24 25 26 27 29 31 32 34 35 36 37 39 41 42 44 45 47 48 49 
6(4)->1 2 3 4 5 7 8 9 10 11 12 13 14 15 16 17 18 19 20 21 22 23 24 25 26 27 28 29 30 32 34 36 37 38 39 42 44 46 47 48 49 50 
7(6)->1 2 3 4 5 6 8 9 10 11 12 13 14 15 16 18 19 20 21 25 26 30 31 32 34 36 37 39 40 42 43 44 49 
8(9)->1 2 3 4 5 6 7 9 10 11 12 13 14 16 18 19 20 21 26 30 31 32 37 39 40 43 45 46 
9(10)->1 2 3 4 5 6 7 8 10 11 12 13 14 15 16 19 20 21 23 26 27 32 33 35 37 39 42 45 
10(7)->1 2 3 4 5 6 7 8 9 11 12 13 15 16 20 21 22 23 27 38 39 43 46 48 49 
11(11)->1 2 3 4 5 6 7 8 9 10 12 14 20 22 23 26 35 43 45 48 49 50 
12(8)->1 2 3 4 5 6 7 8 9 10 11 13 15 17 19 21 24 25 30 31 33 34 35 39 41 42 45 46 47 
13(12)->1 2 3 4 5 6 7 8 9 10 12 14 17 18 21 24 29 30 34 38 40 
14(7)->1 2 3 4 5 6 7 8 9 11 13 16 21 22 28 34 37 38 40 41 45 46 47 48 49 
15(9)->1 2 3 4 5 6 7 9 10 12 17 20 23 24 25 27 29 31 34 38 40 42 45 46 47 48 49 50 
16(12)->1 2 3 4 5 6 7 8 9 10 14 17 19 20 21 22 23 25 28 31 36 37 39 41 43 46 48 
17(6)->1 2 3 4 5 6 12 13 15 16 21 25 27 28 30 34 39 40 46 47 
18(8)->1 2 3 4 5 6 7 8 13 24 26 29 31 32 33 43 
19(7)->1 2 3 4 5 6 7 8 9 12 16 20 22 23 24 27 28 29 30 32 33 35 36 37 39 40 43 47 49 50 
20(8)->1 2 3 4 5 6 7 8 9 10 11 15 16 19 23 24 27 32 33 38 39 47 50 
21(11)->1 2 3 4 5 6 7 8 9 10 12 13 14 16 17 22 23 26 27 34 36 37 40 41 44 49 
22(9)->1 2 3 4 5 6 10 11 14 16 19 21 23 27 29 30 31 32 33 34 35 41 42 44 49 
23(6)->1 2 3 4 5 6 9 10 11 15 16 19 20 21 22 24 33 35 36 37 39 41 46 49 
24(11)->1 2 3 4 5 6 12 13 15 18 19 20 23 27 28 31 33 36 41 43 45 46 47 48 
25(7)->1 2 3 4 5 6 7 12 15 16 17 27 29 31 32 35 36 37 41 42 44 45 46 49 50 
26(7)->1 2 3 4 5 6 7 8 9 11 18 21 27 29 30 37 38 43 45 46 
27(12)->1 2 3 4 5 6 9 10 15 17 19 20 21 22 24 25 26 34 39 40 41 49 50 
28(5)->1 2 3 4 6 14 16 17 19 24 29 32 35 38 39 42 45 46 49 50 
29(11)->1 2 3 4 5 6 13 15 18 19 22 25 26 28 30 31 37 38 40 46 
30(10)->1 2 3 4 6 7 8 12 13 17 19 22 26 29 31 33 38 40 42 43 47 48 49 
31(3)->1 2 3 5 7 8 12 15 16 18 22 24 25 29 30 33 36 37 38 40 43 46 
32(12)->1 2 3 4 5 6 7 8 9 18 19 20 22 25 28 33 36 37 38 39 40 41 42 45 48 49 
33(5)->1 2 3 4 9 12 18 19 20 22 23 24 30 31 32 36 38 40 41 42 45 46 47 48 
34(10)->1 2 3 4 5 6 7 12 13 14 15 17 21 22 27 35 38 40 43 48 49 
35(4)->1 2 3 4 5 9 11 12 19 22 23 25 28 34 36 37 38 39 42 44 48 49 50 
36(9)->1 2 3 4 5 6 7 16 19 21 23 24 25 31 32 33 35 37 41 45 47 49 
37(8)->1 2 3 4 5 6 7 8 9 14 16 19 21 23 25 26 29 31 32 35 36 38 41 42 45 46 47 48 
38(6)->1 2 3 6 10 13 14 15 20 26 28 29 30 31 32 33 34 35 37 43 45 
39(11)->1 2 3 4 5 6 7 8 9 10 12 16 17 19 20 23 27 28 32 35 40 47 
40(4)->1 2 3 4 7 8 13 14 15 17 19 21 27 29 30 31 32 33 34 39 42 43 44 47 48 
41(4)->1 2 3 4 5 12 14 16 21 22 23 24 25 27 32 33 36 37 47 
42(11)->1 2 3 4 5 6 7 9 12 15 22 25 28 30 32 33 35 37 40 44 46 48 49 
43(5)->1 2 3 7 8 10 11 16 18 19 24 26 30 31 34 38 40 48 49 50 
44(8)->1 2 3 4 5 6 7 21 22 25 35 40 42 46 50 
45(4)->1 2 3 4 5 8 9 11 12 14 15 24 25 26 28 32 33 36 37 38 48 
46(10)->1 2 3 4 6 8 10 12 14 15 16 17 23 24 25 26 28 29 31 33 37 42 44 49 
47(12)->1 2 3 4 5 6 12 14 15 17 19 20 24 30 33 36 37 39 40 41 48 
48(6)->1 2 3 4 5 6 10 11 14 15 16 24 30 32 33 34 35 37 40 42 43 45 47 49 50 
49(8)->1 2 3 4 5 6 7 10 11 14 15 19 21 22 23 25 27 28 30 32 34 35 36 42 43 46 48 50 
50(0)->6 11 15 19 20 25 27 28 35 43 44 48 49 
COUNT: 104772
COLORS: 13
EDGES: 650
13
104772
