1: 2 3 4 5 6 7 8 9 10 11 12 13 14 15 16 17 18 19 20 21 22 23 24 25 26 27 28 29 30 31 32 33 34 35 36 37 38 39 40 41 42 43 44 45 46 47 48 49
2: 1 3 4 5 6 7 8 9 10 11 12 13 14 15 16 17 18 19 20 21 22 23 24 25 26 27 28 29 30 31 32 33 34 35 36 37 38 39 40 41 42 43 44 45 46 47 48 49 50
3: 1 2 4 5 6 7 8 9 10 11 12 13 14 15 16 17 18 19 20 21 22 23 24 25 26 27 28 29 30 31 32 33 34 35 36 37 38 39 40 41 42 43 44 45 46 47 48 49
4: 1 2 3 5 6 7 8 9 10 11 12 13 14 15 16 17 18 19 20 21 22 23 24 25 26 27 28 29 30 31 32 33 34 35 36 37 38 39 40 41 42 43 44 45 46 47 48 49 50
5: 1 2 3 4 6 7 8 9 10 11 12 13 14 15 16 17 18 19 20 21 22 23 24 25 26 27 28 29 30 31 32 33 34 35 36 37 38 39 40 41 42 43 44 45 46 47 48 49 50
6: 1 2 3 4 5 7 8 9 10 11 12 13 14 15 16 17 18 19 20 21 22 23 24 25 26 27 28 29 30 31 32 33 34 35 36 37 38 39 41 42 43 44 45 47 48 49 50
7: 1 2 3 4 5 6 8 9 10 11 12 13 14 15 16 17 18 19 20 21 22 23 24 25 26 27 28 29 30 32 33 34 35 36 37 38 39 41 42 43 44 45 47 50
8: 1 2 3 4 5 6 7 9 10 11 12 13 14 15 16 17 18 20 23 24 25 26 27 29 30 32 34 35 36 37 38 39 41 43 44 45 47 48 50
9: 1 2 3 4 5 6 7 8 10 11 12 13 14 15 16 17 18 19 21 22 23 24 26 31 32 33 34 35 36 37 38 39 40 41 42 43 44 45 46 47
10: 1 2 3 4 5 6 7 8 9 11 12 13 14 15 16 17 19 20 23 25 26 28 30 31 32 36 37 40 43 45 46
11: 1 2 3 4 5 6 7 8 9 10 12 13 14 15 17 21 22 23 24 25 26 30 32 35 36 37 40 44 48 49
12: 1 2 3 4 5 6 7 8 9 10 11 13 14 15 16 18 19 20 22 24 25 26 29 30 33 34 37 38 40 41 45 46 47 49 50
13: 1 2 3 4 5 6 7 8 9 10 11 12 14 15 16 17 18 19 20 23 24 25 26 27 29 31 32 33 34 35 37 41 42 43 47 49
14: 1 2 3 4 5 6 7 8 9 10 11 12 13 15 16 17 18 19 21 23 24 25 31 32 37 41 44 46 47 49
15: 1 2 3 4 5 6 7 8 9 10 11 12 13 14 18 21 22 24 25 27 28 31 36 41 45 46 47 49 50
16: 1 2 3 4 5 6 7 8 9 10 12 13 14 21 27 29 33 34 35 38 39 40 42 44 45 46
17: 1 2 3 4 5 6 7 8 9 10 11 13 14 19 23 24 27 29 32 34 38 39 41 42 45 49
18: 1 2 3 4 5 6 7 8 9 12 13 14 15 23 25 27 29 32 41 42 44 45 46 47 48 50
19: 1 2 3 4 5 6 7 9 10 12 13 14 17 20 21 25 27 33 35 38 39 43 45 48 49
20: 1 2 3 4 5 6 7 8 10 12 13 19 21 22 23 24 26 28 29 30 31 35 37 39 40 42 45
21: 1 2 3 4 5 6 7 9 11 14 15 16 19 20 26 27 38 41 42 44 45 46 49
22: 1 2 3 4 5 6 7 9 11 12 15 20 24 25 26 27 28 30 33 34 35 38 39 43 48 49 50
23: 1 2 3 4 5 6 7 8 9 10 11 13 14 17 18 20 24 25 27 28 31 33 34 35 36 38 39 40 43 46 47 49
24: 1 2 3 4 5 6 7 8 9 11 12 13 14 15 17 20 22 23 28 29 30 31 32 36 38 42 44 45 48 50
25: 1 2 3 4 5 6 7 8 10 11 12 13 14 15 18 19 22 23 26 27 28 32 35 37 41 44 48 50
26: 1 2 3 4 5 6 7 8 9 10 11 12 13 20 21 22 25 28 29 34 36 39 40 41 43 44 46 47 48 50
27: 1 2 3 4 5 6 7 8 13 15 16 17 18 19 21 22 23 25 35 38 39 41 42 49
28: 1 2 3 4 5 6 7 10 15 20 22 23 24 25 26 29 32 33 34 35 37 40 42 43 45 47 48 49
29: 1 2 3 4 5 6 7 8 12 13 16 17 18 20 24 26 28 30 34 35 36 39 40 42 49
30: 1 2 3 4 5 6 7 8 10 11 12 20 22 24 29 32 33 35 39 41 44 46 50
31: 1 2 3 36 5 6 41 10 43 44 13 46 15 20 14 9 24 23 4
32: 1 2 3 4 5 6 7 8 9 10 11 13 14 17 18 24 25 28 30 34 36 38 41 42 43 45
33: 1 2 3 4 37 16 39 9 7 12 13 47 48 49 19 22 23 6 28 30 5
34: 1 2 3 4 5 6 7 8 9 12 13 16 17 22 23 26 28 29 32 35 38 39 40 41 42 43 44 45 48 49 50
35: 1 2 3 4 5 6 7 8 9 11 13 16 19 20 22 23 25 27 28 29 30 34 37 42 47 48
36: 1 2 3 4 5 6 7 8 9 10 11 15 23 24 26 29 31 32 38 40 48 49
37: 1 2 3 4 5 6 7 8 9 10 11 12 13 14 20 25 28 33 35 39 40 42
38: 1 2 3 4 5 6 7 8 9 12 16 17 19 21 22 23 24 27 32 34 36 39 44 45 46 47 48 50
39: 1 2 3 4 5 6 7 8 9 16 17 19 20 22 23 26 27 29 30 33 34 37 38 43 46 48 49 50
40: 48 34 3 36 37 1 9 10 11 12 2 47 16 49 20 23 4 26 28 29 5
41: 1 2 3 4 5 6 7 8 9 12 13 14 15 17 18 21 25 26 27 30 31 32 34 44 48 49
42: 1 2 3 4 5 6 7 9 13 16 17 18 20 21 24 27 28 29 32 34 35 37 44 46
43: 1 2 3 4 5 6 7 8 9 10 13 19 22 23 26 28 31 32 34 39 46 47 50
44: 1 2 3 4 5 6 7 8 9 11 14 16 18 21 24 25 26 30 31 34 38 41 42 45 46 47 48 50
45: 1 2 3 4 5 6 7 8 9 10 12 15 16 17 18 19 20 21 24 28 32 34 38 44
46: 1 2 3 4 5 9 10 12 14 15 16 18 21 23 26 30 31 38 39 42 43 44 47 50
47: 1 2 3 4 5 6 7 8 9 12 13 14 15 18 23 26 28 33 35 38 40 43 44 46 48 50
48: 1 2 3 4 5 6 8 11 18 19 22 24 25 26 28 33 34 35 36 38 39 40 41 44 47 49 50
49: 1 2 3 4 5 6 11 12 13 14 15 17 19 21 22 23 27 28 29 33 34 36 39 40 41 48 50
50: 2 4 5 6 7 8 12 15 18 22 24 25 26 30 34 38 39 43 44 46 47 48 49
-------
1(-1)->2 3 4 5 6 7 8 9 10 11 12 13 14 15 16 17 18 19 20 21 22 23 24 25 26 27 28 29 30 31 32 33 34 35 36 37 38 39 40 41 42 43 44 45 46 47 48 49 
2(-1)->1 3 4 5 6 7 8 9 10 11 12 13 14 15 16 17 18 19 20 21 22 23 24 25 26 27 28 29 30 31 32 33 34 35 36 37 38 39 40 41 42 43 44 45 46 47 48 49 50 
3(-1)->1 2 4 5 6 7 8 9 10 11 12 13 14 15 16 17 18 19 20 21 22 23 24 25 26 27 28 29 30 31 32 33 34 35 36 37 38 39 40 41 42 43 44 45 46 47 48 49 
4(-1)->1 2 3 5 6 7 8 9 10 11 12 13 14 15 16 17 18 19 20 21 22 23 24 25 26 27 28 29 30 31 32 33 34 35 36 37 38 39 40 41 42 43 44 45 46 47 48 49 50 
5(-1)->1 2 3 4 6 7 8 9 10 11 12 13 14 15 16 17 18 19 20 21 22 23 24 25 26 27 28 29 30 31 32 33 34 35 36 37 38 39 40 41 42 43 44 45 46 47 48 49 50 
6(-1)->1 2 3 4 5 7 8 9 10 11 12 13 14 15 16 17 18 19 20 21 22 23 24 25 26 27 28 29 30 31 32 33 34 35 36 37 38 39 41 42 43 44 45 47 48 49 50 
7(-1)->1 2 3 4 5 6 8 9 10 11 12 13 14 15 16 17 18 19 20 21 22 23 24 25 26 27 28 29 30 32 33 34 35 36 37 38 39 41 42 43 44 45 47 50 
8(-1)->1 2 3 4 5 6 7 9 10 11 12 13 14 15 16 17 18 20 23 24 25 26 27 29 30 32 34 35 36 37 38 39 41 43 44 45 47 48 50 
9(-1)->1 2 3 4 5 6 7 8 10 11 12 13 14 15 16 17 18 19 21 22 23 24 26 31 32 33 34 35 36 37 38 39 40 41 42 43 44 45 46 47 
10(-1)->1 2 3 4 5 6 7 8 9 11 12 13 14 15 16 17 19 20 23 25 26 28 30 31 32 36 37 40 43 45 46 
11(-1)->1 2 3 4 5 6 7 8 9 10 12 13 14 15 17 21 22 23 24 25 26 30 32 35 36 37 40 44 48 49 
12(-1)->1 2 3 4 5 6 7 8 9 10 11 13 14 15 16 18 19 20 22 24 25 26 29 30 33 34 37 38 40 41 45 46 47 49 50 
13(-1)->1 2 3 4 5 6 7 8 9 10 11 12 14 15 16 17 18 19 20 23 24 25 26 27 29 31 32 33 34 35 37 41 42 43 47 49 
14(-1)->1 2 3 4 5 6 7 8 9 10 11 12 13 15 16 17 18 19 21 23 24 25 31 32 37 41 44 46 47 49 
15(-1)->1 2 3 4 5 6 7 8 9 10 11 12 13 14 18 21 22 24 25 27 28 31 36 41 45 46 47 49 50 
16(-1)->1 2 3 4 5 6 7 8 9 10 12 13 14 21 27 29 33 34 35 38 39 40 42 44 45 46 
17(-1)->1 2 3 4 5 6 7 8 9 10 11 13 14 19 23 24 27 29 32 34 38 39 41 42 45 49 
18(-1)->1 2 3 4 5 6 7 8 9 12 13 14 15 23 25 27 29 32 41 42 44 45 46 47 48 50 
19(-1)->1 2 3 4 5 6 7 9 10 12 13 14 17 20 21 25 27 33 35 38 39 43 45 48 49 
20(-1)->1 2 3 4 5 6 7 8 10 12 13 19 21 22 23 24 26 28 29 30 31 35 37 39 40 42 45 
21(-1)->1 2 3 4 5 6 7 9 11 14 15 16 19 20 26 27 38 41 42 44 45 46 49 
22(-1)->1 2 3 4 5 6 7 9 11 12 15 20 24 25 26 27 28 30 33 34 35 38 39 43 48 49 50 
23(-1)->1 2 3 4 5 6 7 8 9 10 11 13 14 17 18 20 24 25 27 28 31 33 34 35 36 38 39 40 43 46 47 49 
24(-1)->1 2 3 4 5 6 7 8 9 11 12 13 14 15 17 20 22 23 28 29 30 31 32 36 38 42 44 45 48 50 
25(-1)->1 2 3 4 5 6 7 8 10 11 12 13 14 15 18 19 22 23 26 27 28 32 35 37 41 44 48 50 
26(-1)->1 2 3 4 5 6 7 8 9 10 11 12 13 20 21 22 25 28 29 34 36 39 40 41 43 44 46 47 48 50 
27(-1)->1 2 3 4 5 6 7 8 13 15 16 17 18 19 21 22 23 25 35 38 39 41 42 49 
28(-1)->1 2 3 4 5 6 7 10 15 20 22 23 24 25 26 29 32 33 34 35 37 40 42 43 45 47 48 49 
29(-1)->1 2 3 4 5 6 7 8 12 13 16 17 18 20 24 26 28 30 34 35 36 39 40 42 49 
30(-1)->1 2 3 4 5 6 7 8 10 11 12 20 22 24 29 32 33 35 39 41 44 46 50 
31(-1)->1 2 3 4 5 6 9 10 13 14 15 20 23 24 36 41 43 44 46 
32(-1)->1 2 3 4 5 6 7 8 9 10 11 13 14 17 18 24 25 28 30 34 36 38 41 42 43 45 
33(-1)->1 2 3 4 5 6 7 9 12 13 16 19 22 23 28 30 37 39 47 48 49 
34(-1)->1 2 3 4 5 6 7 8 9 12 13 16 17 22 23 26 28 29 32 35 38 39 40 41 42 43 44 45 48 49 50 
35(-1)->1 2 3 4 5 6 7 8 9 11 13 16 19 20 22 23 25 27 28 29 30 34 37 42 47 48 
36(-1)->1 2 3 4 5 6 7 8 9 10 11 15 23 24 26 29 31 32 38 40 48 49 
37(-1)->1 2 3 4 5 6 7 8 9 10 11 12 13 14 20 25 28 33 35 39 40 42 
38(-1)->1 2 3 4 5 6 7 8 9 12 16 17 19 21 22 23 24 27 32 34 36 39 44 45 46 47 48 50 
39(-1)->1 2 3 4 5 6 7 8 9 16 17 19 20 22 23 26 27 29 30 33 34 37 38 43 46 48 49 50 
40(-1)->1 2 3 4 5 9 10 11 12 16 20 23 26 28 29 34 36 37 47 48 49 
41(-1)->1 2 3 4 5 6 7 8 9 12 13 14 15 17 18 21 25 26 27 30 31 32 34 44 48 49 
42(-1)->1 2 3 4 5 6 7 9 13 16 17 18 20 21 24 27 28 29 32 34 35 37 44 46 
43(-1)->1 2 3 4 5 6 7 8 9 10 13 19 22 23 26 28 31 32 34 39 46 47 50 
44(-1)->1 2 3 4 5 6 7 8 9 11 14 16 18 21 24 25 26 30 31 34 38 41 42 45 46 47 48 50 
45(-1)->1 2 3 4 5 6 7 8 9 10 12 15 16 17 18 19 20 21 24 28 32 34 38 44 
46(-1)->1 2 3 4 5 9 10 12 14 15 16 18 21 23 26 30 31 38 39 42 43 44 47 50 
47(-1)->1 2 3 4 5 6 7 8 9 12 13 14 15 18 23 26 28 33 35 38 40 43 44 46 48 50 
48(-1)->1 2 3 4 5 6 8 11 18 19 22 24 25 26 28 33 34 35 36 38 39 40 41 44 47 49 50 
49(-1)->1 2 3 4 5 6 11 12 13 14 15 17 19 21 22 23 27 28 29 33 34 36 39 40 41 48 50 
50(-1)->2 4 5 6 7 8 12 15 18 22 24 25 26 30 34 38 39 43 44 46 47 48 49 
-------
Node 2 maps to position 0
Node 4 maps to position 1
Node 5 maps to position 2
Node 1 maps to position 3
Node 3 maps to position 4
Node 6 maps to position 5
Node 7 maps to position 6
Node 9 maps to position 7
Node 8 maps to position 8
Node 13 maps to position 9
Node 12 maps to position 10
Node 10 maps to position 11
Node 23 maps to position 12
Node 34 maps to position 13
Node 26 maps to position 14
Node 11 maps to position 15
Node 14 maps to position 16
Node 24 maps to position 17
Node 15 maps to position 18
Node 25 maps to position 19
Node 28 maps to position 20
Node 20 maps to position 21
Node 39 maps to position 22
Node 38 maps to position 23
Node 44 maps to position 24
Node 48 maps to position 25
Node 22 maps to position 26
Node 49 maps to position 27
Node 17 maps to position 28
Node 32 maps to position 29
Node 18 maps to position 30
Node 41 maps to position 31
Node 27 maps to position 32
Node 16 maps to position 33
Node 35 maps to position 34
Node 47 maps to position 35
Node 46 maps to position 36
Node 42 maps to position 37
Node 29 maps to position 38
Node 30 maps to position 39
Node 50 maps to position 40
Node 43 maps to position 41
Node 19 maps to position 42
Node 45 maps to position 43
Node 21 maps to position 44
Node 36 maps to position 45
Node 40 maps to position 46
Node 37 maps to position 47
Node 33 maps to position 48
Node 31 maps to position 49
2(-1)->1 3 4 5 6 7 8 9 10 11 12 13 14 15 16 17 18 19 20 21 22 23 24 25 26 27 28 29 30 31 32 33 34 35 36 37 38 39 40 41 42 43 44 45 46 47 48 49 50 
4(-1)->1 2 3 5 6 7 8 9 10 11 12 13 14 15 16 17 18 19 20 21 22 23 24 25 26 27 28 29 30 31 32 33 34 35 36 37 38 39 40 41 42 43 44 45 46 47 48 49 50 
5(-1)->1 2 3 4 6 7 8 9 10 11 12 13 14 15 16 17 18 19 20 21 22 23 24 25 26 27 28 29 30 31 32 33 34 35 36 37 38 39 40 41 42 43 44 45 46 47 48 49 50 
1(-1)->2 3 4 5 6 7 8 9 10 11 12 13 14 15 16 17 18 19 20 21 22 23 24 25 26 27 28 29 30 31 32 33 34 35 36 37 38 39 40 41 42 43 44 45 46 47 48 49 
3(-1)->1 2 4 5 6 7 8 9 10 11 12 13 14 15 16 17 18 19 20 21 22 23 24 25 26 27 28 29 30 31 32 33 34 35 36 37 38 39 40 41 42 43 44 45 46 47 48 49 
6(-1)->1 2 3 4 5 7 8 9 10 11 12 13 14 15 16 17 18 19 20 21 22 23 24 25 26 27 28 29 30 31 32 33 34 35 36 37 38 39 41 42 43 44 45 47 48 49 50 
7(-1)->1 2 3 4 5 6 8 9 10 11 12 13 14 15 16 17 18 19 20 21 22 23 24 25 26 27 28 29 30 32 33 34 35 36 37 38 39 41 42 43 44 45 47 50 
9(-1)->1 2 3 4 5 6 7 8 10 11 12 13 14 15 16 17 18 19 21 22 23 24 26 31 32 33 34 35 36 37 38 39 40 41 42 43 44 45 46 47 
8(-1)->1 2 3 4 5 6 7 9 10 11 12 13 14 15 16 17 18 20 23 24 25 26 27 29 30 32 34 35 36 37 38 39 41 43 44 45 47 48 50 
13(-1)->1 2 3 4 5 6 7 8 9 10 11 12 14 15 16 17 18 19 20 23 24 25 26 27 29 31 32 33 34 35 37 41 42 43 47 49 
12(-1)->1 2 3 4 5 6 7 8 9 10 11 13 14 15 16 18 19 20 22 24 25 26 29 30 33 34 37 38 40 41 45 46 47 49 50 
10(-1)->1 2 3 4 5 6 7 8 9 11 12 13 14 15 16 17 19 20 23 25 26 28 30 31 32 36 37 40 43 45 46 
23(-1)->1 2 3 4 5 6 7 8 9 10 11 13 14 17 18 20 24 25 27 28 31 33 34 35 36 38 39 40 43 46 47 49 
34(-1)->1 2 3 4 5 6 7 8 9 12 13 16 17 22 23 26 28 29 32 35 38 39 40 41 42 43 44 45 48 49 50 
26(-1)->1 2 3 4 5 6 7 8 9 10 11 12 13 20 21 22 25 28 29 34 36 39 40 41 43 44 46 47 48 50 
11(-1)->1 2 3 4 5 6 7 8 9 10 12 13 14 15 17 21 22 23 24 25 26 30 32 35 36 37 40 44 48 49 
14(-1)->1 2 3 4 5 6 7 8 9 10 11 12 13 15 16 17 18 19 21 23 24 25 31 32 37 41 44 46 47 49 
24(-1)->1 2 3 4 5 6 7 8 9 11 12 13 14 15 17 20 22 23 28 29 30 31 32 36 38 42 44 45 48 50 
15(-1)->1 2 3 4 5 6 7 8 9 10 11 12 13 14 18 21 22 24 25 27 28 31 36 41 45 46 47 49 50 
25(-1)->1 2 3 4 5 6 7 8 10 11 12 13 14 15 18 19 22 23 26 27 28 32 35 37 41 44 48 50 
28(-1)->1 2 3 4 5 6 7 10 15 20 22 23 24 25 26 29 32 33 34 35 37 40 42 43 45 47 48 49 
20(-1)->1 2 3 4 5 6 7 8 10 12 13 19 21 22 23 24 26 28 29 30 31 35 37 39 40 42 45 
39(-1)->1 2 3 4 5 6 7 8 9 16 17 19 20 22 23 26 27 29 30 33 34 37 38 43 46 48 49 50 
38(-1)->1 2 3 4 5 6 7 8 9 12 16 17 19 21 22 23 24 27 32 34 36 39 44 45 46 47 48 50 
44(-1)->1 2 3 4 5 6 7 8 9 11 14 16 18 21 24 25 26 30 31 34 38 41 42 45 46 47 48 50 
48(-1)->1 2 3 4 5 6 8 11 18 19 22 24 25 26 28 33 34 35 36 38 39 40 41 44 47 49 50 
22(-1)->1 2 3 4 5 6 7 9 11 12 15 20 24 25 26 27 28 30 33 34 35 38 39 43 48 49 50 
49(-1)->1 2 3 4 5 6 11 12 13 14 15 17 19 21 22 23 27 28 29 33 34 36 39 40 41 48 50 
17(-1)->1 2 3 4 5 6 7 8 9 10 11 13 14 19 23 24 27 29 32 34 38 39 41 42 45 49 
32(-1)->1 2 3 4 5 6 7 8 9 10 11 13 14 17 18 24 25 28 30 34 36 38 41 42 43 45 
18(-1)->1 2 3 4 5 6 7 8 9 12 13 14 15 23 25 27 29 32 41 42 44 45 46 47 48 50 
41(-1)->1 2 3 4 5 6 7 8 9 12 13 14 15 17 18 21 25 26 27 30 31 32 34 44 48 49 
27(-1)->1 2 3 4 5 6 7 8 13 15 16 17 18 19 21 22 23 25 35 38 39 41 42 49 
16(-1)->1 2 3 4 5 6 7 8 9 10 12 13 14 21 27 29 33 34 35 38 39 40 42 44 45 46 
35(-1)->1 2 3 4 5 6 7 8 9 11 13 16 19 20 22 23 25 27 28 29 30 34 37 42 47 48 
47(-1)->1 2 3 4 5 6 7 8 9 12 13 14 15 18 23 26 28 33 35 38 40 43 44 46 48 50 
46(-1)->1 2 3 4 5 9 10 12 14 15 16 18 21 23 26 30 31 38 39 42 43 44 47 50 
42(-1)->1 2 3 4 5 6 7 9 13 16 17 18 20 21 24 27 28 29 32 34 35 37 44 46 
29(-1)->1 2 3 4 5 6 7 8 12 13 16 17 18 20 24 26 28 30 34 35 36 39 40 42 49 
30(-1)->1 2 3 4 5 6 7 8 10 11 12 20 22 24 29 32 33 35 39 41 44 46 50 
50(-1)->2 4 5 6 7 8 12 15 18 22 24 25 26 30 34 38 39 43 44 46 47 48 49 
43(-1)->1 2 3 4 5 6 7 8 9 10 13 19 22 23 26 28 31 32 34 39 46 47 50 
19(-1)->1 2 3 4 5 6 7 9 10 12 13 14 17 20 21 25 27 33 35 38 39 43 45 48 49 
45(-1)->1 2 3 4 5 6 7 8 9 10 12 15 16 17 18 19 20 21 24 28 32 34 38 44 
21(-1)->1 2 3 4 5 6 7 9 11 14 15 16 19 20 26 27 38 41 42 44 45 46 49 
36(-1)->1 2 3 4 5 6 7 8 9 10 11 15 23 24 26 29 31 32 38 40 48 49 
40(-1)->1 2 3 4 5 9 10 11 12 16 20 23 26 28 29 34 36 37 47 48 49 
37(-1)->1 2 3 4 5 6 7 8 9 10 11 12 13 14 20 25 28 33 35 39 40 42 
33(-1)->1 2 3 4 5 6 7 9 12 13 16 19 22 23 28 30 37 39 47 48 49 
31(-1)->1 2 3 4 5 6 9 10 13 14 15 20 23 24 36 41 43 44 46 
-------
BLAH
START TIME: 1433714080
10000
1(3)->2 3 4 5 6 7 8 9 10 11 12 13 14 15 16 17 18 19 20 21 22 23 24 25 26 27 28 29 30 31 32 33 34 35 36 37 38 39 40 41 42 43 44 45 46 47 48 49 
2(0)->1 3 4 5 6 7 8 9 10 11 12 13 14 15 16 17 18 19 20 21 22 23 24 25 26 27 28 29 30 31 32 33 34 35 36 37 38 39 40 41 42 43 44 45 46 47 48 49 50 
3(4)->1 2 4 5 6 7 8 9 10 11 12 13 14 15 16 17 18 19 20 21 22 23 24 25 26 27 28 29 30 31 32 33 34 35 36 37 38 39 40 41 42 43 44 45 46 47 48 49 
4(1)->1 2 3 5 6 7 8 9 10 11 12 13 14 15 16 17 18 19 20 21 22 23 24 25 26 27 28 29 30 31 32 33 34 35 36 37 38 39 40 41 42 43 44 45 46 47 48 49 50 
5(2)->1 2 3 4 6 7 8 9 10 11 12 13 14 15 16 17 18 19 20 21 22 23 24 25 26 27 28 29 30 31 32 33 34 35 36 37 38 39 40 41 42 43 44 45 46 47 48 49 50 
6(5)->1 2 3 4 5 7 8 9 10 11 12 13 14 15 16 17 18 19 20 21 22 23 24 25 26 27 28 29 30 31 32 33 34 35 36 37 38 39 41 42 43 44 45 47 48 49 50 
7(6)->1 2 3 4 5 6 8 9 10 11 12 13 14 15 16 17 18 19 20 21 22 23 24 25 26 27 28 29 30 32 33 34 35 36 37 38 39 41 42 43 44 45 47 50 
8(8)->1 2 3 4 5 6 7 9 10 11 12 13 14 15 16 17 18 20 23 24 25 26 27 29 30 32 34 35 36 37 38 39 41 43 44 45 47 48 50 
9(7)->1 2 3 4 5 6 7 8 10 11 12 13 14 15 16 17 18 19 21 22 23 24 26 31 32 33 34 35 36 37 38 39 40 41 42 43 44 45 46 47 
10(11)->1 2 3 4 5 6 7 8 9 11 12 13 14 15 16 17 19 20 23 25 26 28 30 31 32 36 37 40 43 45 46 
11(13)->1 2 3 4 5 6 7 8 9 10 12 13 14 15 17 21 22 23 24 25 26 30 32 35 36 37 40 44 48 49 
12(10)->1 2 3 4 5 6 7 8 9 10 11 13 14 15 16 18 19 20 22 24 25 26 29 30 33 34 37 38 40 41 45 46 47 49 50 
13(9)->1 2 3 4 5 6 7 8 9 10 11 12 14 15 16 17 18 19 20 23 24 25 26 27 29 31 32 33 34 35 37 41 42 43 47 49 
14(14)->1 2 3 4 5 6 7 8 9 10 11 12 13 15 16 17 18 19 21 23 24 25 31 32 37 41 44 46 47 49 
15(12)->1 2 3 4 5 6 7 8 9 10 11 12 13 14 18 21 22 24 25 27 28 31 36 41 45 46 47 49 50 
16(12)->1 2 3 4 5 6 7 8 9 10 12 13 14 21 27 29 33 34 35 38 39 40 42 44 45 46 
17(10)->1 2 3 4 5 6 7 8 9 10 11 13 14 19 23 24 27 29 32 34 38 39 41 42 45 49 
18(11)->1 2 3 4 5 6 7 8 9 12 13 14 15 23 25 27 29 32 41 42 44 45 46 47 48 50 
19(8)->1 2 3 4 5 6 7 9 10 12 13 14 17 20 21 25 27 33 35 38 39 43 45 48 49 
20(7)->1 2 3 4 5 6 7 8 10 12 13 19 21 22 23 24 26 28 29 30 31 35 37 39 40 42 45 
21(11)->1 2 3 4 5 6 7 9 11 14 15 16 19 20 26 27 38 41 42 44 45 46 49 
22(8)->1 2 3 4 5 6 7 9 11 12 15 20 24 25 26 27 28 30 33 34 35 38 39 43 48 49 50 
23(12)->1 2 3 4 5 6 7 8 9 10 11 13 14 17 18 20 24 25 27 28 31 33 34 35 36 38 39 40 43 46 47 49 
24(11)->1 2 3 4 5 6 7 8 9 11 12 13 14 15 17 20 22 23 28 29 30 31 32 36 38 42 44 45 48 50 
25(7)->1 2 3 4 5 6 7 8 10 11 12 13 14 15 18 19 22 23 26 27 28 32 35 37 41 44 48 50 
26(12)->1 2 3 4 5 6 7 8 9 10 11 12 13 20 21 22 25 28 29 34 36 39 40 41 43 44 46 47 48 50 
27(14)->1 2 3 4 5 6 7 8 13 15 16 17 18 19 21 22 23 25 35 38 39 41 42 49 
28(9)->1 2 3 4 5 6 7 10 15 20 22 23 24 25 26 29 32 33 34 35 37 40 42 43 45 47 48 49 
29(14)->1 2 3 4 5 6 7 8 12 13 16 17 18 20 24 26 28 30 34 35 36 39 40 42 49 
30(9)->1 2 3 4 5 6 7 8 10 11 12 20 22 24 29 32 33 35 39 41 44 46 50 
31(6)->1 2 3 4 5 6 9 10 13 14 15 20 23 24 36 41 43 44 46 
32(12)->1 2 3 4 5 6 7 8 9 10 11 13 14 17 18 24 25 28 30 34 36 38 41 42 43 45 
33(11)->1 2 3 4 5 6 7 9 12 13 16 19 22 23 28 30 37 39 47 48 49 
34(11)->1 2 3 4 5 6 7 8 9 12 13 16 17 22 23 26 28 29 32 35 38 39 40 41 42 43 44 45 48 49 50 
35(10)->1 2 3 4 5 6 7 8 9 11 13 16 19 20 22 23 25 27 28 29 30 34 37 42 47 48 
36(10)->1 2 3 4 5 6 7 8 9 10 11 15 23 24 26 29 31 32 38 40 48 49 
37(12)->1 2 3 4 5 6 7 8 9 10 11 12 13 14 20 25 28 33 35 39 40 42 
38(9)->1 2 3 4 5 6 7 8 9 12 16 17 19 21 22 23 24 27 32 34 36 39 44 45 46 47 48 50 
39(13)->1 2 3 4 5 6 7 8 9 16 17 19 20 22 23 26 27 29 30 33 34 37 38 43 46 48 49 50 
40(5)->1 2 3 4 5 9 10 11 12 16 20 23 26 28 29 34 36 37 47 48 49 
41(13)->1 2 3 4 5 6 7 8 9 12 13 14 15 17 18 21 25 26 27 30 31 32 34 44 48 49 
42(8)->1 2 3 4 5 6 7 9 13 16 17 18 20 21 24 27 28 29 32 34 35 37 44 46 
43(10)->1 2 3 4 5 6 7 8 9 10 13 19 22 23 26 28 31 32 34 39 46 47 50 
44(10)->1 2 3 4 5 6 7 8 9 11 14 16 18 21 24 25 26 30 31 34 38 41 42 45 46 47 48 50 
45(13)->1 2 3 4 5 6 7 8 9 10 12 15 16 17 18 19 20 21 24 28 32 34 38 44 
46(5)->1 2 3 4 5 9 10 12 14 15 16 18 21 23 26 30 31 38 39 42 43 44 47 50 
47(13)->1 2 3 4 5 6 7 8 9 12 13 14 15 18 23 26 28 33 35 38 40 43 44 46 48 50 
48(6)->1 2 3 4 5 6 8 11 18 19 22 24 25 26 28 33 34 35 36 38 39 40 41 44 47 49 50 
49(7)->1 2 3 4 5 6 11 12 13 14 15 17 19 21 22 23 27 28 29 33 34 36 39 40 41 48 50 
50(3)->2 4 5 6 7 8 12 15 18 22 24 25 26 30 34 38 39 43 44 46 47 48 49 
COUNT: 11479
COLORS: 15
EDGES: 750
15
11479
