1: 2 3 4 5 6 7 8 9 10 11 12 13 14 15 16 17 18 19 20 21 22 23 24 25 26 27 28 29 30 31 32 33 34 35 36 37 38 39 40 41 42 43 44 45 46 47 48 49 50
2: 1 3 4 5 6 7 8 9 10 11 12 13 14 15 16 17 18 19 20 21 22 23 24 25 26 27 28 29 30 31 32 33 34 35 36 37 38 39 40 41 42 43 44 45 46 47 48 49 50
3: 1 2 4 5 6 7 8 9 10 11 12 13 14 15 16 17 18 19 20 21 22 23 24 25 26 27 28 29 30 31 32 33 34 35 36 37 38 39 40 41 42 43 44 45 46 47 48 49
4: 1 2 3 5 6 7 8 9 10 11 12 13 14 15 16 17 18 19 20 21 22 23 24 25 26 27 28 29 30 31 32 33 34 35 36 37 38 39 40 41 42 43 44 45 46 47 48 49 50
5: 1 2 3 4 6 7 8 9 10 11 12 13 14 15 16 17 18 19 20 21 22 23 24 25 26 27 28 29 31 32 33 34 35 36 37 39 40 41 42 43 44 45 46 47 48 49
6: 1 2 3 4 5 7 8 9 10 11 12 13 14 15 16 17 18 19 20 21 22 23 24 25 26 28 31 32 33 34 35 37 41 42 43 44 45 46 47 48
7: 1 2 3 4 5 6 8 9 10 11 12 13 14 15 16 17 18 19 20 21 22 23 24 25 26 27 28 29 30 31 32 33 34 35 42 43 45 46 47 48 50
8: 1 2 3 4 5 6 7 9 10 11 12 13 14 15 16 17 19 20 21 23 25 27 28 29 31 33 34 35 37 38 42 43 45 46 47 48 49
9: 1 2 3 4 5 6 7 8 10 11 12 13 14 15 16 17 20 22 23 24 25 26 28 30 31 32 33 34 35 36 38 41 42 45 46 47 48 49
10: 1 2 3 4 5 6 7 8 9 11 12 13 14 15 16 17 19 22 23 25 27 28 30 31 35 36 38 42 45 46 47 48
11: 1 2 3 4 5 6 7 8 9 10 12 13 14 15 16 17 21 22 24 25 27 28 29 32 35 36 42 44 45 46 47 48 49
12: 1 2 3 4 5 6 7 8 9 10 11 13 14 15 16 17 19 21 22 25 27 28 30 32 35 40 42 46 47 49
13: 1 2 3 4 5 6 7 8 9 10 11 12 14 15 16 17 18 21 22 23 26 35 37 39 40 41 43 46 47 49
14: 1 2 3 4 5 6 7 8 9 10 11 12 13 15 16 17 19 20 23 25 27 28 31 32 33 36 37 40 41 42 45 46 48
15: 1 2 3 4 5 6 7 8 9 10 11 12 13 14 16 17 19 34 35 38 40 41 43 44 46 47
16: 1 2 3 4 5 6 7 8 9 10 11 12 13 14 15 18 19 20 24 26 28 31 33 35 41 42 43 44 46 47 49
17: 1 2 3 4 5 6 7 8 9 10 11 12 13 14 15 20 21 25 26 29 30 32 33 35 37 38 39 40 44 45 48 49 50
18: 1 2 3 4 5 6 7 13 16 19 21 22 24 26 27 29 32 33 34 35 36 37 38 39 41 42 44 50
19: 1 2 3 4 5 6 7 8 10 12 14 15 16 18 21 25 26 29 33 38 40 43 45 46 47
20: 1 2 3 4 5 6 7 8 9 14 16 17 22 26 31 32 36 39 44 46 47 49 50
21: 1 2 3 4 5 6 7 8 11 12 13 17 18 19 22 26 28 36 37 39 40 42 48
22: 1 2 3 4 5 6 7 9 10 11 12 13 18 20 21 24 26 29 32 33 34 36 38 39 41 42 44 45 46 47 49 50
23: 1 2 3 4 5 6 7 8 9 10 13 14 24 25 26 27 31 32 33 35 38 40 43 45 47 48 50
24: 32 33 34 3 4 5 16 1 9 11 45 46 48 18 22 23 7 2 6 30 31
25: 1 2 3 4 5 6 7 8 9 10 11 12 14 17 19 23 28 33 34 35 37 42 43 44 47 48 49
26: 1 2 3 4 5 6 7 9 13 16 17 18 19 20 21 22 23 31 32 33 35 36 37 38 41 42 47
27: 1 2 3 4 5 7 8 10 11 12 14 18 23 29 31 32 33 36 37 39 40 41 42 44 47 49 50
28: 1 2 3 4 5 6 7 8 9 10 11 12 14 16 21 25 30 32 34 35 40 45 47 49 50
29: 1 2 3 4 5 7 8 11 17 18 19 22 27 32 33 34 36 37 38 40 43 47
30: 32 33 34 3 1 38 39 40 9 42 7 12 2 46 47 48 17 24 4 28 10
31: 1 2 3 4 5 6 7 8 9 10 14 16 20 23 24 26 27 32 34 35 38 43 44 45 47 48 49
32: 1 2 3 4 5 6 7 9 11 12 14 17 18 20 22 23 24 26 27 28 29 30 31 36 39 41 42 48 49 50
33: 1 2 3 4 5 6 7 8 9 14 16 17 18 19 22 23 24 25 26 27 29 30 34 35 36 38 46
34: 1 2 3 4 5 6 7 8 9 15 18 22 24 25 28 29 30 31 33 35 36 37 39 41 44 49 50
35: 1 2 3 4 5 6 7 8 9 10 11 12 13 15 16 17 18 23 25 26 28 31 33 34 42 43 45 46 47 48 50
36: 1 2 3 4 5 9 10 11 14 18 20 21 22 26 27 29 32 33 34 37 38 39 40 41 45 46 48 50
37: 1 2 3 4 5 6 8 13 14 17 18 21 25 26 27 29 34 36 39 41 44 49
38: 1 2 3 4 8 9 10 15 17 18 19 22 23 26 29 30 31 33 36 39 40 42 43 44 45 46 48 49
39: 1 2 3 4 5 13 17 18 20 21 22 27 30 32 34 36 37 38 43 46 48 50
40: 1 2 3 4 5 12 13 14 15 17 19 21 23 27 28 29 30 36 38 42 45 46
41: 32 1 34 3 36 37 6 9 2 13 14 15 16 49 18 46 22 4 26 27 5
42: 1 2 3 4 5 6 7 8 9 10 11 12 14 16 18 21 22 25 26 27 30 32 35 38 40 43 44 50
43: 1 2 3 4 5 6 7 8 13 15 16 19 23 25 29 31 35 38 39 42 45 49 50
44: 1 2 3 4 5 6 11 15 16 17 18 20 22 25 27 31 34 37 38 42 46 47 48 49 50
45: 1 2 3 4 5 6 7 8 9 10 11 14 17 19 22 23 24 28 31 35 36 38 40 43 46 48 49 50
46: 1 2 3 4 5 6 7 8 9 10 11 12 13 14 15 16 19 20 22 24 30 33 35 36 38 39 40 41 44 45 49 50
47: 1 2 3 4 5 6 7 8 9 10 11 12 13 15 16 19 20 22 23 25 26 27 28 29 30 31 35 44 50
48: 1 2 3 4 5 6 7 8 9 10 11 14 17 21 23 24 25 30 31 32 35 36 38 39 44 45 50
49: 1 2 3 4 5 8 9 11 12 13 16 17 20 22 25 27 28 31 32 34 37 38 41 43 44 45 46
50: 1 2 4 7 17 18 20 22 23 27 28 32 34 35 36 39 42 43 44 45 46 47 48
-------
1(-1)->2 3 4 5 6 7 8 9 10 11 12 13 14 15 16 17 18 19 20 21 22 23 24 25 26 27 28 29 30 31 32 33 34 35 36 37 38 39 40 41 42 43 44 45 46 47 48 49 50 
2(-1)->1 3 4 5 6 7 8 9 10 11 12 13 14 15 16 17 18 19 20 21 22 23 24 25 26 27 28 29 30 31 32 33 34 35 36 37 38 39 40 41 42 43 44 45 46 47 48 49 50 
3(-1)->1 2 4 5 6 7 8 9 10 11 12 13 14 15 16 17 18 19 20 21 22 23 24 25 26 27 28 29 30 31 32 33 34 35 36 37 38 39 40 41 42 43 44 45 46 47 48 49 
4(-1)->1 2 3 5 6 7 8 9 10 11 12 13 14 15 16 17 18 19 20 21 22 23 24 25 26 27 28 29 30 31 32 33 34 35 36 37 38 39 40 41 42 43 44 45 46 47 48 49 50 
5(-1)->1 2 3 4 6 7 8 9 10 11 12 13 14 15 16 17 18 19 20 21 22 23 24 25 26 27 28 29 31 32 33 34 35 36 37 39 40 41 42 43 44 45 46 47 48 49 
6(-1)->1 2 3 4 5 7 8 9 10 11 12 13 14 15 16 17 18 19 20 21 22 23 24 25 26 28 31 32 33 34 35 37 41 42 43 44 45 46 47 48 
7(-1)->1 2 3 4 5 6 8 9 10 11 12 13 14 15 16 17 18 19 20 21 22 23 24 25 26 27 28 29 30 31 32 33 34 35 42 43 45 46 47 48 50 
8(-1)->1 2 3 4 5 6 7 9 10 11 12 13 14 15 16 17 19 20 21 23 25 27 28 29 31 33 34 35 37 38 42 43 45 46 47 48 49 
9(-1)->1 2 3 4 5 6 7 8 10 11 12 13 14 15 16 17 20 22 23 24 25 26 28 30 31 32 33 34 35 36 38 41 42 45 46 47 48 49 
10(-1)->1 2 3 4 5 6 7 8 9 11 12 13 14 15 16 17 19 22 23 25 27 28 30 31 35 36 38 42 45 46 47 48 
11(-1)->1 2 3 4 5 6 7 8 9 10 12 13 14 15 16 17 21 22 24 25 27 28 29 32 35 36 42 44 45 46 47 48 49 
12(-1)->1 2 3 4 5 6 7 8 9 10 11 13 14 15 16 17 19 21 22 25 27 28 30 32 35 40 42 46 47 49 
13(-1)->1 2 3 4 5 6 7 8 9 10 11 12 14 15 16 17 18 21 22 23 26 35 37 39 40 41 43 46 47 49 
14(-1)->1 2 3 4 5 6 7 8 9 10 11 12 13 15 16 17 19 20 23 25 27 28 31 32 33 36 37 40 41 42 45 46 48 
15(-1)->1 2 3 4 5 6 7 8 9 10 11 12 13 14 16 17 19 34 35 38 40 41 43 44 46 47 
16(-1)->1 2 3 4 5 6 7 8 9 10 11 12 13 14 15 18 19 20 24 26 28 31 33 35 41 42 43 44 46 47 49 
17(-1)->1 2 3 4 5 6 7 8 9 10 11 12 13 14 15 20 21 25 26 29 30 32 33 35 37 38 39 40 44 45 48 49 50 
18(-1)->1 2 3 4 5 6 7 13 16 19 21 22 24 26 27 29 32 33 34 35 36 37 38 39 41 42 44 50 
19(-1)->1 2 3 4 5 6 7 8 10 12 14 15 16 18 21 25 26 29 33 38 40 43 45 46 47 
20(-1)->1 2 3 4 5 6 7 8 9 14 16 17 22 26 31 32 36 39 44 46 47 49 50 
21(-1)->1 2 3 4 5 6 7 8 11 12 13 17 18 19 22 26 28 36 37 39 40 42 48 
22(-1)->1 2 3 4 5 6 7 9 10 11 12 13 18 20 21 24 26 29 32 33 34 36 38 39 41 42 44 45 46 47 49 50 
23(-1)->1 2 3 4 5 6 7 8 9 10 13 14 24 25 26 27 31 32 33 35 38 40 43 45 47 48 50 
24(-1)->1 2 3 4 5 6 7 9 11 16 18 22 23 30 31 32 33 34 45 46 48 
25(-1)->1 2 3 4 5 6 7 8 9 10 11 12 14 17 19 23 28 33 34 35 37 42 43 44 47 48 49 
26(-1)->1 2 3 4 5 6 7 9 13 16 17 18 19 20 21 22 23 31 32 33 35 36 37 38 41 42 47 
27(-1)->1 2 3 4 5 7 8 10 11 12 14 18 23 29 31 32 33 36 37 39 40 41 42 44 47 49 50 
28(-1)->1 2 3 4 5 6 7 8 9 10 11 12 14 16 21 25 30 32 34 35 40 45 47 49 50 
29(-1)->1 2 3 4 5 7 8 11 17 18 19 22 27 32 33 34 36 37 38 40 43 47 
30(-1)->1 2 3 4 7 9 10 12 17 24 28 32 33 34 38 39 40 42 46 47 48 
31(-1)->1 2 3 4 5 6 7 8 9 10 14 16 20 23 24 26 27 32 34 35 38 43 44 45 47 48 49 
32(-1)->1 2 3 4 5 6 7 9 11 12 14 17 18 20 22 23 24 26 27 28 29 30 31 36 39 41 42 48 49 50 
33(-1)->1 2 3 4 5 6 7 8 9 14 16 17 18 19 22 23 24 25 26 27 29 30 34 35 36 38 46 
34(-1)->1 2 3 4 5 6 7 8 9 15 18 22 24 25 28 29 30 31 33 35 36 37 39 41 44 49 50 
35(-1)->1 2 3 4 5 6 7 8 9 10 11 12 13 15 16 17 18 23 25 26 28 31 33 34 42 43 45 46 47 48 50 
36(-1)->1 2 3 4 5 9 10 11 14 18 20 21 22 26 27 29 32 33 34 37 38 39 40 41 45 46 48 50 
37(-1)->1 2 3 4 5 6 8 13 14 17 18 21 25 26 27 29 34 36 39 41 44 49 
38(-1)->1 2 3 4 8 9 10 15 17 18 19 22 23 26 29 30 31 33 36 39 40 42 43 44 45 46 48 49 
39(-1)->1 2 3 4 5 13 17 18 20 21 22 27 30 32 34 36 37 38 43 46 48 50 
40(-1)->1 2 3 4 5 12 13 14 15 17 19 21 23 27 28 29 30 36 38 42 45 46 
41(-1)->1 2 3 4 5 6 9 13 14 15 16 18 22 26 27 32 34 36 37 46 49 
42(-1)->1 2 3 4 5 6 7 8 9 10 11 12 14 16 18 21 22 25 26 27 30 32 35 38 40 43 44 50 
43(-1)->1 2 3 4 5 6 7 8 13 15 16 19 23 25 29 31 35 38 39 42 45 49 50 
44(-1)->1 2 3 4 5 6 11 15 16 17 18 20 22 25 27 31 34 37 38 42 46 47 48 49 50 
45(-1)->1 2 3 4 5 6 7 8 9 10 11 14 17 19 22 23 24 28 31 35 36 38 40 43 46 48 49 50 
46(-1)->1 2 3 4 5 6 7 8 9 10 11 12 13 14 15 16 19 20 22 24 30 33 35 36 38 39 40 41 44 45 49 50 
47(-1)->1 2 3 4 5 6 7 8 9 10 11 12 13 15 16 19 20 22 23 25 26 27 28 29 30 31 35 44 50 
48(-1)->1 2 3 4 5 6 7 8 9 10 11 14 17 21 23 24 25 30 31 32 35 36 38 39 44 45 50 
49(-1)->1 2 3 4 5 8 9 11 12 13 16 17 20 22 25 27 28 31 32 34 37 38 41 43 44 45 46 
50(-1)->1 2 4 7 17 18 20 22 23 27 28 32 34 35 36 39 42 43 44 45 46 47 48 
-------
Node 1 maps to position 0
Node 2 maps to position 1
Node 4 maps to position 2
Node 3 maps to position 3
Node 5 maps to position 4
Node 7 maps to position 5
Node 6 maps to position 6
Node 9 maps to position 7
Node 8 maps to position 8
Node 11 maps to position 9
Node 14 maps to position 10
Node 17 maps to position 11
Node 10 maps to position 12
Node 22 maps to position 13
Node 46 maps to position 14
Node 16 maps to position 15
Node 35 maps to position 16
Node 12 maps to position 17
Node 13 maps to position 18
Node 47 maps to position 19
Node 23 maps to position 20
Node 32 maps to position 21
Node 18 maps to position 22
Node 36 maps to position 23
Node 38 maps to position 24
Node 42 maps to position 25
Node 25 maps to position 26
Node 33 maps to position 27
Node 26 maps to position 28
Node 31 maps to position 29
Node 45 maps to position 30
Node 48 maps to position 31
Node 44 maps to position 32
Node 27 maps to position 33
Node 49 maps to position 34
Node 34 maps to position 35
Node 15 maps to position 36
Node 19 maps to position 37
Node 21 maps to position 38
Node 28 maps to position 39
Node 50 maps to position 40
Node 20 maps to position 41
Node 39 maps to position 42
Node 43 maps to position 43
Node 29 maps to position 44
Node 37 maps to position 45
Node 41 maps to position 46
Node 40 maps to position 47
Node 30 maps to position 48
Node 24 maps to position 49
1(-1)->2 3 4 5 6 7 8 9 10 11 12 13 14 15 16 17 18 19 20 21 22 23 24 25 26 27 28 29 30 31 32 33 34 35 36 37 38 39 40 41 42 43 44 45 46 47 48 49 50 
2(-1)->1 3 4 5 6 7 8 9 10 11 12 13 14 15 16 17 18 19 20 21 22 23 24 25 26 27 28 29 30 31 32 33 34 35 36 37 38 39 40 41 42 43 44 45 46 47 48 49 50 
4(-1)->1 2 3 5 6 7 8 9 10 11 12 13 14 15 16 17 18 19 20 21 22 23 24 25 26 27 28 29 30 31 32 33 34 35 36 37 38 39 40 41 42 43 44 45 46 47 48 49 50 
3(-1)->1 2 4 5 6 7 8 9 10 11 12 13 14 15 16 17 18 19 20 21 22 23 24 25 26 27 28 29 30 31 32 33 34 35 36 37 38 39 40 41 42 43 44 45 46 47 48 49 
5(-1)->1 2 3 4 6 7 8 9 10 11 12 13 14 15 16 17 18 19 20 21 22 23 24 25 26 27 28 29 31 32 33 34 35 36 37 39 40 41 42 43 44 45 46 47 48 49 
7(-1)->1 2 3 4 5 6 8 9 10 11 12 13 14 15 16 17 18 19 20 21 22 23 24 25 26 27 28 29 30 31 32 33 34 35 42 43 45 46 47 48 50 
6(-1)->1 2 3 4 5 7 8 9 10 11 12 13 14 15 16 17 18 19 20 21 22 23 24 25 26 28 31 32 33 34 35 37 41 42 43 44 45 46 47 48 
9(-1)->1 2 3 4 5 6 7 8 10 11 12 13 14 15 16 17 20 22 23 24 25 26 28 30 31 32 33 34 35 36 38 41 42 45 46 47 48 49 
8(-1)->1 2 3 4 5 6 7 9 10 11 12 13 14 15 16 17 19 20 21 23 25 27 28 29 31 33 34 35 37 38 42 43 45 46 47 48 49 
11(-1)->1 2 3 4 5 6 7 8 9 10 12 13 14 15 16 17 21 22 24 25 27 28 29 32 35 36 42 44 45 46 47 48 49 
14(-1)->1 2 3 4 5 6 7 8 9 10 11 12 13 15 16 17 19 20 23 25 27 28 31 32 33 36 37 40 41 42 45 46 48 
17(-1)->1 2 3 4 5 6 7 8 9 10 11 12 13 14 15 20 21 25 26 29 30 32 33 35 37 38 39 40 44 45 48 49 50 
10(-1)->1 2 3 4 5 6 7 8 9 11 12 13 14 15 16 17 19 22 23 25 27 28 30 31 35 36 38 42 45 46 47 48 
22(-1)->1 2 3 4 5 6 7 9 10 11 12 13 18 20 21 24 26 29 32 33 34 36 38 39 41 42 44 45 46 47 49 50 
46(-1)->1 2 3 4 5 6 7 8 9 10 11 12 13 14 15 16 19 20 22 24 30 33 35 36 38 39 40 41 44 45 49 50 
16(-1)->1 2 3 4 5 6 7 8 9 10 11 12 13 14 15 18 19 20 24 26 28 31 33 35 41 42 43 44 46 47 49 
35(-1)->1 2 3 4 5 6 7 8 9 10 11 12 13 15 16 17 18 23 25 26 28 31 33 34 42 43 45 46 47 48 50 
12(-1)->1 2 3 4 5 6 7 8 9 10 11 13 14 15 16 17 19 21 22 25 27 28 30 32 35 40 42 46 47 49 
13(-1)->1 2 3 4 5 6 7 8 9 10 11 12 14 15 16 17 18 21 22 23 26 35 37 39 40 41 43 46 47 49 
47(-1)->1 2 3 4 5 6 7 8 9 10 11 12 13 15 16 19 20 22 23 25 26 27 28 29 30 31 35 44 50 
23(-1)->1 2 3 4 5 6 7 8 9 10 13 14 24 25 26 27 31 32 33 35 38 40 43 45 47 48 50 
32(-1)->1 2 3 4 5 6 7 9 11 12 14 17 18 20 22 23 24 26 27 28 29 30 31 36 39 41 42 48 49 50 
18(-1)->1 2 3 4 5 6 7 13 16 19 21 22 24 26 27 29 32 33 34 35 36 37 38 39 41 42 44 50 
36(-1)->1 2 3 4 5 9 10 11 14 18 20 21 22 26 27 29 32 33 34 37 38 39 40 41 45 46 48 50 
38(-1)->1 2 3 4 8 9 10 15 17 18 19 22 23 26 29 30 31 33 36 39 40 42 43 44 45 46 48 49 
42(-1)->1 2 3 4 5 6 7 8 9 10 11 12 14 16 18 21 22 25 26 27 30 32 35 38 40 43 44 50 
25(-1)->1 2 3 4 5 6 7 8 9 10 11 12 14 17 19 23 28 33 34 35 37 42 43 44 47 48 49 
33(-1)->1 2 3 4 5 6 7 8 9 14 16 17 18 19 22 23 24 25 26 27 29 30 34 35 36 38 46 
26(-1)->1 2 3 4 5 6 7 9 13 16 17 18 19 20 21 22 23 31 32 33 35 36 37 38 41 42 47 
31(-1)->1 2 3 4 5 6 7 8 9 10 14 16 20 23 24 26 27 32 34 35 38 43 44 45 47 48 49 
45(-1)->1 2 3 4 5 6 7 8 9 10 11 14 17 19 22 23 24 28 31 35 36 38 40 43 46 48 49 50 
48(-1)->1 2 3 4 5 6 7 8 9 10 11 14 17 21 23 24 25 30 31 32 35 36 38 39 44 45 50 
44(-1)->1 2 3 4 5 6 11 15 16 17 18 20 22 25 27 31 34 37 38 42 46 47 48 49 50 
27(-1)->1 2 3 4 5 7 8 10 11 12 14 18 23 29 31 32 33 36 37 39 40 41 42 44 47 49 50 
49(-1)->1 2 3 4 5 8 9 11 12 13 16 17 20 22 25 27 28 31 32 34 37 38 41 43 44 45 46 
34(-1)->1 2 3 4 5 6 7 8 9 15 18 22 24 25 28 29 30 31 33 35 36 37 39 41 44 49 50 
15(-1)->1 2 3 4 5 6 7 8 9 10 11 12 13 14 16 17 19 34 35 38 40 41 43 44 46 47 
19(-1)->1 2 3 4 5 6 7 8 10 12 14 15 16 18 21 25 26 29 33 38 40 43 45 46 47 
21(-1)->1 2 3 4 5 6 7 8 11 12 13 17 18 19 22 26 28 36 37 39 40 42 48 
28(-1)->1 2 3 4 5 6 7 8 9 10 11 12 14 16 21 25 30 32 34 35 40 45 47 49 50 
50(-1)->1 2 4 7 17 18 20 22 23 27 28 32 34 35 36 39 42 43 44 45 46 47 48 
20(-1)->1 2 3 4 5 6 7 8 9 14 16 17 22 26 31 32 36 39 44 46 47 49 50 
39(-1)->1 2 3 4 5 13 17 18 20 21 22 27 30 32 34 36 37 38 43 46 48 50 
43(-1)->1 2 3 4 5 6 7 8 13 15 16 19 23 25 29 31 35 38 39 42 45 49 50 
29(-1)->1 2 3 4 5 7 8 11 17 18 19 22 27 32 33 34 36 37 38 40 43 47 
37(-1)->1 2 3 4 5 6 8 13 14 17 18 21 25 26 27 29 34 36 39 41 44 49 
41(-1)->1 2 3 4 5 6 9 13 14 15 16 18 22 26 27 32 34 36 37 46 49 
40(-1)->1 2 3 4 5 12 13 14 15 17 19 21 23 27 28 29 30 36 38 42 45 46 
30(-1)->1 2 3 4 7 9 10 12 17 24 28 32 33 34 38 39 40 42 46 47 48 
24(-1)->1 2 3 4 5 6 7 9 11 16 18 22 23 30 31 32 33 34 45 46 48 
-------
BLAH
START TIME: 1433714055
10000
20000
30000
40000
50000
60000
70000
80000
90000
100000
110000
120000
130000
140000
150000
160000
170000
180000
190000
200000
210000
220000
230000
240000
250000
260000
270000
280000
290000
300000
310000
320000
330000
340000
350000
360000
370000
380000
390000
400000
410000
420000
430000
440000
450000
460000
470000
480000
490000
500000
510000
1(0)->2 3 4 5 6 7 8 9 10 11 12 13 14 15 16 17 18 19 20 21 22 23 24 25 26 27 28 29 30 31 32 33 34 35 36 37 38 39 40 41 42 43 44 45 46 47 48 49 50 
2(1)->1 3 4 5 6 7 8 9 10 11 12 13 14 15 16 17 18 19 20 21 22 23 24 25 26 27 28 29 30 31 32 33 34 35 36 37 38 39 40 41 42 43 44 45 46 47 48 49 50 
3(3)->1 2 4 5 6 7 8 9 10 11 12 13 14 15 16 17 18 19 20 21 22 23 24 25 26 27 28 29 30 31 32 33 34 35 36 37 38 39 40 41 42 43 44 45 46 47 48 49 
4(2)->1 2 3 5 6 7 8 9 10 11 12 13 14 15 16 17 18 19 20 21 22 23 24 25 26 27 28 29 30 31 32 33 34 35 36 37 38 39 40 41 42 43 44 45 46 47 48 49 50 
5(4)->1 2 3 4 6 7 8 9 10 11 12 13 14 15 16 17 18 19 20 21 22 23 24 25 26 27 28 29 31 32 33 34 35 36 37 39 40 41 42 43 44 45 46 47 48 49 
6(6)->1 2 3 4 5 7 8 9 10 11 12 13 14 15 16 17 18 19 20 21 22 23 24 25 26 28 31 32 33 34 35 37 41 42 43 44 45 46 47 48 
7(5)->1 2 3 4 5 6 8 9 10 11 12 13 14 15 16 17 18 19 20 21 22 23 24 25 26 27 28 29 30 31 32 33 34 35 42 43 45 46 47 48 50 
8(8)->1 2 3 4 5 6 7 9 10 11 12 13 14 15 16 17 19 20 21 23 25 27 28 29 31 33 34 35 37 38 42 43 45 46 47 48 49 
9(7)->1 2 3 4 5 6 7 8 10 11 12 13 14 15 16 17 20 22 23 24 25 26 28 30 31 32 33 34 35 36 38 41 42 45 46 47 48 49 
10(12)->1 2 3 4 5 6 7 8 9 11 12 13 14 15 16 17 19 22 23 25 27 28 30 31 35 36 38 42 45 46 47 48 
11(9)->1 2 3 4 5 6 7 8 9 10 12 13 14 15 16 17 21 22 24 25 27 28 29 32 35 36 42 44 45 46 47 48 49 
12(14)->1 2 3 4 5 6 7 8 9 10 11 13 14 15 16 17 19 21 22 25 27 28 30 32 35 40 42 46 47 49 
13(15)->1 2 3 4 5 6 7 8 9 10 11 12 14 15 16 17 18 21 22 23 26 35 37 39 40 41 43 46 47 49 
14(10)->1 2 3 4 5 6 7 8 9 10 11 12 13 15 16 17 19 20 23 25 27 28 31 32 33 36 37 40 41 42 45 46 48 
15(16)->1 2 3 4 5 6 7 8 9 10 11 12 13 14 16 17 19 34 35 38 40 41 43 44 46 47 
16(13)->1 2 3 4 5 6 7 8 9 10 11 12 13 14 15 18 19 20 24 26 28 31 33 35 41 42 43 44 46 47 49 
17(11)->1 2 3 4 5 6 7 8 9 10 11 12 13 14 15 20 21 25 26 29 30 32 33 35 37 38 39 40 44 45 48 49 50 
18(7)->1 2 3 4 5 6 7 13 16 19 21 22 24 26 27 29 32 33 34 35 36 37 38 39 41 42 44 50 
19(9)->1 2 3 4 5 6 7 8 10 12 14 15 16 18 21 25 26 29 33 38 40 43 45 46 47 
20(9)->1 2 3 4 5 6 7 8 9 14 16 17 22 26 31 32 36 39 44 46 47 49 50 
21(10)->1 2 3 4 5 6 7 8 11 12 13 17 18 19 22 26 28 36 37 39 40 42 48 
22(8)->1 2 3 4 5 6 7 9 10 11 12 13 18 20 21 24 26 29 32 33 34 36 38 39 41 42 44 45 46 47 49 50 
23(9)->1 2 3 4 5 6 7 8 9 10 13 14 24 25 26 27 31 32 33 35 38 40 43 45 47 48 50 
24(10)->1 2 3 4 5 6 7 9 11 16 18 22 23 30 31 32 33 34 45 46 48 
25(13)->1 2 3 4 5 6 7 8 9 10 11 12 14 17 19 23 28 33 34 35 37 42 43 44 47 48 49 
26(14)->1 2 3 4 5 6 7 9 13 16 17 18 19 20 21 22 23 31 32 33 35 36 37 38 41 42 47 
27(6)->1 2 3 4 5 7 8 10 11 12 14 18 23 29 31 32 33 36 37 39 40 41 42 44 47 49 50 
28(15)->1 2 3 4 5 6 7 8 9 10 11 12 14 16 21 25 30 32 34 35 40 45 47 49 50 
29(10)->1 2 3 4 5 7 8 11 17 18 19 22 27 32 33 34 36 37 38 40 43 47 
30(6)->1 2 3 4 7 9 10 12 17 24 28 32 33 34 38 39 40 42 46 47 48 
31(15)->1 2 3 4 5 6 7 8 9 10 14 16 20 23 24 26 27 32 34 35 38 43 44 45 47 48 49 
32(12)->1 2 3 4 5 6 7 9 11 12 14 17 18 20 22 23 24 26 27 28 29 30 31 36 39 41 42 48 49 50 
33(12)->1 2 3 4 5 6 7 8 9 14 16 17 18 19 22 23 24 25 26 27 29 30 34 35 36 38 46 
34(11)->1 2 3 4 5 6 7 8 9 15 18 22 24 25 28 29 30 31 33 35 36 37 39 41 44 49 50 
35(10)->1 2 3 4 5 6 7 8 9 10 11 12 13 15 16 17 18 23 25 26 28 31 33 34 42 43 45 46 47 48 50 
36(5)->1 2 3 4 5 9 10 11 14 18 20 21 22 26 27 29 32 33 34 37 38 39 40 41 45 46 48 50 
37(12)->1 2 3 4 5 6 8 13 14 17 18 21 25 26 27 29 34 36 39 41 44 49 
38(4)->1 2 3 4 8 9 10 15 17 18 19 22 23 26 29 30 31 33 36 39 40 42 43 44 45 46 48 49 
39(13)->1 2 3 4 5 13 17 18 20 21 22 27 30 32 34 36 37 38 43 46 48 50 
40(7)->1 2 3 4 5 12 13 14 15 17 19 21 23 27 28 29 30 36 38 42 45 46 
41(9)->1 2 3 4 5 6 9 13 14 15 16 18 22 26 27 32 34 36 37 46 49 
42(11)->1 2 3 4 5 6 7 8 9 10 11 12 14 16 18 21 22 25 26 27 30 32 35 38 40 43 44 50 
43(7)->1 2 3 4 5 6 7 8 13 15 16 19 23 25 29 31 35 38 39 42 45 49 50 
44(5)->1 2 3 4 5 6 11 15 16 17 18 20 22 25 27 31 34 37 38 42 46 47 48 49 50 
45(13)->1 2 3 4 5 6 7 8 9 10 11 14 17 19 22 23 24 28 31 35 36 38 40 43 46 48 49 50 
46(11)->1 2 3 4 5 6 7 8 9 10 11 12 13 14 15 16 19 20 22 24 30 33 35 36 38 39 40 41 44 45 49 50 
47(11)->1 2 3 4 5 6 7 8 9 10 11 12 13 15 16 19 20 22 23 25 26 27 28 29 30 31 35 44 50 
48(14)->1 2 3 4 5 6 7 8 9 10 11 14 17 21 23 24 25 30 31 32 35 36 38 39 44 45 50 
49(10)->1 2 3 4 5 8 9 11 12 13 16 17 20 22 25 27 28 31 32 34 37 38 41 43 44 45 46 
50(3)->1 2 4 7 17 18 20 22 23 27 28 32 34 35 36 39 42 43 44 45 46 47 48 
COUNT: 517631
COLORS: 17
EDGES: 750
17
517631
