1: 2 3 4 5 6 7 8 9 10 11 12 13 14 15 16 17 18 19 20 21 22 23 24 25 26 27 28 29 30 31 32 33 34 35 36 37 38 39 40 41 42 43 44 45 46 47 48 49 50
2: 1 3 4 5 6 7 8 9 10 11 12 13 14 15 16 17 18 19 20 21 22 23 24 25 26 27 28 29 30 31 32 33 34 35 36 37 38 39 40 41 42 43 44 45 46 47 48 49
3: 1 2 4 5 6 7 8 9 10 11 12 13 14 15 16 17 18 19 20 21 22 23 24 25 26 27 28 29 30 31 32 33 34 35 36 37 38 39 40 41 42 43 44 45 46 47 48 49
4: 1 2 3 5 6 7 8 9 10 11 12 13 14 15 16 17 18 19 20 21 22 23 24 25 26 27 28 29 30 31 32 33 34 35 36 37 40 41 42 44 45 46 47 48 49
5: 1 2 3 4 6 7 8 9 10 11 12 13 14 15 16 17 18 19 20 21 22 23 24 26 27 28 29 30 31 32 33 34 35 37 38 40 41 42 45 46 48 49 50
6: 1 2 3 4 5 7 8 9 10 11 12 13 14 15 16 17 18 20 21 22 23 24 26 27 28 29 30 31 32 33 34 35 37 38 40 41 44 45 46 48 49
7: 1 2 3 4 5 6 8 9 11 12 13 14 16 17 18 20 22 23 24 25 26 27 28 29 30 31 32 33 34 36 37 38 41 44 45 46 47 48 49 50
8: 1 2 3 4 5 6 7 9 11 12 13 14 16 17 18 20 22 24 29 30 32 34 35 37 38 39 40 42 43 44 45 47 48
9: 1 2 3 4 5 6 7 8 10 11 13 14 16 17 21 23 26 27 28 29 31 32 35 40 43 46
10: 1 2 3 4 5 6 9 11 12 13 14 15 17 19 20 21 27 28 29 32 35 37 39
11: 1 2 3 4 5 6 7 8 9 10 12 13 15 17 18 20 24 26 27 28 29 30 31 36 37 38 41 42 43 46 47
12: 1 2 3 4 37 6 7 8 10 11 13 15 17 23 5
13: 1 2 3 4 5 6 7 8 9 10 11 12 14 15 20 22 23 24 25 27 30 31 34 35 40 41 42 43 44 46 47 48 49
14: 1 2 3 4 5 6 7 8 9 10 13 25 27 29 30 35 36 39 40 42 48 49
15: 1 2 3 4 5 6 10 11 12 13 17 18 19 22 23 28 29 34 35 36 37 39 41 49
16: 1 2 3 4 5 6 7 8 9 42 49 50 20 21 23 26 28 30
17: 1 2 3 4 5 6 7 8 9 10 11 12 15 22 28 29 30 37 38 44 45 47 48 50
18: 1 2 3 4 5 6 7 8 11 15 20 22 24 29 30 33 34 37 40 41 42 44 45 46
19: 1 2 3 4 5 10 15 20 22 23 24 25 26 31 32 35 36 38 39 40 42 44 45
20: 1 2 3 4 5 6 7 8 10 11 13 16 18 19 30 31 36 40 43 44 48 49
21: 32 1 2 3 4 5 6 41 42 43 44 16 10 9 22 23 24 26 28 29
22: 1 2 3 4 5 6 7 8 13 15 17 18 19 21 23 24 29 30 31 32 33 36 38 39 41 47
23: 1 2 3 4 5 6 7 9 12 13 15 16 19 21 22 29 30 33 35 37 38 39 40 41 44 47 48
24: 1 2 3 4 5 6 7 8 11 13 18 19 21 22 26 27 31 33 35 36 42 43 44 46 50
25: 1 2 3 4 7 13 14 19 27 28 29 31 34 36 38 39 40 41 45 48 49 50
26: 33 2 3 1 5 38 39 9 11 44 46 47 48 19 21 24 7 6 27 4 16
27: 1 2 3 4 5 6 7 9 10 11 13 14 24 25 26 30 35 38 40 41 42 44 45 46 49
28: 1 2 3 4 5 6 7 9 10 11 15 16 17 21 25 30 37 38 41 45 46 47 50
29: 1 2 3 4 5 6 7 8 9 10 11 14 15 17 18 21 22 23 25 30 33 35 36 37 38 45
30: 1 2 3 4 5 6 7 8 11 13 14 16 17 18 20 22 23 27 28 29 35 36 37 40 44
31: 1 2 3 4 5 6 7 9 11 13 19 20 22 24 25 32 33 37 41 42 48 49
32: 1 2 3 4 5 6 7 8 9 42 45 46 48 40 19 21 22 10 31
33: 1 2 3 4 5 6 7 18 22 23 24 26 29 31 36 38 39 42 44 45 47 50
34: 1 18 35 4 37 6 7 8 41 39 13 45 46 47 43 50 3 2 25 15 5
35: 1 2 3 4 5 6 8 9 10 13 14 15 19 23 24 27 29 30 34 37 42 43 46 49 50
36: 1 2 3 4 7 11 14 15 19 20 22 24 25 29 30 33 40 42 44 45 47 48 50
37: 1 2 3 4 5 6 7 8 10 11 12 15 17 18 23 28 29 30 31 34 35 38 46 47
38: 1 2 3 5 6 7 8 11 17 19 22 23 25 26 27 28 29 33 37 40 42 43 46
39: 33 34 3 1 8 10 43 45 46 15 50 19 14 22 23 2 25 26
40: 1 2 3 4 5 6 8 9 13 14 18 19 20 23 25 27 30 32 36 38 41 48 49 50
41: 1 2 3 4 5 6 7 11 13 15 18 21 22 23 25 27 28 31 34 40 42 45 47 50
42: 1 2 3 4 5 8 11 13 14 16 18 19 21 24 27 31 32 33 35 36 38 41 43 49
43: 1 34 35 38 39 8 9 42 11 13 50 3 20 21 24 2
44: 1 2 3 4 6 7 8 13 17 18 19 20 21 23 24 26 27 30 33 36 46 50
45: 1 2 3 4 5 6 7 8 17 18 19 25 27 28 29 32 33 34 36 39 41 47
46: 1 2 3 4 5 6 7 9 11 13 18 24 26 27 28 32 34 35 37 38 39 44 49
47: 33 34 3 36 37 7 8 41 11 13 45 17 1 22 23 2 4 26 28
48: 32 1 2 3 36 49 6 7 40 13 14 17 20 8 23 25 26 5 4 31
49: 48 2 35 1 5 6 7 40 42 13 46 15 16 3 20 14 25 27 4 31
50: 1 34 35 36 5 39 40 41 43 44 16 17 24 25 33 28 7
-------
1(-1)->2 3 4 5 6 7 8 9 10 11 12 13 14 15 16 17 18 19 20 21 22 23 24 25 26 27 28 29 30 31 32 33 34 35 36 37 38 39 40 41 42 43 44 45 46 47 48 49 50 
2(-1)->1 3 4 5 6 7 8 9 10 11 12 13 14 15 16 17 18 19 20 21 22 23 24 25 26 27 28 29 30 31 32 33 34 35 36 37 38 39 40 41 42 43 44 45 46 47 48 49 
3(-1)->1 2 4 5 6 7 8 9 10 11 12 13 14 15 16 17 18 19 20 21 22 23 24 25 26 27 28 29 30 31 32 33 34 35 36 37 38 39 40 41 42 43 44 45 46 47 48 49 
4(-1)->1 2 3 5 6 7 8 9 10 11 12 13 14 15 16 17 18 19 20 21 22 23 24 25 26 27 28 29 30 31 32 33 34 35 36 37 40 41 42 44 45 46 47 48 49 
5(-1)->1 2 3 4 6 7 8 9 10 11 12 13 14 15 16 17 18 19 20 21 22 23 24 26 27 28 29 30 31 32 33 34 35 37 38 40 41 42 45 46 48 49 50 
6(-1)->1 2 3 4 5 7 8 9 10 11 12 13 14 15 16 17 18 20 21 22 23 24 26 27 28 29 30 31 32 33 34 35 37 38 40 41 44 45 46 48 49 
7(-1)->1 2 3 4 5 6 8 9 11 12 13 14 16 17 18 20 22 23 24 25 26 27 28 29 30 31 32 33 34 36 37 38 41 44 45 46 47 48 49 50 
8(-1)->1 2 3 4 5 6 7 9 11 12 13 14 16 17 18 20 22 24 29 30 32 34 35 37 38 39 40 42 43 44 45 47 48 
9(-1)->1 2 3 4 5 6 7 8 10 11 13 14 16 17 21 23 26 27 28 29 31 32 35 40 43 46 
10(-1)->1 2 3 4 5 6 9 11 12 13 14 15 17 19 20 21 27 28 29 32 35 37 39 
11(-1)->1 2 3 4 5 6 7 8 9 10 12 13 15 17 18 20 24 26 27 28 29 30 31 36 37 38 41 42 43 46 47 
12(-1)->1 2 3 4 5 6 7 8 10 11 13 15 17 23 37 
13(-1)->1 2 3 4 5 6 7 8 9 10 11 12 14 15 20 22 23 24 25 27 30 31 34 35 40 41 42 43 44 46 47 48 49 
14(-1)->1 2 3 4 5 6 7 8 9 10 13 25 27 29 30 35 36 39 40 42 48 49 
15(-1)->1 2 3 4 5 6 10 11 12 13 17 18 19 22 23 28 29 34 35 36 37 39 41 49 
16(-1)->1 2 3 4 5 6 7 8 9 20 21 23 26 28 30 42 49 50 
17(-1)->1 2 3 4 5 6 7 8 9 10 11 12 15 22 28 29 30 37 38 44 45 47 48 50 
18(-1)->1 2 3 4 5 6 7 8 11 15 20 22 24 29 30 33 34 37 40 41 42 44 45 46 
19(-1)->1 2 3 4 5 10 15 20 22 23 24 25 26 31 32 35 36 38 39 40 42 44 45 
20(-1)->1 2 3 4 5 6 7 8 10 11 13 16 18 19 30 31 36 40 43 44 48 49 
21(-1)->1 2 3 4 5 6 9 10 16 22 23 24 26 28 29 32 41 42 43 44 
22(-1)->1 2 3 4 5 6 7 8 13 15 17 18 19 21 23 24 29 30 31 32 33 36 38 39 41 47 
23(-1)->1 2 3 4 5 6 7 9 12 13 15 16 19 21 22 29 30 33 35 37 38 39 40 41 44 47 48 
24(-1)->1 2 3 4 5 6 7 8 11 13 18 19 21 22 26 27 31 33 35 36 42 43 44 46 50 
25(-1)->1 2 3 4 7 13 14 19 27 28 29 31 34 36 38 39 40 41 45 48 49 50 
26(-1)->1 2 3 4 5 6 7 9 11 16 19 21 24 27 33 38 39 44 46 47 48 
27(-1)->1 2 3 4 5 6 7 9 10 11 13 14 24 25 26 30 35 38 40 41 42 44 45 46 49 
28(-1)->1 2 3 4 5 6 7 9 10 11 15 16 17 21 25 30 37 38 41 45 46 47 50 
29(-1)->1 2 3 4 5 6 7 8 9 10 11 14 15 17 18 21 22 23 25 30 33 35 36 37 38 45 
30(-1)->1 2 3 4 5 6 7 8 11 13 14 16 17 18 20 22 23 27 28 29 35 36 37 40 44 
31(-1)->1 2 3 4 5 6 7 9 11 13 19 20 22 24 25 32 33 37 41 42 48 49 
32(-1)->1 2 3 4 5 6 7 8 9 10 19 21 22 31 40 42 45 46 48 
33(-1)->1 2 3 4 5 6 7 18 22 23 24 26 29 31 36 38 39 42 44 45 47 50 
34(-1)->1 2 3 4 5 6 7 8 13 15 18 25 35 37 39 41 43 45 46 47 50 
35(-1)->1 2 3 4 5 6 8 9 10 13 14 15 19 23 24 27 29 30 34 37 42 43 46 49 50 
36(-1)->1 2 3 4 7 11 14 15 19 20 22 24 25 29 30 33 40 42 44 45 47 48 50 
37(-1)->1 2 3 4 5 6 7 8 10 11 12 15 17 18 23 28 29 30 31 34 35 38 46 47 
38(-1)->1 2 3 5 6 7 8 11 17 19 22 23 25 26 27 28 29 33 37 40 42 43 46 
39(-1)->1 2 3 8 10 14 15 19 22 23 25 26 33 34 43 45 46 50 
40(-1)->1 2 3 4 5 6 8 9 13 14 18 19 20 23 25 27 30 32 36 38 41 48 49 50 
41(-1)->1 2 3 4 5 6 7 11 13 15 18 21 22 23 25 27 28 31 34 40 42 45 47 50 
42(-1)->1 2 3 4 5 8 11 13 14 16 18 19 21 24 27 31 32 33 35 36 38 41 43 49 
43(-1)->1 2 3 8 9 11 13 20 21 24 34 35 38 39 42 50 
44(-1)->1 2 3 4 6 7 8 13 17 18 19 20 21 23 24 26 27 30 33 36 46 50 
45(-1)->1 2 3 4 5 6 7 8 17 18 19 25 27 28 29 32 33 34 36 39 41 47 
46(-1)->1 2 3 4 5 6 7 9 11 13 18 24 26 27 28 32 34 35 37 38 39 44 49 
47(-1)->1 2 3 4 7 8 11 13 17 22 23 26 28 33 34 36 37 41 45 
48(-1)->1 2 3 4 5 6 7 8 13 14 17 20 23 25 26 31 32 36 40 49 
49(-1)->1 2 3 4 5 6 7 13 14 15 16 20 25 27 31 35 40 42 46 48 
50(-1)->1 5 7 16 17 24 25 28 33 34 35 36 39 40 41 43 44 
-------
Node 1 maps to position 0
Node 2 maps to position 1
Node 3 maps to position 2
Node 4 maps to position 3
Node 5 maps to position 4
Node 6 maps to position 5
Node 7 maps to position 6
Node 8 maps to position 7
Node 13 maps to position 8
Node 11 maps to position 9
Node 9 maps to position 10
Node 23 maps to position 11
Node 22 maps to position 12
Node 29 maps to position 13
Node 30 maps to position 14
Node 27 maps to position 15
Node 24 maps to position 16
Node 35 maps to position 17
Node 15 maps to position 18
Node 17 maps to position 19
Node 37 maps to position 20
Node 18 maps to position 21
Node 40 maps to position 22
Node 41 maps to position 23
Node 42 maps to position 24
Node 19 maps to position 25
Node 10 maps to position 26
Node 28 maps to position 27
Node 38 maps to position 28
Node 46 maps to position 29
Node 44 maps to position 30
Node 36 maps to position 31
Node 14 maps to position 32
Node 25 maps to position 33
Node 31 maps to position 34
Node 20 maps to position 35
Node 48 maps to position 36
Node 26 maps to position 37
Node 33 maps to position 38
Node 45 maps to position 39
Node 34 maps to position 40
Node 47 maps to position 41
Node 21 maps to position 42
Node 32 maps to position 43
Node 49 maps to position 44
Node 16 maps to position 45
Node 50 maps to position 46
Node 39 maps to position 47
Node 43 maps to position 48
Node 12 maps to position 49
1(-1)->2 3 4 5 6 7 8 9 10 11 12 13 14 15 16 17 18 19 20 21 22 23 24 25 26 27 28 29 30 31 32 33 34 35 36 37 38 39 40 41 42 43 44 45 46 47 48 49 50 
2(-1)->1 3 4 5 6 7 8 9 10 11 12 13 14 15 16 17 18 19 20 21 22 23 24 25 26 27 28 29 30 31 32 33 34 35 36 37 38 39 40 41 42 43 44 45 46 47 48 49 
3(-1)->1 2 4 5 6 7 8 9 10 11 12 13 14 15 16 17 18 19 20 21 22 23 24 25 26 27 28 29 30 31 32 33 34 35 36 37 38 39 40 41 42 43 44 45 46 47 48 49 
4(-1)->1 2 3 5 6 7 8 9 10 11 12 13 14 15 16 17 18 19 20 21 22 23 24 25 26 27 28 29 30 31 32 33 34 35 36 37 40 41 42 44 45 46 47 48 49 
5(-1)->1 2 3 4 6 7 8 9 10 11 12 13 14 15 16 17 18 19 20 21 22 23 24 26 27 28 29 30 31 32 33 34 35 37 38 40 41 42 45 46 48 49 50 
6(-1)->1 2 3 4 5 7 8 9 10 11 12 13 14 15 16 17 18 20 21 22 23 24 26 27 28 29 30 31 32 33 34 35 37 38 40 41 44 45 46 48 49 
7(-1)->1 2 3 4 5 6 8 9 11 12 13 14 16 17 18 20 22 23 24 25 26 27 28 29 30 31 32 33 34 36 37 38 41 44 45 46 47 48 49 50 
8(-1)->1 2 3 4 5 6 7 9 11 12 13 14 16 17 18 20 22 24 29 30 32 34 35 37 38 39 40 42 43 44 45 47 48 
13(-1)->1 2 3 4 5 6 7 8 9 10 11 12 14 15 20 22 23 24 25 27 30 31 34 35 40 41 42 43 44 46 47 48 49 
11(-1)->1 2 3 4 5 6 7 8 9 10 12 13 15 17 18 20 24 26 27 28 29 30 31 36 37 38 41 42 43 46 47 
9(-1)->1 2 3 4 5 6 7 8 10 11 13 14 16 17 21 23 26 27 28 29 31 32 35 40 43 46 
23(-1)->1 2 3 4 5 6 7 9 12 13 15 16 19 21 22 29 30 33 35 37 38 39 40 41 44 47 48 
22(-1)->1 2 3 4 5 6 7 8 13 15 17 18 19 21 23 24 29 30 31 32 33 36 38 39 41 47 
29(-1)->1 2 3 4 5 6 7 8 9 10 11 14 15 17 18 21 22 23 25 30 33 35 36 37 38 45 
30(-1)->1 2 3 4 5 6 7 8 11 13 14 16 17 18 20 22 23 27 28 29 35 36 37 40 44 
27(-1)->1 2 3 4 5 6 7 9 10 11 13 14 24 25 26 30 35 38 40 41 42 44 45 46 49 
24(-1)->1 2 3 4 5 6 7 8 11 13 18 19 21 22 26 27 31 33 35 36 42 43 44 46 50 
35(-1)->1 2 3 4 5 6 8 9 10 13 14 15 19 23 24 27 29 30 34 37 42 43 46 49 50 
15(-1)->1 2 3 4 5 6 10 11 12 13 17 18 19 22 23 28 29 34 35 36 37 39 41 49 
17(-1)->1 2 3 4 5 6 7 8 9 10 11 12 15 22 28 29 30 37 38 44 45 47 48 50 
37(-1)->1 2 3 4 5 6 7 8 10 11 12 15 17 18 23 28 29 30 31 34 35 38 46 47 
18(-1)->1 2 3 4 5 6 7 8 11 15 20 22 24 29 30 33 34 37 40 41 42 44 45 46 
40(-1)->1 2 3 4 5 6 8 9 13 14 18 19 20 23 25 27 30 32 36 38 41 48 49 50 
41(-1)->1 2 3 4 5 6 7 11 13 15 18 21 22 23 25 27 28 31 34 40 42 45 47 50 
42(-1)->1 2 3 4 5 8 11 13 14 16 18 19 21 24 27 31 32 33 35 36 38 41 43 49 
19(-1)->1 2 3 4 5 10 15 20 22 23 24 25 26 31 32 35 36 38 39 40 42 44 45 
10(-1)->1 2 3 4 5 6 9 11 12 13 14 15 17 19 20 21 27 28 29 32 35 37 39 
28(-1)->1 2 3 4 5 6 7 9 10 11 15 16 17 21 25 30 37 38 41 45 46 47 50 
38(-1)->1 2 3 5 6 7 8 11 17 19 22 23 25 26 27 28 29 33 37 40 42 43 46 
46(-1)->1 2 3 4 5 6 7 9 11 13 18 24 26 27 28 32 34 35 37 38 39 44 49 
44(-1)->1 2 3 4 6 7 8 13 17 18 19 20 21 23 24 26 27 30 33 36 46 50 
36(-1)->1 2 3 4 7 11 14 15 19 20 22 24 25 29 30 33 40 42 44 45 47 48 50 
14(-1)->1 2 3 4 5 6 7 8 9 10 13 25 27 29 30 35 36 39 40 42 48 49 
25(-1)->1 2 3 4 7 13 14 19 27 28 29 31 34 36 38 39 40 41 45 48 49 50 
31(-1)->1 2 3 4 5 6 7 9 11 13 19 20 22 24 25 32 33 37 41 42 48 49 
20(-1)->1 2 3 4 5 6 7 8 10 11 13 16 18 19 30 31 36 40 43 44 48 49 
48(-1)->1 2 3 4 5 6 7 8 13 14 17 20 23 25 26 31 32 36 40 49 
26(-1)->1 2 3 4 5 6 7 9 11 16 19 21 24 27 33 38 39 44 46 47 48 
33(-1)->1 2 3 4 5 6 7 18 22 23 24 26 29 31 36 38 39 42 44 45 47 50 
45(-1)->1 2 3 4 5 6 7 8 17 18 19 25 27 28 29 32 33 34 36 39 41 47 
34(-1)->1 2 3 4 5 6 7 8 13 15 18 25 35 37 39 41 43 45 46 47 50 
47(-1)->1 2 3 4 7 8 11 13 17 22 23 26 28 33 34 36 37 41 45 
21(-1)->1 2 3 4 5 6 9 10 16 22 23 24 26 28 29 32 41 42 43 44 
32(-1)->1 2 3 4 5 6 7 8 9 10 19 21 22 31 40 42 45 46 48 
49(-1)->1 2 3 4 5 6 7 13 14 15 16 20 25 27 31 35 40 42 46 48 
16(-1)->1 2 3 4 5 6 7 8 9 20 21 23 26 28 30 42 49 50 
50(-1)->1 5 7 16 17 24 25 28 33 34 35 36 39 40 41 43 44 
39(-1)->1 2 3 8 10 14 15 19 22 23 25 26 33 34 43 45 46 50 
43(-1)->1 2 3 8 9 11 13 20 21 24 34 35 38 39 42 50 
12(-1)->1 2 3 4 5 6 7 8 10 11 13 15 17 23 37 
-------
BLAH
START TIME: 1433713455
10000
20000
30000
40000
50000
60000
70000
80000
90000
100000
110000
120000
130000
140000
150000
160000
170000
180000
190000
200000
210000
220000
230000
240000
250000
260000
270000
280000
290000
300000
310000
320000
330000
340000
350000
360000
370000
380000
390000
400000
410000
420000
430000
440000
450000
460000
470000
480000
490000
500000
510000
520000
530000
540000
550000
560000
570000
580000
590000
600000
610000
620000
630000
640000
650000
660000
670000
680000
690000
700000
710000
720000
730000
740000
750000
760000
770000
780000
790000
800000
810000
820000
830000
840000
850000
860000
870000
880000
890000
900000
910000
920000
930000
940000
950000
960000
970000
980000
990000
1000000
1010000
1020000
1030000
1040000
1050000
1060000
1070000
1080000
1090000
1100000
1110000
1120000
1130000
1140000
1150000
1160000
1170000
1180000
1190000
1200000
1210000
1220000
1230000
1240000
1250000
1260000
1270000
1280000
1290000
1300000
1310000
1320000
1330000
1340000
1350000
1360000
1370000
1380000
1390000
1400000
1410000
1420000
1430000
1440000
1450000
1460000
1470000
1480000
1490000
1500000
1510000
1520000
1530000
1540000
1550000
1560000
1570000
1580000
1590000
1600000
1610000
1620000
1630000
1640000
1650000
1660000
1670000
1680000
1690000
1700000
1710000
1720000
1730000
1740000
1750000
1760000
1770000
1780000
1790000
1800000
1810000
1820000
1830000
1840000
1850000
1860000
1870000
1880000
1890000
1900000
1910000
1920000
1930000
1940000
1950000
1960000
1970000
1980000
1990000
2000000
2010000
2020000
2030000
TOOK LONGER THAN 180 seconds. Current Best:
1(0)->2 3 4 5 6 7 8 9 10 11 12 13 14 15 16 17 18 19 20 21 22 23 24 25 26 27 28 29 30 31 32 33 34 35 36 37 38 39 40 41 42 43 44 45 46 47 48 49 50 
2(1)->1 3 4 5 6 7 8 9 10 11 12 13 14 15 16 17 18 19 20 21 22 23 24 25 26 27 28 29 30 31 32 33 34 35 36 37 38 39 40 41 42 43 44 45 46 47 48 49 
3(2)->1 2 4 5 6 7 8 9 10 11 12 13 14 15 16 17 18 19 20 21 22 23 24 25 26 27 28 29 30 31 32 33 34 35 36 37 38 39 40 41 42 43 44 45 46 47 48 49 
4(3)->1 2 3 5 6 7 8 9 10 11 12 13 14 15 16 17 18 19 20 21 22 23 24 25 26 27 28 29 30 31 32 33 34 35 36 37 40 41 42 44 45 46 47 48 49 
5(4)->1 2 3 4 6 7 8 9 10 11 12 13 14 15 16 17 18 19 20 21 22 23 24 26 27 28 29 30 31 32 33 34 35 37 38 40 41 42 45 46 48 49 50 
6(5)->1 2 3 4 5 7 8 9 10 11 12 13 14 15 16 17 18 20 21 22 23 24 26 27 28 29 30 31 32 33 34 35 37 38 40 41 44 45 46 48 49 
7(6)->1 2 3 4 5 6 8 9 11 12 13 14 16 17 18 20 22 23 24 25 26 27 28 29 30 31 32 33 34 36 37 38 41 44 45 46 47 48 49 50 
8(7)->1 2 3 4 5 6 7 9 11 12 13 14 16 17 18 20 22 24 29 30 32 34 35 37 38 39 40 42 43 44 45 47 48 
9(10)->1 2 3 4 5 6 7 8 10 11 13 14 16 17 21 23 26 27 28 29 31 32 35 40 43 46 
10(13)->1 2 3 4 5 6 9 11 12 13 14 15 17 19 20 21 27 28 29 32 35 37 39 
11(9)->1 2 3 4 5 6 7 8 9 10 12 13 15 17 18 20 24 26 27 28 29 30 31 36 37 38 41 42 43 46 47 
12(14)->1 2 3 4 5 6 7 8 10 11 13 15 17 23 37 
13(8)->1 2 3 4 5 6 7 8 9 10 11 12 14 15 20 22 23 24 25 27 30 31 34 35 40 41 42 43 44 46 47 48 49 
14(9)->1 2 3 4 5 6 7 8 9 10 13 25 27 29 30 35 36 39 40 42 48 49 
15(10)->1 2 3 4 5 6 10 11 12 13 17 18 19 22 23 28 29 34 35 36 37 39 41 49 
16(8)->1 2 3 4 5 6 7 8 9 20 21 23 26 28 30 42 49 50 
17(11)->1 2 3 4 5 6 7 8 9 10 11 12 15 22 28 29 30 37 38 44 45 47 48 50 
18(11)->1 2 3 4 5 6 7 8 11 15 20 22 24 29 30 33 34 37 40 41 42 44 45 46 
19(8)->1 2 3 4 5 10 15 20 22 23 24 25 26 31 32 35 36 38 39 40 42 44 45 
20(12)->1 2 3 4 5 6 7 8 10 11 13 16 18 19 30 31 36 40 43 44 48 49 
21(6)->1 2 3 4 5 6 9 10 16 22 23 24 26 28 29 32 41 42 43 44 
22(9)->1 2 3 4 5 6 7 8 13 15 17 18 19 21 23 24 29 30 31 32 33 36 38 39 41 47 
23(7)->1 2 3 4 5 6 7 9 12 13 15 16 19 21 22 29 30 33 35 37 38 39 40 41 44 47 48 
24(10)->1 2 3 4 5 6 7 8 11 13 18 19 21 22 26 27 31 33 35 36 42 43 44 46 50 
25(4)->1 2 3 4 7 13 14 19 27 28 29 31 34 36 38 39 40 41 45 48 49 50 
26(11)->1 2 3 4 5 6 7 9 11 16 19 21 24 27 33 38 39 44 46 47 48 
27(7)->1 2 3 4 5 6 7 9 10 11 13 14 24 25 26 30 35 38 40 41 42 44 45 46 49 
28(7)->1 2 3 4 5 6 7 9 10 11 15 16 17 21 25 30 37 38 41 45 46 47 50 
29(8)->1 2 3 4 5 6 7 8 9 10 11 14 15 17 18 21 22 23 25 30 33 35 36 37 38 45 
30(10)->1 2 3 4 5 6 7 8 11 13 14 16 17 18 20 22 23 27 28 29 35 36 37 40 44 
31(7)->1 2 3 4 5 6 7 9 11 13 19 20 22 24 25 32 33 37 41 42 48 49 
32(11)->1 2 3 4 5 6 7 8 9 10 19 21 22 31 40 42 45 46 48 
33(12)->1 2 3 4 5 6 7 18 22 23 24 26 29 31 36 38 39 42 44 45 47 50 
34(14)->1 2 3 4 5 6 7 8 13 15 18 25 35 37 39 41 43 45 46 47 50 
35(6)->1 2 3 4 5 6 8 9 10 13 14 15 19 23 24 27 29 30 34 37 42 43 46 49 50 
36(7)->1 2 3 4 7 11 14 15 19 20 22 24 25 29 30 33 40 42 44 45 47 48 50 
37(12)->1 2 3 4 5 6 7 8 10 11 12 15 17 18 23 28 29 30 31 34 35 38 46 47 
38(3)->1 2 3 5 6 7 8 11 17 19 22 23 25 26 27 28 29 33 37 40 42 43 46 
39(3)->1 2 3 8 10 14 15 19 22 23 25 26 33 34 43 45 46 50 
40(6)->1 2 3 4 5 6 8 9 13 14 18 19 20 23 25 27 30 32 36 38 41 48 49 50 
41(12)->1 2 3 4 5 6 7 11 13 15 18 21 22 23 25 27 28 31 34 40 42 45 47 50 
42(5)->1 2 3 4 5 8 11 13 14 16 18 19 21 24 27 31 32 33 35 36 38 41 43 49 
43(4)->1 2 3 8 9 11 13 20 21 24 34 35 38 39 42 50 
44(4)->1 2 3 4 6 7 8 13 17 18 19 20 21 23 24 26 27 30 33 36 46 50 
45(9)->1 2 3 4 5 6 7 8 17 18 19 25 27 28 29 32 33 34 36 39 41 47 
46(13)->1 2 3 4 5 6 7 9 11 13 18 24 26 27 28 32 34 35 37 38 39 44 49 
47(4)->1 2 3 4 7 8 11 13 17 22 23 26 28 33 34 36 37 41 45 
48(10)->1 2 3 4 5 6 7 8 13 14 17 20 23 25 26 31 32 36 40 49 
49(11)->1 2 3 4 5 6 7 13 14 15 16 20 25 27 31 35 40 42 46 48 
50(1)->1 5 7 16 17 24 25 28 33 34 35 36 39 40 41 43 44 
15
2030000
