1: 2 3 4 5 6 7 8 9 10 11 12 13 14 15 16 17 18 19 20 21 22 23 24 25 26 27 28 29 30 31 32 33 34 35 36 37 38 39 40 41 42 43 44 45 46 47 48 49 50
2: 1 3 4 5 6 7 8 9 10 11 12 13 14 15 16 17 18 19 20 21 22 23 24 25 26 27 28 29 30 31 32 33 34 35 36 37 38 39 40 41 42 43 44 45 46 47 48 49 50
3: 1 2 4 5 6 7 8 9 10 11 12 13 14 15 16 17 18 19 20 21 22 23 24 25 26 27 28 29 30 31 32 33 34 35 36 37 38 39 40 41 42 43 44 45 46 47 48 49
4: 1 2 3 5 6 7 8 9 10 11 12 13 14 15 16 17 18 19 20 21 22 23 24 25 26 27 28 29 30 31 32 33 34 35 36 37 38 39 40 41 42 43 44 45 46 47 48 49 50
5: 1 2 3 4 6 7 8 9 10 11 12 13 14 15 16 17 18 19 20 21 22 23 24 25 26 27 28 29 30 31 32 33 34 35 36 37 39 40 41 43 44 46 47 48 49 50
6: 1 2 3 4 5 7 8 9 10 11 12 13 14 15 16 17 18 19 20 21 22 23 24 25 26 27 28 29 30 31 32 34 35 36 37 39 40 41 42 43 44 45 46 47 48 49
7: 1 2 3 4 5 6 8 9 10 11 12 13 14 15 16 17 18 19 20 21 22 23 24 27 28 29 30 31 32 33 34 35 36 37 39 41 43 47 48 49
8: 1 2 3 4 5 6 7 9 10 11 12 13 14 15 16 17 18 19 20 21 23 24 25 26 28 29 30 31 32 35 36 37 38 39 41 42 43 46 47 49 50
9: 1 2 3 4 5 6 7 8 10 11 12 13 14 17 20 21 22 23 24 26 29 30 31 35 36 37 38 39 43 45 46 49 50
10: 1 2 3 4 5 6 7 8 9 11 12 13 15 20 21 23 26 28 29 30 31 35 36 37 38 40 42 43 45 46 48 49
11: 1 2 3 4 5 6 7 8 9 10 12 13 16 21 25 27 29 30 34 35 36 37 38 39 40 42 48 50
12: 1 2 3 4 5 6 7 8 9 10 11 13 15 16 17 19 21 23 24 27 30 33 35 36 37 39 41 43 44 46 48 49
13: 1 2 3 4 5 6 7 8 9 10 11 12 21 32 33 34 35 36 38 44 45 47 50
14: 1 2 3 4 5 6 7 8 9 15 16 18 19 20 21 22 23 27 28 30 35 42 44 45 46 50
15: 1 2 3 4 5 6 7 8 10 12 14 16 17 21 23 26 27 28 30 31 32 36 37 40 43 45 46 47
16: 1 2 3 4 5 6 7 8 11 12 14 15 17 20 21 23 25 27 29 31 32 33 35 36 37 40 41 43 45 49 50
17: 1 2 3 4 5 6 7 8 9 12 15 16 18 19 20 21 23 25 26 30 34 35 43 45 47 48 50
18: 1 2 3 4 5 6 7 8 14 17 19 21 22 24 27 28 31 33 34 35 36 37 38 39 42 44 46 49 50
19: 1 2 3 4 5 6 7 8 12 14 17 18 20 21 22 25 26 27 31 33 34 36 37 40 41 42 43 45 47 48
20: 1 2 3 4 5 6 7 8 9 10 14 16 17 19 22 26 27 28 29 33 35 37 39 46 47
21: 1 2 3 4 5 6 7 8 9 10 11 12 13 14 15 16 17 18 19 23 25 26 27 29 31 37 46 47 48 50
22: 1 2 3 4 5 6 7 9 14 18 19 20 23 26 27 32 33 34 35 36 37 40 43 44 46
23: 1 2 3 4 5 6 7 8 9 10 12 14 15 16 17 21 22 24 25 30 32 33 38 39 40 43 44 47
24: 1 2 3 4 5 6 7 8 9 12 18 23 27 29 30 31 34 36 37 38 43 44 47
25: 1 2 3 4 5 6 8 11 16 17 19 21 23 26 27 28 29 30 31 32 33 36 38 42 44 48 50
26: 1 2 3 4 5 6 8 9 10 15 17 19 20 21 22 25 27 29 31 33 35 36 37 38 41 43 45 46
27: 1 2 3 4 5 6 7 11 12 14 15 16 18 19 20 21 22 24 25 26 29 31 35 37 40 42 43 47 49 50
28: 1 2 3 4 5 6 7 8 10 14 15 18 20 25 32 33 34 36 37 42 47 48 49
29: 1 2 3 4 5 6 7 8 9 10 11 16 20 21 24 25 26 27 33 34 35 37 38 45 47 48
30: 1 2 3 4 5 6 7 8 9 10 11 12 14 15 17 23 24 25 33 35 37 39 40 41 44 45 46 49 50
31: 1 2 3 4 5 6 7 8 9 10 15 16 18 19 21 24 25 26 27 33 34 40 42 45 48
32: 1 2 3 4 5 6 7 8 13 15 16 22 23 25 28 36 40 41 43 44 45 46 48 49
33: 1 2 3 4 5 7 12 13 16 18 19 20 22 23 25 26 28 29 30 31 35 38 40 41 42 43 44 48 49
34: 1 2 3 4 5 6 7 11 13 17 18 19 22 24 28 29 31 37 41 43 45 48 49
35: 1 2 3 4 5 6 7 8 9 10 11 12 13 14 16 17 18 20 22 26 27 29 30 33 39 41 43 46 48 49 50
36: 1 2 3 4 5 6 7 8 9 10 11 12 13 15 16 18 19 22 24 25 26 28 32 37 41 42 48 50
37: 1 2 3 4 5 6 7 8 9 10 11 12 15 16 18 19 20 21 22 24 26 27 28 29 30 34 36 39 40 43 46 47 49 50
38: 1 2 3 4 8 9 10 11 13 18 23 24 25 26 29 33 40 42 43 45 46 48 49
39: 1 2 35 4 37 6 7 8 9 42 11 44 12 48 18 3 20 23 30 5
40: 1 2 3 4 5 6 10 11 15 16 19 22 23 27 30 31 32 33 37 38 43 44 45 46 47 49 50
41: 32 1 34 35 36 5 3 33 8 42 7 12 45 16 6 19 2 4 26 30
42: 1 2 3 4 6 8 10 11 14 18 19 25 27 28 31 33 36 38 39 41 45 46 47 48
43: 1 2 3 4 5 6 7 8 9 10 12 15 16 17 19 22 23 24 26 27 32 33 34 35 37 38 40 46 48 49
44: 32 33 2 50 1 5 6 39 40 12 13 14 49 18 3 4 22 23 24 25 30
45: 1 2 3 4 6 9 10 13 14 15 16 17 19 26 29 30 31 32 34 38 40 41 42 47 49 50
46: 1 2 3 4 5 6 8 9 10 12 14 15 18 20 21 22 26 30 32 35 37 38 40 42 43 47 49
47: 1 2 3 4 5 6 7 8 13 15 17 19 20 21 23 24 27 28 29 37 40 42 45 46 49 50
48: 1 2 3 4 5 6 7 10 11 12 17 19 21 25 28 29 31 32 33 34 35 36 38 39 42 43 49
49: 1 2 3 4 5 6 7 8 9 10 12 16 18 27 28 30 32 33 34 35 37 38 40 43 44 45 46 47 48 50
50: 1 2 4 5 8 9 11 13 14 16 17 18 21 25 27 30 35 36 37 40 44 45 47 49
-------
1(-1)->2 3 4 5 6 7 8 9 10 11 12 13 14 15 16 17 18 19 20 21 22 23 24 25 26 27 28 29 30 31 32 33 34 35 36 37 38 39 40 41 42 43 44 45 46 47 48 49 50 
2(-1)->1 3 4 5 6 7 8 9 10 11 12 13 14 15 16 17 18 19 20 21 22 23 24 25 26 27 28 29 30 31 32 33 34 35 36 37 38 39 40 41 42 43 44 45 46 47 48 49 50 
3(-1)->1 2 4 5 6 7 8 9 10 11 12 13 14 15 16 17 18 19 20 21 22 23 24 25 26 27 28 29 30 31 32 33 34 35 36 37 38 39 40 41 42 43 44 45 46 47 48 49 
4(-1)->1 2 3 5 6 7 8 9 10 11 12 13 14 15 16 17 18 19 20 21 22 23 24 25 26 27 28 29 30 31 32 33 34 35 36 37 38 39 40 41 42 43 44 45 46 47 48 49 50 
5(-1)->1 2 3 4 6 7 8 9 10 11 12 13 14 15 16 17 18 19 20 21 22 23 24 25 26 27 28 29 30 31 32 33 34 35 36 37 39 40 41 43 44 46 47 48 49 50 
6(-1)->1 2 3 4 5 7 8 9 10 11 12 13 14 15 16 17 18 19 20 21 22 23 24 25 26 27 28 29 30 31 32 34 35 36 37 39 40 41 42 43 44 45 46 47 48 49 
7(-1)->1 2 3 4 5 6 8 9 10 11 12 13 14 15 16 17 18 19 20 21 22 23 24 27 28 29 30 31 32 33 34 35 36 37 39 41 43 47 48 49 
8(-1)->1 2 3 4 5 6 7 9 10 11 12 13 14 15 16 17 18 19 20 21 23 24 25 26 28 29 30 31 32 35 36 37 38 39 41 42 43 46 47 49 50 
9(-1)->1 2 3 4 5 6 7 8 10 11 12 13 14 17 20 21 22 23 24 26 29 30 31 35 36 37 38 39 43 45 46 49 50 
10(-1)->1 2 3 4 5 6 7 8 9 11 12 13 15 20 21 23 26 28 29 30 31 35 36 37 38 40 42 43 45 46 48 49 
11(-1)->1 2 3 4 5 6 7 8 9 10 12 13 16 21 25 27 29 30 34 35 36 37 38 39 40 42 48 50 
12(-1)->1 2 3 4 5 6 7 8 9 10 11 13 15 16 17 19 21 23 24 27 30 33 35 36 37 39 41 43 44 46 48 49 
13(-1)->1 2 3 4 5 6 7 8 9 10 11 12 21 32 33 34 35 36 38 44 45 47 50 
14(-1)->1 2 3 4 5 6 7 8 9 15 16 18 19 20 21 22 23 27 28 30 35 42 44 45 46 50 
15(-1)->1 2 3 4 5 6 7 8 10 12 14 16 17 21 23 26 27 28 30 31 32 36 37 40 43 45 46 47 
16(-1)->1 2 3 4 5 6 7 8 11 12 14 15 17 20 21 23 25 27 29 31 32 33 35 36 37 40 41 43 45 49 50 
17(-1)->1 2 3 4 5 6 7 8 9 12 15 16 18 19 20 21 23 25 26 30 34 35 43 45 47 48 50 
18(-1)->1 2 3 4 5 6 7 8 14 17 19 21 22 24 27 28 31 33 34 35 36 37 38 39 42 44 46 49 50 
19(-1)->1 2 3 4 5 6 7 8 12 14 17 18 20 21 22 25 26 27 31 33 34 36 37 40 41 42 43 45 47 48 
20(-1)->1 2 3 4 5 6 7 8 9 10 14 16 17 19 22 26 27 28 29 33 35 37 39 46 47 
21(-1)->1 2 3 4 5 6 7 8 9 10 11 12 13 14 15 16 17 18 19 23 25 26 27 29 31 37 46 47 48 50 
22(-1)->1 2 3 4 5 6 7 9 14 18 19 20 23 26 27 32 33 34 35 36 37 40 43 44 46 
23(-1)->1 2 3 4 5 6 7 8 9 10 12 14 15 16 17 21 22 24 25 30 32 33 38 39 40 43 44 47 
24(-1)->1 2 3 4 5 6 7 8 9 12 18 23 27 29 30 31 34 36 37 38 43 44 47 
25(-1)->1 2 3 4 5 6 8 11 16 17 19 21 23 26 27 28 29 30 31 32 33 36 38 42 44 48 50 
26(-1)->1 2 3 4 5 6 8 9 10 15 17 19 20 21 22 25 27 29 31 33 35 36 37 38 41 43 45 46 
27(-1)->1 2 3 4 5 6 7 11 12 14 15 16 18 19 20 21 22 24 25 26 29 31 35 37 40 42 43 47 49 50 
28(-1)->1 2 3 4 5 6 7 8 10 14 15 18 20 25 32 33 34 36 37 42 47 48 49 
29(-1)->1 2 3 4 5 6 7 8 9 10 11 16 20 21 24 25 26 27 33 34 35 37 38 45 47 48 
30(-1)->1 2 3 4 5 6 7 8 9 10 11 12 14 15 17 23 24 25 33 35 37 39 40 41 44 45 46 49 50 
31(-1)->1 2 3 4 5 6 7 8 9 10 15 16 18 19 21 24 25 26 27 33 34 40 42 45 48 
32(-1)->1 2 3 4 5 6 7 8 13 15 16 22 23 25 28 36 40 41 43 44 45 46 48 49 
33(-1)->1 2 3 4 5 7 12 13 16 18 19 20 22 23 25 26 28 29 30 31 35 38 40 41 42 43 44 48 49 
34(-1)->1 2 3 4 5 6 7 11 13 17 18 19 22 24 28 29 31 37 41 43 45 48 49 
35(-1)->1 2 3 4 5 6 7 8 9 10 11 12 13 14 16 17 18 20 22 26 27 29 30 33 39 41 43 46 48 49 50 
36(-1)->1 2 3 4 5 6 7 8 9 10 11 12 13 15 16 18 19 22 24 25 26 28 32 37 41 42 48 50 
37(-1)->1 2 3 4 5 6 7 8 9 10 11 12 15 16 18 19 20 21 22 24 26 27 28 29 30 34 36 39 40 43 46 47 49 50 
38(-1)->1 2 3 4 8 9 10 11 13 18 23 24 25 26 29 33 40 42 43 45 46 48 49 
39(-1)->1 2 3 4 5 6 7 8 9 11 12 18 20 23 30 35 37 42 44 48 
40(-1)->1 2 3 4 5 6 10 11 15 16 19 22 23 27 30 31 32 33 37 38 43 44 45 46 47 49 50 
41(-1)->1 2 3 4 5 6 7 8 12 16 19 26 30 32 33 34 35 36 42 45 
42(-1)->1 2 3 4 6 8 10 11 14 18 19 25 27 28 31 33 36 38 39 41 45 46 47 48 
43(-1)->1 2 3 4 5 6 7 8 9 10 12 15 16 17 19 22 23 24 26 27 32 33 34 35 37 38 40 46 48 49 
44(-1)->1 2 3 4 5 6 12 13 14 18 22 23 24 25 30 32 33 39 40 49 50 
45(-1)->1 2 3 4 6 9 10 13 14 15 16 17 19 26 29 30 31 32 34 38 40 41 42 47 49 50 
46(-1)->1 2 3 4 5 6 8 9 10 12 14 15 18 20 21 22 26 30 32 35 37 38 40 42 43 47 49 
47(-1)->1 2 3 4 5 6 7 8 13 15 17 19 20 21 23 24 27 28 29 37 40 42 45 46 49 50 
48(-1)->1 2 3 4 5 6 7 10 11 12 17 19 21 25 28 29 31 32 33 34 35 36 38 39 42 43 49 
49(-1)->1 2 3 4 5 6 7 8 9 10 12 16 18 27 28 30 32 33 34 35 37 38 40 43 44 45 46 47 48 50 
50(-1)->1 2 4 5 8 9 11 13 14 16 17 18 21 25 27 30 35 36 37 40 44 45 47 49 
-------
Node 1 maps to position 0
Node 2 maps to position 1
Node 4 maps to position 2
Node 3 maps to position 3
Node 5 maps to position 4
Node 6 maps to position 5
Node 8 maps to position 6
Node 7 maps to position 7
Node 37 maps to position 8
Node 9 maps to position 9
Node 10 maps to position 10
Node 12 maps to position 11
Node 16 maps to position 12
Node 35 maps to position 13
Node 27 maps to position 14
Node 19 maps to position 15
Node 21 maps to position 16
Node 18 maps to position 17
Node 49 maps to position 18
Node 43 maps to position 19
Node 33 maps to position 20
Node 30 maps to position 21
Node 11 maps to position 22
Node 36 maps to position 23
Node 15 maps to position 24
Node 23 maps to position 25
Node 17 maps to position 26
Node 26 maps to position 27
Node 25 maps to position 28
Node 48 maps to position 29
Node 29 maps to position 30
Node 45 maps to position 31
Node 40 maps to position 32
Node 46 maps to position 33
Node 14 maps to position 34
Node 20 maps to position 35
Node 47 maps to position 36
Node 42 maps to position 37
Node 31 maps to position 38
Node 24 maps to position 39
Node 34 maps to position 40
Node 22 maps to position 41
Node 32 maps to position 42
Node 13 maps to position 43
Node 50 maps to position 44
Node 44 maps to position 45
Node 39 maps to position 46
Node 28 maps to position 47
Node 38 maps to position 48
Node 41 maps to position 49
1(-1)->2 3 4 5 6 7 8 9 10 11 12 13 14 15 16 17 18 19 20 21 22 23 24 25 26 27 28 29 30 31 32 33 34 35 36 37 38 39 40 41 42 43 44 45 46 47 48 49 50 
2(-1)->1 3 4 5 6 7 8 9 10 11 12 13 14 15 16 17 18 19 20 21 22 23 24 25 26 27 28 29 30 31 32 33 34 35 36 37 38 39 40 41 42 43 44 45 46 47 48 49 50 
4(-1)->1 2 3 5 6 7 8 9 10 11 12 13 14 15 16 17 18 19 20 21 22 23 24 25 26 27 28 29 30 31 32 33 34 35 36 37 38 39 40 41 42 43 44 45 46 47 48 49 50 
3(-1)->1 2 4 5 6 7 8 9 10 11 12 13 14 15 16 17 18 19 20 21 22 23 24 25 26 27 28 29 30 31 32 33 34 35 36 37 38 39 40 41 42 43 44 45 46 47 48 49 
5(-1)->1 2 3 4 6 7 8 9 10 11 12 13 14 15 16 17 18 19 20 21 22 23 24 25 26 27 28 29 30 31 32 33 34 35 36 37 39 40 41 43 44 46 47 48 49 50 
6(-1)->1 2 3 4 5 7 8 9 10 11 12 13 14 15 16 17 18 19 20 21 22 23 24 25 26 27 28 29 30 31 32 34 35 36 37 39 40 41 42 43 44 45 46 47 48 49 
8(-1)->1 2 3 4 5 6 7 9 10 11 12 13 14 15 16 17 18 19 20 21 23 24 25 26 28 29 30 31 32 35 36 37 38 39 41 42 43 46 47 49 50 
7(-1)->1 2 3 4 5 6 8 9 10 11 12 13 14 15 16 17 18 19 20 21 22 23 24 27 28 29 30 31 32 33 34 35 36 37 39 41 43 47 48 49 
37(-1)->1 2 3 4 5 6 7 8 9 10 11 12 15 16 18 19 20 21 22 24 26 27 28 29 30 34 36 39 40 43 46 47 49 50 
9(-1)->1 2 3 4 5 6 7 8 10 11 12 13 14 17 20 21 22 23 24 26 29 30 31 35 36 37 38 39 43 45 46 49 50 
10(-1)->1 2 3 4 5 6 7 8 9 11 12 13 15 20 21 23 26 28 29 30 31 35 36 37 38 40 42 43 45 46 48 49 
12(-1)->1 2 3 4 5 6 7 8 9 10 11 13 15 16 17 19 21 23 24 27 30 33 35 36 37 39 41 43 44 46 48 49 
16(-1)->1 2 3 4 5 6 7 8 11 12 14 15 17 20 21 23 25 27 29 31 32 33 35 36 37 40 41 43 45 49 50 
35(-1)->1 2 3 4 5 6 7 8 9 10 11 12 13 14 16 17 18 20 22 26 27 29 30 33 39 41 43 46 48 49 50 
27(-1)->1 2 3 4 5 6 7 11 12 14 15 16 18 19 20 21 22 24 25 26 29 31 35 37 40 42 43 47 49 50 
19(-1)->1 2 3 4 5 6 7 8 12 14 17 18 20 21 22 25 26 27 31 33 34 36 37 40 41 42 43 45 47 48 
21(-1)->1 2 3 4 5 6 7 8 9 10 11 12 13 14 15 16 17 18 19 23 25 26 27 29 31 37 46 47 48 50 
18(-1)->1 2 3 4 5 6 7 8 14 17 19 21 22 24 27 28 31 33 34 35 36 37 38 39 42 44 46 49 50 
49(-1)->1 2 3 4 5 6 7 8 9 10 12 16 18 27 28 30 32 33 34 35 37 38 40 43 44 45 46 47 48 50 
43(-1)->1 2 3 4 5 6 7 8 9 10 12 15 16 17 19 22 23 24 26 27 32 33 34 35 37 38 40 46 48 49 
33(-1)->1 2 3 4 5 7 12 13 16 18 19 20 22 23 25 26 28 29 30 31 35 38 40 41 42 43 44 48 49 
30(-1)->1 2 3 4 5 6 7 8 9 10 11 12 14 15 17 23 24 25 33 35 37 39 40 41 44 45 46 49 50 
11(-1)->1 2 3 4 5 6 7 8 9 10 12 13 16 21 25 27 29 30 34 35 36 37 38 39 40 42 48 50 
36(-1)->1 2 3 4 5 6 7 8 9 10 11 12 13 15 16 18 19 22 24 25 26 28 32 37 41 42 48 50 
15(-1)->1 2 3 4 5 6 7 8 10 12 14 16 17 21 23 26 27 28 30 31 32 36 37 40 43 45 46 47 
23(-1)->1 2 3 4 5 6 7 8 9 10 12 14 15 16 17 21 22 24 25 30 32 33 38 39 40 43 44 47 
17(-1)->1 2 3 4 5 6 7 8 9 12 15 16 18 19 20 21 23 25 26 30 34 35 43 45 47 48 50 
26(-1)->1 2 3 4 5 6 8 9 10 15 17 19 20 21 22 25 27 29 31 33 35 36 37 38 41 43 45 46 
25(-1)->1 2 3 4 5 6 8 11 16 17 19 21 23 26 27 28 29 30 31 32 33 36 38 42 44 48 50 
48(-1)->1 2 3 4 5 6 7 10 11 12 17 19 21 25 28 29 31 32 33 34 35 36 38 39 42 43 49 
29(-1)->1 2 3 4 5 6 7 8 9 10 11 16 20 21 24 25 26 27 33 34 35 37 38 45 47 48 
45(-1)->1 2 3 4 6 9 10 13 14 15 16 17 19 26 29 30 31 32 34 38 40 41 42 47 49 50 
40(-1)->1 2 3 4 5 6 10 11 15 16 19 22 23 27 30 31 32 33 37 38 43 44 45 46 47 49 50 
46(-1)->1 2 3 4 5 6 8 9 10 12 14 15 18 20 21 22 26 30 32 35 37 38 40 42 43 47 49 
14(-1)->1 2 3 4 5 6 7 8 9 15 16 18 19 20 21 22 23 27 28 30 35 42 44 45 46 50 
20(-1)->1 2 3 4 5 6 7 8 9 10 14 16 17 19 22 26 27 28 29 33 35 37 39 46 47 
47(-1)->1 2 3 4 5 6 7 8 13 15 17 19 20 21 23 24 27 28 29 37 40 42 45 46 49 50 
42(-1)->1 2 3 4 6 8 10 11 14 18 19 25 27 28 31 33 36 38 39 41 45 46 47 48 
31(-1)->1 2 3 4 5 6 7 8 9 10 15 16 18 19 21 24 25 26 27 33 34 40 42 45 48 
24(-1)->1 2 3 4 5 6 7 8 9 12 18 23 27 29 30 31 34 36 37 38 43 44 47 
34(-1)->1 2 3 4 5 6 7 11 13 17 18 19 22 24 28 29 31 37 41 43 45 48 49 
22(-1)->1 2 3 4 5 6 7 9 14 18 19 20 23 26 27 32 33 34 35 36 37 40 43 44 46 
32(-1)->1 2 3 4 5 6 7 8 13 15 16 22 23 25 28 36 40 41 43 44 45 46 48 49 
13(-1)->1 2 3 4 5 6 7 8 9 10 11 12 21 32 33 34 35 36 38 44 45 47 50 
50(-1)->1 2 4 5 8 9 11 13 14 16 17 18 21 25 27 30 35 36 37 40 44 45 47 49 
44(-1)->1 2 3 4 5 6 12 13 14 18 22 23 24 25 30 32 33 39 40 49 50 
39(-1)->1 2 3 4 5 6 7 8 9 11 12 18 20 23 30 35 37 42 44 48 
28(-1)->1 2 3 4 5 6 7 8 10 14 15 18 20 25 32 33 34 36 37 42 47 48 49 
38(-1)->1 2 3 4 8 9 10 11 13 18 23 24 25 26 29 33 40 42 43 45 46 48 49 
41(-1)->1 2 3 4 5 6 7 8 12 16 19 26 30 32 33 34 35 36 42 45 
-------
BLAH
START TIME: 1433714046
1(0)->2 3 4 5 6 7 8 9 10 11 12 13 14 15 16 17 18 19 20 21 22 23 24 25 26 27 28 29 30 31 32 33 34 35 36 37 38 39 40 41 42 43 44 45 46 47 48 49 50 
2(1)->1 3 4 5 6 7 8 9 10 11 12 13 14 15 16 17 18 19 20 21 22 23 24 25 26 27 28 29 30 31 32 33 34 35 36 37 38 39 40 41 42 43 44 45 46 47 48 49 50 
3(3)->1 2 4 5 6 7 8 9 10 11 12 13 14 15 16 17 18 19 20 21 22 23 24 25 26 27 28 29 30 31 32 33 34 35 36 37 38 39 40 41 42 43 44 45 46 47 48 49 
4(2)->1 2 3 5 6 7 8 9 10 11 12 13 14 15 16 17 18 19 20 21 22 23 24 25 26 27 28 29 30 31 32 33 34 35 36 37 38 39 40 41 42 43 44 45 46 47 48 49 50 
5(4)->1 2 3 4 6 7 8 9 10 11 12 13 14 15 16 17 18 19 20 21 22 23 24 25 26 27 28 29 30 31 32 33 34 35 36 37 39 40 41 43 44 46 47 48 49 50 
6(5)->1 2 3 4 5 7 8 9 10 11 12 13 14 15 16 17 18 19 20 21 22 23 24 25 26 27 28 29 30 31 32 34 35 36 37 39 40 41 42 43 44 45 46 47 48 49 
7(7)->1 2 3 4 5 6 8 9 10 11 12 13 14 15 16 17 18 19 20 21 22 23 24 27 28 29 30 31 32 33 34 35 36 37 39 41 43 47 48 49 
8(6)->1 2 3 4 5 6 7 9 10 11 12 13 14 15 16 17 18 19 20 21 23 24 25 26 28 29 30 31 32 35 36 37 38 39 41 42 43 46 47 49 50 
9(9)->1 2 3 4 5 6 7 8 10 11 12 13 14 17 20 21 22 23 24 26 29 30 31 35 36 37 38 39 43 45 46 49 50 
10(10)->1 2 3 4 5 6 7 8 9 11 12 13 15 20 21 23 26 28 29 30 31 35 36 37 38 40 42 43 45 46 48 49 
11(13)->1 2 3 4 5 6 7 8 9 10 12 13 16 21 25 27 29 30 34 35 36 37 38 39 40 42 48 50 
12(11)->1 2 3 4 5 6 7 8 9 10 11 13 15 16 17 19 21 23 24 27 30 33 35 36 37 39 41 43 44 46 48 49 
13(14)->1 2 3 4 5 6 7 8 9 10 11 12 21 32 33 34 35 36 38 44 45 47 50 
14(11)->1 2 3 4 5 6 7 8 9 15 16 18 19 20 21 22 23 27 28 30 35 42 44 45 46 50 
15(13)->1 2 3 4 5 6 7 8 10 12 14 16 17 21 23 26 27 28 30 31 32 36 37 40 43 45 46 47 
16(9)->1 2 3 4 5 6 7 8 11 12 14 15 17 20 21 23 25 27 29 31 32 33 35 36 37 40 41 43 45 49 50 
17(14)->1 2 3 4 5 6 7 8 9 12 15 16 18 19 20 21 23 25 26 30 34 35 43 45 47 48 50 
18(10)->1 2 3 4 5 6 7 8 14 17 19 21 22 24 27 28 31 33 34 35 36 37 38 39 42 44 46 49 50 
19(9)->1 2 3 4 5 6 7 8 12 14 17 18 20 21 22 25 26 27 31 33 34 36 37 40 41 42 43 45 47 48 
20(12)->1 2 3 4 5 6 7 8 9 10 14 16 17 19 22 26 27 28 29 33 35 37 39 46 47 
21(12)->1 2 3 4 5 6 7 8 9 10 11 12 13 14 15 16 17 18 19 23 25 26 27 29 31 37 46 47 48 50 
22(13)->1 2 3 4 5 6 7 9 14 18 19 20 23 26 27 32 33 34 35 36 37 40 43 44 46 
23(8)->1 2 3 4 5 6 7 8 9 10 12 14 15 16 17 21 22 24 25 30 32 33 38 39 40 43 44 47 
24(13)->1 2 3 4 5 6 7 8 9 12 18 23 27 29 30 31 34 36 37 38 43 44 47 
25(10)->1 2 3 4 5 6 8 11 16 17 19 21 23 26 27 28 29 30 31 32 33 36 38 42 44 48 50 
26(7)->1 2 3 4 5 6 8 9 10 15 17 19 20 21 22 25 27 29 31 33 35 36 37 38 41 43 45 46 
27(6)->1 2 3 4 5 6 7 11 12 14 15 16 18 19 20 21 22 24 25 26 29 31 35 37 40 42 43 47 49 50 
28(9)->1 2 3 4 5 6 7 8 10 14 15 18 20 25 32 33 34 36 37 42 47 48 49 
29(14)->1 2 3 4 5 6 7 8 9 10 11 16 20 21 24 25 26 27 33 34 35 37 38 45 47 48 
30(12)->1 2 3 4 5 6 7 8 9 10 11 12 14 15 17 23 24 25 33 35 37 39 40 41 44 45 46 49 50 
31(8)->1 2 3 4 5 6 7 8 9 10 15 16 18 19 21 24 25 26 27 33 34 40 42 45 48 
32(11)->1 2 3 4 5 6 7 8 13 15 16 22 23 25 28 36 40 41 43 44 45 46 48 49 
33(5)->1 2 3 4 5 7 12 13 16 18 19 20 22 23 25 26 28 29 30 31 35 38 40 41 42 43 44 48 49 
34(11)->1 2 3 4 5 6 7 11 13 17 18 19 22 24 28 29 31 37 41 43 45 48 49 
35(8)->1 2 3 4 5 6 7 8 9 10 11 12 13 14 16 17 18 20 22 26 27 29 30 33 39 41 43 46 48 49 50 
36(12)->1 2 3 4 5 6 7 8 9 10 11 12 13 15 16 18 19 22 24 25 26 28 32 37 41 42 48 50 
37(8)->1 2 3 4 5 6 7 8 9 10 11 12 15 16 18 19 20 21 22 24 26 27 28 29 30 34 36 39 40 43 46 47 49 50 
38(11)->1 2 3 4 8 9 10 11 13 18 23 24 25 26 29 33 40 42 43 45 46 48 49 
39(14)->1 2 3 4 5 6 7 8 9 11 12 18 20 23 30 35 37 42 44 48 
40(7)->1 2 3 4 5 6 10 11 15 16 19 22 23 27 30 31 32 33 37 38 43 44 45 46 47 49 50 
41(10)->1 2 3 4 5 6 7 8 12 16 19 26 30 32 33 34 35 36 42 45 
42(7)->1 2 3 4 6 8 10 11 14 18 19 25 27 28 31 33 36 38 39 41 45 46 47 48 
43(12)->1 2 3 4 5 6 7 8 9 10 12 15 16 17 19 22 23 24 26 27 32 33 34 35 37 38 40 46 48 49 
44(6)->1 2 3 4 5 6 12 13 14 18 22 23 24 25 30 32 33 39 40 49 50 
45(4)->1 2 3 4 6 9 10 13 14 15 16 17 19 26 29 30 31 32 34 38 40 41 42 47 49 50 
46(14)->1 2 3 4 5 6 8 9 10 12 14 15 18 20 21 22 26 30 32 35 37 38 40 42 43 47 49 
47(10)->1 2 3 4 5 6 7 8 13 15 17 19 20 21 23 24 27 28 29 37 40 42 45 46 49 50 
48(6)->1 2 3 4 5 6 7 10 11 12 17 19 21 25 28 29 31 32 33 34 35 36 38 39 42 43 49 
49(13)->1 2 3 4 5 6 7 8 9 10 12 16 18 27 28 30 32 33 34 35 37 38 40 43 44 45 46 47 48 50 
50(3)->1 2 4 5 8 9 11 13 14 16 17 18 21 25 27 30 35 36 37 40 44 45 47 49 
COUNT: 2199
COLORS: 15
EDGES: 750
15
2199
