1: 2 3 4 5 6 7 8 9 10 11 12 13 14 15 16 17 18 19 20 21 22 23 24 25 26 27 28 29 30 31 32 33 34 35 36 37 38 39 40 41 42 43 44 45 46 47 48 49
2: 1 3 4 5 6 7 8 9 10 11 12 13 14 15 16 17 18 19 20 21 22 23 24 25 26 27 28 29 30 31 32 33 34 35 36 37 38 39 40 41 42 43 44 45 46 47 48 49
3: 1 2 4 5 6 7 8 9 10 11 12 13 14 15 16 17 18 19 20 21 22 23 24 25 26 27 28 29 30 31 32 33 34 35 36 37 38 39 40 41 42 43 44 45 46 47 48 49
4: 1 2 3 5 6 7 8 9 10 11 12 13 14 15 16 17 18 19 20 21 22 23 24 25 26 27 28 29 30 31 32 33 34 35 36 37 38 39 40 41 42 43 44 45 46 47 48 49
5: 1 2 3 4 6 7 8 9 10 11 12 13 14 15 16 17 18 19 20 21 22 23 24 25 26 27 28 29 30 31 32 33 34 36 37 38 39 40 41 42 43 44 46 47 48 49
6: 1 2 3 4 5 7 8 9 10 11 12 13 14 15 16 17 18 19 20 21 22 23 24 25 26 27 28 29 30 31 32 33 34 35 36 37 38 39 40 41 42 43 44 45 47 48 49
7: 1 2 3 4 5 6 8 9 10 11 12 13 14 15 16 17 18 19 20 21 22 23 25 27 28 30 31 32 33 34 35 36 37 38 39 41 42 43 44 45 47 48 49
8: 1 2 3 4 5 6 7 9 10 11 12 13 14 15 16 17 18 19 20 21 22 25 28 30 31 32 33 34 36 37 39 40 41 42 44 45 46 47 48 49 50
9: 1 2 3 4 5 6 7 8 10 11 12 13 14 15 16 17 18 19 20 21 22 24 25 27 28 31 33 34 36 38 39 40 43 45 47 48 49 50
10: 1 2 3 4 5 6 7 8 9 11 12 13 14 15 16 17 18 19 20 21 22 23 27 29 30 31 33 34 36 39 42 44 45 46 47 49
11: 1 2 3 4 5 6 7 8 9 10 12 13 14 15 16 17 18 19 20 26 27 30 35 36 38 41 42 46 47
12: 1 2 3 4 5 6 7 8 9 10 11 13 14 15 16 17 18 21 23 24 28 29 30 35 36 38 41 42 43 47 48 49
13: 1 2 3 4 5 6 7 8 9 10 11 12 14 15 16 17 18 23 24 26 29 31 35 36 41 43 44 49 50
14: 1 2 3 4 5 6 7 8 9 10 11 12 13 15 16 20 21 22 24 25 26 27 28 29 30 31 34 35 37 38 40 45
15: 1 2 3 4 5 6 7 8 9 10 11 12 13 14 16 18 24 27 30 34 35 36 37 38 39 43 45 47 49
16: 1 2 3 4 5 6 7 8 9 10 11 12 13 14 15 17 19 20 22 24 26 27 31 32 37 45 47 48
17: 1 2 3 4 5 6 7 8 9 10 11 12 13 16 19 21 22 26 30 33 34 35 36 37 39 44 50
18: 1 2 3 4 5 6 7 8 9 10 11 12 13 15 21 22 23 25 30 31 32 33 34 37 38 39 41 43 46 48 50
19: 1 2 3 4 5 6 7 8 9 10 11 16 17 20 22 24 26 27 30 31 36 38 44 45 47 48 50
20: 1 2 3 4 5 6 7 8 9 10 11 14 16 19 21 24 26 27 29 36 38 40 41 42 43 46 48 50
21: 1 2 3 4 5 6 7 8 9 10 12 14 17 18 20 23 26 27 28 29 38 39 40 43 47 49
22: 1 2 3 4 5 6 7 8 9 10 14 16 17 18 19 24 25 26 27 33 35 37 42 44 47 48 49
23: 1 2 3 4 5 6 7 10 12 13 18 21 24 25 27 28 31 33 36 41 44 45 46 47 49 50
24: 1 2 3 4 5 6 9 12 13 14 15 16 19 20 22 23 27 29 30 32 38 39 40 42 43 44 45 46 48 49 50
25: 1 2 3 4 5 6 7 8 9 14 18 22 23 29 33 34 36 37 38 39 44 48
26: 1 2 3 4 5 6 11 13 14 16 17 19 20 21 22 29 32 34 37 38 39 40 42 44 46 48 50
27: 1 2 3 4 5 6 7 9 10 11 14 15 16 19 20 21 22 23 24 28 29 34 35 37 38 41 44 47 49 50
28: 1 2 3 4 5 6 7 8 9 12 14 21 23 27 29 30 32 34 38 39 42 45
29: 1 2 3 4 5 6 10 12 13 14 20 21 24 25 26 27 28 36 37 40 42 45 46 48
30: 1 2 3 4 5 6 7 8 10 11 12 14 15 17 18 19 24 28 31 32 33 34 37 38 42 45 46 47
31: 1 2 3 4 5 6 7 8 9 10 13 14 16 18 19 23 30 33 34 37 39 40 41 43 47
32: 33 34 3 4 5 6 7 8 41 42 44 2 16 49 18 1 40 24 26 28 30
33: 1 2 3 4 5 6 7 8 9 10 17 18 22 23 25 30 31 32 34 36 37 38 41 44 45
34: 1 2 3 4 5 6 7 8 9 10 14 15 17 18 25 26 27 28 30 31 32 33 36 37 40 42 45 47 48 49 50
35: 1 2 3 17 6 38 7 15 11 12 13 46 47 48 49 50 14 22 4 27
36: 1 2 3 4 5 6 7 8 9 10 11 12 13 15 17 19 20 23 25 29 33 34 37 44 46 47 49
37: 1 2 3 4 5 6 7 8 14 15 16 17 18 22 25 26 27 29 30 31 33 34 36 39 43 45 46 47 49
38: 1 2 3 4 5 6 7 9 11 12 14 15 18 19 20 21 24 25 26 27 28 30 33 35 39 40 41 42 47 50
39: 1 2 3 4 5 6 7 8 9 10 15 17 18 21 24 25 26 28 31 37 38 43 44 46
40: 1 2 3 4 5 6 8 9 14 20 21 24 26 29 31 32 34 38 43 45 49 50
41: 1 2 3 4 5 6 7 8 11 12 13 18 20 23 27 31 32 33 38 42 45 46 47 50
42: 1 2 3 4 5 6 7 8 10 11 12 20 22 24 26 28 29 30 32 34 38 41 44 45 47 50
43: 1 2 3 4 5 6 7 9 12 13 15 18 20 21 24 31 37 39 40 45 49 50
44: 1 2 3 4 5 6 7 8 10 13 17 19 22 23 24 25 26 27 32 33 36 39 42 46 49 50
45: 1 2 3 4 6 7 8 9 10 14 15 16 19 23 24 28 29 30 33 34 37 40 41 42 43 47 49 50
46: 1 2 3 4 5 8 10 11 18 20 23 24 26 29 30 35 36 37 39 41 44 48
47: 1 2 3 4 5 6 7 8 9 10 11 12 15 16 19 21 22 23 27 30 31 34 35 36 37 38 41 42 45 50
48: 1 2 3 4 5 6 7 8 9 12 16 18 19 20 22 24 25 26 29 34 35 46
49: 1 2 3 4 5 6 7 8 9 10 12 13 15 21 22 23 24 27 32 34 35 36 37 40 43 44 45
50: 34 35 38 8 9 42 43 44 45 47 17 18 19 20 41 40 24 23 26 27 13
-------
1(-1)->2 3 4 5 6 7 8 9 10 11 12 13 14 15 16 17 18 19 20 21 22 23 24 25 26 27 28 29 30 31 32 33 34 35 36 37 38 39 40 41 42 43 44 45 46 47 48 49 
2(-1)->1 3 4 5 6 7 8 9 10 11 12 13 14 15 16 17 18 19 20 21 22 23 24 25 26 27 28 29 30 31 32 33 34 35 36 37 38 39 40 41 42 43 44 45 46 47 48 49 
3(-1)->1 2 4 5 6 7 8 9 10 11 12 13 14 15 16 17 18 19 20 21 22 23 24 25 26 27 28 29 30 31 32 33 34 35 36 37 38 39 40 41 42 43 44 45 46 47 48 49 
4(-1)->1 2 3 5 6 7 8 9 10 11 12 13 14 15 16 17 18 19 20 21 22 23 24 25 26 27 28 29 30 31 32 33 34 35 36 37 38 39 40 41 42 43 44 45 46 47 48 49 
5(-1)->1 2 3 4 6 7 8 9 10 11 12 13 14 15 16 17 18 19 20 21 22 23 24 25 26 27 28 29 30 31 32 33 34 36 37 38 39 40 41 42 43 44 46 47 48 49 
6(-1)->1 2 3 4 5 7 8 9 10 11 12 13 14 15 16 17 18 19 20 21 22 23 24 25 26 27 28 29 30 31 32 33 34 35 36 37 38 39 40 41 42 43 44 45 47 48 49 
7(-1)->1 2 3 4 5 6 8 9 10 11 12 13 14 15 16 17 18 19 20 21 22 23 25 27 28 30 31 32 33 34 35 36 37 38 39 41 42 43 44 45 47 48 49 
8(-1)->1 2 3 4 5 6 7 9 10 11 12 13 14 15 16 17 18 19 20 21 22 25 28 30 31 32 33 34 36 37 39 40 41 42 44 45 46 47 48 49 50 
9(-1)->1 2 3 4 5 6 7 8 10 11 12 13 14 15 16 17 18 19 20 21 22 24 25 27 28 31 33 34 36 38 39 40 43 45 47 48 49 50 
10(-1)->1 2 3 4 5 6 7 8 9 11 12 13 14 15 16 17 18 19 20 21 22 23 27 29 30 31 33 34 36 39 42 44 45 46 47 49 
11(-1)->1 2 3 4 5 6 7 8 9 10 12 13 14 15 16 17 18 19 20 26 27 30 35 36 38 41 42 46 47 
12(-1)->1 2 3 4 5 6 7 8 9 10 11 13 14 15 16 17 18 21 23 24 28 29 30 35 36 38 41 42 43 47 48 49 
13(-1)->1 2 3 4 5 6 7 8 9 10 11 12 14 15 16 17 18 23 24 26 29 31 35 36 41 43 44 49 50 
14(-1)->1 2 3 4 5 6 7 8 9 10 11 12 13 15 16 20 21 22 24 25 26 27 28 29 30 31 34 35 37 38 40 45 
15(-1)->1 2 3 4 5 6 7 8 9 10 11 12 13 14 16 18 24 27 30 34 35 36 37 38 39 43 45 47 49 
16(-1)->1 2 3 4 5 6 7 8 9 10 11 12 13 14 15 17 19 20 22 24 26 27 31 32 37 45 47 48 
17(-1)->1 2 3 4 5 6 7 8 9 10 11 12 13 16 19 21 22 26 30 33 34 35 36 37 39 44 50 
18(-1)->1 2 3 4 5 6 7 8 9 10 11 12 13 15 21 22 23 25 30 31 32 33 34 37 38 39 41 43 46 48 50 
19(-1)->1 2 3 4 5 6 7 8 9 10 11 16 17 20 22 24 26 27 30 31 36 38 44 45 47 48 50 
20(-1)->1 2 3 4 5 6 7 8 9 10 11 14 16 19 21 24 26 27 29 36 38 40 41 42 43 46 48 50 
21(-1)->1 2 3 4 5 6 7 8 9 10 12 14 17 18 20 23 26 27 28 29 38 39 40 43 47 49 
22(-1)->1 2 3 4 5 6 7 8 9 10 14 16 17 18 19 24 25 26 27 33 35 37 42 44 47 48 49 
23(-1)->1 2 3 4 5 6 7 10 12 13 18 21 24 25 27 28 31 33 36 41 44 45 46 47 49 50 
24(-1)->1 2 3 4 5 6 9 12 13 14 15 16 19 20 22 23 27 29 30 32 38 39 40 42 43 44 45 46 48 49 50 
25(-1)->1 2 3 4 5 6 7 8 9 14 18 22 23 29 33 34 36 37 38 39 44 48 
26(-1)->1 2 3 4 5 6 11 13 14 16 17 19 20 21 22 29 32 34 37 38 39 40 42 44 46 48 50 
27(-1)->1 2 3 4 5 6 7 9 10 11 14 15 16 19 20 21 22 23 24 28 29 34 35 37 38 41 44 47 49 50 
28(-1)->1 2 3 4 5 6 7 8 9 12 14 21 23 27 29 30 32 34 38 39 42 45 
29(-1)->1 2 3 4 5 6 10 12 13 14 20 21 24 25 26 27 28 36 37 40 42 45 46 48 
30(-1)->1 2 3 4 5 6 7 8 10 11 12 14 15 17 18 19 24 28 31 32 33 34 37 38 42 45 46 47 
31(-1)->1 2 3 4 5 6 7 8 9 10 13 14 16 18 19 23 30 33 34 37 39 40 41 43 47 
32(-1)->1 2 3 4 5 6 7 8 16 18 24 26 28 30 33 34 40 41 42 44 49 
33(-1)->1 2 3 4 5 6 7 8 9 10 17 18 22 23 25 30 31 32 34 36 37 38 41 44 45 
34(-1)->1 2 3 4 5 6 7 8 9 10 14 15 17 18 25 26 27 28 30 31 32 33 36 37 40 42 45 47 48 49 50 
35(-1)->1 2 3 4 6 7 11 12 13 14 15 17 22 27 38 46 47 48 49 50 
36(-1)->1 2 3 4 5 6 7 8 9 10 11 12 13 15 17 19 20 23 25 29 33 34 37 44 46 47 49 
37(-1)->1 2 3 4 5 6 7 8 14 15 16 17 18 22 25 26 27 29 30 31 33 34 36 39 43 45 46 47 49 
38(-1)->1 2 3 4 5 6 7 9 11 12 14 15 18 19 20 21 24 25 26 27 28 30 33 35 39 40 41 42 47 50 
39(-1)->1 2 3 4 5 6 7 8 9 10 15 17 18 21 24 25 26 28 31 37 38 43 44 46 
40(-1)->1 2 3 4 5 6 8 9 14 20 21 24 26 29 31 32 34 38 43 45 49 50 
41(-1)->1 2 3 4 5 6 7 8 11 12 13 18 20 23 27 31 32 33 38 42 45 46 47 50 
42(-1)->1 2 3 4 5 6 7 8 10 11 12 20 22 24 26 28 29 30 32 34 38 41 44 45 47 50 
43(-1)->1 2 3 4 5 6 7 9 12 13 15 18 20 21 24 31 37 39 40 45 49 50 
44(-1)->1 2 3 4 5 6 7 8 10 13 17 19 22 23 24 25 26 27 32 33 36 39 42 46 49 50 
45(-1)->1 2 3 4 6 7 8 9 10 14 15 16 19 23 24 28 29 30 33 34 37 40 41 42 43 47 49 50 
46(-1)->1 2 3 4 5 8 10 11 18 20 23 24 26 29 30 35 36 37 39 41 44 48 
47(-1)->1 2 3 4 5 6 7 8 9 10 11 12 15 16 19 21 22 23 27 30 31 34 35 36 37 38 41 42 45 50 
48(-1)->1 2 3 4 5 6 7 8 9 12 16 18 19 20 22 24 25 26 29 34 35 46 
49(-1)->1 2 3 4 5 6 7 8 9 10 12 13 15 21 22 23 24 27 32 34 35 36 37 40 43 44 45 
50(-1)->8 9 13 17 18 19 20 23 24 26 27 34 35 38 40 41 42 43 44 45 47 
-------
Node 1 maps to position 0
Node 2 maps to position 1
Node 3 maps to position 2
Node 4 maps to position 3
Node 6 maps to position 4
Node 5 maps to position 5
Node 7 maps to position 6
Node 8 maps to position 7
Node 9 maps to position 8
Node 10 maps to position 9
Node 12 maps to position 10
Node 14 maps to position 11
Node 24 maps to position 12
Node 27 maps to position 13
Node 34 maps to position 14
Node 18 maps to position 15
Node 38 maps to position 16
Node 47 maps to position 17
Node 11 maps to position 18
Node 13 maps to position 19
Node 15 maps to position 20
Node 37 maps to position 21
Node 16 maps to position 22
Node 20 maps to position 23
Node 19 maps to position 24
Node 30 maps to position 25
Node 45 maps to position 26
Node 49 maps to position 27
Node 22 maps to position 28
Node 17 maps to position 29
Node 26 maps to position 30
Node 21 maps to position 31
Node 23 maps to position 32
Node 36 maps to position 33
Node 44 maps to position 34
Node 42 maps to position 35
Node 29 maps to position 36
Node 25 maps to position 37
Node 33 maps to position 38
Node 31 maps to position 39
Node 39 maps to position 40
Node 28 maps to position 41
Node 32 maps to position 42
Node 41 maps to position 43
Node 46 maps to position 44
Node 48 maps to position 45
Node 35 maps to position 46
Node 50 maps to position 47
Node 40 maps to position 48
Node 43 maps to position 49
1(-1)->2 3 4 5 6 7 8 9 10 11 12 13 14 15 16 17 18 19 20 21 22 23 24 25 26 27 28 29 30 31 32 33 34 35 36 37 38 39 40 41 42 43 44 45 46 47 48 49 
2(-1)->1 3 4 5 6 7 8 9 10 11 12 13 14 15 16 17 18 19 20 21 22 23 24 25 26 27 28 29 30 31 32 33 34 35 36 37 38 39 40 41 42 43 44 45 46 47 48 49 
3(-1)->1 2 4 5 6 7 8 9 10 11 12 13 14 15 16 17 18 19 20 21 22 23 24 25 26 27 28 29 30 31 32 33 34 35 36 37 38 39 40 41 42 43 44 45 46 47 48 49 
4(-1)->1 2 3 5 6 7 8 9 10 11 12 13 14 15 16 17 18 19 20 21 22 23 24 25 26 27 28 29 30 31 32 33 34 35 36 37 38 39 40 41 42 43 44 45 46 47 48 49 
6(-1)->1 2 3 4 5 7 8 9 10 11 12 13 14 15 16 17 18 19 20 21 22 23 24 25 26 27 28 29 30 31 32 33 34 35 36 37 38 39 40 41 42 43 44 45 47 48 49 
5(-1)->1 2 3 4 6 7 8 9 10 11 12 13 14 15 16 17 18 19 20 21 22 23 24 25 26 27 28 29 30 31 32 33 34 36 37 38 39 40 41 42 43 44 46 47 48 49 
7(-1)->1 2 3 4 5 6 8 9 10 11 12 13 14 15 16 17 18 19 20 21 22 23 25 27 28 30 31 32 33 34 35 36 37 38 39 41 42 43 44 45 47 48 49 
8(-1)->1 2 3 4 5 6 7 9 10 11 12 13 14 15 16 17 18 19 20 21 22 25 28 30 31 32 33 34 36 37 39 40 41 42 44 45 46 47 48 49 50 
9(-1)->1 2 3 4 5 6 7 8 10 11 12 13 14 15 16 17 18 19 20 21 22 24 25 27 28 31 33 34 36 38 39 40 43 45 47 48 49 50 
10(-1)->1 2 3 4 5 6 7 8 9 11 12 13 14 15 16 17 18 19 20 21 22 23 27 29 30 31 33 34 36 39 42 44 45 46 47 49 
12(-1)->1 2 3 4 5 6 7 8 9 10 11 13 14 15 16 17 18 21 23 24 28 29 30 35 36 38 41 42 43 47 48 49 
14(-1)->1 2 3 4 5 6 7 8 9 10 11 12 13 15 16 20 21 22 24 25 26 27 28 29 30 31 34 35 37 38 40 45 
24(-1)->1 2 3 4 5 6 9 12 13 14 15 16 19 20 22 23 27 29 30 32 38 39 40 42 43 44 45 46 48 49 50 
27(-1)->1 2 3 4 5 6 7 9 10 11 14 15 16 19 20 21 22 23 24 28 29 34 35 37 38 41 44 47 49 50 
34(-1)->1 2 3 4 5 6 7 8 9 10 14 15 17 18 25 26 27 28 30 31 32 33 36 37 40 42 45 47 48 49 50 
18(-1)->1 2 3 4 5 6 7 8 9 10 11 12 13 15 21 22 23 25 30 31 32 33 34 37 38 39 41 43 46 48 50 
38(-1)->1 2 3 4 5 6 7 9 11 12 14 15 18 19 20 21 24 25 26 27 28 30 33 35 39 40 41 42 47 50 
47(-1)->1 2 3 4 5 6 7 8 9 10 11 12 15 16 19 21 22 23 27 30 31 34 35 36 37 38 41 42 45 50 
11(-1)->1 2 3 4 5 6 7 8 9 10 12 13 14 15 16 17 18 19 20 26 27 30 35 36 38 41 42 46 47 
13(-1)->1 2 3 4 5 6 7 8 9 10 11 12 14 15 16 17 18 23 24 26 29 31 35 36 41 43 44 49 50 
15(-1)->1 2 3 4 5 6 7 8 9 10 11 12 13 14 16 18 24 27 30 34 35 36 37 38 39 43 45 47 49 
37(-1)->1 2 3 4 5 6 7 8 14 15 16 17 18 22 25 26 27 29 30 31 33 34 36 39 43 45 46 47 49 
16(-1)->1 2 3 4 5 6 7 8 9 10 11 12 13 14 15 17 19 20 22 24 26 27 31 32 37 45 47 48 
20(-1)->1 2 3 4 5 6 7 8 9 10 11 14 16 19 21 24 26 27 29 36 38 40 41 42 43 46 48 50 
19(-1)->1 2 3 4 5 6 7 8 9 10 11 16 17 20 22 24 26 27 30 31 36 38 44 45 47 48 50 
30(-1)->1 2 3 4 5 6 7 8 10 11 12 14 15 17 18 19 24 28 31 32 33 34 37 38 42 45 46 47 
45(-1)->1 2 3 4 6 7 8 9 10 14 15 16 19 23 24 28 29 30 33 34 37 40 41 42 43 47 49 50 
49(-1)->1 2 3 4 5 6 7 8 9 10 12 13 15 21 22 23 24 27 32 34 35 36 37 40 43 44 45 
22(-1)->1 2 3 4 5 6 7 8 9 10 14 16 17 18 19 24 25 26 27 33 35 37 42 44 47 48 49 
17(-1)->1 2 3 4 5 6 7 8 9 10 11 12 13 16 19 21 22 26 30 33 34 35 36 37 39 44 50 
26(-1)->1 2 3 4 5 6 11 13 14 16 17 19 20 21 22 29 32 34 37 38 39 40 42 44 46 48 50 
21(-1)->1 2 3 4 5 6 7 8 9 10 12 14 17 18 20 23 26 27 28 29 38 39 40 43 47 49 
23(-1)->1 2 3 4 5 6 7 10 12 13 18 21 24 25 27 28 31 33 36 41 44 45 46 47 49 50 
36(-1)->1 2 3 4 5 6 7 8 9 10 11 12 13 15 17 19 20 23 25 29 33 34 37 44 46 47 49 
44(-1)->1 2 3 4 5 6 7 8 10 13 17 19 22 23 24 25 26 27 32 33 36 39 42 46 49 50 
42(-1)->1 2 3 4 5 6 7 8 10 11 12 20 22 24 26 28 29 30 32 34 38 41 44 45 47 50 
29(-1)->1 2 3 4 5 6 10 12 13 14 20 21 24 25 26 27 28 36 37 40 42 45 46 48 
25(-1)->1 2 3 4 5 6 7 8 9 14 18 22 23 29 33 34 36 37 38 39 44 48 
33(-1)->1 2 3 4 5 6 7 8 9 10 17 18 22 23 25 30 31 32 34 36 37 38 41 44 45 
31(-1)->1 2 3 4 5 6 7 8 9 10 13 14 16 18 19 23 30 33 34 37 39 40 41 43 47 
39(-1)->1 2 3 4 5 6 7 8 9 10 15 17 18 21 24 25 26 28 31 37 38 43 44 46 
28(-1)->1 2 3 4 5 6 7 8 9 12 14 21 23 27 29 30 32 34 38 39 42 45 
32(-1)->1 2 3 4 5 6 7 8 16 18 24 26 28 30 33 34 40 41 42 44 49 
41(-1)->1 2 3 4 5 6 7 8 11 12 13 18 20 23 27 31 32 33 38 42 45 46 47 50 
46(-1)->1 2 3 4 5 8 10 11 18 20 23 24 26 29 30 35 36 37 39 41 44 48 
48(-1)->1 2 3 4 5 6 7 8 9 12 16 18 19 20 22 24 25 26 29 34 35 46 
35(-1)->1 2 3 4 6 7 11 12 13 14 15 17 22 27 38 46 47 48 49 50 
50(-1)->8 9 13 17 18 19 20 23 24 26 27 34 35 38 40 41 42 43 44 45 47 
40(-1)->1 2 3 4 5 6 8 9 14 20 21 24 26 29 31 32 34 38 43 45 49 50 
43(-1)->1 2 3 4 5 6 7 9 12 13 15 18 20 21 24 31 37 39 40 45 49 50 
-------
BLAH
START TIME: 1433713993
1(0)->2 3 4 5 6 7 8 9 10 11 12 13 14 15 16 17 18 19 20 21 22 23 24 25 26 27 28 29 30 31 32 33 34 35 36 37 38 39 40 41 42 43 44 45 46 47 48 49 
2(1)->1 3 4 5 6 7 8 9 10 11 12 13 14 15 16 17 18 19 20 21 22 23 24 25 26 27 28 29 30 31 32 33 34 35 36 37 38 39 40 41 42 43 44 45 46 47 48 49 
3(2)->1 2 4 5 6 7 8 9 10 11 12 13 14 15 16 17 18 19 20 21 22 23 24 25 26 27 28 29 30 31 32 33 34 35 36 37 38 39 40 41 42 43 44 45 46 47 48 49 
4(3)->1 2 3 5 6 7 8 9 10 11 12 13 14 15 16 17 18 19 20 21 22 23 24 25 26 27 28 29 30 31 32 33 34 35 36 37 38 39 40 41 42 43 44 45 46 47 48 49 
5(5)->1 2 3 4 6 7 8 9 10 11 12 13 14 15 16 17 18 19 20 21 22 23 24 25 26 27 28 29 30 31 32 33 34 36 37 38 39 40 41 42 43 44 46 47 48 49 
6(4)->1 2 3 4 5 7 8 9 10 11 12 13 14 15 16 17 18 19 20 21 22 23 24 25 26 27 28 29 30 31 32 33 34 35 36 37 38 39 40 41 42 43 44 45 47 48 49 
7(6)->1 2 3 4 5 6 8 9 10 11 12 13 14 15 16 17 18 19 20 21 22 23 25 27 28 30 31 32 33 34 35 36 37 38 39 41 42 43 44 45 47 48 49 
8(7)->1 2 3 4 5 6 7 9 10 11 12 13 14 15 16 17 18 19 20 21 22 25 28 30 31 32 33 34 36 37 39 40 41 42 44 45 46 47 48 49 50 
9(8)->1 2 3 4 5 6 7 8 10 11 12 13 14 15 16 17 18 19 20 21 22 24 25 27 28 31 33 34 36 38 39 40 43 45 47 48 49 50 
10(9)->1 2 3 4 5 6 7 8 9 11 12 13 14 15 16 17 18 19 20 21 22 23 27 29 30 31 33 34 36 39 42 44 45 46 47 49 
11(12)->1 2 3 4 5 6 7 8 9 10 12 13 14 15 16 17 18 19 20 26 27 30 35 36 38 41 42 46 47 
12(10)->1 2 3 4 5 6 7 8 9 10 11 13 14 15 16 17 18 21 23 24 28 29 30 35 36 38 41 42 43 47 48 49 
13(13)->1 2 3 4 5 6 7 8 9 10 11 12 14 15 16 17 18 23 24 26 29 31 35 36 41 43 44 49 50 
14(11)->1 2 3 4 5 6 7 8 9 10 11 12 13 15 16 20 21 22 24 25 26 27 28 29 30 31 34 35 37 38 40 45 
15(14)->1 2 3 4 5 6 7 8 9 10 11 12 13 14 16 18 24 27 30 34 35 36 37 38 39 43 45 47 49 
16(15)->1 2 3 4 5 6 7 8 9 10 11 12 13 14 15 17 19 20 22 24 26 27 31 32 37 45 47 48 
17(11)->1 2 3 4 5 6 7 8 9 10 11 12 13 16 19 21 22 26 30 33 34 35 36 37 39 44 50 
18(11)->1 2 3 4 5 6 7 8 9 10 11 12 13 15 21 22 23 25 30 31 32 33 34 37 38 39 41 43 46 48 50 
19(13)->1 2 3 4 5 6 7 8 9 10 11 16 17 20 22 24 26 27 30 31 36 38 44 45 47 48 50 
20(10)->1 2 3 4 5 6 7 8 9 10 11 14 16 19 21 24 26 27 29 36 38 40 41 42 43 46 48 50 
21(12)->1 2 3 4 5 6 7 8 9 10 12 14 17 18 20 23 26 27 28 29 38 39 40 43 47 49 
22(10)->1 2 3 4 5 6 7 8 9 10 14 16 17 18 19 24 25 26 27 33 35 37 42 44 47 48 49 
23(8)->1 2 3 4 5 6 7 10 12 13 18 21 24 25 27 28 31 33 36 41 44 45 46 47 49 50 
24(6)->1 2 3 4 5 6 9 12 13 14 15 16 19 20 22 23 27 29 30 32 38 39 40 42 43 44 45 46 48 49 50 
25(13)->1 2 3 4 5 6 7 8 9 14 18 22 23 29 33 34 36 37 38 39 44 48 
26(6)->1 2 3 4 5 6 11 13 14 16 17 19 20 21 22 29 32 34 37 38 39 40 42 44 46 48 50 
27(7)->1 2 3 4 5 6 7 9 10 11 14 15 16 19 20 21 22 23 24 28 29 34 35 37 38 41 44 47 49 50 
28(13)->1 2 3 4 5 6 7 8 9 12 14 21 23 27 29 30 32 34 38 39 42 45 
29(14)->1 2 3 4 5 6 10 12 13 14 20 21 24 25 26 27 28 36 37 40 42 45 46 48 
30(15)->1 2 3 4 5 6 7 8 10 11 12 14 15 17 18 19 24 28 31 32 33 34 37 38 42 45 46 47 
31(12)->1 2 3 4 5 6 7 8 9 10 13 14 16 18 19 23 30 33 34 37 39 40 41 43 47 
32(9)->1 2 3 4 5 6 7 8 16 18 24 26 28 30 33 34 40 41 42 44 49 
33(14)->1 2 3 4 5 6 7 8 9 10 17 18 22 23 25 30 31 32 34 36 37 38 41 44 45 
34(10)->1 2 3 4 5 6 7 8 9 10 14 15 17 18 25 26 27 28 30 31 32 33 36 37 40 42 45 47 48 49 50 
35(5)->1 2 3 4 6 7 11 12 13 14 15 17 22 27 38 46 47 48 49 50 
36(15)->1 2 3 4 5 6 7 8 9 10 11 12 13 15 17 19 20 23 25 29 33 34 37 44 46 47 49 
37(8)->1 2 3 4 5 6 7 8 14 15 16 17 18 22 25 26 27 29 30 31 33 34 36 39 43 45 46 47 49 
38(9)->1 2 3 4 5 6 7 9 11 12 14 15 18 19 20 21 24 25 26 27 28 30 33 35 39 40 41 42 47 50 
39(10)->1 2 3 4 5 6 7 8 9 10 15 17 18 21 24 25 26 28 31 37 38 43 44 46 
40(13)->1 2 3 4 5 6 8 9 14 20 21 24 26 29 31 32 34 38 43 45 49 50 
41(15)->1 2 3 4 5 6 7 8 11 12 13 18 20 23 27 31 32 33 38 42 45 46 47 50 
42(8)->1 2 3 4 5 6 7 8 10 11 12 20 22 24 26 28 29 30 32 34 38 41 44 45 47 50 
43(7)->1 2 3 4 5 6 7 9 12 13 15 18 20 21 24 31 37 39 40 45 49 50 
44(12)->1 2 3 4 5 6 7 8 10 13 17 19 22 23 24 25 26 27 32 33 36 39 42 46 49 50 
45(5)->1 2 3 4 6 7 8 9 10 14 15 16 19 23 24 28 29 30 33 34 37 40 41 42 43 47 49 50 
46(4)->1 2 3 4 5 8 10 11 18 20 23 24 26 29 30 35 36 37 39 41 44 48 
47(11)->1 2 3 4 5 6 7 8 9 10 11 12 15 16 19 21 22 23 27 30 31 34 35 36 37 38 41 42 45 50 
48(9)->1 2 3 4 5 6 7 8 9 12 16 18 19 20 22 24 25 26 29 34 35 46 
49(11)->1 2 3 4 5 6 7 8 9 10 12 13 15 21 22 23 24 27 32 34 35 36 37 40 43 44 45 
50(0)->8 9 13 17 18 19 20 23 24 26 27 34 35 38 40 41 42 43 44 45 47 
COUNT: 1682
COLORS: 16
EDGES: 750
16
1682
