1: 8 3 2 11
2: 24 1 3
3: 27 1 2 35 6
4: 32 15
5: 16 41 30 17
6: 50 3 13 22
7: 33
8: 1
9: 40
10: 26 13 37
11: 1 20 13 14
12: 16
13: 10 11 6 31
14: 11 39 23
15: 4
16: 12 5 45
17: 5 39
18: 
19: 
20: 11 50 43
21: 39
22: 6
23: 43 28 14
24: 2 46 47
25: 34
26: 33 10 30
27: 3
28: 23
29: 
30: 26 5
31: 33 13
32: 40 4
33: 43 26 7 31
34: 25
35: 3
36: 43
37: 10
38: 49
39: 17 21 14
40: 32 9
41: 49 5
42: 
43: 48 20 36 33 23
44: 
45: 16
46: 24
47: 24
48: 43
49: 41 50 38
50: 49 20 6
-------
1(-1)->2 3 8 11 
2(-1)->1 3 24 
3(-1)->1 2 6 27 35 
4(-1)->15 32 
5(-1)->16 17 30 41 
6(-1)->3 13 22 50 
7(-1)->33 
8(-1)->1 
9(-1)->40 
10(-1)->13 26 37 
11(-1)->1 13 14 20 
12(-1)->16 
13(-1)->6 10 11 31 
14(-1)->11 23 39 
15(-1)->4 
16(-1)->5 12 45 
17(-1)->5 39 
18(-1)->
19(-1)->
20(-1)->11 43 50 
21(-1)->39 
22(-1)->6 
23(-1)->14 28 43 
24(-1)->2 46 47 
25(-1)->34 
26(-1)->10 30 33 
27(-1)->3 
28(-1)->23 
29(-1)->
30(-1)->5 26 
31(-1)->13 33 
32(-1)->4 40 
33(-1)->7 26 31 43 
34(-1)->25 
35(-1)->3 
36(-1)->43 
37(-1)->10 
38(-1)->49 
39(-1)->14 17 21 
40(-1)->9 32 
41(-1)->5 49 
42(-1)->
43(-1)->20 23 33 36 48 
44(-1)->
45(-1)->16 
46(-1)->24 
47(-1)->24 
48(-1)->43 
49(-1)->38 41 50 
50(-1)->6 20 49 
-------
Node 3 maps to position 0
Node 1 maps to position 1
Node 11 maps to position 2
Node 13 maps to position 3
Node 6 maps to position 4
Node 50 maps to position 5
Node 20 maps to position 6
Node 43 maps to position 7
Node 33 maps to position 8
Node 26 maps to position 9
Node 10 maps to position 10
Node 37 maps to position 11
Node 5 maps to position 12
Node 16 maps to position 13
Node 12 maps to position 14
Node 2 maps to position 15
Node 24 maps to position 16
Node 46 maps to position 17
Node 14 maps to position 18
Node 23 maps to position 19
Node 28 maps to position 20
Node 39 maps to position 21
Node 17 maps to position 22
Node 49 maps to position 23
Node 41 maps to position 24
Node 4 maps to position 25
Node 32 maps to position 26
Node 40 maps to position 27
Node 9 maps to position 28
Node 30 maps to position 29
Node 31 maps to position 30
Node 7 maps to position 31
Node 8 maps to position 32
Node 15 maps to position 33
Node 21 maps to position 34
Node 22 maps to position 35
Node 25 maps to position 36
Node 34 maps to position 37
Node 27 maps to position 38
Node 35 maps to position 39
Node 36 maps to position 40
Node 38 maps to position 41
Node 45 maps to position 42
Node 47 maps to position 43
Node 48 maps to position 44
Node 18 maps to position 45
Node 19 maps to position 46
Node 29 maps to position 47
Node 42 maps to position 48
Node 44 maps to position 49
3(-1)->1 2 6 27 35 
1(-1)->2 3 8 11 
11(-1)->1 13 14 20 
13(-1)->6 10 11 31 
6(-1)->3 13 22 50 
50(-1)->6 20 49 
20(-1)->11 43 50 
43(-1)->20 23 33 36 48 
33(-1)->7 26 31 43 
26(-1)->10 30 33 
10(-1)->13 26 37 
37(-1)->10 
5(-1)->16 17 30 41 
16(-1)->5 12 45 
12(-1)->16 
2(-1)->1 3 24 
24(-1)->2 46 47 
46(-1)->24 
14(-1)->11 23 39 
23(-1)->14 28 43 
28(-1)->23 
39(-1)->14 17 21 
17(-1)->5 39 
49(-1)->38 41 50 
41(-1)->5 49 
4(-1)->15 32 
32(-1)->4 40 
40(-1)->9 32 
9(-1)->40 
30(-1)->5 26 
31(-1)->13 33 
7(-1)->33 
8(-1)->1 
15(-1)->4 
21(-1)->39 
22(-1)->6 
25(-1)->34 
34(-1)->25 
27(-1)->3 
35(-1)->3 
36(-1)->43 
38(-1)->49 
45(-1)->16 
47(-1)->24 
48(-1)->43 
18(-1)->
19(-1)->
29(-1)->
42(-1)->
44(-1)->
-------
BLAH
****************
****************
3(-1)->1 2 6 27 35 
1(-1)->2 3 8 11 
11(-1)->1 13 14 20 
13(-1)->6 10 11 31 
6(-1)->3 13 22 50 
50(-1)->6 20 49 
20(-1)->11 43 50 
43(-1)->20 23 33 36 48 
33(-1)->7 26 31 43 
26(-1)->10 30 33 
10(-1)->13 26 37 
37(-1)->10 
5(-1)->16 17 30 41 
16(-1)->5 12 45 
12(-1)->16 
2(-1)->1 3 24 
24(-1)->2 46 47 
46(-1)->24 
14(-1)->11 23 39 
23(-1)->14 28 43 
28(-1)->23 
39(-1)->14 17 21 
17(-1)->5 39 
49(-1)->38 41 50 
41(-1)->5 49 
30(-1)->5 26 
31(-1)->13 33 
7(-1)->33 
8(-1)->1 
21(-1)->39 
22(-1)->6 
27(-1)->3 
35(-1)->3 
36(-1)->43 
38(-1)->49 
45(-1)->16 
47(-1)->24 
48(-1)->43 
****************
4(-1)->15 32 
32(-1)->4 40 
40(-1)->9 32 
9(-1)->40 
15(-1)->4 
****************
18(-1)->
****************
19(-1)->
****************
25(-1)->34 
34(-1)->25 
****************
29(-1)->
****************
42(-1)->
****************
44(-1)->
START TIME: 1433741952
START TIME: 1433741952
START TIME: 1433741952
START TIME: 1433741952
START TIME: 1433741952
START TIME: 1433741952
START TIME: 1433741952
START TIME: 1433741952
1(1)->2 3 8 11 
2(2)->1 3 24 
3(0)->1 2 6 27 35 
4(0)->15 32 
5(0)->16 17 30 41 
6(2)->3 13 22 50 
7(0)->33 
8(0)->1 
9(1)->40 
10(2)->13 26 37 
11(0)->1 13 14 20 
12(0)->16 
13(1)->6 10 11 31 
14(1)->11 23 39 
15(1)->4 
16(1)->5 12 45 
17(1)->5 39 
18(0)->
19(0)->
20(1)->11 43 50 
21(1)->39 
22(0)->6 
23(2)->14 28 43 
24(0)->2 46 47 
25(0)->34 
26(0)->10 30 33 
27(1)->3 
28(0)->23 
29(0)->
30(1)->5 26 
31(0)->13 33 
32(1)->4 40 
33(1)->7 26 31 43 
34(1)->25 
35(1)->3 
36(1)->43 
37(0)->10 
38(0)->49 
39(0)->14 17 21 
40(0)->9 32 
41(2)->5 49 
42(0)->
43(0)->20 23 33 36 48 
44(0)->
45(0)->16 
46(1)->24 
47(1)->24 
48(1)->43 
49(1)->38 41 50 
50(0)->6 20 49 
COUNT: 50
COLORS: 3
EDGES: 50
3
50
