1: 2 3 36 5 6 7 8 9 10 25 28 29 4
2: 1 3 8 10 35 22 26
3: 32 1 34 4 9 2 46 15 29
4: 3 1 27
5: 32 1 6 40 17 20 21 24
6: 1 5 41 43 12 13 50 24 28
7: 27 1 11
8: 27 1 2 35
9: 1 50 3 46 23
10: 1 2 50 49 18 29
11: 16 30 7
12: 24 49 17 6 33
13: 37 6 42 44 48 22 23 30 31
14: 41 23 36 44 49
15: 3 38 18 20 28 29
16: 40 25 18 11 37
17: 36 5 38 40 44 12 21
18: 48 33 10 43 15 16 24
19: 32 50 27
20: 36 5 15 28 29 30
21: 33 34 36 5 17 24 26
22: 2 35 13 31
23: 34 41 13 14 9 30
24: 5 6 41 46 44 12 18 21 30
25: 16 1 29 31
26: 2 29 21 46 47
27: 4 7 8 42 46 19
28: 1 35 36 6 41 15 20
29: 1 3 10 44 15 48 20 25 26
30: 11 13 45 20 23 24
31: 32 33 13 49 22 25
32: 19 3 43 5 31
33: 36 12 44 46 18 21 31
34: 49 42 3 21 23
35: 8 2 28 45 22
36: 1 38 33 14 17 20 21 28
37: 16 42 50 13
38: 36 43 44 45 15 17
39: 
40: 16 17 44 5
41: 6 43 44 14 47 46 23 24 28
42: 34 27 37 13
43: 32 38 6 41 47 49 18
44: 33 38 40 41 13 14 17 24 29
45: 35 38 30 47
46: 33 3 41 49 50 9 24 26 27
47: 48 41 26 43 45
48: 18 47 29 13
49: 34 10 43 12 14 46 31
50: 37 6 9 10 46 19
-------
1(-1)->2 3 4 5 6 7 8 9 10 25 28 29 36 
2(-1)->1 3 8 10 22 26 35 
3(-1)->1 2 4 9 15 29 32 34 46 
4(-1)->1 3 27 
5(-1)->1 6 17 20 21 24 32 40 
6(-1)->1 5 12 13 24 28 41 43 50 
7(-1)->1 11 27 
8(-1)->1 2 27 35 
9(-1)->1 3 23 46 50 
10(-1)->1 2 18 29 49 50 
11(-1)->7 16 30 
12(-1)->6 17 24 33 49 
13(-1)->6 22 23 30 31 37 42 44 48 
14(-1)->23 36 41 44 49 
15(-1)->3 18 20 28 29 38 
16(-1)->11 18 25 37 40 
17(-1)->5 12 21 36 38 40 44 
18(-1)->10 15 16 24 33 43 48 
19(-1)->27 32 50 
20(-1)->5 15 28 29 30 36 
21(-1)->5 17 24 26 33 34 36 
22(-1)->2 13 31 35 
23(-1)->9 13 14 30 34 41 
24(-1)->5 6 12 18 21 30 41 44 46 
25(-1)->1 16 29 31 
26(-1)->2 21 29 46 47 
27(-1)->4 7 8 19 42 46 
28(-1)->1 6 15 20 35 36 41 
29(-1)->1 3 10 15 20 25 26 44 48 
30(-1)->11 13 20 23 24 45 
31(-1)->13 22 25 32 33 49 
32(-1)->3 5 19 31 43 
33(-1)->12 18 21 31 36 44 46 
34(-1)->3 21 23 42 49 
35(-1)->2 8 22 28 45 
36(-1)->1 14 17 20 21 28 33 38 
37(-1)->13 16 42 50 
38(-1)->15 17 36 43 44 45 
39(-1)->
40(-1)->5 16 17 44 
41(-1)->6 14 23 24 28 43 44 46 47 
42(-1)->13 27 34 37 
43(-1)->6 18 32 38 41 47 49 
44(-1)->13 14 17 24 29 33 38 40 41 
45(-1)->30 35 38 47 
46(-1)->3 9 24 26 27 33 41 49 50 
47(-1)->26 41 43 45 48 
48(-1)->13 18 29 47 
49(-1)->10 12 14 31 34 43 46 
50(-1)->6 9 10 19 37 46 
-------
Node 1 maps to position 0
Node 3 maps to position 1
Node 29 maps to position 2
Node 44 maps to position 3
Node 13 maps to position 4
Node 6 maps to position 5
Node 24 maps to position 6
Node 41 maps to position 7
Node 46 maps to position 8
Node 33 maps to position 9
Node 36 maps to position 10
Node 17 maps to position 11
Node 5 maps to position 12
Node 21 maps to position 13
Node 26 maps to position 14
Node 2 maps to position 15
Node 10 maps to position 16
Node 18 maps to position 17
Node 43 maps to position 18
Node 49 maps to position 19
Node 31 maps to position 20
Node 32 maps to position 21
Node 19 maps to position 22
Node 27 maps to position 23
Node 8 maps to position 24
Node 35 maps to position 25
Node 28 maps to position 26
Node 15 maps to position 27
Node 20 maps to position 28
Node 30 maps to position 29
Node 23 maps to position 30
Node 9 maps to position 31
Node 50 maps to position 32
Node 37 maps to position 33
Node 16 maps to position 34
Node 25 maps to position 35
Node 38 maps to position 36
Node 45 maps to position 37
Node 47 maps to position 38
Node 48 maps to position 39
Node 12 maps to position 40
Node 14 maps to position 41
Node 34 maps to position 42
Node 42 maps to position 43
Node 22 maps to position 44
Node 40 maps to position 45
Node 4 maps to position 46
Node 7 maps to position 47
Node 11 maps to position 48
Node 39 maps to position 49
1(-1)->2 3 4 5 6 7 8 9 10 25 28 29 36 
3(-1)->1 2 4 9 15 29 32 34 46 
29(-1)->1 3 10 15 20 25 26 44 48 
44(-1)->13 14 17 24 29 33 38 40 41 
13(-1)->6 22 23 30 31 37 42 44 48 
6(-1)->1 5 12 13 24 28 41 43 50 
24(-1)->5 6 12 18 21 30 41 44 46 
41(-1)->6 14 23 24 28 43 44 46 47 
46(-1)->3 9 24 26 27 33 41 49 50 
33(-1)->12 18 21 31 36 44 46 
36(-1)->1 14 17 20 21 28 33 38 
17(-1)->5 12 21 36 38 40 44 
5(-1)->1 6 17 20 21 24 32 40 
21(-1)->5 17 24 26 33 34 36 
26(-1)->2 21 29 46 47 
2(-1)->1 3 8 10 22 26 35 
10(-1)->1 2 18 29 49 50 
18(-1)->10 15 16 24 33 43 48 
43(-1)->6 18 32 38 41 47 49 
49(-1)->10 12 14 31 34 43 46 
31(-1)->13 22 25 32 33 49 
32(-1)->3 5 19 31 43 
19(-1)->27 32 50 
27(-1)->4 7 8 19 42 46 
8(-1)->1 2 27 35 
35(-1)->2 8 22 28 45 
28(-1)->1 6 15 20 35 36 41 
15(-1)->3 18 20 28 29 38 
20(-1)->5 15 28 29 30 36 
30(-1)->11 13 20 23 24 45 
23(-1)->9 13 14 30 34 41 
9(-1)->1 3 23 46 50 
50(-1)->6 9 10 19 37 46 
37(-1)->13 16 42 50 
16(-1)->11 18 25 37 40 
25(-1)->1 16 29 31 
38(-1)->15 17 36 43 44 45 
45(-1)->30 35 38 47 
47(-1)->26 41 43 45 48 
48(-1)->13 18 29 47 
12(-1)->6 17 24 33 49 
14(-1)->23 36 41 44 49 
34(-1)->3 21 23 42 49 
42(-1)->13 27 34 37 
22(-1)->2 13 31 35 
40(-1)->5 16 17 44 
4(-1)->1 3 27 
7(-1)->1 11 27 
11(-1)->7 16 30 
39(-1)->
-------
BLAH
****************
****************
1(-1)->2 3 4 5 6 7 8 9 10 25 28 29 36 
3(-1)->1 2 4 9 15 29 32 34 46 
29(-1)->1 3 10 15 20 25 26 44 48 
44(-1)->13 14 17 24 29 33 38 40 41 
13(-1)->6 22 23 30 31 37 42 44 48 
6(-1)->1 5 12 13 24 28 41 43 50 
24(-1)->5 6 12 18 21 30 41 44 46 
41(-1)->6 14 23 24 28 43 44 46 47 
46(-1)->3 9 24 26 27 33 41 49 50 
33(-1)->12 18 21 31 36 44 46 
36(-1)->1 14 17 20 21 28 33 38 
17(-1)->5 12 21 36 38 40 44 
5(-1)->1 6 17 20 21 24 32 40 
21(-1)->5 17 24 26 33 34 36 
26(-1)->2 21 29 46 47 
2(-1)->1 3 8 10 22 26 35 
10(-1)->1 2 18 29 49 50 
18(-1)->10 15 16 24 33 43 48 
43(-1)->6 18 32 38 41 47 49 
49(-1)->10 12 14 31 34 43 46 
31(-1)->13 22 25 32 33 49 
32(-1)->3 5 19 31 43 
19(-1)->27 32 50 
27(-1)->4 7 8 19 42 46 
8(-1)->1 2 27 35 
35(-1)->2 8 22 28 45 
28(-1)->1 6 15 20 35 36 41 
15(-1)->3 18 20 28 29 38 
20(-1)->5 15 28 29 30 36 
30(-1)->11 13 20 23 24 45 
23(-1)->9 13 14 30 34 41 
9(-1)->1 3 23 46 50 
50(-1)->6 9 10 19 37 46 
37(-1)->13 16 42 50 
16(-1)->11 18 25 37 40 
25(-1)->1 16 29 31 
38(-1)->15 17 36 43 44 45 
45(-1)->30 35 38 47 
47(-1)->26 41 43 45 48 
48(-1)->13 18 29 47 
12(-1)->6 17 24 33 49 
14(-1)->23 36 41 44 49 
34(-1)->3 21 23 42 49 
42(-1)->13 27 34 37 
22(-1)->2 13 31 35 
40(-1)->5 16 17 44 
4(-1)->1 3 27 
7(-1)->1 11 27 
11(-1)->7 16 30 
****************
39(-1)->
START TIME: 1433741952
10000
20000
30000
40000
START TIME: 1433741952
1(0)->2 3 4 5 6 7 8 9 10 25 28 29 36 
2(2)->1 3 8 10 22 26 35 
3(1)->1 2 4 9 15 29 32 34 46 
4(2)->1 3 27 
5(3)->1 6 17 20 21 24 32 40 
6(2)->1 5 12 13 24 28 41 43 50 
7(2)->1 11 27 
8(3)->1 2 27 35 
9(2)->1 3 23 46 50 
10(1)->1 2 18 29 49 50 
11(0)->7 16 30 
12(0)->6 17 24 33 49 
13(1)->6 22 23 30 31 37 42 44 48 
14(1)->23 36 41 44 49 
15(3)->3 18 20 28 29 38 
16(1)->11 18 25 37 40 
17(1)->5 12 21 36 38 40 44 
18(0)->10 15 16 24 33 43 48 
19(0)->27 32 50 
20(0)->5 15 28 29 30 36 
21(0)->5 17 24 26 33 34 36 
22(3)->2 13 31 35 
23(0)->9 13 14 30 34 41 
24(1)->5 6 12 18 21 30 41 44 46 
25(3)->1 16 29 31 
26(1)->2 21 29 46 47 
27(1)->4 7 8 19 42 46 
28(1)->1 6 15 20 35 36 41 
29(2)->1 3 10 15 20 25 26 44 48 
30(2)->11 13 20 23 24 45 
31(0)->13 22 25 32 33 49 
32(2)->3 5 19 31 43 
33(1)->12 18 21 31 36 44 46 
34(3)->3 21 23 42 49 
35(0)->2 8 22 28 45 
36(3)->1 14 17 20 21 28 33 38 
37(0)->13 16 42 50 
38(2)->15 17 36 43 44 45 
39(0)->
40(2)->5 16 17 44 
41(3)->6 14 23 24 28 43 44 46 47 
42(2)->13 27 34 37 
43(1)->6 18 32 38 41 47 49 
44(0)->13 14 17 24 29 33 38 40 41 
45(1)->30 35 38 47 
46(0)->3 9 24 26 27 33 41 49 50 
47(0)->26 41 43 45 48 
48(3)->13 18 29 47 
49(2)->10 12 14 31 34 43 46 
50(3)->6 9 10 19 37 46 
COUNT: 41747
COLORS: 4
EDGES: 150
4
41747
