1: 2 3 4 5 6 7 8 9 10 11 12 13 14 15 16 17 18 19 20 23 28 35
2: 3 1 35 37 9 12 13 18 19 23
3: 1 2 4 5 38 8 20 30
4: 32 1 3 5 38 15
5: 32 1 3 4 41 10 43 48 26
6: 1 16 17 21 23 27 28
7: 17 44 1 33
8: 1 3 41 50 21 26 29 30
9: 49 34 35 2 1
10: 1 34 35 5 46 26 29
11: 1 12 45 46 16 30
12: 1 2 11 44 15 17 23 24
13: 1 2 36 37 43 48 25 30
14: 40 33 1 46 23
15: 12 4 1 31
16: 33 34 6 1 11 46 24
17: 1 12 6 7
18: 1 50 2 45 23
19: 41 2 1 50 47
20: 1 3 38 45 22 24 30
21: 36 6 8 25 27 31
22: 36 26 27 20 34
23: 1 2 6 12 14 18
24: 16 20 27 12 45
25: 13 21 37 47
26: 5 8 42 47 50 22 10
27: 24 22 29 6 21
28: 48 1 6
29: 8 10 27 47
30: 33 3 8 11 13 46 45 20
31: 21 38 15
32: 41 4 5
33: 48 7 39 14 16 30
34: 35 9 10 43 16 22
35: 9 10 34 2 1
36: 38 44 13 48 21 22
37: 2 39 42 13 46 49 50 25
38: 3 4 46 48 20 36 31
39: 40 33 37
40: 50 45 14 39
41: 8 32 19 5 48
42: 26 37 47
43: 34 13 5
44: 36 12 7
45: 40 11 50 18 20 24 30
46: 37 38 10 11 14 16 30
47: 42 50 19 25 26 29
48: 33 36 5 38 41 13 28
49: 9 37
50: 37 8 45 47 40 18 19 26
-------
1(-1)->2 3 4 5 6 7 8 9 10 11 12 13 14 15 16 17 18 19 20 23 28 35 
2(-1)->1 3 9 12 13 18 19 23 35 37 
3(-1)->1 2 4 5 8 20 30 38 
4(-1)->1 3 5 15 32 38 
5(-1)->1 3 4 10 26 32 41 43 48 
6(-1)->1 16 17 21 23 27 28 
7(-1)->1 17 33 44 
8(-1)->1 3 21 26 29 30 41 50 
9(-1)->1 2 34 35 49 
10(-1)->1 5 26 29 34 35 46 
11(-1)->1 12 16 30 45 46 
12(-1)->1 2 11 15 17 23 24 44 
13(-1)->1 2 25 30 36 37 43 48 
14(-1)->1 23 33 40 46 
15(-1)->1 4 12 31 
16(-1)->1 6 11 24 33 34 46 
17(-1)->1 6 7 12 
18(-1)->1 2 23 45 50 
19(-1)->1 2 41 47 50 
20(-1)->1 3 22 24 30 38 45 
21(-1)->6 8 25 27 31 36 
22(-1)->20 26 27 34 36 
23(-1)->1 2 6 12 14 18 
24(-1)->12 16 20 27 45 
25(-1)->13 21 37 47 
26(-1)->5 8 10 22 42 47 50 
27(-1)->6 21 22 24 29 
28(-1)->1 6 48 
29(-1)->8 10 27 47 
30(-1)->3 8 11 13 20 33 45 46 
31(-1)->15 21 38 
32(-1)->4 5 41 
33(-1)->7 14 16 30 39 48 
34(-1)->9 10 16 22 35 43 
35(-1)->1 2 9 10 34 
36(-1)->13 21 22 38 44 48 
37(-1)->2 13 25 39 42 46 49 50 
38(-1)->3 4 20 31 36 46 48 
39(-1)->33 37 40 
40(-1)->14 39 45 50 
41(-1)->5 8 19 32 48 
42(-1)->26 37 47 
43(-1)->5 13 34 
44(-1)->7 12 36 
45(-1)->11 18 20 24 30 40 50 
46(-1)->10 11 14 16 30 37 38 
47(-1)->19 25 26 29 42 50 
48(-1)->5 13 28 33 36 38 41 
49(-1)->9 37 
50(-1)->8 18 19 26 37 40 45 47 
-------
Node 1 maps to position 0
Node 2 maps to position 1
Node 3 maps to position 2
Node 5 maps to position 3
Node 10 maps to position 4
Node 26 maps to position 5
Node 8 maps to position 6
Node 30 maps to position 7
Node 13 maps to position 8
Node 37 maps to position 9
Node 50 maps to position 10
Node 45 maps to position 11
Node 20 maps to position 12
Node 38 maps to position 13
Node 46 maps to position 14
Node 16 maps to position 15
Node 6 maps to position 16
Node 21 maps to position 17
Node 36 maps to position 18
Node 48 maps to position 19
Node 33 maps to position 20
Node 14 maps to position 21
Node 23 maps to position 22
Node 12 maps to position 23
Node 11 maps to position 24
Node 4 maps to position 25
Node 15 maps to position 26
Node 31 maps to position 27
Node 34 maps to position 28
Node 9 maps to position 29
Node 35 maps to position 30
Node 47 maps to position 31
Node 19 maps to position 32
Node 41 maps to position 33
Node 32 maps to position 34
Node 18 maps to position 35
Node 22 maps to position 36
Node 27 maps to position 37
Node 24 maps to position 38
Node 7 maps to position 39
Node 17 maps to position 40
Node 25 maps to position 41
Node 29 maps to position 42
Node 40 maps to position 43
Node 39 maps to position 44
Node 28 maps to position 45
Node 42 maps to position 46
Node 43 maps to position 47
Node 44 maps to position 48
Node 49 maps to position 49
1(-1)->2 3 4 5 6 7 8 9 10 11 12 13 14 15 16 17 18 19 20 23 28 35 
2(-1)->1 3 9 12 13 18 19 23 35 37 
3(-1)->1 2 4 5 8 20 30 38 
5(-1)->1 3 4 10 26 32 41 43 48 
10(-1)->1 5 26 29 34 35 46 
26(-1)->5 8 10 22 42 47 50 
8(-1)->1 3 21 26 29 30 41 50 
30(-1)->3 8 11 13 20 33 45 46 
13(-1)->1 2 25 30 36 37 43 48 
37(-1)->2 13 25 39 42 46 49 50 
50(-1)->8 18 19 26 37 40 45 47 
45(-1)->11 18 20 24 30 40 50 
20(-1)->1 3 22 24 30 38 45 
38(-1)->3 4 20 31 36 46 48 
46(-1)->10 11 14 16 30 37 38 
16(-1)->1 6 11 24 33 34 46 
6(-1)->1 16 17 21 23 27 28 
21(-1)->6 8 25 27 31 36 
36(-1)->13 21 22 38 44 48 
48(-1)->5 13 28 33 36 38 41 
33(-1)->7 14 16 30 39 48 
14(-1)->1 23 33 40 46 
23(-1)->1 2 6 12 14 18 
12(-1)->1 2 11 15 17 23 24 44 
11(-1)->1 12 16 30 45 46 
4(-1)->1 3 5 15 32 38 
15(-1)->1 4 12 31 
31(-1)->15 21 38 
34(-1)->9 10 16 22 35 43 
9(-1)->1 2 34 35 49 
35(-1)->1 2 9 10 34 
47(-1)->19 25 26 29 42 50 
19(-1)->1 2 41 47 50 
41(-1)->5 8 19 32 48 
32(-1)->4 5 41 
18(-1)->1 2 23 45 50 
22(-1)->20 26 27 34 36 
27(-1)->6 21 22 24 29 
24(-1)->12 16 20 27 45 
7(-1)->1 17 33 44 
17(-1)->1 6 7 12 
25(-1)->13 21 37 47 
29(-1)->8 10 27 47 
40(-1)->14 39 45 50 
39(-1)->33 37 40 
28(-1)->1 6 48 
42(-1)->26 37 47 
43(-1)->5 13 34 
44(-1)->7 12 36 
49(-1)->9 37 
-------
BLAH
START TIME: 1433741952
1(0)->2 3 4 5 6 7 8 9 10 11 12 13 14 15 16 17 18 19 20 23 28 35 
2(1)->1 3 9 12 13 18 19 23 35 37 
3(2)->1 2 4 5 8 20 30 38 
4(3)->1 3 5 15 32 38 
5(1)->1 3 4 10 26 32 41 43 48 
6(1)->1 16 17 21 23 27 28 
7(3)->1 17 33 44 
8(1)->1 3 21 26 29 30 41 50 
9(2)->1 2 34 35 49 
10(2)->1 5 26 29 34 35 46 
11(2)->1 12 16 30 45 46 
12(3)->1 2 11 15 17 23 24 44 
13(2)->1 2 25 30 36 37 43 48 
14(3)->1 23 33 40 46 
15(1)->1 4 12 31 
16(3)->1 6 11 24 33 34 46 
17(2)->1 6 7 12 
18(3)->1 2 23 45 50 
19(3)->1 2 41 47 50 
20(3)->1 3 22 24 30 38 45 
21(0)->6 8 25 27 31 36 
22(2)->20 26 27 34 36 
23(2)->1 2 6 12 14 18 
24(0)->12 16 20 27 45 
25(3)->13 21 37 47 
26(0)->5 8 10 22 42 47 50 
27(3)->6 21 22 24 29 
28(2)->1 6 48 
29(0)->8 10 27 47 
30(0)->3 8 11 13 20 33 45 46 
31(2)->15 21 38 
32(2)->4 5 41 
33(1)->7 14 16 30 39 48 
34(0)->9 10 16 22 35 43 
35(3)->1 2 9 10 34 
36(1)->13 21 22 38 44 48 
37(0)->2 13 25 39 42 46 49 50 
38(0)->3 4 20 31 36 46 48 
39(2)->33 37 40 
40(0)->14 39 45 50 
41(0)->5 8 19 32 48 
42(2)->26 37 47 
43(3)->5 13 34 
44(0)->7 12 36 
45(1)->11 18 20 24 30 40 50 
46(1)->10 11 14 16 30 37 38 
47(1)->19 25 26 29 42 50 
48(3)->5 13 28 33 36 38 41 
49(1)->9 37 
50(2)->8 18 19 26 37 40 45 47 
COUNT: 230
COLORS: 4
EDGES: 150
4
230
