1: 2 3 36 5 6 7 8 9 42 11 47 17 4 15 10
2: 11 1 3 13 22
3: 32 1 34 35 8 41 11 2 9 25
4: 1 39 9 12 48 21 25
5: 32 1 8 42 45 15 49 24 25
6: 32 33 1 9 12 46 44
7: 1 34 45 19 23 27
8: 1 34 3 5 9 48 20 23
9: 33 3 4 6 1 8 41 44 16 23 26
10: 41 50 1 45 15
11: 1 2 3 44 13 47 21
12: 4 6 39 44 17 25
13: 2 43 11 45 50 21
14: 32 27 47
15: 1 10 27 5
16: 32 40 9 42 44 46 17 28
17: 33 34 1 12 16 25 28
18: 24 29 38 39
19: 40 39 46 7
20: 8 49 28
21: 4 39 11 13 47 48 50 26
22: 40 50 43 2 30
23: 8 9 7
24: 27 18 50 5 46
25: 3 36 5 42 12 17 4 30
26: 9 21 45
27: 7 41 39 14 15 24
28: 16 17 44 46 20
29: 32 18 46 47
30: 25 22
31: 40 34 44 39
32: 3 5 6 41 14 16 50 29
33: 35 6 40 9 46 17
34: 3 17 8 7 49 31
35: 33 3
36: 1 25
37: 48 43
38: 40 18 47
39: 4 12 45 49 18 19 21 27 31
40: 33 38 41 16 19 22 31
41: 32 3 40 9 42 46 27 10
42: 48 5 1 41 16 25
43: 13 37 22 45
44: 6 9 11 12 47 16 28 31
45: 5 7 10 43 13 47 48 39 26
46: 33 6 41 16 19 24 28 29
47: 1 38 11 44 45 14 21 29
48: 4 37 8 42 45 21
49: 34 20 5 39
50: 32 10 13 21 22 24
-------
1(-1)->2 3 4 5 6 7 8 9 10 11 15 17 36 42 47 
2(-1)->1 3 11 13 22 
3(-1)->1 2 8 9 11 25 32 34 35 41 
4(-1)->1 9 12 21 25 39 48 
5(-1)->1 8 15 24 25 32 42 45 49 
6(-1)->1 9 12 32 33 44 46 
7(-1)->1 19 23 27 34 45 
8(-1)->1 3 5 9 20 23 34 48 
9(-1)->1 3 4 6 8 16 23 26 33 41 44 
10(-1)->1 15 41 45 50 
11(-1)->1 2 3 13 21 44 47 
12(-1)->4 6 17 25 39 44 
13(-1)->2 11 21 43 45 50 
14(-1)->27 32 47 
15(-1)->1 5 10 27 
16(-1)->9 17 28 32 40 42 44 46 
17(-1)->1 12 16 25 28 33 34 
18(-1)->24 29 38 39 
19(-1)->7 39 40 46 
20(-1)->8 28 49 
21(-1)->4 11 13 26 39 47 48 50 
22(-1)->2 30 40 43 50 
23(-1)->7 8 9 
24(-1)->5 18 27 46 50 
25(-1)->3 4 5 12 17 30 36 42 
26(-1)->9 21 45 
27(-1)->7 14 15 24 39 41 
28(-1)->16 17 20 44 46 
29(-1)->18 32 46 47 
30(-1)->22 25 
31(-1)->34 39 40 44 
32(-1)->3 5 6 14 16 29 41 50 
33(-1)->6 9 17 35 40 46 
34(-1)->3 7 8 17 31 49 
35(-1)->3 33 
36(-1)->1 25 
37(-1)->43 48 
38(-1)->18 40 47 
39(-1)->4 12 18 19 21 27 31 45 49 
40(-1)->16 19 22 31 33 38 41 
41(-1)->3 9 10 27 32 40 42 46 
42(-1)->1 5 16 25 41 48 
43(-1)->13 22 37 45 
44(-1)->6 9 11 12 16 28 31 47 
45(-1)->5 7 10 13 26 39 43 47 48 
46(-1)->6 16 19 24 28 29 33 41 
47(-1)->1 11 14 21 29 38 44 45 
48(-1)->4 8 21 37 42 45 
49(-1)->5 20 34 39 
50(-1)->10 13 21 22 24 32 
-------
Node 1 maps to position 0
Node 9 maps to position 1
Node 3 maps to position 2
Node 8 maps to position 3
Node 5 maps to position 4
Node 45 maps to position 5
Node 39 maps to position 6
Node 21 maps to position 7
Node 47 maps to position 8
Node 44 maps to position 9
Node 16 maps to position 10
Node 32 maps to position 11
Node 41 maps to position 12
Node 46 maps to position 13
Node 6 maps to position 14
Node 12 maps to position 15
Node 25 maps to position 16
Node 4 maps to position 17
Node 48 maps to position 18
Node 42 maps to position 19
Node 11 maps to position 20
Node 13 maps to position 21
Node 50 maps to position 22
Node 10 maps to position 23
Node 15 maps to position 24
Node 27 maps to position 25
Node 7 maps to position 26
Node 34 maps to position 27
Node 17 maps to position 28
Node 33 maps to position 29
Node 40 maps to position 30
Node 22 maps to position 31
Node 2 maps to position 32
Node 24 maps to position 33
Node 18 maps to position 34
Node 29 maps to position 35
Node 28 maps to position 36
Node 20 maps to position 37
Node 49 maps to position 38
Node 19 maps to position 39
Node 31 maps to position 40
Node 43 maps to position 41
Node 37 maps to position 42
Node 14 maps to position 43
Node 23 maps to position 44
Node 26 maps to position 45
Node 38 maps to position 46
Node 30 maps to position 47
Node 35 maps to position 48
Node 36 maps to position 49
1(-1)->2 3 4 5 6 7 8 9 10 11 15 17 36 42 47 
9(-1)->1 3 4 6 8 16 23 26 33 41 44 
3(-1)->1 2 8 9 11 25 32 34 35 41 
8(-1)->1 3 5 9 20 23 34 48 
5(-1)->1 8 15 24 25 32 42 45 49 
45(-1)->5 7 10 13 26 39 43 47 48 
39(-1)->4 12 18 19 21 27 31 45 49 
21(-1)->4 11 13 26 39 47 48 50 
47(-1)->1 11 14 21 29 38 44 45 
44(-1)->6 9 11 12 16 28 31 47 
16(-1)->9 17 28 32 40 42 44 46 
32(-1)->3 5 6 14 16 29 41 50 
41(-1)->3 9 10 27 32 40 42 46 
46(-1)->6 16 19 24 28 29 33 41 
6(-1)->1 9 12 32 33 44 46 
12(-1)->4 6 17 25 39 44 
25(-1)->3 4 5 12 17 30 36 42 
4(-1)->1 9 12 21 25 39 48 
48(-1)->4 8 21 37 42 45 
42(-1)->1 5 16 25 41 48 
11(-1)->1 2 3 13 21 44 47 
13(-1)->2 11 21 43 45 50 
50(-1)->10 13 21 22 24 32 
10(-1)->1 15 41 45 50 
15(-1)->1 5 10 27 
27(-1)->7 14 15 24 39 41 
7(-1)->1 19 23 27 34 45 
34(-1)->3 7 8 17 31 49 
17(-1)->1 12 16 25 28 33 34 
33(-1)->6 9 17 35 40 46 
40(-1)->16 19 22 31 33 38 41 
22(-1)->2 30 40 43 50 
2(-1)->1 3 11 13 22 
24(-1)->5 18 27 46 50 
18(-1)->24 29 38 39 
29(-1)->18 32 46 47 
28(-1)->16 17 20 44 46 
20(-1)->8 28 49 
49(-1)->5 20 34 39 
19(-1)->7 39 40 46 
31(-1)->34 39 40 44 
43(-1)->13 22 37 45 
37(-1)->43 48 
14(-1)->27 32 47 
23(-1)->7 8 9 
26(-1)->9 21 45 
38(-1)->18 40 47 
30(-1)->22 25 
35(-1)->3 33 
36(-1)->1 25 
-------
BLAH
START TIME: 1433741952
1(0)->2 3 4 5 6 7 8 9 10 11 15 17 36 42 47 
2(1)->1 3 11 13 22 
3(2)->1 2 8 9 11 25 32 34 35 41 
4(2)->1 9 12 21 25 39 48 
5(1)->1 8 15 24 25 32 42 45 49 
6(2)->1 9 12 32 33 44 46 
7(1)->1 19 23 27 34 45 
8(3)->1 3 5 9 20 23 34 48 
9(1)->1 3 4 6 8 16 23 26 33 41 44 
10(2)->1 15 41 45 50 
11(3)->1 2 3 13 21 44 47 
12(3)->4 6 17 25 39 44 
13(2)->2 11 21 43 45 50 
14(0)->27 32 47 
15(3)->1 5 10 27 
16(2)->9 17 28 32 40 42 44 46 
17(1)->1 12 16 25 28 33 34 
18(2)->24 29 38 39 
19(0)->7 39 40 46 
20(0)->8 28 49 
21(0)->4 11 13 26 39 47 48 50 
22(0)->2 30 40 43 50 
23(0)->7 8 9 
24(0)->5 18 27 46 50 
25(0)->3 4 5 12 17 30 36 42 
26(2)->9 21 45 
27(2)->7 14 15 24 39 41 
28(3)->16 17 20 44 46 
29(0)->18 32 46 47 
30(1)->22 25 
31(2)->34 39 40 44 
32(3)->3 5 6 14 16 29 41 50 
33(0)->6 9 17 35 40 46 
34(0)->3 7 8 17 31 49 
35(1)->3 33 
36(1)->1 25 
37(0)->43 48 
38(0)->18 40 47 
39(1)->4 12 18 19 21 27 31 45 49 
40(1)->16 19 22 31 33 38 41 
41(0)->3 9 10 27 32 40 42 46 
42(3)->1 5 16 25 41 48 
43(1)->13 22 37 45 
44(0)->6 9 11 12 16 28 31 47 
45(0)->5 7 10 13 26 39 43 47 48 
46(1)->6 16 19 24 28 29 33 41 
47(1)->1 11 14 21 29 38 44 45 
48(1)->4 8 21 37 42 45 
49(2)->5 20 34 39 
50(1)->10 13 21 22 24 32 
COUNT: 205
COLORS: 4
EDGES: 150
4
205
