1: 2 3 4 5 6 7 8 9 10 11 12 13 14 15 16 17 18 19 20 21 22 23 24 25 26 27 28 29 38 39 42 48
2: 1 11 4 39 40 43 16 8 3 17 28 30 31
3: 1 2 7 41 39 44 14 31
4: 32 1 34 36 7 9 12 2 15 16 17 22
5: 1 6 37 38 41 42 44 46 26
6: 1 35 36 5 45 14 27 28 30
7: 33 3 4 1 41 11 12 15 43 28
8: 32 1 2 45 47 50 21 31
9: 1 34 4 38 40 43 13 45 15 16 19
10: 1 36 13 14 17 18 21 22 27 29 30
11: 1 2 36 30 7
12: 1 4 7 41 13 47 16 24 36 28
13: 1 43 12 10 23 44 9 24 26 31
14: 1 34 3 6 38 40 10 20 24 27 30
15: 1 34 4 7 9 39 18 36 30
16: 32 1 2 4 9 12 48 19 22
17: 33 2 36 37 39 10 1 4 30 21
18: 33 34 1 37 39 41 10 43 15 21 25 30 31
19: 48 1 9 45 47 16 20 22 30 31
20: 1 36 38 40 41 14 48 19 24 26
21: 1 17 8 10 43 47 49 18 29
22: 16 35 4 37 1 10 44 48 49 19 24 25 42
23: 33 36 1 45 13 47
24: 32 1 40 12 42 44 13 14 50 20 22 27 30
25: 33 36 37 1 18 22
26: 1 34 5 39 13 46 48 50 20
27: 1 34 35 6 38 41 10 14 49 24
28: 32 1 2 38 6 7 42 39 12 30
29: 1 37 42 45 46 48 21 10
30: 33 2 6 38 10 11 34 46 15 17 18 19 14 24 28
31: 2 3 8 13 18 19
32: 33 4 8 41 44 16 24 28
33: 32 7 41 17 18 23 25 30
34: 4 40 9 42 45 14 15 48 49 18 36 26 27 30
35: 6 38 46 47 48 22 27
36: 34 4 37 6 12 10 11 44 47 17 20 23 25 15
37: 36 5 17 39 49 18 22 25 29
38: 1 35 5 39 9 42 14 47 20 27 28 30
39: 1 2 3 37 38 15 17 18 26 28
40: 34 9 2 45 14 20 24
41: 32 33 3 5 7 42 12 47 18 20 27
42: 1 34 5 38 41 22 24 28 29
43: 2 7 9 18 13 45 49 50 21
44: 32 3 36 5 13 49 50 22 24
45: 34 6 40 9 43 47 8 50 19 23 29
46: 26 35 29 30 5
47: 35 36 38 8 41 12 45 19 21 23
48: 1 34 35 16 19 20 22 26 29
49: 34 37 43 44 21 22 27
50: 8 43 44 45 24 26
-------
1(-1)->2 3 4 5 6 7 8 9 10 11 12 13 14 15 16 17 18 19 20 21 22 23 24 25 26 27 28 29 38 39 42 48 
2(-1)->1 3 4 8 11 16 17 28 30 31 39 40 43 
3(-1)->1 2 7 14 31 39 41 44 
4(-1)->1 2 7 9 12 15 16 17 22 32 34 36 
5(-1)->1 6 26 37 38 41 42 44 46 
6(-1)->1 5 14 27 28 30 35 36 45 
7(-1)->1 3 4 11 12 15 28 33 41 43 
8(-1)->1 2 21 31 32 45 47 50 
9(-1)->1 4 13 15 16 19 34 38 40 43 45 
10(-1)->1 13 14 17 18 21 22 27 29 30 36 
11(-1)->1 2 7 30 36 
12(-1)->1 4 7 13 16 24 28 36 41 47 
13(-1)->1 9 10 12 23 24 26 31 43 44 
14(-1)->1 3 6 10 20 24 27 30 34 38 40 
15(-1)->1 4 7 9 18 30 34 36 39 
16(-1)->1 2 4 9 12 19 22 32 48 
17(-1)->1 2 4 10 21 30 33 36 37 39 
18(-1)->1 10 15 21 25 30 31 33 34 37 39 41 43 
19(-1)->1 9 16 20 22 30 31 45 47 48 
20(-1)->1 14 19 24 26 36 38 40 41 48 
21(-1)->1 8 10 17 18 29 43 47 49 
22(-1)->1 4 10 16 19 24 25 35 37 42 44 48 49 
23(-1)->1 13 33 36 45 47 
24(-1)->1 12 13 14 20 22 27 30 32 40 42 44 50 
25(-1)->1 18 22 33 36 37 
26(-1)->1 5 13 20 34 39 46 48 50 
27(-1)->1 6 10 14 24 34 35 38 41 49 
28(-1)->1 2 6 7 12 30 32 38 39 42 
29(-1)->1 10 21 37 42 45 46 48 
30(-1)->2 6 10 11 14 15 17 18 19 24 28 33 34 38 46 
31(-1)->2 3 8 13 18 19 
32(-1)->4 8 16 24 28 33 41 44 
33(-1)->7 17 18 23 25 30 32 41 
34(-1)->4 9 14 15 18 26 27 30 36 40 42 45 48 49 
35(-1)->6 22 27 38 46 47 48 
36(-1)->4 6 10 11 12 15 17 20 23 25 34 37 44 47 
37(-1)->5 17 18 22 25 29 36 39 49 
38(-1)->1 5 9 14 20 27 28 30 35 39 42 47 
39(-1)->1 2 3 15 17 18 26 28 37 38 
40(-1)->2 9 14 20 24 34 45 
41(-1)->3 5 7 12 18 20 27 32 33 42 47 
42(-1)->1 5 22 24 28 29 34 38 41 
43(-1)->2 7 9 13 18 21 45 49 50 
44(-1)->3 5 13 22 24 32 36 49 50 
45(-1)->6 8 9 19 23 29 34 40 43 47 50 
46(-1)->5 26 29 30 35 
47(-1)->8 12 19 21 23 35 36 38 41 45 
48(-1)->1 16 19 20 22 26 29 34 35 
49(-1)->21 22 27 34 37 43 44 
50(-1)->8 24 26 43 44 45 
-------
Node 1 maps to position 0
Node 2 maps to position 1
Node 30 maps to position 2
Node 34 maps to position 3
Node 36 maps to position 4
Node 4 maps to position 5
Node 22 maps to position 6
Node 24 maps to position 7
Node 14 maps to position 8
Node 38 maps to position 9
Node 9 maps to position 10
Node 45 maps to position 11
Node 19 maps to position 12
Node 20 maps to position 13
Node 41 maps to position 14
Node 18 maps to position 15
Node 10 maps to position 16
Node 13 maps to position 17
Node 12 maps to position 18
Node 7 maps to position 19
Node 28 maps to position 20
Node 39 maps to position 21
Node 17 maps to position 22
Node 21 maps to position 23
Node 47 maps to position 24
Node 8 maps to position 25
Node 32 maps to position 26
Node 16 maps to position 27
Node 48 maps to position 28
Node 26 maps to position 29
Node 5 maps to position 30
Node 6 maps to position 31
Node 27 maps to position 32
Node 35 maps to position 33
Node 46 maps to position 34
Node 29 maps to position 35
Node 37 maps to position 36
Node 49 maps to position 37
Node 43 maps to position 38
Node 50 maps to position 39
Node 44 maps to position 40
Node 3 maps to position 41
Node 31 maps to position 42
Node 15 maps to position 43
Node 42 maps to position 44
Node 33 maps to position 45
Node 23 maps to position 46
Node 40 maps to position 47
Node 25 maps to position 48
Node 11 maps to position 49
1(-1)->2 3 4 5 6 7 8 9 10 11 12 13 14 15 16 17 18 19 20 21 22 23 24 25 26 27 28 29 38 39 42 48 
2(-1)->1 3 4 8 11 16 17 28 30 31 39 40 43 
30(-1)->2 6 10 11 14 15 17 18 19 24 28 33 34 38 46 
34(-1)->4 9 14 15 18 26 27 30 36 40 42 45 48 49 
36(-1)->4 6 10 11 12 15 17 20 23 25 34 37 44 47 
4(-1)->1 2 7 9 12 15 16 17 22 32 34 36 
22(-1)->1 4 10 16 19 24 25 35 37 42 44 48 49 
24(-1)->1 12 13 14 20 22 27 30 32 40 42 44 50 
14(-1)->1 3 6 10 20 24 27 30 34 38 40 
38(-1)->1 5 9 14 20 27 28 30 35 39 42 47 
9(-1)->1 4 13 15 16 19 34 38 40 43 45 
45(-1)->6 8 9 19 23 29 34 40 43 47 50 
19(-1)->1 9 16 20 22 30 31 45 47 48 
20(-1)->1 14 19 24 26 36 38 40 41 48 
41(-1)->3 5 7 12 18 20 27 32 33 42 47 
18(-1)->1 10 15 21 25 30 31 33 34 37 39 41 43 
10(-1)->1 13 14 17 18 21 22 27 29 30 36 
13(-1)->1 9 10 12 23 24 26 31 43 44 
12(-1)->1 4 7 13 16 24 28 36 41 47 
7(-1)->1 3 4 11 12 15 28 33 41 43 
28(-1)->1 2 6 7 12 30 32 38 39 42 
39(-1)->1 2 3 15 17 18 26 28 37 38 
17(-1)->1 2 4 10 21 30 33 36 37 39 
21(-1)->1 8 10 17 18 29 43 47 49 
47(-1)->8 12 19 21 23 35 36 38 41 45 
8(-1)->1 2 21 31 32 45 47 50 
32(-1)->4 8 16 24 28 33 41 44 
16(-1)->1 2 4 9 12 19 22 32 48 
48(-1)->1 16 19 20 22 26 29 34 35 
26(-1)->1 5 13 20 34 39 46 48 50 
5(-1)->1 6 26 37 38 41 42 44 46 
6(-1)->1 5 14 27 28 30 35 36 45 
27(-1)->1 6 10 14 24 34 35 38 41 49 
35(-1)->6 22 27 38 46 47 48 
46(-1)->5 26 29 30 35 
29(-1)->1 10 21 37 42 45 46 48 
37(-1)->5 17 18 22 25 29 36 39 49 
49(-1)->21 22 27 34 37 43 44 
43(-1)->2 7 9 13 18 21 45 49 50 
50(-1)->8 24 26 43 44 45 
44(-1)->3 5 13 22 24 32 36 49 50 
3(-1)->1 2 7 14 31 39 41 44 
31(-1)->2 3 8 13 18 19 
15(-1)->1 4 7 9 18 30 34 36 39 
42(-1)->1 5 22 24 28 29 34 38 41 
33(-1)->7 17 18 23 25 30 32 41 
23(-1)->1 13 33 36 45 47 
40(-1)->2 9 14 20 24 34 45 
25(-1)->1 18 22 33 36 37 
11(-1)->1 2 7 30 36 
-------
BLAH
START TIME: 1433711454
10000
20000
30000
40000
50000
60000
70000
80000
90000
100000
110000
120000
130000
140000
150000
160000
1(0)->2 3 4 5 6 7 8 9 10 11 12 13 14 15 16 17 18 19 20 21 22 23 24 25 26 27 28 29 38 39 42 48 
2(1)->1 3 4 8 11 16 17 28 30 31 39 40 43 
3(3)->1 2 7 14 31 39 41 44 
4(2)->1 2 7 9 12 15 16 17 22 32 34 36 
5(3)->1 6 26 37 38 41 42 44 46 
6(1)->1 5 14 27 28 30 35 36 45 
7(1)->1 3 4 11 12 15 28 33 41 43 
8(4)->1 2 21 31 32 45 47 50 
9(3)->1 4 13 15 16 19 34 38 40 43 45 
10(4)->1 13 14 17 18 21 22 27 29 30 36 
11(2)->1 2 7 30 36 
12(3)->1 4 7 13 16 24 28 36 41 47 
13(2)->1 9 10 12 23 24 26 31 43 44 
14(2)->1 3 6 10 20 24 27 30 34 38 40 
15(4)->1 4 7 9 18 30 34 36 39 
16(4)->1 2 4 9 12 19 22 32 48 
17(3)->1 2 4 10 21 30 33 36 37 39 
18(3)->1 10 15 21 25 30 31 33 34 37 39 41 43 
19(1)->1 9 16 20 22 30 31 45 47 48 
20(3)->1 14 19 24 26 36 38 40 41 48 
21(1)->1 8 10 17 18 29 43 47 49 
22(3)->1 4 10 16 19 24 25 35 37 42 44 48 49 
23(1)->1 13 33 36 45 47 
24(1)->1 12 13 14 20 22 27 30 32 40 42 44 50 
25(4)->1 18 22 33 36 37 
26(4)->1 5 13 20 34 39 46 48 50 
27(3)->1 6 10 14 24 34 35 38 41 49 
28(4)->1 2 6 7 12 30 32 38 39 42 
29(3)->1 10 21 37 42 45 46 48 
30(0)->2 6 10 11 14 15 17 18 19 24 28 33 34 38 46 
31(0)->2 3 8 13 18 19 
32(3)->4 8 16 24 28 33 41 44 
33(2)->7 17 18 23 25 30 32 41 
34(1)->4 9 14 15 18 26 27 30 36 40 42 45 48 49 
35(0)->6 22 27 38 46 47 48 
36(0)->4 6 10 11 12 15 17 20 23 25 34 37 44 47 
37(1)->5 17 18 22 25 29 36 39 49 
38(1)->1 5 9 14 20 27 28 30 35 39 42 47 
39(2)->1 2 3 15 17 18 26 28 37 38 
40(4)->2 9 14 20 24 34 45 
41(0)->3 5 7 12 18 20 27 32 33 42 47 
42(2)->1 5 22 24 28 29 34 38 41 
43(4)->2 7 9 13 18 21 45 49 50 
44(4)->3 5 13 22 24 32 36 49 50 
45(0)->6 8 9 19 23 29 34 40 43 47 50 
46(1)->5 26 29 30 35 
47(2)->8 12 19 21 23 35 36 38 41 45 
48(2)->1 16 19 20 22 26 29 34 35 
49(0)->21 22 27 34 37 43 44 
50(2)->8 24 26 43 44 45 
COUNT: 164342
COLORS: 5
EDGES: 250
5
164342
