1: 2 3 4 5 6 7 8 9 10 11 12 13 14 15 16 17 18 19 20 21 22 23 24 25 26 27 28 29 36 43
2: 1 35 8 10 44 3 20 21 22 23 25 26 31
3: 32 1 34 4 8 9 42 11 12 2 46 15 20 47 29
4: 33 3 5 38 1 40 43 44 18 27 37
5: 32 1 4 6 40 41 17 20 21 24
6: 32 1 5 41 43 12 13 16 50 20 24 28
7: 1 35 11 46 15 27
8: 1 2 35 33 10 50 3 24 27
9: 1 3 46 17 50 23
10: 1 2 8 50 49 18 40 29
11: 48 34 3 1 7 46 16 29 30 31
12: 33 3 1 6 17 49 24
13: 1 37 6 40 42 44 48 22 23 26 30 31
14: 1 36 39 41 44 49 23
15: 1 3 38 7 18 20 28 29
16: 1 37 6 40 11 48 18 25
17: 32 1 36 5 38 40 44 12 46 21 9
18: 48 4 33 10 43 15 16 49 1 22 24 28
19: 32 1 50 27 28
20: 1 2 3 36 5 6 39 40 15 28 29 30
21: 33 34 36 5 1 41 2 17 24 26 31
22: 1 34 35 2 13 18 29 31
23: 1 34 38 40 41 2 13 14 9 26 30
24: 1 5 6 8 41 46 44 12 18 21 30 31
25: 1 2 42 44 45 46 16 29 30 31
26: 1 2 41 13 46 47 49 21 23 29
27: 1 4 7 8 42 46 19 30
28: 1 35 36 6 41 15 18 19 20
29: 1 34 3 10 11 44 15 48 20 22 25 26
30: 43 11 13 45 20 23 24 25 27
31: 32 33 2 11 13 49 21 22 24 25
32: 3 5 6 17 40 43 49 19 31
33: 36 8 12 44 46 40 18 21 4 31
34: 3 36 42 11 48 49 21 22 23 29
35: 2 7 8 44 45 22 28
36: 1 34 38 33 41 46 14 17 20 21 28
37: 4 39 42 13 16 50
38: 36 41 43 44 45 15 17 50 23 4
39: 20 45 14 37
40: 32 33 4 5 10 44 13 46 16 17 20 23
41: 5 36 38 6 43 44 45 14 47 46 23 24 26 28 21
42: 34 3 37 13 25 27
43: 32 1 4 38 6 41 47 49 18 30
44: 33 2 35 4 38 40 41 13 14 17 24 25 29
45: 35 38 39 41 46 47 25 30
46: 33 3 36 17 40 41 11 45 49 50 25 9 24 7 26 27
47: 3 41 43 45 48 26
48: 34 11 13 47 16 18 29
49: 32 34 10 43 12 14 18 46 26 31
50: 37 6 8 9 10 46 19 38
-------
1(-1)->2 3 4 5 6 7 8 9 10 11 12 13 14 15 16 17 18 19 20 21 22 23 24 25 26 27 28 29 36 43 
2(-1)->1 3 8 10 20 21 22 23 25 26 31 35 44 
3(-1)->1 2 4 8 9 11 12 15 20 29 32 34 42 46 47 
4(-1)->1 3 5 18 27 33 37 38 40 43 44 
5(-1)->1 4 6 17 20 21 24 32 40 41 
6(-1)->1 5 12 13 16 20 24 28 32 41 43 50 
7(-1)->1 11 15 27 35 46 
8(-1)->1 2 3 10 24 27 33 35 50 
9(-1)->1 3 17 23 46 50 
10(-1)->1 2 8 18 29 40 49 50 
11(-1)->1 3 7 16 29 30 31 34 46 48 
12(-1)->1 3 6 17 24 33 49 
13(-1)->1 6 22 23 26 30 31 37 40 42 44 48 
14(-1)->1 23 36 39 41 44 49 
15(-1)->1 3 7 18 20 28 29 38 
16(-1)->1 6 11 18 25 37 40 48 
17(-1)->1 5 9 12 21 32 36 38 40 44 46 
18(-1)->1 4 10 15 16 22 24 28 33 43 48 49 
19(-1)->1 27 28 32 50 
20(-1)->1 2 3 5 6 15 28 29 30 36 39 40 
21(-1)->1 2 5 17 24 26 31 33 34 36 41 
22(-1)->1 2 13 18 29 31 34 35 
23(-1)->1 2 9 13 14 26 30 34 38 40 41 
24(-1)->1 5 6 8 12 18 21 30 31 41 44 46 
25(-1)->1 2 16 29 30 31 42 44 45 46 
26(-1)->1 2 13 21 23 29 41 46 47 49 
27(-1)->1 4 7 8 19 30 42 46 
28(-1)->1 6 15 18 19 20 35 36 41 
29(-1)->1 3 10 11 15 20 22 25 26 34 44 48 
30(-1)->11 13 20 23 24 25 27 43 45 
31(-1)->2 11 13 21 22 24 25 32 33 49 
32(-1)->3 5 6 17 19 31 40 43 49 
33(-1)->4 8 12 18 21 31 36 40 44 46 
34(-1)->3 11 21 22 23 29 36 42 48 49 
35(-1)->2 7 8 22 28 44 45 
36(-1)->1 14 17 20 21 28 33 34 38 41 46 
37(-1)->4 13 16 39 42 50 
38(-1)->4 15 17 23 36 41 43 44 45 50 
39(-1)->14 20 37 45 
40(-1)->4 5 10 13 16 17 20 23 32 33 44 46 
41(-1)->5 6 14 21 23 24 26 28 36 38 43 44 45 46 47 
42(-1)->3 13 25 27 34 37 
43(-1)->1 4 6 18 30 32 38 41 47 49 
44(-1)->2 4 13 14 17 24 25 29 33 35 38 40 41 
45(-1)->25 30 35 38 39 41 46 47 
46(-1)->3 7 9 11 17 24 25 26 27 33 36 40 41 45 49 50 
47(-1)->3 26 41 43 45 48 
48(-1)->11 13 16 18 29 34 47 
49(-1)->10 12 14 18 26 31 32 34 43 46 
50(-1)->6 8 9 10 19 37 38 46 
-------
Node 1 maps to position 0
Node 3 maps to position 1
Node 46 maps to position 2
Node 41 maps to position 3
Node 44 maps to position 4
Node 2 maps to position 5
Node 20 maps to position 6
Node 6 maps to position 7
Node 13 maps to position 8
Node 40 maps to position 9
Node 4 maps to position 10
Node 18 maps to position 11
Node 24 maps to position 12
Node 21 maps to position 13
Node 17 maps to position 14
Node 36 maps to position 15
Node 33 maps to position 16
Node 31 maps to position 17
Node 11 maps to position 18
Node 29 maps to position 19
Node 25 maps to position 20
Node 30 maps to position 21
Node 23 maps to position 22
Node 26 maps to position 23
Node 49 maps to position 24
Node 34 maps to position 25
Node 22 maps to position 26
Node 35 maps to position 27
Node 8 maps to position 28
Node 10 maps to position 29
Node 50 maps to position 30
Node 38 maps to position 31
Node 43 maps to position 32
Node 32 maps to position 33
Node 5 maps to position 34
Node 28 maps to position 35
Node 15 maps to position 36
Node 7 maps to position 37
Node 27 maps to position 38
Node 42 maps to position 39
Node 37 maps to position 40
Node 16 maps to position 41
Node 48 maps to position 42
Node 47 maps to position 43
Node 45 maps to position 44
Node 39 maps to position 45
Node 14 maps to position 46
Node 12 maps to position 47
Node 9 maps to position 48
Node 19 maps to position 49
1(-1)->2 3 4 5 6 7 8 9 10 11 12 13 14 15 16 17 18 19 20 21 22 23 24 25 26 27 28 29 36 43 
3(-1)->1 2 4 8 9 11 12 15 20 29 32 34 42 46 47 
46(-1)->3 7 9 11 17 24 25 26 27 33 36 40 41 45 49 50 
41(-1)->5 6 14 21 23 24 26 28 36 38 43 44 45 46 47 
44(-1)->2 4 13 14 17 24 25 29 33 35 38 40 41 
2(-1)->1 3 8 10 20 21 22 23 25 26 31 35 44 
20(-1)->1 2 3 5 6 15 28 29 30 36 39 40 
6(-1)->1 5 12 13 16 20 24 28 32 41 43 50 
13(-1)->1 6 22 23 26 30 31 37 40 42 44 48 
40(-1)->4 5 10 13 16 17 20 23 32 33 44 46 
4(-1)->1 3 5 18 27 33 37 38 40 43 44 
18(-1)->1 4 10 15 16 22 24 28 33 43 48 49 
24(-1)->1 5 6 8 12 18 21 30 31 41 44 46 
21(-1)->1 2 5 17 24 26 31 33 34 36 41 
17(-1)->1 5 9 12 21 32 36 38 40 44 46 
36(-1)->1 14 17 20 21 28 33 34 38 41 46 
33(-1)->4 8 12 18 21 31 36 40 44 46 
31(-1)->2 11 13 21 22 24 25 32 33 49 
11(-1)->1 3 7 16 29 30 31 34 46 48 
29(-1)->1 3 10 11 15 20 22 25 26 34 44 48 
25(-1)->1 2 16 29 30 31 42 44 45 46 
30(-1)->11 13 20 23 24 25 27 43 45 
23(-1)->1 2 9 13 14 26 30 34 38 40 41 
26(-1)->1 2 13 21 23 29 41 46 47 49 
49(-1)->10 12 14 18 26 31 32 34 43 46 
34(-1)->3 11 21 22 23 29 36 42 48 49 
22(-1)->1 2 13 18 29 31 34 35 
35(-1)->2 7 8 22 28 44 45 
8(-1)->1 2 3 10 24 27 33 35 50 
10(-1)->1 2 8 18 29 40 49 50 
50(-1)->6 8 9 10 19 37 38 46 
38(-1)->4 15 17 23 36 41 43 44 45 50 
43(-1)->1 4 6 18 30 32 38 41 47 49 
32(-1)->3 5 6 17 19 31 40 43 49 
5(-1)->1 4 6 17 20 21 24 32 40 41 
28(-1)->1 6 15 18 19 20 35 36 41 
15(-1)->1 3 7 18 20 28 29 38 
7(-1)->1 11 15 27 35 46 
27(-1)->1 4 7 8 19 30 42 46 
42(-1)->3 13 25 27 34 37 
37(-1)->4 13 16 39 42 50 
16(-1)->1 6 11 18 25 37 40 48 
48(-1)->11 13 16 18 29 34 47 
47(-1)->3 26 41 43 45 48 
45(-1)->25 30 35 38 39 41 46 47 
39(-1)->14 20 37 45 
14(-1)->1 23 36 39 41 44 49 
12(-1)->1 3 6 17 24 33 49 
9(-1)->1 3 17 23 46 50 
19(-1)->1 27 28 32 50 
-------
BLAH
START TIME: 1433711433
10000
20000
30000
40000
50000
60000
70000
80000
90000
100000
110000
120000
130000
140000
150000
160000
170000
180000
190000
200000
210000
220000
230000
240000
250000
260000
270000
280000
290000
300000
310000
320000
330000
340000
350000
360000
370000
380000
390000
400000
410000
420000
430000
440000
450000
460000
470000
480000
490000
500000
510000
520000
530000
540000
550000
560000
570000
580000
590000
600000
610000
620000
630000
640000
650000
660000
670000
680000
690000
700000
710000
720000
730000
740000
750000
760000
770000
780000
790000
800000
810000
820000
830000
840000
850000
860000
870000
880000
890000
900000
910000
920000
930000
940000
950000
960000
970000
980000
990000
1000000
1010000
1020000
1030000
1040000
1050000
1060000
1070000
1080000
1090000
1100000
1110000
1120000
1130000
1140000
1150000
1160000
1170000
1180000
1190000
1200000
1210000
1220000
1230000
1240000
1250000
1260000
1270000
1280000
1290000
1300000
1310000
1320000
1330000
1340000
1350000
1360000
1370000
1380000
1390000
1400000
1410000
1420000
1430000
1440000
1450000
1460000
1470000
1480000
1490000
1500000
1510000
1520000
1530000
1540000
1550000
1560000
1570000
1580000
1590000
1600000
1610000
1620000
1630000
1640000
1650000
1660000
1670000
1680000
1690000
1700000
1710000
1(0)->2 3 4 5 6 7 8 9 10 11 12 13 14 15 16 17 18 19 20 21 22 23 24 25 26 27 28 29 36 43 
2(2)->1 3 8 10 20 21 22 23 25 26 31 35 44 
3(1)->1 2 4 8 9 11 12 15 20 29 32 34 42 46 47 
4(3)->1 3 5 18 27 33 37 38 40 43 44 
5(2)->1 4 6 17 20 21 24 32 40 41 
6(1)->1 5 12 13 16 20 24 28 32 41 43 50 
7(1)->1 11 15 27 35 46 
8(3)->1 2 3 10 24 27 33 35 50 
9(3)->1 3 17 23 46 50 
10(4)->1 2 8 18 29 40 49 50 
11(3)->1 3 7 16 29 30 31 34 46 48 
12(2)->1 3 6 17 24 33 49 
13(2)->1 6 22 23 26 30 31 37 40 42 44 48 
14(2)->1 23 36 39 41 44 49 
15(4)->1 3 7 18 20 28 29 38 
16(2)->1 6 11 18 25 37 40 48 
17(4)->1 5 9 12 21 32 36 38 40 44 46 
18(1)->1 4 10 15 16 22 24 28 33 43 48 49 
19(1)->1 27 28 32 50 
20(3)->1 2 3 5 6 15 28 29 30 36 39 40 
21(3)->1 2 5 17 24 26 31 33 34 36 41 
22(3)->1 2 13 18 29 31 34 35 
23(1)->1 2 9 13 14 26 30 34 38 40 41 
24(4)->1 5 6 8 12 18 21 30 31 41 44 46 
25(3)->1 2 16 29 30 31 42 44 45 46 
26(4)->1 2 13 21 23 29 41 46 47 49 
27(4)->1 4 7 8 19 30 42 46 
28(2)->1 6 15 18 19 20 35 36 41 
29(2)->1 3 10 11 15 20 22 25 26 34 44 48 
30(0)->11 13 20 23 24 25 27 43 45 
31(1)->2 11 13 21 22 24 25 32 33 49 
32(3)->3 5 6 17 19 31 40 43 49 
33(4)->4 8 12 18 21 31 36 40 44 46 
34(4)->3 11 21 22 23 29 36 42 48 49 
35(0)->2 7 8 22 28 44 45 
36(1)->1 14 17 20 21 28 33 34 38 41 46 
37(1)->4 13 16 39 42 50 
38(2)->4 15 17 23 36 41 43 44 45 50 
39(0)->14 20 37 45 
40(0)->4 5 10 13 16 17 20 23 32 33 44 46 
41(0)->5 6 14 21 23 24 26 28 36 38 43 44 45 46 47 
42(0)->3 13 25 27 34 37 
43(4)->1 4 6 18 30 32 38 41 47 49 
44(1)->2 4 13 14 17 24 25 29 33 35 38 40 41 
45(1)->25 30 35 38 39 41 46 47 
46(2)->3 7 9 11 17 24 25 26 27 33 36 40 41 45 49 50 
47(2)->3 26 41 43 45 48 
48(0)->11 13 16 18 29 34 47 
49(0)->10 12 14 18 26 31 32 34 43 46 
50(0)->6 8 9 10 19 37 38 46 
COUNT: 1710690
COLORS: 5
EDGES: 250
5
1710690
