1: 2 3 4 5 6 7 8 9 10 11 12 13 14 15 16 17 18 19 20 21 22 23 24 25 26 27 28 29 30 31 32 39 42 45 48
2: 1 3 5 6 44 10 12 13 46 15 20 22 25 28
3: 1 2 36 5 38 12 44 13 15 50 4
4: 32 1 3 40 12 44 13 16 18 28 29
5: 1 2 3 9 34 14 15
6: 32 33 34 38 1 9 2 46 45 48 49 41 26 15
7: 1 43 13 46 48 17 18 26 28
8: 1 36 39 45 22 26 27
9: 1 35 36 5 6 13 14 48 17 20 28 29 30 37
10: 33 2 29 22 1
11: 1 34 42 46 17 22 23 26 29 31
12: 33 2 3 4 37 1 44 48 49 24 25 29
13: 1 2 35 4 38 39 9 43 16 3 24 7 28
14: 33 5 1 40 9 46 28 30
15: 1 2 3 5 6 40 18 46 50 20 25 28
16: 1 45 4 42 43 13 46 47 17 29 30
17: 32 1 7 9 11 44 16 20 24 28
18: 1 4 7 15 19 26 47 31
19: 1 36 40 43 49 18 22
20: 1 2 49 15 9 42 47 48 17 27 29
21: 33 38 1 40 29 31
22: 33 2 1 8 41 42 11 50 47 10 19 25 29
23: 1 43 36 37 11 47 50 25 29 30 31
24: 17 12 13 1
25: 1 2 12 43 44 15 50 22 23 26
26: 1 36 6 39 40 41 11 44 18 48 8 50 7 25 27 30
27: 32 1 39 8 20 26
28: 1 2 17 7 9 42 34 14 13 49 4 15
29: 1 4 39 9 10 11 12 45 16 49 20 21 22 23 30
30: 1 37 9 14 16 50 23 26 29
31: 32 1 38 41 11 44 18 21 23
32: 1 4 6 41 17 27 31
33: 36 6 40 10 12 14 21 22
34: 35 36 5 6 42 11 28
35: 34 36 37 9 43 45 13
36: 35 34 3 37 33 8 9 19 23 26
37: 35 36 9 12 23 30
38: 3 6 43 45 13 21 31
39: 1 8 43 13 49 50 26 27 29
40: 33 4 41 42 44 14 15 50 19 21 26
41: 32 6 40 46 49 22 26 31
42: 1 34 40 11 16 20 22 28
43: 35 38 7 39 13 45 16 50 19 23 25
44: 2 3 4 17 40 12 49 25 26 31
45: 1 35 38 6 8 43 48 29 16
46: 2 6 7 41 11 14 15 16 49
47: 16 18 20 22 23
48: 1 6 7 9 12 45 20 26
49: 6 39 12 44 46 19 20 41 28 29
50: 3 39 40 43 15 22 23 25 26 30
-------
1(-1)->2 3 4 5 6 7 8 9 10 11 12 13 14 15 16 17 18 19 20 21 22 23 24 25 26 27 28 29 30 31 32 39 42 45 48 
2(-1)->1 3 5 6 10 12 13 15 20 22 25 28 44 46 
3(-1)->1 2 4 5 12 13 15 36 38 44 50 
4(-1)->1 3 12 13 16 18 28 29 32 40 44 
5(-1)->1 2 3 9 14 15 34 
6(-1)->1 2 9 15 26 32 33 34 38 41 45 46 48 49 
7(-1)->1 13 17 18 26 28 43 46 48 
8(-1)->1 22 26 27 36 39 45 
9(-1)->1 5 6 13 14 17 20 28 29 30 35 36 37 48 
10(-1)->1 2 22 29 33 
11(-1)->1 17 22 23 26 29 31 34 42 46 
12(-1)->1 2 3 4 24 25 29 33 37 44 48 49 
13(-1)->1 2 3 4 7 9 16 24 28 35 38 39 43 
14(-1)->1 5 9 28 30 33 40 46 
15(-1)->1 2 3 5 6 18 20 25 28 40 46 50 
16(-1)->1 4 13 17 29 30 42 43 45 46 47 
17(-1)->1 7 9 11 16 20 24 28 32 44 
18(-1)->1 4 7 15 19 26 31 47 
19(-1)->1 18 22 36 40 43 49 
20(-1)->1 2 9 15 17 27 29 42 47 48 49 
21(-1)->1 29 31 33 38 40 
22(-1)->1 2 8 10 11 19 25 29 33 41 42 47 50 
23(-1)->1 11 25 29 30 31 36 37 43 47 50 
24(-1)->1 12 13 17 
25(-1)->1 2 12 15 22 23 26 43 44 50 
26(-1)->1 6 7 8 11 18 25 27 30 36 39 40 41 44 48 50 
27(-1)->1 8 20 26 32 39 
28(-1)->1 2 4 7 9 13 14 15 17 34 42 49 
29(-1)->1 4 9 10 11 12 16 20 21 22 23 30 39 45 49 
30(-1)->1 9 14 16 23 26 29 37 50 
31(-1)->1 11 18 21 23 32 38 41 44 
32(-1)->1 4 6 17 27 31 41 
33(-1)->6 10 12 14 21 22 36 40 
34(-1)->5 6 11 28 35 36 42 
35(-1)->9 13 34 36 37 43 45 
36(-1)->3 8 9 19 23 26 33 34 35 37 
37(-1)->9 12 23 30 35 36 
38(-1)->3 6 13 21 31 43 45 
39(-1)->1 8 13 26 27 29 43 49 50 
40(-1)->4 14 15 19 21 26 33 41 42 44 50 
41(-1)->6 22 26 31 32 40 46 49 
42(-1)->1 11 16 20 22 28 34 40 
43(-1)->7 13 16 19 23 25 35 38 39 45 50 
44(-1)->2 3 4 12 17 25 26 31 40 49 
45(-1)->1 6 8 16 29 35 38 43 48 
46(-1)->2 6 7 11 14 15 16 41 49 
47(-1)->16 18 20 22 23 
48(-1)->1 6 7 9 12 20 26 45 
49(-1)->6 12 19 20 28 29 39 41 44 46 
50(-1)->3 15 22 23 25 26 30 39 40 43 
-------
Node 1 maps to position 0
Node 26 maps to position 1
Node 6 maps to position 2
Node 2 maps to position 3
Node 13 maps to position 4
Node 9 maps to position 5
Node 29 maps to position 6
Node 22 maps to position 7
Node 11 maps to position 8
Node 23 maps to position 9
Node 43 maps to position 10
Node 16 maps to position 11
Node 4 maps to position 12
Node 12 maps to position 13
Node 3 maps to position 14
Node 15 maps to position 15
Node 28 maps to position 16
Node 17 maps to position 17
Node 20 maps to position 18
Node 49 maps to position 19
Node 44 maps to position 20
Node 40 maps to position 21
Node 50 maps to position 22
Node 25 maps to position 23
Node 36 maps to position 24
Node 33 maps to position 25
Node 14 maps to position 26
Node 30 maps to position 27
Node 37 maps to position 28
Node 35 maps to position 29
Node 45 maps to position 30
Node 48 maps to position 31
Node 7 maps to position 32
Node 46 maps to position 33
Node 41 maps to position 34
Node 31 maps to position 35
Node 18 maps to position 36
Node 19 maps to position 37
Node 39 maps to position 38
Node 8 maps to position 39
Node 27 maps to position 40
Node 32 maps to position 41
Node 42 maps to position 42
Node 34 maps to position 43
Node 5 maps to position 44
Node 38 maps to position 45
Node 21 maps to position 46
Node 10 maps to position 47
Node 47 maps to position 48
Node 24 maps to position 49
1(-1)->2 3 4 5 6 7 8 9 10 11 12 13 14 15 16 17 18 19 20 21 22 23 24 25 26 27 28 29 30 31 32 39 42 45 48 
26(-1)->1 6 7 8 11 18 25 27 30 36 39 40 41 44 48 50 
6(-1)->1 2 9 15 26 32 33 34 38 41 45 46 48 49 
2(-1)->1 3 5 6 10 12 13 15 20 22 25 28 44 46 
13(-1)->1 2 3 4 7 9 16 24 28 35 38 39 43 
9(-1)->1 5 6 13 14 17 20 28 29 30 35 36 37 48 
29(-1)->1 4 9 10 11 12 16 20 21 22 23 30 39 45 49 
22(-1)->1 2 8 10 11 19 25 29 33 41 42 47 50 
11(-1)->1 17 22 23 26 29 31 34 42 46 
23(-1)->1 11 25 29 30 31 36 37 43 47 50 
43(-1)->7 13 16 19 23 25 35 38 39 45 50 
16(-1)->1 4 13 17 29 30 42 43 45 46 47 
4(-1)->1 3 12 13 16 18 28 29 32 40 44 
12(-1)->1 2 3 4 24 25 29 33 37 44 48 49 
3(-1)->1 2 4 5 12 13 15 36 38 44 50 
15(-1)->1 2 3 5 6 18 20 25 28 40 46 50 
28(-1)->1 2 4 7 9 13 14 15 17 34 42 49 
17(-1)->1 7 9 11 16 20 24 28 32 44 
20(-1)->1 2 9 15 17 27 29 42 47 48 49 
49(-1)->6 12 19 20 28 29 39 41 44 46 
44(-1)->2 3 4 12 17 25 26 31 40 49 
40(-1)->4 14 15 19 21 26 33 41 42 44 50 
50(-1)->3 15 22 23 25 26 30 39 40 43 
25(-1)->1 2 12 15 22 23 26 43 44 50 
36(-1)->3 8 9 19 23 26 33 34 35 37 
33(-1)->6 10 12 14 21 22 36 40 
14(-1)->1 5 9 28 30 33 40 46 
30(-1)->1 9 14 16 23 26 29 37 50 
37(-1)->9 12 23 30 35 36 
35(-1)->9 13 34 36 37 43 45 
45(-1)->1 6 8 16 29 35 38 43 48 
48(-1)->1 6 7 9 12 20 26 45 
7(-1)->1 13 17 18 26 28 43 46 48 
46(-1)->2 6 7 11 14 15 16 41 49 
41(-1)->6 22 26 31 32 40 46 49 
31(-1)->1 11 18 21 23 32 38 41 44 
18(-1)->1 4 7 15 19 26 31 47 
19(-1)->1 18 22 36 40 43 49 
39(-1)->1 8 13 26 27 29 43 49 50 
8(-1)->1 22 26 27 36 39 45 
27(-1)->1 8 20 26 32 39 
32(-1)->1 4 6 17 27 31 41 
42(-1)->1 11 16 20 22 28 34 40 
34(-1)->5 6 11 28 35 36 42 
5(-1)->1 2 3 9 14 15 34 
38(-1)->3 6 13 21 31 43 45 
21(-1)->1 29 31 33 38 40 
10(-1)->1 2 22 29 33 
47(-1)->16 18 20 22 23 
24(-1)->1 12 13 17 
-------
BLAH
START TIME: 1433711451
10000
20000
1(0)->2 3 4 5 6 7 8 9 10 11 12 13 14 15 16 17 18 19 20 21 22 23 24 25 26 27 28 29 30 31 32 39 42 45 48 
2(1)->1 3 5 6 10 12 13 15 20 22 25 28 44 46 
3(4)->1 2 4 5 12 13 15 36 38 44 50 
4(1)->1 3 12 13 16 18 28 29 32 40 44 
5(2)->1 2 3 9 14 15 34 
6(2)->1 2 9 15 26 32 33 34 38 41 45 46 48 49 
7(4)->1 13 17 18 26 28 43 46 48 
8(3)->1 22 26 27 36 39 45 
9(1)->1 5 6 13 14 17 20 28 29 30 35 36 37 48 
10(4)->1 2 22 29 33 
11(4)->1 17 22 23 26 29 31 34 42 46 
12(2)->1 2 3 4 24 25 29 33 37 44 48 49 
13(3)->1 2 3 4 7 9 16 24 28 35 38 39 43 
14(3)->1 5 9 28 30 33 40 46 
15(3)->1 2 3 5 6 18 20 25 28 40 46 50 
16(2)->1 4 13 17 29 30 42 43 45 46 47 
17(3)->1 7 9 11 16 20 24 28 32 44 
18(2)->1 4 7 15 19 26 31 47 
19(3)->1 18 22 36 40 43 49 
20(4)->1 2 9 15 17 27 29 42 47 48 49 
21(4)->1 29 31 33 38 40 
22(2)->1 2 8 10 11 19 25 29 33 41 42 47 50 
23(2)->1 11 25 29 30 31 36 37 43 47 50 
24(1)->1 12 13 17 
25(4)->1 2 12 15 22 23 26 43 44 50 
26(1)->1 6 7 8 11 18 25 27 30 36 39 40 41 44 48 50 
27(2)->1 8 20 26 32 39 
28(2)->1 2 4 7 9 13 14 15 17 34 42 49 
29(3)->1 4 9 10 11 12 16 20 21 22 23 30 39 45 49 
30(4)->1 9 14 16 23 26 29 37 50 
31(1)->1 11 18 21 23 32 38 41 44 
32(4)->1 4 6 17 27 31 41 
33(1)->6 10 12 14 21 22 36 40 
34(3)->5 6 11 28 35 36 42 
35(2)->9 13 34 36 37 43 45 
36(0)->3 8 9 19 23 26 33 34 35 37 
37(3)->9 12 23 30 35 36 
38(0)->3 6 13 21 31 43 45 
39(4)->1 8 13 26 27 29 43 49 50 
40(2)->4 14 15 19 21 26 33 41 42 44 50 
41(3)->6 22 26 31 32 40 46 49 
42(1)->1 11 16 20 22 28 34 40 
43(1)->7 13 16 19 23 25 35 38 39 45 50 
44(0)->2 3 4 12 17 25 26 31 40 49 
45(4)->1 6 8 16 29 35 38 43 48 
46(0)->2 6 7 11 14 15 16 41 49 
47(0)->16 18 20 22 23 
48(3)->1 6 7 9 12 20 26 45 
49(1)->6 12 19 20 28 29 39 41 44 46 
50(0)->3 15 22 23 25 26 30 39 40 43 
COUNT: 24226
COLORS: 5
EDGES: 250
5
24226
