1: 2 3 4 5 6 7 8 9 10 11 12 13 14 15 16 17 18 19 20 21 22 23 24 25 26 27 28 29 30 31 32 33 34 35 36 37 38 39 40 41 42 43 44 45 46 47 49
2: 1 3 4 8 10 11 15 18 19 20 21 22 23 25 26 27 28 29 30 31 32 34 35 36 43 44
3: 32 1 34 4 38 7 8 9 42 11 12 13 46 15 48 10 20 2 47 29
4: 33 2 3 5 38 1 40 41 43 44 16 18 22 27 37
5: 32 1 4 6 40 41 12 17 20 21 24
6: 32 1 18 5 41 43 12 13 15 16 50 20 24 28
7: 1 35 15 11 45 46 47 48 3 27 30
8: 32 1 2 35 33 10 50 3 22 24 27 28 30
9: 1 3 46 17 50 21 22 23
10: 32 1 2 3 8 43 12 50 49 18 40 29
11: 48 34 3 1 7 2 45 46 15 16 29 30 31
12: 33 3 1 38 6 17 10 39 49 24 5
13: 1 3 37 6 40 42 44 46 15 48 22 23 26 38 30 31
14: 1 36 39 40 41 44 49 23
15: 1 2 3 6 38 7 11 50 13 18 19 20 21 24 26 28 29
16: 33 4 37 6 1 40 41 11 48 18 25
17: 32 1 36 5 38 40 44 12 46 21 9 24 27 37
18: 48 2 4 6 33 10 43 34 15 16 49 1 22 24 28
19: 32 1 2 15 49 50 23 27 28
20: 1 2 3 36 5 6 39 40 41 15 35 28 29 30
21: 32 33 34 36 5 1 41 2 15 17 9 24 26 27 31
22: 1 34 35 4 8 9 45 2 13 18 29 31
23: 1 34 36 38 40 41 2 13 14 47 19 46 9 26 30
24: 1 35 36 5 6 8 41 46 44 45 12 15 48 17 18 21 30 31
25: 32 1 2 42 44 45 46 16 29 30 31
26: 1 2 41 13 46 47 49 21 23 15 29
27: 1 2 4 7 8 42 46 17 19 21 30
28: 1 2 35 36 38 6 8 41 15 18 19 20
29: 32 1 34 3 10 11 44 2 15 48 20 22 25 26
30: 1 2 43 7 8 11 13 45 48 20 23 24 25 27
31: 32 33 2 35 1 11 13 49 21 22 24 25
32: 1 2 3 5 6 17 40 10 43 49 19 21 8 25 29 39 31
33: 1 36 8 12 44 46 16 40 18 21 4 31
34: 1 2 3 36 39 42 11 48 49 18 21 22 23 29
35: 1 2 37 38 7 8 44 45 20 22 24 28 31
36: 1 34 38 33 41 46 2 14 17 20 21 23 24 28
37: 1 35 4 39 42 13 16 17 50
38: 1 3 36 12 41 43 44 45 46 15 17 50 35 23 4 28 13
39: 32 1 34 37 40 12 45 14 20
40: 32 33 4 5 39 10 44 13 46 16 17 1 20 14 23
41: 1 5 36 38 6 43 44 45 14 47 16 20 46 23 24 4 26 28 21
42: 1 34 3 37 13 25 27
43: 32 1 2 4 38 6 41 10 47 49 18 30
44: 33 2 35 4 38 1 40 41 13 14 17 50 24 25 29
45: 1 35 38 39 41 11 46 47 48 24 22 7 25 30
46: 33 3 36 38 17 40 41 11 45 13 49 50 25 1 9 24 7 26 27 23
47: 1 3 7 41 43 45 48 23 26
48: 34 3 7 11 13 47 16 24 18 45 29 30
49: 32 1 34 10 43 12 14 18 19 46 26 31
50: 37 6 8 9 10 44 46 15 19 38
-------
1(-1)->2 3 4 5 6 7 8 9 10 11 12 13 14 15 16 17 18 19 20 21 22 23 24 25 26 27 28 29 30 31 32 33 34 35 36 37 38 39 40 41 42 43 44 45 46 47 49 
2(-1)->1 3 4 8 10 11 15 18 19 20 21 22 23 25 26 27 28 29 30 31 32 34 35 36 43 44 
3(-1)->1 2 4 7 8 9 10 11 12 13 15 20 29 32 34 38 42 46 47 48 
4(-1)->1 2 3 5 16 18 22 27 33 37 38 40 41 43 44 
5(-1)->1 4 6 12 17 20 21 24 32 40 41 
6(-1)->1 5 12 13 15 16 18 20 24 28 32 41 43 50 
7(-1)->1 3 11 15 27 30 35 45 46 47 48 
8(-1)->1 2 3 10 22 24 27 28 30 32 33 35 50 
9(-1)->1 3 17 21 22 23 46 50 
10(-1)->1 2 3 8 12 18 29 32 40 43 49 50 
11(-1)->1 2 3 7 15 16 29 30 31 34 45 46 48 
12(-1)->1 3 5 6 10 17 24 33 38 39 49 
13(-1)->1 3 6 15 22 23 26 30 31 37 38 40 42 44 46 48 
14(-1)->1 23 36 39 40 41 44 49 
15(-1)->1 2 3 6 7 11 13 18 19 20 21 24 26 28 29 38 50 
16(-1)->1 4 6 11 18 25 33 37 40 41 48 
17(-1)->1 5 9 12 21 24 27 32 36 37 38 40 44 46 
18(-1)->1 2 4 6 10 15 16 22 24 28 33 34 43 48 49 
19(-1)->1 2 15 23 27 28 32 49 50 
20(-1)->1 2 3 5 6 15 28 29 30 35 36 39 40 41 
21(-1)->1 2 5 9 15 17 24 26 27 31 32 33 34 36 41 
22(-1)->1 2 4 8 9 13 18 29 31 34 35 45 
23(-1)->1 2 9 13 14 19 26 30 34 36 38 40 41 46 47 
24(-1)->1 5 6 8 12 15 17 18 21 30 31 35 36 41 44 45 46 48 
25(-1)->1 2 16 29 30 31 32 42 44 45 46 
26(-1)->1 2 13 15 21 23 29 41 46 47 49 
27(-1)->1 2 4 7 8 17 19 21 30 42 46 
28(-1)->1 2 6 8 15 18 19 20 35 36 38 41 
29(-1)->1 2 3 10 11 15 20 22 25 26 32 34 44 48 
30(-1)->1 2 7 8 11 13 20 23 24 25 27 43 45 48 
31(-1)->1 2 11 13 21 22 24 25 32 33 35 49 
32(-1)->1 2 3 5 6 8 10 17 19 21 25 29 31 39 40 43 49 
33(-1)->1 4 8 12 16 18 21 31 36 40 44 46 
34(-1)->1 2 3 11 18 21 22 23 29 36 39 42 48 49 
35(-1)->1 2 7 8 20 22 24 28 31 37 38 44 45 
36(-1)->1 2 14 17 20 21 23 24 28 33 34 38 41 46 
37(-1)->1 4 13 16 17 35 39 42 50 
38(-1)->1 3 4 12 13 15 17 23 28 35 36 41 43 44 45 46 50 
39(-1)->1 12 14 20 32 34 37 40 45 
40(-1)->1 4 5 10 13 14 16 17 20 23 32 33 39 44 46 
41(-1)->1 4 5 6 14 16 20 21 23 24 26 28 36 38 43 44 45 46 47 
42(-1)->1 3 13 25 27 34 37 
43(-1)->1 2 4 6 10 18 30 32 38 41 47 49 
44(-1)->1 2 4 13 14 17 24 25 29 33 35 38 40 41 50 
45(-1)->1 7 11 22 24 25 30 35 38 39 41 46 47 48 
46(-1)->1 3 7 9 11 13 17 23 24 25 26 27 33 36 38 40 41 45 49 50 
47(-1)->1 3 7 23 26 41 43 45 48 
48(-1)->3 7 11 13 16 18 24 29 30 34 45 47 
49(-1)->1 10 12 14 18 19 26 31 32 34 43 46 
50(-1)->6 8 9 10 15 19 37 38 44 46 
-------
Node 1 maps to position 0
Node 2 maps to position 1
Node 3 maps to position 2
Node 46 maps to position 3
Node 41 maps to position 4
Node 24 maps to position 5
Node 15 maps to position 6
Node 38 maps to position 7
Node 13 maps to position 8
Node 23 maps to position 9
Node 40 maps to position 10
Node 32 maps to position 11
Node 21 maps to position 12
Node 17 maps to position 13
Node 44 maps to position 14
Node 4 maps to position 15
Node 18 maps to position 16
Node 6 maps to position 17
Node 20 maps to position 18
Node 29 maps to position 19
Node 34 maps to position 20
Node 36 maps to position 21
Node 28 maps to position 22
Node 8 maps to position 23
Node 30 maps to position 24
Node 45 maps to position 25
Node 11 maps to position 26
Node 31 maps to position 27
Node 35 maps to position 28
Node 22 maps to position 29
Node 9 maps to position 30
Node 50 maps to position 31
Node 10 maps to position 32
Node 43 maps to position 33
Node 49 maps to position 34
Node 12 maps to position 35
Node 33 maps to position 36
Node 16 maps to position 37
Node 48 maps to position 38
Node 7 maps to position 39
Node 27 maps to position 40
Node 19 maps to position 41
Node 5 maps to position 42
Node 25 maps to position 43
Node 42 maps to position 44
Node 37 maps to position 45
Node 39 maps to position 46
Node 14 maps to position 47
Node 26 maps to position 48
Node 47 maps to position 49
1(-1)->2 3 4 5 6 7 8 9 10 11 12 13 14 15 16 17 18 19 20 21 22 23 24 25 26 27 28 29 30 31 32 33 34 35 36 37 38 39 40 41 42 43 44 45 46 47 49 
2(-1)->1 3 4 8 10 11 15 18 19 20 21 22 23 25 26 27 28 29 30 31 32 34 35 36 43 44 
3(-1)->1 2 4 7 8 9 10 11 12 13 15 20 29 32 34 38 42 46 47 48 
46(-1)->1 3 7 9 11 13 17 23 24 25 26 27 33 36 38 40 41 45 49 50 
41(-1)->1 4 5 6 14 16 20 21 23 24 26 28 36 38 43 44 45 46 47 
24(-1)->1 5 6 8 12 15 17 18 21 30 31 35 36 41 44 45 46 48 
15(-1)->1 2 3 6 7 11 13 18 19 20 21 24 26 28 29 38 50 
38(-1)->1 3 4 12 13 15 17 23 28 35 36 41 43 44 45 46 50 
13(-1)->1 3 6 15 22 23 26 30 31 37 38 40 42 44 46 48 
23(-1)->1 2 9 13 14 19 26 30 34 36 38 40 41 46 47 
40(-1)->1 4 5 10 13 14 16 17 20 23 32 33 39 44 46 
32(-1)->1 2 3 5 6 8 10 17 19 21 25 29 31 39 40 43 49 
21(-1)->1 2 5 9 15 17 24 26 27 31 32 33 34 36 41 
17(-1)->1 5 9 12 21 24 27 32 36 37 38 40 44 46 
44(-1)->1 2 4 13 14 17 24 25 29 33 35 38 40 41 50 
4(-1)->1 2 3 5 16 18 22 27 33 37 38 40 41 43 44 
18(-1)->1 2 4 6 10 15 16 22 24 28 33 34 43 48 49 
6(-1)->1 5 12 13 15 16 18 20 24 28 32 41 43 50 
20(-1)->1 2 3 5 6 15 28 29 30 35 36 39 40 41 
29(-1)->1 2 3 10 11 15 20 22 25 26 32 34 44 48 
34(-1)->1 2 3 11 18 21 22 23 29 36 39 42 48 49 
36(-1)->1 2 14 17 20 21 23 24 28 33 34 38 41 46 
28(-1)->1 2 6 8 15 18 19 20 35 36 38 41 
8(-1)->1 2 3 10 22 24 27 28 30 32 33 35 50 
30(-1)->1 2 7 8 11 13 20 23 24 25 27 43 45 48 
45(-1)->1 7 11 22 24 25 30 35 38 39 41 46 47 48 
11(-1)->1 2 3 7 15 16 29 30 31 34 45 46 48 
31(-1)->1 2 11 13 21 22 24 25 32 33 35 49 
35(-1)->1 2 7 8 20 22 24 28 31 37 38 44 45 
22(-1)->1 2 4 8 9 13 18 29 31 34 35 45 
9(-1)->1 3 17 21 22 23 46 50 
50(-1)->6 8 9 10 15 19 37 38 44 46 
10(-1)->1 2 3 8 12 18 29 32 40 43 49 50 
43(-1)->1 2 4 6 10 18 30 32 38 41 47 49 
49(-1)->1 10 12 14 18 19 26 31 32 34 43 46 
12(-1)->1 3 5 6 10 17 24 33 38 39 49 
33(-1)->1 4 8 12 16 18 21 31 36 40 44 46 
16(-1)->1 4 6 11 18 25 33 37 40 41 48 
48(-1)->3 7 11 13 16 18 24 29 30 34 45 47 
7(-1)->1 3 11 15 27 30 35 45 46 47 48 
27(-1)->1 2 4 7 8 17 19 21 30 42 46 
19(-1)->1 2 15 23 27 28 32 49 50 
5(-1)->1 4 6 12 17 20 21 24 32 40 41 
25(-1)->1 2 16 29 30 31 32 42 44 45 46 
42(-1)->1 3 13 25 27 34 37 
37(-1)->1 4 13 16 17 35 39 42 50 
39(-1)->1 12 14 20 32 34 37 40 45 
14(-1)->1 23 36 39 40 41 44 49 
26(-1)->1 2 13 15 21 23 29 41 46 47 49 
47(-1)->1 3 7 23 26 41 43 45 48 
-------
BLAH
START TIME: 1433711867
10000
1(0)->2 3 4 5 6 7 8 9 10 11 12 13 14 15 16 17 18 19 20 21 22 23 24 25 26 27 28 29 30 31 32 33 34 35 36 37 38 39 40 41 42 43 44 45 46 47 49 
2(1)->1 3 4 8 10 11 15 18 19 20 21 22 23 25 26 27 28 29 30 31 32 34 35 36 43 44 
3(2)->1 2 4 7 8 9 10 11 12 13 15 20 29 32 34 38 42 46 47 48 
4(5)->1 2 3 5 16 18 22 27 33 37 38 40 41 43 44 
5(4)->1 4 6 12 17 20 21 24 32 40 41 
6(1)->1 5 12 13 15 16 18 20 24 28 32 41 43 50 
7(3)->1 3 11 15 27 30 35 45 46 47 48 
8(6)->1 2 3 10 22 24 27 28 30 32 33 35 50 
9(3)->1 3 17 21 22 23 46 50 
10(4)->1 2 3 8 12 18 29 32 40 43 49 50 
11(5)->1 2 3 7 15 16 29 30 31 34 45 46 48 
12(6)->1 3 5 6 10 17 24 33 38 39 49 
13(5)->1 3 6 15 22 23 26 30 31 37 38 40 42 44 46 48 
14(3)->1 23 36 39 40 41 44 49 
15(4)->1 2 3 6 7 11 13 18 19 20 21 24 26 28 29 38 50 
16(4)->1 4 6 11 18 25 33 37 40 41 48 
17(2)->1 5 9 12 21 24 27 32 36 37 38 40 44 46 
18(2)->1 2 4 6 10 15 16 22 24 28 33 34 43 48 49 
19(2)->1 2 15 23 27 28 32 49 50 
20(3)->1 2 3 5 6 15 28 29 30 35 36 39 40 41 
21(5)->1 2 5 9 15 17 24 26 27 31 32 33 34 36 41 
22(4)->1 2 4 8 9 13 18 29 31 34 35 45 
23(4)->1 2 9 13 14 19 26 30 34 36 38 40 41 46 47 
24(3)->1 5 6 8 12 15 17 18 21 30 31 35 36 41 44 45 46 48 
25(5)->1 2 16 29 30 31 32 42 44 45 46 
26(3)->1 2 13 15 21 23 29 41 46 47 49 
27(4)->1 2 4 7 8 17 19 21 30 42 46 
28(5)->1 2 6 8 15 18 19 20 35 36 38 41 
29(6)->1 2 3 10 11 15 20 22 25 26 32 34 44 48 
30(2)->1 2 7 8 11 13 20 23 24 25 27 43 45 48 
31(6)->1 2 11 13 21 22 24 25 32 33 35 49 
32(3)->1 2 3 5 6 8 10 17 19 21 25 29 31 39 40 43 49 
33(3)->1 4 8 12 16 18 21 31 36 40 44 46 
34(3)->1 2 3 11 18 21 22 23 29 36 39 42 48 49 
35(2)->1 2 7 8 20 22 24 28 31 37 38 44 45 
36(6)->1 2 14 17 20 21 23 24 28 33 34 38 41 46 
37(3)->1 4 13 16 17 35 39 42 50 
38(3)->1 3 4 12 13 15 17 23 28 35 36 41 43 44 45 46 50 
39(1)->1 12 14 20 32 34 37 40 45 
40(6)->1 4 5 10 13 14 16 17 20 23 32 33 39 44 46 
41(2)->1 4 5 6 14 16 20 21 23 24 26 28 36 38 43 44 45 46 47 
42(1)->1 3 13 25 27 34 37 
43(6)->1 2 4 6 10 18 30 32 38 41 47 49 
44(4)->1 2 4 13 14 17 24 25 29 33 35 38 40 41 50 
45(6)->1 7 11 22 24 25 30 35 38 39 41 46 47 48 
46(1)->1 3 7 9 11 13 17 23 24 25 26 27 33 36 38 40 41 45 49 50 
47(1)->1 3 7 23 26 41 43 45 48 
48(0)->3 7 11 13 16 18 24 29 30 34 45 47 
49(5)->1 10 12 14 18 19 26 31 32 34 43 46 
50(0)->6 8 9 10 15 19 37 38 44 46 
COUNT: 10795
COLORS: 7
EDGES: 350
7
10795
