1: 2 3 4 5 6 7 8 9 10 11 12 13 14 15 16 17 18 19 20 21 22 23 24 25 26 27 28 29 30 31 32 33 34 35 36 37 38 39 40 41 42 43 44 45 46 47 48 49 50
2: 1 3 4 5 6 7 8 9 10 11 12 13 14 15 16 17 18 19 20 21 22 23 24 25 26 27 28 29 30 31 32 33 34 35 36 37 38 39 40 41 42 45 46 47 48 49
3: 1 2 4 5 7 8 11 12 13 14 17 18 19 20 21 22 23 24 26 27 29 30 31 32 33 34 35 37 40 41 49
4: 32 33 2 3 37 1 40 9 11 12 13 20 22 23 24 26 27 29 30 5
5: 32 33 2 50 4 38 1 11 45 46 15 16 49 18 3 20 22 29 30
6: 32 48 2 17 37 38 7 40 9 1 11 44 45 12 13 16 8 20 46 23 24
7: 48 34 3 36 37 6 1 41 45 44 2 46 13 16 49 22 25 26 27 28 31
8: 32 1 2 3 6 38 40 12 42 11 44 13 14 48 17 43
9: 32 1 2 35 4 6 40 43 13 11 17 21 23 26 27 29
10: 1 2 37 39 12 14 15 19 20 21 27 28 29
11: 1 2 3 4 5 6 8 9 15 18 24 26 27 28 29 30 31 36 37 38 41 42 43 46 47
12: 1 2 3 4 6 8 10 17 23
13: 1 2 3 4 6 7 8 9 15 20 22 23 24 27 30 31 35 40 43 44 46 47 48 49
14: 1 2 35 36 40 10 48 8 3 25 27 30
15: 19 1 34 11 36 5 49 41 10 39 13 17 18 35 22 23 2 28 29
16: 1 2 5 6 7 49 20 21 23 28 30
17: 1 2 50 37 38 8 9 12 45 47 48 29 3 6 15 28 44 30
18: 1 34 3 5 41 42 11 45 15 20 22 24 2 29 30 37
19: 1 2 35 36 38 39 10 15 3 20 22 23 24 26 42 31
20: 16 2 3 4 5 6 1 40 10 43 44 13 48 18 19 31
21: 1 2 3 41 42 43 44 16 10 9 23 24 26 29
22: 32 33 2 3 36 5 38 7 41 39 13 15 18 19 1 24 4 47 29 30 31
23: 3 1 2 35 4 38 6 40 9 12 13 47 16 44 19 21 41 15 29 30 37
24: 3 1 2 35 4 6 11 44 18 46 13 43 50 19 21 22 36 26 31
25: 1 34 38 7 40 41 39 45 14 49 2 27 28 31
26: 1 2 3 4 38 39 9 11 46 47 48 19 21 24 7 27
27: 1 2 3 4 38 7 40 41 10 11 44 13 14 45 9 25 26 42
28: 1 2 38 7 41 10 11 45 46 15 16 17 25 47 30
29: 1 2 3 36 37 38 9 10 11 45 15 17 18 21 22 23 4 30 5
30: 1 2 3 36 37 40 11 44 13 14 16 17 18 35 22 23 4 28 29 5
31: 32 33 2 3 1 37 7 41 42 11 13 48 19 20 22 24 25
32: 1 2 3 4 5 6 8 9 42 48 40 22 31
33: 1 2 3 36 5 44 47 22 4 31
34: 1 18 35 37 7 41 39 45 46 47 50 3 2 25 15
35: 1 34 3 9 42 43 13 14 15 49 50 19 46 23 24 2 30
36: 33 2 1 7 40 42 11 44 45 14 47 48 19 22 24 15 29 30
37: 1 34 3 4 38 6 7 10 11 2 46 17 18 23 29 30 31
38: 1 2 43 5 6 40 42 11 46 8 17 19 22 23 25 26 27 28 29 37
39: 1 34 10 43 2 15 50 19 22 25 26
40: 32 1 2 3 36 38 6 8 41 23 13 14 48 50 20 9 25 4 27 30
41: 1 34 50 7 40 15 42 11 45 47 18 3 21 22 23 2 25 27 28 31
42: 32 1 2 35 36 38 49 8 41 11 43 18 19 21 27 31
43: 1 35 38 39 8 9 42 11 13 50 20 21 24
44: 33 36 6 7 8 1 13 46 17 50 20 21 23 24 27 30
45: 1 34 36 5 6 7 41 2 17 18 25 27 28 29
46: 1 34 35 37 6 7 11 44 13 49 24 2 26 38 28 5
47: 33 34 36 1 41 11 13 17 22 23 2 26 28
48: 32 1 2 36 49 6 7 40 13 14 17 20 8 26 31
49: 48 2 35 1 5 7 42 13 46 15 16 3 25
50: 1 34 35 5 39 40 41 43 44 17 24
-------
1(-1)->2 3 4 5 6 7 8 9 10 11 12 13 14 15 16 17 18 19 20 21 22 23 24 25 26 27 28 29 30 31 32 33 34 35 36 37 38 39 40 41 42 43 44 45 46 47 48 49 50 
2(-1)->1 3 4 5 6 7 8 9 10 11 12 13 14 15 16 17 18 19 20 21 22 23 24 25 26 27 28 29 30 31 32 33 34 35 36 37 38 39 40 41 42 45 46 47 48 49 
3(-1)->1 2 4 5 7 8 11 12 13 14 17 18 19 20 21 22 23 24 26 27 29 30 31 32 33 34 35 37 40 41 49 
4(-1)->1 2 3 5 9 11 12 13 20 22 23 24 26 27 29 30 32 33 37 40 
5(-1)->1 2 3 4 11 15 16 18 20 22 29 30 32 33 38 45 46 49 50 
6(-1)->1 2 7 8 9 11 12 13 16 17 20 23 24 32 37 38 40 44 45 46 48 
7(-1)->1 2 3 6 13 16 22 25 26 27 28 31 34 36 37 41 44 45 46 48 49 
8(-1)->1 2 3 6 11 12 13 14 17 32 38 40 42 43 44 48 
9(-1)->1 2 4 6 11 13 17 21 23 26 27 29 32 35 40 43 
10(-1)->1 2 12 14 15 19 20 21 27 28 29 37 39 
11(-1)->1 2 3 4 5 6 8 9 15 18 24 26 27 28 29 30 31 36 37 38 41 42 43 46 47 
12(-1)->1 2 3 4 6 8 10 17 23 
13(-1)->1 2 3 4 6 7 8 9 15 20 22 23 24 27 30 31 35 40 43 44 46 47 48 49 
14(-1)->1 2 3 8 10 25 27 30 35 36 40 48 
15(-1)->1 2 5 10 11 13 17 18 19 22 23 28 29 34 35 36 39 41 49 
16(-1)->1 2 5 6 7 20 21 23 28 30 49 
17(-1)->1 2 3 6 8 9 12 15 28 29 30 37 38 44 45 47 48 50 
18(-1)->1 2 3 5 11 15 20 22 24 29 30 34 37 41 42 45 
19(-1)->1 2 3 10 15 20 22 23 24 26 31 35 36 38 39 42 
20(-1)->1 2 3 4 5 6 10 13 16 18 19 31 40 43 44 48 
21(-1)->1 2 3 9 10 16 23 24 26 29 41 42 43 44 
22(-1)->1 2 3 4 5 7 13 15 18 19 24 29 30 31 32 33 36 38 39 41 47 
23(-1)->1 2 3 4 6 9 12 13 15 16 19 21 29 30 35 37 38 40 41 44 47 
24(-1)->1 2 3 4 6 11 13 18 19 21 22 26 31 35 36 43 44 46 50 
25(-1)->1 2 7 14 27 28 31 34 38 39 40 41 45 49 
26(-1)->1 2 3 4 7 9 11 19 21 24 27 38 39 46 47 48 
27(-1)->1 2 3 4 7 9 10 11 13 14 25 26 38 40 41 42 44 45 
28(-1)->1 2 7 10 11 15 16 17 25 30 38 41 45 46 47 
29(-1)->1 2 3 4 5 9 10 11 15 17 18 21 22 23 30 36 37 38 45 
30(-1)->1 2 3 4 5 11 13 14 16 17 18 22 23 28 29 35 36 37 40 44 
31(-1)->1 2 3 7 11 13 19 20 22 24 25 32 33 37 41 42 48 
32(-1)->1 2 3 4 5 6 8 9 22 31 40 42 48 
33(-1)->1 2 3 4 5 22 31 36 44 47 
34(-1)->1 2 3 7 15 18 25 35 37 39 41 45 46 47 50 
35(-1)->1 2 3 9 13 14 15 19 23 24 30 34 42 43 46 49 50 
36(-1)->1 2 7 11 14 15 19 22 24 29 30 33 40 42 44 45 47 48 
37(-1)->1 2 3 4 6 7 10 11 17 18 23 29 30 31 34 38 46 
38(-1)->1 2 5 6 8 11 17 19 22 23 25 26 27 28 29 37 40 42 43 46 
39(-1)->1 2 10 15 19 22 25 26 34 43 50 
40(-1)->1 2 3 4 6 8 9 13 14 20 23 25 27 30 32 36 38 41 48 50 
41(-1)->1 2 3 7 11 15 18 21 22 23 25 27 28 31 34 40 42 45 47 50 
42(-1)->1 2 8 11 18 19 21 27 31 32 35 36 38 41 43 49 
43(-1)->1 8 9 11 13 20 21 24 35 38 39 42 50 
44(-1)->1 6 7 8 13 17 20 21 23 24 27 30 33 36 46 50 
45(-1)->1 2 5 6 7 17 18 25 27 28 29 34 36 41 
46(-1)->1 2 5 6 7 11 13 24 26 28 34 35 37 38 44 49 
47(-1)->1 2 11 13 17 22 23 26 28 33 34 36 41 
48(-1)->1 2 6 7 8 13 14 17 20 26 31 32 36 40 49 
49(-1)->1 2 3 5 7 13 15 16 25 35 42 46 48 
50(-1)->1 5 17 24 34 35 39 40 41 43 44 
-------
Node 1 maps to position 0
Node 2 maps to position 1
Node 3 maps to position 2
Node 11 maps to position 3
Node 6 maps to position 4
Node 13 maps to position 5
Node 7 maps to position 6
Node 22 maps to position 7
Node 4 maps to position 8
Node 23 maps to position 9
Node 30 maps to position 10
Node 40 maps to position 11
Node 38 maps to position 12
Node 5 maps to position 13
Node 15 maps to position 14
Node 41 maps to position 15
Node 27 maps to position 16
Node 9 maps to position 17
Node 29 maps to position 18
Node 17 maps to position 19
Node 37 maps to position 20
Node 31 maps to position 21
Node 24 maps to position 22
Node 36 maps to position 23
Node 19 maps to position 24
Node 35 maps to position 25
Node 42 maps to position 26
Node 8 maps to position 27
Node 44 maps to position 28
Node 20 maps to position 29
Node 18 maps to position 30
Node 34 maps to position 31
Node 46 maps to position 32
Node 26 maps to position 33
Node 48 maps to position 34
Node 32 maps to position 35
Node 28 maps to position 36
Node 25 maps to position 37
Node 45 maps to position 38
Node 21 maps to position 39
Node 10 maps to position 40
Node 14 maps to position 41
Node 43 maps to position 42
Node 39 maps to position 43
Node 50 maps to position 44
Node 47 maps to position 45
Node 33 maps to position 46
Node 49 maps to position 47
Node 16 maps to position 48
Node 12 maps to position 49
1(-1)->2 3 4 5 6 7 8 9 10 11 12 13 14 15 16 17 18 19 20 21 22 23 24 25 26 27 28 29 30 31 32 33 34 35 36 37 38 39 40 41 42 43 44 45 46 47 48 49 50 
2(-1)->1 3 4 5 6 7 8 9 10 11 12 13 14 15 16 17 18 19 20 21 22 23 24 25 26 27 28 29 30 31 32 33 34 35 36 37 38 39 40 41 42 45 46 47 48 49 
3(-1)->1 2 4 5 7 8 11 12 13 14 17 18 19 20 21 22 23 24 26 27 29 30 31 32 33 34 35 37 40 41 49 
11(-1)->1 2 3 4 5 6 8 9 15 18 24 26 27 28 29 30 31 36 37 38 41 42 43 46 47 
6(-1)->1 2 7 8 9 11 12 13 16 17 20 23 24 32 37 38 40 44 45 46 48 
13(-1)->1 2 3 4 6 7 8 9 15 20 22 23 24 27 30 31 35 40 43 44 46 47 48 49 
7(-1)->1 2 3 6 13 16 22 25 26 27 28 31 34 36 37 41 44 45 46 48 49 
22(-1)->1 2 3 4 5 7 13 15 18 19 24 29 30 31 32 33 36 38 39 41 47 
4(-1)->1 2 3 5 9 11 12 13 20 22 23 24 26 27 29 30 32 33 37 40 
23(-1)->1 2 3 4 6 9 12 13 15 16 19 21 29 30 35 37 38 40 41 44 47 
30(-1)->1 2 3 4 5 11 13 14 16 17 18 22 23 28 29 35 36 37 40 44 
40(-1)->1 2 3 4 6 8 9 13 14 20 23 25 27 30 32 36 38 41 48 50 
38(-1)->1 2 5 6 8 11 17 19 22 23 25 26 27 28 29 37 40 42 43 46 
5(-1)->1 2 3 4 11 15 16 18 20 22 29 30 32 33 38 45 46 49 50 
15(-1)->1 2 5 10 11 13 17 18 19 22 23 28 29 34 35 36 39 41 49 
41(-1)->1 2 3 7 11 15 18 21 22 23 25 27 28 31 34 40 42 45 47 50 
27(-1)->1 2 3 4 7 9 10 11 13 14 25 26 38 40 41 42 44 45 
9(-1)->1 2 4 6 11 13 17 21 23 26 27 29 32 35 40 43 
29(-1)->1 2 3 4 5 9 10 11 15 17 18 21 22 23 30 36 37 38 45 
17(-1)->1 2 3 6 8 9 12 15 28 29 30 37 38 44 45 47 48 50 
37(-1)->1 2 3 4 6 7 10 11 17 18 23 29 30 31 34 38 46 
31(-1)->1 2 3 7 11 13 19 20 22 24 25 32 33 37 41 42 48 
24(-1)->1 2 3 4 6 11 13 18 19 21 22 26 31 35 36 43 44 46 50 
36(-1)->1 2 7 11 14 15 19 22 24 29 30 33 40 42 44 45 47 48 
19(-1)->1 2 3 10 15 20 22 23 24 26 31 35 36 38 39 42 
35(-1)->1 2 3 9 13 14 15 19 23 24 30 34 42 43 46 49 50 
42(-1)->1 2 8 11 18 19 21 27 31 32 35 36 38 41 43 49 
8(-1)->1 2 3 6 11 12 13 14 17 32 38 40 42 43 44 48 
44(-1)->1 6 7 8 13 17 20 21 23 24 27 30 33 36 46 50 
20(-1)->1 2 3 4 5 6 10 13 16 18 19 31 40 43 44 48 
18(-1)->1 2 3 5 11 15 20 22 24 29 30 34 37 41 42 45 
34(-1)->1 2 3 7 15 18 25 35 37 39 41 45 46 47 50 
46(-1)->1 2 5 6 7 11 13 24 26 28 34 35 37 38 44 49 
26(-1)->1 2 3 4 7 9 11 19 21 24 27 38 39 46 47 48 
48(-1)->1 2 6 7 8 13 14 17 20 26 31 32 36 40 49 
32(-1)->1 2 3 4 5 6 8 9 22 31 40 42 48 
28(-1)->1 2 7 10 11 15 16 17 25 30 38 41 45 46 47 
25(-1)->1 2 7 14 27 28 31 34 38 39 40 41 45 49 
45(-1)->1 2 5 6 7 17 18 25 27 28 29 34 36 41 
21(-1)->1 2 3 9 10 16 23 24 26 29 41 42 43 44 
10(-1)->1 2 12 14 15 19 20 21 27 28 29 37 39 
14(-1)->1 2 3 8 10 25 27 30 35 36 40 48 
43(-1)->1 8 9 11 13 20 21 24 35 38 39 42 50 
39(-1)->1 2 10 15 19 22 25 26 34 43 50 
50(-1)->1 5 17 24 34 35 39 40 41 43 44 
47(-1)->1 2 11 13 17 22 23 26 28 33 34 36 41 
33(-1)->1 2 3 4 5 22 31 36 44 47 
49(-1)->1 2 3 5 7 13 15 16 25 35 42 46 48 
16(-1)->1 2 5 6 7 20 21 23 28 30 49 
12(-1)->1 2 3 4 6 8 10 17 23 
-------
BLAH
START TIME: 1433712010
10000
20000
30000
40000
50000
60000
70000
80000
90000
100000
110000
120000
130000
140000
150000
160000
170000
180000
190000
200000
210000
220000
230000
240000
250000
260000
270000
280000
290000
300000
310000
320000
330000
340000
350000
360000
370000
380000
390000
400000
410000
420000
430000
440000
450000
460000
470000
480000
490000
500000
510000
520000
530000
540000
550000
560000
570000
580000
590000
600000
610000
620000
630000
640000
650000
660000
670000
680000
690000
700000
710000
720000
730000
740000
750000
760000
770000
780000
790000
800000
810000
820000
830000
840000
850000
860000
870000
880000
890000
900000
910000
920000
930000
940000
950000
960000
970000
980000
990000
1000000
1010000
1020000
1030000
1040000
1050000
1060000
1070000
1080000
1090000
1100000
1110000
1120000
1130000
1140000
1150000
1160000
1170000
1180000
1190000
1200000
1210000
1220000
1230000
1240000
1250000
1260000
1270000
1280000
1290000
1300000
1310000
1320000
1330000
1340000
1350000
1(0)->2 3 4 5 6 7 8 9 10 11 12 13 14 15 16 17 18 19 20 21 22 23 24 25 26 27 28 29 30 31 32 33 34 35 36 37 38 39 40 41 42 43 44 45 46 47 48 49 50 
2(1)->1 3 4 5 6 7 8 9 10 11 12 13 14 15 16 17 18 19 20 21 22 23 24 25 26 27 28 29 30 31 32 33 34 35 36 37 38 39 40 41 42 45 46 47 48 49 
3(2)->1 2 4 5 7 8 11 12 13 14 17 18 19 20 21 22 23 24 26 27 29 30 31 32 33 34 35 37 40 41 49 
4(4)->1 2 3 5 9 11 12 13 20 22 23 24 26 27 29 30 32 33 37 40 
5(7)->1 2 3 4 11 15 16 18 20 22 29 30 32 33 38 45 46 49 50 
6(2)->1 2 7 8 9 11 12 13 16 17 20 23 24 32 37 38 40 44 45 46 48 
7(4)->1 2 3 6 13 16 22 25 26 27 28 31 34 36 37 41 44 45 46 48 49 
8(6)->1 2 3 6 11 12 13 14 17 32 38 40 42 43 44 48 
9(6)->1 2 4 6 11 13 17 21 23 26 27 29 32 35 40 43 
10(2)->1 2 12 14 15 19 20 21 27 28 29 37 39 
11(3)->1 2 3 4 5 6 8 9 15 18 24 26 27 28 29 30 31 36 37 38 41 42 43 46 47 
12(7)->1 2 3 4 6 8 10 17 23 
13(3)->1 2 3 4 6 7 8 9 15 20 22 23 24 27 30 31 35 40 43 44 46 47 48 49 
14(3)->1 2 3 8 10 25 27 30 35 36 40 48 
15(6)->1 2 5 10 11 13 17 18 19 22 23 28 29 34 35 36 39 41 49 
16(3)->1 2 5 6 7 20 21 23 28 30 49 
17(3)->1 2 3 6 8 9 12 15 28 29 30 37 38 44 45 47 48 50 
18(4)->1 2 3 5 11 15 20 22 24 29 30 34 37 41 42 45 
19(3)->1 2 3 10 15 20 22 23 24 26 31 35 36 38 39 42 
20(8)->1 2 3 4 5 6 10 13 16 18 19 31 40 43 44 48 
21(4)->1 2 3 9 10 16 23 24 26 29 41 42 43 44 
22(5)->1 2 3 4 5 7 13 15 18 19 24 29 30 31 32 33 36 38 39 41 47 
23(5)->1 2 3 4 6 9 12 13 15 16 19 21 29 30 35 37 38 40 41 44 47 
24(7)->1 2 3 4 6 11 13 18 19 21 22 26 31 35 36 43 44 46 50 
25(2)->1 2 7 14 27 28 31 34 38 39 40 41 45 49 
26(8)->1 2 3 4 7 9 11 19 21 24 27 38 39 46 47 48 
27(5)->1 2 3 4 7 9 10 11 13 14 25 26 38 40 41 42 44 45 
28(7)->1 2 7 10 11 15 16 17 25 30 38 41 45 46 47 
29(8)->1 2 3 4 5 9 10 11 15 17 18 21 22 23 30 36 37 38 45 
30(6)->1 2 3 4 5 11 13 14 16 17 18 22 23 28 29 35 36 37 40 44 
31(6)->1 2 3 7 11 13 19 20 22 24 25 32 33 37 41 42 48 
32(3)->1 2 3 4 5 6 8 9 22 31 40 42 48 
33(3)->1 2 3 4 5 22 31 36 44 47 
34(3)->1 2 3 7 15 18 25 35 37 39 41 45 46 47 50 
35(4)->1 2 3 9 13 14 15 19 23 24 30 34 42 43 46 49 50 
36(2)->1 2 7 11 14 15 19 22 24 29 30 33 40 42 44 45 47 48 
37(7)->1 2 3 4 6 7 10 11 17 18 23 29 30 31 34 38 46 
38(4)->1 2 5 6 8 11 17 19 22 23 25 26 27 28 29 37 40 42 43 46 
39(4)->1 2 10 15 19 22 25 26 34 43 50 
40(7)->1 2 3 4 6 8 9 13 14 20 23 25 27 30 32 36 38 41 48 50 
41(8)->1 2 3 7 11 15 18 21 22 23 25 27 28 31 34 40 42 45 47 50 
42(7)->1 2 8 11 18 19 21 27 31 32 35 36 38 41 43 49 
43(1)->1 8 9 11 13 20 21 24 35 38 39 42 50 
44(1)->1 6 7 8 13 17 20 21 23 24 27 30 33 36 46 50 
45(6)->1 2 5 6 7 17 18 25 27 28 29 34 36 41 
46(5)->1 2 5 6 7 11 13 24 26 28 34 35 37 38 44 49 
47(4)->1 2 11 13 17 22 23 26 28 33 34 36 41 
48(5)->1 2 6 7 8 13 14 17 20 26 31 32 36 40 49 
49(8)->1 2 3 5 7 13 15 16 25 35 42 46 48 
50(2)->1 5 17 24 34 35 39 40 41 43 44 
COUNT: 1356813
COLORS: 9
EDGES: 450
9
1356813
