1: 2 3 4 5 6 7 8 9 10 11 12 13 14 15 16 17 18 19 20 21 22 23 24 25 26 27 28 29 30 31 32 33 34 35 36 37 38 39 40 41 42 43 44 45 46 47 48 49
2: 1 3 4 5 6 7 8 9 10 11 12 13 14 15 16 17 18 19 20 21 22 23 24 25 26 27 28 29 30 31 32 33 34 35 36 37 39 42 44 45 46 48
3: 1 2 4 5 6 7 10 11 12 13 14 15 18 19 20 22 24 25 27 28 30 33 35 36 38 41 43 44 45 46 50
4: 1 2 3 5 6 7 10 12 13 15 16 18 19 27 28 29 32 40 42 44 47 49
5: 1 2 3 4 6 9 12 34 14 15 20 41 25 27 13
6: 1 2 3 4 5 9 14 15 20 26 27 30 32 33 34 35 38 41 45 46 48 49
7: 16 2 3 36 1 40 43 13 46 48 17 18 23 24 4 26 27 28
8: 1 34 36 38 39 9 2 45 46 19 22 26 27 28
9: 1 2 5 6 8 12 13 14 16 17 20 28 29 30 32 33 35 36 37 40 44 48
10: 33 2 3 4 1 40 45 46 15 22 29
11: 1 34 3 38 42 2 46 17 19 22 23 26 29 31
12: 33 2 3 4 37 1 9 44 48 49 24 25 29 5
13: 1 2 35 4 33 38 39 9 43 5 16 49 50 3 24 7 28 36
14: 33 2 3 5 6 1 40 9 45 46 18 28 30 31
15: 1 2 3 4 5 6 40 42 18 46 45 50 20 25 28 10
16: 32 33 45 4 37 7 9 42 43 13 46 47 17 20 1 22 2 36 29 30
17: 32 1 2 36 38 7 9 11 44 16 20 24 28
18: 1 2 3 4 7 42 14 15 19 21 22 26 47 29 30 31
19: 1 2 11 36 38 40 43 50 8 49 18 3 22 25 27 29 4
20: 16 2 34 36 5 6 49 15 9 42 45 47 48 17 3 1 22 27 29
21: 32 33 2 35 37 38 1 40 42 44 47 18 24 25 29 31
22: 3 33 2 34 1 39 8 41 42 11 50 47 16 10 19 20 18 25 29 45
23: 33 2 43 36 37 7 11 47 49 50 1 25 29 30 31
24: 1 2 3 7 41 42 12 13 46 17 50 21
25: 33 2 3 5 38 1 12 42 43 44 15 50 19 21 22 23 26
26: 1 2 36 38 6 39 40 41 42 11 44 18 48 8 50 7 25 27 30 37
27: 32 1 2 3 4 5 6 39 8 7 45 49 19 20 26 28
28: 1 2 27 17 7 8 9 42 34 14 13 49 3 4 15 29
29: 1 2 4 9 10 11 12 16 18 19 20 21 22 23 28 30 31 35 39 45 49 50
30: 1 18 3 37 6 9 2 44 45 14 16 50 46 23 26 29
31: 32 1 2 35 38 41 11 44 14 49 18 21 23 29
32: 1 2 4 38 6 49 41 16 17 21 9 27 31
33: 1 2 3 36 6 48 40 9 10 43 12 13 14 16 21 22 23 25
34: 1 2 35 36 5 6 8 42 11 45 20 22 28
35: 1 34 3 36 37 6 40 9 43 45 13 21 2 29 31
36: 1 2 3 7 8 9 13 16 17 19 20 23 26 33 34 35 37 38 40 41 42 43 44 50
37: 1 2 35 36 38 9 41 12 46 16 50 21 23 26 30
38: 32 1 3 36 37 6 8 43 45 13 11 17 50 19 21 25 26 31
39: 1 2 8 43 13 49 50 22 26 27 29
40: 1 33 35 4 7 41 42 43 44 45 14 15 48 50 19 21 9 36 26 47 10
41: 32 1 3 36 5 6 40 43 46 47 48 49 22 24 26 37 31
42: 1 34 4 40 11 2 46 15 16 18 20 21 22 24 25 26 28 36
43: 3 33 35 36 38 7 40 41 39 13 45 16 50 19 1 23 25
44: 1 2 3 4 17 40 9 12 49 21 25 26 36 30 31
45: 1 2 35 38 6 8 10 43 34 14 15 48 40 3 20 22 27 29 30 16
46: 1 2 3 37 6 7 8 41 42 11 14 15 16 49 24 10 30
47: 1 4 40 41 16 49 18 20 21 22 23
48: 1 2 33 6 7 40 9 12 45 20 41 26
49: 32 1 4 6 39 12 23 44 13 46 47 19 20 41 27 28 29 31
50: 3 36 37 38 39 40 43 13 15 19 22 23 24 25 26 29 30
-------
1(-1)->2 3 4 5 6 7 8 9 10 11 12 13 14 15 16 17 18 19 20 21 22 23 24 25 26 27 28 29 30 31 32 33 34 35 36 37 38 39 40 41 42 43 44 45 46 47 48 49 
2(-1)->1 3 4 5 6 7 8 9 10 11 12 13 14 15 16 17 18 19 20 21 22 23 24 25 26 27 28 29 30 31 32 33 34 35 36 37 39 42 44 45 46 48 
3(-1)->1 2 4 5 6 7 10 11 12 13 14 15 18 19 20 22 24 25 27 28 30 33 35 36 38 41 43 44 45 46 50 
4(-1)->1 2 3 5 6 7 10 12 13 15 16 18 19 27 28 29 32 40 42 44 47 49 
5(-1)->1 2 3 4 6 9 12 13 14 15 20 25 27 34 41 
6(-1)->1 2 3 4 5 9 14 15 20 26 27 30 32 33 34 35 38 41 45 46 48 49 
7(-1)->1 2 3 4 13 16 17 18 23 24 26 27 28 36 40 43 46 48 
8(-1)->1 2 9 19 22 26 27 28 34 36 38 39 45 46 
9(-1)->1 2 5 6 8 12 13 14 16 17 20 28 29 30 32 33 35 36 37 40 44 48 
10(-1)->1 2 3 4 15 22 29 33 40 45 46 
11(-1)->1 2 3 17 19 22 23 26 29 31 34 38 42 46 
12(-1)->1 2 3 4 5 9 24 25 29 33 37 44 48 49 
13(-1)->1 2 3 4 5 7 9 16 24 28 33 35 36 38 39 43 49 50 
14(-1)->1 2 3 5 6 9 18 28 30 31 33 40 45 46 
15(-1)->1 2 3 4 5 6 10 18 20 25 28 40 42 45 46 50 
16(-1)->1 2 4 7 9 13 17 20 22 29 30 32 33 36 37 42 43 45 46 47 
17(-1)->1 2 7 9 11 16 20 24 28 32 36 38 44 
18(-1)->1 2 3 4 7 14 15 19 21 22 26 29 30 31 42 47 
19(-1)->1 2 3 4 8 11 18 22 25 27 29 36 38 40 43 49 50 
20(-1)->1 2 3 5 6 9 15 16 17 22 27 29 34 36 42 45 47 48 49 
21(-1)->1 2 18 24 25 29 31 32 33 35 37 38 40 42 44 47 
22(-1)->1 2 3 8 10 11 16 18 19 20 25 29 33 34 39 41 42 45 47 50 
23(-1)->1 2 7 11 25 29 30 31 33 36 37 43 47 49 50 
24(-1)->1 2 3 7 12 13 17 21 41 42 46 50 
25(-1)->1 2 3 5 12 15 19 21 22 23 26 33 38 42 43 44 50 
26(-1)->1 2 6 7 8 11 18 25 27 30 36 37 38 39 40 41 42 44 48 50 
27(-1)->1 2 3 4 5 6 7 8 19 20 26 28 32 39 45 49 
28(-1)->1 2 3 4 7 8 9 13 14 15 17 27 29 34 42 49 
29(-1)->1 2 4 9 10 11 12 16 18 19 20 21 22 23 28 30 31 35 39 45 49 50 
30(-1)->1 2 3 6 9 14 16 18 23 26 29 37 44 45 46 50 
31(-1)->1 2 11 14 18 21 23 29 32 35 38 41 44 49 
32(-1)->1 2 4 6 9 16 17 21 27 31 38 41 49 
33(-1)->1 2 3 6 9 10 12 13 14 16 21 22 23 25 36 40 43 48 
34(-1)->1 2 5 6 8 11 20 22 28 35 36 42 45 
35(-1)->1 2 3 6 9 13 21 29 31 34 36 37 40 43 45 
36(-1)->1 2 3 7 8 9 13 16 17 19 20 23 26 33 34 35 37 38 40 41 42 43 44 50 
37(-1)->1 2 9 12 16 21 23 26 30 35 36 38 41 46 50 
38(-1)->1 3 6 8 11 13 17 19 21 25 26 31 32 36 37 43 45 50 
39(-1)->1 2 8 13 22 26 27 29 43 49 50 
40(-1)->1 4 7 9 10 14 15 19 21 26 33 35 36 41 42 43 44 45 47 48 50 
41(-1)->1 3 5 6 22 24 26 31 32 36 37 40 43 46 47 48 49 
42(-1)->1 2 4 11 15 16 18 20 21 22 24 25 26 28 34 36 40 46 
43(-1)->1 3 7 13 16 19 23 25 33 35 36 38 39 40 41 45 50 
44(-1)->1 2 3 4 9 12 17 21 25 26 30 31 36 40 49 
45(-1)->1 2 3 6 8 10 14 15 16 20 22 27 29 30 34 35 38 40 43 48 
46(-1)->1 2 3 6 7 8 10 11 14 15 16 24 30 37 41 42 49 
47(-1)->1 4 16 18 20 21 22 23 40 41 49 
48(-1)->1 2 6 7 9 12 20 26 33 40 41 45 
49(-1)->1 4 6 12 13 19 20 23 27 28 29 31 32 39 41 44 46 47 
50(-1)->3 13 15 19 22 23 24 25 26 29 30 36 37 38 39 40 43 
-------
Node 1 maps to position 0
Node 2 maps to position 1
Node 3 maps to position 2
Node 36 maps to position 3
Node 9 maps to position 4
Node 6 maps to position 5
Node 4 maps to position 6
Node 29 maps to position 7
Node 16 maps to position 8
Node 22 maps to position 9
Node 45 maps to position 10
Node 40 maps to position 11
Node 26 maps to position 12
Node 7 maps to position 13
Node 13 maps to position 14
Node 33 maps to position 15
Node 25 maps to position 16
Node 38 maps to position 17
Node 19 maps to position 18
Node 49 maps to position 19
Node 20 maps to position 20
Node 42 maps to position 21
Node 46 maps to position 22
Node 41 maps to position 23
Node 43 maps to position 24
Node 50 maps to position 25
Node 15 maps to position 26
Node 18 maps to position 27
Node 21 maps to position 28
Node 35 maps to position 29
Node 37 maps to position 30
Node 30 maps to position 31
Node 23 maps to position 32
Node 11 maps to position 33
Node 31 maps to position 34
Node 44 maps to position 35
Node 12 maps to position 36
Node 5 maps to position 37
Node 27 maps to position 38
Node 28 maps to position 39
Node 8 maps to position 40
Node 34 maps to position 41
Node 14 maps to position 42
Node 17 maps to position 43
Node 32 maps to position 44
Node 24 maps to position 45
Node 48 maps to position 46
Node 10 maps to position 47
Node 39 maps to position 48
Node 47 maps to position 49
1(-1)->2 3 4 5 6 7 8 9 10 11 12 13 14 15 16 17 18 19 20 21 22 23 24 25 26 27 28 29 30 31 32 33 34 35 36 37 38 39 40 41 42 43 44 45 46 47 48 49 
2(-1)->1 3 4 5 6 7 8 9 10 11 12 13 14 15 16 17 18 19 20 21 22 23 24 25 26 27 28 29 30 31 32 33 34 35 36 37 39 42 44 45 46 48 
3(-1)->1 2 4 5 6 7 10 11 12 13 14 15 18 19 20 22 24 25 27 28 30 33 35 36 38 41 43 44 45 46 50 
36(-1)->1 2 3 7 8 9 13 16 17 19 20 23 26 33 34 35 37 38 40 41 42 43 44 50 
9(-1)->1 2 5 6 8 12 13 14 16 17 20 28 29 30 32 33 35 36 37 40 44 48 
6(-1)->1 2 3 4 5 9 14 15 20 26 27 30 32 33 34 35 38 41 45 46 48 49 
4(-1)->1 2 3 5 6 7 10 12 13 15 16 18 19 27 28 29 32 40 42 44 47 49 
29(-1)->1 2 4 9 10 11 12 16 18 19 20 21 22 23 28 30 31 35 39 45 49 50 
16(-1)->1 2 4 7 9 13 17 20 22 29 30 32 33 36 37 42 43 45 46 47 
22(-1)->1 2 3 8 10 11 16 18 19 20 25 29 33 34 39 41 42 45 47 50 
45(-1)->1 2 3 6 8 10 14 15 16 20 22 27 29 30 34 35 38 40 43 48 
40(-1)->1 4 7 9 10 14 15 19 21 26 33 35 36 41 42 43 44 45 47 48 50 
26(-1)->1 2 6 7 8 11 18 25 27 30 36 37 38 39 40 41 42 44 48 50 
7(-1)->1 2 3 4 13 16 17 18 23 24 26 27 28 36 40 43 46 48 
13(-1)->1 2 3 4 5 7 9 16 24 28 33 35 36 38 39 43 49 50 
33(-1)->1 2 3 6 9 10 12 13 14 16 21 22 23 25 36 40 43 48 
25(-1)->1 2 3 5 12 15 19 21 22 23 26 33 38 42 43 44 50 
38(-1)->1 3 6 8 11 13 17 19 21 25 26 31 32 36 37 43 45 50 
19(-1)->1 2 3 4 8 11 18 22 25 27 29 36 38 40 43 49 50 
49(-1)->1 4 6 12 13 19 20 23 27 28 29 31 32 39 41 44 46 47 
20(-1)->1 2 3 5 6 9 15 16 17 22 27 29 34 36 42 45 47 48 49 
42(-1)->1 2 4 11 15 16 18 20 21 22 24 25 26 28 34 36 40 46 
46(-1)->1 2 3 6 7 8 10 11 14 15 16 24 30 37 41 42 49 
41(-1)->1 3 5 6 22 24 26 31 32 36 37 40 43 46 47 48 49 
43(-1)->1 3 7 13 16 19 23 25 33 35 36 38 39 40 41 45 50 
50(-1)->3 13 15 19 22 23 24 25 26 29 30 36 37 38 39 40 43 
15(-1)->1 2 3 4 5 6 10 18 20 25 28 40 42 45 46 50 
18(-1)->1 2 3 4 7 14 15 19 21 22 26 29 30 31 42 47 
21(-1)->1 2 18 24 25 29 31 32 33 35 37 38 40 42 44 47 
35(-1)->1 2 3 6 9 13 21 29 31 34 36 37 40 43 45 
37(-1)->1 2 9 12 16 21 23 26 30 35 36 38 41 46 50 
30(-1)->1 2 3 6 9 14 16 18 23 26 29 37 44 45 46 50 
23(-1)->1 2 7 11 25 29 30 31 33 36 37 43 47 49 50 
11(-1)->1 2 3 17 19 22 23 26 29 31 34 38 42 46 
31(-1)->1 2 11 14 18 21 23 29 32 35 38 41 44 49 
44(-1)->1 2 3 4 9 12 17 21 25 26 30 31 36 40 49 
12(-1)->1 2 3 4 5 9 24 25 29 33 37 44 48 49 
5(-1)->1 2 3 4 6 9 12 13 14 15 20 25 27 34 41 
27(-1)->1 2 3 4 5 6 7 8 19 20 26 28 32 39 45 49 
28(-1)->1 2 3 4 7 8 9 13 14 15 17 27 29 34 42 49 
8(-1)->1 2 9 19 22 26 27 28 34 36 38 39 45 46 
34(-1)->1 2 5 6 8 11 20 22 28 35 36 42 45 
14(-1)->1 2 3 5 6 9 18 28 30 31 33 40 45 46 
17(-1)->1 2 7 9 11 16 20 24 28 32 36 38 44 
32(-1)->1 2 4 6 9 16 17 21 27 31 38 41 49 
24(-1)->1 2 3 7 12 13 17 21 41 42 46 50 
48(-1)->1 2 6 7 9 12 20 26 33 40 41 45 
10(-1)->1 2 3 4 15 22 29 33 40 45 46 
39(-1)->1 2 8 13 22 26 27 29 43 49 50 
47(-1)->1 4 16 18 20 21 22 23 40 41 49 
-------
BLAH
START TIME: 1433711953
10000
20000
30000
40000
50000
60000
70000
80000
90000
100000
110000
120000
130000
140000
150000
160000
170000
180000
190000
200000
210000
220000
230000
240000
250000
260000
270000
280000
290000
300000
310000
320000
330000
340000
350000
360000
370000
380000
390000
400000
410000
420000
430000
440000
450000
460000
470000
480000
490000
500000
510000
520000
530000
540000
550000
560000
570000
580000
590000
600000
610000
620000
630000
640000
650000
660000
670000
680000
690000
700000
710000
720000
730000
740000
750000
760000
770000
780000
790000
800000
810000
820000
830000
840000
850000
860000
870000
880000
890000
900000
910000
920000
930000
940000
950000
960000
970000
980000
1(0)->2 3 4 5 6 7 8 9 10 11 12 13 14 15 16 17 18 19 20 21 22 23 24 25 26 27 28 29 30 31 32 33 34 35 36 37 38 39 40 41 42 43 44 45 46 47 48 49 
2(1)->1 3 4 5 6 7 8 9 10 11 12 13 14 15 16 17 18 19 20 21 22 23 24 25 26 27 28 29 30 31 32 33 34 35 36 37 39 42 44 45 46 48 
3(2)->1 2 4 5 6 7 10 11 12 13 14 15 18 19 20 22 24 25 27 28 30 33 35 36 38 41 43 44 45 46 50 
4(3)->1 2 3 5 6 7 10 12 13 15 16 18 19 27 28 29 32 40 42 44 47 49 
5(6)->1 2 3 4 6 9 12 13 14 15 20 25 27 34 41 
6(4)->1 2 3 4 5 9 14 15 20 26 27 30 32 33 34 35 38 41 45 46 48 49 
7(6)->1 2 3 4 13 16 17 18 23 24 26 27 28 36 40 43 46 48 
8(4)->1 2 9 19 22 26 27 28 34 36 38 39 45 46 
9(2)->1 2 5 6 8 12 13 14 16 17 20 28 29 30 32 33 35 36 37 40 44 48 
10(7)->1 2 3 4 15 22 29 33 40 45 46 
11(4)->1 2 3 17 19 22 23 26 29 31 34 38 42 46 
12(7)->1 2 3 4 5 9 24 25 29 33 37 44 48 49 
13(5)->1 2 3 4 5 7 9 16 24 28 33 35 36 38 39 43 49 50 
14(5)->1 2 3 5 6 9 18 28 30 31 33 40 45 46 
15(5)->1 2 3 4 5 6 10 18 20 25 28 40 42 45 46 50 
16(4)->1 2 4 7 9 13 17 20 22 29 30 32 33 36 37 42 43 45 46 47 
17(5)->1 2 7 9 11 16 20 24 28 32 36 38 44 
18(4)->1 2 3 4 7 14 15 19 21 22 26 29 30 31 42 47 
19(6)->1 2 3 4 8 11 18 22 25 27 29 36 38 40 43 49 50 
20(7)->1 2 3 5 6 9 15 16 17 22 27 29 34 36 42 45 47 48 49 
21(2)->1 2 18 24 25 29 31 32 33 35 37 38 40 42 44 47 
22(3)->1 2 3 8 10 11 16 18 19 20 25 29 33 34 39 41 42 45 47 50 
23(2)->1 2 7 11 25 29 30 31 33 36 37 43 47 49 50 
24(4)->1 2 3 7 12 13 17 21 41 42 46 50 
25(4)->1 2 3 5 12 15 19 21 22 23 26 33 38 42 43 44 50 
26(2)->1 2 6 7 8 11 18 25 27 30 36 37 38 39 40 41 42 44 48 50 
27(5)->1 2 3 4 5 6 7 8 19 20 26 28 32 39 45 49 
28(7)->1 2 3 4 7 8 9 13 14 15 17 27 29 34 42 49 
29(5)->1 2 4 9 10 11 12 16 18 19 20 21 22 23 28 30 31 35 39 45 49 50 
30(7)->1 2 3 6 9 14 16 18 23 26 29 37 44 45 46 50 
31(3)->1 2 11 14 18 21 23 29 32 35 38 41 44 49 
32(6)->1 2 4 6 9 16 17 21 27 31 38 41 49 
33(6)->1 2 3 6 9 10 12 13 14 16 21 22 23 25 36 40 43 48 
34(2)->1 2 5 6 8 11 20 22 28 35 36 42 45 
35(7)->1 2 3 6 9 13 21 29 31 34 36 37 40 43 45 
36(3)->1 2 3 7 8 9 13 16 17 19 20 23 26 33 34 35 37 38 40 41 42 43 44 50 
37(6)->1 2 9 12 16 21 23 26 30 35 36 38 41 46 50 
38(7)->1 3 6 8 11 13 17 19 21 25 26 31 32 36 37 43 45 50 
39(6)->1 2 8 13 22 26 27 29 43 49 50 
40(4)->1 4 7 9 10 14 15 19 21 26 33 35 36 41 42 43 44 45 47 48 50 
41(5)->1 3 5 6 22 24 26 31 32 36 37 40 43 46 47 48 49 
42(6)->1 2 4 11 15 16 18 20 21 22 24 25 26 28 34 36 40 46 
43(1)->1 3 7 13 16 19 23 25 33 35 36 38 39 40 41 45 50 
44(6)->1 2 3 4 9 12 17 21 25 26 30 31 36 40 49 
45(6)->1 2 3 6 8 10 14 15 16 20 22 27 29 30 34 35 38 40 43 48 
46(3)->1 2 3 6 7 8 10 11 14 15 16 24 30 37 41 42 49 
47(6)->1 4 16 18 20 21 22 23 40 41 49 
48(3)->1 2 6 7 9 12 20 26 33 40 41 45 
49(1)->1 4 6 12 13 19 20 23 27 28 29 31 32 39 41 44 46 47 
50(0)->3 13 15 19 22 23 24 25 26 29 30 36 37 38 39 40 43 
COUNT: 989026
COLORS: 8
EDGES: 450
8
989026
