1: 2 3 4 5 6 7 8 9 10 11 12 13 14 15 16 17 18 19 20 21 22 23 24 25 26 27 28 29 30 31 32 33 34 35 36 37 38 39 40 41 42 43 44 45 46 47 48 49
2: 1 3 4 5 6 7 8 9 10 11 12 13 14 15 16 17 18 19 20 21 22 23 24 25 26 27 28 30 31 36 38 39 40 41 42 43 48 49
3: 1 2 4 5 6 7 8 9 10 11 12 13 14 16 17 18 22 26 28 30 31 33 36 38 39 41 44 48
4: 32 1 34 3 36 37 6 7 9 11 12 2 15 16 17 20 21 22 39 28 5
5: 1 2 3 4 6 7 9 10 11 16 18 22 24 26 33 34 37 38 41 42 44 46 48
6: 1 2 35 36 5 42 11 45 14 15 48 3 20 23 4 27 28 29 30
7: 33 2 3 4 5 1 41 11 12 45 15 43 35 27 28 13
8: 32 1 2 3 33 40 39 45 47 48 11 50 21 25 30 31
9: 1 2 3 4 5 10 11 13 14 15 16 19 21 24 25 27 34 38 40 43 45 47
10: 1 2 3 36 5 9 13 14 45 17 18 20 21 22 23 27 29 30
11: 1 2 3 4 5 6 7 8 9 13 46 18 41 36 30
12: 1 2 3 4 7 41 42 43 13 47 16 49 21 24 36 28 29 30
13: 1 2 43 7 12 10 23 44 14 15 11 3 41 9 24 26 31
14: 1 34 3 6 38 40 9 10 2 13 20 21 22 24 25 27 28 30 37
15: 1 34 35 4 37 38 7 9 39 13 47 43 18 2 24 36 6 30
16: 32 1 2 3 4 5 9 12 47 48 19 22 24 27 31
17: 3 33 2 35 36 37 39 10 44 50 19 1 22 4 30 21
18: 32 33 34 3 1 37 38 39 41 10 43 2 15 11 21 23 25 5 30 31
19: 48 2 36 1 9 45 47 16 17 20 22 27 30 31
20: 1 2 36 6 38 40 41 10 14 48 19 21 24 4 26
21: 1 2 4 8 9 10 12 14 17 18 20 23 26 27 28 29 38 39 40 43 47 49
22: 3 16 2 35 4 37 1 33 10 44 14 48 49 19 17 24 25 42 5
23: 33 2 36 6 1 41 10 44 45 13 18 21 47
24: 1 2 5 9 12 13 14 15 16 20 22 27 30 32 38 39 40 42 44 46 49 50
25: 33 34 36 37 38 39 8 9 44 2 14 48 18 1 22
26: 32 1 34 3 5 39 42 2 13 46 48 50 20 21
27: 1 34 35 6 38 7 41 10 2 14 47 16 49 19 21 9 24 28 29
28: 32 1 2 3 4 38 6 7 42 39 12 14 21 27 29 30
29: 1 37 6 42 12 45 46 48 21 27 28 10
30: 33 2 3 6 38 1 8 10 11 12 34 46 15 17 18 19 14 24 28 42
31: 33 2 3 37 1 8 41 43 13 47 16 40 18 19
32: 33 34 4 1 8 41 44 16 49 18 40 24 26 28
33: 32 1 3 5 7 8 41 44 45 17 18 22 23 25 30 31
34: 32 1 4 5 47 40 9 42 45 14 15 48 49 18 25 36 26 27 30
35: 1 17 6 38 7 15 46 47 48 49 50 22 27
36: 1 34 3 4 37 6 49 12 10 11 44 2 47 17 19 20 23 25 15
37: 1 36 5 17 39 45 14 47 49 18 22 25 15 29 4 31
38: 1 2 35 5 39 15 9 42 14 47 40 18 3 20 21 41 24 25 27 28 30
39: 1 2 3 4 37 38 8 44 15 17 18 21 24 25 26 28
40: 32 1 34 38 8 9 2 45 14 49 20 21 24 31
41: 32 33 2 3 1 5 38 7 42 11 12 45 46 47 18 20 23 27 13 31
42: 1 34 5 38 41 12 2 47 26 22 24 6 28 29 30
43: 1 2 7 9 18 12 13 45 49 50 21 15 31
44: 32 33 3 36 5 17 39 13 49 50 1 22 23 24 25
45: 33 34 1 37 6 7 40 9 10 43 47 8 50 19 41 23 29
46: 1 35 5 41 11 48 24 26 29 30
47: 1 34 35 36 37 38 8 41 42 12 45 15 16 50 19 9 21 23 27 31
48: 3 1 34 35 5 6 8 2 46 16 19 20 22 25 26 29
49: 32 1 34 35 36 37 40 12 43 44 2 21 22 24 27
50: 35 8 43 44 45 47 17 24 26
-------
1(-1)->2 3 4 5 6 7 8 9 10 11 12 13 14 15 16 17 18 19 20 21 22 23 24 25 26 27 28 29 30 31 32 33 34 35 36 37 38 39 40 41 42 43 44 45 46 47 48 49 
2(-1)->1 3 4 5 6 7 8 9 10 11 12 13 14 15 16 17 18 19 20 21 22 23 24 25 26 27 28 30 31 36 38 39 40 41 42 43 48 49 
3(-1)->1 2 4 5 6 7 8 9 10 11 12 13 14 16 17 18 22 26 28 30 31 33 36 38 39 41 44 48 
4(-1)->1 2 3 5 6 7 9 11 12 15 16 17 20 21 22 28 32 34 36 37 39 
5(-1)->1 2 3 4 6 7 9 10 11 16 18 22 24 26 33 34 37 38 41 42 44 46 48 
6(-1)->1 2 3 4 5 11 14 15 20 23 27 28 29 30 35 36 42 45 48 
7(-1)->1 2 3 4 5 11 12 13 15 27 28 33 35 41 43 45 
8(-1)->1 2 3 11 21 25 30 31 32 33 39 40 45 47 48 50 
9(-1)->1 2 3 4 5 10 11 13 14 15 16 19 21 24 25 27 34 38 40 43 45 47 
10(-1)->1 2 3 5 9 13 14 17 18 20 21 22 23 27 29 30 36 45 
11(-1)->1 2 3 4 5 6 7 8 9 13 18 30 36 41 46 
12(-1)->1 2 3 4 7 13 16 21 24 28 29 30 36 41 42 43 47 49 
13(-1)->1 2 3 7 9 10 11 12 14 15 23 24 26 31 41 43 44 
14(-1)->1 2 3 6 9 10 13 20 21 22 24 25 27 28 30 34 37 38 40 
15(-1)->1 2 4 6 7 9 13 18 24 30 34 35 36 37 38 39 43 47 
16(-1)->1 2 3 4 5 9 12 19 22 24 27 31 32 47 48 
17(-1)->1 2 3 4 10 19 21 22 30 33 35 36 37 39 44 50 
18(-1)->1 2 3 5 10 11 15 21 23 25 30 31 32 33 34 37 38 39 41 43 
19(-1)->1 2 9 16 17 20 22 27 30 31 36 45 47 48 
20(-1)->1 2 4 6 10 14 19 21 24 26 36 38 40 41 48 
21(-1)->1 2 4 8 9 10 12 14 17 18 20 23 26 27 28 29 38 39 40 43 47 49 
22(-1)->1 2 3 4 5 10 14 16 17 19 24 25 33 35 37 42 44 48 49 
23(-1)->1 2 6 10 13 18 21 33 36 41 44 45 47 
24(-1)->1 2 5 9 12 13 14 15 16 20 22 27 30 32 38 39 40 42 44 46 49 50 
25(-1)->1 2 8 9 14 18 22 33 34 36 37 38 39 44 48 
26(-1)->1 2 3 5 13 20 21 32 34 39 42 46 48 50 
27(-1)->1 2 6 7 9 10 14 16 19 21 24 28 29 34 35 38 41 47 49 
28(-1)->1 2 3 4 6 7 12 14 21 27 29 30 32 38 39 42 
29(-1)->1 6 10 12 21 27 28 37 42 45 46 48 
30(-1)->1 2 3 6 8 10 11 12 14 15 17 18 19 24 28 33 34 38 42 46 
31(-1)->1 2 3 8 13 16 18 19 33 37 40 41 43 47 
32(-1)->1 4 8 16 18 24 26 28 33 34 40 41 44 49 
33(-1)->1 3 5 7 8 17 18 22 23 25 30 31 32 41 44 45 
34(-1)->1 4 5 9 14 15 18 25 26 27 30 32 36 40 42 45 47 48 49 
35(-1)->1 6 7 15 17 22 27 38 46 47 48 49 50 
36(-1)->1 2 3 4 6 10 11 12 15 17 19 20 23 25 34 37 44 47 49 
37(-1)->1 4 5 14 15 17 18 22 25 29 31 36 39 45 47 49 
38(-1)->1 2 3 5 9 14 15 18 20 21 24 25 27 28 30 35 39 40 41 42 47 
39(-1)->1 2 3 4 8 15 17 18 21 24 25 26 28 37 38 44 
40(-1)->1 2 8 9 14 20 21 24 31 32 34 38 45 49 
41(-1)->1 2 3 5 7 11 12 13 18 20 23 27 31 32 33 38 42 45 46 47 
42(-1)->1 2 5 6 12 22 24 26 28 29 30 34 38 41 47 
43(-1)->1 2 7 9 12 13 15 18 21 31 45 49 50 
44(-1)->1 3 5 13 17 22 23 24 25 32 33 36 39 49 50 
45(-1)->1 6 7 8 9 10 19 23 29 33 34 37 40 41 43 47 50 
46(-1)->1 5 11 24 26 29 30 35 41 48 
47(-1)->1 8 9 12 15 16 19 21 23 27 31 34 35 36 37 38 41 42 45 50 
48(-1)->1 2 3 5 6 8 16 19 20 22 25 26 29 34 35 46 
49(-1)->1 2 12 21 22 24 27 32 34 35 36 37 40 43 44 
50(-1)->8 17 24 26 35 43 44 45 47 
-------
Node 1 maps to position 0
Node 2 maps to position 1
Node 3 maps to position 2
Node 5 maps to position 3
Node 9 maps to position 4
Node 21 maps to position 5
Node 4 maps to position 6
Node 6 maps to position 7
Node 30 maps to position 8
Node 24 maps to position 9
Node 38 maps to position 10
Node 18 maps to position 11
Node 41 maps to position 12
Node 47 maps to position 13
Node 27 maps to position 14
Node 14 maps to position 15
Node 22 maps to position 16
Node 10 maps to position 17
Node 36 maps to position 18
Node 34 maps to position 19
Node 15 maps to position 20
Node 13 maps to position 21
Node 12 maps to position 22
Node 7 maps to position 23
Node 45 maps to position 24
Node 8 maps to position 25
Node 33 maps to position 26
Node 17 maps to position 27
Node 37 maps to position 28
Node 39 maps to position 29
Node 28 maps to position 30
Node 42 maps to position 31
Node 26 maps to position 32
Node 48 maps to position 33
Node 16 maps to position 34
Node 19 maps to position 35
Node 20 maps to position 36
Node 40 maps to position 37
Node 49 maps to position 38
Node 44 maps to position 39
Node 25 maps to position 40
Node 11 maps to position 41
Node 46 maps to position 42
Node 35 maps to position 43
Node 50 maps to position 44
Node 43 maps to position 45
Node 31 maps to position 46
Node 32 maps to position 47
Node 23 maps to position 48
Node 29 maps to position 49
1(-1)->2 3 4 5 6 7 8 9 10 11 12 13 14 15 16 17 18 19 20 21 22 23 24 25 26 27 28 29 30 31 32 33 34 35 36 37 38 39 40 41 42 43 44 45 46 47 48 49 
2(-1)->1 3 4 5 6 7 8 9 10 11 12 13 14 15 16 17 18 19 20 21 22 23 24 25 26 27 28 30 31 36 38 39 40 41 42 43 48 49 
3(-1)->1 2 4 5 6 7 8 9 10 11 12 13 14 16 17 18 22 26 28 30 31 33 36 38 39 41 44 48 
5(-1)->1 2 3 4 6 7 9 10 11 16 18 22 24 26 33 34 37 38 41 42 44 46 48 
9(-1)->1 2 3 4 5 10 11 13 14 15 16 19 21 24 25 27 34 38 40 43 45 47 
21(-1)->1 2 4 8 9 10 12 14 17 18 20 23 26 27 28 29 38 39 40 43 47 49 
4(-1)->1 2 3 5 6 7 9 11 12 15 16 17 20 21 22 28 32 34 36 37 39 
6(-1)->1 2 3 4 5 11 14 15 20 23 27 28 29 30 35 36 42 45 48 
30(-1)->1 2 3 6 8 10 11 12 14 15 17 18 19 24 28 33 34 38 42 46 
24(-1)->1 2 5 9 12 13 14 15 16 20 22 27 30 32 38 39 40 42 44 46 49 50 
38(-1)->1 2 3 5 9 14 15 18 20 21 24 25 27 28 30 35 39 40 41 42 47 
18(-1)->1 2 3 5 10 11 15 21 23 25 30 31 32 33 34 37 38 39 41 43 
41(-1)->1 2 3 5 7 11 12 13 18 20 23 27 31 32 33 38 42 45 46 47 
47(-1)->1 8 9 12 15 16 19 21 23 27 31 34 35 36 37 38 41 42 45 50 
27(-1)->1 2 6 7 9 10 14 16 19 21 24 28 29 34 35 38 41 47 49 
14(-1)->1 2 3 6 9 10 13 20 21 22 24 25 27 28 30 34 37 38 40 
22(-1)->1 2 3 4 5 10 14 16 17 19 24 25 33 35 37 42 44 48 49 
10(-1)->1 2 3 5 9 13 14 17 18 20 21 22 23 27 29 30 36 45 
36(-1)->1 2 3 4 6 10 11 12 15 17 19 20 23 25 34 37 44 47 49 
34(-1)->1 4 5 9 14 15 18 25 26 27 30 32 36 40 42 45 47 48 49 
15(-1)->1 2 4 6 7 9 13 18 24 30 34 35 36 37 38 39 43 47 
13(-1)->1 2 3 7 9 10 11 12 14 15 23 24 26 31 41 43 44 
12(-1)->1 2 3 4 7 13 16 21 24 28 29 30 36 41 42 43 47 49 
7(-1)->1 2 3 4 5 11 12 13 15 27 28 33 35 41 43 45 
45(-1)->1 6 7 8 9 10 19 23 29 33 34 37 40 41 43 47 50 
8(-1)->1 2 3 11 21 25 30 31 32 33 39 40 45 47 48 50 
33(-1)->1 3 5 7 8 17 18 22 23 25 30 31 32 41 44 45 
17(-1)->1 2 3 4 10 19 21 22 30 33 35 36 37 39 44 50 
37(-1)->1 4 5 14 15 17 18 22 25 29 31 36 39 45 47 49 
39(-1)->1 2 3 4 8 15 17 18 21 24 25 26 28 37 38 44 
28(-1)->1 2 3 4 6 7 12 14 21 27 29 30 32 38 39 42 
42(-1)->1 2 5 6 12 22 24 26 28 29 30 34 38 41 47 
26(-1)->1 2 3 5 13 20 21 32 34 39 42 46 48 50 
48(-1)->1 2 3 5 6 8 16 19 20 22 25 26 29 34 35 46 
16(-1)->1 2 3 4 5 9 12 19 22 24 27 31 32 47 48 
19(-1)->1 2 9 16 17 20 22 27 30 31 36 45 47 48 
20(-1)->1 2 4 6 10 14 19 21 24 26 36 38 40 41 48 
40(-1)->1 2 8 9 14 20 21 24 31 32 34 38 45 49 
49(-1)->1 2 12 21 22 24 27 32 34 35 36 37 40 43 44 
44(-1)->1 3 5 13 17 22 23 24 25 32 33 36 39 49 50 
25(-1)->1 2 8 9 14 18 22 33 34 36 37 38 39 44 48 
11(-1)->1 2 3 4 5 6 7 8 9 13 18 30 36 41 46 
46(-1)->1 5 11 24 26 29 30 35 41 48 
35(-1)->1 6 7 15 17 22 27 38 46 47 48 49 50 
50(-1)->8 17 24 26 35 43 44 45 47 
43(-1)->1 2 7 9 12 13 15 18 21 31 45 49 50 
31(-1)->1 2 3 8 13 16 18 19 33 37 40 41 43 47 
32(-1)->1 4 8 16 18 24 26 28 33 34 40 41 44 49 
23(-1)->1 2 6 10 13 18 21 33 36 41 44 45 47 
29(-1)->1 6 10 12 21 27 28 37 42 45 46 48 
-------
BLAH
START TIME: 1433711994
10000
20000
30000
40000
50000
60000
70000
80000
90000
100000
110000
120000
130000
140000
150000
160000
170000
180000
190000
200000
210000
220000
230000
240000
250000
260000
270000
280000
290000
300000
310000
320000
330000
340000
350000
360000
370000
380000
390000
400000
410000
420000
430000
440000
450000
460000
470000
480000
490000
500000
510000
520000
530000
540000
550000
560000
570000
580000
590000
600000
1(0)->2 3 4 5 6 7 8 9 10 11 12 13 14 15 16 17 18 19 20 21 22 23 24 25 26 27 28 29 30 31 32 33 34 35 36 37 38 39 40 41 42 43 44 45 46 47 48 49 
2(1)->1 3 4 5 6 7 8 9 10 11 12 13 14 15 16 17 18 19 20 21 22 23 24 25 26 27 28 30 31 36 38 39 40 41 42 43 48 49 
3(2)->1 2 4 5 6 7 8 9 10 11 12 13 14 16 17 18 22 26 28 30 31 33 36 38 39 41 44 48 
4(5)->1 2 3 5 6 7 9 11 12 15 16 17 20 21 22 28 32 34 36 37 39 
5(3)->1 2 3 4 6 7 9 10 11 16 18 22 24 26 33 34 37 38 41 42 44 46 48 
6(6)->1 2 3 4 5 11 14 15 20 23 27 28 29 30 35 36 42 45 48 
7(6)->1 2 3 4 5 11 12 13 15 27 28 33 35 41 43 45 
8(6)->1 2 3 11 21 25 30 31 32 33 39 40 45 47 48 50 
9(4)->1 2 3 4 5 10 11 13 14 15 16 19 21 24 25 27 34 38 40 43 45 47 
10(6)->1 2 3 5 9 13 14 17 18 20 21 22 23 27 29 30 36 45 
11(7)->1 2 3 4 5 6 7 8 9 13 18 30 36 41 46 
12(3)->1 2 3 4 7 13 16 21 24 28 29 30 36 41 42 43 47 49 
13(5)->1 2 3 7 9 10 11 12 14 15 23 24 26 31 41 43 44 
14(3)->1 2 3 6 9 10 13 20 21 22 24 25 27 28 30 34 37 38 40 
15(3)->1 2 4 6 7 9 13 18 24 30 34 35 36 37 38 39 43 47 
16(7)->1 2 3 4 5 9 12 19 22 24 27 31 32 47 48 
17(3)->1 2 3 4 10 19 21 22 30 33 35 36 37 39 44 50 
18(5)->1 2 3 5 10 11 15 21 23 25 30 31 32 33 34 37 38 39 41 43 
19(6)->1 2 9 16 17 20 22 27 30 31 36 45 47 48 
20(7)->1 2 4 6 10 14 19 21 24 26 36 38 40 41 48 
21(2)->1 2 4 8 9 10 12 14 17 18 20 23 26 27 28 29 38 39 40 43 47 49 
22(4)->1 2 3 4 5 10 14 16 17 19 24 25 33 35 37 42 44 48 49 
23(3)->1 2 6 10 13 18 21 33 36 41 44 45 47 
24(2)->1 2 5 9 12 13 14 15 16 20 22 27 30 32 38 39 40 42 44 46 49 50 
25(2)->1 2 8 9 14 18 22 33 34 36 37 38 39 44 48 
26(6)->1 2 3 5 13 20 21 32 34 39 42 46 48 50 
27(5)->1 2 6 7 9 10 14 16 19 21 24 28 29 34 35 38 41 47 49 
28(7)->1 2 3 4 6 7 12 14 21 27 29 30 32 38 39 42 
29(4)->1 6 10 12 21 27 28 37 42 45 46 48 
30(4)->1 2 3 6 8 10 11 12 14 15 17 18 19 24 28 33 34 38 42 46 
31(3)->1 2 3 8 13 16 18 19 33 37 40 41 43 47 
32(3)->1 4 8 16 18 24 26 28 33 34 40 41 44 49 
33(1)->1 3 5 7 8 17 18 22 23 25 30 31 32 41 44 45 
34(7)->1 4 5 9 14 15 18 25 26 27 30 32 36 40 42 45 47 48 49 
35(2)->1 6 7 15 17 22 27 38 46 47 48 49 50 
36(4)->1 2 3 4 6 10 11 12 15 17 19 20 23 25 34 37 44 47 49 
37(7)->1 4 5 14 15 17 18 22 25 29 31 36 39 45 47 49 
38(6)->1 2 3 5 9 14 15 18 20 21 24 25 27 28 30 35 39 40 41 42 47 
39(4)->1 2 3 4 8 15 17 18 21 24 25 26 28 37 38 44 
40(5)->1 2 8 9 14 20 21 24 31 32 34 38 45 49 
41(4)->1 2 3 5 7 11 12 13 18 20 23 27 31 32 33 38 42 45 46 47 
42(5)->1 2 5 6 12 22 24 26 28 29 30 34 38 41 47 
43(7)->1 2 7 9 12 13 15 18 21 31 45 49 50 
44(7)->1 3 5 13 17 22 23 24 25 32 33 36 39 49 50 
45(2)->1 6 7 8 9 10 19 23 29 33 34 37 40 41 43 47 50 
46(1)->1 5 11 24 26 29 30 35 41 48 
47(1)->1 8 9 12 15 16 19 21 23 27 31 34 35 36 37 38 41 42 45 50 
48(5)->1 2 3 5 6 8 16 19 20 22 25 26 29 34 35 46 
49(6)->1 2 12 21 22 24 27 32 34 35 36 37 40 43 44 
50(0)->8 17 24 26 35 43 44 45 47 
COUNT: 606311
COLORS: 8
EDGES: 450
8
606311
