1: 2 3 4 5 6 7 8 9 10 11 12 13 14 15 16 17 18 19 20 21 22 23 24 25 26 27 28 29 30 31 32 33 34 35 36 37 38 39 40 41 42 43 44 45 46 47 48 49
2: 1 3 4 5 6 7 8 9 10 11 12 13 14 15 16 17 18 19 20 21 22 23 24 25 26 27 28 29 30 31 32 33 34 36 37 38 39 41 42 43 50
3: 1 2 4 5 6 7 8 9 10 11 12 15 16 17 18 21 23 24 26 28 29 30 32 33 34 36 39 44 45
4: 1 2 3 5 7 8 10 11 16 17 19 22 23 26 28 29 32 34 35 38 41 42 45 47 49
5: 1 2 3 4 6 38 7 8 41 10 11 44 13 48 50 22 24 25 27 28 30
6: 1 2 3 5 7 8 10 12 13 14 21 24 25 26 30 32 35 36 38 42 43 44 45 47 49
7: 1 2 3 4 5 6 8 44 43 12 34 13 16 17 18 19 20 22 29
8: 32 1 2 35 4 37 6 39 7 12 13 14 47 48 3 20 36 27 5
9: 32 33 2 3 37 1 40 45 15 21 22 26
10: 1 2 3 36 5 6 40 12 16 23 25 26 4
11: 1 2 35 4 5 40 12 44 48 17 3 21 25 26 30 37
12: 1 2 3 6 7 8 10 11 13 18 19 20 22 24 29 33 34 37 41 45 46 47 49 50
13: 1 2 5 6 7 8 12 14 16 18 19 20 23 24 25 31 32 33 35 42 43 47 49
14: 1 2 6 8 41 44 13 46 47 16 21 23 24 25 31
15: 1 2 3 36 9 46 47 49 22 41 24 25 27 28
16: 1 2 35 4 33 39 40 42 7 44 13 14 3 21 46 27 10
17: 32 1 2 3 4 7 41 39 45 34 49 19 11 24 27 29
18: 1 2 3 12 7 41 42 44 13 46 47 23 25 29
19: 1 2 35 4 7 39 12 13 45 48 49 20 17 43 25 27 21
20: 1 2 37 39 40 7 12 13 8 19 23 24 26 28 29 30 31
21: 1 2 3 38 6 9 42 11 44 45 14 16 49 19 27
22: 1 2 35 4 5 38 7 9 39 12 15 48 49 50 43 25 27 28 30
23: 1 2 35 36 38 40 10 13 46 47 34 18 3 20 14 4 27 28
24: 32 1 2 3 36 6 38 28 44 12 13 14 15 48 17 50 20 5 30 31
25: 32 1 2 35 5 6 41 10 11 13 14 15 48 50 18 19 22 26 27 28 37
26: 1 2 11 4 6 39 40 9 10 43 44 46 48 50 3 20 25 28 29
27: 1 2 35 5 38 49 8 41 42 15 16 17 19 21 22 23 25
28: 33 34 35 4 5 1 40 43 24 2 47 48 49 3 20 22 23 45 25 26 15
29: 1 2 35 36 49 7 40 42 12 34 17 18 3 20 4 26 30
30: 32 1 2 3 5 6 33 41 11 44 46 50 20 22 24 29
31: 1 2 36 41 43 44 13 46 20 14 24
32: 1 2 3 36 6 38 8 9 42 13 45 17 4 24 25 30
33: 1 2 3 37 16 39 9 12 13 47 48 49 28 30
34: 1 2 35 4 7 40 44 42 12 48 17 3 23 28 29
35: 1 34 4 6 8 42 11 13 16 19 22 23 25 27 28 29
36: 32 1 2 3 6 8 10 15 48 49 23 24 29 31
37: 33 2 1 8 9 42 11 12 20 25
38: 32 1 2 4 5 6 39 46 48 50 21 22 23 24 27
39: 33 2 3 1 38 17 8 46 16 49 50 19 20 22 26
40: 48 34 1 9 10 11 47 16 20 23 26 28 29
41: 1 2 4 5 17 44 12 14 15 48 49 18 25 27 30 31
42: 32 1 34 35 4 37 6 2 44 13 16 18 21 27 29
43: 1 2 6 7 13 46 47 19 22 26 28 31
44: 1 34 3 5 6 7 41 42 11 14 47 16 18 21 24 26 30 31
45: 32 1 3 4 6 9 12 17 19 21 28
46: 1 38 39 43 12 50 14 15 16 18 23 26 47 30 31
47: 33 50 4 6 1 8 12 43 44 13 14 15 48 40 18 46 23 28
48: 33 34 36 5 38 1 8 41 11 47 40 50 19 22 24 25 26 28
49: 33 36 6 39 41 1 12 13 15 17 19 21 22 4 27 28 29
50: 2 5 38 39 12 46 47 48 22 24 25 26 30
-------
1(-1)->2 3 4 5 6 7 8 9 10 11 12 13 14 15 16 17 18 19 20 21 22 23 24 25 26 27 28 29 30 31 32 33 34 35 36 37 38 39 40 41 42 43 44 45 46 47 48 49 
2(-1)->1 3 4 5 6 7 8 9 10 11 12 13 14 15 16 17 18 19 20 21 22 23 24 25 26 27 28 29 30 31 32 33 34 36 37 38 39 41 42 43 50 
3(-1)->1 2 4 5 6 7 8 9 10 11 12 15 16 17 18 21 23 24 26 28 29 30 32 33 34 36 39 44 45 
4(-1)->1 2 3 5 7 8 10 11 16 17 19 22 23 26 28 29 32 34 35 38 41 42 45 47 49 
5(-1)->1 2 3 4 6 7 8 10 11 13 22 24 25 27 28 30 38 41 44 48 50 
6(-1)->1 2 3 5 7 8 10 12 13 14 21 24 25 26 30 32 35 36 38 42 43 44 45 47 49 
7(-1)->1 2 3 4 5 6 8 12 13 16 17 18 19 20 22 29 34 43 44 
8(-1)->1 2 3 4 5 6 7 12 13 14 20 27 32 35 36 37 39 47 48 
9(-1)->1 2 3 15 21 22 26 32 33 37 40 45 
10(-1)->1 2 3 4 5 6 12 16 23 25 26 36 40 
11(-1)->1 2 3 4 5 12 17 21 25 26 30 35 37 40 44 48 
12(-1)->1 2 3 6 7 8 10 11 13 18 19 20 22 24 29 33 34 37 41 45 46 47 49 50 
13(-1)->1 2 5 6 7 8 12 14 16 18 19 20 23 24 25 31 32 33 35 42 43 47 49 
14(-1)->1 2 6 8 13 16 21 23 24 25 31 41 44 46 47 
15(-1)->1 2 3 9 22 24 25 27 28 36 41 46 47 49 
16(-1)->1 2 3 4 7 10 13 14 21 27 33 35 39 40 42 44 46 
17(-1)->1 2 3 4 7 11 19 24 27 29 32 34 39 41 45 49 
18(-1)->1 2 3 7 12 13 23 25 29 41 42 44 46 47 
19(-1)->1 2 4 7 12 13 17 20 21 25 27 35 39 43 45 48 49 
20(-1)->1 2 7 8 12 13 19 23 24 26 28 29 30 31 37 39 40 
21(-1)->1 2 3 6 9 11 14 16 19 27 38 42 44 45 49 
22(-1)->1 2 4 5 7 9 12 15 25 27 28 30 35 38 39 43 48 49 50 
23(-1)->1 2 3 4 10 13 14 18 20 27 28 34 35 36 38 40 46 47 
24(-1)->1 2 3 5 6 12 13 14 15 17 20 28 30 31 32 36 38 44 48 50 
25(-1)->1 2 5 6 10 11 13 14 15 18 19 22 26 27 28 32 35 37 41 48 50 
26(-1)->1 2 3 4 6 9 10 11 20 25 28 29 39 40 43 44 46 48 50 
27(-1)->1 2 5 8 15 16 17 19 21 22 23 25 35 38 41 42 49 
28(-1)->1 2 3 4 5 15 20 22 23 24 25 26 33 34 35 40 43 45 47 48 49 
29(-1)->1 2 3 4 7 12 17 18 20 26 30 34 35 36 40 42 49 
30(-1)->1 2 3 5 6 11 20 22 24 29 32 33 41 44 46 50 
31(-1)->1 2 13 14 20 24 36 41 43 44 46 
32(-1)->1 2 3 4 6 8 9 13 17 24 25 30 36 38 42 45 
33(-1)->1 2 3 9 12 13 16 28 30 37 39 47 48 49 
34(-1)->1 2 3 4 7 12 17 23 28 29 35 40 42 44 48 
35(-1)->1 4 6 8 11 13 16 19 22 23 25 27 28 29 34 42 
36(-1)->1 2 3 6 8 10 15 23 24 29 31 32 48 49 
37(-1)->1 2 8 9 11 12 20 25 33 42 
38(-1)->1 2 4 5 6 21 22 23 24 27 32 39 46 48 50 
39(-1)->1 2 3 8 16 17 19 20 22 26 33 38 46 49 50 
40(-1)->1 9 10 11 16 20 23 26 28 29 34 47 48 
41(-1)->1 2 4 5 12 14 15 17 18 25 27 30 31 44 48 49 
42(-1)->1 2 4 6 13 16 18 21 27 29 32 34 35 37 44 
43(-1)->1 2 6 7 13 19 22 26 28 31 46 47 
44(-1)->1 3 5 6 7 11 14 16 18 21 24 26 30 31 34 41 42 47 
45(-1)->1 3 4 6 9 12 17 19 21 28 32 
46(-1)->1 12 14 15 16 18 23 26 30 31 38 39 43 47 50 
47(-1)->1 4 6 8 12 13 14 15 18 23 28 33 40 43 44 46 48 50 
48(-1)->1 5 8 11 19 22 24 25 26 28 33 34 36 38 40 41 47 50 
49(-1)->1 4 6 12 13 15 17 19 21 22 27 28 29 33 36 39 41 
50(-1)->2 5 12 22 24 25 26 30 38 39 46 47 48 
-------
Node 1 maps to position 0
Node 2 maps to position 1
Node 3 maps to position 2
Node 4 maps to position 3
Node 5 maps to position 4
Node 6 maps to position 5
Node 12 maps to position 6
Node 13 maps to position 7
Node 25 maps to position 8
Node 28 maps to position 9
Node 24 maps to position 10
Node 44 maps to position 11
Node 7 maps to position 12
Node 8 maps to position 13
Node 47 maps to position 14
Node 23 maps to position 15
Node 20 maps to position 16
Node 26 maps to position 17
Node 48 maps to position 18
Node 22 maps to position 19
Node 27 maps to position 20
Node 16 maps to position 21
Node 35 maps to position 22
Node 19 maps to position 23
Node 49 maps to position 24
Node 29 maps to position 25
Node 17 maps to position 26
Node 11 maps to position 27
Node 30 maps to position 28
Node 32 maps to position 29
Node 38 maps to position 30
Node 21 maps to position 31
Node 14 maps to position 32
Node 41 maps to position 33
Node 15 maps to position 34
Node 46 maps to position 35
Node 39 maps to position 36
Node 33 maps to position 37
Node 9 maps to position 38
Node 40 maps to position 39
Node 34 maps to position 40
Node 42 maps to position 41
Node 18 maps to position 42
Node 36 maps to position 43
Node 10 maps to position 44
Node 50 maps to position 45
Node 43 maps to position 46
Node 31 maps to position 47
Node 45 maps to position 48
Node 37 maps to position 49
1(-1)->2 3 4 5 6 7 8 9 10 11 12 13 14 15 16 17 18 19 20 21 22 23 24 25 26 27 28 29 30 31 32 33 34 35 36 37 38 39 40 41 42 43 44 45 46 47 48 49 
2(-1)->1 3 4 5 6 7 8 9 10 11 12 13 14 15 16 17 18 19 20 21 22 23 24 25 26 27 28 29 30 31 32 33 34 36 37 38 39 41 42 43 50 
3(-1)->1 2 4 5 6 7 8 9 10 11 12 15 16 17 18 21 23 24 26 28 29 30 32 33 34 36 39 44 45 
4(-1)->1 2 3 5 7 8 10 11 16 17 19 22 23 26 28 29 32 34 35 38 41 42 45 47 49 
5(-1)->1 2 3 4 6 7 8 10 11 13 22 24 25 27 28 30 38 41 44 48 50 
6(-1)->1 2 3 5 7 8 10 12 13 14 21 24 25 26 30 32 35 36 38 42 43 44 45 47 49 
12(-1)->1 2 3 6 7 8 10 11 13 18 19 20 22 24 29 33 34 37 41 45 46 47 49 50 
13(-1)->1 2 5 6 7 8 12 14 16 18 19 20 23 24 25 31 32 33 35 42 43 47 49 
25(-1)->1 2 5 6 10 11 13 14 15 18 19 22 26 27 28 32 35 37 41 48 50 
28(-1)->1 2 3 4 5 15 20 22 23 24 25 26 33 34 35 40 43 45 47 48 49 
24(-1)->1 2 3 5 6 12 13 14 15 17 20 28 30 31 32 36 38 44 48 50 
44(-1)->1 3 5 6 7 11 14 16 18 21 24 26 30 31 34 41 42 47 
7(-1)->1 2 3 4 5 6 8 12 13 16 17 18 19 20 22 29 34 43 44 
8(-1)->1 2 3 4 5 6 7 12 13 14 20 27 32 35 36 37 39 47 48 
47(-1)->1 4 6 8 12 13 14 15 18 23 28 33 40 43 44 46 48 50 
23(-1)->1 2 3 4 10 13 14 18 20 27 28 34 35 36 38 40 46 47 
20(-1)->1 2 7 8 12 13 19 23 24 26 28 29 30 31 37 39 40 
26(-1)->1 2 3 4 6 9 10 11 20 25 28 29 39 40 43 44 46 48 50 
48(-1)->1 5 8 11 19 22 24 25 26 28 33 34 36 38 40 41 47 50 
22(-1)->1 2 4 5 7 9 12 15 25 27 28 30 35 38 39 43 48 49 50 
27(-1)->1 2 5 8 15 16 17 19 21 22 23 25 35 38 41 42 49 
16(-1)->1 2 3 4 7 10 13 14 21 27 33 35 39 40 42 44 46 
35(-1)->1 4 6 8 11 13 16 19 22 23 25 27 28 29 34 42 
19(-1)->1 2 4 7 12 13 17 20 21 25 27 35 39 43 45 48 49 
49(-1)->1 4 6 12 13 15 17 19 21 22 27 28 29 33 36 39 41 
29(-1)->1 2 3 4 7 12 17 18 20 26 30 34 35 36 40 42 49 
17(-1)->1 2 3 4 7 11 19 24 27 29 32 34 39 41 45 49 
11(-1)->1 2 3 4 5 12 17 21 25 26 30 35 37 40 44 48 
30(-1)->1 2 3 5 6 11 20 22 24 29 32 33 41 44 46 50 
32(-1)->1 2 3 4 6 8 9 13 17 24 25 30 36 38 42 45 
38(-1)->1 2 4 5 6 21 22 23 24 27 32 39 46 48 50 
21(-1)->1 2 3 6 9 11 14 16 19 27 38 42 44 45 49 
14(-1)->1 2 6 8 13 16 21 23 24 25 31 41 44 46 47 
41(-1)->1 2 4 5 12 14 15 17 18 25 27 30 31 44 48 49 
15(-1)->1 2 3 9 22 24 25 27 28 36 41 46 47 49 
46(-1)->1 12 14 15 16 18 23 26 30 31 38 39 43 47 50 
39(-1)->1 2 3 8 16 17 19 20 22 26 33 38 46 49 50 
33(-1)->1 2 3 9 12 13 16 28 30 37 39 47 48 49 
9(-1)->1 2 3 15 21 22 26 32 33 37 40 45 
40(-1)->1 9 10 11 16 20 23 26 28 29 34 47 48 
34(-1)->1 2 3 4 7 12 17 23 28 29 35 40 42 44 48 
42(-1)->1 2 4 6 13 16 18 21 27 29 32 34 35 37 44 
18(-1)->1 2 3 7 12 13 23 25 29 41 42 44 46 47 
36(-1)->1 2 3 6 8 10 15 23 24 29 31 32 48 49 
10(-1)->1 2 3 4 5 6 12 16 23 25 26 36 40 
50(-1)->2 5 12 22 24 25 26 30 38 39 46 47 48 
43(-1)->1 2 6 7 13 19 22 26 28 31 46 47 
31(-1)->1 2 13 14 20 24 36 41 43 44 46 
45(-1)->1 3 4 6 9 12 17 19 21 28 32 
37(-1)->1 2 8 9 11 12 20 25 33 42 
-------
BLAH
START TIME: 1433712042
10000
20000
30000
40000
50000
60000
1(0)->2 3 4 5 6 7 8 9 10 11 12 13 14 15 16 17 18 19 20 21 22 23 24 25 26 27 28 29 30 31 32 33 34 35 36 37 38 39 40 41 42 43 44 45 46 47 48 49 
2(1)->1 3 4 5 6 7 8 9 10 11 12 13 14 15 16 17 18 19 20 21 22 23 24 25 26 27 28 29 30 31 32 33 34 36 37 38 39 41 42 43 50 
3(2)->1 2 4 5 6 7 8 9 10 11 12 15 16 17 18 21 23 24 26 28 29 30 32 33 34 36 39 44 45 
4(3)->1 2 3 5 7 8 10 11 16 17 19 22 23 26 28 29 32 34 35 38 41 42 45 47 49 
5(4)->1 2 3 4 6 7 8 10 11 13 22 24 25 27 28 30 38 41 44 48 50 
6(3)->1 2 3 5 7 8 10 12 13 14 21 24 25 26 30 32 35 36 38 42 43 44 45 47 49 
7(6)->1 2 3 4 5 6 8 12 13 16 17 18 19 20 22 29 34 43 44 
8(5)->1 2 3 4 5 6 7 12 13 14 20 27 32 35 36 37 39 47 48 
9(7)->1 2 3 15 21 22 26 32 33 37 40 45 
10(6)->1 2 3 4 5 6 12 16 23 25 26 36 40 
11(6)->1 2 3 4 5 12 17 21 25 26 30 35 37 40 44 48 
12(4)->1 2 3 6 7 8 10 11 13 18 19 20 22 24 29 33 34 37 41 45 46 47 49 50 
13(2)->1 2 5 6 7 8 12 14 16 18 19 20 23 24 25 31 32 33 35 42 43 47 49 
14(6)->1 2 6 8 13 16 21 23 24 25 31 41 44 46 47 
15(4)->1 2 3 9 22 24 25 27 28 36 41 46 47 49 
16(7)->1 2 3 4 7 10 13 14 21 27 33 35 39 40 42 44 46 
17(4)->1 2 3 4 7 11 19 24 27 29 32 34 39 41 45 49 
18(3)->1 2 3 7 12 13 23 25 29 41 42 44 46 47 
19(7)->1 2 4 7 12 13 17 20 21 25 27 35 39 43 45 48 49 
20(3)->1 2 7 8 12 13 19 23 24 26 28 29 30 31 37 39 40 
21(5)->1 2 3 6 9 11 14 16 19 27 38 42 44 45 49 
22(2)->1 2 4 5 7 9 12 15 25 27 28 30 35 38 39 43 48 49 50 
23(4)->1 2 3 4 10 13 14 18 20 27 28 34 35 36 38 40 46 47 
24(5)->1 2 3 5 6 12 13 14 15 17 20 28 30 31 32 36 38 44 48 50 
25(5)->1 2 5 6 10 11 13 14 15 18 19 22 26 27 28 32 35 37 41 48 50 
26(4)->1 2 3 4 6 9 10 11 20 25 28 29 39 40 43 44 46 48 50 
27(3)->1 2 5 8 15 16 17 19 21 22 23 25 35 38 41 42 49 
28(6)->1 2 3 4 5 15 20 22 23 24 25 26 33 34 35 40 43 45 47 48 49 
29(5)->1 2 3 4 7 12 17 18 20 26 30 34 35 36 40 42 49 
30(7)->1 2 3 5 6 11 20 22 24 29 32 33 41 44 46 50 
31(4)->1 2 13 14 20 24 36 41 43 44 46 
32(6)->1 2 3 4 6 8 9 13 17 24 25 30 36 38 42 45 
33(3)->1 2 3 9 12 13 16 28 30 37 39 47 48 49 
34(7)->1 2 3 4 7 12 17 23 28 29 35 40 42 44 48 
35(1)->1 4 6 8 11 13 16 19 22 23 25 27 28 29 34 42 
36(7)->1 2 3 6 8 10 15 23 24 29 31 32 48 49 
37(2)->1 2 8 9 11 12 20 25 33 42 
38(7)->1 2 4 5 6 21 22 23 24 27 32 39 46 48 50 
39(6)->1 2 3 8 16 17 19 20 22 26 33 38 46 49 50 
40(2)->1 9 10 11 16 20 23 26 28 29 34 47 48 
41(2)->1 2 4 5 12 14 15 17 18 25 27 30 31 44 48 49 
42(4)->1 2 4 6 13 16 18 21 27 29 32 34 35 37 44 
43(5)->1 2 6 7 13 19 22 26 28 31 46 47 
44(1)->1 3 5 6 7 11 14 16 18 21 24 26 30 31 34 41 42 47 
45(1)->1 3 4 6 9 12 17 19 21 28 32 
46(1)->1 12 14 15 16 18 23 26 30 31 38 39 43 47 50 
47(7)->1 4 6 8 12 13 14 15 18 23 28 33 40 43 44 46 48 50 
48(1)->1 5 8 11 19 22 24 25 26 28 33 34 36 38 40 41 47 50 
49(1)->1 4 6 12 13 15 17 19 21 22 27 28 29 33 36 39 41 
50(0)->2 5 12 22 24 25 26 30 38 39 46 47 48 
COUNT: 69438
COLORS: 8
EDGES: 450
8
69438
