START TIME: 1433732193
-1=-1,-1,-1
33=-1,-1,-1
27=-1,-1,-1
-1=-1,-1,-1
26=-1,-1,-1
22=-1,-1,-1
5=-1,-1,-1
-1=-1,-1,-1
-1=-1,-1,-1
12=-1,-1,-1
-1=-1,-1,-1
-1=-1,-1,-1
-1=-1,-1,-1
-1=-1,-1,-1
-1=-1,-1,-1
43=-1,-1,-1
-1=-1,-1,-1
6=-1,-1,-1
-1=-1,-1,-1
-1=-1,-1,-1
-1=-1,-1,-1
-1=-1,-1,-1
-1=-1,-1,-1
-1=22,-1,-1
-1=-1,-1,-1
3=-1,-1,-1
-1=-1,-1,-1
-1=-1,-1,-1
-1=-1,-1,-1
-1=-1,-1,-1
-1=-1,-1,-1
-1=-1,-1,-1
-1=-1,-1,-1
-1=-1,-1,-1
-1=-1,-1,-1
-1=3,-1,-1
-1=-1,-1,-1
-1=-1,-1,-1
-1=-1,-1,-1
-1=-1,-1,-1
-1=-1,-1,-1
-1=-1,-1,-1
21=43,-1,-1
-1=21,-1,-1
25=-1,-1,-1
34=-1,-1,-1
-1=-1,-1,-1
-1=-1,-1,-1
-1=6,-1,-1
-1=-1,-1,-1
-1=26,-1,-1
-1=-1,-1,-1
-1=-1,-1,-1
-1=-1,-1,-1
-1=-1,-1,-1
-1=-1,-1,-1
-1=33,-1,-1
-1=-1,-1,-1
36=25,-1,-1
-1=-1,-1,-1
-1=-1,-1,-1
-1=-1,-1,-1
-1=-1,-1,-1
-1=-1,-1,-1
-1=-1,-1,-1
24=-1,-1,-1
-1=-1,-1,-1
3=-1,-1,-1
-1=-1,-1,-1
13=-1,-1,-1
-1=-1,-1,-1
-1=-1,-1,-1
23=-1,-1,-1
-1=23,-1,-1
-1=-1,-1,-1
-1=-1,-1,-1
-1=-1,-1,-1
-1=-1,-1,-1
-1=-1,-1,-1
-1=-1,-1,-1
-1=-1,-1,-1
-1=-1,-1,-1
9=-1,-1,-1
-1=-1,-1,-1
-1=-1,-1,-1
-1=-1,-1,-1
-1=-1,-1,-1
-1=-1,-1,-1
21=-1,-1,-1
-1=13,-1,-1
-1=27,-1,-1
-1=-1,-1,-1
-1=-1,-1,-1
-1=-1,-1,-1
-1=5,-1,-1
-1=3,-1,-1
45=-1,-1,-1
-1=12,-1,-1
-1=36,-1,-1
-1=-1,-1,-1
-1=-1,-1,-1
-1=-1,-1,-1
32=-1,-1,-1
4=-1,-1,-1
-1=-1,-1,-1
18=-1,-1,-1
1=-1,-1,-1
6=9,-1,-1
-1=-1,-1,-1
44=-1,-1,-1
-1=4,-1,-1
13=6,-1,-1
-1=-1,-1,-1
-1=21,-1,-1
43=-1,-1,-1
-1=-1,-1,-1
-1=-1,-1,-1
-1=-1,-1,-1
6=-1,-1,-1
-1=24,-1,-1
-1=-1,-1,-1
-1=-1,-1,-1
2=-1,-1,-1
-1=-1,-1,-1
-1=-1,-1,-1
28=45,-1,-1
27=-1,-1,-1
-1=1,32,-1
-1=2,-1,-1
-1=-1,-1,-1
-1=18,-1,-1
-1=-1,-1,-1
-1=44,-1,-1
-1=-1,-1,-1
-1=-1,-1,-1
-1=13,-1,-1
-1=-1,-1,-1
-1=-1,-1,-1
-1=28,34,-1
-1=-1,-1,-1
-1=-1,-1,-1
-1=-1,-1,-1
-1=6,-1,-1
-1=-1,-1,-1
-1=-1,-1,-1
-1=-1,-1,-1
-1=-1,-1,-1
2=27,43,-1
-1=-1,-1,-1
-1=-1,-1,-1
-1=-1,-1,-1
-1=-1,-1,-1
-1=-1,-1,-1
-1=-1,-1,-1
-1=-1,-1,-1
-1=-1,-1,-1
-1=-1,-1,-1
-1=-1,-1,-1
-1=-1,-1,-1
-1=-1,-1,-1
-1=-1,-1,-1
-1=-1,-1,-1
-1=-1,-1,-1
-1=2,-1,-1
-1=-1,-1,-1
-1=-1,-1,-1
-1=-1,-1,-1
34=-1,-1,-1
-1=-1,-1,-1
-1=34,-1,-1
-1=-1,-1,-1
-1=-1,-1,-1
-1=-1,-1,-1
-1=-1,-1,-1
-1=-1,-1,-1
-1=-1,-1,-1
-1=-1,-1,-1
-1=-1,-1,-1
-1=-1,-1,-1
-1=-1,-1,-1
-1=-1,-1,-1
-1=-1,-1,-1
8=-1,-1,-1
-1=-1,-1,-1
-1=-1,-1,-1
42=-1,-1,-1
-1=-1,-1,-1
-1=42,-1,-1
-1=-1,-1,-1
-1=-1,-1,-1
1=8,-1,-1
-1=-1,-1,-1
-1=1,-1,-1
-1=-1,-1,-1
-1=-1,-1,-1
-1=-1,-1,-1
-1=-1,-1,-1
-1=-1,-1,-1
-1=-1,-1,-1
-1=-1,-1,-1
--------
,
,
,
,
,
,
,
1 ,
1 ,1 
8 ,1 
8 ,8 
8 ,8 
8 42 ,8 
8 42 ,8 42 
8 ,8 42 
8 ,8 
8 ,8 
,8 
,
,
,
,
,
,
,
,
,
,
,
,
34 ,
34 ,34 
,34 
,
,
,
2 ,
2 ,2 
2 ,2 
2 ,2 
2 ,2 
2 ,2 
2 ,2 
2 ,2 
2 ,2 
2 ,2 
2 ,2 
2 ,2 
2 ,2 
2 ,2 
2 ,2 
2 ,2 
27 43 ,2 
27 43 ,27 43 
27 43 ,27 43 
27 43 ,27 43 
27 43 ,27 43 
6 27 43 ,27 43 
6 27 43 ,6 27 43 
6 27 43 ,6 27 43 
6 27 43 ,6 27 43 
6 27 28 34 43 ,6 27 43 
6 27 28 34 43 ,6 27 28 34 43 
6 27 28 34 43 ,6 27 28 34 43 
6 13 27 28 34 43 ,6 27 28 34 43 
6 13 27 28 34 43 ,6 13 27 28 34 43 
6 13 27 28 34 43 ,6 13 27 28 34 43 
6 13 27 28 34 43 44 ,6 13 27 28 34 43 
6 13 27 28 34 43 44 ,6 13 27 28 34 43 44 
6 13 18 27 28 34 43 44 ,6 13 27 28 34 43 44 
6 13 18 27 28 34 43 44 ,6 13 18 27 28 34 43 44 
2 6 13 18 27 28 34 43 44 ,6 13 18 27 28 34 43 44 
1 2 6 13 18 27 28 32 34 43 44 ,2 6 13 18 27 28 34 43 44 
1 2 6 13 18 28 32 34 43 44 ,1 2 6 13 18 27 28 32 34 43 44 
1 2 6 13 18 32 34 43 44 45 ,1 2 6 13 18 28 32 34 43 44 
1 2 6 13 18 32 34 43 44 45 ,1 2 6 13 18 32 34 43 44 45 
1 2 6 13 18 32 34 43 44 45 ,1 2 6 13 18 32 34 43 44 45 
1 6 13 18 32 34 43 44 45 ,1 2 6 13 18 32 34 43 44 45 
1 6 13 18 32 34 43 44 45 ,1 6 13 18 32 34 43 44 45 
1 6 13 18 32 34 43 44 45 ,1 6 13 18 32 34 43 44 45 
1 6 13 18 24 32 34 43 44 45 ,1 6 13 18 32 34 43 44 45 
1 13 18 24 32 34 43 44 45 ,1 6 13 18 24 32 34 43 44 45 
1 13 18 24 32 34 43 44 45 ,1 13 18 24 32 34 43 44 45 
1 13 18 24 32 34 43 44 45 ,1 13 18 24 32 34 43 44 45 
1 13 18 24 32 34 43 44 45 ,1 13 18 24 32 34 43 44 45 
1 13 18 24 32 34 44 45 ,1 13 18 24 32 34 43 44 45 
1 13 18 21 24 32 34 44 45 ,1 13 18 24 32 34 44 45 
1 13 18 21 24 32 34 44 45 ,1 13 18 21 24 32 34 44 45 
1 6 18 21 24 32 34 44 45 ,1 13 18 21 24 32 34 44 45 
1 4 6 18 21 24 32 34 44 45 ,1 6 18 21 24 32 34 44 45 
1 4 6 18 21 24 32 34 45 ,1 4 6 18 21 24 32 34 44 45 
1 4 6 18 21 24 32 34 45 ,1 4 6 18 21 24 32 34 45 
1 4 9 18 21 24 32 34 45 ,1 4 6 18 21 24 32 34 45 
4 9 18 21 24 32 34 45 ,1 4 9 18 21 24 32 34 45 
4 9 21 24 32 34 45 ,4 9 18 21 24 32 34 45 
4 9 21 24 32 34 45 ,4 9 21 24 32 34 45 
9 21 24 32 34 45 ,4 9 21 24 32 34 45 
9 21 24 34 45 ,9 21 24 32 34 45 
9 21 24 34 45 ,9 21 24 34 45 
9 21 24 34 45 ,9 21 24 34 45 
9 21 24 34 45 ,9 21 24 34 45 
9 21 24 34 36 45 ,9 21 24 34 45 
9 12 21 24 34 36 45 ,9 21 24 34 36 45 
9 12 21 24 34 36 ,9 12 21 24 34 36 45 
3 9 12 21 24 34 36 ,9 12 21 24 34 36 
3 5 9 12 21 24 34 36 ,3 9 12 21 24 34 36 
3 5 9 12 21 24 34 36 ,3 5 9 12 21 24 34 36 
3 5 9 12 21 24 34 36 ,3 5 9 12 21 24 34 36 
3 5 9 12 21 24 34 36 ,3 5 9 12 21 24 34 36 
3 5 9 12 21 24 27 34 36 ,3 5 9 12 21 24 34 36 
3 5 9 12 13 21 24 27 34 36 ,3 5 9 12 21 24 27 34 36 
3 5 9 12 13 24 27 34 36 ,3 5 9 12 13 21 24 27 34 36 
3 5 9 12 13 24 27 34 36 ,3 5 9 12 13 24 27 34 36 
3 5 9 12 13 24 27 34 36 ,3 5 9 12 13 24 27 34 36 
3 5 9 12 13 24 27 34 36 ,3 5 9 12 13 24 27 34 36 
3 5 9 12 13 24 27 34 36 ,3 5 9 12 13 24 27 34 36 
3 5 9 12 13 24 27 34 36 ,3 5 9 12 13 24 27 34 36 
3 5 12 13 24 27 34 36 ,3 5 9 12 13 24 27 34 36 
3 5 12 13 24 27 34 36 ,3 5 12 13 24 27 34 36 
3 5 12 13 24 27 34 36 ,3 5 12 13 24 27 34 36 
3 5 12 13 24 27 34 36 ,3 5 12 13 24 27 34 36 
3 5 12 13 24 27 34 36 ,3 5 12 13 24 27 34 36 
3 5 12 13 24 27 34 36 ,3 5 12 13 24 27 34 36 
3 5 12 13 24 27 34 36 ,3 5 12 13 24 27 34 36 
3 5 12 13 24 27 34 36 ,3 5 12 13 24 27 34 36 
3 5 12 13 24 27 34 36 ,3 5 12 13 24 27 34 36 
3 5 12 13 23 24 27 34 36 ,3 5 12 13 24 27 34 36 
3 5 12 13 24 27 34 36 ,3 5 12 13 23 24 27 34 36 
3 5 12 13 24 27 34 36 ,3 5 12 13 24 27 34 36 
3 5 12 13 24 27 34 36 ,3 5 12 13 24 27 34 36 
3 5 12 24 27 34 36 ,3 5 12 13 24 27 34 36 
3 5 12 24 27 34 36 ,3 5 12 24 27 34 36 
5 12 24 27 34 36 ,3 5 12 24 27 34 36 
5 12 24 27 34 36 ,5 12 24 27 34 36 
5 12 27 34 36 ,5 12 24 27 34 36 
5 12 27 34 36 ,5 12 27 34 36 
5 12 27 34 36 ,5 12 27 34 36 
5 12 27 34 36 ,5 12 27 34 36 
5 12 27 34 36 ,5 12 27 34 36 
5 12 27 34 36 ,5 12 27 34 36 
5 12 27 34 36 ,5 12 27 34 36 
5 12 25 27 34 ,5 12 27 34 36 
5 12 25 27 34 ,5 12 25 27 34 
5 12 25 27 33 34 ,5 12 25 27 34 
5 12 25 27 33 34 ,5 12 25 27 33 34 
5 12 25 27 33 34 ,5 12 25 27 33 34 
5 12 25 27 33 34 ,5 12 25 27 33 34 
5 12 25 27 33 34 ,5 12 25 27 33 34 
5 12 25 27 33 34 ,5 12 25 27 33 34 
5 12 25 26 27 33 34 ,5 12 25 27 33 34 
5 12 25 26 27 33 34 ,5 12 25 26 27 33 34 
5 6 12 25 26 27 33 34 ,5 12 25 26 27 33 34 
5 6 12 25 26 27 33 34 ,5 6 12 25 26 27 33 34 
5 6 12 25 26 27 33 34 ,5 6 12 25 26 27 33 34 
5 6 12 25 26 27 33 ,5 6 12 25 26 27 33 34 
5 6 12 26 27 33 ,5 6 12 25 26 27 33 
5 6 12 21 26 27 33 ,5 6 12 26 27 33 
5 6 12 26 27 33 43 ,5 6 12 21 26 27 33 
5 6 12 26 27 33 43 ,5 6 12 26 27 33 43 
5 6 12 26 27 33 43 ,5 6 12 26 27 33 43 
5 6 12 26 27 33 43 ,5 6 12 26 27 33 43 
5 6 12 26 27 33 43 ,5 6 12 26 27 33 43 
5 6 12 26 27 33 43 ,5 6 12 26 27 33 43 
5 6 12 26 27 33 43 ,5 6 12 26 27 33 43 
3 5 6 12 26 27 33 43 ,5 6 12 26 27 33 43 
3 5 6 12 26 27 33 43 ,3 5 6 12 26 27 33 43 
3 5 6 12 26 27 33 43 ,3 5 6 12 26 27 33 43 
3 5 6 12 26 27 33 43 ,3 5 6 12 26 27 33 43 
3 5 6 12 26 27 33 43 ,3 5 6 12 26 27 33 43 
3 5 6 12 26 27 33 43 ,3 5 6 12 26 27 33 43 
3 5 6 12 26 27 33 43 ,3 5 6 12 26 27 33 43 
3 5 6 12 26 27 33 43 ,3 5 6 12 26 27 33 43 
3 5 6 12 26 27 33 43 ,3 5 6 12 26 27 33 43 
3 5 6 12 26 27 33 43 ,3 5 6 12 26 27 33 43 
5 6 12 26 27 33 43 ,3 5 6 12 26 27 33 43 
5 6 12 26 27 33 43 ,5 6 12 26 27 33 43 
5 6 12 22 26 27 33 43 ,5 6 12 26 27 33 43 
5 6 12 22 26 27 33 43 ,5 6 12 22 26 27 33 43 
5 6 12 22 26 27 33 43 ,5 6 12 22 26 27 33 43 
5 6 12 22 26 27 33 43 ,5 6 12 22 26 27 33 43 
5 6 12 22 26 27 33 43 ,5 6 12 22 26 27 33 43 
5 6 12 22 26 27 33 43 ,5 6 12 22 26 27 33 43 
5 12 22 26 27 33 43 ,5 6 12 22 26 27 33 43 
5 12 22 26 27 33 43 ,5 12 22 26 27 33 43 
5 12 22 26 27 33 ,5 12 22 26 27 33 43 
5 12 22 26 27 33 ,5 12 22 26 27 33 
5 12 22 26 27 33 ,5 12 22 26 27 33 
5 12 22 26 27 33 ,5 12 22 26 27 33 
5 12 22 26 27 33 ,5 12 22 26 27 33 
5 12 22 26 27 33 ,5 12 22 26 27 33 
5 22 26 27 33 ,5 12 22 26 27 33 
5 22 26 27 33 ,5 22 26 27 33 
5 22 26 27 33 ,5 22 26 27 33 
22 26 27 33 ,5 22 26 27 33 
26 27 33 ,22 26 27 33 
27 33 ,26 27 33 
27 33 ,27 33 
33 ,27 33 
,33 
,
--------
,
,
,
,
,
,
,
1 ,
1 ,1 
8 ,1 
8 ,8 
8 ,8 
8 42 ,8 
8 42 ,8 42 
8 ,8 42 
8 ,8 
8 ,8 
,8 
,
,
,
,
,
,
,
,
,
,
,
,
34 ,
34 ,34 
,34 
,
,
,
2 ,
2 ,2 
2 ,2 
2 ,2 
2 ,2 
2 ,2 
2 ,2 
2 ,2 
2 ,2 
2 ,2 
2 ,2 
2 ,2 
2 ,2 
2 ,2 
2 ,2 
2 ,2 
27 43 ,2 
27 43 ,27 43 
27 43 ,27 43 
27 43 ,27 43 
27 43 ,27 43 
6 27 43 ,27 43 
6 27 43 ,6 27 43 
6 27 43 ,6 27 43 
6 27 43 ,6 27 43 
6 27 28 34 43 ,6 27 43 
6 27 28 34 43 ,6 27 28 34 43 
6 27 28 34 43 ,6 27 28 34 43 
6 13 27 28 34 43 ,6 27 28 34 43 
6 13 27 28 34 43 ,6 13 27 28 34 43 
6 13 27 28 34 43 ,6 13 27 28 34 43 
6 13 27 28 34 43 44 ,6 13 27 28 34 43 
6 13 27 28 34 43 44 ,6 13 27 28 34 43 44 
6 13 18 27 28 34 43 44 ,6 13 27 28 34 43 44 
6 13 18 27 28 34 43 44 ,6 13 18 27 28 34 43 44 
2 6 13 18 27 28 34 43 44 ,6 13 18 27 28 34 43 44 
1 2 6 13 18 27 28 32 34 43 44 ,2 6 13 18 27 28 34 43 44 
1 2 6 13 18 28 32 34 43 44 ,1 2 6 13 18 27 28 32 34 43 44 
1 2 6 13 18 32 34 43 44 45 ,1 2 6 13 18 28 32 34 43 44 
1 2 6 13 18 32 34 43 44 45 ,1 2 6 13 18 32 34 43 44 45 
1 2 6 13 18 32 34 43 44 45 ,1 2 6 13 18 32 34 43 44 45 
1 6 13 18 32 34 43 44 45 ,1 2 6 13 18 32 34 43 44 45 
1 6 13 18 32 34 43 44 45 ,1 6 13 18 32 34 43 44 45 
1 6 13 18 32 34 43 44 45 ,1 6 13 18 32 34 43 44 45 
1 6 13 18 24 32 34 43 44 45 ,1 6 13 18 32 34 43 44 45 
1 13 18 24 32 34 43 44 45 ,1 6 13 18 24 32 34 43 44 45 
1 13 18 24 32 34 43 44 45 ,1 13 18 24 32 34 43 44 45 
1 13 18 24 32 34 43 44 45 ,1 13 18 24 32 34 43 44 45 
1 13 18 24 32 34 43 44 45 ,1 13 18 24 32 34 43 44 45 
1 13 18 24 32 34 44 45 ,1 13 18 24 32 34 43 44 45 
1 13 18 21 24 32 34 44 45 ,1 13 18 24 32 34 44 45 
1 13 18 21 24 32 34 44 45 ,1 13 18 21 24 32 34 44 45 
1 6 18 21 24 32 34 44 45 ,1 13 18 21 24 32 34 44 45 
1 4 6 18 21 24 32 34 44 45 ,1 6 18 21 24 32 34 44 45 
1 4 6 18 21 24 32 34 45 ,1 4 6 18 21 24 32 34 44 45 
1 4 6 18 21 24 32 34 45 ,1 4 6 18 21 24 32 34 45 
1 4 9 18 21 24 32 34 45 ,1 4 6 18 21 24 32 34 45 
4 9 18 21 24 32 34 45 ,1 4 9 18 21 24 32 34 45 
4 9 21 24 32 34 45 ,4 9 18 21 24 32 34 45 
4 9 21 24 32 34 45 ,4 9 21 24 32 34 45 
9 21 24 32 34 45 ,4 9 21 24 32 34 45 
9 21 24 34 45 ,9 21 24 32 34 45 
9 21 24 34 45 ,9 21 24 34 45 
9 21 24 34 45 ,9 21 24 34 45 
9 21 24 34 45 ,9 21 24 34 45 
9 21 24 34 36 45 ,9 21 24 34 45 
9 12 21 24 34 36 45 ,9 21 24 34 36 45 
9 12 21 24 34 36 ,9 12 21 24 34 36 45 
3 9 12 21 24 34 36 ,9 12 21 24 34 36 
3 5 9 12 21 24 34 36 ,3 9 12 21 24 34 36 
3 5 9 12 21 24 34 36 ,3 5 9 12 21 24 34 36 
3 5 9 12 21 24 34 36 ,3 5 9 12 21 24 34 36 
3 5 9 12 21 24 34 36 ,3 5 9 12 21 24 34 36 
3 5 9 12 21 24 27 34 36 ,3 5 9 12 21 24 34 36 
3 5 9 12 13 21 24 27 34 36 ,3 5 9 12 21 24 27 34 36 
3 5 9 12 13 24 27 34 36 ,3 5 9 12 13 21 24 27 34 36 
3 5 9 12 13 24 27 34 36 ,3 5 9 12 13 24 27 34 36 
3 5 9 12 13 24 27 34 36 ,3 5 9 12 13 24 27 34 36 
3 5 9 12 13 24 27 34 36 ,3 5 9 12 13 24 27 34 36 
3 5 9 12 13 24 27 34 36 ,3 5 9 12 13 24 27 34 36 
3 5 9 12 13 24 27 34 36 ,3 5 9 12 13 24 27 34 36 
3 5 12 13 24 27 34 36 ,3 5 9 12 13 24 27 34 36 
3 5 12 13 24 27 34 36 ,3 5 12 13 24 27 34 36 
3 5 12 13 24 27 34 36 ,3 5 12 13 24 27 34 36 
3 5 12 13 24 27 34 36 ,3 5 12 13 24 27 34 36 
3 5 12 13 24 27 34 36 ,3 5 12 13 24 27 34 36 
3 5 12 13 24 27 34 36 ,3 5 12 13 24 27 34 36 
3 5 12 13 24 27 34 36 ,3 5 12 13 24 27 34 36 
3 5 12 13 24 27 34 36 ,3 5 12 13 24 27 34 36 
3 5 12 13 24 27 34 36 ,3 5 12 13 24 27 34 36 
3 5 12 13 23 24 27 34 36 ,3 5 12 13 24 27 34 36 
3 5 12 13 24 27 34 36 ,3 5 12 13 23 24 27 34 36 
3 5 12 13 24 27 34 36 ,3 5 12 13 24 27 34 36 
3 5 12 13 24 27 34 36 ,3 5 12 13 24 27 34 36 
3 5 12 24 27 34 36 ,3 5 12 13 24 27 34 36 
3 5 12 24 27 34 36 ,3 5 12 24 27 34 36 
5 12 24 27 34 36 ,3 5 12 24 27 34 36 
5 12 24 27 34 36 ,5 12 24 27 34 36 
5 12 27 34 36 ,5 12 24 27 34 36 
5 12 27 34 36 ,5 12 27 34 36 
5 12 27 34 36 ,5 12 27 34 36 
5 12 27 34 36 ,5 12 27 34 36 
5 12 27 34 36 ,5 12 27 34 36 
5 12 27 34 36 ,5 12 27 34 36 
5 12 27 34 36 ,5 12 27 34 36 
5 12 25 27 34 ,5 12 27 34 36 
5 12 25 27 34 ,5 12 25 27 34 
5 12 25 27 33 34 ,5 12 25 27 34 
5 12 25 27 33 34 ,5 12 25 27 33 34 
5 12 25 27 33 34 ,5 12 25 27 33 34 
5 12 25 27 33 34 ,5 12 25 27 33 34 
5 12 25 27 33 34 ,5 12 25 27 33 34 
5 12 25 27 33 34 ,5 12 25 27 33 34 
5 12 25 26 27 33 34 ,5 12 25 27 33 34 
5 12 25 26 27 33 34 ,5 12 25 26 27 33 34 
5 6 12 25 26 27 33 34 ,5 12 25 26 27 33 34 
5 6 12 25 26 27 33 34 ,5 6 12 25 26 27 33 34 
5 6 12 25 26 27 33 34 ,5 6 12 25 26 27 33 34 
5 6 12 25 26 27 33 ,5 6 12 25 26 27 33 34 
5 6 12 26 27 33 ,5 6 12 25 26 27 33 
5 6 12 21 26 27 33 ,5 6 12 26 27 33 
5 6 12 26 27 33 43 ,5 6 12 21 26 27 33 
5 6 12 26 27 33 43 ,5 6 12 26 27 33 43 
5 6 12 26 27 33 43 ,5 6 12 26 27 33 43 
5 6 12 26 27 33 43 ,5 6 12 26 27 33 43 
5 6 12 26 27 33 43 ,5 6 12 26 27 33 43 
5 6 12 26 27 33 43 ,5 6 12 26 27 33 43 
5 6 12 26 27 33 43 ,5 6 12 26 27 33 43 
3 5 6 12 26 27 33 43 ,5 6 12 26 27 33 43 
3 5 6 12 26 27 33 43 ,3 5 6 12 26 27 33 43 
3 5 6 12 26 27 33 43 ,3 5 6 12 26 27 33 43 
3 5 6 12 26 27 33 43 ,3 5 6 12 26 27 33 43 
3 5 6 12 26 27 33 43 ,3 5 6 12 26 27 33 43 
3 5 6 12 26 27 33 43 ,3 5 6 12 26 27 33 43 
3 5 6 12 26 27 33 43 ,3 5 6 12 26 27 33 43 
3 5 6 12 26 27 33 43 ,3 5 6 12 26 27 33 43 
3 5 6 12 26 27 33 43 ,3 5 6 12 26 27 33 43 
3 5 6 12 26 27 33 43 ,3 5 6 12 26 27 33 43 
5 6 12 26 27 33 43 ,3 5 6 12 26 27 33 43 
5 6 12 26 27 33 43 ,5 6 12 26 27 33 43 
5 6 12 22 26 27 33 43 ,5 6 12 26 27 33 43 
5 6 12 22 26 27 33 43 ,5 6 12 22 26 27 33 43 
5 6 12 22 26 27 33 43 ,5 6 12 22 26 27 33 43 
5 6 12 22 26 27 33 43 ,5 6 12 22 26 27 33 43 
5 6 12 22 26 27 33 43 ,5 6 12 22 26 27 33 43 
5 6 12 22 26 27 33 43 ,5 6 12 22 26 27 33 43 
5 12 22 26 27 33 43 ,5 6 12 22 26 27 33 43 
5 12 22 26 27 33 43 ,5 12 22 26 27 33 43 
5 12 22 26 27 33 ,5 12 22 26 27 33 43 
5 12 22 26 27 33 ,5 12 22 26 27 33 
5 12 22 26 27 33 ,5 12 22 26 27 33 
5 12 22 26 27 33 ,5 12 22 26 27 33 
5 12 22 26 27 33 ,5 12 22 26 27 33 
5 12 22 26 27 33 ,5 12 22 26 27 33 
5 22 26 27 33 ,5 12 22 26 27 33 
5 22 26 27 33 ,5 22 26 27 33 
5 22 26 27 33 ,5 22 26 27 33 
22 26 27 33 ,5 22 26 27 33 
26 27 33 ,22 26 27 33 
27 33 ,26 27 33 
27 33 ,27 33 
33 ,27 33 
,33 
,
-------------
-------
1(-1)->2 4 6 9 13 18 21 24 27 28 32 34 43 44 45 
2(-1)->1 6 13 18 27 28 32 34 43 44 45 
3(-1)->5 6 9 12 13 21 23 24 26 27 33 34 36 43 
4(-1)->1 6 9 18 21 24 32 34 44 45 
5(-1)->3 6 9 12 13 21 22 23 24 25 26 27 33 34 36 43 
6(-1)->1 2 3 4 5 12 13 18 21 22 24 25 26 27 28 32 33 34 43 44 45 
8(-1)->42 
9(-1)->1 3 4 5 12 13 18 21 24 27 32 34 36 45 
12(-1)->3 5 6 9 13 21 22 23 24 25 26 27 33 34 36 43 45 
13(-1)->1 2 3 5 6 9 12 18 21 23 24 27 28 32 34 36 43 44 45 
18(-1)->1 2 4 6 9 13 21 24 27 28 32 34 43 44 45 
21(-1)->1 3 4 5 6 9 12 13 18 24 26 27 32 33 34 36 44 45 
22(-1)->5 6 12 26 27 33 43 
23(-1)->3 5 12 13 24 27 34 36 
24(-1)->1 3 4 5 6 9 12 13 18 21 23 27 32 34 36 43 44 45 
25(-1)->5 6 12 26 27 33 34 
26(-1)->3 5 6 12 21 22 25 27 33 34 43 
27(-1)->1 2 3 5 6 9 12 13 18 21 22 23 24 25 26 28 32 33 34 36 43 44 
28(-1)->1 2 6 13 18 27 32 34 43 44 
32(-1)->1 2 4 6 9 13 18 21 24 27 28 34 43 44 45 
33(-1)->3 5 6 12 21 22 25 26 27 34 43 
34(-1)->1 2 3 4 5 6 9 12 13 18 21 23 24 25 26 27 28 32 33 36 43 44 45 
36(-1)->3 5 9 12 13 21 23 24 27 34 45 
42(-1)->8 
43(-1)->1 2 3 5 6 12 13 18 22 24 26 27 28 32 33 34 44 45 
44(-1)->1 2 4 6 13 18 21 24 27 28 32 34 43 45 
45(-1)->1 2 4 6 9 12 13 18 21 24 32 34 36 43 44 
-------
Node 34 maps to position 0
Node 27 maps to position 1
Node 6 maps to position 2
Node 13 maps to position 3
Node 21 maps to position 4
Node 24 maps to position 5
Node 43 maps to position 6
Node 12 maps to position 7
Node 5 maps to position 8
Node 1 maps to position 9
Node 18 maps to position 10
Node 32 maps to position 11
Node 45 maps to position 12
Node 3 maps to position 13
Node 9 maps to position 14
Node 44 maps to position 15
Node 2 maps to position 16
Node 26 maps to position 17
Node 33 maps to position 18
Node 36 maps to position 19
Node 4 maps to position 20
Node 28 maps to position 21
Node 23 maps to position 22
Node 22 maps to position 23
Node 25 maps to position 24
Node 8 maps to position 25
Node 42 maps to position 26
34(-1)->1 2 3 4 5 6 9 12 13 18 21 23 24 25 26 27 28 32 33 36 43 44 45 
27(-1)->1 2 3 5 6 9 12 13 18 21 22 23 24 25 26 28 32 33 34 36 43 44 
6(-1)->1 2 3 4 5 12 13 18 21 22 24 25 26 27 28 32 33 34 43 44 45 
13(-1)->1 2 3 5 6 9 12 18 21 23 24 27 28 32 34 36 43 44 45 
21(-1)->1 3 4 5 6 9 12 13 18 24 26 27 32 33 34 36 44 45 
24(-1)->1 3 4 5 6 9 12 13 18 21 23 27 32 34 36 43 44 45 
43(-1)->1 2 3 5 6 12 13 18 22 24 26 27 28 32 33 34 44 45 
12(-1)->3 5 6 9 13 21 22 23 24 25 26 27 33 34 36 43 45 
5(-1)->3 6 9 12 13 21 22 23 24 25 26 27 33 34 36 43 
1(-1)->2 4 6 9 13 18 21 24 27 28 32 34 43 44 45 
18(-1)->1 2 4 6 9 13 21 24 27 28 32 34 43 44 45 
32(-1)->1 2 4 6 9 13 18 21 24 27 28 34 43 44 45 
45(-1)->1 2 4 6 9 12 13 18 21 24 32 34 36 43 44 
3(-1)->5 6 9 12 13 21 23 24 26 27 33 34 36 43 
9(-1)->1 3 4 5 12 13 18 21 24 27 32 34 36 45 
44(-1)->1 2 4 6 13 18 21 24 27 28 32 34 43 45 
2(-1)->1 6 13 18 27 28 32 34 43 44 45 
26(-1)->3 5 6 12 21 22 25 27 33 34 43 
33(-1)->3 5 6 12 21 22 25 26 27 34 43 
36(-1)->3 5 9 12 13 21 23 24 27 34 45 
4(-1)->1 6 9 18 21 24 32 34 44 45 
28(-1)->1 2 6 13 18 27 32 34 43 44 
23(-1)->3 5 12 13 24 27 34 36 
22(-1)->5 6 12 26 27 33 43 
25(-1)->5 6 12 26 27 33 34 
8(-1)->42 
42(-1)->8 
-------
CONNECTEDS size: 2
****************
****************
34(-1)->1 2 3 4 5 6 9 12 13 18 21 23 24 25 26 27 28 32 33 36 43 44 45 
27(-1)->1 2 3 5 6 9 12 13 18 21 22 23 24 25 26 28 32 33 34 36 43 44 
6(-1)->1 2 3 4 5 12 13 18 21 22 24 25 26 27 28 32 33 34 43 44 45 
13(-1)->1 2 3 5 6 9 12 18 21 23 24 27 28 32 34 36 43 44 45 
21(-1)->1 3 4 5 6 9 12 13 18 24 26 27 32 33 34 36 44 45 
24(-1)->1 3 4 5 6 9 12 13 18 21 23 27 32 34 36 43 44 45 
43(-1)->1 2 3 5 6 12 13 18 22 24 26 27 28 32 33 34 44 45 
12(-1)->3 5 6 9 13 21 22 23 24 25 26 27 33 34 36 43 45 
5(-1)->3 6 9 12 13 21 22 23 24 25 26 27 33 34 36 43 
1(-1)->2 4 6 9 13 18 21 24 27 28 32 34 43 44 45 
18(-1)->1 2 4 6 9 13 21 24 27 28 32 34 43 44 45 
32(-1)->1 2 4 6 9 13 18 21 24 27 28 34 43 44 45 
45(-1)->1 2 4 6 9 12 13 18 21 24 32 34 36 43 44 
3(-1)->5 6 9 12 13 21 23 24 26 27 33 34 36 43 
9(-1)->1 3 4 5 12 13 18 21 24 27 32 34 36 45 
44(-1)->1 2 4 6 13 18 21 24 27 28 32 34 43 45 
2(-1)->1 6 13 18 27 28 32 34 43 44 45 
26(-1)->3 5 6 12 21 22 25 27 33 34 43 
33(-1)->3 5 6 12 21 22 25 26 27 34 43 
36(-1)->3 5 9 12 13 21 23 24 27 34 45 
4(-1)->1 6 9 18 21 24 32 34 44 45 
28(-1)->1 2 6 13 18 27 32 34 43 44 
23(-1)->3 5 12 13 24 27 34 36 
22(-1)->5 6 12 26 27 33 43 
25(-1)->5 6 12 26 27 33 34 
****************
8(-1)->42 
42(-1)->8 
1(6)->2 4 6 9 13 18 21 24 27 28 32 34 43 44 45 
2(5)->1 6 13 18 27 28 32 34 43 44 45 
3(8)->5 6 9 12 13 21 23 24 26 27 33 34 36 43 
4(3)->1 6 9 18 21 24 32 34 44 45 
5(7)->3 6 9 12 13 21 22 23 24 25 26 27 33 34 36 43 
6(2)->1 2 3 4 5 12 13 18 21 22 24 25 26 27 28 32 33 34 43 44 45 
8(0)->42 
9(2)->1 3 4 5 12 13 18 21 24 27 32 34 36 45 
12(6)->3 5 6 9 13 21 22 23 24 25 26 27 33 34 36 43 45 
13(3)->1 2 3 5 6 9 12 18 21 23 24 27 28 32 34 36 43 44 45 
18(7)->1 2 4 6 9 13 21 24 27 28 32 34 43 44 45 
21(4)->1 3 4 5 6 9 12 13 18 24 26 27 32 33 34 36 44 45 
22(0)->5 6 12 26 27 33 43 
23(2)->3 5 12 13 24 27 34 36 
24(5)->1 3 4 5 6 9 12 13 18 21 23 27 32 34 36 43 44 45 
25(4)->5 6 12 26 27 33 34 
26(3)->3 5 6 12 21 22 25 27 33 34 43 
27(1)->1 2 3 5 6 9 12 13 18 21 22 23 24 25 26 28 32 33 34 36 43 44 
28(10)->1 2 6 13 18 27 32 34 43 44 
32(8)->1 2 4 6 9 13 18 21 24 27 28 34 43 44 45 
33(5)->3 5 6 12 21 22 25 26 27 34 43 
34(0)->1 2 3 4 5 6 9 12 13 18 21 23 24 25 26 27 28 32 33 36 43 44 45 
36(9)->3 5 9 12 13 21 23 24 27 34 45 
42(1)->8 
43(4)->1 2 3 5 6 12 13 18 22 24 26 27 28 32 33 34 44 45 
44(9)->1 2 4 6 13 18 21 24 27 28 32 34 43 45 
45(1)->1 2 4 6 9 12 13 18 21 24 32 34 36 43 44 
COUNT: 880
COLORS: 11
EDGES: 0
11
880
