START TIME: 1433731812
-1=-1,-1,-1
-1=-1,-1,-1
-1=-1,-1,-1
-1=-1,-1,-1
-1=-1,-1,-1
-1=-1,-1,-1
24=-1,-1,-1
-1=24,-1,-1
-1=-1,-1,-1
-1=-1,-1,-1
24=-1,-1,-1
28=-1,-1,-1
-1=-1,-1,-1
11=-1,-1,-1
46=-1,-1,-1
-1=11,-1,-1
40=-1,-1,-1
31=-1,-1,-1
1=-1,-1,-1
-1=-1,-1,-1
11=-1,-1,-1
-1=-1,-1,-1
-1=-1,-1,-1
49=-1,-1,-1
-1=-1,-1,-1
-1=-1,-1,-1
48=-1,-1,-1
-1=49,-1,-1
-1=-1,-1,-1
-1=40,-1,-1
19=24,-1,-1
8=-1,-1,-1
16=8,-1,-1
-1=16,-1,-1
34=-1,-1,-1
16=48,-1,-1
-1=16,-1,-1
16=-1,-1,-1
36=-1,-1,-1
49=-1,-1,-1
38=-1,-1,-1
-1=38,-1,-1
40=-1,-1,-1
29=-1,-1,-1
3=-1,-1,-1
48=3,-1,-1
38=-1,-1,-1
-1=38,-1,-1
-1=36,-1,-1
18=48,-1,-1
-1=-1,-1,-1
-1=18,-1,-1
38=46,-1,-1
-1=-1,-1,-1
-1=16,-1,-1
48=34,-1,-1
18=-1,-1,-1
-1=-1,-1,-1
-1=38,-1,-1
47=-1,-1,-1
-1=-1,-1,-1
16=-1,-1,-1
4=-1,-1,-1
35=11,-1,-1
-1=-1,-1,-1
3=-1,-1,-1
-1=-1,-1,-1
-1=16,-1,-1
12=48,-1,-1
-1=-1,-1,-1
-1=-1,-1,-1
22=-1,-1,-1
46=35,-1,-1
25=22,28,-1
-1=-1,-1,-1
37=-1,-1,-1
-1=-1,-1,-1
-1=18,-1,-1
-1=37,-1,-1
22=-1,-1,-1
43=25,40,-1
23=-1,-1,-1
-1=-1,-1,-1
-1=3,46,-1
-1=-1,-1,-1
25=-1,-1,-1
-1=1,25,-1
15=-1,-1,-1
8=-1,-1,-1
50=-1,-1,-1
-1=-1,-1,-1
-1=-1,-1,-1
17=-1,-1,-1
14=-1,-1,-1
-1=-1,-1,-1
-1=-1,-1,-1
40=-1,-1,-1
-1=-1,-1,-1
-1=-1,-1,-1
-1=-1,-1,-1
-1=-1,-1,-1
36=23,50,-1
25=-1,-1,-1
-1=-1,-1,-1
-1=31,-1,-1
48=-1,-1,-1
-1=-1,-1,-1
-1=-1,-1,-1
28=-1,-1,-1
34=-1,-1,-1
41=28,-1,-1
-1=43,-1,-1
-1=-1,-1,-1
33=-1,-1,-1
-1=25,-1,-1
-1=-1,-1,-1
43=-1,-1,-1
-1=-1,-1,-1
-1=-1,-1,-1
-1=-1,-1,-1
-1=29,-1,-1
-1=40,-1,-1
-1=47,-1,-1
42=-1,-1,-1
-1=-1,-1,-1
35=4,-1,-1
-1=-1,-1,-1
-1=22,-1,-1
40=12,-1,-1
-1=14,17,41
-1=35,-1,-1
32=48,-1,-1
-1=33,36,43
-1=40,-1,-1
-1=-1,-1,-1
9=-1,-1,-1
33=-1,-1,-1
35=42,49,-1
-1=-1,-1,-1
24=32,-1,-1
3=8,24,-1
16=-1,-1,-1
10=-1,-1,-1
24=-1,-1,-1
31=-1,-1,-1
-1=-1,-1,-1
46=-1,-1,-1
21=31,-1,-1
21=21,-1,-1
42=-1,-1,-1
2=35,-1,-1
-1=34,-1,-1
28=-1,-1,-1
30=-1,-1,-1
-1=3,9,-1
-1=-1,-1,-1
41=15,-1,-1
-1=-1,-1,-1
8=-1,-1,-1
-1=19,-1,-1
-1=24,-1,-1
-1=-1,-1,-1
-1=10,42,-1
-1=41,46,-1
45=-1,-1,-1
6=2,45,-1
-1=16,-1,-1
-1=8,-1,-1
32=-1,-1,-1
-1=28,-1,-1
22=-1,-1,-1
15=21,-1,-1
-1=15,-1,-1
49=33,-1,-1
-1=-1,-1,-1
-1=-1,-1,-1
50=30,-1,-1
21=22,50,-1
50=32,-1,-1
15=21,-1,-1
7=15,49,50
-1=6,-1,-1
15=-1,-1,-1
-1=-1,-1,-1
-1=-1,-1,-1
27=7,15,-1
47=-1,-1,-1
-1=-1,-1,-1
14=-1,-1,-1
50=-1,-1,-1
31=14,27,-1
33=50,-1,-1
-1=33,47,-1
-1=-1,-1,-1
39=31,-1,-1
27=39,-1,-1
15=-1,-1,-1
-1=15,27,-1
19=-1,-1,-1
-1=19,-1,-1
--------
19 ,
,19 
15 27 ,
27 ,15 27 
39 ,27 
31 ,39 
31 ,31 
31 33 47 ,31 
31 47 50 ,31 33 47 
14 27 47 50 ,31 47 50 
14 27 47 ,14 27 47 50 
27 47 ,14 27 47 
27 47 ,27 47 
27 ,27 47 
7 15 ,27 
7 15 ,7 15 
7 15 ,7 15 
7 ,7 15 
6 7 ,7 
6 15 49 50 ,6 7 
6 21 49 50 ,6 15 49 50 
6 21 32 49 ,6 21 49 50 
6 22 32 49 50 ,6 21 32 49 
6 22 30 32 49 ,6 22 32 49 50 
6 22 30 32 49 ,6 22 30 32 49 
6 22 30 32 49 ,6 22 30 32 49 
6 22 30 32 33 ,6 22 30 32 49 
6 15 22 30 32 33 ,6 22 30 32 33 
6 21 22 30 32 33 ,6 15 22 30 32 33 
6 21 30 32 33 ,6 21 22 30 32 33 
6 21 28 30 32 33 ,6 21 30 32 33 
6 21 28 30 33 ,6 21 28 30 32 33 
6 8 21 28 30 33 ,6 21 28 30 33 
6 8 16 21 28 30 33 ,6 8 21 28 30 33 
2 8 16 21 28 30 33 45 ,6 8 16 21 28 30 33 
2 8 16 21 28 30 33 ,2 8 16 21 28 30 33 45 
2 8 16 21 28 30 33 41 46 ,2 8 16 21 28 30 33 
2 8 10 16 21 28 30 33 41 42 46 ,2 8 16 21 28 30 33 41 46 
2 8 10 16 21 28 30 33 41 42 46 ,2 8 10 16 21 28 30 33 41 42 46 
2 8 10 16 21 24 28 30 33 41 42 46 ,2 8 10 16 21 28 30 33 41 42 46 
2 8 10 16 19 21 24 28 30 33 41 42 46 ,2 8 10 16 21 24 28 30 33 41 42 46 
2 10 16 19 21 24 28 30 33 41 42 46 ,2 8 10 16 19 21 24 28 30 33 41 42 46 
2 10 16 19 21 24 28 30 33 41 42 46 ,2 10 16 19 21 24 28 30 33 41 42 46 
2 10 15 16 19 21 24 28 30 33 42 46 ,2 10 16 19 21 24 28 30 33 41 42 46 
2 10 15 16 19 21 24 28 30 33 42 46 ,2 10 15 16 19 21 24 28 30 33 42 46 
2 3 9 10 15 16 19 21 24 28 30 33 42 46 ,2 10 15 16 19 21 24 28 30 33 42 46 
2 3 9 10 15 16 19 21 24 28 33 42 46 ,2 3 9 10 15 16 19 21 24 28 30 33 42 46 
2 3 9 10 15 16 19 21 24 33 42 46 ,2 3 9 10 15 16 19 21 24 28 33 42 46 
2 3 9 10 15 16 19 21 24 33 34 42 46 ,2 3 9 10 15 16 19 21 24 33 42 46 
3 9 10 15 16 19 21 24 33 34 35 42 46 ,2 3 9 10 15 16 19 21 24 33 34 42 46 
3 9 10 15 16 19 21 24 33 34 35 46 ,3 9 10 15 16 19 21 24 33 34 35 42 46 
3 9 10 15 16 19 21 24 33 34 35 46 ,3 9 10 15 16 19 21 24 33 34 35 46 
3 9 10 15 16 19 24 31 33 34 35 46 ,3 9 10 15 16 19 21 24 33 34 35 46 
3 9 10 15 16 19 24 31 33 34 35 ,3 9 10 15 16 19 24 31 33 34 35 46 
3 9 10 15 16 19 24 31 33 34 35 ,3 9 10 15 16 19 24 31 33 34 35 
3 9 10 15 16 19 24 33 34 35 ,3 9 10 15 16 19 24 31 33 34 35 
3 9 10 15 16 19 33 34 35 ,3 9 10 15 16 19 24 33 34 35 
3 9 15 16 19 33 34 35 ,3 9 10 15 16 19 33 34 35 
3 9 15 19 33 34 35 ,3 9 15 16 19 33 34 35 
8 9 15 19 24 33 34 35 ,3 9 15 19 33 34 35 
8 9 15 19 32 33 34 35 ,8 9 15 19 24 33 34 35 
8 9 15 19 32 33 34 35 ,8 9 15 19 32 33 34 35 
8 9 15 19 32 33 34 42 49 ,8 9 15 19 32 33 34 35 
8 9 15 19 32 34 42 49 ,8 9 15 19 32 33 34 42 49 
8 15 19 32 34 42 49 ,8 9 15 19 32 34 42 49 
8 15 19 32 34 42 49 ,8 15 19 32 34 42 49 
8 15 19 32 34 40 42 49 ,8 15 19 32 34 42 49 
8 15 19 32 33 34 36 40 42 43 49 ,8 15 19 32 34 40 42 49 
8 15 19 33 34 36 40 42 43 48 49 ,8 15 19 32 33 34 36 40 42 43 49 
8 15 19 33 34 35 36 40 42 43 48 49 ,8 15 19 33 34 36 40 42 43 48 49 
8 14 15 17 19 33 34 35 36 40 41 42 43 48 49 ,8 15 19 33 34 35 36 40 42 43 48 49 
8 12 14 15 17 19 33 34 35 36 41 42 43 48 49 ,8 14 15 17 19 33 34 35 36 40 41 42 43 48 49 
8 12 14 15 17 19 22 33 34 35 36 41 42 43 48 49 ,8 12 14 15 17 19 33 34 35 36 41 42 43 48 49 
8 12 14 15 17 19 22 33 34 35 36 41 42 43 48 49 ,8 12 14 15 17 19 22 33 34 35 36 41 42 43 48 49 
4 8 12 14 15 17 19 22 33 34 36 41 42 43 48 49 ,8 12 14 15 17 19 22 33 34 35 36 41 42 43 48 49 
4 8 12 14 15 17 19 22 33 34 36 41 42 43 48 49 ,4 8 12 14 15 17 19 22 33 34 36 41 42 43 48 49 
4 8 12 14 15 17 19 22 33 34 36 41 43 48 49 ,4 8 12 14 15 17 19 22 33 34 36 41 42 43 48 49 
4 8 12 14 15 17 19 22 33 34 36 41 43 47 48 49 ,4 8 12 14 15 17 19 22 33 34 36 41 43 48 49 
4 8 12 14 15 17 19 22 33 34 36 40 41 43 47 48 49 ,4 8 12 14 15 17 19 22 33 34 36 41 43 47 48 49 
4 8 12 14 15 17 19 22 29 33 34 36 40 41 43 47 48 49 ,4 8 12 14 15 17 19 22 33 34 36 40 41 43 47 48 49 
4 8 12 14 15 17 19 22 29 33 34 36 40 41 43 47 48 49 ,4 8 12 14 15 17 19 22 29 33 34 36 40 41 43 47 48 49 
4 8 12 14 15 17 19 22 29 33 34 36 40 41 43 47 48 49 ,4 8 12 14 15 17 19 22 29 33 34 36 40 41 43 47 48 49 
4 8 12 14 15 17 19 22 29 33 34 36 40 41 43 47 48 49 ,4 8 12 14 15 17 19 22 29 33 34 36 40 41 43 47 48 49 
4 8 12 14 15 17 19 22 29 33 34 36 40 41 47 48 49 ,4 8 12 14 15 17 19 22 29 33 34 36 40 41 43 47 48 49 
4 8 12 14 15 17 19 22 29 33 34 36 40 41 47 48 49 ,4 8 12 14 15 17 19 22 29 33 34 36 40 41 47 48 49 
4 8 12 14 15 17 19 22 25 29 33 34 36 40 41 47 48 49 ,4 8 12 14 15 17 19 22 29 33 34 36 40 41 47 48 49 
4 8 12 14 15 17 19 22 25 29 34 36 40 41 47 48 49 ,4 8 12 14 15 17 19 22 25 29 33 34 36 40 41 47 48 49 
4 8 12 14 15 17 19 22 25 29 34 36 40 41 47 48 49 ,4 8 12 14 15 17 19 22 25 29 34 36 40 41 47 48 49 
4 8 12 14 15 17 19 22 25 29 34 36 40 41 43 47 48 49 ,4 8 12 14 15 17 19 22 25 29 34 36 40 41 47 48 49 
4 8 12 14 15 17 19 22 25 28 29 34 36 40 43 47 48 49 ,4 8 12 14 15 17 19 22 25 29 34 36 40 41 43 47 48 49 
4 8 12 14 15 17 19 22 25 28 29 36 40 43 47 48 49 ,4 8 12 14 15 17 19 22 25 28 29 34 36 40 43 47 48 49 
4 8 12 14 15 17 19 22 25 29 36 40 43 47 48 49 ,4 8 12 14 15 17 19 22 25 28 29 36 40 43 47 48 49 
4 8 12 14 15 17 19 22 25 29 36 40 43 47 48 49 ,4 8 12 14 15 17 19 22 25 29 36 40 43 47 48 49 
4 8 12 14 15 17 19 22 25 29 36 40 43 47 48 49 ,4 8 12 14 15 17 19 22 25 29 36 40 43 47 48 49 
4 8 12 14 15 17 19 22 25 29 36 40 43 47 49 ,4 8 12 14 15 17 19 22 25 29 36 40 43 47 48 49 
4 8 12 14 15 17 19 22 25 29 31 36 40 43 47 49 ,4 8 12 14 15 17 19 22 25 29 36 40 43 47 49 
4 8 12 14 15 17 19 22 25 29 31 36 40 43 47 49 ,4 8 12 14 15 17 19 22 25 29 31 36 40 43 47 49 
4 8 12 14 15 17 19 22 29 31 36 40 43 47 49 ,4 8 12 14 15 17 19 22 25 29 31 36 40 43 47 49 
4 8 12 14 15 17 19 22 23 29 31 40 43 47 49 50 ,4 8 12 14 15 17 19 22 29 31 36 40 43 47 49 
4 8 12 14 15 17 19 22 23 29 31 40 43 47 49 50 ,4 8 12 14 15 17 19 22 23 29 31 40 43 47 49 50 
4 8 12 14 15 17 19 22 23 29 31 40 43 47 49 50 ,4 8 12 14 15 17 19 22 23 29 31 40 43 47 49 50 
4 8 12 14 15 17 19 22 23 29 31 40 43 47 49 50 ,4 8 12 14 15 17 19 22 23 29 31 40 43 47 49 50 
4 8 12 14 15 17 19 22 23 29 31 40 43 47 49 50 ,4 8 12 14 15 17 19 22 23 29 31 40 43 47 49 50 
4 8 12 14 15 17 19 22 23 29 31 43 47 49 50 ,4 8 12 14 15 17 19 22 23 29 31 40 43 47 49 50 
4 8 12 14 15 17 19 22 23 29 31 43 47 49 50 ,4 8 12 14 15 17 19 22 23 29 31 43 47 49 50 
4 8 12 14 15 17 19 22 23 29 31 43 47 49 50 ,4 8 12 14 15 17 19 22 23 29 31 43 47 49 50 
4 8 12 15 17 19 22 23 29 31 43 47 49 50 ,4 8 12 14 15 17 19 22 23 29 31 43 47 49 50 
4 8 12 15 19 22 23 29 31 43 47 49 50 ,4 8 12 15 17 19 22 23 29 31 43 47 49 50 
4 8 12 15 19 22 23 29 31 43 47 49 50 ,4 8 12 15 19 22 23 29 31 43 47 49 50 
4 8 12 15 19 22 23 29 31 43 47 49 50 ,4 8 12 15 19 22 23 29 31 43 47 49 50 
4 8 12 15 19 22 23 29 31 43 47 49 ,4 8 12 15 19 22 23 29 31 43 47 49 50 
4 12 15 19 22 23 29 31 43 47 49 ,4 8 12 15 19 22 23 29 31 43 47 49 
4 12 19 22 23 29 31 43 47 49 ,4 12 15 19 22 23 29 31 43 47 49 
1 4 12 19 22 23 25 29 31 43 47 49 ,4 12 19 22 23 29 31 43 47 49 
1 4 12 19 22 23 29 31 43 47 49 ,1 4 12 19 22 23 25 29 31 43 47 49 
1 4 12 19 22 23 29 31 43 47 49 ,1 4 12 19 22 23 29 31 43 47 49 
1 3 4 12 19 22 23 29 31 43 46 47 49 ,1 4 12 19 22 23 29 31 43 47 49 
1 3 4 12 19 22 23 29 31 43 46 47 49 ,1 3 4 12 19 22 23 29 31 43 46 47 49 
1 3 4 12 19 22 29 31 43 46 47 49 ,1 3 4 12 19 22 23 29 31 43 46 47 49 
1 3 4 12 19 22 25 29 31 40 46 47 49 ,1 3 4 12 19 22 29 31 43 46 47 49 
1 3 4 12 19 25 29 31 40 46 47 49 ,1 3 4 12 19 22 25 29 31 40 46 47 49 
1 3 4 12 19 25 29 31 37 40 46 47 49 ,1 3 4 12 19 25 29 31 40 46 47 49 
1 3 4 12 18 19 25 29 31 37 40 46 47 49 ,1 3 4 12 19 25 29 31 37 40 46 47 49 
1 3 4 12 18 19 25 29 31 37 40 46 47 49 ,1 3 4 12 18 19 25 29 31 37 40 46 47 49 
1 3 4 12 18 19 25 29 31 40 46 47 49 ,1 3 4 12 18 19 25 29 31 37 40 46 47 49 
1 3 4 12 18 19 25 29 31 40 46 47 49 ,1 3 4 12 18 19 25 29 31 40 46 47 49 
1 3 4 12 18 19 22 28 29 31 40 46 47 49 ,1 3 4 12 18 19 25 29 31 40 46 47 49 
1 3 4 12 18 19 22 28 29 31 35 40 47 49 ,1 3 4 12 18 19 22 28 29 31 40 46 47 49 
1 3 4 12 18 19 28 29 31 35 40 47 49 ,1 3 4 12 18 19 22 28 29 31 35 40 47 49 
1 3 4 12 18 19 28 29 31 35 40 47 49 ,1 3 4 12 18 19 28 29 31 35 40 47 49 
1 3 4 12 18 19 28 29 31 35 40 47 49 ,1 3 4 12 18 19 28 29 31 35 40 47 49 
1 3 4 18 19 28 29 31 35 40 47 48 49 ,1 3 4 12 18 19 28 29 31 35 40 47 49 
1 3 4 16 18 19 28 29 31 35 40 47 48 49 ,1 3 4 18 19 28 29 31 35 40 47 48 49 
1 3 4 16 18 19 28 29 31 35 40 47 48 49 ,1 3 4 16 18 19 28 29 31 35 40 47 48 49 
1 4 16 18 19 28 29 31 35 40 47 48 49 ,1 3 4 16 18 19 28 29 31 35 40 47 48 49 
1 4 16 18 19 28 29 31 35 40 47 48 49 ,1 4 16 18 19 28 29 31 35 40 47 48 49 
1 4 11 16 18 19 28 29 31 40 47 48 49 ,1 4 16 18 19 28 29 31 35 40 47 48 49 
1 11 16 18 19 28 29 31 40 47 48 49 ,1 4 11 16 18 19 28 29 31 40 47 48 49 
1 11 18 19 28 29 31 40 47 48 49 ,1 11 16 18 19 28 29 31 40 47 48 49 
1 11 18 19 28 29 31 40 47 48 49 ,1 11 18 19 28 29 31 40 47 48 49 
1 11 18 19 28 29 31 40 48 49 ,1 11 18 19 28 29 31 40 47 48 49 
1 11 18 19 28 29 31 38 40 48 49 ,1 11 18 19 28 29 31 40 48 49 
1 11 18 19 28 29 31 38 40 48 49 ,1 11 18 19 28 29 31 38 40 48 49 
1 11 19 28 29 31 38 40 48 49 ,1 11 18 19 28 29 31 38 40 48 49 
1 11 19 28 29 31 34 38 40 49 ,1 11 19 28 29 31 38 40 48 49 
1 11 16 19 28 29 31 34 38 40 49 ,1 11 19 28 29 31 34 38 40 49 
1 11 16 19 28 29 31 34 38 40 49 ,1 11 16 19 28 29 31 34 38 40 49 
1 11 16 19 28 29 31 34 40 46 49 ,1 11 16 19 28 29 31 34 38 40 49 
1 11 16 18 19 28 29 31 34 40 46 49 ,1 11 16 19 28 29 31 34 40 46 49 
1 11 16 18 19 28 29 31 34 40 46 49 ,1 11 16 18 19 28 29 31 34 40 46 49 
1 11 16 19 28 29 31 34 40 46 48 49 ,1 11 16 18 19 28 29 31 34 40 46 49 
1 11 16 19 28 29 31 34 36 40 46 48 49 ,1 11 16 19 28 29 31 34 40 46 48 49 
1 11 16 19 28 29 31 34 36 38 40 46 48 49 ,1 11 16 19 28 29 31 34 36 40 46 48 49 
1 11 16 19 28 29 31 34 36 40 46 48 49 ,1 11 16 19 28 29 31 34 36 38 40 46 48 49 
1 3 11 16 19 28 29 31 34 36 40 46 49 ,1 11 16 19 28 29 31 34 36 40 46 48 49 
1 11 16 19 28 29 31 34 36 40 46 49 ,1 3 11 16 19 28 29 31 34 36 40 46 49 
1 11 16 19 28 31 34 36 40 46 49 ,1 11 16 19 28 29 31 34 36 40 46 49 
1 11 16 19 28 31 34 36 46 49 ,1 11 16 19 28 31 34 36 40 46 49 
1 11 16 19 28 31 34 36 38 46 49 ,1 11 16 19 28 31 34 36 46 49 
1 11 16 19 28 31 34 36 46 49 ,1 11 16 19 28 31 34 36 38 46 49 
1 11 16 19 28 31 34 36 46 ,1 11 16 19 28 31 34 36 46 49 
1 11 16 19 28 31 34 46 ,1 11 16 19 28 31 34 36 46 
1 11 19 28 31 34 46 ,1 11 16 19 28 31 34 46 
1 11 16 19 28 31 34 46 ,1 11 19 28 31 34 46 
1 11 19 28 31 34 46 48 ,1 11 16 19 28 31 34 46 
1 11 19 28 31 46 48 ,1 11 19 28 31 34 46 48 
1 11 16 19 28 31 46 48 ,1 11 19 28 31 46 48 
1 8 11 19 28 31 46 48 ,1 11 16 19 28 31 46 48 
1 11 19 28 31 46 48 ,1 8 11 19 28 31 46 48 
1 11 24 28 31 46 48 ,1 11 19 28 31 46 48 
1 11 24 28 31 40 46 48 ,1 11 24 28 31 46 48 
1 11 24 28 31 40 46 48 ,1 11 24 28 31 40 46 48 
1 11 24 28 31 40 46 48 49 ,1 11 24 28 31 40 46 48 
1 11 24 28 31 40 46 49 ,1 11 24 28 31 40 46 48 49 
1 11 24 28 31 40 46 49 ,1 11 24 28 31 40 46 49 
1 11 24 28 31 40 46 49 ,1 11 24 28 31 40 46 49 
1 11 24 28 31 40 46 ,1 11 24 28 31 40 46 49 
1 11 24 28 31 40 46 ,1 11 24 28 31 40 46 
1 11 24 28 31 40 46 ,1 11 24 28 31 40 46 
1 24 28 31 40 46 ,1 11 24 28 31 40 46 
1 24 28 31 40 46 ,1 24 28 31 40 46 
24 28 31 40 46 ,1 24 28 31 40 46 
24 28 40 46 ,24 28 31 40 46 
24 28 46 ,24 28 40 46 
11 24 28 46 ,24 28 46 
11 24 28 ,11 24 28 46 
24 28 ,11 24 28 
24 28 ,24 28 
24 ,24 28 
,24 
,
,
24 ,
,24 
,
,
,
,
,
,
--------
19 ,
,19 
15 27 ,
27 ,15 27 
39 ,27 
31 ,39 
31 ,31 
31 33 47 ,31 
31 47 50 ,31 33 47 
14 27 47 50 ,31 47 50 
14 27 47 ,14 27 47 50 
27 47 ,14 27 47 
27 47 ,27 47 
27 ,27 47 
7 15 ,27 
7 15 ,7 15 
7 15 ,7 15 
7 ,7 15 
6 7 ,7 
6 15 49 50 ,6 7 
6 21 49 50 ,6 15 49 50 
6 21 32 49 ,6 21 49 50 
6 22 32 49 50 ,6 21 32 49 
6 22 30 32 49 ,6 22 32 49 50 
6 22 30 32 49 ,6 22 30 32 49 
6 22 30 32 49 ,6 22 30 32 49 
6 22 30 32 33 ,6 22 30 32 49 
6 15 22 30 32 33 ,6 22 30 32 33 
6 21 22 30 32 33 ,6 15 22 30 32 33 
6 21 30 32 33 ,6 21 22 30 32 33 
6 21 28 30 32 33 ,6 21 30 32 33 
6 21 28 30 33 ,6 21 28 30 32 33 
6 8 21 28 30 33 ,6 21 28 30 33 
6 8 16 21 28 30 33 ,6 8 21 28 30 33 
2 8 16 21 28 30 33 45 ,6 8 16 21 28 30 33 
2 8 16 21 28 30 33 ,2 8 16 21 28 30 33 45 
2 8 16 21 28 30 33 41 46 ,2 8 16 21 28 30 33 
2 8 10 16 21 28 30 33 41 42 46 ,2 8 16 21 28 30 33 41 46 
2 8 10 16 21 28 30 33 41 42 46 ,2 8 10 16 21 28 30 33 41 42 46 
2 8 10 16 21 24 28 30 33 41 42 46 ,2 8 10 16 21 28 30 33 41 42 46 
2 8 10 16 19 21 24 28 30 33 41 42 46 ,2 8 10 16 21 24 28 30 33 41 42 46 
2 10 16 19 21 24 28 30 33 41 42 46 ,2 8 10 16 19 21 24 28 30 33 41 42 46 
2 10 16 19 21 24 28 30 33 41 42 46 ,2 10 16 19 21 24 28 30 33 41 42 46 
2 10 15 16 19 21 24 28 30 33 42 46 ,2 10 16 19 21 24 28 30 33 41 42 46 
2 10 15 16 19 21 24 28 30 33 42 46 ,2 10 15 16 19 21 24 28 30 33 42 46 
2 3 9 10 15 16 19 21 24 28 30 33 42 46 ,2 10 15 16 19 21 24 28 30 33 42 46 
2 3 9 10 15 16 19 21 24 28 33 42 46 ,2 3 9 10 15 16 19 21 24 28 30 33 42 46 
2 3 9 10 15 16 19 21 24 33 42 46 ,2 3 9 10 15 16 19 21 24 28 33 42 46 
2 3 9 10 15 16 19 21 24 33 34 42 46 ,2 3 9 10 15 16 19 21 24 33 42 46 
3 9 10 15 16 19 21 24 33 34 35 42 46 ,2 3 9 10 15 16 19 21 24 33 34 42 46 
3 9 10 15 16 19 21 24 33 34 35 46 ,3 9 10 15 16 19 21 24 33 34 35 42 46 
3 9 10 15 16 19 21 24 33 34 35 46 ,3 9 10 15 16 19 21 24 33 34 35 46 
3 9 10 15 16 19 24 31 33 34 35 46 ,3 9 10 15 16 19 21 24 33 34 35 46 
3 9 10 15 16 19 24 31 33 34 35 ,3 9 10 15 16 19 24 31 33 34 35 46 
3 9 10 15 16 19 24 31 33 34 35 ,3 9 10 15 16 19 24 31 33 34 35 
3 9 10 15 16 19 24 33 34 35 ,3 9 10 15 16 19 24 31 33 34 35 
3 9 10 15 16 19 33 34 35 ,3 9 10 15 16 19 24 33 34 35 
3 9 15 16 19 33 34 35 ,3 9 10 15 16 19 33 34 35 
3 9 15 19 33 34 35 ,3 9 15 16 19 33 34 35 
8 9 15 19 24 33 34 35 ,3 9 15 19 33 34 35 
8 9 15 19 32 33 34 35 ,8 9 15 19 24 33 34 35 
8 9 15 19 32 33 34 35 ,8 9 15 19 32 33 34 35 
8 9 15 19 32 33 34 42 49 ,8 9 15 19 32 33 34 35 
8 9 15 19 32 34 42 49 ,8 9 15 19 32 33 34 42 49 
8 15 19 32 34 42 49 ,8 9 15 19 32 34 42 49 
8 15 19 32 34 42 49 ,8 15 19 32 34 42 49 
8 15 19 32 34 40 42 49 ,8 15 19 32 34 42 49 
8 15 19 32 33 34 36 40 42 43 49 ,8 15 19 32 34 40 42 49 
8 15 19 33 34 36 40 42 43 48 49 ,8 15 19 32 33 34 36 40 42 43 49 
8 15 19 33 34 35 36 40 42 43 48 49 ,8 15 19 33 34 36 40 42 43 48 49 
8 14 15 17 19 33 34 35 36 40 41 42 43 48 49 ,8 15 19 33 34 35 36 40 42 43 48 49 
8 12 14 15 17 19 33 34 35 36 41 42 43 48 49 ,8 14 15 17 19 33 34 35 36 40 41 42 43 48 49 
8 12 14 15 17 19 22 33 34 35 36 41 42 43 48 49 ,8 12 14 15 17 19 33 34 35 36 41 42 43 48 49 
8 12 14 15 17 19 22 33 34 35 36 41 42 43 48 49 ,8 12 14 15 17 19 22 33 34 35 36 41 42 43 48 49 
4 8 12 14 15 17 19 22 33 34 36 41 42 43 48 49 ,8 12 14 15 17 19 22 33 34 35 36 41 42 43 48 49 
4 8 12 14 15 17 19 22 33 34 36 41 42 43 48 49 ,4 8 12 14 15 17 19 22 33 34 36 41 42 43 48 49 
4 8 12 14 15 17 19 22 33 34 36 41 43 48 49 ,4 8 12 14 15 17 19 22 33 34 36 41 42 43 48 49 
4 8 12 14 15 17 19 22 33 34 36 41 43 47 48 49 ,4 8 12 14 15 17 19 22 33 34 36 41 43 48 49 
4 8 12 14 15 17 19 22 33 34 36 40 41 43 47 48 49 ,4 8 12 14 15 17 19 22 33 34 36 41 43 47 48 49 
4 8 12 14 15 17 19 22 29 33 34 36 40 41 43 47 48 49 ,4 8 12 14 15 17 19 22 33 34 36 40 41 43 47 48 49 
4 8 12 14 15 17 19 22 29 33 34 36 40 41 43 47 48 49 ,4 8 12 14 15 17 19 22 29 33 34 36 40 41 43 47 48 49 
4 8 12 14 15 17 19 22 29 33 34 36 40 41 43 47 48 49 ,4 8 12 14 15 17 19 22 29 33 34 36 40 41 43 47 48 49 
4 8 12 14 15 17 19 22 29 33 34 36 40 41 43 47 48 49 ,4 8 12 14 15 17 19 22 29 33 34 36 40 41 43 47 48 49 
4 8 12 14 15 17 19 22 29 33 34 36 40 41 47 48 49 ,4 8 12 14 15 17 19 22 29 33 34 36 40 41 43 47 48 49 
4 8 12 14 15 17 19 22 29 33 34 36 40 41 47 48 49 ,4 8 12 14 15 17 19 22 29 33 34 36 40 41 47 48 49 
4 8 12 14 15 17 19 22 25 29 33 34 36 40 41 47 48 49 ,4 8 12 14 15 17 19 22 29 33 34 36 40 41 47 48 49 
4 8 12 14 15 17 19 22 25 29 34 36 40 41 47 48 49 ,4 8 12 14 15 17 19 22 25 29 33 34 36 40 41 47 48 49 
4 8 12 14 15 17 19 22 25 29 34 36 40 41 47 48 49 ,4 8 12 14 15 17 19 22 25 29 34 36 40 41 47 48 49 
4 8 12 14 15 17 19 22 25 29 34 36 40 41 43 47 48 49 ,4 8 12 14 15 17 19 22 25 29 34 36 40 41 47 48 49 
4 8 12 14 15 17 19 22 25 28 29 34 36 40 43 47 48 49 ,4 8 12 14 15 17 19 22 25 29 34 36 40 41 43 47 48 49 
4 8 12 14 15 17 19 22 25 28 29 36 40 43 47 48 49 ,4 8 12 14 15 17 19 22 25 28 29 34 36 40 43 47 48 49 
4 8 12 14 15 17 19 22 25 29 36 40 43 47 48 49 ,4 8 12 14 15 17 19 22 25 28 29 36 40 43 47 48 49 
4 8 12 14 15 17 19 22 25 29 36 40 43 47 48 49 ,4 8 12 14 15 17 19 22 25 29 36 40 43 47 48 49 
4 8 12 14 15 17 19 22 25 29 36 40 43 47 48 49 ,4 8 12 14 15 17 19 22 25 29 36 40 43 47 48 49 
4 8 12 14 15 17 19 22 25 29 36 40 43 47 49 ,4 8 12 14 15 17 19 22 25 29 36 40 43 47 48 49 
4 8 12 14 15 17 19 22 25 29 31 36 40 43 47 49 ,4 8 12 14 15 17 19 22 25 29 36 40 43 47 49 
4 8 12 14 15 17 19 22 25 29 31 36 40 43 47 49 ,4 8 12 14 15 17 19 22 25 29 31 36 40 43 47 49 
4 8 12 14 15 17 19 22 29 31 36 40 43 47 49 ,4 8 12 14 15 17 19 22 25 29 31 36 40 43 47 49 
4 8 12 14 15 17 19 22 23 29 31 40 43 47 49 50 ,4 8 12 14 15 17 19 22 29 31 36 40 43 47 49 
4 8 12 14 15 17 19 22 23 29 31 40 43 47 49 50 ,4 8 12 14 15 17 19 22 23 29 31 40 43 47 49 50 
4 8 12 14 15 17 19 22 23 29 31 40 43 47 49 50 ,4 8 12 14 15 17 19 22 23 29 31 40 43 47 49 50 
4 8 12 14 15 17 19 22 23 29 31 40 43 47 49 50 ,4 8 12 14 15 17 19 22 23 29 31 40 43 47 49 50 
4 8 12 14 15 17 19 22 23 29 31 40 43 47 49 50 ,4 8 12 14 15 17 19 22 23 29 31 40 43 47 49 50 
4 8 12 14 15 17 19 22 23 29 31 43 47 49 50 ,4 8 12 14 15 17 19 22 23 29 31 40 43 47 49 50 
4 8 12 14 15 17 19 22 23 29 31 43 47 49 50 ,4 8 12 14 15 17 19 22 23 29 31 43 47 49 50 
4 8 12 14 15 17 19 22 23 29 31 43 47 49 50 ,4 8 12 14 15 17 19 22 23 29 31 43 47 49 50 
4 8 12 15 17 19 22 23 29 31 43 47 49 50 ,4 8 12 14 15 17 19 22 23 29 31 43 47 49 50 
4 8 12 15 19 22 23 29 31 43 47 49 50 ,4 8 12 15 17 19 22 23 29 31 43 47 49 50 
4 8 12 15 19 22 23 29 31 43 47 49 50 ,4 8 12 15 19 22 23 29 31 43 47 49 50 
4 8 12 15 19 22 23 29 31 43 47 49 50 ,4 8 12 15 19 22 23 29 31 43 47 49 50 
4 8 12 15 19 22 23 29 31 43 47 49 ,4 8 12 15 19 22 23 29 31 43 47 49 50 
4 12 15 19 22 23 29 31 43 47 49 ,4 8 12 15 19 22 23 29 31 43 47 49 
4 12 19 22 23 29 31 43 47 49 ,4 12 15 19 22 23 29 31 43 47 49 
1 4 12 19 22 23 25 29 31 43 47 49 ,4 12 19 22 23 29 31 43 47 49 
1 4 12 19 22 23 29 31 43 47 49 ,1 4 12 19 22 23 25 29 31 43 47 49 
1 4 12 19 22 23 29 31 43 47 49 ,1 4 12 19 22 23 29 31 43 47 49 
1 3 4 12 19 22 23 29 31 43 46 47 49 ,1 4 12 19 22 23 29 31 43 47 49 
1 3 4 12 19 22 23 29 31 43 46 47 49 ,1 3 4 12 19 22 23 29 31 43 46 47 49 
1 3 4 12 19 22 29 31 43 46 47 49 ,1 3 4 12 19 22 23 29 31 43 46 47 49 
1 3 4 12 19 22 25 29 31 40 46 47 49 ,1 3 4 12 19 22 29 31 43 46 47 49 
1 3 4 12 19 25 29 31 40 46 47 49 ,1 3 4 12 19 22 25 29 31 40 46 47 49 
1 3 4 12 19 25 29 31 37 40 46 47 49 ,1 3 4 12 19 25 29 31 40 46 47 49 
1 3 4 12 18 19 25 29 31 37 40 46 47 49 ,1 3 4 12 19 25 29 31 37 40 46 47 49 
1 3 4 12 18 19 25 29 31 37 40 46 47 49 ,1 3 4 12 18 19 25 29 31 37 40 46 47 49 
1 3 4 12 18 19 25 29 31 40 46 47 49 ,1 3 4 12 18 19 25 29 31 37 40 46 47 49 
1 3 4 12 18 19 25 29 31 40 46 47 49 ,1 3 4 12 18 19 25 29 31 40 46 47 49 
1 3 4 12 18 19 22 28 29 31 40 46 47 49 ,1 3 4 12 18 19 25 29 31 40 46 47 49 
1 3 4 12 18 19 22 28 29 31 35 40 47 49 ,1 3 4 12 18 19 22 28 29 31 40 46 47 49 
1 3 4 12 18 19 28 29 31 35 40 47 49 ,1 3 4 12 18 19 22 28 29 31 35 40 47 49 
1 3 4 12 18 19 28 29 31 35 40 47 49 ,1 3 4 12 18 19 28 29 31 35 40 47 49 
1 3 4 12 18 19 28 29 31 35 40 47 49 ,1 3 4 12 18 19 28 29 31 35 40 47 49 
1 3 4 18 19 28 29 31 35 40 47 48 49 ,1 3 4 12 18 19 28 29 31 35 40 47 49 
1 3 4 16 18 19 28 29 31 35 40 47 48 49 ,1 3 4 18 19 28 29 31 35 40 47 48 49 
1 3 4 16 18 19 28 29 31 35 40 47 48 49 ,1 3 4 16 18 19 28 29 31 35 40 47 48 49 
1 4 16 18 19 28 29 31 35 40 47 48 49 ,1 3 4 16 18 19 28 29 31 35 40 47 48 49 
1 4 16 18 19 28 29 31 35 40 47 48 49 ,1 4 16 18 19 28 29 31 35 40 47 48 49 
1 4 11 16 18 19 28 29 31 40 47 48 49 ,1 4 16 18 19 28 29 31 35 40 47 48 49 
1 11 16 18 19 28 29 31 40 47 48 49 ,1 4 11 16 18 19 28 29 31 40 47 48 49 
1 11 18 19 28 29 31 40 47 48 49 ,1 11 16 18 19 28 29 31 40 47 48 49 
1 11 18 19 28 29 31 40 47 48 49 ,1 11 18 19 28 29 31 40 47 48 49 
1 11 18 19 28 29 31 40 48 49 ,1 11 18 19 28 29 31 40 47 48 49 
1 11 18 19 28 29 31 38 40 48 49 ,1 11 18 19 28 29 31 40 48 49 
1 11 18 19 28 29 31 38 40 48 49 ,1 11 18 19 28 29 31 38 40 48 49 
1 11 19 28 29 31 38 40 48 49 ,1 11 18 19 28 29 31 38 40 48 49 
1 11 19 28 29 31 34 38 40 49 ,1 11 19 28 29 31 38 40 48 49 
1 11 16 19 28 29 31 34 38 40 49 ,1 11 19 28 29 31 34 38 40 49 
1 11 16 19 28 29 31 34 38 40 49 ,1 11 16 19 28 29 31 34 38 40 49 
1 11 16 19 28 29 31 34 40 46 49 ,1 11 16 19 28 29 31 34 38 40 49 
1 11 16 18 19 28 29 31 34 40 46 49 ,1 11 16 19 28 29 31 34 40 46 49 
1 11 16 18 19 28 29 31 34 40 46 49 ,1 11 16 18 19 28 29 31 34 40 46 49 
1 11 16 19 28 29 31 34 40 46 48 49 ,1 11 16 18 19 28 29 31 34 40 46 49 
1 11 16 19 28 29 31 34 36 40 46 48 49 ,1 11 16 19 28 29 31 34 40 46 48 49 
1 11 16 19 28 29 31 34 36 38 40 46 48 49 ,1 11 16 19 28 29 31 34 36 40 46 48 49 
1 11 16 19 28 29 31 34 36 40 46 48 49 ,1 11 16 19 28 29 31 34 36 38 40 46 48 49 
1 3 11 16 19 28 29 31 34 36 40 46 49 ,1 11 16 19 28 29 31 34 36 40 46 48 49 
1 11 16 19 28 29 31 34 36 40 46 49 ,1 3 11 16 19 28 29 31 34 36 40 46 49 
1 11 16 19 28 31 34 36 40 46 49 ,1 11 16 19 28 29 31 34 36 40 46 49 
1 11 16 19 28 31 34 36 46 49 ,1 11 16 19 28 31 34 36 40 46 49 
1 11 16 19 28 31 34 36 38 46 49 ,1 11 16 19 28 31 34 36 46 49 
1 11 16 19 28 31 34 36 46 49 ,1 11 16 19 28 31 34 36 38 46 49 
1 11 16 19 28 31 34 36 46 ,1 11 16 19 28 31 34 36 46 49 
1 11 16 19 28 31 34 46 ,1 11 16 19 28 31 34 36 46 
1 11 19 28 31 34 46 ,1 11 16 19 28 31 34 46 
1 11 16 19 28 31 34 46 ,1 11 19 28 31 34 46 
1 11 19 28 31 34 46 48 ,1 11 16 19 28 31 34 46 
1 11 19 28 31 46 48 ,1 11 19 28 31 34 46 48 
1 11 16 19 28 31 46 48 ,1 11 19 28 31 46 48 
1 8 11 19 28 31 46 48 ,1 11 16 19 28 31 46 48 
1 11 19 28 31 46 48 ,1 8 11 19 28 31 46 48 
1 11 24 28 31 46 48 ,1 11 19 28 31 46 48 
1 11 24 28 31 40 46 48 ,1 11 24 28 31 46 48 
1 11 24 28 31 40 46 48 ,1 11 24 28 31 40 46 48 
1 11 24 28 31 40 46 48 49 ,1 11 24 28 31 40 46 48 
1 11 24 28 31 40 46 49 ,1 11 24 28 31 40 46 48 49 
1 11 24 28 31 40 46 49 ,1 11 24 28 31 40 46 49 
1 11 24 28 31 40 46 49 ,1 11 24 28 31 40 46 49 
1 11 24 28 31 40 46 ,1 11 24 28 31 40 46 49 
1 11 24 28 31 40 46 ,1 11 24 28 31 40 46 
1 11 24 28 31 40 46 ,1 11 24 28 31 40 46 
1 24 28 31 40 46 ,1 11 24 28 31 40 46 
1 24 28 31 40 46 ,1 24 28 31 40 46 
24 28 31 40 46 ,1 24 28 31 40 46 
24 28 40 46 ,24 28 31 40 46 
24 28 46 ,24 28 40 46 
11 24 28 46 ,24 28 46 
11 24 28 ,11 24 28 46 
24 28 ,11 24 28 
24 28 ,24 28 
24 ,24 28 
,24 
,
,
24 ,
,24 
,
,
,
,
,
,
-------------
-------
1(-1)->3 4 8 11 12 16 18 19 22 23 24 25 28 29 31 34 35 36 37 38 40 43 46 47 48 49 
2(-1)->3 8 9 10 15 16 19 21 24 28 30 33 34 41 42 45 46 
3(-1)->1 2 4 9 10 11 12 15 16 18 19 21 22 23 24 25 28 29 30 31 33 34 35 36 37 40 42 43 46 47 48 49 
4(-1)->1 3 8 11 12 14 15 16 17 18 19 22 23 25 28 29 31 33 34 35 36 37 40 41 42 43 46 47 48 49 50 
6(-1)->7 8 15 16 21 22 28 30 32 33 49 50 
7(-1)->6 15 
8(-1)->1 2 4 6 9 10 11 12 14 15 16 17 19 21 22 23 24 25 28 29 30 31 32 33 34 35 36 40 41 42 43 45 46 47 48 49 50 
9(-1)->2 3 8 10 15 16 19 21 24 28 30 31 32 33 34 35 42 46 49 
10(-1)->2 3 8 9 15 16 19 21 24 28 30 31 33 34 35 41 42 46 
11(-1)->1 3 4 8 16 18 19 24 28 29 31 34 36 38 40 46 47 48 49 
12(-1)->1 3 4 8 14 15 17 18 19 22 23 25 28 29 31 33 34 35 36 37 40 41 42 43 46 47 48 49 50 
14(-1)->4 8 12 15 17 19 22 23 25 27 28 29 31 33 34 35 36 40 41 42 43 47 48 49 50 
15(-1)->2 3 4 6 7 8 9 10 12 14 16 17 19 21 22 23 24 25 27 28 29 30 31 32 33 34 35 36 40 41 42 43 46 47 48 49 50 
16(-1)->1 2 3 4 6 8 9 10 11 15 18 19 21 24 28 29 30 31 33 34 35 36 38 40 41 42 45 46 47 48 49 
17(-1)->4 8 12 14 15 19 22 23 25 28 29 31 33 34 35 36 40 41 42 43 47 48 49 50 
18(-1)->1 3 4 11 12 16 19 22 25 28 29 31 34 35 37 38 40 46 47 48 49 
19(-1)->1 2 3 4 8 9 10 11 12 14 15 16 17 18 21 22 23 24 25 28 29 30 31 32 33 34 35 36 37 38 40 41 42 43 46 47 48 49 50 
21(-1)->2 3 6 8 9 10 15 16 19 22 24 28 30 32 33 34 35 41 42 45 46 49 50 
22(-1)->1 3 4 6 8 12 14 15 17 18 19 21 23 25 28 29 30 31 32 33 34 35 36 40 41 42 43 46 47 48 49 50 
23(-1)->1 3 4 8 12 14 15 17 19 22 25 29 31 40 43 46 47 49 50 
24(-1)->1 2 3 8 9 10 11 15 16 19 21 28 30 31 33 34 35 40 41 42 46 48 49 
25(-1)->1 3 4 8 12 14 15 17 18 19 22 23 28 29 31 33 34 36 37 40 41 43 46 47 48 49 
27(-1)->14 15 47 50 
28(-1)->1 2 3 4 6 8 9 10 11 12 14 15 16 17 18 19 21 22 24 25 29 30 31 32 33 34 35 36 38 40 41 42 43 45 46 47 48 49 
29(-1)->1 3 4 8 11 12 14 15 16 17 18 19 22 23 25 28 31 33 34 35 36 37 38 40 41 43 46 47 48 49 50 
30(-1)->2 3 6 8 9 10 15 16 19 21 22 24 28 32 33 41 42 45 46 49 
31(-1)->1 3 4 8 9 10 11 12 14 15 16 17 18 19 22 23 24 25 28 29 33 34 35 36 37 38 40 43 46 47 48 49 50 
32(-1)->6 8 9 15 19 21 22 28 30 33 34 35 36 40 42 43 49 50 
33(-1)->2 3 4 6 8 9 10 12 14 15 16 17 19 21 22 24 25 28 29 30 31 32 34 35 36 40 41 42 43 45 46 47 48 49 
34(-1)->1 2 3 4 8 9 10 11 12 14 15 16 17 18 19 21 22 24 25 28 29 31 32 33 35 36 38 40 41 42 43 46 47 48 49 
35(-1)->1 3 4 8 9 10 12 14 15 16 17 18 19 21 22 24 28 29 31 32 33 34 36 40 41 42 43 46 47 48 49 
36(-1)->1 3 4 8 11 12 14 15 16 17 19 22 25 28 29 31 32 33 34 35 38 40 41 42 43 46 47 48 49 
37(-1)->1 3 4 12 18 19 25 29 31 40 46 47 49 
38(-1)->1 11 16 18 19 28 29 31 34 36 40 46 48 49 
39(-1)->
40(-1)->1 3 4 8 11 12 14 15 16 17 18 19 22 23 24 25 28 29 31 32 33 34 35 36 37 38 41 42 43 46 47 48 49 50 
41(-1)->2 4 8 10 12 14 15 16 17 19 21 22 24 25 28 29 30 33 34 35 36 40 42 43 46 47 48 49 
42(-1)->2 3 4 8 9 10 12 14 15 16 17 19 21 22 24 28 30 32 33 34 35 36 40 41 43 46 48 49 
43(-1)->1 3 4 8 12 14 15 17 19 22 23 25 28 29 31 32 33 34 35 36 40 41 42 46 47 48 49 50 
45(-1)->2 8 16 21 28 30 33 
46(-1)->1 2 3 4 8 9 10 11 12 15 16 18 19 21 22 23 24 25 28 29 30 31 33 34 35 36 37 38 40 41 42 43 47 48 49 
47(-1)->1 3 4 8 11 12 14 15 16 17 18 19 22 23 25 27 28 29 31 33 34 35 36 37 40 41 43 46 48 49 50 
48(-1)->1 3 4 8 11 12 14 15 16 17 18 19 22 24 25 28 29 31 33 34 35 36 38 40 41 42 43 46 47 49 
49(-1)->1 3 4 6 8 9 11 12 14 15 16 17 18 19 21 22 23 24 25 28 29 30 31 32 33 34 35 36 37 38 40 41 42 43 46 47 48 50 
50(-1)->4 6 8 12 14 15 17 19 21 22 23 27 29 31 32 40 43 47 49 
-------
Node 19 maps to position 0
Node 28 maps to position 1
Node 49 maps to position 2
Node 8 maps to position 3
Node 15 maps to position 4
Node 34 maps to position 5
Node 46 maps to position 6
Node 33 maps to position 7
Node 40 maps to position 8
Node 31 maps to position 9
Node 3 maps to position 10
Node 22 maps to position 11
Node 4 maps to position 12
Node 16 maps to position 13
Node 29 maps to position 14
Node 35 maps to position 15
Node 47 maps to position 16
Node 48 maps to position 17
Node 12 maps to position 18
Node 36 maps to position 19
Node 41 maps to position 20
Node 42 maps to position 21
Node 43 maps to position 22
Node 1 maps to position 23
Node 25 maps to position 24
Node 14 maps to position 25
Node 17 maps to position 26
Node 21 maps to position 27
Node 24 maps to position 28
Node 18 maps to position 29
Node 30 maps to position 30
Node 9 maps to position 31
Node 11 maps to position 32
Node 23 maps to position 33
Node 50 maps to position 34
Node 10 maps to position 35
Node 32 maps to position 36
Node 2 maps to position 37
Node 38 maps to position 38
Node 37 maps to position 39
Node 6 maps to position 40
Node 45 maps to position 41
Node 27 maps to position 42
Node 7 maps to position 43
Node 39 maps to position 44
19(-1)->1 2 3 4 8 9 10 11 12 14 15 16 17 18 21 22 23 24 25 28 29 30 31 32 33 34 35 36 37 38 40 41 42 43 46 47 48 49 50 
28(-1)->1 2 3 4 6 8 9 10 11 12 14 15 16 17 18 19 21 22 24 25 29 30 31 32 33 34 35 36 38 40 41 42 43 45 46 47 48 49 
49(-1)->1 3 4 6 8 9 11 12 14 15 16 17 18 19 21 22 23 24 25 28 29 30 31 32 33 34 35 36 37 38 40 41 42 43 46 47 48 50 
8(-1)->1 2 4 6 9 10 11 12 14 15 16 17 19 21 22 23 24 25 28 29 30 31 32 33 34 35 36 40 41 42 43 45 46 47 48 49 50 
15(-1)->2 3 4 6 7 8 9 10 12 14 16 17 19 21 22 23 24 25 27 28 29 30 31 32 33 34 35 36 40 41 42 43 46 47 48 49 50 
34(-1)->1 2 3 4 8 9 10 11 12 14 15 16 17 18 19 21 22 24 25 28 29 31 32 33 35 36 38 40 41 42 43 46 47 48 49 
46(-1)->1 2 3 4 8 9 10 11 12 15 16 18 19 21 22 23 24 25 28 29 30 31 33 34 35 36 37 38 40 41 42 43 47 48 49 
33(-1)->2 3 4 6 8 9 10 12 14 15 16 17 19 21 22 24 25 28 29 30 31 32 34 35 36 40 41 42 43 45 46 47 48 49 
40(-1)->1 3 4 8 11 12 14 15 16 17 18 19 22 23 24 25 28 29 31 32 33 34 35 36 37 38 41 42 43 46 47 48 49 50 
31(-1)->1 3 4 8 9 10 11 12 14 15 16 17 18 19 22 23 24 25 28 29 33 34 35 36 37 38 40 43 46 47 48 49 50 
3(-1)->1 2 4 9 10 11 12 15 16 18 19 21 22 23 24 25 28 29 30 31 33 34 35 36 37 40 42 43 46 47 48 49 
22(-1)->1 3 4 6 8 12 14 15 17 18 19 21 23 25 28 29 30 31 32 33 34 35 36 40 41 42 43 46 47 48 49 50 
4(-1)->1 3 8 11 12 14 15 16 17 18 19 22 23 25 28 29 31 33 34 35 36 37 40 41 42 43 46 47 48 49 50 
16(-1)->1 2 3 4 6 8 9 10 11 15 18 19 21 24 28 29 30 31 33 34 35 36 38 40 41 42 45 46 47 48 49 
29(-1)->1 3 4 8 11 12 14 15 16 17 18 19 22 23 25 28 31 33 34 35 36 37 38 40 41 43 46 47 48 49 50 
35(-1)->1 3 4 8 9 10 12 14 15 16 17 18 19 21 22 24 28 29 31 32 33 34 36 40 41 42 43 46 47 48 49 
47(-1)->1 3 4 8 11 12 14 15 16 17 18 19 22 23 25 27 28 29 31 33 34 35 36 37 40 41 43 46 48 49 50 
48(-1)->1 3 4 8 11 12 14 15 16 17 18 19 22 24 25 28 29 31 33 34 35 36 38 40 41 42 43 46 47 49 
12(-1)->1 3 4 8 14 15 17 18 19 22 23 25 28 29 31 33 34 35 36 37 40 41 42 43 46 47 48 49 50 
36(-1)->1 3 4 8 11 12 14 15 16 17 19 22 25 28 29 31 32 33 34 35 38 40 41 42 43 46 47 48 49 
41(-1)->2 4 8 10 12 14 15 16 17 19 21 22 24 25 28 29 30 33 34 35 36 40 42 43 46 47 48 49 
42(-1)->2 3 4 8 9 10 12 14 15 16 17 19 21 22 24 28 30 32 33 34 35 36 40 41 43 46 48 49 
43(-1)->1 3 4 8 12 14 15 17 19 22 23 25 28 29 31 32 33 34 35 36 40 41 42 46 47 48 49 50 
1(-1)->3 4 8 11 12 16 18 19 22 23 24 25 28 29 31 34 35 36 37 38 40 43 46 47 48 49 
25(-1)->1 3 4 8 12 14 15 17 18 19 22 23 28 29 31 33 34 36 37 40 41 43 46 47 48 49 
14(-1)->4 8 12 15 17 19 22 23 25 27 28 29 31 33 34 35 36 40 41 42 43 47 48 49 50 
17(-1)->4 8 12 14 15 19 22 23 25 28 29 31 33 34 35 36 40 41 42 43 47 48 49 50 
21(-1)->2 3 6 8 9 10 15 16 19 22 24 28 30 32 33 34 35 41 42 45 46 49 50 
24(-1)->1 2 3 8 9 10 11 15 16 19 21 28 30 31 33 34 35 40 41 42 46 48 49 
18(-1)->1 3 4 11 12 16 19 22 25 28 29 31 34 35 37 38 40 46 47 48 49 
30(-1)->2 3 6 8 9 10 15 16 19 21 22 24 28 32 33 41 42 45 46 49 
9(-1)->2 3 8 10 15 16 19 21 24 28 30 31 32 33 34 35 42 46 49 
11(-1)->1 3 4 8 16 18 19 24 28 29 31 34 36 38 40 46 47 48 49 
23(-1)->1 3 4 8 12 14 15 17 19 22 25 29 31 40 43 46 47 49 50 
50(-1)->4 6 8 12 14 15 17 19 21 22 23 27 29 31 32 40 43 47 49 
10(-1)->2 3 8 9 15 16 19 21 24 28 30 31 33 34 35 41 42 46 
32(-1)->6 8 9 15 19 21 22 28 30 33 34 35 36 40 42 43 49 50 
2(-1)->3 8 9 10 15 16 19 21 24 28 30 33 34 41 42 45 46 
38(-1)->1 11 16 18 19 28 29 31 34 36 40 46 48 49 
37(-1)->1 3 4 12 18 19 25 29 31 40 46 47 49 
6(-1)->7 8 15 16 21 22 28 30 32 33 49 50 
45(-1)->2 8 16 21 28 30 33 
27(-1)->14 15 47 50 
7(-1)->6 15 
39(-1)->
-------
CONNECTEDS size: 2
****************
****************
19(-1)->1 2 3 4 8 9 10 11 12 14 15 16 17 18 21 22 23 24 25 28 29 30 31 32 33 34 35 36 37 38 40 41 42 43 46 47 48 49 50 
28(-1)->1 2 3 4 6 8 9 10 11 12 14 15 16 17 18 19 21 22 24 25 29 30 31 32 33 34 35 36 38 40 41 42 43 45 46 47 48 49 
49(-1)->1 3 4 6 8 9 11 12 14 15 16 17 18 19 21 22 23 24 25 28 29 30 31 32 33 34 35 36 37 38 40 41 42 43 46 47 48 50 
8(-1)->1 2 4 6 9 10 11 12 14 15 16 17 19 21 22 23 24 25 28 29 30 31 32 33 34 35 36 40 41 42 43 45 46 47 48 49 50 
15(-1)->2 3 4 6 7 8 9 10 12 14 16 17 19 21 22 23 24 25 27 28 29 30 31 32 33 34 35 36 40 41 42 43 46 47 48 49 50 
34(-1)->1 2 3 4 8 9 10 11 12 14 15 16 17 18 19 21 22 24 25 28 29 31 32 33 35 36 38 40 41 42 43 46 47 48 49 
46(-1)->1 2 3 4 8 9 10 11 12 15 16 18 19 21 22 23 24 25 28 29 30 31 33 34 35 36 37 38 40 41 42 43 47 48 49 
33(-1)->2 3 4 6 8 9 10 12 14 15 16 17 19 21 22 24 25 28 29 30 31 32 34 35 36 40 41 42 43 45 46 47 48 49 
40(-1)->1 3 4 8 11 12 14 15 16 17 18 19 22 23 24 25 28 29 31 32 33 34 35 36 37 38 41 42 43 46 47 48 49 50 
31(-1)->1 3 4 8 9 10 11 12 14 15 16 17 18 19 22 23 24 25 28 29 33 34 35 36 37 38 40 43 46 47 48 49 50 
3(-1)->1 2 4 9 10 11 12 15 16 18 19 21 22 23 24 25 28 29 30 31 33 34 35 36 37 40 42 43 46 47 48 49 
22(-1)->1 3 4 6 8 12 14 15 17 18 19 21 23 25 28 29 30 31 32 33 34 35 36 40 41 42 43 46 47 48 49 50 
4(-1)->1 3 8 11 12 14 15 16 17 18 19 22 23 25 28 29 31 33 34 35 36 37 40 41 42 43 46 47 48 49 50 
16(-1)->1 2 3 4 6 8 9 10 11 15 18 19 21 24 28 29 30 31 33 34 35 36 38 40 41 42 45 46 47 48 49 
29(-1)->1 3 4 8 11 12 14 15 16 17 18 19 22 23 25 28 31 33 34 35 36 37 38 40 41 43 46 47 48 49 50 
35(-1)->1 3 4 8 9 10 12 14 15 16 17 18 19 21 22 24 28 29 31 32 33 34 36 40 41 42 43 46 47 48 49 
47(-1)->1 3 4 8 11 12 14 15 16 17 18 19 22 23 25 27 28 29 31 33 34 35 36 37 40 41 43 46 48 49 50 
48(-1)->1 3 4 8 11 12 14 15 16 17 18 19 22 24 25 28 29 31 33 34 35 36 38 40 41 42 43 46 47 49 
12(-1)->1 3 4 8 14 15 17 18 19 22 23 25 28 29 31 33 34 35 36 37 40 41 42 43 46 47 48 49 50 
36(-1)->1 3 4 8 11 12 14 15 16 17 19 22 25 28 29 31 32 33 34 35 38 40 41 42 43 46 47 48 49 
41(-1)->2 4 8 10 12 14 15 16 17 19 21 22 24 25 28 29 30 33 34 35 36 40 42 43 46 47 48 49 
42(-1)->2 3 4 8 9 10 12 14 15 16 17 19 21 22 24 28 30 32 33 34 35 36 40 41 43 46 48 49 
43(-1)->1 3 4 8 12 14 15 17 19 22 23 25 28 29 31 32 33 34 35 36 40 41 42 46 47 48 49 50 
1(-1)->3 4 8 11 12 16 18 19 22 23 24 25 28 29 31 34 35 36 37 38 40 43 46 47 48 49 
25(-1)->1 3 4 8 12 14 15 17 18 19 22 23 28 29 31 33 34 36 37 40 41 43 46 47 48 49 
14(-1)->4 8 12 15 17 19 22 23 25 27 28 29 31 33 34 35 36 40 41 42 43 47 48 49 50 
17(-1)->4 8 12 14 15 19 22 23 25 28 29 31 33 34 35 36 40 41 42 43 47 48 49 50 
21(-1)->2 3 6 8 9 10 15 16 19 22 24 28 30 32 33 34 35 41 42 45 46 49 50 
24(-1)->1 2 3 8 9 10 11 15 16 19 21 28 30 31 33 34 35 40 41 42 46 48 49 
18(-1)->1 3 4 11 12 16 19 22 25 28 29 31 34 35 37 38 40 46 47 48 49 
30(-1)->2 3 6 8 9 10 15 16 19 21 22 24 28 32 33 41 42 45 46 49 
9(-1)->2 3 8 10 15 16 19 21 24 28 30 31 32 33 34 35 42 46 49 
11(-1)->1 3 4 8 16 18 19 24 28 29 31 34 36 38 40 46 47 48 49 
23(-1)->1 3 4 8 12 14 15 17 19 22 25 29 31 40 43 46 47 49 50 
50(-1)->4 6 8 12 14 15 17 19 21 22 23 27 29 31 32 40 43 47 49 
10(-1)->2 3 8 9 15 16 19 21 24 28 30 31 33 34 35 41 42 46 
32(-1)->6 8 9 15 19 21 22 28 30 33 34 35 36 40 42 43 49 50 
2(-1)->3 8 9 10 15 16 19 21 24 28 30 33 34 41 42 45 46 
38(-1)->1 11 16 18 19 28 29 31 34 36 40 46 48 49 
37(-1)->1 3 4 12 18 19 25 29 31 40 46 47 49 
6(-1)->7 8 15 16 21 22 28 30 32 33 49 50 
45(-1)->2 8 16 21 28 30 33 
27(-1)->14 15 47 50 
7(-1)->6 15 
****************
39(-1)->
1(4)->3 4 8 11 12 16 18 19 22 23 24 25 28 29 31 34 35 36 37 38 40 43 46 47 48 49 
2(13)->3 8 9 10 15 16 19 21 24 28 30 33 34 41 42 45 46 
3(3)->1 2 4 9 10 11 12 15 16 18 19 21 22 23 24 25 28 29 30 31 33 34 35 36 37 40 42 43 46 47 48 49 
4(11)->1 3 8 11 12 14 15 16 17 18 19 22 23 25 28 29 31 33 34 35 36 37 40 41 42 43 46 47 48 49 50 
6(0)->7 8 15 16 21 22 28 30 32 33 49 50 
7(1)->6 15 
8(3)->1 2 4 6 9 10 11 12 14 15 16 17 19 21 22 23 24 25 28 29 30 31 32 33 34 35 36 40 41 42 43 45 46 47 48 49 50 
9(14)->2 3 8 10 15 16 19 21 24 28 30 31 32 33 34 35 42 46 49 
10(2)->2 3 8 9 15 16 19 21 24 28 30 31 33 34 35 41 42 46 
11(13)->1 3 4 8 16 18 19 24 28 29 31 34 36 38 40 46 47 48 49 
12(16)->1 3 4 8 14 15 17 18 19 22 23 25 28 29 31 33 34 35 36 37 40 41 42 43 46 47 48 49 50 
14(6)->4 8 12 15 17 19 22 23 25 27 28 29 31 33 34 35 36 40 41 42 43 47 48 49 50 
15(4)->2 3 4 6 7 8 9 10 12 14 16 17 19 21 22 23 24 25 27 28 29 30 31 32 33 34 35 36 40 41 42 43 46 47 48 49 50 
16(10)->1 2 3 4 6 8 9 10 11 15 18 19 21 24 28 29 30 31 33 34 35 36 38 40 41 42 45 46 47 48 49 
17(19)->4 8 12 14 15 19 22 23 25 28 29 31 33 34 35 36 40 41 42 43 47 48 49 50 
18(7)->1 3 4 11 12 16 19 22 25 28 29 31 34 35 37 38 40 46 47 48 49 
19(0)->1 2 3 4 8 9 10 11 12 14 15 16 17 18 21 22 23 24 25 28 29 30 31 32 33 34 35 36 37 38 40 41 42 43 46 47 48 49 50 
21(8)->2 3 6 8 9 10 15 16 19 22 24 28 30 32 33 34 35 41 42 45 46 49 50 
22(10)->1 3 4 6 8 12 14 15 17 18 19 21 23 25 28 29 30 31 32 33 34 35 36 40 41 42 43 46 47 48 49 50 
23(1)->1 3 4 8 12 14 15 17 19 22 25 29 31 40 43 46 47 49 50 
24(11)->1 2 3 8 9 10 11 15 16 19 21 28 30 31 33 34 35 40 41 42 46 48 49 
25(13)->1 3 4 8 12 14 15 17 18 19 22 23 28 29 31 33 34 36 37 40 41 43 46 47 48 49 
27(0)->14 15 47 50 
28(1)->1 2 3 4 6 8 9 10 11 12 14 15 16 17 18 19 21 22 24 25 29 30 31 32 33 34 35 36 38 40 41 42 43 45 46 47 48 49 
29(12)->1 3 4 8 11 12 14 15 16 17 18 19 22 23 25 28 31 33 34 35 36 37 38 40 41 43 46 47 48 49 50 
30(5)->2 3 6 8 9 10 15 16 19 21 22 24 28 32 33 41 42 45 46 49 
31(9)->1 3 4 8 9 10 11 12 14 15 16 17 18 19 22 23 24 25 28 29 33 34 35 36 37 38 40 43 46 47 48 49 50 
32(6)->6 8 9 15 19 21 22 28 30 33 34 35 36 40 42 43 49 50 
33(7)->2 3 4 6 8 9 10 12 14 15 16 17 19 21 22 24 25 28 29 30 31 32 34 35 36 40 41 42 43 45 46 47 48 49 
34(5)->1 2 3 4 8 9 10 11 12 14 15 16 17 18 19 21 22 24 25 28 29 31 32 33 35 36 38 40 41 42 43 46 47 48 49 
35(13)->1 3 4 8 9 10 12 14 15 16 17 18 19 21 22 24 28 29 31 32 33 34 36 40 41 42 43 46 47 48 49 
36(17)->1 3 4 8 11 12 14 15 16 17 19 22 25 28 29 31 32 33 34 35 38 40 41 42 43 46 47 48 49 
37(1)->1 3 4 12 18 19 25 29 31 40 46 47 49 
38(3)->1 11 16 18 19 28 29 31 34 36 40 46 48 49 
39(0)->
40(8)->1 3 4 8 11 12 14 15 16 17 18 19 22 23 24 25 28 29 31 32 33 34 35 36 37 38 41 42 43 46 47 48 49 50 
41(9)->2 4 8 10 12 14 15 16 17 19 21 22 24 25 28 29 30 33 34 35 36 40 42 43 46 47 48 49 
42(12)->2 3 4 8 9 10 12 14 15 16 17 19 21 22 24 28 30 32 33 34 35 36 40 41 43 46 48 49 
43(18)->1 3 4 8 12 14 15 17 19 22 23 25 28 29 31 32 33 34 35 36 40 41 42 46 47 48 49 50 
45(0)->2 8 16 21 28 30 33 
46(6)->1 2 3 4 8 9 10 11 12 15 16 18 19 21 22 23 24 25 28 29 30 31 33 34 35 36 37 38 40 41 42 43 47 48 49 
47(14)->1 3 4 8 11 12 14 15 16 17 18 19 22 23 25 27 28 29 31 33 34 35 36 37 40 41 43 46 48 49 50 
48(15)->1 3 4 8 11 12 14 15 16 17 18 19 22 24 25 28 29 31 33 34 35 36 38 40 41 42 43 46 47 49 
49(2)->1 3 4 6 8 9 11 12 14 15 16 17 18 19 21 22 23 24 25 28 29 30 31 32 33 34 35 36 37 38 40 41 42 43 46 47 48 50 
50(5)->4 6 8 12 14 15 17 19 21 22 23 27 29 31 32 40 43 47 49 
COUNT: 141
COLORS: 20
EDGES: 0
20
141
