1: 10 3 4 2
2: 1 3
3: 1 2 4
4: 1 3
5: 
6: 14
7: 24 28 39
8: 27
9: 13
10: 1
11: 18 37
12: 
13: 19 9 27 37
14: 6
15: 40 36
16: 18 36
17: 
18: 16 11
19: 36 13 22
20: 37 29
21: 40 34 38
22: 19 38 23
23: 37 22
24: 27 7
25: 
26: 
27: 8 24 13
28: 7
29: 40 39 20 31
30: 34 37
31: 32 29
32: 36 31
33: 
34: 21 30
35: 
36: 16 32 19 15
37: 11 20 13 30 23
38: 21 22 39
39: 29 38 7
40: 15 29 21
-------
1(-1)->2 3 4 10 
2(-1)->1 3 
3(-1)->1 2 4 
4(-1)->1 3 
5(-1)->
6(-1)->14 
7(-1)->24 28 39 
8(-1)->27 
9(-1)->13 
10(-1)->1 
11(-1)->18 37 
12(-1)->
13(-1)->9 19 27 37 
14(-1)->6 
15(-1)->36 40 
16(-1)->18 36 
17(-1)->
18(-1)->11 16 
19(-1)->13 22 36 
20(-1)->29 37 
21(-1)->34 38 40 
22(-1)->19 23 38 
23(-1)->22 37 
24(-1)->7 27 
25(-1)->
26(-1)->
27(-1)->8 13 24 
28(-1)->7 
29(-1)->20 31 39 40 
30(-1)->34 37 
31(-1)->29 32 
32(-1)->31 36 
33(-1)->
34(-1)->21 30 
35(-1)->
36(-1)->15 16 19 32 
37(-1)->11 13 20 23 30 
38(-1)->21 22 39 
39(-1)->7 29 38 
40(-1)->15 21 29 
-------
37(-1)->11 13 20 23 30 
1(-1)->2 3 4 10 
13(-1)->9 19 27 37 
29(-1)->20 31 39 40 
36(-1)->15 16 19 32 
3(-1)->1 2 4 
7(-1)->24 28 39 
19(-1)->13 22 36 
21(-1)->34 38 40 
22(-1)->19 23 38 
27(-1)->8 13 24 
38(-1)->21 22 39 
39(-1)->7 29 38 
40(-1)->15 21 29 
2(-1)->1 3 
4(-1)->1 3 
11(-1)->18 37 
15(-1)->36 40 
16(-1)->18 36 
18(-1)->11 16 
20(-1)->29 37 
23(-1)->22 37 
24(-1)->7 27 
30(-1)->34 37 
31(-1)->29 32 
32(-1)->31 36 
34(-1)->21 30 
6(-1)->14 
8(-1)->27 
9(-1)->13 
10(-1)->1 
14(-1)->6 
28(-1)->7 
5(-1)->
12(-1)->
17(-1)->
25(-1)->
26(-1)->
33(-1)->
35(-1)->
-------
1 2 3 

5 

6 14 

11 37 

12 

17 

25 

26 

33 

35 

****************
****************
2(-1)->1 3 
3(-1)->1 2 4 
1(-1)->2 3 4 10 
4(-1)->1 3 
10(-1)->1 
****************
5(-1)->
****************
14(-1)->6 
6(-1)->14 
****************
11(-1)->18 37 
37(-1)->11 13 20 23 30 
13(-1)->9 19 27 37 
29(-1)->20 31 39 40 
36(-1)->15 16 19 32 
7(-1)->24 28 39 
19(-1)->13 22 36 
21(-1)->34 38 40 
22(-1)->19 23 38 
27(-1)->8 13 24 
38(-1)->21 22 39 
39(-1)->7 29 38 
40(-1)->15 21 29 
15(-1)->36 40 
16(-1)->18 36 
18(-1)->11 16 
20(-1)->29 37 
23(-1)->22 37 
24(-1)->7 27 
30(-1)->34 37 
31(-1)->29 32 
32(-1)->31 36 
34(-1)->21 30 
8(-1)->27 
9(-1)->13 
28(-1)->7 
****************
12(-1)->
****************
17(-1)->
****************
25(-1)->
****************
26(-1)->
****************
33(-1)->
****************
35(-1)->
START TIME: 1433711230
START TIME: 1433711230
START TIME: 1433711230
START TIME: 1433711230
START TIME: 1433711230
START TIME: 1433711230
START TIME: 1433711230
START TIME: 1433711230
START TIME: 1433711230
START TIME: 1433711230
1(2)->2 3 4 10 
2(0)->1 3 
3(1)->1 2 4 
4(0)->1 3 
5(0)->
6(1)->14 
7(0)->24 28 39 
8(0)->27 
9(1)->13 
10(0)->1 
11(0)->18 37 
12(0)->
13(0)->9 19 27 37 
14(0)->6 
15(2)->36 40 
16(1)->18 36 
17(0)->
18(2)->11 16 
19(1)->13 22 36 
20(2)->29 37 
21(0)->34 38 40 
22(0)->19 23 38 
23(2)->22 37 
24(2)->7 27 
25(0)->
26(0)->
27(1)->8 13 24 
28(1)->7 
29(0)->20 31 39 40 
30(0)->34 37 
31(1)->29 32 
32(2)->31 36 
33(0)->
34(1)->21 30 
35(0)->
36(0)->15 16 19 32 
37(1)->11 13 20 23 30 
38(1)->21 22 39 
39(2)->7 29 38 
40(1)->15 21 29 
COUNT: 79
COLORS: 3
EDGES: 0
3
79
