1: 2 3 4 5 6 7 8 9 10 11 12 13 14 15 16 17 18 19 20 21 22 23 24 25 26 27 28 29 30 31 32 33 34 35 36 37 38 39
2: 1 3 4 5 6 7 8 9 10 11 12 13 14 15 16 17 18 19 20 21 22 23 24 25 26 27 28 29 30 31 32 33 34 35 36 37 38 39 40
3: 1 2 4 5 6 7 8 9 10 11 12 13 14 15 16 17 18 19 20 21 22 23 24 25 26 27 28 29 30 31 32 33 34 35 36 37 38 39 40
4: 1 2 3 5 6 7 8 9 10 11 12 13 14 15 16 17 18 19 20 21 22 23 24 25 26 27 28 29 30 31 32 33 34 35 36 37 38 39
5: 1 2 3 4 6 7 8 9 10 11 12 13 14 15 16 17 18 19 20 21 22 23 24 25 26 27 28 29 30 31 32 33 34 35 36 37 38 39
6: 1 2 3 4 5 7 8 9 10 11 12 13 14 15 16 17 18 19 20 21 22 23 24 25 26 27 28 29 30 31 32 33 34 35 36 37 38 39
7: 1 2 3 4 5 6 8 9 10 11 12 13 14 15 16 17 18 19 20 21 22 23 24 25 26 27 28 29 30 31 32 33 34 35 36 37 38 39
8: 1 2 3 4 5 6 7 9 10 11 12 13 14 15 16 17 18 19 20 21 22 23 24 25 26 27 28 29 31 32 33 34 35 36 37
9: 1 2 3 4 5 6 7 8 10 11 12 13 14 15 16 17 18 19 20 21 22 23 24 25 26 27 28 29 30 32 34 36 37 39 40
10: 1 2 3 4 5 6 7 8 9 11 12 13 14 15 16 17 18 19 20 21 22 23 24 26 27 28 29 30 31 33 34 35 36 37 38 39
11: 1 2 3 4 5 6 7 8 9 10 12 13 14 15 16 17 18 20 21 22 23 24 25 26 27 28 29 31 34 35 36 37 40
12: 1 2 3 4 5 6 7 8 9 10 11 13 14 15 16 17 20 21 22 24 26 27 28 32 34 36 37 40
13: 1 2 3 4 5 6 7 8 9 10 11 12 14 15 16 17 19 20 21 22 23 24 25 26 27 28 29 30 33 34 35 36 37 38
14: 1 2 3 4 5 6 7 8 9 10 11 12 13 15 16 17 20 21 22 23 24 25 27 28 29 30 31 34 35 36 37 38
15: 1 2 3 4 5 6 7 8 9 10 11 12 13 14 16 17 18 19 20 21 22 23 29 30 31 34 36 37 38 40
16: 1 2 3 4 5 6 7 8 9 10 11 12 13 14 15 17 18 20 21 22 23 24 27 29 32 34 36 37 38 39
17: 1 2 3 4 5 6 7 8 9 10 11 12 13 14 15 16 18 19 20 21 23 25 26 27 28 30 32 34 35 36 38 40
18: 1 2 3 4 5 6 7 8 9 10 11 15 16 17 20 21 23 24 26 27 28 29 31 33 34 36 37 39 40
19: 1 2 3 4 5 6 7 8 9 10 13 15 17 24 25 29 32 33 34 35 36 38 40
20: 1 2 3 4 5 6 7 8 9 10 11 12 13 14 15 16 17 18 21 26 29 30 32 34 35 36 37 39 40
21: 1 2 3 4 5 6 7 8 9 10 11 12 13 14 15 16 17 18 20 22 24 29 30 31 32 33 34 36 38 39 40
22: 1 2 3 4 5 6 7 8 9 10 11 12 13 14 15 16 21 23 25 26 27 28 31 34 36 39 40
23: 1 2 3 4 5 6 7 8 9 10 11 13 14 15 16 17 18 22 25 28 29 31 34 36 39
24: 1 2 3 4 5 6 7 8 9 10 11 12 13 14 16 18 19 21 30 32 34 35 36 37 39 40
25: 1 2 3 4 5 6 7 8 9 11 13 14 17 19 22 23 26 28 31 32 33 34 35 39 40
26: 1 2 3 4 5 6 7 8 9 10 11 12 13 17 18 20 22 25 27 28 30 33 34 35 36 37 38 39
27: 1 2 3 4 5 6 7 8 9 10 11 12 13 14 16 17 18 22 26 28 29 32 34 36 37 40
28: 1 2 3 4 5 6 7 8 9 10 11 12 13 14 17 18 22 23 25 26 27 29 30 32 34 36 40
29: 1 2 3 4 5 6 7 8 9 10 11 13 14 15 16 18 19 20 21 23 27 28 30 31 32 33 34 35 39 40
30: 1 2 3 4 5 6 7 9 10 13 14 15 17 20 21 24 26 28 29 33 34 36 37 40
31: 1 34 3 4 5 6 7 40 10 11 2 14 15 8 18 21 22 23 25 29 39
32: 1 2 3 4 5 6 7 8 9 12 16 17 19 20 21 24 25 27 28 29 33 34 35 36 37 38 39 40
33: 1 2 3 4 5 6 7 8 10 13 18 19 21 25 26 29 30 32 35 36 37 38 39
34: 1 2 3 4 5 6 7 8 9 10 11 12 13 14 15 16 17 18 19 20 21 22 23 24 25 26 27 28 29 30 31 32 36 37
35: 1 2 3 4 5 6 7 8 10 11 13 14 17 19 20 24 25 26 29 32 33 36 39 40
36: 1 2 3 4 5 6 7 8 9 10 11 12 13 14 15 16 17 18 19 20 21 22 23 24 26 27 28 30 32 33 34 35 38 39
37: 1 2 3 4 5 6 7 8 9 10 11 12 13 14 15 16 18 20 24 26 27 30 32 33 34 39
38: 32 33 2 3 36 5 1 7 10 39 13 14 15 16 17 19 21 6 4 26
39: 1 2 3 4 5 6 7 9 10 16 18 20 21 22 23 24 25 26 29 31 32 33 35 36 37 38
40: 32 3 2 35 9 11 12 15 17 18 19 20 21 22 24 25 27 28 29 30 31
-------
1(-1)->2 3 4 5 6 7 8 9 10 11 12 13 14 15 16 17 18 19 20 21 22 23 24 25 26 27 28 29 30 31 32 33 34 35 36 37 38 39 
2(-1)->1 3 4 5 6 7 8 9 10 11 12 13 14 15 16 17 18 19 20 21 22 23 24 25 26 27 28 29 30 31 32 33 34 35 36 37 38 39 40 
3(-1)->1 2 4 5 6 7 8 9 10 11 12 13 14 15 16 17 18 19 20 21 22 23 24 25 26 27 28 29 30 31 32 33 34 35 36 37 38 39 40 
4(-1)->1 2 3 5 6 7 8 9 10 11 12 13 14 15 16 17 18 19 20 21 22 23 24 25 26 27 28 29 30 31 32 33 34 35 36 37 38 39 
5(-1)->1 2 3 4 6 7 8 9 10 11 12 13 14 15 16 17 18 19 20 21 22 23 24 25 26 27 28 29 30 31 32 33 34 35 36 37 38 39 
6(-1)->1 2 3 4 5 7 8 9 10 11 12 13 14 15 16 17 18 19 20 21 22 23 24 25 26 27 28 29 30 31 32 33 34 35 36 37 38 39 
7(-1)->1 2 3 4 5 6 8 9 10 11 12 13 14 15 16 17 18 19 20 21 22 23 24 25 26 27 28 29 30 31 32 33 34 35 36 37 38 39 
8(-1)->1 2 3 4 5 6 7 9 10 11 12 13 14 15 16 17 18 19 20 21 22 23 24 25 26 27 28 29 31 32 33 34 35 36 37 
9(-1)->1 2 3 4 5 6 7 8 10 11 12 13 14 15 16 17 18 19 20 21 22 23 24 25 26 27 28 29 30 32 34 36 37 39 40 
10(-1)->1 2 3 4 5 6 7 8 9 11 12 13 14 15 16 17 18 19 20 21 22 23 24 26 27 28 29 30 31 33 34 35 36 37 38 39 
11(-1)->1 2 3 4 5 6 7 8 9 10 12 13 14 15 16 17 18 20 21 22 23 24 25 26 27 28 29 31 34 35 36 37 40 
12(-1)->1 2 3 4 5 6 7 8 9 10 11 13 14 15 16 17 20 21 22 24 26 27 28 32 34 36 37 40 
13(-1)->1 2 3 4 5 6 7 8 9 10 11 12 14 15 16 17 19 20 21 22 23 24 25 26 27 28 29 30 33 34 35 36 37 38 
14(-1)->1 2 3 4 5 6 7 8 9 10 11 12 13 15 16 17 20 21 22 23 24 25 27 28 29 30 31 34 35 36 37 38 
15(-1)->1 2 3 4 5 6 7 8 9 10 11 12 13 14 16 17 18 19 20 21 22 23 29 30 31 34 36 37 38 40 
16(-1)->1 2 3 4 5 6 7 8 9 10 11 12 13 14 15 17 18 20 21 22 23 24 27 29 32 34 36 37 38 39 
17(-1)->1 2 3 4 5 6 7 8 9 10 11 12 13 14 15 16 18 19 20 21 23 25 26 27 28 30 32 34 35 36 38 40 
18(-1)->1 2 3 4 5 6 7 8 9 10 11 15 16 17 20 21 23 24 26 27 28 29 31 33 34 36 37 39 40 
19(-1)->1 2 3 4 5 6 7 8 9 10 13 15 17 24 25 29 32 33 34 35 36 38 40 
20(-1)->1 2 3 4 5 6 7 8 9 10 11 12 13 14 15 16 17 18 21 26 29 30 32 34 35 36 37 39 40 
21(-1)->1 2 3 4 5 6 7 8 9 10 11 12 13 14 15 16 17 18 20 22 24 29 30 31 32 33 34 36 38 39 40 
22(-1)->1 2 3 4 5 6 7 8 9 10 11 12 13 14 15 16 21 23 25 26 27 28 31 34 36 39 40 
23(-1)->1 2 3 4 5 6 7 8 9 10 11 13 14 15 16 17 18 22 25 28 29 31 34 36 39 
24(-1)->1 2 3 4 5 6 7 8 9 10 11 12 13 14 16 18 19 21 30 32 34 35 36 37 39 40 
25(-1)->1 2 3 4 5 6 7 8 9 11 13 14 17 19 22 23 26 28 31 32 33 34 35 39 40 
26(-1)->1 2 3 4 5 6 7 8 9 10 11 12 13 17 18 20 22 25 27 28 30 33 34 35 36 37 38 39 
27(-1)->1 2 3 4 5 6 7 8 9 10 11 12 13 14 16 17 18 22 26 28 29 32 34 36 37 40 
28(-1)->1 2 3 4 5 6 7 8 9 10 11 12 13 14 17 18 22 23 25 26 27 29 30 32 34 36 40 
29(-1)->1 2 3 4 5 6 7 8 9 10 11 13 14 15 16 18 19 20 21 23 27 28 30 31 32 33 34 35 39 40 
30(-1)->1 2 3 4 5 6 7 9 10 13 14 15 17 20 21 24 26 28 29 33 34 36 37 40 
31(-1)->1 2 3 4 5 6 7 8 10 11 14 15 18 21 22 23 25 29 34 39 40 
32(-1)->1 2 3 4 5 6 7 8 9 12 16 17 19 20 21 24 25 27 28 29 33 34 35 36 37 38 39 40 
33(-1)->1 2 3 4 5 6 7 8 10 13 18 19 21 25 26 29 30 32 35 36 37 38 39 
34(-1)->1 2 3 4 5 6 7 8 9 10 11 12 13 14 15 16 17 18 19 20 21 22 23 24 25 26 27 28 29 30 31 32 36 37 
35(-1)->1 2 3 4 5 6 7 8 10 11 13 14 17 19 20 24 25 26 29 32 33 36 39 40 
36(-1)->1 2 3 4 5 6 7 8 9 10 11 12 13 14 15 16 17 18 19 20 21 22 23 24 26 27 28 30 32 33 34 35 38 39 
37(-1)->1 2 3 4 5 6 7 8 9 10 11 12 13 14 15 16 18 20 24 26 27 30 32 33 34 39 
38(-1)->1 2 3 4 5 6 7 10 13 14 15 16 17 19 21 26 32 33 36 39 
39(-1)->1 2 3 4 5 6 7 9 10 16 18 20 21 22 23 24 25 26 29 31 32 33 35 36 37 38 
40(-1)->2 3 9 11 12 15 17 18 19 20 21 22 24 25 27 28 29 30 31 32 35 
-------
2(-1)->1 3 4 5 6 7 8 9 10 11 12 13 14 15 16 17 18 19 20 21 22 23 24 25 26 27 28 29 30 31 32 33 34 35 36 37 38 39 40 
3(-1)->1 2 4 5 6 7 8 9 10 11 12 13 14 15 16 17 18 19 20 21 22 23 24 25 26 27 28 29 30 31 32 33 34 35 36 37 38 39 40 
1(-1)->2 3 4 5 6 7 8 9 10 11 12 13 14 15 16 17 18 19 20 21 22 23 24 25 26 27 28 29 30 31 32 33 34 35 36 37 38 39 
4(-1)->1 2 3 5 6 7 8 9 10 11 12 13 14 15 16 17 18 19 20 21 22 23 24 25 26 27 28 29 30 31 32 33 34 35 36 37 38 39 
5(-1)->1 2 3 4 6 7 8 9 10 11 12 13 14 15 16 17 18 19 20 21 22 23 24 25 26 27 28 29 30 31 32 33 34 35 36 37 38 39 
6(-1)->1 2 3 4 5 7 8 9 10 11 12 13 14 15 16 17 18 19 20 21 22 23 24 25 26 27 28 29 30 31 32 33 34 35 36 37 38 39 
7(-1)->1 2 3 4 5 6 8 9 10 11 12 13 14 15 16 17 18 19 20 21 22 23 24 25 26 27 28 29 30 31 32 33 34 35 36 37 38 39 
10(-1)->1 2 3 4 5 6 7 8 9 11 12 13 14 15 16 17 18 19 20 21 22 23 24 26 27 28 29 30 31 33 34 35 36 37 38 39 
8(-1)->1 2 3 4 5 6 7 9 10 11 12 13 14 15 16 17 18 19 20 21 22 23 24 25 26 27 28 29 31 32 33 34 35 36 37 
9(-1)->1 2 3 4 5 6 7 8 10 11 12 13 14 15 16 17 18 19 20 21 22 23 24 25 26 27 28 29 30 32 34 36 37 39 40 
13(-1)->1 2 3 4 5 6 7 8 9 10 11 12 14 15 16 17 19 20 21 22 23 24 25 26 27 28 29 30 33 34 35 36 37 38 
34(-1)->1 2 3 4 5 6 7 8 9 10 11 12 13 14 15 16 17 18 19 20 21 22 23 24 25 26 27 28 29 30 31 32 36 37 
36(-1)->1 2 3 4 5 6 7 8 9 10 11 12 13 14 15 16 17 18 19 20 21 22 23 24 26 27 28 30 32 33 34 35 38 39 
11(-1)->1 2 3 4 5 6 7 8 9 10 12 13 14 15 16 17 18 20 21 22 23 24 25 26 27 28 29 31 34 35 36 37 40 
14(-1)->1 2 3 4 5 6 7 8 9 10 11 12 13 15 16 17 20 21 22 23 24 25 27 28 29 30 31 34 35 36 37 38 
17(-1)->1 2 3 4 5 6 7 8 9 10 11 12 13 14 15 16 18 19 20 21 23 25 26 27 28 30 32 34 35 36 38 40 
21(-1)->1 2 3 4 5 6 7 8 9 10 11 12 13 14 15 16 17 18 20 22 24 29 30 31 32 33 34 36 38 39 40 
15(-1)->1 2 3 4 5 6 7 8 9 10 11 12 13 14 16 17 18 19 20 21 22 23 29 30 31 34 36 37 38 40 
16(-1)->1 2 3 4 5 6 7 8 9 10 11 12 13 14 15 17 18 20 21 22 23 24 27 29 32 34 36 37 38 39 
29(-1)->1 2 3 4 5 6 7 8 9 10 11 13 14 15 16 18 19 20 21 23 27 28 30 31 32 33 34 35 39 40 
18(-1)->1 2 3 4 5 6 7 8 9 10 11 15 16 17 20 21 23 24 26 27 28 29 31 33 34 36 37 39 40 
20(-1)->1 2 3 4 5 6 7 8 9 10 11 12 13 14 15 16 17 18 21 26 29 30 32 34 35 36 37 39 40 
12(-1)->1 2 3 4 5 6 7 8 9 10 11 13 14 15 16 17 20 21 22 24 26 27 28 32 34 36 37 40 
26(-1)->1 2 3 4 5 6 7 8 9 10 11 12 13 17 18 20 22 25 27 28 30 33 34 35 36 37 38 39 
32(-1)->1 2 3 4 5 6 7 8 9 12 16 17 19 20 21 24 25 27 28 29 33 34 35 36 37 38 39 40 
22(-1)->1 2 3 4 5 6 7 8 9 10 11 12 13 14 15 16 21 23 25 26 27 28 31 34 36 39 40 
28(-1)->1 2 3 4 5 6 7 8 9 10 11 12 13 14 17 18 22 23 25 26 27 29 30 32 34 36 40 
24(-1)->1 2 3 4 5 6 7 8 9 10 11 12 13 14 16 18 19 21 30 32 34 35 36 37 39 40 
27(-1)->1 2 3 4 5 6 7 8 9 10 11 12 13 14 16 17 18 22 26 28 29 32 34 36 37 40 
37(-1)->1 2 3 4 5 6 7 8 9 10 11 12 13 14 15 16 18 20 24 26 27 30 32 33 34 39 
39(-1)->1 2 3 4 5 6 7 9 10 16 18 20 21 22 23 24 25 26 29 31 32 33 35 36 37 38 
23(-1)->1 2 3 4 5 6 7 8 9 10 11 13 14 15 16 17 18 22 25 28 29 31 34 36 39 
25(-1)->1 2 3 4 5 6 7 8 9 11 13 14 17 19 22 23 26 28 31 32 33 34 35 39 40 
30(-1)->1 2 3 4 5 6 7 9 10 13 14 15 17 20 21 24 26 28 29 33 34 36 37 40 
35(-1)->1 2 3 4 5 6 7 8 10 11 13 14 17 19 20 24 25 26 29 32 33 36 39 40 
19(-1)->1 2 3 4 5 6 7 8 9 10 13 15 17 24 25 29 32 33 34 35 36 38 40 
33(-1)->1 2 3 4 5 6 7 8 10 13 18 19 21 25 26 29 30 32 35 36 37 38 39 
31(-1)->1 2 3 4 5 6 7 8 10 11 14 15 18 21 22 23 25 29 34 39 40 
40(-1)->2 3 9 11 12 15 17 18 19 20 21 22 24 25 27 28 29 30 31 32 35 
38(-1)->1 2 3 4 5 6 7 10 13 14 15 16 17 19 21 26 32 33 36 39 
-------
1 2 3 4 5 6 7 8 9 10 11 12 13 14 15 16 17 20 21 34 36 

-------
12(-1)->1 2 3 4 5 6 7 8 9 10 11 13 14 15 16 17 20 21 22 24 26 27 28 32 34 36 37 40 
20(-1)->1 2 3 4 5 6 7 8 9 10 11 12 13 14 15 16 17 18 21 26 29 30 32 34 35 36 37 39 40 
16(-1)->1 2 3 4 5 6 7 8 9 10 11 12 13 14 15 17 18 20 21 22 23 24 27 29 32 34 36 37 38 39 
15(-1)->1 2 3 4 5 6 7 8 9 10 11 12 13 14 16 17 18 19 20 21 22 23 29 30 31 34 36 37 38 40 
21(-1)->1 2 3 4 5 6 7 8 9 10 11 12 13 14 15 16 17 18 20 22 24 29 30 31 32 33 34 36 38 39 40 
17(-1)->1 2 3 4 5 6 7 8 9 10 11 12 13 14 15 16 18 19 20 21 23 25 26 27 28 30 32 34 35 36 38 40 
14(-1)->1 2 3 4 5 6 7 8 9 10 11 12 13 15 16 17 20 21 22 23 24 25 27 28 29 30 31 34 35 36 37 38 
11(-1)->1 2 3 4 5 6 7 8 9 10 12 13 14 15 16 17 18 20 21 22 23 24 25 26 27 28 29 31 34 35 36 37 40 
36(-1)->1 2 3 4 5 6 7 8 9 10 11 12 13 14 15 16 17 18 19 20 21 22 23 24 26 27 28 30 32 33 34 35 38 39 
34(-1)->1 2 3 4 5 6 7 8 9 10 11 12 13 14 15 16 17 18 19 20 21 22 23 24 25 26 27 28 29 30 31 32 36 37 
13(-1)->1 2 3 4 5 6 7 8 9 10 11 12 14 15 16 17 19 20 21 22 23 24 25 26 27 28 29 30 33 34 35 36 37 38 
9(-1)->1 2 3 4 5 6 7 8 10 11 12 13 14 15 16 17 18 19 20 21 22 23 24 25 26 27 28 29 30 32 34 36 37 39 40 
8(-1)->1 2 3 4 5 6 7 9 10 11 12 13 14 15 16 17 18 19 20 21 22 23 24 25 26 27 28 29 31 32 33 34 35 36 37 
10(-1)->1 2 3 4 5 6 7 8 9 11 12 13 14 15 16 17 18 19 20 21 22 23 24 26 27 28 29 30 31 33 34 35 36 37 38 39 
7(-1)->1 2 3 4 5 6 8 9 10 11 12 13 14 15 16 17 18 19 20 21 22 23 24 25 26 27 28 29 30 31 32 33 34 35 36 37 38 39 
6(-1)->1 2 3 4 5 7 8 9 10 11 12 13 14 15 16 17 18 19 20 21 22 23 24 25 26 27 28 29 30 31 32 33 34 35 36 37 38 39 
5(-1)->1 2 3 4 6 7 8 9 10 11 12 13 14 15 16 17 18 19 20 21 22 23 24 25 26 27 28 29 30 31 32 33 34 35 36 37 38 39 
4(-1)->1 2 3 5 6 7 8 9 10 11 12 13 14 15 16 17 18 19 20 21 22 23 24 25 26 27 28 29 30 31 32 33 34 35 36 37 38 39 
1(-1)->2 3 4 5 6 7 8 9 10 11 12 13 14 15 16 17 18 19 20 21 22 23 24 25 26 27 28 29 30 31 32 33 34 35 36 37 38 39 
3(-1)->1 2 4 5 6 7 8 9 10 11 12 13 14 15 16 17 18 19 20 21 22 23 24 25 26 27 28 29 30 31 32 33 34 35 36 37 38 39 40 
2(-1)->1 3 4 5 6 7 8 9 10 11 12 13 14 15 16 17 18 19 20 21 22 23 24 25 26 27 28 29 30 31 32 33 34 35 36 37 38 39 40 
29(-1)->1 2 3 4 5 6 7 8 9 10 11 13 14 15 16 18 19 20 21 23 27 28 30 31 32 33 34 35 39 40 
18(-1)->1 2 3 4 5 6 7 8 9 10 11 15 16 17 20 21 23 24 26 27 28 29 31 33 34 36 37 39 40 
26(-1)->1 2 3 4 5 6 7 8 9 10 11 12 13 17 18 20 22 25 27 28 30 33 34 35 36 37 38 39 
32(-1)->1 2 3 4 5 6 7 8 9 12 16 17 19 20 21 24 25 27 28 29 33 34 35 36 37 38 39 40 
22(-1)->1 2 3 4 5 6 7 8 9 10 11 12 13 14 15 16 21 23 25 26 27 28 31 34 36 39 40 
28(-1)->1 2 3 4 5 6 7 8 9 10 11 12 13 14 17 18 22 23 25 26 27 29 30 32 34 36 40 
24(-1)->1 2 3 4 5 6 7 8 9 10 11 12 13 14 16 18 19 21 30 32 34 35 36 37 39 40 
27(-1)->1 2 3 4 5 6 7 8 9 10 11 12 13 14 16 17 18 22 26 28 29 32 34 36 37 40 
37(-1)->1 2 3 4 5 6 7 8 9 10 11 12 13 14 15 16 18 20 24 26 27 30 32 33 34 39 
39(-1)->1 2 3 4 5 6 7 9 10 16 18 20 21 22 23 24 25 26 29 31 32 33 35 36 37 38 
23(-1)->1 2 3 4 5 6 7 8 9 10 11 13 14 15 16 17 18 22 25 28 29 31 34 36 39 
25(-1)->1 2 3 4 5 6 7 8 9 11 13 14 17 19 22 23 26 28 31 32 33 34 35 39 40 
30(-1)->1 2 3 4 5 6 7 9 10 13 14 15 17 20 21 24 26 28 29 33 34 36 37 40 
35(-1)->1 2 3 4 5 6 7 8 10 11 13 14 17 19 20 24 25 26 29 32 33 36 39 40 
19(-1)->1 2 3 4 5 6 7 8 9 10 13 15 17 24 25 29 32 33 34 35 36 38 40 
33(-1)->1 2 3 4 5 6 7 8 10 13 18 19 21 25 26 29 30 32 35 36 37 38 39 
31(-1)->1 2 3 4 5 6 7 8 10 11 14 15 18 21 22 23 25 29 34 39 40 
40(-1)->2 3 9 11 12 15 17 18 19 20 21 22 24 25 27 28 29 30 31 32 35 
38(-1)->1 2 3 4 5 6 7 10 13 14 15 16 17 19 21 26 32 33 36 39 
-------
START TIME: 1433711285
-------
1(18)->2 3 4 5 6 7 8 9 10 11 12 13 14 15 16 17 18 19 20 21 22 23 24 25 26 27 28 29 30 31 32 33 34 35 36 37 38 39 
2(20)->1 3 4 5 6 7 8 9 10 11 12 13 14 15 16 17 18 19 20 21 22 23 24 25 26 27 28 29 30 31 32 33 34 35 36 37 38 39 40 
3(19)->1 2 4 5 6 7 8 9 10 11 12 13 14 15 16 17 18 19 20 21 22 23 24 25 26 27 28 29 30 31 32 33 34 35 36 37 38 39 40 
4(17)->1 2 3 5 6 7 8 9 10 11 12 13 14 15 16 17 18 19 20 21 22 23 24 25 26 27 28 29 30 31 32 33 34 35 36 37 38 39 
5(16)->1 2 3 4 6 7 8 9 10 11 12 13 14 15 16 17 18 19 20 21 22 23 24 25 26 27 28 29 30 31 32 33 34 35 36 37 38 39 
6(15)->1 2 3 4 5 7 8 9 10 11 12 13 14 15 16 17 18 19 20 21 22 23 24 25 26 27 28 29 30 31 32 33 34 35 36 37 38 39 
7(14)->1 2 3 4 5 6 8 9 10 11 12 13 14 15 16 17 18 19 20 21 22 23 24 25 26 27 28 29 30 31 32 33 34 35 36 37 38 39 
8(12)->1 2 3 4 5 6 7 9 10 11 12 13 14 15 16 17 18 19 20 21 22 23 24 25 26 27 28 29 31 32 33 34 35 36 37 
9(11)->1 2 3 4 5 6 7 8 10 11 12 13 14 15 16 17 18 19 20 21 22 23 24 25 26 27 28 29 30 32 34 36 37 39 40 
10(13)->1 2 3 4 5 6 7 8 9 11 12 13 14 15 16 17 18 19 20 21 22 23 24 26 27 28 29 30 31 33 34 35 36 37 38 39 
11(7)->1 2 3 4 5 6 7 8 9 10 12 13 14 15 16 17 18 20 21 22 23 24 25 26 27 28 29 31 34 35 36 37 40 
12(0)->1 2 3 4 5 6 7 8 9 10 11 13 14 15 16 17 20 21 22 24 26 27 28 32 34 36 37 40 
13(10)->1 2 3 4 5 6 7 8 9 10 11 12 14 15 16 17 19 20 21 22 23 24 25 26 27 28 29 30 33 34 35 36 37 38 
14(6)->1 2 3 4 5 6 7 8 9 10 11 12 13 15 16 17 20 21 22 23 24 25 27 28 29 30 31 34 35 36 37 38 
15(3)->1 2 3 4 5 6 7 8 9 10 11 12 13 14 16 17 18 19 20 21 22 23 29 30 31 34 36 37 38 40 
16(2)->1 2 3 4 5 6 7 8 9 10 11 12 13 14 15 17 18 20 21 22 23 24 27 29 32 34 36 37 38 39 
17(5)->1 2 3 4 5 6 7 8 9 10 11 12 13 14 15 16 18 19 20 21 23 25 26 27 28 30 32 34 35 36 38 40 
18(6)->1 2 3 4 5 6 7 8 9 10 11 15 16 17 20 21 23 24 26 27 28 29 31 33 34 36 37 39 40 
19(2)->1 2 3 4 5 6 7 8 9 10 13 15 17 24 25 29 32 33 34 35 36 38 40 
20(1)->1 2 3 4 5 6 7 8 9 10 11 12 13 14 15 16 17 18 21 26 29 30 32 34 35 36 37 39 40 
21(4)->1 2 3 4 5 6 7 8 9 10 11 12 13 14 15 16 17 18 20 22 24 29 30 31 32 33 34 36 38 39 40 
22(5)->1 2 3 4 5 6 7 8 9 10 11 12 13 14 15 16 21 23 25 26 27 28 31 34 36 39 40 
23(4)->1 2 3 4 5 6 7 8 9 10 11 13 14 15 16 17 18 22 25 28 29 31 34 36 39 
24(1)->1 2 3 4 5 6 7 8 9 10 11 12 13 14 16 18 19 21 30 32 34 35 36 37 39 40 
25(0)->1 2 3 4 5 6 7 8 9 11 13 14 17 19 22 23 26 28 31 32 33 34 35 39 40 
26(2)->1 2 3 4 5 6 7 8 9 10 11 12 13 17 18 20 22 25 27 28 30 33 34 35 36 37 38 39 
27(4)->1 2 3 4 5 6 7 8 9 10 11 12 13 14 16 17 18 22 26 28 29 32 34 36 37 40 
28(1)->1 2 3 4 5 6 7 8 9 10 11 12 13 14 17 18 22 23 25 26 27 29 30 32 34 36 40 
29(0)->1 2 3 4 5 6 7 8 9 10 11 13 14 15 16 18 19 20 21 23 27 28 30 31 32 33 34 35 39 40 
30(7)->1 2 3 4 5 6 7 9 10 13 14 15 17 20 21 24 26 28 29 33 34 36 37 40 
31(1)->1 2 3 4 5 6 7 8 10 11 14 15 18 21 22 23 25 29 34 39 40 
32(3)->1 2 3 4 5 6 7 8 9 12 16 17 19 20 21 24 25 27 28 29 33 34 35 36 37 38 39 40 
33(1)->1 2 3 4 5 6 7 8 10 13 18 19 21 25 26 29 30 32 35 36 37 38 39 
34(9)->1 2 3 4 5 6 7 8 9 10 11 12 13 14 15 16 17 18 19 20 21 22 23 24 25 26 27 28 29 30 31 32 36 37 
35(4)->1 2 3 4 5 6 7 8 10 11 13 14 17 19 20 24 25 26 29 32 33 36 39 40 
36(8)->1 2 3 4 5 6 7 8 9 10 11 12 13 14 15 16 17 18 19 20 21 22 23 24 26 27 28 30 32 33 34 35 38 39 
37(5)->1 2 3 4 5 6 7 8 9 10 11 12 13 14 15 16 18 20 24 26 27 30 32 33 34 39 
38(0)->1 2 3 4 5 6 7 10 13 14 15 16 17 19 21 26 32 33 36 39 
39(7)->1 2 3 4 5 6 7 9 10 16 18 20 21 22 23 24 25 26 29 31 32 33 35 36 37 38 
40(8)->2 3 9 11 12 15 17 18 19 20 21 22 24 25 27 28 29 30 31 32 35 
COUNT: 55
COLORS: 21
21
55
