1: 34 2
2: 25 35 13 1
3: 26 27 12
4: 33 36
5: 
6: 9
7: 17 26 27
8: 
9: 29 6
10: 11 22
11: 10
12: 3 31
13: 2 26
14: 29
15: 24 25
16: 33 21
17: 7
18: 38 39
19: 40 35
20: 34
21: 16 30
22: 10
23: 34 37
24: 15 37 31
25: 2 15
26: 35 3 13 7
27: 3 7
28: 38
29: 9 36 37 14
30: 21
31: 24 12
32: 
33: 16 4
34: 1 20 23
35: 40 26 19 2 39
36: 4 29
37: 24 29 23
38: 18 28
39: 18 35
40: 35 19
-------
1(-1)->2 34 
2(-1)->1 13 25 35 
3(-1)->12 26 27 
4(-1)->33 36 
5(-1)->
6(-1)->9 
7(-1)->17 26 27 
8(-1)->
9(-1)->6 29 
10(-1)->11 22 
11(-1)->10 
12(-1)->3 31 
13(-1)->2 26 
14(-1)->29 
15(-1)->24 25 
16(-1)->21 33 
17(-1)->7 
18(-1)->38 39 
19(-1)->35 40 
20(-1)->34 
21(-1)->16 30 
22(-1)->10 
23(-1)->34 37 
24(-1)->15 31 37 
25(-1)->2 15 
26(-1)->3 7 13 35 
27(-1)->3 7 
28(-1)->38 
29(-1)->9 14 36 37 
30(-1)->21 
31(-1)->12 24 
32(-1)->
33(-1)->4 16 
34(-1)->1 20 23 
35(-1)->2 19 26 39 40 
36(-1)->4 29 
37(-1)->23 24 29 
38(-1)->18 28 
39(-1)->18 35 
40(-1)->19 35 
-------
35(-1)->2 19 26 39 40 
2(-1)->1 13 25 35 
26(-1)->3 7 13 35 
29(-1)->9 14 36 37 
3(-1)->12 26 27 
7(-1)->17 26 27 
24(-1)->15 31 37 
34(-1)->1 20 23 
37(-1)->23 24 29 
1(-1)->2 34 
4(-1)->33 36 
9(-1)->6 29 
10(-1)->11 22 
12(-1)->3 31 
13(-1)->2 26 
15(-1)->24 25 
16(-1)->21 33 
18(-1)->38 39 
19(-1)->35 40 
21(-1)->16 30 
23(-1)->34 37 
25(-1)->2 15 
27(-1)->3 7 
31(-1)->12 24 
33(-1)->4 16 
36(-1)->4 29 
38(-1)->18 28 
39(-1)->18 35 
40(-1)->19 35 
6(-1)->9 
11(-1)->10 
14(-1)->29 
17(-1)->7 
20(-1)->34 
22(-1)->10 
28(-1)->38 
30(-1)->21 
5(-1)->
8(-1)->
32(-1)->
-------
19 35 40 

5 

8 

10 11 

32 

****************
****************
40(-1)->19 35 
19(-1)->35 40 
35(-1)->2 19 26 39 40 
2(-1)->1 13 25 35 
26(-1)->3 7 13 35 
29(-1)->9 14 36 37 
3(-1)->12 26 27 
7(-1)->17 26 27 
24(-1)->15 31 37 
34(-1)->1 20 23 
37(-1)->23 24 29 
1(-1)->2 34 
4(-1)->33 36 
9(-1)->6 29 
12(-1)->3 31 
13(-1)->2 26 
15(-1)->24 25 
16(-1)->21 33 
18(-1)->38 39 
21(-1)->16 30 
23(-1)->34 37 
25(-1)->2 15 
27(-1)->3 7 
31(-1)->12 24 
33(-1)->4 16 
36(-1)->4 29 
38(-1)->18 28 
39(-1)->18 35 
6(-1)->9 
14(-1)->29 
17(-1)->7 
20(-1)->34 
28(-1)->38 
30(-1)->21 
****************
5(-1)->
****************
8(-1)->
****************
11(-1)->10 
10(-1)->11 22 
22(-1)->10 
****************
32(-1)->
START TIME: 1433711230
START TIME: 1433711230
START TIME: 1433711230
START TIME: 1433711230
START TIME: 1433711230
1(1)->2 34 
2(0)->1 13 25 35 
3(1)->12 26 27 
4(0)->33 36 
5(0)->
6(0)->9 
7(1)->17 26 27 
8(0)->
9(1)->6 29 
10(1)->11 22 
11(0)->10 
12(0)->3 31 
13(1)->2 26 
14(1)->29 
15(1)->24 25 
16(0)->21 33 
17(0)->7 
18(0)->38 39 
19(1)->35 40 
20(1)->34 
21(1)->16 30 
22(0)->10 
23(2)->34 37 
24(0)->15 31 37 
25(2)->2 15 
26(0)->3 7 13 35 
27(0)->3 7 
28(0)->38 
29(0)->9 14 36 37 
30(0)->21 
31(1)->12 24 
32(0)->
33(1)->4 16 
34(0)->1 20 23 
35(2)->2 19 26 39 40 
36(1)->4 29 
37(1)->23 24 29 
38(1)->18 28 
39(1)->18 35 
40(0)->19 35 
COUNT: 40
COLORS: 3
EDGES: 0
3
40
