1: 2 3 4 5 6 7 8 9 10 11 12 13 14 15 16 17 18 19 20 21 22 23 24 25 26 27 28 29 30 31 32 33 34 35 36 37 38 39
2: 1 3 4 5 6 7 8 9 10 11 12 13 14 15 16 17 18 19 20 21 22 23 24 25 26 27 28 29 30 31 32 33 34 35 36 37 38 39 40
3: 1 2 4 5 6 7 8 9 10 11 12 13 14 15 16 17 18 19 20 21 22 23 24 25 26 27 28 29 30 31 32 33 34 35 36 37 38 39 40
4: 1 2 3 5 6 7 8 9 10 11 12 13 14 15 16 17 18 19 20 21 22 23 24 25 26 27 28 29 30 31 32 33 34 35 36 37 38 39 40
5: 1 2 3 4 6 7 8 9 10 11 12 13 14 15 16 17 18 19 20 21 22 23 24 25 26 27 28 29 30 31 32 33 34 35 36 37 38 39 40
6: 1 2 3 4 5 7 8 9 10 11 12 13 14 15 16 17 18 19 20 21 22 23 24 25 26 27 28 29 30 31 32 33 34 35 36 37 38 39 40
7: 1 2 3 4 5 6 8 9 10 11 12 13 14 15 16 17 18 19 20 21 22 23 24 25 26 27 28 29 30 31 32 33 34 35 36 37 38 39 40
8: 1 2 3 4 5 6 7 9 10 11 12 13 14 15 16 17 18 19 20 21 22 23 24 25 26 27 28 29 30 31 32 33 34 35 36 37 38 39 40
9: 1 2 3 4 5 6 7 8 10 11 12 13 14 15 16 17 18 19 20 21 22 23 24 25 26 27 28 29 30 32 33 34 35 36 37 38 40
10: 1 2 3 4 5 6 7 8 9 11 12 13 14 15 16 17 18 19 20 21 22 23 25 26 27 28 29 32 33 34 35 36 37 38 39 40
11: 1 2 3 4 5 6 7 8 9 10 12 13 14 15 17 18 19 20 21 22 23 24 25 26 27 29 30 32 33 34 35 36 37
12: 1 2 3 4 5 6 7 8 9 10 11 13 14 15 16 17 18 19 20 21 22 23 25 26 27 29 30 32 33 34 35 36 37 38 39 40
13: 1 2 3 4 5 6 7 8 9 10 11 12 14 15 16 17 18 20 24 25 26 27 28 29 30 32 33 34 37 38 39 40
14: 1 2 3 4 5 6 7 8 9 10 11 12 13 15 16 17 18 19 22 24 25 27 28 29 32 34 35 37 40
15: 1 2 3 4 5 6 7 8 9 10 11 12 13 14 16 17 18 20 21 22 23 27 29 30 31 32 33 34 35 36 37 38
16: 1 2 3 4 5 6 7 8 9 10 12 13 14 15 18 20 23 24 25 26 29 30 37 38 39 40
17: 1 2 3 4 5 6 7 8 9 10 11 12 13 14 15 18 19 21 24 25 26 30 34 37 40
18: 1 2 3 4 5 6 7 8 9 10 11 12 13 14 15 16 17 19 20 24 28 31 32 33 34 35 37 38 39
19: 1 2 3 4 5 6 7 8 9 10 11 12 14 17 18 20 22 23 24 28 29 30 31 32 33 34 36 38 40
20: 1 2 3 4 5 6 7 8 9 10 11 12 13 15 16 18 19 21 23 24 25 26 28 30 32 34 36 38 39
21: 1 2 3 4 5 6 7 8 9 10 11 12 15 17 20 22 23 24 25 32 35 37 39
22: 1 2 3 4 5 6 7 8 9 10 11 12 14 15 19 21 25 26 27 28 31 35 36 37 40
23: 1 2 3 4 5 6 7 8 9 10 11 12 15 16 19 20 21 24 26 27 30 32 37 38
24: 1 2 3 4 5 6 7 8 9 11 13 14 16 17 18 19 20 21 23 26 27 28 30 33 35 39 40
25: 1 2 3 4 5 6 7 8 9 10 11 12 13 14 16 17 20 21 22 27 28 31 34 35 36 37 39
26: 1 2 3 4 5 6 7 8 9 10 11 12 13 16 17 20 22 23 24 27 28 29 31 32 34 35 39
27: 1 2 3 4 5 6 7 8 9 10 11 12 13 14 15 22 23 24 25 26 28 30 31 33 34 35 36 38 39 40
28: 1 2 3 4 5 6 7 8 9 10 13 14 18 19 20 22 24 25 26 27 29 30 32 33 34 35 37
29: 1 2 3 4 5 6 7 8 9 10 11 12 13 14 15 16 19 26 28 30 32 35 38 40
30: 1 2 3 4 5 6 7 8 9 11 12 13 15 16 17 19 20 23 24 27 28 29 31 32 35 37
31: 3 1 2 35 36 37 6 7 40 15 8 18 19 22 4 25 26 27 30 5
32: 1 2 3 4 5 6 7 8 9 10 11 12 13 14 15 18 19 20 21 23 26 28 29 30 33 35 36 38 39
33: 1 2 3 4 5 6 7 8 9 10 11 12 13 15 18 19 24 27 28 32 38 39 40
34: 1 2 3 4 5 6 7 8 9 10 11 12 13 14 15 17 18 19 20 25 26 27 28 35 37 39 40
35: 1 2 3 4 5 6 7 8 9 10 11 12 14 15 18 21 22 24 25 26 27 28 29 30 31 32 34 36 37 38 40
36: 1 2 3 4 5 6 7 8 9 10 11 12 15 19 20 22 25 27 31 32 35 37 40
37: 1 2 3 4 5 6 7 8 9 10 11 12 13 14 15 16 17 18 21 22 23 25 28 30 31 34 35 36 38 40
38: 1 2 3 4 5 6 7 8 9 10 12 13 15 16 18 19 20 23 27 29 32 33 35 37
39: 1 2 3 4 5 6 7 8 10 12 13 16 18 20 21 24 25 26 27 32 33 34 40
40: 2 3 4 5 6 7 8 9 10 12 13 14 16 17 19 22 24 27 29 31 33 34 35 36 37 39
-------
1(-1)->2 3 4 5 6 7 8 9 10 11 12 13 14 15 16 17 18 19 20 21 22 23 24 25 26 27 28 29 30 31 32 33 34 35 36 37 38 39 
2(-1)->1 3 4 5 6 7 8 9 10 11 12 13 14 15 16 17 18 19 20 21 22 23 24 25 26 27 28 29 30 31 32 33 34 35 36 37 38 39 40 
3(-1)->1 2 4 5 6 7 8 9 10 11 12 13 14 15 16 17 18 19 20 21 22 23 24 25 26 27 28 29 30 31 32 33 34 35 36 37 38 39 40 
4(-1)->1 2 3 5 6 7 8 9 10 11 12 13 14 15 16 17 18 19 20 21 22 23 24 25 26 27 28 29 30 31 32 33 34 35 36 37 38 39 40 
5(-1)->1 2 3 4 6 7 8 9 10 11 12 13 14 15 16 17 18 19 20 21 22 23 24 25 26 27 28 29 30 31 32 33 34 35 36 37 38 39 40 
6(-1)->1 2 3 4 5 7 8 9 10 11 12 13 14 15 16 17 18 19 20 21 22 23 24 25 26 27 28 29 30 31 32 33 34 35 36 37 38 39 40 
7(-1)->1 2 3 4 5 6 8 9 10 11 12 13 14 15 16 17 18 19 20 21 22 23 24 25 26 27 28 29 30 31 32 33 34 35 36 37 38 39 40 
8(-1)->1 2 3 4 5 6 7 9 10 11 12 13 14 15 16 17 18 19 20 21 22 23 24 25 26 27 28 29 30 31 32 33 34 35 36 37 38 39 40 
9(-1)->1 2 3 4 5 6 7 8 10 11 12 13 14 15 16 17 18 19 20 21 22 23 24 25 26 27 28 29 30 32 33 34 35 36 37 38 40 
10(-1)->1 2 3 4 5 6 7 8 9 11 12 13 14 15 16 17 18 19 20 21 22 23 25 26 27 28 29 32 33 34 35 36 37 38 39 40 
11(-1)->1 2 3 4 5 6 7 8 9 10 12 13 14 15 17 18 19 20 21 22 23 24 25 26 27 29 30 32 33 34 35 36 37 
12(-1)->1 2 3 4 5 6 7 8 9 10 11 13 14 15 16 17 18 19 20 21 22 23 25 26 27 29 30 32 33 34 35 36 37 38 39 40 
13(-1)->1 2 3 4 5 6 7 8 9 10 11 12 14 15 16 17 18 20 24 25 26 27 28 29 30 32 33 34 37 38 39 40 
14(-1)->1 2 3 4 5 6 7 8 9 10 11 12 13 15 16 17 18 19 22 24 25 27 28 29 32 34 35 37 40 
15(-1)->1 2 3 4 5 6 7 8 9 10 11 12 13 14 16 17 18 20 21 22 23 27 29 30 31 32 33 34 35 36 37 38 
16(-1)->1 2 3 4 5 6 7 8 9 10 12 13 14 15 18 20 23 24 25 26 29 30 37 38 39 40 
17(-1)->1 2 3 4 5 6 7 8 9 10 11 12 13 14 15 18 19 21 24 25 26 30 34 37 40 
18(-1)->1 2 3 4 5 6 7 8 9 10 11 12 13 14 15 16 17 19 20 24 28 31 32 33 34 35 37 38 39 
19(-1)->1 2 3 4 5 6 7 8 9 10 11 12 14 17 18 20 22 23 24 28 29 30 31 32 33 34 36 38 40 
20(-1)->1 2 3 4 5 6 7 8 9 10 11 12 13 15 16 18 19 21 23 24 25 26 28 30 32 34 36 38 39 
21(-1)->1 2 3 4 5 6 7 8 9 10 11 12 15 17 20 22 23 24 25 32 35 37 39 
22(-1)->1 2 3 4 5 6 7 8 9 10 11 12 14 15 19 21 25 26 27 28 31 35 36 37 40 
23(-1)->1 2 3 4 5 6 7 8 9 10 11 12 15 16 19 20 21 24 26 27 30 32 37 38 
24(-1)->1 2 3 4 5 6 7 8 9 11 13 14 16 17 18 19 20 21 23 26 27 28 30 33 35 39 40 
25(-1)->1 2 3 4 5 6 7 8 9 10 11 12 13 14 16 17 20 21 22 27 28 31 34 35 36 37 39 
26(-1)->1 2 3 4 5 6 7 8 9 10 11 12 13 16 17 20 22 23 24 27 28 29 31 32 34 35 39 
27(-1)->1 2 3 4 5 6 7 8 9 10 11 12 13 14 15 22 23 24 25 26 28 30 31 33 34 35 36 38 39 40 
28(-1)->1 2 3 4 5 6 7 8 9 10 13 14 18 19 20 22 24 25 26 27 29 30 32 33 34 35 37 
29(-1)->1 2 3 4 5 6 7 8 9 10 11 12 13 14 15 16 19 26 28 30 32 35 38 40 
30(-1)->1 2 3 4 5 6 7 8 9 11 12 13 15 16 17 19 20 23 24 27 28 29 31 32 35 37 
31(-1)->1 2 3 4 5 6 7 8 15 18 19 22 25 26 27 30 35 36 37 40 
32(-1)->1 2 3 4 5 6 7 8 9 10 11 12 13 14 15 18 19 20 21 23 26 28 29 30 33 35 36 38 39 
33(-1)->1 2 3 4 5 6 7 8 9 10 11 12 13 15 18 19 24 27 28 32 38 39 40 
34(-1)->1 2 3 4 5 6 7 8 9 10 11 12 13 14 15 17 18 19 20 25 26 27 28 35 37 39 40 
35(-1)->1 2 3 4 5 6 7 8 9 10 11 12 14 15 18 21 22 24 25 26 27 28 29 30 31 32 34 36 37 38 40 
36(-1)->1 2 3 4 5 6 7 8 9 10 11 12 15 19 20 22 25 27 31 32 35 37 40 
37(-1)->1 2 3 4 5 6 7 8 9 10 11 12 13 14 15 16 17 18 21 22 23 25 28 30 31 34 35 36 38 40 
38(-1)->1 2 3 4 5 6 7 8 9 10 12 13 15 16 18 19 20 23 27 29 32 33 35 37 
39(-1)->1 2 3 4 5 6 7 8 10 12 13 16 18 20 21 24 25 26 27 32 33 34 40 
40(-1)->2 3 4 5 6 7 8 9 10 12 13 14 16 17 19 22 24 27 29 31 33 34 35 36 37 39 
-------
2(-1)->1 3 4 5 6 7 8 9 10 11 12 13 14 15 16 17 18 19 20 21 22 23 24 25 26 27 28 29 30 31 32 33 34 35 36 37 38 39 40 
3(-1)->1 2 4 5 6 7 8 9 10 11 12 13 14 15 16 17 18 19 20 21 22 23 24 25 26 27 28 29 30 31 32 33 34 35 36 37 38 39 40 
4(-1)->1 2 3 5 6 7 8 9 10 11 12 13 14 15 16 17 18 19 20 21 22 23 24 25 26 27 28 29 30 31 32 33 34 35 36 37 38 39 40 
5(-1)->1 2 3 4 6 7 8 9 10 11 12 13 14 15 16 17 18 19 20 21 22 23 24 25 26 27 28 29 30 31 32 33 34 35 36 37 38 39 40 
6(-1)->1 2 3 4 5 7 8 9 10 11 12 13 14 15 16 17 18 19 20 21 22 23 24 25 26 27 28 29 30 31 32 33 34 35 36 37 38 39 40 
7(-1)->1 2 3 4 5 6 8 9 10 11 12 13 14 15 16 17 18 19 20 21 22 23 24 25 26 27 28 29 30 31 32 33 34 35 36 37 38 39 40 
8(-1)->1 2 3 4 5 6 7 9 10 11 12 13 14 15 16 17 18 19 20 21 22 23 24 25 26 27 28 29 30 31 32 33 34 35 36 37 38 39 40 
1(-1)->2 3 4 5 6 7 8 9 10 11 12 13 14 15 16 17 18 19 20 21 22 23 24 25 26 27 28 29 30 31 32 33 34 35 36 37 38 39 
9(-1)->1 2 3 4 5 6 7 8 10 11 12 13 14 15 16 17 18 19 20 21 22 23 24 25 26 27 28 29 30 32 33 34 35 36 37 38 40 
10(-1)->1 2 3 4 5 6 7 8 9 11 12 13 14 15 16 17 18 19 20 21 22 23 25 26 27 28 29 32 33 34 35 36 37 38 39 40 
12(-1)->1 2 3 4 5 6 7 8 9 10 11 13 14 15 16 17 18 19 20 21 22 23 25 26 27 29 30 32 33 34 35 36 37 38 39 40 
11(-1)->1 2 3 4 5 6 7 8 9 10 12 13 14 15 17 18 19 20 21 22 23 24 25 26 27 29 30 32 33 34 35 36 37 
13(-1)->1 2 3 4 5 6 7 8 9 10 11 12 14 15 16 17 18 20 24 25 26 27 28 29 30 32 33 34 37 38 39 40 
15(-1)->1 2 3 4 5 6 7 8 9 10 11 12 13 14 16 17 18 20 21 22 23 27 29 30 31 32 33 34 35 36 37 38 
35(-1)->1 2 3 4 5 6 7 8 9 10 11 12 14 15 18 21 22 24 25 26 27 28 29 30 31 32 34 36 37 38 40 
27(-1)->1 2 3 4 5 6 7 8 9 10 11 12 13 14 15 22 23 24 25 26 28 30 31 33 34 35 36 38 39 40 
37(-1)->1 2 3 4 5 6 7 8 9 10 11 12 13 14 15 16 17 18 21 22 23 25 28 30 31 34 35 36 38 40 
14(-1)->1 2 3 4 5 6 7 8 9 10 11 12 13 15 16 17 18 19 22 24 25 27 28 29 32 34 35 37 40 
18(-1)->1 2 3 4 5 6 7 8 9 10 11 12 13 14 15 16 17 19 20 24 28 31 32 33 34 35 37 38 39 
19(-1)->1 2 3 4 5 6 7 8 9 10 11 12 14 17 18 20 22 23 24 28 29 30 31 32 33 34 36 38 40 
20(-1)->1 2 3 4 5 6 7 8 9 10 11 12 13 15 16 18 19 21 23 24 25 26 28 30 32 34 36 38 39 
32(-1)->1 2 3 4 5 6 7 8 9 10 11 12 13 14 15 18 19 20 21 23 26 28 29 30 33 35 36 38 39 
24(-1)->1 2 3 4 5 6 7 8 9 11 13 14 16 17 18 19 20 21 23 26 27 28 30 33 35 39 40 
25(-1)->1 2 3 4 5 6 7 8 9 10 11 12 13 14 16 17 20 21 22 27 28 31 34 35 36 37 39 
26(-1)->1 2 3 4 5 6 7 8 9 10 11 12 13 16 17 20 22 23 24 27 28 29 31 32 34 35 39 
28(-1)->1 2 3 4 5 6 7 8 9 10 13 14 18 19 20 22 24 25 26 27 29 30 32 33 34 35 37 
34(-1)->1 2 3 4 5 6 7 8 9 10 11 12 13 14 15 17 18 19 20 25 26 27 28 35 37 39 40 
16(-1)->1 2 3 4 5 6 7 8 9 10 12 13 14 15 18 20 23 24 25 26 29 30 37 38 39 40 
30(-1)->1 2 3 4 5 6 7 8 9 11 12 13 15 16 17 19 20 23 24 27 28 29 31 32 35 37 
40(-1)->2 3 4 5 6 7 8 9 10 12 13 14 16 17 19 22 24 27 29 31 33 34 35 36 37 39 
17(-1)->1 2 3 4 5 6 7 8 9 10 11 12 13 14 15 18 19 21 24 25 26 30 34 37 40 
22(-1)->1 2 3 4 5 6 7 8 9 10 11 12 14 15 19 21 25 26 27 28 31 35 36 37 40 
23(-1)->1 2 3 4 5 6 7 8 9 10 11 12 15 16 19 20 21 24 26 27 30 32 37 38 
29(-1)->1 2 3 4 5 6 7 8 9 10 11 12 13 14 15 16 19 26 28 30 32 35 38 40 
38(-1)->1 2 3 4 5 6 7 8 9 10 12 13 15 16 18 19 20 23 27 29 32 33 35 37 
21(-1)->1 2 3 4 5 6 7 8 9 10 11 12 15 17 20 22 23 24 25 32 35 37 39 
33(-1)->1 2 3 4 5 6 7 8 9 10 11 12 13 15 18 19 24 27 28 32 38 39 40 
36(-1)->1 2 3 4 5 6 7 8 9 10 11 12 15 19 20 22 25 27 31 32 35 37 40 
39(-1)->1 2 3 4 5 6 7 8 10 12 13 16 18 20 21 24 25 26 27 32 33 34 40 
31(-1)->1 2 3 4 5 6 7 8 15 18 19 22 25 26 27 30 35 36 37 40 
-------
1 2 3 4 5 6 7 8 9 10 11 12 13 14 15 17 18 34 37 

-------
17(-1)->1 2 3 4 5 6 7 8 9 10 11 12 13 14 15 18 19 21 24 25 26 30 34 37 40 
34(-1)->1 2 3 4 5 6 7 8 9 10 11 12 13 14 15 17 18 19 20 25 26 27 28 35 37 39 40 
18(-1)->1 2 3 4 5 6 7 8 9 10 11 12 13 14 15 16 17 19 20 24 28 31 32 33 34 35 37 38 39 
14(-1)->1 2 3 4 5 6 7 8 9 10 11 12 13 15 16 17 18 19 22 24 25 27 28 29 32 34 35 37 40 
37(-1)->1 2 3 4 5 6 7 8 9 10 11 12 13 14 15 16 17 18 21 22 23 25 28 30 31 34 35 36 38 40 
15(-1)->1 2 3 4 5 6 7 8 9 10 11 12 13 14 16 17 18 20 21 22 23 27 29 30 31 32 33 34 35 36 37 38 
13(-1)->1 2 3 4 5 6 7 8 9 10 11 12 14 15 16 17 18 20 24 25 26 27 28 29 30 32 33 34 37 38 39 40 
11(-1)->1 2 3 4 5 6 7 8 9 10 12 13 14 15 17 18 19 20 21 22 23 24 25 26 27 29 30 32 33 34 35 36 37 
12(-1)->1 2 3 4 5 6 7 8 9 10 11 13 14 15 16 17 18 19 20 21 22 23 25 26 27 29 30 32 33 34 35 36 37 38 39 40 
10(-1)->1 2 3 4 5 6 7 8 9 11 12 13 14 15 16 17 18 19 20 21 22 23 25 26 27 28 29 32 33 34 35 36 37 38 39 40 
9(-1)->1 2 3 4 5 6 7 8 10 11 12 13 14 15 16 17 18 19 20 21 22 23 24 25 26 27 28 29 30 32 33 34 35 36 37 38 40 
1(-1)->2 3 4 5 6 7 8 9 10 11 12 13 14 15 16 17 18 19 20 21 22 23 24 25 26 27 28 29 30 31 32 33 34 35 36 37 38 39 
8(-1)->1 2 3 4 5 6 7 9 10 11 12 13 14 15 16 17 18 19 20 21 22 23 24 25 26 27 28 29 30 31 32 33 34 35 36 37 38 39 40 
7(-1)->1 2 3 4 5 6 8 9 10 11 12 13 14 15 16 17 18 19 20 21 22 23 24 25 26 27 28 29 30 31 32 33 34 35 36 37 38 39 40 
6(-1)->1 2 3 4 5 7 8 9 10 11 12 13 14 15 16 17 18 19 20 21 22 23 24 25 26 27 28 29 30 31 32 33 34 35 36 37 38 39 40 
5(-1)->1 2 3 4 6 7 8 9 10 11 12 13 14 15 16 17 18 19 20 21 22 23 24 25 26 27 28 29 30 31 32 33 34 35 36 37 38 39 40 
4(-1)->1 2 3 5 6 7 8 9 10 11 12 13 14 15 16 17 18 19 20 21 22 23 24 25 26 27 28 29 30 31 32 33 34 35 36 37 38 39 40 
3(-1)->1 2 4 5 6 7 8 9 10 11 12 13 14 15 16 17 18 19 20 21 22 23 24 25 26 27 28 29 30 31 32 33 34 35 36 37 38 39 40 
2(-1)->1 3 4 5 6 7 8 9 10 11 12 13 14 15 16 17 18 19 20 21 22 23 24 25 26 27 28 29 30 31 32 33 34 35 36 37 38 39 40 
35(-1)->1 2 3 4 5 6 7 8 9 10 11 12 14 15 18 21 22 24 25 26 27 28 29 30 31 32 34 36 37 38 40 
27(-1)->1 2 3 4 5 6 7 8 9 10 11 12 13 14 15 22 23 24 25 26 28 30 31 33 34 35 36 38 39 40 
19(-1)->1 2 3 4 5 6 7 8 9 10 11 12 14 17 18 20 22 23 24 28 29 30 31 32 33 34 36 38 40 
20(-1)->1 2 3 4 5 6 7 8 9 10 11 12 13 15 16 18 19 21 23 24 25 26 28 30 32 34 36 38 39 
32(-1)->1 2 3 4 5 6 7 8 9 10 11 12 13 14 15 18 19 20 21 23 26 28 29 30 33 35 36 38 39 
24(-1)->1 2 3 4 5 6 7 8 9 11 13 14 16 17 18 19 20 21 23 26 27 28 30 33 35 39 40 
25(-1)->1 2 3 4 5 6 7 8 9 10 11 12 13 14 16 17 20 21 22 27 28 31 34 35 36 37 39 
26(-1)->1 2 3 4 5 6 7 8 9 10 11 12 13 16 17 20 22 23 24 27 28 29 31 32 34 35 39 
28(-1)->1 2 3 4 5 6 7 8 9 10 13 14 18 19 20 22 24 25 26 27 29 30 32 33 34 35 37 
16(-1)->1 2 3 4 5 6 7 8 9 10 12 13 14 15 18 20 23 24 25 26 29 30 37 38 39 40 
30(-1)->1 2 3 4 5 6 7 8 9 11 12 13 15 16 17 19 20 23 24 27 28 29 31 32 35 37 
40(-1)->2 3 4 5 6 7 8 9 10 12 13 14 16 17 19 22 24 27 29 31 33 34 35 36 37 39 
22(-1)->1 2 3 4 5 6 7 8 9 10 11 12 14 15 19 21 25 26 27 28 31 35 36 37 40 
23(-1)->1 2 3 4 5 6 7 8 9 10 11 12 15 16 19 20 21 24 26 27 30 32 37 38 
29(-1)->1 2 3 4 5 6 7 8 9 10 11 12 13 14 15 16 19 26 28 30 32 35 38 40 
38(-1)->1 2 3 4 5 6 7 8 9 10 12 13 15 16 18 19 20 23 27 29 32 33 35 37 
21(-1)->1 2 3 4 5 6 7 8 9 10 11 12 15 17 20 22 23 24 25 32 35 37 39 
33(-1)->1 2 3 4 5 6 7 8 9 10 11 12 13 15 18 19 24 27 28 32 38 39 40 
36(-1)->1 2 3 4 5 6 7 8 9 10 11 12 15 19 20 22 25 27 31 32 35 37 40 
39(-1)->1 2 3 4 5 6 7 8 10 12 13 16 18 20 21 24 25 26 27 32 33 34 40 
31(-1)->1 2 3 4 5 6 7 8 15 18 19 22 25 26 27 30 35 36 37 40 
-------
START TIME: 1433711285
-------
1(11)->2 3 4 5 6 7 8 9 10 11 12 13 14 15 16 17 18 19 20 21 22 23 24 25 26 27 28 29 30 31 32 33 34 35 36 37 38 39 
2(18)->1 3 4 5 6 7 8 9 10 11 12 13 14 15 16 17 18 19 20 21 22 23 24 25 26 27 28 29 30 31 32 33 34 35 36 37 38 39 40 
3(17)->1 2 4 5 6 7 8 9 10 11 12 13 14 15 16 17 18 19 20 21 22 23 24 25 26 27 28 29 30 31 32 33 34 35 36 37 38 39 40 
4(16)->1 2 3 5 6 7 8 9 10 11 12 13 14 15 16 17 18 19 20 21 22 23 24 25 26 27 28 29 30 31 32 33 34 35 36 37 38 39 40 
5(15)->1 2 3 4 6 7 8 9 10 11 12 13 14 15 16 17 18 19 20 21 22 23 24 25 26 27 28 29 30 31 32 33 34 35 36 37 38 39 40 
6(14)->1 2 3 4 5 7 8 9 10 11 12 13 14 15 16 17 18 19 20 21 22 23 24 25 26 27 28 29 30 31 32 33 34 35 36 37 38 39 40 
7(13)->1 2 3 4 5 6 8 9 10 11 12 13 14 15 16 17 18 19 20 21 22 23 24 25 26 27 28 29 30 31 32 33 34 35 36 37 38 39 40 
8(12)->1 2 3 4 5 6 7 9 10 11 12 13 14 15 16 17 18 19 20 21 22 23 24 25 26 27 28 29 30 31 32 33 34 35 36 37 38 39 40 
9(10)->1 2 3 4 5 6 7 8 10 11 12 13 14 15 16 17 18 19 20 21 22 23 24 25 26 27 28 29 30 32 33 34 35 36 37 38 40 
10(9)->1 2 3 4 5 6 7 8 9 11 12 13 14 15 16 17 18 19 20 21 22 23 25 26 27 28 29 32 33 34 35 36 37 38 39 40 
11(7)->1 2 3 4 5 6 7 8 9 10 12 13 14 15 17 18 19 20 21 22 23 24 25 26 27 29 30 32 33 34 35 36 37 
12(8)->1 2 3 4 5 6 7 8 9 10 11 13 14 15 16 17 18 19 20 21 22 23 25 26 27 29 30 32 33 34 35 36 37 38 39 40 
13(6)->1 2 3 4 5 6 7 8 9 10 11 12 14 15 16 17 18 20 24 25 26 27 28 29 30 32 33 34 37 38 39 40 
14(3)->1 2 3 4 5 6 7 8 9 10 11 12 13 15 16 17 18 19 22 24 25 27 28 29 32 34 35 37 40 
15(5)->1 2 3 4 5 6 7 8 9 10 11 12 13 14 16 17 18 20 21 22 23 27 29 30 31 32 33 34 35 36 37 38 
16(7)->1 2 3 4 5 6 7 8 9 10 12 13 14 15 18 20 23 24 25 26 29 30 37 38 39 40 
17(0)->1 2 3 4 5 6 7 8 9 10 11 12 13 14 15 18 19 21 24 25 26 30 34 37 40 
18(2)->1 2 3 4 5 6 7 8 9 10 11 12 13 14 15 16 17 19 20 24 28 31 32 33 34 35 37 38 39 
19(4)->1 2 3 4 5 6 7 8 9 10 11 12 14 17 18 20 22 23 24 28 29 30 31 32 33 34 36 38 40 
20(0)->1 2 3 4 5 6 7 8 9 10 11 12 13 15 16 18 19 21 23 24 25 26 28 30 32 34 36 38 39 
21(2)->1 2 3 4 5 6 7 8 9 10 11 12 15 17 20 22 23 24 25 32 35 37 39 
22(1)->1 2 3 4 5 6 7 8 9 10 11 12 14 15 19 21 25 26 27 28 31 35 36 37 40 
23(6)->1 2 3 4 5 6 7 8 9 10 11 12 15 16 19 20 21 24 26 27 30 32 37 38 
24(1)->1 2 3 4 5 6 7 8 9 11 13 14 16 17 18 19 20 21 23 26 27 28 30 33 35 39 40 
25(5)->1 2 3 4 5 6 7 8 9 10 11 12 13 14 16 17 20 21 22 27 28 31 34 35 36 37 39 
26(3)->1 2 3 4 5 6 7 8 9 10 11 12 13 16 17 20 22 23 24 27 28 29 31 32 34 35 39 
27(2)->1 2 3 4 5 6 7 8 9 10 11 12 13 14 15 22 23 24 25 26 28 30 31 33 34 35 36 38 39 40 
28(7)->1 2 3 4 5 6 7 8 9 10 13 14 18 19 20 22 24 25 26 27 29 30 32 33 34 35 37 
29(2)->1 2 3 4 5 6 7 8 9 10 11 12 13 14 15 16 19 26 28 30 32 35 38 40 
30(3)->1 2 3 4 5 6 7 8 9 11 12 13 15 16 17 19 20 23 24 27 28 29 31 32 35 37 
31(6)->1 2 3 4 5 6 7 8 15 18 19 22 25 26 27 30 35 36 37 40 
32(1)->1 2 3 4 5 6 7 8 9 10 11 12 13 14 15 18 19 20 21 23 26 28 29 30 33 35 36 38 39 
33(0)->1 2 3 4 5 6 7 8 9 10 11 12 13 15 18 19 24 27 28 32 38 39 40 
34(1)->1 2 3 4 5 6 7 8 9 10 11 12 13 14 15 17 18 19 20 25 26 27 28 35 37 39 40 
35(0)->1 2 3 4 5 6 7 8 9 10 11 12 14 15 18 21 22 24 25 26 27 28 29 30 31 32 34 36 37 38 40 
36(3)->1 2 3 4 5 6 7 8 9 10 11 12 15 19 20 22 25 27 31 32 35 37 40 
37(4)->1 2 3 4 5 6 7 8 9 10 11 12 13 14 15 16 17 18 21 22 23 25 28 30 31 34 35 36 38 40 
38(3)->1 2 3 4 5 6 7 8 9 10 12 13 15 16 18 19 20 23 27 29 32 33 35 37 
39(4)->1 2 3 4 5 6 7 8 10 12 13 16 18 20 21 24 25 26 27 32 33 34 40 
40(5)->2 3 4 5 6 7 8 9 10 12 13 14 16 17 19 22 24 27 29 31 33 34 35 36 37 39 
COUNT: 40
COLORS: 19
19
40
