1: 2 3 4 5 6 7 8 9 10 11 24 26 29
2: 1 3 6 8 12 13 17 23
3: 1 2 6 38 18 28
4: 33 35 1 8 9 22 24
5: 1 9 11 14 21 28 29 30
6: 1 2 3 9 11 16 18 26 30
7: 1 27
8: 1 2 4 10 13 19 29
9: 32 1 4 5 6 17 27 28
10: 1 35 38 8 11 40 19 25 28
11: 33 35 5 38 1 10 15 16 19 6
12: 2 37 38 39
13: 8 32 2 28 31
14: 19 5 38 23
15: 37 38 11 16 28 31
16: 32 6 11 15 18 21
17: 2 38 39 40 9 28
18: 32 3 37 6 40 16 20 22
19: 8 10 11 14 22 26
20: 18 35 28 22
21: 16 34 35 5
22: 4 38 39 18 19 20
23: 24 2 27 29 14
24: 32 1 4 40 23 26
25: 10 35 37
26: 1 6 19 24 27 30 31
27: 38 7 9 23 26 30
28: 3 5 9 10 13 15 17 20
29: 8 1 39 5 23
30: 26 27 5 6
31: 26 13 38 15
32: 16 9 18 13 24
33: 11 4 39
34: 35 21
35: 34 4 37 38 10 11 20 21 25
36: 
37: 25 18 35 12 15
38: 35 40 10 11 12 14 15 17 3 22 27 31
39: 33 12 29 22 17
40: 24 17 18 10 38
-------
1(-1)->2 3 4 5 6 7 8 9 10 11 24 26 29 
2(-1)->1 3 6 8 12 13 17 23 
3(-1)->1 2 6 18 28 38 
4(-1)->1 8 9 22 24 33 35 
5(-1)->1 9 11 14 21 28 29 30 
6(-1)->1 2 3 9 11 16 18 26 30 
7(-1)->1 27 
8(-1)->1 2 4 10 13 19 29 
9(-1)->1 4 5 6 17 27 28 32 
10(-1)->1 8 11 19 25 28 35 38 40 
11(-1)->1 5 6 10 15 16 19 33 35 38 
12(-1)->2 37 38 39 
13(-1)->2 8 28 31 32 
14(-1)->5 19 23 38 
15(-1)->11 16 28 31 37 38 
16(-1)->6 11 15 18 21 32 
17(-1)->2 9 28 38 39 40 
18(-1)->3 6 16 20 22 32 37 40 
19(-1)->8 10 11 14 22 26 
20(-1)->18 22 28 35 
21(-1)->5 16 34 35 
22(-1)->4 18 19 20 38 39 
23(-1)->2 14 24 27 29 
24(-1)->1 4 23 26 32 40 
25(-1)->10 35 37 
26(-1)->1 6 19 24 27 30 31 
27(-1)->7 9 23 26 30 38 
28(-1)->3 5 9 10 13 15 17 20 
29(-1)->1 5 8 23 39 
30(-1)->5 6 26 27 
31(-1)->13 15 26 38 
32(-1)->9 13 16 18 24 
33(-1)->4 11 39 
34(-1)->21 35 
35(-1)->4 10 11 20 21 25 34 37 38 
36(-1)->
37(-1)->12 15 18 25 35 
38(-1)->3 10 11 12 14 15 17 22 27 31 35 40 
39(-1)->12 17 22 29 33 
40(-1)->10 17 18 24 38 
-------
1(-1)->2 3 4 5 6 7 8 9 10 11 24 26 29 
38(-1)->3 10 11 12 14 15 17 22 27 31 35 40 
11(-1)->1 5 6 10 15 16 19 33 35 38 
6(-1)->1 2 3 9 11 16 18 26 30 
10(-1)->1 8 11 19 25 28 35 38 40 
35(-1)->4 10 11 20 21 25 34 37 38 
2(-1)->1 3 6 8 12 13 17 23 
5(-1)->1 9 11 14 21 28 29 30 
9(-1)->1 4 5 6 17 27 28 32 
18(-1)->3 6 16 20 22 32 37 40 
28(-1)->3 5 9 10 13 15 17 20 
4(-1)->1 8 9 22 24 33 35 
8(-1)->1 2 4 10 13 19 29 
26(-1)->1 6 19 24 27 30 31 
3(-1)->1 2 6 18 28 38 
15(-1)->11 16 28 31 37 38 
16(-1)->6 11 15 18 21 32 
17(-1)->2 9 28 38 39 40 
19(-1)->8 10 11 14 22 26 
22(-1)->4 18 19 20 38 39 
24(-1)->1 4 23 26 32 40 
27(-1)->7 9 23 26 30 38 
13(-1)->2 8 28 31 32 
23(-1)->2 14 24 27 29 
29(-1)->1 5 8 23 39 
32(-1)->9 13 16 18 24 
37(-1)->12 15 18 25 35 
39(-1)->12 17 22 29 33 
40(-1)->10 17 18 24 38 
12(-1)->2 37 38 39 
14(-1)->5 19 23 38 
20(-1)->18 22 28 35 
21(-1)->5 16 34 35 
30(-1)->5 6 26 27 
31(-1)->13 15 26 38 
25(-1)->10 35 37 
33(-1)->4 11 39 
7(-1)->1 27 
34(-1)->21 35 
36(-1)->
-------
1 2 3 6 

36 

****************
****************
3(-1)->1 2 6 18 28 38 
2(-1)->1 3 6 8 12 13 17 23 
6(-1)->1 2 3 9 11 16 18 26 30 
1(-1)->2 3 4 5 6 7 8 9 10 11 24 26 29 
38(-1)->3 10 11 12 14 15 17 22 27 31 35 40 
11(-1)->1 5 6 10 15 16 19 33 35 38 
10(-1)->1 8 11 19 25 28 35 38 40 
35(-1)->4 10 11 20 21 25 34 37 38 
5(-1)->1 9 11 14 21 28 29 30 
9(-1)->1 4 5 6 17 27 28 32 
18(-1)->3 6 16 20 22 32 37 40 
28(-1)->3 5 9 10 13 15 17 20 
4(-1)->1 8 9 22 24 33 35 
8(-1)->1 2 4 10 13 19 29 
26(-1)->1 6 19 24 27 30 31 
15(-1)->11 16 28 31 37 38 
16(-1)->6 11 15 18 21 32 
17(-1)->2 9 28 38 39 40 
19(-1)->8 10 11 14 22 26 
22(-1)->4 18 19 20 38 39 
24(-1)->1 4 23 26 32 40 
27(-1)->7 9 23 26 30 38 
13(-1)->2 8 28 31 32 
23(-1)->2 14 24 27 29 
29(-1)->1 5 8 23 39 
32(-1)->9 13 16 18 24 
37(-1)->12 15 18 25 35 
39(-1)->12 17 22 29 33 
40(-1)->10 17 18 24 38 
12(-1)->2 37 38 39 
14(-1)->5 19 23 38 
20(-1)->18 22 28 35 
21(-1)->5 16 34 35 
30(-1)->5 6 26 27 
31(-1)->13 15 26 38 
25(-1)->10 35 37 
33(-1)->4 11 39 
7(-1)->1 27 
34(-1)->21 35 
****************
36(-1)->
START TIME: 1433711230
START TIME: 1433711230
1(3)->2 3 4 5 6 7 8 9 10 11 24 26 29 
2(1)->1 3 6 8 12 13 17 23 
3(0)->1 2 6 18 28 38 
4(1)->1 8 9 22 24 33 35 
5(2)->1 9 11 14 21 28 29 30 
6(2)->1 2 3 9 11 16 18 26 30 
7(0)->1 27 
8(0)->1 2 4 10 13 19 29 
9(0)->1 4 5 6 17 27 28 32 
10(2)->1 8 11 19 25 28 35 38 40 
11(0)->1 5 6 10 15 16 19 33 35 38 
12(2)->2 37 38 39 
13(3)->2 8 28 31 32 
14(0)->5 19 23 38 
15(2)->11 16 28 31 37 38 
16(3)->6 11 15 18 21 32 
17(2)->2 9 28 38 39 40 
18(1)->3 6 16 20 22 32 37 40 
19(3)->8 10 11 14 22 26 
20(2)->18 22 28 35 
21(0)->5 16 34 35 
22(0)->4 18 19 20 38 39 
23(3)->2 14 24 27 29 
24(0)->1 4 23 26 32 40 
25(1)->10 35 37 
26(1)->1 6 19 24 27 30 31 
27(2)->7 9 23 26 30 38 
28(1)->3 5 9 10 13 15 17 20 
29(1)->1 5 8 23 39 
30(0)->5 6 26 27 
31(0)->13 15 26 38 
32(2)->9 13 16 18 24 
33(2)->4 11 39 
34(1)->21 35 
35(3)->4 10 11 20 21 25 34 37 38 
36(0)->
37(0)->12 15 18 25 35 
38(1)->3 10 11 12 14 15 17 22 27 31 35 40 
39(3)->12 17 22 29 33 
40(3)->10 17 18 24 38 
COUNT: 595
COLORS: 4
EDGES: 0
4
595
