1: 2 3 4 5 6 39 8 9 7 17 21 23
2: 32 1 3 36 5 40 15 16 4
3: 1 2 36 37 40 15 8 23 25 28 4
4: 1 2 3 36 5 17 22 23 26 31
5: 32 1 2 4 37 40 10 12 14 24 29
6: 23 25 35 1 15
7: 1 36 38 16 22 24 27 30
8: 1 3 36 9 21 25
9: 32 1 8 11 16 18
10: 32 33 5 39 11 25 29
11: 40 9 34 10
12: 33 5
13: 18 29
14: 32 35 5
15: 3 2 35 36 6 17 19 26 30
16: 2 7 9 17 20 30 31
17: 1 4 40 15 16 28
18: 9 38 13 30
19: 15 21 22 23 24 28 29
20: 33 36 37 38 16 26
21: 8 1 19 37 22
22: 36 38 7 19 21 4 26
23: 1 3 4 6 19 25
24: 36 5 7 40 19 25 27 31
25: 3 6 39 40 10 8 23 24 30
26: 20 4 22 15
27: 24 30 7
28: 19 17 3
29: 5 39 10 13 19 31
30: 7 15 16 18 25 27
31: 24 16 4 29
32: 9 2 10 5 14
33: 20 10 12
34: 40 11
35: 14 6 15
36: 2 3 4 7 8 15 20 22 24
37: 3 20 21 5
38: 40 18 20 22 7
39: 25 10 29 1
40: 2 3 5 38 11 34 17 24 25
-------
1(-1)->2 3 4 5 6 7 8 9 17 21 23 39 
2(-1)->1 3 4 5 15 16 32 36 40 
3(-1)->1 2 4 8 15 23 25 28 36 37 40 
4(-1)->1 2 3 5 17 22 23 26 31 36 
5(-1)->1 2 4 10 12 14 24 29 32 37 40 
6(-1)->1 15 23 25 35 
7(-1)->1 16 22 24 27 30 36 38 
8(-1)->1 3 9 21 25 36 
9(-1)->1 8 11 16 18 32 
10(-1)->5 11 25 29 32 33 39 
11(-1)->9 10 34 40 
12(-1)->5 33 
13(-1)->18 29 
14(-1)->5 32 35 
15(-1)->2 3 6 17 19 26 30 35 36 
16(-1)->2 7 9 17 20 30 31 
17(-1)->1 4 15 16 28 40 
18(-1)->9 13 30 38 
19(-1)->15 21 22 23 24 28 29 
20(-1)->16 26 33 36 37 38 
21(-1)->1 8 19 22 37 
22(-1)->4 7 19 21 26 36 38 
23(-1)->1 3 4 6 19 25 
24(-1)->5 7 19 25 27 31 36 40 
25(-1)->3 6 8 10 23 24 30 39 40 
26(-1)->4 15 20 22 
27(-1)->7 24 30 
28(-1)->3 17 19 
29(-1)->5 10 13 19 31 39 
30(-1)->7 15 16 18 25 27 
31(-1)->4 16 24 29 
32(-1)->2 5 9 10 14 
33(-1)->10 12 20 
34(-1)->11 40 
35(-1)->6 14 15 
36(-1)->2 3 4 7 8 15 20 22 24 
37(-1)->3 5 20 21 
38(-1)->7 18 20 22 40 
39(-1)->1 10 25 29 
40(-1)->2 3 5 11 17 24 25 34 38 
-------
1(-1)->2 3 4 5 6 7 8 9 17 21 23 39 
3(-1)->1 2 4 8 15 23 25 28 36 37 40 
5(-1)->1 2 4 10 12 14 24 29 32 37 40 
4(-1)->1 2 3 5 17 22 23 26 31 36 
2(-1)->1 3 4 5 15 16 32 36 40 
15(-1)->2 3 6 17 19 26 30 35 36 
25(-1)->3 6 8 10 23 24 30 39 40 
36(-1)->2 3 4 7 8 15 20 22 24 
40(-1)->2 3 5 11 17 24 25 34 38 
7(-1)->1 16 22 24 27 30 36 38 
24(-1)->5 7 19 25 27 31 36 40 
10(-1)->5 11 25 29 32 33 39 
16(-1)->2 7 9 17 20 30 31 
19(-1)->15 21 22 23 24 28 29 
22(-1)->4 7 19 21 26 36 38 
8(-1)->1 3 9 21 25 36 
9(-1)->1 8 11 16 18 32 
17(-1)->1 4 15 16 28 40 
20(-1)->16 26 33 36 37 38 
23(-1)->1 3 4 6 19 25 
29(-1)->5 10 13 19 31 39 
30(-1)->7 15 16 18 25 27 
6(-1)->1 15 23 25 35 
21(-1)->1 8 19 22 37 
32(-1)->2 5 9 10 14 
38(-1)->7 18 20 22 40 
11(-1)->9 10 34 40 
18(-1)->9 13 30 38 
26(-1)->4 15 20 22 
31(-1)->4 16 24 29 
37(-1)->3 5 20 21 
39(-1)->1 10 25 29 
14(-1)->5 32 35 
27(-1)->7 24 30 
28(-1)->3 17 19 
33(-1)->10 12 20 
35(-1)->6 14 15 
12(-1)->5 33 
13(-1)->18 29 
34(-1)->11 40 
-------
1 2 3 4 

-------
2(-1)->1 3 4 5 15 16 32 36 40 
4(-1)->1 2 3 5 17 22 23 26 31 36 
3(-1)->1 2 4 8 15 23 25 28 36 37 40 
1(-1)->2 3 4 5 6 7 8 9 17 21 23 39 
5(-1)->1 2 4 10 12 14 24 29 32 37 40 
15(-1)->2 3 6 17 19 26 30 35 36 
25(-1)->3 6 8 10 23 24 30 39 40 
36(-1)->2 3 4 7 8 15 20 22 24 
40(-1)->2 3 5 11 17 24 25 34 38 
7(-1)->1 16 22 24 27 30 36 38 
24(-1)->5 7 19 25 27 31 36 40 
10(-1)->5 11 25 29 32 33 39 
16(-1)->2 7 9 17 20 30 31 
19(-1)->15 21 22 23 24 28 29 
22(-1)->4 7 19 21 26 36 38 
8(-1)->1 3 9 21 25 36 
9(-1)->1 8 11 16 18 32 
17(-1)->1 4 15 16 28 40 
20(-1)->16 26 33 36 37 38 
23(-1)->1 3 4 6 19 25 
29(-1)->5 10 13 19 31 39 
30(-1)->7 15 16 18 25 27 
6(-1)->1 15 23 25 35 
21(-1)->1 8 19 22 37 
32(-1)->2 5 9 10 14 
38(-1)->7 18 20 22 40 
11(-1)->9 10 34 40 
18(-1)->9 13 30 38 
26(-1)->4 15 20 22 
31(-1)->4 16 24 29 
37(-1)->3 5 20 21 
39(-1)->1 10 25 29 
14(-1)->5 32 35 
27(-1)->7 24 30 
28(-1)->3 17 19 
33(-1)->10 12 20 
35(-1)->6 14 15 
12(-1)->5 33 
13(-1)->18 29 
34(-1)->11 40 
-------
START TIME: 1433711230
-------
1(3)->2 3 4 5 6 7 8 9 17 21 23 39 
2(0)->1 3 4 5 15 16 32 36 40 
3(2)->1 2 4 8 15 23 25 28 36 37 40 
4(1)->1 2 3 5 17 22 23 26 31 36 
5(2)->1 2 4 10 12 14 24 29 32 37 40 
6(2)->1 15 23 25 35 
7(1)->1 16 22 24 27 30 36 38 
8(0)->1 3 9 21 25 36 
9(1)->1 8 11 16 18 32 
10(0)->5 11 25 29 32 33 39 
11(2)->9 10 34 40 
12(0)->5 33 
13(0)->18 29 
14(0)->5 32 35 
15(1)->2 3 6 17 19 26 30 35 36 
16(2)->2 7 9 17 20 30 31 
17(0)->1 4 15 16 28 40 
18(3)->9 13 30 38 
19(2)->15 21 22 23 24 28 29 
20(0)->16 26 33 36 37 38 
21(1)->1 8 19 22 37 
22(0)->4 7 19 21 26 36 38 
23(0)->1 3 4 6 19 25 
24(0)->5 7 19 25 27 31 36 40 
25(1)->3 6 8 10 23 24 30 39 40 
26(2)->4 15 20 22 
27(2)->7 24 30 
28(1)->3 17 19 
29(1)->5 10 13 19 31 39 
30(0)->7 15 16 18 25 27 
31(3)->4 16 24 29 
32(3)->2 5 9 10 14 
33(1)->10 12 20 
34(0)->11 40 
35(3)->6 14 15 
36(3)->2 3 4 7 8 15 20 22 24 
37(3)->3 5 20 21 
38(2)->7 18 20 22 40 
39(2)->1 10 25 29 
40(3)->2 3 5 11 17 24 25 34 38 
COUNT: 438
COLORS: 4
4
438
