1: 2 3 36 5 6 39 8 9 10 11 12 13 16 7 4 31
2: 1 3 4 37 9 10 11 12 20 22 36 29 5
3: 1 2 35 12 14
4: 1 2 27 7
5: 1 2 36 14 25 27
6: 1 34 29 23
7: 1 4 11 16 22 23 29
8: 1 17 18 23 24 26
9: 1 2 37 40 14 17 19 21 26 27
10: 1 2 35 38 30 31
11: 1 34 7 2 22 31
12: 1 2 3 20 14
13: 1 35 38 19 24 26
14: 35 5 38 9 12 15 16 3
15: 18 34 14
16: 1 38 7 14 21 24
17: 32 9 30 38 8
18: 34 8 15 20 23 29
19: 24 9 13 29 25
20: 40 18 12 2 21
21: 32 33 39 40 9 16 20 24 29
22: 2 7 11 25 28 31
23: 8 34 18 6 7
24: 40 13 16 8 19 21
25: 33 35 5 19 22 31
26: 8 9 13
27: 32 34 4 5 9 29
28: 36 22
29: 2 6 7 18 19 21 27
30: 17 10 36
31: 1 10 11 22 25
32: 33 35 40 17 21 27
33: 32 25 21 39
34: 36 6 11 15 18 23 27
35: 32 3 39 40 10 13 14 25
36: 1 34 5 39 2 28 30
37: 9 2
38: 16 17 10 13 14
39: 1 35 36 21 33
40: 32 35 9 20 21 24
-------
1(-1)->2 3 4 5 6 7 8 9 10 11 12 13 16 31 36 39 
2(-1)->1 3 4 5 9 10 11 12 20 22 29 36 37 
3(-1)->1 2 12 14 35 
4(-1)->1 2 7 27 
5(-1)->1 2 14 25 27 36 
6(-1)->1 23 29 34 
7(-1)->1 4 11 16 22 23 29 
8(-1)->1 17 18 23 24 26 
9(-1)->1 2 14 17 19 21 26 27 37 40 
10(-1)->1 2 30 31 35 38 
11(-1)->1 2 7 22 31 34 
12(-1)->1 2 3 14 20 
13(-1)->1 19 24 26 35 38 
14(-1)->3 5 9 12 15 16 35 38 
15(-1)->14 18 34 
16(-1)->1 7 14 21 24 38 
17(-1)->8 9 30 32 38 
18(-1)->8 15 20 23 29 34 
19(-1)->9 13 24 25 29 
20(-1)->2 12 18 21 40 
21(-1)->9 16 20 24 29 32 33 39 40 
22(-1)->2 7 11 25 28 31 
23(-1)->6 7 8 18 34 
24(-1)->8 13 16 19 21 40 
25(-1)->5 19 22 31 33 35 
26(-1)->8 9 13 
27(-1)->4 5 9 29 32 34 
28(-1)->22 36 
29(-1)->2 6 7 18 19 21 27 
30(-1)->10 17 36 
31(-1)->1 10 11 22 25 
32(-1)->17 21 27 33 35 40 
33(-1)->21 25 32 39 
34(-1)->6 11 15 18 23 27 36 
35(-1)->3 10 13 14 25 32 39 40 
36(-1)->1 2 5 28 30 34 39 
37(-1)->2 9 
38(-1)->10 13 14 16 17 
39(-1)->1 21 33 35 36 
40(-1)->9 20 21 24 32 35 
-------
1(-1)->2 3 4 5 6 7 8 9 10 11 12 13 16 31 36 39 
2(-1)->1 3 4 5 9 10 11 12 20 22 29 36 37 
9(-1)->1 2 14 17 19 21 26 27 37 40 
21(-1)->9 16 20 24 29 32 33 39 40 
14(-1)->3 5 9 12 15 16 35 38 
35(-1)->3 10 13 14 25 32 39 40 
7(-1)->1 4 11 16 22 23 29 
29(-1)->2 6 7 18 19 21 27 
34(-1)->6 11 15 18 23 27 36 
36(-1)->1 2 5 28 30 34 39 
5(-1)->1 2 14 25 27 36 
8(-1)->1 17 18 23 24 26 
10(-1)->1 2 30 31 35 38 
11(-1)->1 2 7 22 31 34 
13(-1)->1 19 24 26 35 38 
16(-1)->1 7 14 21 24 38 
18(-1)->8 15 20 23 29 34 
22(-1)->2 7 11 25 28 31 
24(-1)->8 13 16 19 21 40 
25(-1)->5 19 22 31 33 35 
27(-1)->4 5 9 29 32 34 
32(-1)->17 21 27 33 35 40 
40(-1)->9 20 21 24 32 35 
3(-1)->1 2 12 14 35 
12(-1)->1 2 3 14 20 
17(-1)->8 9 30 32 38 
19(-1)->9 13 24 25 29 
20(-1)->2 12 18 21 40 
23(-1)->6 7 8 18 34 
31(-1)->1 10 11 22 25 
38(-1)->10 13 14 16 17 
39(-1)->1 21 33 35 36 
4(-1)->1 2 7 27 
6(-1)->1 23 29 34 
33(-1)->21 25 32 39 
15(-1)->14 18 34 
26(-1)->8 9 13 
30(-1)->10 17 36 
28(-1)->22 36 
37(-1)->2 9 
-------
1 2 3 12 

-------
12(-1)->1 2 3 14 20 
3(-1)->1 2 12 14 35 
2(-1)->1 3 4 5 9 10 11 12 20 22 29 36 37 
1(-1)->2 3 4 5 6 7 8 9 10 11 12 13 16 31 36 39 
9(-1)->1 2 14 17 19 21 26 27 37 40 
21(-1)->9 16 20 24 29 32 33 39 40 
14(-1)->3 5 9 12 15 16 35 38 
35(-1)->3 10 13 14 25 32 39 40 
7(-1)->1 4 11 16 22 23 29 
29(-1)->2 6 7 18 19 21 27 
34(-1)->6 11 15 18 23 27 36 
36(-1)->1 2 5 28 30 34 39 
5(-1)->1 2 14 25 27 36 
8(-1)->1 17 18 23 24 26 
10(-1)->1 2 30 31 35 38 
11(-1)->1 2 7 22 31 34 
13(-1)->1 19 24 26 35 38 
16(-1)->1 7 14 21 24 38 
18(-1)->8 15 20 23 29 34 
22(-1)->2 7 11 25 28 31 
24(-1)->8 13 16 19 21 40 
25(-1)->5 19 22 31 33 35 
27(-1)->4 5 9 29 32 34 
32(-1)->17 21 27 33 35 40 
40(-1)->9 20 21 24 32 35 
17(-1)->8 9 30 32 38 
19(-1)->9 13 24 25 29 
20(-1)->2 12 18 21 40 
23(-1)->6 7 8 18 34 
31(-1)->1 10 11 22 25 
38(-1)->10 13 14 16 17 
39(-1)->1 21 33 35 36 
4(-1)->1 2 7 27 
6(-1)->1 23 29 34 
33(-1)->21 25 32 39 
15(-1)->14 18 34 
26(-1)->8 9 13 
30(-1)->10 17 36 
28(-1)->22 36 
37(-1)->2 9 
-------
START TIME: 1433711230
-------
1(3)->2 3 4 5 6 7 8 9 10 11 12 13 16 31 36 39 
2(2)->1 3 4 5 9 10 11 12 20 22 29 36 37 
3(1)->1 2 12 14 35 
4(0)->1 2 7 27 
5(0)->1 2 14 25 27 36 
6(1)->1 23 29 34 
7(1)->1 4 11 16 22 23 29 
8(0)->1 17 18 23 24 26 
9(0)->1 2 14 17 19 21 26 27 37 40 
10(1)->1 2 30 31 35 38 
11(0)->1 2 7 22 31 34 
12(0)->1 2 3 14 20 
13(1)->1 19 24 26 35 38 
14(2)->3 5 9 12 15 16 35 38 
15(0)->14 18 34 
16(0)->1 7 14 21 24 38 
17(1)->8 9 30 32 38 
18(1)->8 15 20 23 29 34 
19(2)->9 13 24 25 29 
20(3)->2 12 18 21 40 
21(1)->9 16 20 24 29 32 33 39 40 
22(3)->2 7 11 25 28 31 
23(3)->6 7 8 18 34 
24(3)->8 13 16 19 21 40 
25(1)->5 19 22 31 33 35 
26(2)->8 9 13 
27(1)->4 5 9 29 32 34 
28(0)->22 36 
29(0)->2 6 7 18 19 21 27 
30(0)->10 17 36 
31(2)->1 10 11 22 25 
32(3)->17 21 27 33 35 40 
33(0)->21 25 32 39 
34(2)->6 11 15 18 23 27 36 
35(0)->3 10 13 14 25 32 39 40 
36(1)->1 2 5 28 30 34 39 
37(1)->2 9 
38(3)->10 13 14 16 17 
39(2)->1 21 33 35 36 
40(2)->9 20 21 24 32 35 
COUNT: 494
COLORS: 4
4
494
