1: 33 34 3 4 5 38 7 8 9 10 2 22 25 6 30
2: 33 35 1 11 13 3 24 25 31
3: 1 2 4 10 12 26 27
4: 33 3 36 13 1
5: 1 10 28
6: 9 12 1
7: 32 1 35 37 12 17 25 26 27
8: 1 12 15 17 18 22
9: 1 38 29 6 13
10: 33 3 5 1 11 13 22
11: 32 2 35 10 19 22
12: 3 6 7 8 14 24 31
13: 2 4 39 9 10 14 15 16 24 26
14: 33 12 13 17 25 27 29
15: 24 25 28 13 8
16: 33 36 21 13
17: 8 24 38 14 7
18: 8 34 29 38 39
19: 35 36 40 11 21 26
20: 32 34
21: 38 40 16 19 27 30
22: 8 1 10 11 33
23: 25 34 37 30
24: 2 36 37 12 13 15 17 26 31
25: 1 2 7 14 15 23
26: 19 33 35 7 13 3 24
27: 3 21 14 7
28: 37 39 5 38 15
29: 36 37 9 14 18 30
30: 1 34 23 21 29
31: 24 2 12
32: 11 20 7
33: 1 34 4 37 10 2 14 16 22 26
34: 1 33 18 20 23 30
35: 2 11 7 40 39 19 26
36: 4 37 40 16 19 24 29
37: 33 36 7 23 24 28 29
38: 1 9 17 18 21 28
39: 18 35 28 13
40: 35 19 36 21
-------
1(-1)->2 3 4 5 6 7 8 9 10 22 25 30 33 34 38 
2(-1)->1 3 11 13 24 25 31 33 35 
3(-1)->1 2 4 10 12 26 27 
4(-1)->1 3 13 33 36 
5(-1)->1 10 28 
6(-1)->1 9 12 
7(-1)->1 12 17 25 26 27 32 35 37 
8(-1)->1 12 15 17 18 22 
9(-1)->1 6 13 29 38 
10(-1)->1 3 5 11 13 22 33 
11(-1)->2 10 19 22 32 35 
12(-1)->3 6 7 8 14 24 31 
13(-1)->2 4 9 10 14 15 16 24 26 39 
14(-1)->12 13 17 25 27 29 33 
15(-1)->8 13 24 25 28 
16(-1)->13 21 33 36 
17(-1)->7 8 14 24 38 
18(-1)->8 29 34 38 39 
19(-1)->11 21 26 35 36 40 
20(-1)->32 34 
21(-1)->16 19 27 30 38 40 
22(-1)->1 8 10 11 33 
23(-1)->25 30 34 37 
24(-1)->2 12 13 15 17 26 31 36 37 
25(-1)->1 2 7 14 15 23 
26(-1)->3 7 13 19 24 33 35 
27(-1)->3 7 14 21 
28(-1)->5 15 37 38 39 
29(-1)->9 14 18 30 36 37 
30(-1)->1 21 23 29 34 
31(-1)->2 12 24 
32(-1)->7 11 20 
33(-1)->1 2 4 10 14 16 22 26 34 37 
34(-1)->1 18 20 23 30 33 
35(-1)->2 7 11 19 26 39 40 
36(-1)->4 16 19 24 29 37 40 
37(-1)->7 23 24 28 29 33 36 
38(-1)->1 9 17 18 21 28 
39(-1)->13 18 28 35 
40(-1)->19 21 35 36 
-------
1(-1)->2 3 4 5 6 7 8 9 10 22 25 30 33 34 38 
13(-1)->2 4 9 10 14 15 16 24 26 39 
33(-1)->1 2 4 10 14 16 22 26 34 37 
2(-1)->1 3 11 13 24 25 31 33 35 
7(-1)->1 12 17 25 26 27 32 35 37 
24(-1)->2 12 13 15 17 26 31 36 37 
3(-1)->1 2 4 10 12 26 27 
10(-1)->1 3 5 11 13 22 33 
12(-1)->3 6 7 8 14 24 31 
14(-1)->12 13 17 25 27 29 33 
26(-1)->3 7 13 19 24 33 35 
35(-1)->2 7 11 19 26 39 40 
36(-1)->4 16 19 24 29 37 40 
37(-1)->7 23 24 28 29 33 36 
8(-1)->1 12 15 17 18 22 
11(-1)->2 10 19 22 32 35 
19(-1)->11 21 26 35 36 40 
21(-1)->16 19 27 30 38 40 
25(-1)->1 2 7 14 15 23 
29(-1)->9 14 18 30 36 37 
34(-1)->1 18 20 23 30 33 
38(-1)->1 9 17 18 21 28 
4(-1)->1 3 13 33 36 
9(-1)->1 6 13 29 38 
15(-1)->8 13 24 25 28 
17(-1)->7 8 14 24 38 
18(-1)->8 29 34 38 39 
22(-1)->1 8 10 11 33 
28(-1)->5 15 37 38 39 
30(-1)->1 21 23 29 34 
16(-1)->13 21 33 36 
23(-1)->25 30 34 37 
27(-1)->3 7 14 21 
39(-1)->13 18 28 35 
40(-1)->19 21 35 36 
5(-1)->1 10 28 
6(-1)->1 9 12 
31(-1)->2 12 24 
32(-1)->7 11 20 
20(-1)->32 34 
-------
1 10 22 33 

-------
22(-1)->1 8 10 11 33 
10(-1)->1 3 5 11 13 22 33 
33(-1)->1 2 4 10 14 16 22 26 34 37 
1(-1)->2 3 4 5 6 7 8 9 10 22 25 30 33 34 38 
13(-1)->2 4 9 10 14 15 16 24 26 39 
2(-1)->1 3 11 13 24 25 31 33 35 
7(-1)->1 12 17 25 26 27 32 35 37 
24(-1)->2 12 13 15 17 26 31 36 37 
3(-1)->1 2 4 10 12 26 27 
12(-1)->3 6 7 8 14 24 31 
14(-1)->12 13 17 25 27 29 33 
26(-1)->3 7 13 19 24 33 35 
35(-1)->2 7 11 19 26 39 40 
36(-1)->4 16 19 24 29 37 40 
37(-1)->7 23 24 28 29 33 36 
8(-1)->1 12 15 17 18 22 
11(-1)->2 10 19 22 32 35 
19(-1)->11 21 26 35 36 40 
21(-1)->16 19 27 30 38 40 
25(-1)->1 2 7 14 15 23 
29(-1)->9 14 18 30 36 37 
34(-1)->1 18 20 23 30 33 
38(-1)->1 9 17 18 21 28 
4(-1)->1 3 13 33 36 
9(-1)->1 6 13 29 38 
15(-1)->8 13 24 25 28 
17(-1)->7 8 14 24 38 
18(-1)->8 29 34 38 39 
28(-1)->5 15 37 38 39 
30(-1)->1 21 23 29 34 
16(-1)->13 21 33 36 
23(-1)->25 30 34 37 
27(-1)->3 7 14 21 
39(-1)->13 18 28 35 
40(-1)->19 21 35 36 
5(-1)->1 10 28 
6(-1)->1 9 12 
31(-1)->2 12 24 
32(-1)->7 11 20 
20(-1)->32 34 
-------
START TIME: 1433711230
-------
1(3)->2 3 4 5 6 7 8 9 10 22 25 30 33 34 38 
2(1)->1 3 11 13 24 25 31 33 35 
3(0)->1 2 4 10 12 26 27 
4(1)->1 3 13 33 36 
5(0)->1 10 28 
6(0)->1 9 12 
7(0)->1 12 17 25 26 27 32 35 37 
8(2)->1 12 15 17 18 22 
9(1)->1 6 13 29 38 
10(1)->1 3 5 11 13 22 33 
11(3)->2 10 19 22 32 35 
12(1)->3 6 7 8 14 24 31 
13(0)->2 4 9 10 14 15 16 24 26 39 
14(3)->12 13 17 25 27 29 33 
15(1)->8 13 24 25 28 
16(1)->13 21 33 36 
17(1)->7 8 14 24 38 
18(1)->8 29 34 38 39 
19(0)->11 21 26 35 36 40 
20(2)->32 34 
21(2)->16 19 27 30 38 40 
22(0)->1 8 10 11 33 
23(3)->25 30 34 37 
24(2)->2 12 13 15 17 26 31 36 37 
25(2)->1 2 7 14 15 23 
26(1)->3 7 13 19 24 33 35 
27(1)->3 7 14 21 
28(2)->5 15 37 38 39 
29(0)->9 14 18 30 36 37 
30(1)->1 21 23 29 34 
31(0)->2 12 24 
32(1)->7 11 20 
33(2)->1 2 4 10 14 16 22 26 34 37 
34(0)->1 18 20 23 30 33 
35(2)->2 7 11 19 26 39 40 
36(3)->4 16 19 24 29 37 40 
37(1)->7 23 24 28 29 33 36 
38(0)->1 9 17 18 21 28 
39(3)->13 18 28 35 
40(1)->19 21 35 36 
COUNT: 316
COLORS: 4
4
316
