1: 2 3 4 5 6 7 8 9 10 11 12 13 14 15 16 17 18 19 20 21 22 23 24 25 26 27 28 29 34 37 39
2: 33 3 4 7 9 11 12 14 17 20 1 36 26 27 28
3: 32 1 2 6 7 40 9 10 39 17
4: 1 34 36 6 39 11 12 2 17 19 20 25
5: 1 36 37 7 10 13 22 25 27
6: 1 3 36 8 10 15 18 4 27 28
7: 32 1 2 35 5 39 13 16 3 21 25
8: 33 34 36 6 1 40 12 19 21 22 27
9: 1 2 3 36 38 10 17 35 31
10: 1 34 3 36 5 6 40 9 13 14 17 35 20 23
11: 1 2 35 4 37 39
12: 1 2 4 38 33 8 22 36 26
13: 32 1 34 35 37 38 7 10 14 22 23 25 26 5
14: 1 2 35 10 13 19 20 26 27
15: 32 1 37 6 39 24 30 31
16: 1 39 7 17 22 28
17: 32 1 2 3 4 38 40 9 10 16 21 24 31
18: 24 1 35 6
19: 1 4 37 8 14 22
20: 1 2 4 40 10 34 14 24 29
21: 1 36 7 8 17 31
22: 33 5 1 8 12 13 16 19 28 37
23: 1 36 37 38 10 13 26 28 29
24: 17 18 20 1 15
25: 32 33 34 35 4 5 7 13 1 27 28 31
26: 32 1 2 40 12 13 14 23
27: 1 2 37 6 39 8 14 25 28 5
28: 1 2 6 16 22 23 25 27 30
29: 1 23 20 30 36
30: 32 35 38 39 15 28 29
31: 36 39 9 15 17 21 25
32: 33 3 36 39 7 13 15 17 25 26 30
33: 32 34 37 8 12 2 22 25
34: 33 36 38 1 8 10 13 20 25 4
35: 38 7 9 10 11 13 14 18 25 30
36: 32 34 4 37 6 39 8 9 10 12 2 40 21 23 31 29 5
37: 33 36 5 1 40 11 13 15 19 22 23 27
38: 34 35 9 12 13 17 23 30
39: 32 1 3 36 7 11 15 16 4 27 30 31
40: 3 36 37 8 10 17 20 26
-------
1(-1)->2 3 4 5 6 7 8 9 10 11 12 13 14 15 16 17 18 19 20 21 22 23 24 25 26 27 28 29 34 37 39 
2(-1)->1 3 4 7 9 11 12 14 17 20 26 27 28 33 36 
3(-1)->1 2 6 7 9 10 17 32 39 40 
4(-1)->1 2 6 11 12 17 19 20 25 34 36 39 
5(-1)->1 7 10 13 22 25 27 36 37 
6(-1)->1 3 4 8 10 15 18 27 28 36 
7(-1)->1 2 3 5 13 16 21 25 32 35 39 
8(-1)->1 6 12 19 21 22 27 33 34 36 40 
9(-1)->1 2 3 10 17 31 35 36 38 
10(-1)->1 3 5 6 9 13 14 17 20 23 34 35 36 40 
11(-1)->1 2 4 35 37 39 
12(-1)->1 2 4 8 22 26 33 36 38 
13(-1)->1 5 7 10 14 22 23 25 26 32 34 35 37 38 
14(-1)->1 2 10 13 19 20 26 27 35 
15(-1)->1 6 24 30 31 32 37 39 
16(-1)->1 7 17 22 28 39 
17(-1)->1 2 3 4 9 10 16 21 24 31 32 38 40 
18(-1)->1 6 24 35 
19(-1)->1 4 8 14 22 37 
20(-1)->1 2 4 10 14 24 29 34 40 
21(-1)->1 7 8 17 31 36 
22(-1)->1 5 8 12 13 16 19 28 33 37 
23(-1)->1 10 13 26 28 29 36 37 38 
24(-1)->1 15 17 18 20 
25(-1)->1 4 5 7 13 27 28 31 32 33 34 35 
26(-1)->1 2 12 13 14 23 32 40 
27(-1)->1 2 5 6 8 14 25 28 37 39 
28(-1)->1 2 6 16 22 23 25 27 30 
29(-1)->1 20 23 30 36 
30(-1)->15 28 29 32 35 38 39 
31(-1)->9 15 17 21 25 36 39 
32(-1)->3 7 13 15 17 25 26 30 33 36 39 
33(-1)->2 8 12 22 25 32 34 37 
34(-1)->1 4 8 10 13 20 25 33 36 38 
35(-1)->7 9 10 11 13 14 18 25 30 38 
36(-1)->2 4 5 6 8 9 10 12 21 23 29 31 32 34 37 39 40 
37(-1)->1 5 11 13 15 19 22 23 27 33 36 40 
38(-1)->9 12 13 17 23 30 34 35 
39(-1)->1 3 4 7 11 15 16 27 30 31 32 36 
40(-1)->3 8 10 17 20 26 36 37 
-------
1(-1)->2 3 4 5 6 7 8 9 10 11 12 13 14 15 16 17 18 19 20 21 22 23 24 25 26 27 28 29 34 37 39 
36(-1)->2 4 5 6 8 9 10 12 21 23 29 31 32 34 37 39 40 
2(-1)->1 3 4 7 9 11 12 14 17 20 26 27 28 33 36 
10(-1)->1 3 5 6 9 13 14 17 20 23 34 35 36 40 
13(-1)->1 5 7 10 14 22 23 25 26 32 34 35 37 38 
17(-1)->1 2 3 4 9 10 16 21 24 31 32 38 40 
4(-1)->1 2 6 11 12 17 19 20 25 34 36 39 
25(-1)->1 4 5 7 13 27 28 31 32 33 34 35 
37(-1)->1 5 11 13 15 19 22 23 27 33 36 40 
39(-1)->1 3 4 7 11 15 16 27 30 31 32 36 
7(-1)->1 2 3 5 13 16 21 25 32 35 39 
8(-1)->1 6 12 19 21 22 27 33 34 36 40 
32(-1)->3 7 13 15 17 25 26 30 33 36 39 
3(-1)->1 2 6 7 9 10 17 32 39 40 
6(-1)->1 3 4 8 10 15 18 27 28 36 
22(-1)->1 5 8 12 13 16 19 28 33 37 
27(-1)->1 2 5 6 8 14 25 28 37 39 
34(-1)->1 4 8 10 13 20 25 33 36 38 
35(-1)->7 9 10 11 13 14 18 25 30 38 
5(-1)->1 7 10 13 22 25 27 36 37 
9(-1)->1 2 3 10 17 31 35 36 38 
12(-1)->1 2 4 8 22 26 33 36 38 
14(-1)->1 2 10 13 19 20 26 27 35 
20(-1)->1 2 4 10 14 24 29 34 40 
23(-1)->1 10 13 26 28 29 36 37 38 
28(-1)->1 2 6 16 22 23 25 27 30 
15(-1)->1 6 24 30 31 32 37 39 
26(-1)->1 2 12 13 14 23 32 40 
33(-1)->2 8 12 22 25 32 34 37 
38(-1)->9 12 13 17 23 30 34 35 
40(-1)->3 8 10 17 20 26 36 37 
30(-1)->15 28 29 32 35 38 39 
31(-1)->9 15 17 21 25 36 39 
11(-1)->1 2 4 35 37 39 
16(-1)->1 7 17 22 28 39 
19(-1)->1 4 8 14 22 37 
21(-1)->1 7 8 17 31 36 
24(-1)->1 15 17 18 20 
29(-1)->1 20 23 30 36 
18(-1)->1 6 24 35 
-------
1 2 4 11 

-------
11(-1)->1 2 4 35 37 39 
4(-1)->1 2 6 11 12 17 19 20 25 34 36 39 
2(-1)->1 3 4 7 9 11 12 14 17 20 26 27 28 33 36 
1(-1)->2 3 4 5 6 7 8 9 10 11 12 13 14 15 16 17 18 19 20 21 22 23 24 25 26 27 28 29 34 37 39 
36(-1)->2 4 5 6 8 9 10 12 21 23 29 31 32 34 37 39 40 
10(-1)->1 3 5 6 9 13 14 17 20 23 34 35 36 40 
13(-1)->1 5 7 10 14 22 23 25 26 32 34 35 37 38 
17(-1)->1 2 3 4 9 10 16 21 24 31 32 38 40 
25(-1)->1 4 5 7 13 27 28 31 32 33 34 35 
37(-1)->1 5 11 13 15 19 22 23 27 33 36 40 
39(-1)->1 3 4 7 11 15 16 27 30 31 32 36 
7(-1)->1 2 3 5 13 16 21 25 32 35 39 
8(-1)->1 6 12 19 21 22 27 33 34 36 40 
32(-1)->3 7 13 15 17 25 26 30 33 36 39 
3(-1)->1 2 6 7 9 10 17 32 39 40 
6(-1)->1 3 4 8 10 15 18 27 28 36 
22(-1)->1 5 8 12 13 16 19 28 33 37 
27(-1)->1 2 5 6 8 14 25 28 37 39 
34(-1)->1 4 8 10 13 20 25 33 36 38 
35(-1)->7 9 10 11 13 14 18 25 30 38 
5(-1)->1 7 10 13 22 25 27 36 37 
9(-1)->1 2 3 10 17 31 35 36 38 
12(-1)->1 2 4 8 22 26 33 36 38 
14(-1)->1 2 10 13 19 20 26 27 35 
20(-1)->1 2 4 10 14 24 29 34 40 
23(-1)->1 10 13 26 28 29 36 37 38 
28(-1)->1 2 6 16 22 23 25 27 30 
15(-1)->1 6 24 30 31 32 37 39 
26(-1)->1 2 12 13 14 23 32 40 
33(-1)->2 8 12 22 25 32 34 37 
38(-1)->9 12 13 17 23 30 34 35 
40(-1)->3 8 10 17 20 26 36 37 
30(-1)->15 28 29 32 35 38 39 
31(-1)->9 15 17 21 25 36 39 
16(-1)->1 7 17 22 28 39 
19(-1)->1 4 8 14 22 37 
21(-1)->1 7 8 17 31 36 
24(-1)->1 15 17 18 20 
29(-1)->1 20 23 30 36 
18(-1)->1 6 24 35 
-------
START TIME: 1433711241
-------
1(3)->2 3 4 5 6 7 8 9 10 11 12 13 14 15 16 17 18 19 20 21 22 23 24 25 26 27 28 29 34 37 39 
2(2)->1 3 4 7 9 11 12 14 17 20 26 27 28 33 36 
3(0)->1 2 6 7 9 10 17 32 39 40 
4(1)->1 2 6 11 12 17 19 20 25 34 36 39 
5(4)->1 7 10 13 22 25 27 36 37 
6(4)->1 3 4 8 10 15 18 27 28 36 
7(1)->1 2 3 5 13 16 21 25 32 35 39 
8(1)->1 6 12 19 21 22 27 33 34 36 40 
9(1)->1 2 3 10 17 31 35 36 38 
10(2)->1 3 5 6 9 13 14 17 20 23 34 35 36 40 
11(0)->1 2 4 35 37 39 
12(4)->1 2 4 8 22 26 33 36 38 
13(0)->1 5 7 10 14 22 23 25 26 32 34 35 37 38 
14(4)->1 2 10 13 19 20 26 27 35 
15(0)->1 6 24 30 31 32 37 39 
16(0)->1 7 17 22 28 39 
17(4)->1 2 3 4 9 10 16 21 24 31 32 38 40 
18(0)->1 6 24 35 
19(0)->1 4 8 14 22 37 
20(0)->1 2 4 10 14 24 29 34 40 
21(2)->1 7 8 17 31 36 
22(2)->1 5 8 12 13 16 19 28 33 37 
23(4)->1 10 13 26 28 29 36 37 38 
24(1)->1 15 17 18 20 
25(2)->1 4 5 7 13 27 28 31 32 33 34 35 
26(1)->1 2 12 13 14 23 32 40 
27(0)->1 2 5 6 8 14 25 28 37 39 
28(1)->1 2 6 16 22 23 25 27 30 
29(1)->1 20 23 30 36 
30(4)->15 28 29 32 35 38 39 
31(3)->9 15 17 21 25 36 39 
32(3)->3 7 13 15 17 25 26 30 33 36 39 
33(0)->2 8 12 22 25 32 34 37 
34(4)->1 4 8 10 13 20 25 33 36 38 
35(3)->7 9 10 11 13 14 18 25 30 38 
36(0)->2 4 5 6 8 9 10 12 21 23 29 31 32 34 37 39 40 
37(1)->1 5 11 13 15 19 22 23 27 33 36 40 
38(2)->9 12 13 17 23 30 34 35 
39(2)->1 3 4 7 11 15 16 27 30 31 32 36 
40(3)->3 8 10 17 20 26 36 37 
COUNT: 2792
COLORS: 5
5
2792
