1: 2 3 4 5 6 7 8 9 10 11 12 13 14 15 16 17 18 19 20 21 22 23 24 25 26 27 28 29 30 34
2: 1 35 37 6 7 8 9 10 12 16 18 3 20 21 22 23 25 27 28 29
3: 1 2 35 4 5 8 21 23 28 30
4: 32 1 3 5 13 16 17 20 26
5: 3 33 35 4 1 40 9 11 16 19 23
6: 1 2 8 40 21 27 28
7: 1 2 37 40 14 18 22
8: 1 2 3 6 39 40 15 23
9: 1 2 5 38 13 24 25 26 27 37
10: 1 2 35 39 14 20 30
11: 32 33 34 5 1 17 18 19 24 25
12: 1 2 35 40 15 16 22 24 29 31
13: 32 1 4 37 9 15 20 30
14: 32 1 34 35 39 10 7 17 20 27 29 30
15: 1 38 40 12 13 8 18 22
16: 32 1 2 4 5 12 22 24 26 29
17: 1 4 11 14 19 21 27 28 29
18: 1 2 33 7 11 15 21 24 25 28
19: 33 37 1 11 17 27 28 5
20: 1 34 35 4 10 2 13 14 23 24 25 36
21: 1 2 3 37 6 39 17 18 23 38
22: 1 2 37 7 12 15 16 24 33 29
23: 1 2 3 36 5 8 20 21 28
24: 1 34 35 36 38 9 11 12 16 18 20 22
25: 1 2 39 9 11 18 20 26 27
26: 1 34 35 4 37 39 9 16 25
27: 33 2 1 6 39 9 14 17 19 25 29
28: 1 2 3 36 6 17 18 19 23
29: 1 2 37 33 12 14 16 17 22 27 30
30: 1 34 3 40 10 13 14 29
31: 36 34 12 33
32: 35 4 11 13 14 16
33: 34 36 37 38 31 11 18 19 22 27 29 5
34: 33 37 1 40 11 14 20 24 26 30 31
35: 32 2 3 5 10 12 14 20 24 26
36: 33 37 20 23 24 28 31
37: 33 34 36 39 40 9 7 2 13 19 21 22 26 29
38: 24 33 9 21 15
39: 37 8 10 14 21 25 26 27
40: 34 5 6 7 8 12 15 30 37
-------
1(-1)->2 3 4 5 6 7 8 9 10 11 12 13 14 15 16 17 18 19 20 21 22 23 24 25 26 27 28 29 30 34 
2(-1)->1 3 6 7 8 9 10 12 16 18 20 21 22 23 25 27 28 29 35 37 
3(-1)->1 2 4 5 8 21 23 28 30 35 
4(-1)->1 3 5 13 16 17 20 26 32 
5(-1)->1 3 4 9 11 16 19 23 33 35 40 
6(-1)->1 2 8 21 27 28 40 
7(-1)->1 2 14 18 22 37 40 
8(-1)->1 2 3 6 15 23 39 40 
9(-1)->1 2 5 13 24 25 26 27 37 38 
10(-1)->1 2 14 20 30 35 39 
11(-1)->1 5 17 18 19 24 25 32 33 34 
12(-1)->1 2 15 16 22 24 29 31 35 40 
13(-1)->1 4 9 15 20 30 32 37 
14(-1)->1 7 10 17 20 27 29 30 32 34 35 39 
15(-1)->1 8 12 13 18 22 38 40 
16(-1)->1 2 4 5 12 22 24 26 29 32 
17(-1)->1 4 11 14 19 21 27 28 29 
18(-1)->1 2 7 11 15 21 24 25 28 33 
19(-1)->1 5 11 17 27 28 33 37 
20(-1)->1 2 4 10 13 14 23 24 25 34 35 36 
21(-1)->1 2 3 6 17 18 23 37 38 39 
22(-1)->1 2 7 12 15 16 24 29 33 37 
23(-1)->1 2 3 5 8 20 21 28 36 
24(-1)->1 9 11 12 16 18 20 22 34 35 36 38 
25(-1)->1 2 9 11 18 20 26 27 39 
26(-1)->1 4 9 16 25 34 35 37 39 
27(-1)->1 2 6 9 14 17 19 25 29 33 39 
28(-1)->1 2 3 6 17 18 19 23 36 
29(-1)->1 2 12 14 16 17 22 27 30 33 37 
30(-1)->1 3 10 13 14 29 34 40 
31(-1)->12 33 34 36 
32(-1)->4 11 13 14 16 35 
33(-1)->5 11 18 19 22 27 29 31 34 36 37 38 
34(-1)->1 11 14 20 24 26 30 31 33 37 40 
35(-1)->2 3 5 10 12 14 20 24 26 32 
36(-1)->20 23 24 28 31 33 37 
37(-1)->2 7 9 13 19 21 22 26 29 33 34 36 39 40 
38(-1)->9 15 21 24 33 
39(-1)->8 10 14 21 25 26 27 37 
40(-1)->5 6 7 8 12 15 30 34 37 
-------
1(-1)->2 3 4 5 6 7 8 9 10 11 12 13 14 15 16 17 18 19 20 21 22 23 24 25 26 27 28 29 30 34 
2(-1)->1 3 6 7 8 9 10 12 16 18 20 21 22 23 25 27 28 29 35 37 
37(-1)->2 7 9 13 19 21 22 26 29 33 34 36 39 40 
14(-1)->1 7 10 17 20 27 29 30 32 34 35 39 
20(-1)->1 2 4 10 13 14 23 24 25 34 35 36 
24(-1)->1 9 11 12 16 18 20 22 34 35 36 38 
33(-1)->5 11 18 19 22 27 29 31 34 36 37 38 
5(-1)->1 3 4 9 11 16 19 23 33 35 40 
27(-1)->1 2 6 9 14 17 19 25 29 33 39 
29(-1)->1 2 12 14 16 17 22 27 30 33 37 
34(-1)->1 11 14 20 24 26 30 31 33 37 40 
3(-1)->1 2 4 5 8 21 23 28 30 35 
9(-1)->1 2 5 13 24 25 26 27 37 38 
11(-1)->1 5 17 18 19 24 25 32 33 34 
12(-1)->1 2 15 16 22 24 29 31 35 40 
16(-1)->1 2 4 5 12 22 24 26 29 32 
18(-1)->1 2 7 11 15 21 24 25 28 33 
21(-1)->1 2 3 6 17 18 23 37 38 39 
22(-1)->1 2 7 12 15 16 24 29 33 37 
35(-1)->2 3 5 10 12 14 20 24 26 32 
4(-1)->1 3 5 13 16 17 20 26 32 
17(-1)->1 4 11 14 19 21 27 28 29 
23(-1)->1 2 3 5 8 20 21 28 36 
25(-1)->1 2 9 11 18 20 26 27 39 
26(-1)->1 4 9 16 25 34 35 37 39 
28(-1)->1 2 3 6 17 18 19 23 36 
40(-1)->5 6 7 8 12 15 30 34 37 
8(-1)->1 2 3 6 15 23 39 40 
13(-1)->1 4 9 15 20 30 32 37 
15(-1)->1 8 12 13 18 22 38 40 
19(-1)->1 5 11 17 27 28 33 37 
30(-1)->1 3 10 13 14 29 34 40 
39(-1)->8 10 14 21 25 26 27 37 
6(-1)->1 2 8 21 27 28 40 
7(-1)->1 2 14 18 22 37 40 
10(-1)->1 2 14 20 30 35 39 
36(-1)->20 23 24 28 31 33 37 
32(-1)->4 11 13 14 16 35 
38(-1)->9 15 21 24 33 
31(-1)->12 33 34 36 
-------
1 2 3 8 23 

-------
8(-1)->1 2 3 6 15 23 39 40 
23(-1)->1 2 3 5 8 20 21 28 36 
3(-1)->1 2 4 5 8 21 23 28 30 35 
2(-1)->1 3 6 7 8 9 10 12 16 18 20 21 22 23 25 27 28 29 35 37 
1(-1)->2 3 4 5 6 7 8 9 10 11 12 13 14 15 16 17 18 19 20 21 22 23 24 25 26 27 28 29 30 34 
37(-1)->2 7 9 13 19 21 22 26 29 33 34 36 39 40 
14(-1)->1 7 10 17 20 27 29 30 32 34 35 39 
20(-1)->1 2 4 10 13 14 23 24 25 34 35 36 
24(-1)->1 9 11 12 16 18 20 22 34 35 36 38 
33(-1)->5 11 18 19 22 27 29 31 34 36 37 38 
5(-1)->1 3 4 9 11 16 19 23 33 35 40 
27(-1)->1 2 6 9 14 17 19 25 29 33 39 
29(-1)->1 2 12 14 16 17 22 27 30 33 37 
34(-1)->1 11 14 20 24 26 30 31 33 37 40 
9(-1)->1 2 5 13 24 25 26 27 37 38 
11(-1)->1 5 17 18 19 24 25 32 33 34 
12(-1)->1 2 15 16 22 24 29 31 35 40 
16(-1)->1 2 4 5 12 22 24 26 29 32 
18(-1)->1 2 7 11 15 21 24 25 28 33 
21(-1)->1 2 3 6 17 18 23 37 38 39 
22(-1)->1 2 7 12 15 16 24 29 33 37 
35(-1)->2 3 5 10 12 14 20 24 26 32 
4(-1)->1 3 5 13 16 17 20 26 32 
17(-1)->1 4 11 14 19 21 27 28 29 
25(-1)->1 2 9 11 18 20 26 27 39 
26(-1)->1 4 9 16 25 34 35 37 39 
28(-1)->1 2 3 6 17 18 19 23 36 
40(-1)->5 6 7 8 12 15 30 34 37 
13(-1)->1 4 9 15 20 30 32 37 
15(-1)->1 8 12 13 18 22 38 40 
19(-1)->1 5 11 17 27 28 33 37 
30(-1)->1 3 10 13 14 29 34 40 
39(-1)->8 10 14 21 25 26 27 37 
6(-1)->1 2 8 21 27 28 40 
7(-1)->1 2 14 18 22 37 40 
10(-1)->1 2 14 20 30 35 39 
36(-1)->20 23 24 28 31 33 37 
32(-1)->4 11 13 14 16 35 
38(-1)->9 15 21 24 33 
31(-1)->12 33 34 36 
-------
START TIME: 1433711240
10000
-------
1(4)->2 3 4 5 6 7 8 9 10 11 12 13 14 15 16 17 18 19 20 21 22 23 24 25 26 27 28 29 30 34 
2(3)->1 3 6 7 8 9 10 12 16 18 20 21 22 23 25 27 28 29 35 37 
3(2)->1 2 4 5 8 21 23 28 30 35 
4(1)->1 3 5 13 16 17 20 26 32 
5(0)->1 3 4 9 11 16 19 23 33 35 40 
6(2)->1 2 8 21 27 28 40 
7(2)->1 2 14 18 22 37 40 
8(0)->1 2 3 6 15 23 39 40 
9(2)->1 2 5 13 24 25 26 27 37 38 
10(1)->1 2 14 20 30 35 39 
11(3)->1 5 17 18 19 24 25 32 33 34 
12(0)->1 2 15 16 22 24 29 31 35 40 
13(5)->1 4 9 15 20 30 32 37 
14(0)->1 7 10 17 20 27 29 30 32 34 35 39 
15(2)->1 8 12 13 18 22 38 40 
16(2)->1 2 4 5 12 22 24 26 29 32 
17(2)->1 4 11 14 19 21 27 28 29 
18(0)->1 2 7 11 15 21 24 25 28 33 
19(1)->1 5 11 17 27 28 33 37 
20(2)->1 2 4 10 13 14 23 24 25 34 35 36 
21(5)->1 2 3 6 17 18 23 37 38 39 
22(5)->1 2 7 12 15 16 24 29 33 37 
23(1)->1 2 3 5 8 20 21 28 36 
24(1)->1 9 11 12 16 18 20 22 34 35 36 38 
25(1)->1 2 9 11 18 20 26 27 39 
26(3)->1 4 9 16 25 34 35 37 39 
27(5)->1 2 6 9 14 17 19 25 29 33 39 
28(5)->1 2 3 6 17 18 19 23 36 
29(1)->1 2 12 14 16 17 22 27 30 33 37 
30(3)->1 3 10 13 14 29 34 40 
31(1)->12 33 34 36 
32(4)->4 11 13 14 16 35 
33(2)->5 11 18 19 22 27 29 31 34 36 37 38 
34(5)->1 11 14 20 24 26 30 31 33 37 40 
35(5)->2 3 5 10 12 14 20 24 26 32 
36(3)->20 23 24 28 31 33 37 
37(0)->2 7 9 13 19 21 22 26 29 33 34 36 39 40 
38(0)->9 15 21 24 33 
39(2)->8 10 14 21 25 26 27 37 
40(1)->5 6 7 8 12 15 30 34 37 
COUNT: 14327
COLORS: 6
6
14327
