1: 2 3 4 5 6 7 8 9 10 11 12 13 14 15 16 17 18 19 20 21 22 23 24 25 26 27 28 29 30 31 32 33 34 35 36 37 38 39
2: 1 3 4 5 6 7 8 9 10 11 12 13 14 15 16 17 18 20 21 25 29 33 34 37 38
3: 1 2 4 5 6 7 10 11 12 13 15 16 17 19 20 26 28 33 34 37 38 39
4: 1 2 3 37 6 10 11 12 13 16 20 21 38 5
5: 1 34 3 4 37 6 9 10 2 17 22 27 28 30
6: 1 34 3 4 5 40 10 2 13 18 22 25 36 26 27
7: 1 2 3 36 37 33 13 16 18 19 25 26 29
8: 1 34 10 2 12 13 15 18 20 25 28
9: 1 2 36 37 11 12 13 17 18 20 29 5
10: 1 2 3 4 5 38 8 14 15 17 19 22 6
11: 33 2 3 4 38 1 9 12 13 17 22 25
12: 33 2 35 4 37 38 1 8 9 11 34 15 3 27 29 31
13: 32 1 2 35 36 38 6 7 8 9 11 15 3 22 4 28 30
14: 1 2 40 10 15 16 17 26 27 31
15: 1 34 3 38 8 10 2 12 13 14 17 19 20 21 25 27 28 29 30
16: 1 2 35 4 38 7 39 14 17 3 20 21 24 25 26 29 31
17: 32 1 34 3 5 9 10 11 2 14 15 16 18 21 31
18: 1 2 37 6 17 40 9 7 8 21 22 26 31
19: 1 3 7 10 39 15 21 26 27
20: 1 2 3 4 37 39 8 9 15 16 24 26 30
21: 32 33 2 4 1 39 15 16 17 18 19 23 28 30
22: 32 1 5 6 39 38 10 11 13 40 18 23 24 25 27
23: 32 1 39 21 22 25 27 29 30
24: 32 1 37 38 16 20 22
25: 1 2 35 6 38 7 8 11 34 15 16 40 22 23 39 27 28 31
26: 1 34 3 6 7 14 16 18 19 20
27: 1 5 6 40 12 14 15 19 22 23 25 28 29 31
28: 33 3 1 5 38 39 8 13 15 35 21 25 27
29: 1 2 7 9 12 15 16 23 27 31
30: 32 1 37 39 13 15 20 21 23 5
31: 33 34 37 1 40 12 14 16 17 18 25 27 29
32: 1 36 37 40 13 17 21 22 23 24 30
33: 1 2 3 7 11 12 35 21 28 31
34: 1 2 3 36 5 6 8 12 15 17 35 25 26 31
35: 33 34 37 1 40 12 13 16 25 28
36: 32 1 34 37 6 7 9 39 13
37: 32 1 2 3 36 5 39 9 7 12 18 35 20 24 4 30 31
38: 1 2 3 4 40 10 11 12 13 15 16 22 24 25 28
39: 1 3 36 37 16 19 20 21 22 23 25 28 30
40: 32 35 6 38 14 18 22 25 27 31
-------
1(-1)->2 3 4 5 6 7 8 9 10 11 12 13 14 15 16 17 18 19 20 21 22 23 24 25 26 27 28 29 30 31 32 33 34 35 36 37 38 39 
2(-1)->1 3 4 5 6 7 8 9 10 11 12 13 14 15 16 17 18 20 21 25 29 33 34 37 38 
3(-1)->1 2 4 5 6 7 10 11 12 13 15 16 17 19 20 26 28 33 34 37 38 39 
4(-1)->1 2 3 5 6 10 11 12 13 16 20 21 37 38 
5(-1)->1 2 3 4 6 9 10 17 22 27 28 30 34 37 
6(-1)->1 2 3 4 5 10 13 18 22 25 26 27 34 36 40 
7(-1)->1 2 3 13 16 18 19 25 26 29 33 36 37 
8(-1)->1 2 10 12 13 15 18 20 25 28 34 
9(-1)->1 2 5 11 12 13 17 18 20 29 36 37 
10(-1)->1 2 3 4 5 6 8 14 15 17 19 22 38 
11(-1)->1 2 3 4 9 12 13 17 22 25 33 38 
12(-1)->1 2 3 4 8 9 11 15 27 29 31 33 34 35 37 38 
13(-1)->1 2 3 4 6 7 8 9 11 15 22 28 30 32 35 36 38 
14(-1)->1 2 10 15 16 17 26 27 31 40 
15(-1)->1 2 3 8 10 12 13 14 17 19 20 21 25 27 28 29 30 34 38 
16(-1)->1 2 3 4 7 14 17 20 21 24 25 26 29 31 35 38 39 
17(-1)->1 2 3 5 9 10 11 14 15 16 18 21 31 32 34 
18(-1)->1 2 6 7 8 9 17 21 22 26 31 37 40 
19(-1)->1 3 7 10 15 21 26 27 39 
20(-1)->1 2 3 4 8 9 15 16 24 26 30 37 39 
21(-1)->1 2 4 15 16 17 18 19 23 28 30 32 33 39 
22(-1)->1 5 6 10 11 13 18 23 24 25 27 32 38 39 40 
23(-1)->1 21 22 25 27 29 30 32 39 
24(-1)->1 16 20 22 32 37 38 
25(-1)->1 2 6 7 8 11 15 16 22 23 27 28 31 34 35 38 39 40 
26(-1)->1 3 6 7 14 16 18 19 20 34 
27(-1)->1 5 6 12 14 15 19 22 23 25 28 29 31 40 
28(-1)->1 3 5 8 13 15 21 25 27 33 35 38 39 
29(-1)->1 2 7 9 12 15 16 23 27 31 
30(-1)->1 5 13 15 20 21 23 32 37 39 
31(-1)->1 12 14 16 17 18 25 27 29 33 34 37 40 
32(-1)->1 13 17 21 22 23 24 30 36 37 40 
33(-1)->1 2 3 7 11 12 21 28 31 35 
34(-1)->1 2 3 5 6 8 12 15 17 25 26 31 35 36 
35(-1)->1 12 13 16 25 28 33 34 37 40 
36(-1)->1 6 7 9 13 32 34 37 39 
37(-1)->1 2 3 4 5 7 9 12 18 20 24 30 31 32 35 36 39 
38(-1)->1 2 3 4 10 11 12 13 15 16 22 24 25 28 40 
39(-1)->1 3 16 19 20 21 22 23 25 28 30 36 37 
40(-1)->6 14 18 22 25 27 31 32 35 38 
-------
1(-1)->2 3 4 5 6 7 8 9 10 11 12 13 14 15 16 17 18 19 20 21 22 23 24 25 26 27 28 29 30 31 32 33 34 35 36 37 38 39 
2(-1)->1 3 4 5 6 7 8 9 10 11 12 13 14 15 16 17 18 20 21 25 29 33 34 37 38 
3(-1)->1 2 4 5 6 7 10 11 12 13 15 16 17 19 20 26 28 33 34 37 38 39 
15(-1)->1 2 3 8 10 12 13 14 17 19 20 21 25 27 28 29 30 34 38 
25(-1)->1 2 6 7 8 11 15 16 22 23 27 28 31 34 35 38 39 40 
13(-1)->1 2 3 4 6 7 8 9 11 15 22 28 30 32 35 36 38 
16(-1)->1 2 3 4 7 14 17 20 21 24 25 26 29 31 35 38 39 
37(-1)->1 2 3 4 5 7 9 12 18 20 24 30 31 32 35 36 39 
12(-1)->1 2 3 4 8 9 11 15 27 29 31 33 34 35 37 38 
6(-1)->1 2 3 4 5 10 13 18 22 25 26 27 34 36 40 
17(-1)->1 2 3 5 9 10 11 14 15 16 18 21 31 32 34 
22(-1)->1 5 6 10 11 13 18 23 24 25 27 32 38 39 40 
38(-1)->1 2 3 4 10 11 12 13 15 16 22 24 25 28 40 
4(-1)->1 2 3 5 6 10 11 12 13 16 20 21 37 38 
5(-1)->1 2 3 4 6 9 10 17 22 27 28 30 34 37 
21(-1)->1 2 4 15 16 17 18 19 23 28 30 32 33 39 
27(-1)->1 5 6 12 14 15 19 22 23 25 28 29 31 40 
34(-1)->1 2 3 5 6 8 12 15 17 25 26 31 35 36 
7(-1)->1 2 3 13 16 18 19 25 26 29 33 36 37 
10(-1)->1 2 3 4 5 6 8 14 15 17 19 22 38 
18(-1)->1 2 6 7 8 9 17 21 22 26 31 37 40 
20(-1)->1 2 3 4 8 9 15 16 24 26 30 37 39 
28(-1)->1 3 5 8 13 15 21 25 27 33 35 38 39 
31(-1)->1 12 14 16 17 18 25 27 29 33 34 37 40 
39(-1)->1 3 16 19 20 21 22 23 25 28 30 36 37 
9(-1)->1 2 5 11 12 13 17 18 20 29 36 37 
11(-1)->1 2 3 4 9 12 13 17 22 25 33 38 
8(-1)->1 2 10 12 13 15 18 20 25 28 34 
32(-1)->1 13 17 21 22 23 24 30 36 37 40 
14(-1)->1 2 10 15 16 17 26 27 31 40 
26(-1)->1 3 6 7 14 16 18 19 20 34 
29(-1)->1 2 7 9 12 15 16 23 27 31 
30(-1)->1 5 13 15 20 21 23 32 37 39 
33(-1)->1 2 3 7 11 12 21 28 31 35 
35(-1)->1 12 13 16 25 28 33 34 37 40 
40(-1)->6 14 18 22 25 27 31 32 35 38 
19(-1)->1 3 7 10 15 21 26 27 39 
23(-1)->1 21 22 25 27 29 30 32 39 
36(-1)->1 6 7 9 13 32 34 37 39 
24(-1)->1 16 20 22 32 37 38 
-------
1 2 3 4 11 12 38 

-------
11(-1)->1 2 3 4 9 12 13 17 22 25 33 38 
4(-1)->1 2 3 5 6 10 11 12 13 16 20 21 37 38 
38(-1)->1 2 3 4 10 11 12 13 15 16 22 24 25 28 40 
12(-1)->1 2 3 4 8 9 11 15 27 29 31 33 34 35 37 38 
3(-1)->1 2 4 5 6 7 10 11 12 13 15 16 17 19 20 26 28 33 34 37 38 39 
2(-1)->1 3 4 5 6 7 8 9 10 11 12 13 14 15 16 17 18 20 21 25 29 33 34 37 38 
1(-1)->2 3 4 5 6 7 8 9 10 11 12 13 14 15 16 17 18 19 20 21 22 23 24 25 26 27 28 29 30 31 32 33 34 35 36 37 38 39 
15(-1)->1 2 3 8 10 12 13 14 17 19 20 21 25 27 28 29 30 34 38 
25(-1)->1 2 6 7 8 11 15 16 22 23 27 28 31 34 35 38 39 40 
13(-1)->1 2 3 4 6 7 8 9 11 15 22 28 30 32 35 36 38 
16(-1)->1 2 3 4 7 14 17 20 21 24 25 26 29 31 35 38 39 
37(-1)->1 2 3 4 5 7 9 12 18 20 24 30 31 32 35 36 39 
6(-1)->1 2 3 4 5 10 13 18 22 25 26 27 34 36 40 
17(-1)->1 2 3 5 9 10 11 14 15 16 18 21 31 32 34 
22(-1)->1 5 6 10 11 13 18 23 24 25 27 32 38 39 40 
5(-1)->1 2 3 4 6 9 10 17 22 27 28 30 34 37 
21(-1)->1 2 4 15 16 17 18 19 23 28 30 32 33 39 
27(-1)->1 5 6 12 14 15 19 22 23 25 28 29 31 40 
34(-1)->1 2 3 5 6 8 12 15 17 25 26 31 35 36 
7(-1)->1 2 3 13 16 18 19 25 26 29 33 36 37 
10(-1)->1 2 3 4 5 6 8 14 15 17 19 22 38 
18(-1)->1 2 6 7 8 9 17 21 22 26 31 37 40 
20(-1)->1 2 3 4 8 9 15 16 24 26 30 37 39 
28(-1)->1 3 5 8 13 15 21 25 27 33 35 38 39 
31(-1)->1 12 14 16 17 18 25 27 29 33 34 37 40 
39(-1)->1 3 16 19 20 21 22 23 25 28 30 36 37 
9(-1)->1 2 5 11 12 13 17 18 20 29 36 37 
8(-1)->1 2 10 12 13 15 18 20 25 28 34 
32(-1)->1 13 17 21 22 23 24 30 36 37 40 
14(-1)->1 2 10 15 16 17 26 27 31 40 
26(-1)->1 3 6 7 14 16 18 19 20 34 
29(-1)->1 2 7 9 12 15 16 23 27 31 
30(-1)->1 5 13 15 20 21 23 32 37 39 
33(-1)->1 2 3 7 11 12 21 28 31 35 
35(-1)->1 12 13 16 25 28 33 34 37 40 
40(-1)->6 14 18 22 25 27 31 32 35 38 
19(-1)->1 3 7 10 15 21 26 27 39 
23(-1)->1 21 22 25 27 29 30 32 39 
36(-1)->1 6 7 9 13 32 34 37 39 
24(-1)->1 16 20 22 32 37 38 
-------
START TIME: 1433711251
-------
1(6)->2 3 4 5 6 7 8 9 10 11 12 13 14 15 16 17 18 19 20 21 22 23 24 25 26 27 28 29 30 31 32 33 34 35 36 37 38 39 
2(5)->1 3 4 5 6 7 8 9 10 11 12 13 14 15 16 17 18 20 21 25 29 33 34 37 38 
3(4)->1 2 4 5 6 7 10 11 12 13 15 16 17 19 20 26 28 33 34 37 38 39 
4(1)->1 2 3 5 6 10 11 12 13 16 20 21 37 38 
5(0)->1 2 3 4 6 9 10 17 22 27 28 30 34 37 
6(2)->1 2 3 4 5 10 13 18 22 25 26 27 34 36 40 
7(1)->1 2 3 13 16 18 19 25 26 29 33 36 37 
8(2)->1 2 10 12 13 15 18 20 25 28 34 
9(1)->1 2 5 11 12 13 17 18 20 29 36 37 
10(3)->1 2 3 4 5 6 8 14 15 17 19 22 38 
11(0)->1 2 3 4 9 12 13 17 22 25 33 38 
12(3)->1 2 3 4 8 9 11 15 27 29 31 33 34 35 37 38 
13(3)->1 2 3 4 6 7 8 9 11 15 22 28 30 32 35 36 38 
14(1)->1 2 10 15 16 17 26 27 31 40 
15(0)->1 2 3 8 10 12 13 14 17 19 20 21 25 27 28 29 30 34 38 
16(0)->1 2 3 4 7 14 17 20 21 24 25 26 29 31 35 38 39 
17(2)->1 2 3 5 9 10 11 14 15 16 18 21 31 32 34 
18(0)->1 2 6 7 8 9 17 21 22 26 31 37 40 
19(2)->1 3 7 10 15 21 26 27 39 
20(3)->1 2 3 4 8 9 15 16 24 26 30 37 39 
21(3)->1 2 4 15 16 17 18 19 23 28 30 32 33 39 
22(1)->1 5 6 10 11 13 18 23 24 25 27 32 38 39 40 
23(0)->1 21 22 25 27 29 30 32 39 
24(5)->1 16 20 22 32 37 38 
25(3)->1 2 6 7 8 11 15 16 22 23 27 28 31 34 35 38 39 40 
26(5)->1 3 6 7 14 16 18 19 20 34 
27(4)->1 5 6 12 14 15 19 22 23 25 28 29 31 40 
28(1)->1 3 5 8 13 15 21 25 27 33 35 38 39 
29(2)->1 2 7 9 12 15 16 23 27 31 
30(1)->1 5 13 15 20 21 23 32 37 39 
31(5)->1 12 14 16 17 18 25 27 29 33 34 37 40 
32(4)->1 13 17 21 22 23 24 30 36 37 40 
33(2)->1 2 3 7 11 12 21 28 31 35 
34(1)->1 2 3 5 6 8 12 15 17 25 26 31 35 36 
35(4)->1 12 13 16 25 28 33 34 37 40 
36(0)->1 6 7 9 13 32 34 37 39 
37(2)->1 2 3 4 5 7 9 12 18 20 24 30 31 32 35 36 39 
38(2)->1 2 3 4 10 11 12 13 15 16 22 24 25 28 40 
39(5)->1 3 16 19 20 21 22 23 25 28 30 36 37 
40(6)->6 14 18 22 25 27 31 32 35 38 
COUNT: 1136
COLORS: 7
7
1136
