1: 2 3 4 5 6 7 8 9 10 11 12 13 14 15 16 17 18 19 20 21 22 23 24 25 26 27 28 29 30 31 32 33 34 35 36 37 38 39
2: 1 3 4 5 6 7 8 9 12 15 16 17 18 20 21 23 28 30 32 34 35 36 37 38 39 40
3: 32 1 2 35 36 37 17 40 9 39 12 15 8 19 20 22 23 25 28 4 5
4: 1 2 3 36 5 6 39 7 12 15 17 21 22 23 26 27 29 31
5: 32 1 2 3 36 37 6 40 10 12 14 19 24 4 29
6: 1 2 35 4 5 7 9 11 12 15 23 25 26 27 28 30
7: 1 2 36 6 38 39 40 16 22 24 4 27 30 31
8: 32 1 34 3 36 39 9 2 18 21 23 25 26 29
9: 32 1 2 3 6 8 11 16 18 24 25 30
10: 32 33 1 5 39 11 13 14 25 29
11: 1 34 35 6 39 40 9 10 15 25
12: 32 33 34 3 4 5 6 1 2 19 20 29
13: 33 34 35 1 10 16 18 19 26 29
14: 32 1 34 35 36 5 38 10 17 22 26 30
15: 3 1 2 35 36 38 6 11 17 19 4 26 27 29 30 31
16: 33 2 1 38 7 9 39 13 17 20 25 26 30 31
17: 1 2 3 4 39 40 14 15 16 26 28
18: 1 2 38 8 9 13 21 25 30
19: 32 1 35 5 12 13 15 3 21 22 23 24 26 27 28 29 31
20: 33 2 3 36 37 38 1 12 16 25 26
21: 1 34 4 37 39 8 2 18 19 22 36 27 31
22: 1 3 36 37 38 7 14 19 21 25 24 4 26 27 28 30
23: 1 2 3 4 37 6 39 8 19 25 29 35
24: 1 34 36 5 38 7 40 9 19 22 25 27 31
25: 1 3 6 39 40 9 10 11 16 8 18 20 22 23 24 30
26: 32 1 4 6 8 13 14 15 16 17 19 20 22
27: 1 4 6 7 15 19 21 22 24 30
28: 35 2 3 33 6 1 39 17 19 22 31
29: 32 1 4 5 38 39 8 10 12 13 15 19 23 31
30: 1 2 6 7 9 14 15 16 18 22 25 27
31: 1 4 37 7 15 16 19 21 24 36 28 29
32: 1 2 3 5 40 9 10 12 14 8 19 26 29 37
33: 1 40 10 12 13 16 20 28
34: 1 2 40 11 12 13 14 8 21 24
35: 1 2 3 6 11 13 14 15 19 23 28
36: 1 2 3 4 37 7 8 14 15 20 21 22 24 5 31
37: 32 1 2 3 36 5 38 39 20 21 22 23 31
38: 1 2 37 7 40 14 15 16 18 20 22 24 29
39: 1 2 3 4 37 7 8 10 11 16 17 21 23 25 28 29
40: 32 33 2 3 5 38 7 11 34 17 24 25
-------
1(-1)->2 3 4 5 6 7 8 9 10 11 12 13 14 15 16 17 18 19 20 21 22 23 24 25 26 27 28 29 30 31 32 33 34 35 36 37 38 39 
2(-1)->1 3 4 5 6 7 8 9 12 15 16 17 18 20 21 23 28 30 32 34 35 36 37 38 39 40 
3(-1)->1 2 4 5 8 9 12 15 17 19 20 22 23 25 28 32 35 36 37 39 40 
4(-1)->1 2 3 5 6 7 12 15 17 21 22 23 26 27 29 31 36 39 
5(-1)->1 2 3 4 6 10 12 14 19 24 29 32 36 37 40 
6(-1)->1 2 4 5 7 9 11 12 15 23 25 26 27 28 30 35 
7(-1)->1 2 4 6 16 22 24 27 30 31 36 38 39 40 
8(-1)->1 2 3 9 18 21 23 25 26 29 32 34 36 39 
9(-1)->1 2 3 6 8 11 16 18 24 25 30 32 
10(-1)->1 5 11 13 14 25 29 32 33 39 
11(-1)->1 6 9 10 15 25 34 35 39 40 
12(-1)->1 2 3 4 5 6 19 20 29 32 33 34 
13(-1)->1 10 16 18 19 26 29 33 34 35 
14(-1)->1 5 10 17 22 26 30 32 34 35 36 38 
15(-1)->1 2 3 4 6 11 17 19 26 27 29 30 31 35 36 38 
16(-1)->1 2 7 9 13 17 20 25 26 30 31 33 38 39 
17(-1)->1 2 3 4 14 15 16 26 28 39 40 
18(-1)->1 2 8 9 13 21 25 30 38 
19(-1)->1 3 5 12 13 15 21 22 23 24 26 27 28 29 31 32 35 
20(-1)->1 2 3 12 16 25 26 33 36 37 38 
21(-1)->1 2 4 8 18 19 22 27 31 34 36 37 39 
22(-1)->1 3 4 7 14 19 21 24 25 26 27 28 30 36 37 38 
23(-1)->1 2 3 4 6 8 19 25 29 35 37 39 
24(-1)->1 5 7 9 19 22 25 27 31 34 36 38 40 
25(-1)->1 3 6 8 9 10 11 16 18 20 22 23 24 30 39 40 
26(-1)->1 4 6 8 13 14 15 16 17 19 20 22 32 
27(-1)->1 4 6 7 15 19 21 22 24 30 
28(-1)->1 2 3 6 17 19 22 31 33 35 39 
29(-1)->1 4 5 8 10 12 13 15 19 23 31 32 38 39 
30(-1)->1 2 6 7 9 14 15 16 18 22 25 27 
31(-1)->1 4 7 15 16 19 21 24 28 29 36 37 
32(-1)->1 2 3 5 8 9 10 12 14 19 26 29 37 40 
33(-1)->1 10 12 13 16 20 28 40 
34(-1)->1 2 8 11 12 13 14 21 24 40 
35(-1)->1 2 3 6 11 13 14 15 19 23 28 
36(-1)->1 2 3 4 5 7 8 14 15 20 21 22 24 31 37 
37(-1)->1 2 3 5 20 21 22 23 31 32 36 38 39 
38(-1)->1 2 7 14 15 16 18 20 22 24 29 37 40 
39(-1)->1 2 3 4 7 8 10 11 16 17 21 23 25 28 29 37 
40(-1)->2 3 5 7 11 17 24 25 32 33 34 38 
-------
1(-1)->2 3 4 5 6 7 8 9 10 11 12 13 14 15 16 17 18 19 20 21 22 23 24 25 26 27 28 29 30 31 32 33 34 35 36 37 38 39 
2(-1)->1 3 4 5 6 7 8 9 12 15 16 17 18 20 21 23 28 30 32 34 35 36 37 38 39 40 
3(-1)->1 2 4 5 8 9 12 15 17 19 20 22 23 25 28 32 35 36 37 39 40 
4(-1)->1 2 3 5 6 7 12 15 17 21 22 23 26 27 29 31 36 39 
19(-1)->1 3 5 12 13 15 21 22 23 24 26 27 28 29 31 32 35 
6(-1)->1 2 4 5 7 9 11 12 15 23 25 26 27 28 30 35 
15(-1)->1 2 3 4 6 11 17 19 26 27 29 30 31 35 36 38 
22(-1)->1 3 4 7 14 19 21 24 25 26 27 28 30 36 37 38 
25(-1)->1 3 6 8 9 10 11 16 18 20 22 23 24 30 39 40 
39(-1)->1 2 3 4 7 8 10 11 16 17 21 23 25 28 29 37 
5(-1)->1 2 3 4 6 10 12 14 19 24 29 32 36 37 40 
36(-1)->1 2 3 4 5 7 8 14 15 20 21 22 24 31 37 
7(-1)->1 2 4 6 16 22 24 27 30 31 36 38 39 40 
8(-1)->1 2 3 9 18 21 23 25 26 29 32 34 36 39 
16(-1)->1 2 7 9 13 17 20 25 26 30 31 33 38 39 
29(-1)->1 4 5 8 10 12 13 15 19 23 31 32 38 39 
32(-1)->1 2 3 5 8 9 10 12 14 19 26 29 37 40 
21(-1)->1 2 4 8 18 19 22 27 31 34 36 37 39 
24(-1)->1 5 7 9 19 22 25 27 31 34 36 38 40 
26(-1)->1 4 6 8 13 14 15 16 17 19 20 22 32 
37(-1)->1 2 3 5 20 21 22 23 31 32 36 38 39 
38(-1)->1 2 7 14 15 16 18 20 22 24 29 37 40 
9(-1)->1 2 3 6 8 11 16 18 24 25 30 32 
12(-1)->1 2 3 4 5 6 19 20 29 32 33 34 
14(-1)->1 5 10 17 22 26 30 32 34 35 36 38 
23(-1)->1 2 3 4 6 8 19 25 29 35 37 39 
30(-1)->1 2 6 7 9 14 15 16 18 22 25 27 
31(-1)->1 4 7 15 16 19 21 24 28 29 36 37 
40(-1)->2 3 5 7 11 17 24 25 32 33 34 38 
17(-1)->1 2 3 4 14 15 16 26 28 39 40 
20(-1)->1 2 3 12 16 25 26 33 36 37 38 
28(-1)->1 2 3 6 17 19 22 31 33 35 39 
35(-1)->1 2 3 6 11 13 14 15 19 23 28 
10(-1)->1 5 11 13 14 25 29 32 33 39 
11(-1)->1 6 9 10 15 25 34 35 39 40 
13(-1)->1 10 16 18 19 26 29 33 34 35 
27(-1)->1 4 6 7 15 19 21 22 24 30 
34(-1)->1 2 8 11 12 13 14 21 24 40 
18(-1)->1 2 8 9 13 21 25 30 38 
33(-1)->1 10 12 13 16 20 28 40 
-------
1 2 3 4 5 12 

-------
12(-1)->1 2 3 4 5 6 19 20 29 32 33 34 
5(-1)->1 2 3 4 6 10 12 14 19 24 29 32 36 37 40 
4(-1)->1 2 3 5 6 7 12 15 17 21 22 23 26 27 29 31 36 39 
3(-1)->1 2 4 5 8 9 12 15 17 19 20 22 23 25 28 32 35 36 37 39 40 
2(-1)->1 3 4 5 6 7 8 9 12 15 16 17 18 20 21 23 28 30 32 34 35 36 37 38 39 40 
1(-1)->2 3 4 5 6 7 8 9 10 11 12 13 14 15 16 17 18 19 20 21 22 23 24 25 26 27 28 29 30 31 32 33 34 35 36 37 38 39 
19(-1)->1 3 5 12 13 15 21 22 23 24 26 27 28 29 31 32 35 
6(-1)->1 2 4 5 7 9 11 12 15 23 25 26 27 28 30 35 
15(-1)->1 2 3 4 6 11 17 19 26 27 29 30 31 35 36 38 
22(-1)->1 3 4 7 14 19 21 24 25 26 27 28 30 36 37 38 
25(-1)->1 3 6 8 9 10 11 16 18 20 22 23 24 30 39 40 
39(-1)->1 2 3 4 7 8 10 11 16 17 21 23 25 28 29 37 
36(-1)->1 2 3 4 5 7 8 14 15 20 21 22 24 31 37 
7(-1)->1 2 4 6 16 22 24 27 30 31 36 38 39 40 
8(-1)->1 2 3 9 18 21 23 25 26 29 32 34 36 39 
16(-1)->1 2 7 9 13 17 20 25 26 30 31 33 38 39 
29(-1)->1 4 5 8 10 12 13 15 19 23 31 32 38 39 
32(-1)->1 2 3 5 8 9 10 12 14 19 26 29 37 40 
21(-1)->1 2 4 8 18 19 22 27 31 34 36 37 39 
24(-1)->1 5 7 9 19 22 25 27 31 34 36 38 40 
26(-1)->1 4 6 8 13 14 15 16 17 19 20 22 32 
37(-1)->1 2 3 5 20 21 22 23 31 32 36 38 39 
38(-1)->1 2 7 14 15 16 18 20 22 24 29 37 40 
9(-1)->1 2 3 6 8 11 16 18 24 25 30 32 
14(-1)->1 5 10 17 22 26 30 32 34 35 36 38 
23(-1)->1 2 3 4 6 8 19 25 29 35 37 39 
30(-1)->1 2 6 7 9 14 15 16 18 22 25 27 
31(-1)->1 4 7 15 16 19 21 24 28 29 36 37 
40(-1)->2 3 5 7 11 17 24 25 32 33 34 38 
17(-1)->1 2 3 4 14 15 16 26 28 39 40 
20(-1)->1 2 3 12 16 25 26 33 36 37 38 
28(-1)->1 2 3 6 17 19 22 31 33 35 39 
35(-1)->1 2 3 6 11 13 14 15 19 23 28 
10(-1)->1 5 11 13 14 25 29 32 33 39 
11(-1)->1 6 9 10 15 25 34 35 39 40 
13(-1)->1 10 16 18 19 26 29 33 34 35 
27(-1)->1 4 6 7 15 19 21 22 24 30 
34(-1)->1 2 8 11 12 13 14 21 24 40 
18(-1)->1 2 8 9 13 21 25 30 38 
33(-1)->1 10 12 13 16 20 28 40 
-------
START TIME: 1433711251
-------
1(5)->2 3 4 5 6 7 8 9 10 11 12 13 14 15 16 17 18 19 20 21 22 23 24 25 26 27 28 29 30 31 32 33 34 35 36 37 38 39 
2(4)->1 3 4 5 6 7 8 9 12 15 16 17 18 20 21 23 28 30 32 34 35 36 37 38 39 40 
3(3)->1 2 4 5 8 9 12 15 17 19 20 22 23 25 28 32 35 36 37 39 40 
4(2)->1 2 3 5 6 7 12 15 17 21 22 23 26 27 29 31 36 39 
5(1)->1 2 3 4 6 10 12 14 19 24 29 32 36 37 40 
6(3)->1 2 4 5 7 9 11 12 15 23 25 26 27 28 30 35 
7(1)->1 2 4 6 16 22 24 27 30 31 36 38 39 40 
8(1)->1 2 3 9 18 21 23 25 26 29 32 34 36 39 
9(0)->1 2 3 6 8 11 16 18 24 25 30 32 
10(2)->1 5 11 13 14 25 29 32 33 39 
11(6)->1 6 9 10 15 25 34 35 39 40 
12(0)->1 2 3 4 5 6 19 20 29 32 33 34 
13(0)->1 10 16 18 19 26 29 33 34 35 
14(3)->1 5 10 17 22 26 30 32 34 35 36 38 
15(0)->1 2 3 4 6 11 17 19 26 27 29 30 31 35 36 38 
16(2)->1 2 7 9 13 17 20 25 26 30 31 33 38 39 
17(1)->1 2 3 4 14 15 16 26 28 39 40 
18(2)->1 2 8 9 13 21 25 30 38 
19(2)->1 3 5 12 13 15 21 22 23 24 26 27 28 29 31 32 35 
20(1)->1 2 3 12 16 25 26 33 36 37 38 
21(3)->1 2 4 8 18 19 22 27 31 34 36 37 39 
22(0)->1 3 4 7 14 19 21 24 25 26 27 28 30 36 37 38 
23(6)->1 2 3 4 6 8 19 25 29 35 37 39 
24(3)->1 5 7 9 19 22 25 27 31 34 36 38 40 
25(4)->1 3 6 8 9 10 11 16 18 20 22 23 24 30 39 40 
26(4)->1 4 6 8 13 14 15 16 17 19 20 22 32 
27(4)->1 4 6 7 15 19 21 22 24 30 
28(6)->1 2 3 6 17 19 22 31 33 35 39 
29(3)->1 4 5 8 10 12 13 15 19 23 31 32 38 39 
30(6)->1 2 6 7 9 14 15 16 18 22 25 27 
31(4)->1 4 7 15 16 19 21 24 28 29 36 37 
32(6)->1 2 3 5 8 9 10 12 14 19 26 29 37 40 
33(3)->1 10 12 13 16 20 28 40 
34(2)->1 2 8 11 12 13 14 21 24 40 
35(1)->1 2 3 6 11 13 14 15 19 23 28 
36(6)->1 2 3 4 5 7 8 14 15 20 21 22 24 31 37 
37(2)->1 2 3 5 20 21 22 23 31 32 36 38 39 
38(6)->1 2 7 14 15 16 18 20 22 24 29 37 40 
39(0)->1 2 3 4 7 8 10 11 16 17 21 23 25 28 29 37 
40(0)->2 3 5 7 11 17 24 25 32 33 34 38 
COUNT: 2822
COLORS: 7
7
2822
