1: 2 3 4 5 6 7 8 9 10 11 12 13 14 15 16 17 18 19 20 21 22 23 24 25 26 27 28 29 30 31 32 33 34 35 36 37 38 39 40
2: 1 3 4 5 6 7 8 9 10 11 12 13 14 15 16 17 18 19 20 21 22 23 24 25 26 27 28 29 30 31 32 33 34 35 36 37 38 39
3: 1 2 4 5 6 7 8 9 10 11 12 13 15 16 17 19 20 21 25 26 28 29 30 33 34 37 38 39
4: 1 2 3 37 6 7 8 9 10 11 12 34 13 16 20 21 33 38 28 5
5: 1 34 3 4 37 38 7 8 9 10 11 2 17 20 22 6 27 28 30
6: 1 2 3 4 5 7 8 9 10 11 13 18 22 23 25 26 27 30 34 36 37 38 40
7: 1 2 3 4 5 6 8 10 11 13 16 18 19 22 24 25 26 29 33 34 36 37
8: 1 34 3 4 37 6 7 9 10 2 12 13 15 18 20 25 28 5
9: 1 2 3 36 37 6 39 8 11 12 13 17 18 20 4 29 5
10: 3 1 2 35 4 5 38 7 8 14 15 17 19 22 6 37
11: 33 2 3 4 5 38 1 9 7 12 13 17 22 25 6 31 29 36
12: 32 33 2 35 4 37 38 1 8 9 11 13 34 15 3 22 27 29 31
13: 32 1 2 35 36 38 6 7 8 9 11 12 14 15 16 3 22 24 4 28 30
14: 1 2 39 40 10 13 15 16 17 26 27 31
15: 1 34 3 38 8 10 2 12 13 14 17 19 20 21 25 27 28 29 30
16: 1 2 35 4 37 38 7 39 13 14 17 18 3 20 21 24 25 26 29 31
17: 32 1 34 3 5 38 9 10 11 2 14 15 16 18 21 31
18: 1 2 35 37 6 17 40 9 7 16 8 21 22 26 27 28 31
19: 1 2 3 7 10 39 15 21 26 27
20: 1 2 3 4 37 39 8 9 15 16 40 24 36 26 27 30 5
21: 32 33 2 3 4 38 1 39 15 16 17 18 19 23 28 30
22: 32 1 34 5 6 39 38 10 11 12 13 40 18 2 23 24 25 27 7
23: 32 1 2 6 39 21 22 25 27 29 30
24: 32 1 2 37 38 7 13 16 20 22 28
25: 1 2 35 6 38 7 8 11 34 15 16 40 3 22 23 39 27 28 31
26: 1 34 3 6 7 2 14 16 18 19 20
27: 1 2 5 6 40 12 18 14 15 37 19 20 22 23 25 28 29 31
28: 33 2 3 36 5 38 39 8 1 13 15 18 35 21 24 25 27 4
29: 32 1 2 3 7 9 11 12 15 16 23 27 31
30: 32 1 34 3 36 37 6 39 2 13 15 20 21 23 5
31: 33 34 37 1 40 11 12 2 14 16 17 18 25 27 29
32: 1 2 36 37 40 12 13 17 21 22 23 24 29 30
33: 1 2 3 4 7 11 12 35 21 28 31
34: 1 2 3 36 5 6 7 8 12 15 17 35 4 22 40 25 26 30 31
35: 33 34 37 1 40 10 2 12 13 16 18 25 28
36: 32 1 34 11 37 6 7 9 39 13 20 2 38 28 30
37: 1 2 3 4 5 6 7 8 9 10 12 16 18 20 24 27 30 31 32 35 36 39 40
38: 1 2 3 4 5 6 40 10 11 12 13 15 16 17 21 22 24 25 28 36
39: 1 2 3 36 37 9 14 16 19 20 21 22 23 25 28 30
40: 32 1 34 35 6 38 14 18 20 22 25 27 37 31
-------
1(-1)->2 3 4 5 6 7 8 9 10 11 12 13 14 15 16 17 18 19 20 21 22 23 24 25 26 27 28 29 30 31 32 33 34 35 36 37 38 39 40 
2(-1)->1 3 4 5 6 7 8 9 10 11 12 13 14 15 16 17 18 19 20 21 22 23 24 25 26 27 28 29 30 31 32 33 34 35 36 37 38 39 
3(-1)->1 2 4 5 6 7 8 9 10 11 12 13 15 16 17 19 20 21 25 26 28 29 30 33 34 37 38 39 
4(-1)->1 2 3 5 6 7 8 9 10 11 12 13 16 20 21 28 33 34 37 38 
5(-1)->1 2 3 4 6 7 8 9 10 11 17 20 22 27 28 30 34 37 38 
6(-1)->1 2 3 4 5 7 8 9 10 11 13 18 22 23 25 26 27 30 34 36 37 38 40 
7(-1)->1 2 3 4 5 6 8 10 11 13 16 18 19 22 24 25 26 29 33 34 36 37 
8(-1)->1 2 3 4 5 6 7 9 10 12 13 15 18 20 25 28 34 37 
9(-1)->1 2 3 4 5 6 8 11 12 13 17 18 20 29 36 37 39 
10(-1)->1 2 3 4 5 6 7 8 14 15 17 19 22 35 37 38 
11(-1)->1 2 3 4 5 6 7 9 12 13 17 22 25 29 31 33 36 38 
12(-1)->1 2 3 4 8 9 11 13 15 22 27 29 31 32 33 34 35 37 38 
13(-1)->1 2 3 4 6 7 8 9 11 12 14 15 16 22 24 28 30 32 35 36 38 
14(-1)->1 2 10 13 15 16 17 26 27 31 39 40 
15(-1)->1 2 3 8 10 12 13 14 17 19 20 21 25 27 28 29 30 34 38 
16(-1)->1 2 3 4 7 13 14 17 18 20 21 24 25 26 29 31 35 37 38 39 
17(-1)->1 2 3 5 9 10 11 14 15 16 18 21 31 32 34 38 
18(-1)->1 2 6 7 8 9 16 17 21 22 26 27 28 31 35 37 40 
19(-1)->1 2 3 7 10 15 21 26 27 39 
20(-1)->1 2 3 4 5 8 9 15 16 24 26 27 30 36 37 39 40 
21(-1)->1 2 3 4 15 16 17 18 19 23 28 30 32 33 38 39 
22(-1)->1 2 5 6 7 10 11 12 13 18 23 24 25 27 32 34 38 39 40 
23(-1)->1 2 6 21 22 25 27 29 30 32 39 
24(-1)->1 2 7 13 16 20 22 28 32 37 38 
25(-1)->1 2 3 6 7 8 11 15 16 22 23 27 28 31 34 35 38 39 40 
26(-1)->1 2 3 6 7 14 16 18 19 20 34 
27(-1)->1 2 5 6 12 14 15 18 19 20 22 23 25 28 29 31 37 40 
28(-1)->1 2 3 4 5 8 13 15 18 21 24 25 27 33 35 36 38 39 
29(-1)->1 2 3 7 9 11 12 15 16 23 27 31 32 
30(-1)->1 2 3 5 6 13 15 20 21 23 32 34 36 37 39 
31(-1)->1 2 11 12 14 16 17 18 25 27 29 33 34 37 40 
32(-1)->1 2 12 13 17 21 22 23 24 29 30 36 37 40 
33(-1)->1 2 3 4 7 11 12 21 28 31 35 
34(-1)->1 2 3 4 5 6 7 8 12 15 17 22 25 26 30 31 35 36 40 
35(-1)->1 2 10 12 13 16 18 25 28 33 34 37 40 
36(-1)->1 2 6 7 9 11 13 20 28 30 32 34 37 38 39 
37(-1)->1 2 3 4 5 6 7 8 9 10 12 16 18 20 24 27 30 31 32 35 36 39 40 
38(-1)->1 2 3 4 5 6 10 11 12 13 15 16 17 21 22 24 25 28 36 40 
39(-1)->1 2 3 9 14 16 19 20 21 22 23 25 28 30 36 37 
40(-1)->1 6 14 18 20 22 25 27 31 32 34 35 37 38 
-------
1(-1)->2 3 4 5 6 7 8 9 10 11 12 13 14 15 16 17 18 19 20 21 22 23 24 25 26 27 28 29 30 31 32 33 34 35 36 37 38 39 40 
2(-1)->1 3 4 5 6 7 8 9 10 11 12 13 14 15 16 17 18 19 20 21 22 23 24 25 26 27 28 29 30 31 32 33 34 35 36 37 38 39 
3(-1)->1 2 4 5 6 7 8 9 10 11 12 13 15 16 17 19 20 21 25 26 28 29 30 33 34 37 38 39 
6(-1)->1 2 3 4 5 7 8 9 10 11 13 18 22 23 25 26 27 30 34 36 37 38 40 
37(-1)->1 2 3 4 5 6 7 8 9 10 12 16 18 20 24 27 30 31 32 35 36 39 40 
7(-1)->1 2 3 4 5 6 8 10 11 13 16 18 19 22 24 25 26 29 33 34 36 37 
13(-1)->1 2 3 4 6 7 8 9 11 12 14 15 16 22 24 28 30 32 35 36 38 
4(-1)->1 2 3 5 6 7 8 9 10 11 12 13 16 20 21 28 33 34 37 38 
16(-1)->1 2 3 4 7 13 14 17 18 20 21 24 25 26 29 31 35 37 38 39 
38(-1)->1 2 3 4 5 6 10 11 12 13 15 16 17 21 22 24 25 28 36 40 
5(-1)->1 2 3 4 6 7 8 9 10 11 17 20 22 27 28 30 34 37 38 
12(-1)->1 2 3 4 8 9 11 13 15 22 27 29 31 32 33 34 35 37 38 
15(-1)->1 2 3 8 10 12 13 14 17 19 20 21 25 27 28 29 30 34 38 
22(-1)->1 2 5 6 7 10 11 12 13 18 23 24 25 27 32 34 38 39 40 
25(-1)->1 2 3 6 7 8 11 15 16 22 23 27 28 31 34 35 38 39 40 
34(-1)->1 2 3 4 5 6 7 8 12 15 17 22 25 26 30 31 35 36 40 
8(-1)->1 2 3 4 5 6 7 9 10 12 13 15 18 20 25 28 34 37 
11(-1)->1 2 3 4 5 6 7 9 12 13 17 22 25 29 31 33 36 38 
27(-1)->1 2 5 6 12 14 15 18 19 20 22 23 25 28 29 31 37 40 
28(-1)->1 2 3 4 5 8 13 15 18 21 24 25 27 33 35 36 38 39 
9(-1)->1 2 3 4 5 6 8 11 12 13 17 18 20 29 36 37 39 
18(-1)->1 2 6 7 8 9 16 17 21 22 26 27 28 31 35 37 40 
20(-1)->1 2 3 4 5 8 9 15 16 24 26 27 30 36 37 39 40 
10(-1)->1 2 3 4 5 6 7 8 14 15 17 19 22 35 37 38 
17(-1)->1 2 3 5 9 10 11 14 15 16 18 21 31 32 34 38 
21(-1)->1 2 3 4 15 16 17 18 19 23 28 30 32 33 38 39 
39(-1)->1 2 3 9 14 16 19 20 21 22 23 25 28 30 36 37 
30(-1)->1 2 3 5 6 13 15 20 21 23 32 34 36 37 39 
31(-1)->1 2 11 12 14 16 17 18 25 27 29 33 34 37 40 
36(-1)->1 2 6 7 9 11 13 20 28 30 32 34 37 38 39 
32(-1)->1 2 12 13 17 21 22 23 24 29 30 36 37 40 
40(-1)->1 6 14 18 20 22 25 27 31 32 34 35 37 38 
29(-1)->1 2 3 7 9 11 12 15 16 23 27 31 32 
35(-1)->1 2 10 12 13 16 18 25 28 33 34 37 40 
14(-1)->1 2 10 13 15 16 17 26 27 31 39 40 
23(-1)->1 2 6 21 22 25 27 29 30 32 39 
24(-1)->1 2 7 13 16 20 22 28 32 37 38 
26(-1)->1 2 3 6 7 14 16 18 19 20 34 
33(-1)->1 2 3 4 7 11 12 21 28 31 35 
19(-1)->1 2 3 7 10 15 21 26 27 39 
-------
1 2 3 4 5 6 7 8 10 37 

-------
10(-1)->1 2 3 4 5 6 7 8 14 15 17 19 22 35 37 38 
8(-1)->1 2 3 4 5 6 7 9 10 12 13 15 18 20 25 28 34 37 
5(-1)->1 2 3 4 6 7 8 9 10 11 17 20 22 27 28 30 34 37 38 
4(-1)->1 2 3 5 6 7 8 9 10 11 12 13 16 20 21 28 33 34 37 38 
7(-1)->1 2 3 4 5 6 8 10 11 13 16 18 19 22 24 25 26 29 33 34 36 37 
37(-1)->1 2 3 4 5 6 7 8 9 10 12 16 18 20 24 27 30 31 32 35 36 39 40 
6(-1)->1 2 3 4 5 7 8 9 10 11 13 18 22 23 25 26 27 30 34 36 37 38 40 
3(-1)->1 2 4 5 6 7 8 9 10 11 12 13 15 16 17 19 20 21 25 26 28 29 30 33 34 37 38 39 
2(-1)->1 3 4 5 6 7 8 9 10 11 12 13 14 15 16 17 18 19 20 21 22 23 24 25 26 27 28 29 30 31 32 33 34 35 36 37 38 39 
1(-1)->2 3 4 5 6 7 8 9 10 11 12 13 14 15 16 17 18 19 20 21 22 23 24 25 26 27 28 29 30 31 32 33 34 35 36 37 38 39 40 
13(-1)->1 2 3 4 6 7 8 9 11 12 14 15 16 22 24 28 30 32 35 36 38 
16(-1)->1 2 3 4 7 13 14 17 18 20 21 24 25 26 29 31 35 37 38 39 
38(-1)->1 2 3 4 5 6 10 11 12 13 15 16 17 21 22 24 25 28 36 40 
12(-1)->1 2 3 4 8 9 11 13 15 22 27 29 31 32 33 34 35 37 38 
15(-1)->1 2 3 8 10 12 13 14 17 19 20 21 25 27 28 29 30 34 38 
22(-1)->1 2 5 6 7 10 11 12 13 18 23 24 25 27 32 34 38 39 40 
25(-1)->1 2 3 6 7 8 11 15 16 22 23 27 28 31 34 35 38 39 40 
34(-1)->1 2 3 4 5 6 7 8 12 15 17 22 25 26 30 31 35 36 40 
11(-1)->1 2 3 4 5 6 7 9 12 13 17 22 25 29 31 33 36 38 
27(-1)->1 2 5 6 12 14 15 18 19 20 22 23 25 28 29 31 37 40 
28(-1)->1 2 3 4 5 8 13 15 18 21 24 25 27 33 35 36 38 39 
9(-1)->1 2 3 4 5 6 8 11 12 13 17 18 20 29 36 37 39 
18(-1)->1 2 6 7 8 9 16 17 21 22 26 27 28 31 35 37 40 
20(-1)->1 2 3 4 5 8 9 15 16 24 26 27 30 36 37 39 40 
17(-1)->1 2 3 5 9 10 11 14 15 16 18 21 31 32 34 38 
21(-1)->1 2 3 4 15 16 17 18 19 23 28 30 32 33 38 39 
39(-1)->1 2 3 9 14 16 19 20 21 22 23 25 28 30 36 37 
30(-1)->1 2 3 5 6 13 15 20 21 23 32 34 36 37 39 
31(-1)->1 2 11 12 14 16 17 18 25 27 29 33 34 37 40 
36(-1)->1 2 6 7 9 11 13 20 28 30 32 34 37 38 39 
32(-1)->1 2 12 13 17 21 22 23 24 29 30 36 37 40 
40(-1)->1 6 14 18 20 22 25 27 31 32 34 35 37 38 
29(-1)->1 2 3 7 9 11 12 15 16 23 27 31 32 
35(-1)->1 2 10 12 13 16 18 25 28 33 34 37 40 
14(-1)->1 2 10 13 15 16 17 26 27 31 39 40 
23(-1)->1 2 6 21 22 25 27 29 30 32 39 
24(-1)->1 2 7 13 16 20 22 28 32 37 38 
26(-1)->1 2 3 6 7 14 16 18 19 20 34 
33(-1)->1 2 3 4 7 11 12 21 28 31 35 
19(-1)->1 2 3 7 10 15 21 26 27 39 
-------
START TIME: 1433711257
-------
1(9)->2 3 4 5 6 7 8 9 10 11 12 13 14 15 16 17 18 19 20 21 22 23 24 25 26 27 28 29 30 31 32 33 34 35 36 37 38 39 40 
2(8)->1 3 4 5 6 7 8 9 10 11 12 13 14 15 16 17 18 19 20 21 22 23 24 25 26 27 28 29 30 31 32 33 34 35 36 37 38 39 
3(7)->1 2 4 5 6 7 8 9 10 11 12 13 15 16 17 19 20 21 25 26 28 29 30 33 34 37 38 39 
4(3)->1 2 3 5 6 7 8 9 10 11 12 13 16 20 21 28 33 34 37 38 
5(2)->1 2 3 4 6 7 8 9 10 11 17 20 22 27 28 30 34 37 38 
6(6)->1 2 3 4 5 7 8 9 10 11 13 18 22 23 25 26 27 30 34 36 37 38 40 
7(4)->1 2 3 4 5 6 8 10 11 13 16 18 19 22 24 25 26 29 33 34 36 37 
8(1)->1 2 3 4 5 6 7 9 10 12 13 15 18 20 25 28 34 37 
9(4)->1 2 3 4 5 6 8 11 12 13 17 18 20 29 36 37 39 
10(0)->1 2 3 4 5 6 7 8 14 15 17 19 22 35 37 38 
11(5)->1 2 3 4 5 6 7 9 12 13 17 22 25 29 31 33 36 38 
12(2)->1 2 3 4 8 9 11 13 15 22 27 29 31 32 33 34 35 37 38 
13(0)->1 2 3 4 6 7 8 9 11 12 14 15 16 22 24 28 30 32 35 36 38 
14(5)->1 2 10 13 15 16 17 26 27 31 39 40 
15(3)->1 2 3 8 10 12 13 14 17 19 20 21 25 27 28 29 30 34 38 
16(1)->1 2 3 4 7 13 14 17 18 20 21 24 25 26 29 31 35 37 38 39 
17(6)->1 2 3 5 9 10 11 14 15 16 18 21 31 32 34 38 
18(0)->1 2 6 7 8 9 16 17 21 22 26 27 28 31 35 37 40 
19(1)->1 2 3 7 10 15 21 26 27 39 
20(0)->1 2 3 4 5 8 9 15 16 24 26 27 30 36 37 39 40 
21(2)->1 2 3 4 15 16 17 18 19 23 28 30 32 33 38 39 
22(1)->1 2 5 6 7 10 11 12 13 18 23 24 25 27 32 34 38 39 40 
23(5)->1 2 6 21 22 25 27 29 30 32 39 
24(2)->1 2 7 13 16 20 22 28 32 37 38 
25(0)->1 2 3 6 7 8 11 15 16 22 23 27 28 31 34 35 38 39 40 
26(2)->1 2 3 6 7 14 16 18 19 20 34 
27(4)->1 2 5 6 12 14 15 18 19 20 22 23 25 28 29 31 37 40 
28(5)->1 2 3 4 5 8 13 15 18 21 24 25 27 33 35 36 38 39 
29(0)->1 2 3 7 9 11 12 15 16 23 27 31 32 
30(1)->1 2 3 5 6 13 15 20 21 23 32 34 36 37 39 
31(3)->1 2 11 12 14 16 17 18 25 27 29 33 34 37 40 
32(3)->1 2 12 13 17 21 22 23 24 29 30 36 37 40 
33(0)->1 2 3 4 7 11 12 21 28 31 35 
34(5)->1 2 3 4 5 6 7 8 12 15 17 22 25 26 30 31 35 36 40 
35(3)->1 2 10 12 13 16 18 25 28 33 34 37 40 
36(2)->1 2 6 7 9 11 13 20 28 30 32 34 37 38 39 
37(5)->1 2 3 4 5 6 7 8 9 10 12 16 18 20 24 27 30 31 32 35 36 39 40 
38(4)->1 2 3 4 5 6 10 11 12 13 15 16 17 21 22 24 25 28 36 40 
39(3)->1 2 3 9 14 16 19 20 21 22 23 25 28 30 36 37 
40(2)->1 6 14 18 20 22 25 27 31 32 34 35 37 38 
COUNT: 40
COLORS: 10
10
40
