,56,40,82,40,82,40,44,59,253,40
,2228,494,113,316,44,325,66,135,101,438
,14327,115066,6391,7377,2792,1553,14308,777,4978,40
,22551,9333,13562,5236,259,4086,5393,6210,2955,2822
,9153,31157,793,448,1170,2853,395,1250,13026,4777


,50,76,58,100,54,50,96,432,564,154
,108,195,3762,10379,172,4363,789,975,207,50
,57515,13961,100575,72321,12248,970,6517,1355902,25051,9460
,10623,8732,120897,35460,47484,9515,176947,380,197314,26767
,38250,126359,344652,266149,132877,33263,71126,12823,44880,53954
