1: 2 3 4 5 6 14
2: 1 3 22
3: 8 1 2
4: 33 1
5: 1
6: 16 1 12
7: 25 34 37 49
8: 32 44 3 12
9: 35 23
10: 19 12
11: 43 27 31
12: 8 10 6
13: 43 35 23
14: 1
15: 18 22
16: 6
17: 
18: 37 15
19: 10 36 22
20: 48 31
21: 44
22: 2 19 29 15
23: 9 13
24: 
25: 38 7
26: 
27: 11
28: 38
29: 22
30: 
31: 42 11 20 37
32: 8
33: 4
34: 7
35: 9 50 43 13
36: 19 47
37: 18 31 7
38: 25 42 28
39: 
40: 48 41
41: 40 42 45
42: 41 38 31
43: 11 35 13
44: 8 21
45: 41
46: 
47: 36
48: 40 20
49: 7
50: 35
-------
1(-1)->2 3 4 5 6 14 
2(-1)->1 3 22 
3(-1)->1 2 8 
4(-1)->1 33 
5(-1)->1 
6(-1)->1 12 16 
7(-1)->25 34 37 49 
8(-1)->3 12 32 44 
9(-1)->23 35 
10(-1)->12 19 
11(-1)->27 31 43 
12(-1)->6 8 10 
13(-1)->23 35 43 
14(-1)->1 
15(-1)->18 22 
16(-1)->6 
17(-1)->
18(-1)->15 37 
19(-1)->10 22 36 
20(-1)->31 48 
21(-1)->44 
22(-1)->2 15 19 29 
23(-1)->9 13 
24(-1)->
25(-1)->7 38 
26(-1)->
27(-1)->11 
28(-1)->38 
29(-1)->22 
30(-1)->
31(-1)->11 20 37 42 
32(-1)->8 
33(-1)->4 
34(-1)->7 
35(-1)->9 13 43 50 
36(-1)->19 47 
37(-1)->7 18 31 
38(-1)->25 28 42 
39(-1)->
40(-1)->41 48 
41(-1)->40 42 45 
42(-1)->31 38 41 
43(-1)->11 13 35 
44(-1)->8 21 
45(-1)->41 
46(-1)->
47(-1)->36 
48(-1)->20 40 
49(-1)->7 
50(-1)->35 
-------
1(-1)->2 3 4 5 6 14 
7(-1)->25 34 37 49 
8(-1)->3 12 32 44 
22(-1)->2 15 19 29 
31(-1)->11 20 37 42 
35(-1)->9 13 43 50 
2(-1)->1 3 22 
3(-1)->1 2 8 
6(-1)->1 12 16 
11(-1)->27 31 43 
12(-1)->6 8 10 
13(-1)->23 35 43 
19(-1)->10 22 36 
37(-1)->7 18 31 
38(-1)->25 28 42 
41(-1)->40 42 45 
42(-1)->31 38 41 
43(-1)->11 13 35 
4(-1)->1 33 
9(-1)->23 35 
10(-1)->12 19 
15(-1)->18 22 
18(-1)->15 37 
20(-1)->31 48 
23(-1)->9 13 
25(-1)->7 38 
36(-1)->19 47 
40(-1)->41 48 
44(-1)->8 21 
48(-1)->20 40 
5(-1)->1 
14(-1)->1 
16(-1)->6 
21(-1)->44 
27(-1)->11 
28(-1)->38 
29(-1)->22 
32(-1)->8 
33(-1)->4 
34(-1)->7 
45(-1)->41 
47(-1)->36 
49(-1)->7 
50(-1)->35 
17(-1)->
24(-1)->
26(-1)->
30(-1)->
39(-1)->
46(-1)->
-------
1 2 3 

17 

24 

26 

30 

39 

46 

****************
****************
3(-1)->1 2 8 
2(-1)->1 3 22 
1(-1)->2 3 4 5 6 14 
7(-1)->25 34 37 49 
8(-1)->3 12 32 44 
22(-1)->2 15 19 29 
31(-1)->11 20 37 42 
35(-1)->9 13 43 50 
6(-1)->1 12 16 
11(-1)->27 31 43 
12(-1)->6 8 10 
13(-1)->23 35 43 
19(-1)->10 22 36 
37(-1)->7 18 31 
38(-1)->25 28 42 
41(-1)->40 42 45 
42(-1)->31 38 41 
43(-1)->11 13 35 
4(-1)->1 33 
9(-1)->23 35 
10(-1)->12 19 
15(-1)->18 22 
18(-1)->15 37 
20(-1)->31 48 
23(-1)->9 13 
25(-1)->7 38 
36(-1)->19 47 
40(-1)->41 48 
44(-1)->8 21 
48(-1)->20 40 
5(-1)->1 
14(-1)->1 
16(-1)->6 
21(-1)->44 
27(-1)->11 
28(-1)->38 
29(-1)->22 
32(-1)->8 
33(-1)->4 
34(-1)->7 
45(-1)->41 
47(-1)->36 
49(-1)->7 
50(-1)->35 
****************
17(-1)->
****************
24(-1)->
****************
26(-1)->
****************
30(-1)->
****************
39(-1)->
****************
46(-1)->
START TIME: 1433711425
START TIME: 1433711425
START TIME: 1433711425
START TIME: 1433711425
START TIME: 1433711425
START TIME: 1433711425
START TIME: 1433711425
1(2)->2 3 4 5 6 14 
2(1)->1 3 22 
3(0)->1 2 8 
4(0)->1 33 
5(0)->1 
6(0)->1 12 16 
7(0)->25 34 37 49 
8(1)->3 12 32 44 
9(1)->23 35 
10(0)->12 19 
11(1)->27 31 43 
12(2)->6 8 10 
13(1)->23 35 43 
14(0)->1 
15(1)->18 22 
16(1)->6 
17(0)->
18(0)->15 37 
19(1)->10 22 36 
20(1)->31 48 
21(1)->44 
22(0)->2 15 19 29 
23(0)->9 13 
24(0)->
25(1)->7 38 
26(0)->
27(0)->11 
28(1)->38 
29(1)->22 
30(0)->
31(0)->11 20 37 42 
32(0)->8 
33(1)->4 
34(1)->7 
35(0)->9 13 43 50 
36(0)->19 47 
37(1)->7 18 31 
38(0)->25 28 42 
39(0)->
40(1)->41 48 
41(0)->40 42 45 
42(1)->31 38 41 
43(2)->11 13 35 
44(0)->8 21 
45(1)->41 
46(0)->
47(1)->36 
48(0)->20 40 
49(1)->7 
50(1)->35 
COUNT: 50
COLORS: 3
EDGES: 0
3
50
