1: 17 15
2: 
3: 32 41 35 9
4: 12 21
5: 24 45
6: 9 12 46
7: 23
8: 20
9: 16 26 3 6 23
10: 41 50 15
11: 21 47
12: 17 4 6 39
13: 
14: 32 27
15: 1 10 27
16: 32 9 28
17: 12 28 1
18: 24 38
19: 40
20: 8 49
21: 48 26 11 4
22: 30
23: 9 7
24: 18 5
25: 
26: 9 21
27: 14 15
28: 16 17
29: 46
30: 22
31: 34 39
32: 16 41 3 14
33: 
34: 31
35: 3
36: 
37: 48 43
38: 18
39: 49 12 31
40: 19
41: 32 42 3 10 46
42: 41
43: 37 45
44: 47
45: 48 43 5
46: 41 29 6
47: 11 44
48: 21 45 37
49: 20 39
50: 10
-------
1(-1)->15 17 
2(-1)->
3(-1)->9 32 35 41 
4(-1)->12 21 
5(-1)->24 45 
6(-1)->9 12 46 
7(-1)->23 
8(-1)->20 
9(-1)->3 6 16 23 26 
10(-1)->15 41 50 
11(-1)->21 47 
12(-1)->4 6 17 39 
13(-1)->
14(-1)->27 32 
15(-1)->1 10 27 
16(-1)->9 28 32 
17(-1)->1 12 28 
18(-1)->24 38 
19(-1)->40 
20(-1)->8 49 
21(-1)->4 11 26 48 
22(-1)->30 
23(-1)->7 9 
24(-1)->5 18 
25(-1)->
26(-1)->9 21 
27(-1)->14 15 
28(-1)->16 17 
29(-1)->46 
30(-1)->22 
31(-1)->34 39 
32(-1)->3 14 16 41 
33(-1)->
34(-1)->31 
35(-1)->3 
36(-1)->
37(-1)->43 48 
38(-1)->18 
39(-1)->12 31 49 
40(-1)->19 
41(-1)->3 10 32 42 46 
42(-1)->41 
43(-1)->37 45 
44(-1)->47 
45(-1)->5 43 48 
46(-1)->6 29 41 
47(-1)->11 44 
48(-1)->21 37 45 
49(-1)->20 39 
50(-1)->10 
-------
9(-1)->3 6 16 23 26 
41(-1)->3 10 32 42 46 
3(-1)->9 32 35 41 
12(-1)->4 6 17 39 
21(-1)->4 11 26 48 
32(-1)->3 14 16 41 
6(-1)->9 12 46 
10(-1)->15 41 50 
15(-1)->1 10 27 
16(-1)->9 28 32 
17(-1)->1 12 28 
39(-1)->12 31 49 
45(-1)->5 43 48 
46(-1)->6 29 41 
48(-1)->21 37 45 
1(-1)->15 17 
4(-1)->12 21 
5(-1)->24 45 
11(-1)->21 47 
14(-1)->27 32 
18(-1)->24 38 
20(-1)->8 49 
23(-1)->7 9 
24(-1)->5 18 
26(-1)->9 21 
27(-1)->14 15 
28(-1)->16 17 
31(-1)->34 39 
37(-1)->43 48 
43(-1)->37 45 
47(-1)->11 44 
49(-1)->20 39 
7(-1)->23 
8(-1)->20 
19(-1)->40 
22(-1)->30 
29(-1)->46 
30(-1)->22 
34(-1)->31 
35(-1)->3 
38(-1)->18 
40(-1)->19 
42(-1)->41 
44(-1)->47 
50(-1)->10 
2(-1)->
13(-1)->
25(-1)->
33(-1)->
36(-1)->
-------
3 9 

2 

13 

19 40 

22 30 

25 

33 

36 

****************
****************
3(-1)->9 32 35 41 
9(-1)->3 6 16 23 26 
41(-1)->3 10 32 42 46 
12(-1)->4 6 17 39 
21(-1)->4 11 26 48 
32(-1)->3 14 16 41 
6(-1)->9 12 46 
10(-1)->15 41 50 
15(-1)->1 10 27 
16(-1)->9 28 32 
17(-1)->1 12 28 
39(-1)->12 31 49 
45(-1)->5 43 48 
46(-1)->6 29 41 
48(-1)->21 37 45 
1(-1)->15 17 
4(-1)->12 21 
5(-1)->24 45 
11(-1)->21 47 
14(-1)->27 32 
18(-1)->24 38 
20(-1)->8 49 
23(-1)->7 9 
24(-1)->5 18 
26(-1)->9 21 
27(-1)->14 15 
28(-1)->16 17 
31(-1)->34 39 
37(-1)->43 48 
43(-1)->37 45 
47(-1)->11 44 
49(-1)->20 39 
7(-1)->23 
8(-1)->20 
29(-1)->46 
34(-1)->31 
35(-1)->3 
38(-1)->18 
42(-1)->41 
44(-1)->47 
50(-1)->10 
****************
2(-1)->
****************
13(-1)->
****************
40(-1)->19 
19(-1)->40 
****************
30(-1)->22 
22(-1)->30 
****************
25(-1)->
****************
33(-1)->
****************
36(-1)->
START TIME: 1433711425
START TIME: 1433711425
START TIME: 1433711425
START TIME: 1433711425
START TIME: 1433711425
START TIME: 1433711425
START TIME: 1433711425
START TIME: 1433711425
1(0)->15 17 
2(0)->
3(0)->9 32 35 41 
4(1)->12 21 
5(1)->24 45 
6(2)->9 12 46 
7(1)->23 
8(1)->20 
9(1)->3 6 16 23 26 
10(0)->15 41 50 
11(1)->21 47 
12(0)->4 6 17 39 
13(0)->
14(0)->27 32 
15(1)->1 10 27 
16(0)->9 28 32 
17(1)->1 12 28 
18(0)->24 38 
19(1)->40 
20(0)->8 49 
21(0)->4 11 26 48 
22(1)->30 
23(0)->7 9 
24(2)->5 18 
25(0)->
26(2)->9 21 
27(2)->14 15 
28(2)->16 17 
29(1)->46 
30(0)->22 
31(0)->34 39 
32(2)->3 14 16 41 
33(0)->
34(1)->31 
35(1)->3 
36(0)->
37(0)->43 48 
38(1)->18 
39(1)->12 31 49 
40(0)->19 
41(1)->3 10 32 42 46 
42(0)->41 
43(1)->37 45 
44(1)->47 
45(0)->5 43 48 
46(0)->6 29 41 
47(0)->11 44 
48(1)->21 37 45 
49(2)->20 39 
50(1)->10 
COUNT: 54
COLORS: 3
EDGES: 0
3
54
