1: 34 35 2 39
2: 9 19 1
3: 22
4: 
5: 41 10 21 30
6: 34
7: 25 50 30
8: 
9: 2
10: 16 28 5
11: 33 44
12: 
13: 50 19
14: 25 38 41
15: 32
16: 32 10 31
17: 43 46
18: 
19: 2 47 20 13 39
20: 19 38
21: 37 5
22: 3
23: 41 42
24: 36 38
25: 40 14 7
26: 40 46
27: 35 45
28: 10
29: 
30: 48 5 7
31: 16
32: 16 15
33: 35 11
34: 1 45 6
35: 41 27 1 33
36: 24
37: 21
38: 24 20 14
39: 1 19
40: 25 42 26
41: 49 35 5 14 23
42: 40 23
43: 17
44: 11
45: 49 34 27
46: 17 26
47: 19
48: 30
49: 41 45
50: 13 7
-------
1(-1)->2 34 35 39 
2(-1)->1 9 19 
3(-1)->22 
4(-1)->
5(-1)->10 21 30 41 
6(-1)->34 
7(-1)->25 30 50 
8(-1)->
9(-1)->2 
10(-1)->5 16 28 
11(-1)->33 44 
12(-1)->
13(-1)->19 50 
14(-1)->25 38 41 
15(-1)->32 
16(-1)->10 31 32 
17(-1)->43 46 
18(-1)->
19(-1)->2 13 20 39 47 
20(-1)->19 38 
21(-1)->5 37 
22(-1)->3 
23(-1)->41 42 
24(-1)->36 38 
25(-1)->7 14 40 
26(-1)->40 46 
27(-1)->35 45 
28(-1)->10 
29(-1)->
30(-1)->5 7 48 
31(-1)->16 
32(-1)->15 16 
33(-1)->11 35 
34(-1)->1 6 45 
35(-1)->1 27 33 41 
36(-1)->24 
37(-1)->21 
38(-1)->14 20 24 
39(-1)->1 19 
40(-1)->25 26 42 
41(-1)->5 14 23 35 49 
42(-1)->23 40 
43(-1)->17 
44(-1)->11 
45(-1)->27 34 49 
46(-1)->17 26 
47(-1)->19 
48(-1)->30 
49(-1)->41 45 
50(-1)->7 13 
-------
19(-1)->2 13 20 39 47 
41(-1)->5 14 23 35 49 
1(-1)->2 34 35 39 
5(-1)->10 21 30 41 
35(-1)->1 27 33 41 
2(-1)->1 9 19 
7(-1)->25 30 50 
10(-1)->5 16 28 
14(-1)->25 38 41 
16(-1)->10 31 32 
25(-1)->7 14 40 
30(-1)->5 7 48 
34(-1)->1 6 45 
38(-1)->14 20 24 
40(-1)->25 26 42 
45(-1)->27 34 49 
11(-1)->33 44 
13(-1)->19 50 
17(-1)->43 46 
20(-1)->19 38 
21(-1)->5 37 
23(-1)->41 42 
24(-1)->36 38 
26(-1)->40 46 
27(-1)->35 45 
32(-1)->15 16 
33(-1)->11 35 
39(-1)->1 19 
42(-1)->23 40 
46(-1)->17 26 
49(-1)->41 45 
50(-1)->7 13 
3(-1)->22 
6(-1)->34 
9(-1)->2 
15(-1)->32 
22(-1)->3 
28(-1)->10 
31(-1)->16 
36(-1)->24 
37(-1)->21 
43(-1)->17 
44(-1)->11 
47(-1)->19 
48(-1)->30 
4(-1)->
8(-1)->
12(-1)->
18(-1)->
29(-1)->
-------
2 19 

3 22 

4 

8 

12 

18 

29 

****************
****************
2(-1)->1 9 19 
19(-1)->2 13 20 39 47 
41(-1)->5 14 23 35 49 
1(-1)->2 34 35 39 
5(-1)->10 21 30 41 
35(-1)->1 27 33 41 
7(-1)->25 30 50 
10(-1)->5 16 28 
14(-1)->25 38 41 
16(-1)->10 31 32 
25(-1)->7 14 40 
30(-1)->5 7 48 
34(-1)->1 6 45 
38(-1)->14 20 24 
40(-1)->25 26 42 
45(-1)->27 34 49 
11(-1)->33 44 
13(-1)->19 50 
17(-1)->43 46 
20(-1)->19 38 
21(-1)->5 37 
23(-1)->41 42 
24(-1)->36 38 
26(-1)->40 46 
27(-1)->35 45 
32(-1)->15 16 
33(-1)->11 35 
39(-1)->1 19 
42(-1)->23 40 
46(-1)->17 26 
49(-1)->41 45 
50(-1)->7 13 
6(-1)->34 
9(-1)->2 
15(-1)->32 
28(-1)->10 
31(-1)->16 
36(-1)->24 
37(-1)->21 
43(-1)->17 
44(-1)->11 
47(-1)->19 
48(-1)->30 
****************
22(-1)->3 
3(-1)->22 
****************
4(-1)->
****************
8(-1)->
****************
12(-1)->
****************
18(-1)->
****************
29(-1)->
START TIME: 1433711425
START TIME: 1433711425
START TIME: 1433711425
START TIME: 1433711425
START TIME: 1433711425
START TIME: 1433711425
START TIME: 1433711425
1(1)->2 34 35 39 
2(0)->1 9 19 
3(1)->22 
4(0)->
5(1)->10 21 30 41 
6(1)->34 
7(0)->25 30 50 
8(0)->
9(1)->2 
10(0)->5 16 28 
11(0)->33 44 
12(0)->
13(0)->19 50 
14(1)->25 38 41 
15(1)->32 
16(1)->10 31 32 
17(0)->43 46 
18(0)->
19(1)->2 13 20 39 47 
20(2)->19 38 
21(0)->5 37 
22(0)->3 
23(1)->41 42 
24(1)->36 38 
25(2)->7 14 40 
26(1)->40 46 
27(0)->35 45 
28(1)->10 
29(0)->
30(2)->5 7 48 
31(0)->16 
32(0)->15 16 
33(1)->11 35 
34(0)->1 6 45 
35(2)->1 27 33 41 
36(0)->24 
37(1)->21 
38(0)->14 20 24 
39(0)->1 19 
40(0)->25 26 42 
41(0)->5 14 23 35 49 
42(2)->23 40 
43(1)->17 
44(1)->11 
45(1)->27 34 49 
46(2)->17 26 
47(0)->19 
48(0)->30 
49(2)->41 45 
50(1)->7 13 
COUNT: 96
COLORS: 3
EDGES: 0
3
96
