1: 2 3 4 5 6 7 8 9 10 11 12 13 14 15 16 17 18 19 20 21 22 23 24 25 26 27 28 29 30 31 32 33 34 35 36 37 38 39 40 41 42 43 44 45 46 47 48 49 50
2: 1 3 4 5 6 7 8 9 10 11 12 13 14 15 16 17 18 19 20 21 22 23 24 25 26 27 28 29 30 31 32 33 34 35 36 37 38 39 40 41 42 43 44 45 46 47 48 49
3: 1 2 4 5 6 7 8 9 10 11 12 13 14 15 16 17 18 19 20 21 22 23 24 25 26 27 28 29 30 31 32 34 35 36 37 38 41 42 43 44 46 47 48 49
4: 1 2 3 5 6 7 8 9 10 11 12 13 14 15 16 17 18 19 20 22 23 25 27 29 32 33 34 36 37 38 39 40 41 42 43 44 47 49
5: 1 2 3 4 6 7 8 9 10 11 12 13 14 15 16 17 18 20 21 23 24 27 32 38 39 40 41 47
6: 1 2 3 4 5 7 8 9 12 13 15 16 17 18 20 24 26 28 32 37 41 42 43 50
7: 1 2 3 4 5 6 8 11 12 15 20 27 30 33 35 41 42 44 45 46 47 48
8: 32 1 2 35 4 37 38 33 10 7 15 50 3 22 23 24 6 27 28 30 5
9: 32 1 2 3 4 5 6 40 41 18 46 48 17 50 35 21 22 23
10: 32 1 2 3 4 5 8 43 12 50 11 49 18 40 25 28 29
11: 48 34 3 1 37 7 10 2 45 46 15 16 35 22 4 36 27 5 29 30 31
12: 33 34 3 1 38 6 17 41 10 39 2 49 18 24 4 42 7 5
13: 1 2 3 4 37 6 40 42 44 45 46 15 48 18 22 23 26 38 5 30 31
14: 1 34 3 36 5 38 39 40 41 44 2 48 49 21 23 25 27 29 4
15: 1 2 3 4 5 6 7 8 11 13 18 19 20 21 22 24 26 28 29 32 37 38 39 44 50
16: 33 2 43 4 37 6 1 40 41 11 47 48 18 3 20 25 5
17: 1 2 3 4 5 6 9 12 21 23 24 27 28 32 36 37 38 40 43 44 45 46 49 50
18: 1 2 3 4 5 6 9 10 12 13 15 16 22 23 24 27 28 29 30 33 34 43 46 48 49
19: 32 1 2 3 4 15 48 49 50 23 27 28 29
20: 1 2 3 36 5 6 39 40 41 7 45 15 16 49 35 21 4 38 28 29 30
21: 32 33 34 3 36 5 1 41 2 46 15 17 20 14 9 24 26 27 37 31
22: 48 34 35 4 38 1 8 9 45 2 13 11 18 3 15 28 29 31
23: 1 2 3 4 5 8 9 13 14 17 18 19 26 30 31 34 35 36 38 40 41 46 47
24: 1 2 3 5 6 8 12 15 17 18 21 30 31 35 36 37 41 44 45 46 48 49
25: 32 1 34 3 4 37 48 42 2 44 45 46 16 10 14 29 30 31
26: 32 1 2 3 36 6 41 43 44 13 46 47 49 21 23 15 29
27: 14 1 2 3 4 37 7 8 42 11 46 48 17 18 19 21 30 5
28: 3 1 2 35 36 38 6 8 41 10 50 46 15 17 18 19 20 22
29: 32 1 34 3 4 19 41 10 11 44 2 14 15 48 18 35 20 22 25 26
30: 32 1 2 43 3 7 8 47 11 13 45 48 18 35 20 23 24 25 27
31: 32 33 2 35 1 39 40 11 13 49 3 21 22 23 24 25
32: 1 2 3 4 5 6 8 9 10 15 17 19 21 25 26 29 30 31 39 40 43 46 48 49
33: 1 2 36 37 38 7 8 12 44 46 16 40 18 21 4 31
34: 1 2 3 36 37 39 42 11 12 14 47 48 49 18 21 22 23 25 29 4
35: 1 2 3 37 38 7 8 9 11 44 45 48 40 20 22 23 24 28 29 30 31
36: 1 34 11 4 38 33 41 42 46 2 14 17 50 3 20 21 23 24 26 28
37: 1 2 3 4 6 8 11 13 15 16 17 21 24 25 27 33 34 35 39 41 42 49 50
38: 1 2 3 4 5 8 12 13 14 15 17 20 22 23 28 33 35 36 39 41 43 44 45 46 50
39: 32 1 34 4 37 38 40 2 12 45 14 15 49 20 31 5
40: 32 33 2 35 4 5 39 9 10 43 44 13 46 45 16 17 1 20 14 23 31
41: 1 2 3 4 5 6 7 9 12 14 16 20 21 23 24 26 28 29 36 37 38 43 44 45 46 47 48
42: 1 34 3 36 37 6 7 2 12 13 25 27 4
43: 32 1 2 3 4 38 6 17 40 41 10 47 16 49 18 26 30
44: 33 2 35 4 38 7 40 41 13 14 15 17 50 3 1 24 25 26 29
45: 1 2 35 17 38 39 40 41 11 13 46 47 48 24 20 22 7 25 30
46: 1 2 3 7 9 11 13 17 18 21 23 24 25 26 27 28 32 33 36 38 40 41 45 49 50
47: 16 2 3 4 5 7 41 43 45 48 34 1 23 26 30
48: 1 2 3 7 9 11 13 14 16 18 19 22 24 25 27 29 30 32 34 35 41 45 47
49: 32 1 34 3 4 37 39 10 43 12 2 14 17 18 19 20 46 24 26 31
50: 1 36 37 6 8 9 10 44 46 15 17 19 38 28
-------
1(-1)->2 3 4 5 6 7 8 9 10 11 12 13 14 15 16 17 18 19 20 21 22 23 24 25 26 27 28 29 30 31 32 33 34 35 36 37 38 39 40 41 42 43 44 45 46 47 48 49 50 
2(-1)->1 3 4 5 6 7 8 9 10 11 12 13 14 15 16 17 18 19 20 21 22 23 24 25 26 27 28 29 30 31 32 33 34 35 36 37 38 39 40 41 42 43 44 45 46 47 48 49 
3(-1)->1 2 4 5 6 7 8 9 10 11 12 13 14 15 16 17 18 19 20 21 22 23 24 25 26 27 28 29 30 31 32 34 35 36 37 38 41 42 43 44 46 47 48 49 
4(-1)->1 2 3 5 6 7 8 9 10 11 12 13 14 15 16 17 18 19 20 22 23 25 27 29 32 33 34 36 37 38 39 40 41 42 43 44 47 49 
5(-1)->1 2 3 4 6 7 8 9 10 11 12 13 14 15 16 17 18 20 21 23 24 27 32 38 39 40 41 47 
6(-1)->1 2 3 4 5 7 8 9 12 13 15 16 17 18 20 24 26 28 32 37 41 42 43 50 
7(-1)->1 2 3 4 5 6 8 11 12 15 20 27 30 33 35 41 42 44 45 46 47 48 
8(-1)->1 2 3 4 5 6 7 10 15 22 23 24 27 28 30 32 33 35 37 38 50 
9(-1)->1 2 3 4 5 6 17 18 21 22 23 32 35 40 41 46 48 50 
10(-1)->1 2 3 4 5 8 11 12 18 25 28 29 32 40 43 49 50 
11(-1)->1 2 3 4 5 7 10 15 16 22 27 29 30 31 34 35 36 37 45 46 48 
12(-1)->1 2 3 4 5 6 7 10 17 18 24 33 34 38 39 41 42 49 
13(-1)->1 2 3 4 5 6 15 18 22 23 26 30 31 37 38 40 42 44 45 46 48 
14(-1)->1 2 3 4 5 21 23 25 27 29 34 36 38 39 40 41 44 48 49 
15(-1)->1 2 3 4 5 6 7 8 11 13 18 19 20 21 22 24 26 28 29 32 37 38 39 44 50 
16(-1)->1 2 3 4 5 6 11 18 20 25 33 37 40 41 43 47 48 
17(-1)->1 2 3 4 5 6 9 12 21 23 24 27 28 32 36 37 38 40 43 44 45 46 49 50 
18(-1)->1 2 3 4 5 6 9 10 12 13 15 16 22 23 24 27 28 29 30 33 34 43 46 48 49 
19(-1)->1 2 3 4 15 23 27 28 29 32 48 49 50 
20(-1)->1 2 3 4 5 6 7 15 16 21 28 29 30 35 36 38 39 40 41 45 49 
21(-1)->1 2 3 5 9 14 15 17 20 24 26 27 31 32 33 34 36 37 41 46 
22(-1)->1 2 3 4 8 9 11 13 15 18 28 29 31 34 35 38 45 48 
23(-1)->1 2 3 4 5 8 9 13 14 17 18 19 26 30 31 34 35 36 38 40 41 46 47 
24(-1)->1 2 3 5 6 8 12 15 17 18 21 30 31 35 36 37 41 44 45 46 48 49 
25(-1)->1 2 3 4 10 14 16 29 30 31 32 34 37 42 44 45 46 48 
26(-1)->1 2 3 6 13 15 21 23 29 32 36 41 43 44 46 47 49 
27(-1)->1 2 3 4 5 7 8 11 14 17 18 19 21 30 37 42 46 48 
28(-1)->1 2 3 6 8 10 15 17 18 19 20 22 35 36 38 41 46 50 
29(-1)->1 2 3 4 10 11 14 15 18 19 20 22 25 26 32 34 35 41 44 48 
30(-1)->1 2 3 7 8 11 13 18 20 23 24 25 27 32 35 43 45 47 48 
31(-1)->1 2 3 11 13 21 22 23 24 25 32 33 35 39 40 49 
32(-1)->1 2 3 4 5 6 8 9 10 15 17 19 21 25 26 29 30 31 39 40 43 46 48 49 
33(-1)->1 2 4 7 8 12 16 18 21 31 36 37 38 40 44 46 
34(-1)->1 2 3 4 11 12 14 18 21 22 23 25 29 36 37 39 42 47 48 49 
35(-1)->1 2 3 7 8 9 11 20 22 23 24 28 29 30 31 37 38 40 44 45 48 
36(-1)->1 2 3 4 11 14 17 20 21 23 24 26 28 33 34 38 41 42 46 50 
37(-1)->1 2 3 4 6 8 11 13 15 16 17 21 24 25 27 33 34 35 39 41 42 49 50 
38(-1)->1 2 3 4 5 8 12 13 14 15 17 20 22 23 28 33 35 36 39 41 43 44 45 46 50 
39(-1)->1 2 4 5 12 14 15 20 31 32 34 37 38 40 45 49 
40(-1)->1 2 4 5 9 10 13 14 16 17 20 23 31 32 33 35 39 43 44 45 46 
41(-1)->1 2 3 4 5 6 7 9 12 14 16 20 21 23 24 26 28 29 36 37 38 43 44 45 46 47 48 
42(-1)->1 2 3 4 6 7 12 13 25 27 34 36 37 
43(-1)->1 2 3 4 6 10 16 17 18 26 30 32 38 40 41 47 49 
44(-1)->1 2 3 4 7 13 14 15 17 24 25 26 29 33 35 38 40 41 50 
45(-1)->1 2 7 11 13 17 20 22 24 25 30 35 38 39 40 41 46 47 48 
46(-1)->1 2 3 7 9 11 13 17 18 21 23 24 25 26 27 28 32 33 36 38 40 41 45 49 50 
47(-1)->1 2 3 4 5 7 16 23 26 30 34 41 43 45 48 
48(-1)->1 2 3 7 9 11 13 14 16 18 19 22 24 25 27 29 30 32 34 35 41 45 47 
49(-1)->1 2 3 4 10 12 14 17 18 19 20 24 26 31 32 34 37 39 43 46 
50(-1)->1 6 8 9 10 15 17 19 28 36 37 38 44 46 
-------
1(-1)->2 3 4 5 6 7 8 9 10 11 12 13 14 15 16 17 18 19 20 21 22 23 24 25 26 27 28 29 30 31 32 33 34 35 36 37 38 39 40 41 42 43 44 45 46 47 48 49 50 
2(-1)->1 3 4 5 6 7 8 9 10 11 12 13 14 15 16 17 18 19 20 21 22 23 24 25 26 27 28 29 30 31 32 33 34 35 36 37 38 39 40 41 42 43 44 45 46 47 48 49 
3(-1)->1 2 4 5 6 7 8 9 10 11 12 13 14 15 16 17 18 19 20 21 22 23 24 25 26 27 28 29 30 31 32 34 35 36 37 38 41 42 43 44 46 47 48 49 
4(-1)->1 2 3 5 6 7 8 9 10 11 12 13 14 15 16 17 18 19 20 22 23 25 27 29 32 33 34 36 37 38 39 40 41 42 43 44 47 49 
5(-1)->1 2 3 4 6 7 8 9 10 11 12 13 14 15 16 17 18 20 21 23 24 27 32 38 39 40 41 47 
41(-1)->1 2 3 4 5 6 7 9 12 14 16 20 21 23 24 26 28 29 36 37 38 43 44 45 46 47 48 
15(-1)->1 2 3 4 5 6 7 8 11 13 18 19 20 21 22 24 26 28 29 32 37 38 39 44 50 
18(-1)->1 2 3 4 5 6 9 10 12 13 15 16 22 23 24 27 28 29 30 33 34 43 46 48 49 
38(-1)->1 2 3 4 5 8 12 13 14 15 17 20 22 23 28 33 35 36 39 41 43 44 45 46 50 
46(-1)->1 2 3 7 9 11 13 17 18 21 23 24 25 26 27 28 32 33 36 38 40 41 45 49 50 
6(-1)->1 2 3 4 5 7 8 9 12 13 15 16 17 18 20 24 26 28 32 37 41 42 43 50 
17(-1)->1 2 3 4 5 6 9 12 21 23 24 27 28 32 36 37 38 40 43 44 45 46 49 50 
32(-1)->1 2 3 4 5 6 8 9 10 15 17 19 21 25 26 29 30 31 39 40 43 46 48 49 
23(-1)->1 2 3 4 5 8 9 13 14 17 18 19 26 30 31 34 35 36 38 40 41 46 47 
37(-1)->1 2 3 4 6 8 11 13 15 16 17 21 24 25 27 33 34 35 39 41 42 49 50 
48(-1)->1 2 3 7 9 11 13 14 16 18 19 22 24 25 27 29 30 32 34 35 41 45 47 
7(-1)->1 2 3 4 5 6 8 11 12 15 20 27 30 33 35 41 42 44 45 46 47 48 
24(-1)->1 2 3 5 6 8 12 15 17 18 21 30 31 35 36 37 41 44 45 46 48 49 
8(-1)->1 2 3 4 5 6 7 10 15 22 23 24 27 28 30 32 33 35 37 38 50 
11(-1)->1 2 3 4 5 7 10 15 16 22 27 29 30 31 34 35 36 37 45 46 48 
13(-1)->1 2 3 4 5 6 15 18 22 23 26 30 31 37 38 40 42 44 45 46 48 
20(-1)->1 2 3 4 5 6 7 15 16 21 28 29 30 35 36 38 39 40 41 45 49 
35(-1)->1 2 3 7 8 9 11 20 22 23 24 28 29 30 31 37 38 40 44 45 48 
40(-1)->1 2 4 5 9 10 13 14 16 17 20 23 31 32 33 35 39 43 44 45 46 
21(-1)->1 2 3 5 9 14 15 17 20 24 26 27 31 32 33 34 36 37 41 46 
29(-1)->1 2 3 4 10 11 14 15 18 19 20 22 25 26 32 34 35 41 44 48 
34(-1)->1 2 3 4 11 12 14 18 21 22 23 25 29 36 37 39 42 47 48 49 
36(-1)->1 2 3 4 11 14 17 20 21 23 24 26 28 33 34 38 41 42 46 50 
49(-1)->1 2 3 4 10 12 14 17 18 19 20 24 26 31 32 34 37 39 43 46 
14(-1)->1 2 3 4 5 21 23 25 27 29 34 36 38 39 40 41 44 48 49 
30(-1)->1 2 3 7 8 11 13 18 20 23 24 25 27 32 35 43 45 47 48 
44(-1)->1 2 3 4 7 13 14 15 17 24 25 26 29 33 35 38 40 41 50 
45(-1)->1 2 7 11 13 17 20 22 24 25 30 35 38 39 40 41 46 47 48 
9(-1)->1 2 3 4 5 6 17 18 21 22 23 32 35 40 41 46 48 50 
12(-1)->1 2 3 4 5 6 7 10 17 18 24 33 34 38 39 41 42 49 
22(-1)->1 2 3 4 8 9 11 13 15 18 28 29 31 34 35 38 45 48 
25(-1)->1 2 3 4 10 14 16 29 30 31 32 34 37 42 44 45 46 48 
27(-1)->1 2 3 4 5 7 8 11 14 17 18 19 21 30 37 42 46 48 
28(-1)->1 2 3 6 8 10 15 17 18 19 20 22 35 36 38 41 46 50 
10(-1)->1 2 3 4 5 8 11 12 18 25 28 29 32 40 43 49 50 
16(-1)->1 2 3 4 5 6 11 18 20 25 33 37 40 41 43 47 48 
26(-1)->1 2 3 6 13 15 21 23 29 32 36 41 43 44 46 47 49 
43(-1)->1 2 3 4 6 10 16 17 18 26 30 32 38 40 41 47 49 
31(-1)->1 2 3 11 13 21 22 23 24 25 32 33 35 39 40 49 
33(-1)->1 2 4 7 8 12 16 18 21 31 36 37 38 40 44 46 
39(-1)->1 2 4 5 12 14 15 20 31 32 34 37 38 40 45 49 
47(-1)->1 2 3 4 5 7 16 23 26 30 34 41 43 45 48 
50(-1)->1 6 8 9 10 15 17 19 28 36 37 38 44 46 
19(-1)->1 2 3 4 15 23 27 28 29 32 48 49 50 
42(-1)->1 2 3 4 6 7 12 13 25 27 34 36 37 
-------
1 2 3 4 5 6 7 8 15 

-------
8(-1)->1 2 3 4 5 6 7 10 15 22 23 24 27 28 30 32 33 35 37 38 50 
7(-1)->1 2 3 4 5 6 8 11 12 15 20 27 30 33 35 41 42 44 45 46 47 48 
6(-1)->1 2 3 4 5 7 8 9 12 13 15 16 17 18 20 24 26 28 32 37 41 42 43 50 
15(-1)->1 2 3 4 5 6 7 8 11 13 18 19 20 21 22 24 26 28 29 32 37 38 39 44 50 
5(-1)->1 2 3 4 6 7 8 9 10 11 12 13 14 15 16 17 18 20 21 23 24 27 32 38 39 40 41 47 
4(-1)->1 2 3 5 6 7 8 9 10 11 12 13 14 15 16 17 18 19 20 22 23 25 27 29 32 33 34 36 37 38 39 40 41 42 43 44 47 49 
3(-1)->1 2 4 5 6 7 8 9 10 11 12 13 14 15 16 17 18 19 20 21 22 23 24 25 26 27 28 29 30 31 32 34 35 36 37 38 41 42 43 44 46 47 48 49 
2(-1)->1 3 4 5 6 7 8 9 10 11 12 13 14 15 16 17 18 19 20 21 22 23 24 25 26 27 28 29 30 31 32 33 34 35 36 37 38 39 40 41 42 43 44 45 46 47 48 49 
1(-1)->2 3 4 5 6 7 8 9 10 11 12 13 14 15 16 17 18 19 20 21 22 23 24 25 26 27 28 29 30 31 32 33 34 35 36 37 38 39 40 41 42 43 44 45 46 47 48 49 50 
41(-1)->1 2 3 4 5 6 7 9 12 14 16 20 21 23 24 26 28 29 36 37 38 43 44 45 46 47 48 
18(-1)->1 2 3 4 5 6 9 10 12 13 15 16 22 23 24 27 28 29 30 33 34 43 46 48 49 
38(-1)->1 2 3 4 5 8 12 13 14 15 17 20 22 23 28 33 35 36 39 41 43 44 45 46 50 
46(-1)->1 2 3 7 9 11 13 17 18 21 23 24 25 26 27 28 32 33 36 38 40 41 45 49 50 
17(-1)->1 2 3 4 5 6 9 12 21 23 24 27 28 32 36 37 38 40 43 44 45 46 49 50 
32(-1)->1 2 3 4 5 6 8 9 10 15 17 19 21 25 26 29 30 31 39 40 43 46 48 49 
23(-1)->1 2 3 4 5 8 9 13 14 17 18 19 26 30 31 34 35 36 38 40 41 46 47 
37(-1)->1 2 3 4 6 8 11 13 15 16 17 21 24 25 27 33 34 35 39 41 42 49 50 
48(-1)->1 2 3 7 9 11 13 14 16 18 19 22 24 25 27 29 30 32 34 35 41 45 47 
24(-1)->1 2 3 5 6 8 12 15 17 18 21 30 31 35 36 37 41 44 45 46 48 49 
11(-1)->1 2 3 4 5 7 10 15 16 22 27 29 30 31 34 35 36 37 45 46 48 
13(-1)->1 2 3 4 5 6 15 18 22 23 26 30 31 37 38 40 42 44 45 46 48 
20(-1)->1 2 3 4 5 6 7 15 16 21 28 29 30 35 36 38 39 40 41 45 49 
35(-1)->1 2 3 7 8 9 11 20 22 23 24 28 29 30 31 37 38 40 44 45 48 
40(-1)->1 2 4 5 9 10 13 14 16 17 20 23 31 32 33 35 39 43 44 45 46 
21(-1)->1 2 3 5 9 14 15 17 20 24 26 27 31 32 33 34 36 37 41 46 
29(-1)->1 2 3 4 10 11 14 15 18 19 20 22 25 26 32 34 35 41 44 48 
34(-1)->1 2 3 4 11 12 14 18 21 22 23 25 29 36 37 39 42 47 48 49 
36(-1)->1 2 3 4 11 14 17 20 21 23 24 26 28 33 34 38 41 42 46 50 
49(-1)->1 2 3 4 10 12 14 17 18 19 20 24 26 31 32 34 37 39 43 46 
14(-1)->1 2 3 4 5 21 23 25 27 29 34 36 38 39 40 41 44 48 49 
30(-1)->1 2 3 7 8 11 13 18 20 23 24 25 27 32 35 43 45 47 48 
44(-1)->1 2 3 4 7 13 14 15 17 24 25 26 29 33 35 38 40 41 50 
45(-1)->1 2 7 11 13 17 20 22 24 25 30 35 38 39 40 41 46 47 48 
9(-1)->1 2 3 4 5 6 17 18 21 22 23 32 35 40 41 46 48 50 
12(-1)->1 2 3 4 5 6 7 10 17 18 24 33 34 38 39 41 42 49 
22(-1)->1 2 3 4 8 9 11 13 15 18 28 29 31 34 35 38 45 48 
25(-1)->1 2 3 4 10 14 16 29 30 31 32 34 37 42 44 45 46 48 
27(-1)->1 2 3 4 5 7 8 11 14 17 18 19 21 30 37 42 46 48 
28(-1)->1 2 3 6 8 10 15 17 18 19 20 22 35 36 38 41 46 50 
10(-1)->1 2 3 4 5 8 11 12 18 25 28 29 32 40 43 49 50 
16(-1)->1 2 3 4 5 6 11 18 20 25 33 37 40 41 43 47 48 
26(-1)->1 2 3 6 13 15 21 23 29 32 36 41 43 44 46 47 49 
43(-1)->1 2 3 4 6 10 16 17 18 26 30 32 38 40 41 47 49 
31(-1)->1 2 3 11 13 21 22 23 24 25 32 33 35 39 40 49 
33(-1)->1 2 4 7 8 12 16 18 21 31 36 37 38 40 44 46 
39(-1)->1 2 4 5 12 14 15 20 31 32 34 37 38 40 45 49 
47(-1)->1 2 3 4 5 7 16 23 26 30 34 41 43 45 48 
50(-1)->1 6 8 9 10 15 17 19 28 36 37 38 44 46 
19(-1)->1 2 3 4 15 23 27 28 29 32 48 49 50 
42(-1)->1 2 3 4 6 7 12 13 25 27 34 36 37 
-------
START TIME: 1433712463
10000
20000
30000
-------
1(8)->2 3 4 5 6 7 8 9 10 11 12 13 14 15 16 17 18 19 20 21 22 23 24 25 26 27 28 29 30 31 32 33 34 35 36 37 38 39 40 41 42 43 44 45 46 47 48 49 50 
2(7)->1 3 4 5 6 7 8 9 10 11 12 13 14 15 16 17 18 19 20 21 22 23 24 25 26 27 28 29 30 31 32 33 34 35 36 37 38 39 40 41 42 43 44 45 46 47 48 49 
3(6)->1 2 4 5 6 7 8 9 10 11 12 13 14 15 16 17 18 19 20 21 22 23 24 25 26 27 28 29 30 31 32 34 35 36 37 38 41 42 43 44 46 47 48 49 
4(5)->1 2 3 5 6 7 8 9 10 11 12 13 14 15 16 17 18 19 20 22 23 25 27 29 32 33 34 36 37 38 39 40 41 42 43 44 47 49 
5(4)->1 2 3 4 6 7 8 9 10 11 12 13 14 15 16 17 18 20 21 23 24 27 32 38 39 40 41 47 
6(2)->1 2 3 4 5 7 8 9 12 13 15 16 17 18 20 24 26 28 32 37 41 42 43 50 
7(1)->1 2 3 4 5 6 8 11 12 15 20 27 30 33 35 41 42 44 45 46 47 48 
8(0)->1 2 3 4 5 6 7 10 15 22 23 24 27 28 30 32 33 35 37 38 50 
9(9)->1 2 3 4 5 6 17 18 21 22 23 32 35 40 41 46 48 50 
10(9)->1 2 3 4 5 8 11 12 18 25 28 29 32 40 43 49 50 
11(0)->1 2 3 4 5 7 10 15 16 22 27 29 30 31 34 35 36 37 45 46 48 
12(3)->1 2 3 4 5 6 7 10 17 18 24 33 34 38 39 41 42 49 
13(9)->1 2 3 4 5 6 15 18 22 23 26 30 31 37 38 40 42 44 45 46 48 
14(9)->1 2 3 4 5 21 23 25 27 29 34 36 38 39 40 41 44 48 49 
15(3)->1 2 3 4 5 6 7 8 11 13 18 19 20 21 22 24 26 28 29 32 37 38 39 44 50 
16(1)->1 2 3 4 5 6 11 18 20 25 33 37 40 41 43 47 48 
17(0)->1 2 3 4 5 6 9 12 21 23 24 27 28 32 36 37 38 40 43 44 45 46 49 50 
18(0)->1 2 3 4 5 6 9 10 12 13 15 16 22 23 24 27 28 29 30 33 34 43 46 48 49 
19(0)->1 2 3 4 15 23 27 28 29 32 48 49 50 
20(9)->1 2 3 4 5 6 7 15 16 21 28 29 30 35 36 38 39 40 41 45 49 
21(2)->1 2 3 5 9 14 15 17 20 24 26 27 31 32 33 34 36 37 41 46 
22(4)->1 2 3 4 8 9 11 13 15 18 28 29 31 34 35 38 45 48 
23(2)->1 2 3 4 5 8 9 13 14 17 18 19 26 30 31 34 35 36 38 40 41 46 47 
24(1)->1 2 3 5 6 8 12 15 17 18 21 30 31 35 36 37 41 44 45 46 48 49 
25(3)->1 2 3 4 10 14 16 29 30 31 32 34 37 42 44 45 46 48 
26(5)->1 2 3 6 13 15 21 23 29 32 36 41 43 44 46 47 49 
27(3)->1 2 3 4 5 7 8 11 14 17 18 19 21 30 37 42 46 48 
28(5)->1 2 3 6 8 10 15 17 18 19 20 22 35 36 38 41 46 50 
29(2)->1 2 3 4 10 11 14 15 18 19 20 22 25 26 32 34 35 41 44 48 
30(4)->1 2 3 7 8 11 13 18 20 23 24 25 27 32 35 43 45 47 48 
31(5)->1 2 3 11 13 21 22 23 24 25 32 33 35 39 40 49 
32(1)->1 2 3 4 5 6 8 9 10 15 17 19 21 25 26 29 30 31 39 40 43 46 48 49 
33(9)->1 2 4 7 8 12 16 18 21 31 36 37 38 40 44 46 
34(1)->1 2 3 4 11 12 14 18 21 22 23 25 29 36 37 39 42 47 48 49 
35(3)->1 2 3 7 8 9 11 20 22 23 24 28 29 30 31 37 38 40 44 45 48 
36(3)->1 2 3 4 11 14 17 20 21 23 24 26 28 33 34 38 41 42 46 50 
37(4)->1 2 3 4 6 8 11 13 15 16 17 21 24 25 27 33 34 35 39 41 42 49 50 
38(1)->1 2 3 4 5 8 12 13 14 15 17 20 22 23 28 33 35 36 39 41 43 44 45 46 50 
39(0)->1 2 4 5 12 14 15 20 31 32 34 37 38 40 45 49 
40(6)->1 2 4 5 9 10 13 14 16 17 20 23 31 32 33 35 39 43 44 45 46 
41(0)->1 2 3 4 5 6 7 9 12 14 16 20 21 23 24 26 28 29 36 37 38 43 44 45 46 47 48 
42(0)->1 2 3 4 6 7 12 13 25 27 34 36 37 
43(3)->1 2 3 4 6 10 16 17 18 26 30 32 38 40 41 47 49 
44(4)->1 2 3 4 7 13 14 15 17 24 25 26 29 33 35 38 40 41 50 
45(2)->1 2 7 11 13 17 20 22 24 25 30 35 38 39 40 41 46 47 48 
46(4)->1 2 3 7 9 11 13 17 18 21 23 24 25 26 27 28 32 33 36 38 40 41 45 49 50 
47(9)->1 2 3 4 5 7 16 23 26 30 34 41 43 45 48 
48(5)->1 2 3 7 9 11 13 14 16 18 19 22 24 25 27 29 30 32 34 35 41 45 47 
49(2)->1 2 3 4 10 12 14 17 18 19 20 24 26 31 32 34 37 39 43 46 
50(6)->1 6 8 9 10 15 17 19 28 36 37 38 44 46 
COUNT: 33611
COLORS: 10
10
33611
