1: 36 7
2: 21
3: 50 31
4: 31 22 23
5: 39
6: 9 31
7: 1 39
8: 43 12
9: 33 23 25 6 41
10: 
11: 29
12: 8
13: 48 27 21
14: 31
15: 20
16: 48 17 28
17: 16 27
18: 22
19: 45 29
20: 30 15
21: 2 13 22
22: 48 18 4 29 21
23: 9 34 4 49
24: 25
25: 24 41 9 39
26: 
27: 17 30 13 46 33
28: 16
29: 19 11 22
30: 27 43 20
31: 4 3 44 14 6
32: 
33: 9 42 27
34: 35 44 23
35: 34
36: 1
37: 
38: 
39: 25 5 7
40: 
41: 25 42 9
42: 41 33
43: 8 30
44: 34 31
45: 19
46: 27
47: 
48: 16 13 22
49: 50 23
50: 49 3
-------
1(-1)->7 36 
2(-1)->21 
3(-1)->31 50 
4(-1)->22 23 31 
5(-1)->39 
6(-1)->9 31 
7(-1)->1 39 
8(-1)->12 43 
9(-1)->6 23 25 33 41 
10(-1)->
11(-1)->29 
12(-1)->8 
13(-1)->21 27 48 
14(-1)->31 
15(-1)->20 
16(-1)->17 28 48 
17(-1)->16 27 
18(-1)->22 
19(-1)->29 45 
20(-1)->15 30 
21(-1)->2 13 22 
22(-1)->4 18 21 29 48 
23(-1)->4 9 34 49 
24(-1)->25 
25(-1)->9 24 39 41 
26(-1)->
27(-1)->13 17 30 33 46 
28(-1)->16 
29(-1)->11 19 22 
30(-1)->20 27 43 
31(-1)->3 4 6 14 44 
32(-1)->
33(-1)->9 27 42 
34(-1)->23 35 44 
35(-1)->34 
36(-1)->1 
37(-1)->
38(-1)->
39(-1)->5 7 25 
40(-1)->
41(-1)->9 25 42 
42(-1)->33 41 
43(-1)->8 30 
44(-1)->31 34 
45(-1)->19 
46(-1)->27 
47(-1)->
48(-1)->13 16 22 
49(-1)->23 50 
50(-1)->3 49 
-------
9(-1)->6 23 25 33 41 
22(-1)->4 18 21 29 48 
27(-1)->13 17 30 33 46 
31(-1)->3 4 6 14 44 
23(-1)->4 9 34 49 
25(-1)->9 24 39 41 
4(-1)->22 23 31 
13(-1)->21 27 48 
16(-1)->17 28 48 
21(-1)->2 13 22 
29(-1)->11 19 22 
30(-1)->20 27 43 
33(-1)->9 27 42 
34(-1)->23 35 44 
39(-1)->5 7 25 
41(-1)->9 25 42 
48(-1)->13 16 22 
1(-1)->7 36 
3(-1)->31 50 
6(-1)->9 31 
7(-1)->1 39 
8(-1)->12 43 
17(-1)->16 27 
19(-1)->29 45 
20(-1)->15 30 
42(-1)->33 41 
43(-1)->8 30 
44(-1)->31 34 
49(-1)->23 50 
50(-1)->3 49 
2(-1)->21 
5(-1)->39 
11(-1)->29 
12(-1)->8 
14(-1)->31 
15(-1)->20 
18(-1)->22 
24(-1)->25 
28(-1)->16 
35(-1)->34 
36(-1)->1 
45(-1)->19 
46(-1)->27 
10(-1)->
26(-1)->
32(-1)->
37(-1)->
38(-1)->
40(-1)->
47(-1)->
-------
9 25 41 

10 

26 

32 

37 

38 

40 

47 

****************
****************
41(-1)->9 25 42 
25(-1)->9 24 39 41 
9(-1)->6 23 25 33 41 
22(-1)->4 18 21 29 48 
27(-1)->13 17 30 33 46 
31(-1)->3 4 6 14 44 
23(-1)->4 9 34 49 
4(-1)->22 23 31 
13(-1)->21 27 48 
16(-1)->17 28 48 
21(-1)->2 13 22 
29(-1)->11 19 22 
30(-1)->20 27 43 
33(-1)->9 27 42 
34(-1)->23 35 44 
39(-1)->5 7 25 
48(-1)->13 16 22 
1(-1)->7 36 
3(-1)->31 50 
6(-1)->9 31 
7(-1)->1 39 
8(-1)->12 43 
17(-1)->16 27 
19(-1)->29 45 
20(-1)->15 30 
42(-1)->33 41 
43(-1)->8 30 
44(-1)->31 34 
49(-1)->23 50 
50(-1)->3 49 
2(-1)->21 
5(-1)->39 
11(-1)->29 
12(-1)->8 
14(-1)->31 
15(-1)->20 
18(-1)->22 
24(-1)->25 
28(-1)->16 
35(-1)->34 
36(-1)->1 
45(-1)->19 
46(-1)->27 
****************
10(-1)->
****************
26(-1)->
****************
32(-1)->
****************
37(-1)->
****************
38(-1)->
****************
40(-1)->
****************
47(-1)->
START TIME: 1433711425
START TIME: 1433711425
START TIME: 1433711425
START TIME: 1433711425
START TIME: 1433711425
START TIME: 1433711425
START TIME: 1433711425
START TIME: 1433711425
1(0)->7 36 
2(0)->21 
3(1)->31 50 
4(1)->22 23 31 
5(1)->39 
6(1)->9 31 
7(1)->1 39 
8(0)->12 43 
9(2)->6 23 25 33 41 
10(0)->
11(0)->29 
12(1)->8 
13(1)->21 27 48 
14(1)->31 
15(1)->20 
16(0)->17 28 48 
17(1)->16 27 
18(1)->22 
19(0)->29 45 
20(0)->15 30 
21(2)->2 13 22 
22(0)->4 18 21 29 48 
23(0)->4 9 34 49 
24(0)->25 
25(1)->9 24 39 41 
26(0)->
27(0)->13 17 30 33 46 
28(1)->16 
29(1)->11 19 22 
30(1)->20 27 43 
31(0)->3 4 6 14 44 
32(0)->
33(1)->9 27 42 
34(1)->23 35 44 
35(0)->34 
36(1)->1 
37(0)->
38(0)->
39(0)->5 7 25 
40(0)->
41(0)->9 25 42 
42(2)->33 41 
43(2)->8 30 
44(2)->31 34 
45(1)->19 
46(1)->27 
47(0)->
48(2)->13 16 22 
49(1)->23 50 
50(0)->3 49 
COUNT: 50
COLORS: 3
EDGES: 0
3
50
