1: 2 3 4 5 6 7 8 9 10 11 12 13 14 15 16 17 18 19 20 21 22 23 24 25 26 27 28 29 30 31 32 33 34 35 36 37 38 39 40 41 42 43 44 45 46 47 48 49 50
2: 1 3 4 5 6 7 8 9 10 11 12 13 14 15 16 17 18 19 20 21 22 23 24 25 26 27 28 29 30 31 32 33 34 35 36 37 38 39 40 41 42 43 44 45 46 47 48 49 50
3: 1 2 4 5 6 7 8 9 10 11 12 13 14 15 16 17 18 19 20 21 22 23 24 25 26 27 28 29 30 31 32 33 34 35 36 37 38 39 40 41 42 43 44 45 46 47 48 49
4: 1 2 3 5 6 7 8 9 10 11 12 13 14 15 16 17 18 19 20 21 22 23 24 25 26 27 28 29 30 31 32 33 34 35 36 37 38 39 40 41 42 43 44 45 46 47 48 49
5: 1 2 3 4 6 7 8 9 10 11 12 13 14 15 16 17 18 19 20 21 22 23 24 25 26 27 28 29 30 31 32 33 34 35 36 37 38 39 40 41 42 43 44 45 46 47 48 49 50
6: 1 2 3 4 5 7 8 9 10 11 12 13 14 15 16 17 18 19 20 21 22 23 24 25 26 27 28 30 31 32 33 35 36 37 38 39 41 42 44 45 46 47 48 49 50
7: 1 2 3 4 5 6 8 9 10 11 13 15 16 17 19 20 21 22 23 25 26 27 28 29 30 31 32 33 36 40 41 42 45 46 47 48 49 50
8: 1 2 3 4 5 6 7 9 10 11 12 13 14 15 16 17 19 20 22 23 24 25 26 27 29 30 31 32 33 34 35 36 38 39 42 45 46 48 49 50
9: 1 2 3 4 5 6 7 8 10 11 12 13 14 17 19 21 23 24 25 29 30 32 34 36 37 38 39 40 44 45 46 48 49
10: 1 2 3 4 5 6 7 8 9 11 12 13 14 15 16 17 19 22 23 24 26 28 29 31 32 35 36 37 38 42 45 48
11: 1 2 3 4 5 6 7 8 9 10 13 14 18 19 20 21 22 24 29 32 33 34 35 36 39 40 42 43 44 45 46 50
12: 1 2 3 4 5 6 8 9 10 13 16 20 25 27 30 31 33 34 35 36 37 38 39 40 42 43 44 48
13: 1 2 3 4 5 6 7 8 9 10 11 12 14 15 17 19 21 22 26 28 29 31 33 36 38 41 42 46 49
14: 1 2 3 4 5 6 8 9 10 11 13 18 22 23 24 26 27 28 29 30 32 34 36 39 40 42 45 50
15: 1 2 3 4 5 6 7 8 10 13 17 18 19 20 30 31 35 36 37 45 47 49
16: 1 2 3 4 5 6 7 8 10 12 19 20 22 23 24 25 28 30 33 34 36 37 38 40 41 42 43 45 46 47 50
17: 1 2 3 4 5 6 7 8 9 10 13 15 19 20 24 25 28 29 34 35 36 37 38 39 40 46 47 49
18: 1 2 3 4 5 6 11 14 15 20 22 24 26 31 33 35 36 37 42 43 45 46 47
19: 1 2 3 4 5 6 7 8 9 10 11 13 15 16 17 20 21 22 23 24 27 29 34 35 40 41 45
20: 1 2 3 4 5 6 7 8 11 12 15 16 17 18 19 21 22 26 27 30 32 34 37 40 41 43 44 45 47 50
21: 1 2 3 4 5 6 7 9 11 13 19 20 22 24 27 30 32 35 37 39 40 41 46
22: 1 2 3 4 5 6 7 8 10 11 13 14 16 18 19 20 21 23 24 26 27 29 41 42 46 47 48
23: 1 2 3 4 5 6 7 8 9 10 14 16 19 22 27 28 29 32 34 38 39 42 43 45 50
24: 1 2 3 4 5 6 8 9 10 11 14 16 17 18 19 21 22 25 30 36 37 38 39 41 45 46 47 48 49
25: 1 2 3 4 5 6 7 8 9 12 16 17 24 27 28 29 32 33 34 35 37 39 48 50
26: 1 2 3 4 5 6 7 8 10 13 14 18 20 22 27 28 30 33 35 37 38 40 43 44 49 50
27: 1 2 3 4 5 6 7 8 12 14 19 20 21 22 23 25 26 28 30 32 35 36 38 39 40 47 49
28: 1 2 3 4 5 6 7 10 13 14 16 17 23 25 26 27 29 32 33 36 39 40 43 46 48
29: 1 2 3 4 5 7 8 9 10 11 13 14 17 19 22 23 25 28 33 35 36 41 42 44 45 46 48 49
30: 1 2 3 4 5 6 7 8 9 12 14 15 16 20 21 24 26 27 31 32 35 36 37 38 42 44 45 46 48
31: 1 2 3 4 5 6 7 8 10 12 13 15 18 30 33 34 36 37 38 39 41 42 43 45 47 48 50
32: 1 2 3 4 5 6 7 8 9 10 11 14 20 21 23 25 27 28 30 33 35 36 40 41 46 50
33: 1 2 3 4 5 6 7 8 11 12 13 16 18 25 26 28 29 31 32 36 42 43 46 48 49 50
34: 1 2 3 4 5 8 9 11 12 14 16 17 19 20 23 25 31 36 37 40 42 44 46 47 48 49 50
35: 1 2 3 4 5 6 8 10 11 12 15 17 18 19 21 25 26 27 29 30 32 37 39 42 46 47
36: 1 2 3 4 5 6 7 8 9 10 11 12 13 14 15 16 17 18 24 27 28 29 30 31 32 33 34 37 39 42 43 44 48 49
37: 1 2 3 4 5 6 9 10 12 15 16 17 18 20 21 24 25 26 30 31 34 35 36 39 41 45 46 47 48
38: 1 2 3 4 5 6 8 9 10 12 13 16 17 23 24 26 27 30 31 39 41 42 47 49 50
39: 1 2 3 4 5 6 8 9 11 12 14 17 21 23 24 25 27 28 31 35 36 37 38 42 48
40: 1 2 3 4 5 7 9 11 12 14 16 17 19 20 21 26 27 28 32 34 42 44 46 50
41: 1 2 3 4 5 6 7 13 16 19 20 21 22 24 29 31 32 37 38 42 43 45 46 48 49 50
42: 1 2 3 4 5 6 7 8 10 11 12 13 14 16 18 22 23 29 30 31 33 34 35 36 38 39 40 41 43 45 49
43: 33 2 3 36 5 16 1 41 42 11 12 50 46 48 18 20 23 4 26 28 31
44: 1 34 3 36 5 6 40 9 11 12 45 46 50 20 2 4 26 29 30
45: 1 2 3 4 5 6 7 8 9 10 11 14 15 16 18 19 20 23 24 29 30 31 37 41 42 44 47
46: 1 2 3 4 5 6 7 8 9 11 13 16 17 18 21 22 24 28 29 30 32 33 34 35 37 40 41 43 44 47 49 50
47: 1 2 3 4 5 6 7 15 16 17 18 20 22 24 27 31 34 35 37 38 45 46 48 49 50
48: 1 2 3 4 5 6 7 8 9 10 12 22 24 25 28 29 30 31 33 34 36 37 39 41 43 47 50
49: 1 2 3 4 5 6 7 8 9 13 15 17 24 26 27 29 33 34 36 38 41 42 46 47 50
50: 1 2 5 6 7 8 11 14 16 20 23 25 26 31 32 33 34 38 40 41 43 44 46 47 48 49
-------
1(-1)->2 3 4 5 6 7 8 9 10 11 12 13 14 15 16 17 18 19 20 21 22 23 24 25 26 27 28 29 30 31 32 33 34 35 36 37 38 39 40 41 42 43 44 45 46 47 48 49 50 
2(-1)->1 3 4 5 6 7 8 9 10 11 12 13 14 15 16 17 18 19 20 21 22 23 24 25 26 27 28 29 30 31 32 33 34 35 36 37 38 39 40 41 42 43 44 45 46 47 48 49 50 
3(-1)->1 2 4 5 6 7 8 9 10 11 12 13 14 15 16 17 18 19 20 21 22 23 24 25 26 27 28 29 30 31 32 33 34 35 36 37 38 39 40 41 42 43 44 45 46 47 48 49 
4(-1)->1 2 3 5 6 7 8 9 10 11 12 13 14 15 16 17 18 19 20 21 22 23 24 25 26 27 28 29 30 31 32 33 34 35 36 37 38 39 40 41 42 43 44 45 46 47 48 49 
5(-1)->1 2 3 4 6 7 8 9 10 11 12 13 14 15 16 17 18 19 20 21 22 23 24 25 26 27 28 29 30 31 32 33 34 35 36 37 38 39 40 41 42 43 44 45 46 47 48 49 50 
6(-1)->1 2 3 4 5 7 8 9 10 11 12 13 14 15 16 17 18 19 20 21 22 23 24 25 26 27 28 30 31 32 33 35 36 37 38 39 41 42 44 45 46 47 48 49 50 
7(-1)->1 2 3 4 5 6 8 9 10 11 13 15 16 17 19 20 21 22 23 25 26 27 28 29 30 31 32 33 36 40 41 42 45 46 47 48 49 50 
8(-1)->1 2 3 4 5 6 7 9 10 11 12 13 14 15 16 17 19 20 22 23 24 25 26 27 29 30 31 32 33 34 35 36 38 39 42 45 46 48 49 50 
9(-1)->1 2 3 4 5 6 7 8 10 11 12 13 14 17 19 21 23 24 25 29 30 32 34 36 37 38 39 40 44 45 46 48 49 
10(-1)->1 2 3 4 5 6 7 8 9 11 12 13 14 15 16 17 19 22 23 24 26 28 29 31 32 35 36 37 38 42 45 48 
11(-1)->1 2 3 4 5 6 7 8 9 10 13 14 18 19 20 21 22 24 29 32 33 34 35 36 39 40 42 43 44 45 46 50 
12(-1)->1 2 3 4 5 6 8 9 10 13 16 20 25 27 30 31 33 34 35 36 37 38 39 40 42 43 44 48 
13(-1)->1 2 3 4 5 6 7 8 9 10 11 12 14 15 17 19 21 22 26 28 29 31 33 36 38 41 42 46 49 
14(-1)->1 2 3 4 5 6 8 9 10 11 13 18 22 23 24 26 27 28 29 30 32 34 36 39 40 42 45 50 
15(-1)->1 2 3 4 5 6 7 8 10 13 17 18 19 20 30 31 35 36 37 45 47 49 
16(-1)->1 2 3 4 5 6 7 8 10 12 19 20 22 23 24 25 28 30 33 34 36 37 38 40 41 42 43 45 46 47 50 
17(-1)->1 2 3 4 5 6 7 8 9 10 13 15 19 20 24 25 28 29 34 35 36 37 38 39 40 46 47 49 
18(-1)->1 2 3 4 5 6 11 14 15 20 22 24 26 31 33 35 36 37 42 43 45 46 47 
19(-1)->1 2 3 4 5 6 7 8 9 10 11 13 15 16 17 20 21 22 23 24 27 29 34 35 40 41 45 
20(-1)->1 2 3 4 5 6 7 8 11 12 15 16 17 18 19 21 22 26 27 30 32 34 37 40 41 43 44 45 47 50 
21(-1)->1 2 3 4 5 6 7 9 11 13 19 20 22 24 27 30 32 35 37 39 40 41 46 
22(-1)->1 2 3 4 5 6 7 8 10 11 13 14 16 18 19 20 21 23 24 26 27 29 41 42 46 47 48 
23(-1)->1 2 3 4 5 6 7 8 9 10 14 16 19 22 27 28 29 32 34 38 39 42 43 45 50 
24(-1)->1 2 3 4 5 6 8 9 10 11 14 16 17 18 19 21 22 25 30 36 37 38 39 41 45 46 47 48 49 
25(-1)->1 2 3 4 5 6 7 8 9 12 16 17 24 27 28 29 32 33 34 35 37 39 48 50 
26(-1)->1 2 3 4 5 6 7 8 10 13 14 18 20 22 27 28 30 33 35 37 38 40 43 44 49 50 
27(-1)->1 2 3 4 5 6 7 8 12 14 19 20 21 22 23 25 26 28 30 32 35 36 38 39 40 47 49 
28(-1)->1 2 3 4 5 6 7 10 13 14 16 17 23 25 26 27 29 32 33 36 39 40 43 46 48 
29(-1)->1 2 3 4 5 7 8 9 10 11 13 14 17 19 22 23 25 28 33 35 36 41 42 44 45 46 48 49 
30(-1)->1 2 3 4 5 6 7 8 9 12 14 15 16 20 21 24 26 27 31 32 35 36 37 38 42 44 45 46 48 
31(-1)->1 2 3 4 5 6 7 8 10 12 13 15 18 30 33 34 36 37 38 39 41 42 43 45 47 48 50 
32(-1)->1 2 3 4 5 6 7 8 9 10 11 14 20 21 23 25 27 28 30 33 35 36 40 41 46 50 
33(-1)->1 2 3 4 5 6 7 8 11 12 13 16 18 25 26 28 29 31 32 36 42 43 46 48 49 50 
34(-1)->1 2 3 4 5 8 9 11 12 14 16 17 19 20 23 25 31 36 37 40 42 44 46 47 48 49 50 
35(-1)->1 2 3 4 5 6 8 10 11 12 15 17 18 19 21 25 26 27 29 30 32 37 39 42 46 47 
36(-1)->1 2 3 4 5 6 7 8 9 10 11 12 13 14 15 16 17 18 24 27 28 29 30 31 32 33 34 37 39 42 43 44 48 49 
37(-1)->1 2 3 4 5 6 9 10 12 15 16 17 18 20 21 24 25 26 30 31 34 35 36 39 41 45 46 47 48 
38(-1)->1 2 3 4 5 6 8 9 10 12 13 16 17 23 24 26 27 30 31 39 41 42 47 49 50 
39(-1)->1 2 3 4 5 6 8 9 11 12 14 17 21 23 24 25 27 28 31 35 36 37 38 42 48 
40(-1)->1 2 3 4 5 7 9 11 12 14 16 17 19 20 21 26 27 28 32 34 42 44 46 50 
41(-1)->1 2 3 4 5 6 7 13 16 19 20 21 22 24 29 31 32 37 38 42 43 45 46 48 49 50 
42(-1)->1 2 3 4 5 6 7 8 10 11 12 13 14 16 18 22 23 29 30 31 33 34 35 36 38 39 40 41 43 45 49 
43(-1)->1 2 3 4 5 11 12 16 18 20 23 26 28 31 33 36 41 42 46 48 50 
44(-1)->1 2 3 4 5 6 9 11 12 20 26 29 30 34 36 40 45 46 50 
45(-1)->1 2 3 4 5 6 7 8 9 10 11 14 15 16 18 19 20 23 24 29 30 31 37 41 42 44 47 
46(-1)->1 2 3 4 5 6 7 8 9 11 13 16 17 18 21 22 24 28 29 30 32 33 34 35 37 40 41 43 44 47 49 50 
47(-1)->1 2 3 4 5 6 7 15 16 17 18 20 22 24 27 31 34 35 37 38 45 46 48 49 50 
48(-1)->1 2 3 4 5 6 7 8 9 10 12 22 24 25 28 29 30 31 33 34 36 37 39 41 43 47 50 
49(-1)->1 2 3 4 5 6 7 8 9 13 15 17 24 26 27 29 33 34 36 38 41 42 46 47 50 
50(-1)->1 2 5 6 7 8 11 14 16 20 23 25 26 31 32 33 34 38 40 41 43 44 46 47 48 49 
-------
1(-1)->2 3 4 5 6 7 8 9 10 11 12 13 14 15 16 17 18 19 20 21 22 23 24 25 26 27 28 29 30 31 32 33 34 35 36 37 38 39 40 41 42 43 44 45 46 47 48 49 50 
2(-1)->1 3 4 5 6 7 8 9 10 11 12 13 14 15 16 17 18 19 20 21 22 23 24 25 26 27 28 29 30 31 32 33 34 35 36 37 38 39 40 41 42 43 44 45 46 47 48 49 50 
5(-1)->1 2 3 4 6 7 8 9 10 11 12 13 14 15 16 17 18 19 20 21 22 23 24 25 26 27 28 29 30 31 32 33 34 35 36 37 38 39 40 41 42 43 44 45 46 47 48 49 50 
3(-1)->1 2 4 5 6 7 8 9 10 11 12 13 14 15 16 17 18 19 20 21 22 23 24 25 26 27 28 29 30 31 32 33 34 35 36 37 38 39 40 41 42 43 44 45 46 47 48 49 
4(-1)->1 2 3 5 6 7 8 9 10 11 12 13 14 15 16 17 18 19 20 21 22 23 24 25 26 27 28 29 30 31 32 33 34 35 36 37 38 39 40 41 42 43 44 45 46 47 48 49 
6(-1)->1 2 3 4 5 7 8 9 10 11 12 13 14 15 16 17 18 19 20 21 22 23 24 25 26 27 28 30 31 32 33 35 36 37 38 39 41 42 44 45 46 47 48 49 50 
8(-1)->1 2 3 4 5 6 7 9 10 11 12 13 14 15 16 17 19 20 22 23 24 25 26 27 29 30 31 32 33 34 35 36 38 39 42 45 46 48 49 50 
7(-1)->1 2 3 4 5 6 8 9 10 11 13 15 16 17 19 20 21 22 23 25 26 27 28 29 30 31 32 33 36 40 41 42 45 46 47 48 49 50 
36(-1)->1 2 3 4 5 6 7 8 9 10 11 12 13 14 15 16 17 18 24 27 28 29 30 31 32 33 34 37 39 42 43 44 48 49 
9(-1)->1 2 3 4 5 6 7 8 10 11 12 13 14 17 19 21 23 24 25 29 30 32 34 36 37 38 39 40 44 45 46 48 49 
10(-1)->1 2 3 4 5 6 7 8 9 11 12 13 14 15 16 17 19 22 23 24 26 28 29 31 32 35 36 37 38 42 45 48 
11(-1)->1 2 3 4 5 6 7 8 9 10 13 14 18 19 20 21 22 24 29 32 33 34 35 36 39 40 42 43 44 45 46 50 
46(-1)->1 2 3 4 5 6 7 8 9 11 13 16 17 18 21 22 24 28 29 30 32 33 34 35 37 40 41 43 44 47 49 50 
16(-1)->1 2 3 4 5 6 7 8 10 12 19 20 22 23 24 25 28 30 33 34 36 37 38 40 41 42 43 45 46 47 50 
42(-1)->1 2 3 4 5 6 7 8 10 11 12 13 14 16 18 22 23 29 30 31 33 34 35 36 38 39 40 41 43 45 49 
20(-1)->1 2 3 4 5 6 7 8 11 12 15 16 17 18 19 21 22 26 27 30 32 34 37 40 41 43 44 45 47 50 
13(-1)->1 2 3 4 5 6 7 8 9 10 11 12 14 15 17 19 21 22 26 28 29 31 33 36 38 41 42 46 49 
24(-1)->1 2 3 4 5 6 8 9 10 11 14 16 17 18 19 21 22 25 30 36 37 38 39 41 45 46 47 48 49 
30(-1)->1 2 3 4 5 6 7 8 9 12 14 15 16 20 21 24 26 27 31 32 35 36 37 38 42 44 45 46 48 
37(-1)->1 2 3 4 5 6 9 10 12 15 16 17 18 20 21 24 25 26 30 31 34 35 36 39 41 45 46 47 48 
12(-1)->1 2 3 4 5 6 8 9 10 13 16 20 25 27 30 31 33 34 35 36 37 38 39 40 42 43 44 48 
14(-1)->1 2 3 4 5 6 8 9 10 11 13 18 22 23 24 26 27 28 29 30 32 34 36 39 40 42 45 50 
17(-1)->1 2 3 4 5 6 7 8 9 10 13 15 19 20 24 25 28 29 34 35 36 37 38 39 40 46 47 49 
29(-1)->1 2 3 4 5 7 8 9 10 11 13 14 17 19 22 23 25 28 33 35 36 41 42 44 45 46 48 49 
19(-1)->1 2 3 4 5 6 7 8 9 10 11 13 15 16 17 20 21 22 23 24 27 29 34 35 40 41 45 
22(-1)->1 2 3 4 5 6 7 8 10 11 13 14 16 18 19 20 21 23 24 26 27 29 41 42 46 47 48 
27(-1)->1 2 3 4 5 6 7 8 12 14 19 20 21 22 23 25 26 28 30 32 35 36 38 39 40 47 49 
31(-1)->1 2 3 4 5 6 7 8 10 12 13 15 18 30 33 34 36 37 38 39 41 42 43 45 47 48 50 
34(-1)->1 2 3 4 5 8 9 11 12 14 16 17 19 20 23 25 31 36 37 40 42 44 46 47 48 49 50 
45(-1)->1 2 3 4 5 6 7 8 9 10 11 14 15 16 18 19 20 23 24 29 30 31 37 41 42 44 47 
48(-1)->1 2 3 4 5 6 7 8 9 10 12 22 24 25 28 29 30 31 33 34 36 37 39 41 43 47 50 
26(-1)->1 2 3 4 5 6 7 8 10 13 14 18 20 22 27 28 30 33 35 37 38 40 43 44 49 50 
32(-1)->1 2 3 4 5 6 7 8 9 10 11 14 20 21 23 25 27 28 30 33 35 36 40 41 46 50 
33(-1)->1 2 3 4 5 6 7 8 11 12 13 16 18 25 26 28 29 31 32 36 42 43 46 48 49 50 
35(-1)->1 2 3 4 5 6 8 10 11 12 15 17 18 19 21 25 26 27 29 30 32 37 39 42 46 47 
41(-1)->1 2 3 4 5 6 7 13 16 19 20 21 22 24 29 31 32 37 38 42 43 45 46 48 49 50 
50(-1)->1 2 5 6 7 8 11 14 16 20 23 25 26 31 32 33 34 38 40 41 43 44 46 47 48 49 
23(-1)->1 2 3 4 5 6 7 8 9 10 14 16 19 22 27 28 29 32 34 38 39 42 43 45 50 
28(-1)->1 2 3 4 5 6 7 10 13 14 16 17 23 25 26 27 29 32 33 36 39 40 43 46 48 
38(-1)->1 2 3 4 5 6 8 9 10 12 13 16 17 23 24 26 27 30 31 39 41 42 47 49 50 
39(-1)->1 2 3 4 5 6 8 9 11 12 14 17 21 23 24 25 27 28 31 35 36 37 38 42 48 
47(-1)->1 2 3 4 5 6 7 15 16 17 18 20 22 24 27 31 34 35 37 38 45 46 48 49 50 
49(-1)->1 2 3 4 5 6 7 8 9 13 15 17 24 26 27 29 33 34 36 38 41 42 46 47 50 
25(-1)->1 2 3 4 5 6 7 8 9 12 16 17 24 27 28 29 32 33 34 35 37 39 48 50 
40(-1)->1 2 3 4 5 7 9 11 12 14 16 17 19 20 21 26 27 28 32 34 42 44 46 50 
18(-1)->1 2 3 4 5 6 11 14 15 20 22 24 26 31 33 35 36 37 42 43 45 46 47 
21(-1)->1 2 3 4 5 6 7 9 11 13 19 20 22 24 27 30 32 35 37 39 40 41 46 
15(-1)->1 2 3 4 5 6 7 8 10 13 17 18 19 20 30 31 35 36 37 45 47 49 
43(-1)->1 2 3 4 5 11 12 16 18 20 23 26 28 31 33 36 41 42 46 48 50 
44(-1)->1 2 3 4 5 6 9 11 12 20 26 29 30 34 36 40 45 46 50 
-------
1 2 3 4 5 6 7 8 9 10 11 13 36 

-------
13(-1)->1 2 3 4 5 6 7 8 9 10 11 12 14 15 17 19 21 22 26 28 29 31 33 36 38 41 42 46 49 
11(-1)->1 2 3 4 5 6 7 8 9 10 13 14 18 19 20 21 22 24 29 32 33 34 35 36 39 40 42 43 44 45 46 50 
10(-1)->1 2 3 4 5 6 7 8 9 11 12 13 14 15 16 17 19 22 23 24 26 28 29 31 32 35 36 37 38 42 45 48 
9(-1)->1 2 3 4 5 6 7 8 10 11 12 13 14 17 19 21 23 24 25 29 30 32 34 36 37 38 39 40 44 45 46 48 49 
36(-1)->1 2 3 4 5 6 7 8 9 10 11 12 13 14 15 16 17 18 24 27 28 29 30 31 32 33 34 37 39 42 43 44 48 49 
7(-1)->1 2 3 4 5 6 8 9 10 11 13 15 16 17 19 20 21 22 23 25 26 27 28 29 30 31 32 33 36 40 41 42 45 46 47 48 49 50 
8(-1)->1 2 3 4 5 6 7 9 10 11 12 13 14 15 16 17 19 20 22 23 24 25 26 27 29 30 31 32 33 34 35 36 38 39 42 45 46 48 49 50 
6(-1)->1 2 3 4 5 7 8 9 10 11 12 13 14 15 16 17 18 19 20 21 22 23 24 25 26 27 28 30 31 32 33 35 36 37 38 39 41 42 44 45 46 47 48 49 50 
4(-1)->1 2 3 5 6 7 8 9 10 11 12 13 14 15 16 17 18 19 20 21 22 23 24 25 26 27 28 29 30 31 32 33 34 35 36 37 38 39 40 41 42 43 44 45 46 47 48 49 
3(-1)->1 2 4 5 6 7 8 9 10 11 12 13 14 15 16 17 18 19 20 21 22 23 24 25 26 27 28 29 30 31 32 33 34 35 36 37 38 39 40 41 42 43 44 45 46 47 48 49 
5(-1)->1 2 3 4 6 7 8 9 10 11 12 13 14 15 16 17 18 19 20 21 22 23 24 25 26 27 28 29 30 31 32 33 34 35 36 37 38 39 40 41 42 43 44 45 46 47 48 49 50 
2(-1)->1 3 4 5 6 7 8 9 10 11 12 13 14 15 16 17 18 19 20 21 22 23 24 25 26 27 28 29 30 31 32 33 34 35 36 37 38 39 40 41 42 43 44 45 46 47 48 49 50 
1(-1)->2 3 4 5 6 7 8 9 10 11 12 13 14 15 16 17 18 19 20 21 22 23 24 25 26 27 28 29 30 31 32 33 34 35 36 37 38 39 40 41 42 43 44 45 46 47 48 49 50 
46(-1)->1 2 3 4 5 6 7 8 9 11 13 16 17 18 21 22 24 28 29 30 32 33 34 35 37 40 41 43 44 47 49 50 
16(-1)->1 2 3 4 5 6 7 8 10 12 19 20 22 23 24 25 28 30 33 34 36 37 38 40 41 42 43 45 46 47 50 
42(-1)->1 2 3 4 5 6 7 8 10 11 12 13 14 16 18 22 23 29 30 31 33 34 35 36 38 39 40 41 43 45 49 
20(-1)->1 2 3 4 5 6 7 8 11 12 15 16 17 18 19 21 22 26 27 30 32 34 37 40 41 43 44 45 47 50 
24(-1)->1 2 3 4 5 6 8 9 10 11 14 16 17 18 19 21 22 25 30 36 37 38 39 41 45 46 47 48 49 
30(-1)->1 2 3 4 5 6 7 8 9 12 14 15 16 20 21 24 26 27 31 32 35 36 37 38 42 44 45 46 48 
37(-1)->1 2 3 4 5 6 9 10 12 15 16 17 18 20 21 24 25 26 30 31 34 35 36 39 41 45 46 47 48 
12(-1)->1 2 3 4 5 6 8 9 10 13 16 20 25 27 30 31 33 34 35 36 37 38 39 40 42 43 44 48 
14(-1)->1 2 3 4 5 6 8 9 10 11 13 18 22 23 24 26 27 28 29 30 32 34 36 39 40 42 45 50 
17(-1)->1 2 3 4 5 6 7 8 9 10 13 15 19 20 24 25 28 29 34 35 36 37 38 39 40 46 47 49 
29(-1)->1 2 3 4 5 7 8 9 10 11 13 14 17 19 22 23 25 28 33 35 36 41 42 44 45 46 48 49 
19(-1)->1 2 3 4 5 6 7 8 9 10 11 13 15 16 17 20 21 22 23 24 27 29 34 35 40 41 45 
22(-1)->1 2 3 4 5 6 7 8 10 11 13 14 16 18 19 20 21 23 24 26 27 29 41 42 46 47 48 
27(-1)->1 2 3 4 5 6 7 8 12 14 19 20 21 22 23 25 26 28 30 32 35 36 38 39 40 47 49 
31(-1)->1 2 3 4 5 6 7 8 10 12 13 15 18 30 33 34 36 37 38 39 41 42 43 45 47 48 50 
34(-1)->1 2 3 4 5 8 9 11 12 14 16 17 19 20 23 25 31 36 37 40 42 44 46 47 48 49 50 
45(-1)->1 2 3 4 5 6 7 8 9 10 11 14 15 16 18 19 20 23 24 29 30 31 37 41 42 44 47 
48(-1)->1 2 3 4 5 6 7 8 9 10 12 22 24 25 28 29 30 31 33 34 36 37 39 41 43 47 50 
26(-1)->1 2 3 4 5 6 7 8 10 13 14 18 20 22 27 28 30 33 35 37 38 40 43 44 49 50 
32(-1)->1 2 3 4 5 6 7 8 9 10 11 14 20 21 23 25 27 28 30 33 35 36 40 41 46 50 
33(-1)->1 2 3 4 5 6 7 8 11 12 13 16 18 25 26 28 29 31 32 36 42 43 46 48 49 50 
35(-1)->1 2 3 4 5 6 8 10 11 12 15 17 18 19 21 25 26 27 29 30 32 37 39 42 46 47 
41(-1)->1 2 3 4 5 6 7 13 16 19 20 21 22 24 29 31 32 37 38 42 43 45 46 48 49 50 
50(-1)->1 2 5 6 7 8 11 14 16 20 23 25 26 31 32 33 34 38 40 41 43 44 46 47 48 49 
23(-1)->1 2 3 4 5 6 7 8 9 10 14 16 19 22 27 28 29 32 34 38 39 42 43 45 50 
28(-1)->1 2 3 4 5 6 7 10 13 14 16 17 23 25 26 27 29 32 33 36 39 40 43 46 48 
38(-1)->1 2 3 4 5 6 8 9 10 12 13 16 17 23 24 26 27 30 31 39 41 42 47 49 50 
39(-1)->1 2 3 4 5 6 8 9 11 12 14 17 21 23 24 25 27 28 31 35 36 37 38 42 48 
47(-1)->1 2 3 4 5 6 7 15 16 17 18 20 22 24 27 31 34 35 37 38 45 46 48 49 50 
49(-1)->1 2 3 4 5 6 7 8 9 13 15 17 24 26 27 29 33 34 36 38 41 42 46 47 50 
25(-1)->1 2 3 4 5 6 7 8 9 12 16 17 24 27 28 29 32 33 34 35 37 39 48 50 
40(-1)->1 2 3 4 5 7 9 11 12 14 16 17 19 20 21 26 27 28 32 34 42 44 46 50 
18(-1)->1 2 3 4 5 6 11 14 15 20 22 24 26 31 33 35 36 37 42 43 45 46 47 
21(-1)->1 2 3 4 5 6 7 9 11 13 19 20 22 24 27 30 32 35 37 39 40 41 46 
15(-1)->1 2 3 4 5 6 7 8 10 13 17 18 19 20 30 31 35 36 37 45 47 49 
43(-1)->1 2 3 4 5 11 12 16 18 20 23 26 28 31 33 36 41 42 46 48 50 
44(-1)->1 2 3 4 5 6 9 11 12 20 26 29 30 34 36 40 45 46 50 
-------
START TIME: 1433714089
-------
1(12)->2 3 4 5 6 7 8 9 10 11 12 13 14 15 16 17 18 19 20 21 22 23 24 25 26 27 28 29 30 31 32 33 34 35 36 37 38 39 40 41 42 43 44 45 46 47 48 49 50 
2(11)->1 3 4 5 6 7 8 9 10 11 12 13 14 15 16 17 18 19 20 21 22 23 24 25 26 27 28 29 30 31 32 33 34 35 36 37 38 39 40 41 42 43 44 45 46 47 48 49 50 
3(9)->1 2 4 5 6 7 8 9 10 11 12 13 14 15 16 17 18 19 20 21 22 23 24 25 26 27 28 29 30 31 32 33 34 35 36 37 38 39 40 41 42 43 44 45 46 47 48 49 
4(8)->1 2 3 5 6 7 8 9 10 11 12 13 14 15 16 17 18 19 20 21 22 23 24 25 26 27 28 29 30 31 32 33 34 35 36 37 38 39 40 41 42 43 44 45 46 47 48 49 
5(10)->1 2 3 4 6 7 8 9 10 11 12 13 14 15 16 17 18 19 20 21 22 23 24 25 26 27 28 29 30 31 32 33 34 35 36 37 38 39 40 41 42 43 44 45 46 47 48 49 50 
6(7)->1 2 3 4 5 7 8 9 10 11 12 13 14 15 16 17 18 19 20 21 22 23 24 25 26 27 28 30 31 32 33 35 36 37 38 39 41 42 44 45 46 47 48 49 50 
7(5)->1 2 3 4 5 6 8 9 10 11 13 15 16 17 19 20 21 22 23 25 26 27 28 29 30 31 32 33 36 40 41 42 45 46 47 48 49 50 
8(6)->1 2 3 4 5 6 7 9 10 11 12 13 14 15 16 17 19 20 22 23 24 25 26 27 29 30 31 32 33 34 35 36 38 39 42 45 46 48 49 50 
9(3)->1 2 3 4 5 6 7 8 10 11 12 13 14 17 19 21 23 24 25 29 30 32 34 36 37 38 39 40 44 45 46 48 49 
10(2)->1 2 3 4 5 6 7 8 9 11 12 13 14 15 16 17 19 22 23 24 26 28 29 31 32 35 36 37 38 42 45 48 
11(1)->1 2 3 4 5 6 7 8 9 10 13 14 18 19 20 21 22 24 29 32 33 34 35 36 39 40 42 43 44 45 46 50 
12(5)->1 2 3 4 5 6 8 9 10 13 16 20 25 27 30 31 33 34 35 36 37 38 39 40 42 43 44 48 
13(0)->1 2 3 4 5 6 7 8 9 10 11 12 14 15 17 19 21 22 26 28 29 31 33 36 38 41 42 46 49 
14(13)->1 2 3 4 5 6 8 9 10 11 13 18 22 23 24 26 27 28 29 30 32 34 36 39 40 42 45 50 
15(3)->1 2 3 4 5 6 7 8 10 13 17 18 19 20 30 31 35 36 37 45 47 49 
16(0)->1 2 3 4 5 6 7 8 10 12 19 20 22 23 24 25 28 30 33 34 36 37 38 40 41 42 43 45 46 47 50 
17(1)->1 2 3 4 5 6 7 8 9 10 13 15 19 20 24 25 28 29 34 35 36 37 38 39 40 46 47 49 
18(0)->1 2 3 4 5 6 11 14 15 20 22 24 26 31 33 35 36 37 42 43 45 46 47 
19(4)->1 2 3 4 5 6 7 8 9 10 11 13 15 16 17 20 21 22 23 24 27 29 34 35 40 41 45 
20(2)->1 2 3 4 5 6 7 8 11 12 15 16 17 18 19 21 22 26 27 30 32 34 37 40 41 43 44 45 47 50 
21(13)->1 2 3 4 5 6 7 9 11 13 19 20 22 24 27 30 32 35 37 39 40 41 46 
22(14)->1 2 3 4 5 6 7 8 10 11 13 14 16 18 19 20 21 23 24 26 27 29 41 42 46 47 48 
23(1)->1 2 3 4 5 6 7 8 9 10 14 16 19 22 27 28 29 32 34 38 39 42 43 45 50 
24(5)->1 2 3 4 5 6 8 9 10 11 14 16 17 18 19 21 22 25 30 36 37 38 39 41 45 46 47 48 49 
25(4)->1 2 3 4 5 6 7 8 9 12 16 17 24 27 28 29 32 33 34 35 37 39 48 50 
26(4)->1 2 3 4 5 6 7 8 10 13 14 18 20 22 27 28 30 33 35 37 38 40 43 44 49 50 
27(3)->1 2 3 4 5 6 7 8 12 14 19 20 21 22 23 25 26 28 30 32 35 36 38 39 40 47 49 
28(6)->1 2 3 4 5 6 7 10 13 14 16 17 23 25 26 27 29 32 33 36 39 40 43 46 48 
29(7)->1 2 3 4 5 7 8 9 10 11 13 14 17 19 22 23 25 28 33 35 36 41 42 44 45 46 48 49 
30(1)->1 2 3 4 5 6 7 8 9 12 14 15 16 20 21 24 26 27 31 32 35 36 37 38 42 44 45 46 48 
31(13)->1 2 3 4 5 6 7 8 10 12 13 15 18 30 33 34 36 37 38 39 41 42 43 45 47 48 50 
32(0)->1 2 3 4 5 6 7 8 9 10 11 14 20 21 23 25 27 28 30 33 35 36 40 41 46 50 
33(14)->1 2 3 4 5 6 7 8 11 12 13 16 18 25 26 28 29 31 32 36 42 43 46 48 49 50 
34(7)->1 2 3 4 5 8 9 11 12 14 16 17 19 20 23 25 31 36 37 40 42 44 46 47 48 49 50 
35(14)->1 2 3 4 5 6 8 10 11 12 15 17 18 19 21 25 26 27 29 30 32 37 39 42 46 47 
36(4)->1 2 3 4 5 6 7 8 9 10 11 12 13 14 15 16 17 18 24 27 28 29 30 31 32 33 34 37 39 42 43 44 48 49 
37(6)->1 2 3 4 5 6 9 10 12 15 16 17 18 20 21 24 25 26 30 31 34 35 36 39 41 45 46 47 48 
38(14)->1 2 3 4 5 6 8 9 10 12 13 16 17 23 24 26 27 30 31 39 41 42 47 49 50 
39(2)->1 2 3 4 5 6 8 9 11 12 14 17 21 23 24 25 27 28 31 35 36 37 38 42 48 
40(14)->1 2 3 4 5 7 9 11 12 14 16 17 19 20 21 26 27 28 32 34 42 44 46 50 
41(1)->1 2 3 4 5 6 7 13 16 19 20 21 22 24 29 31 32 37 38 42 43 45 46 48 49 50 
42(3)->1 2 3 4 5 6 7 8 10 11 12 13 14 16 18 22 23 29 30 31 33 34 35 36 38 39 40 41 43 45 49 
43(7)->1 2 3 4 5 11 12 16 18 20 23 26 28 31 33 36 41 42 46 48 50 
44(0)->1 2 3 4 5 6 9 11 12 20 26 29 30 34 36 40 45 46 50 
45(14)->1 2 3 4 5 6 7 8 9 10 11 14 15 16 18 19 20 23 24 29 30 31 37 41 42 44 47 
46(2)->1 2 3 4 5 6 7 8 9 11 13 16 17 18 21 22 24 28 29 30 32 33 34 35 37 40 41 43 44 47 49 50 
47(4)->1 2 3 4 5 6 7 15 16 17 18 20 22 24 27 31 34 35 37 38 45 46 48 49 50 
48(0)->1 2 3 4 5 6 7 8 9 10 12 22 24 25 28 29 30 31 33 34 36 37 39 41 43 47 50 
49(13)->1 2 3 4 5 6 7 8 9 13 15 17 24 26 27 29 33 34 36 38 41 42 46 47 50 
50(3)->1 2 5 6 7 8 11 14 16 20 23 25 26 31 32 33 34 38 40 41 43 44 46 47 48 49 
COUNT: 8454
COLORS: 15
15
8454
