1: 2 3 4 5 6 7 8 9 10 11 12 13 14 15 16 17 18 19 20 21 22 23 24 25 26 27 28 29 30 31 32 33 34 35 36 37 38 39 40 41 42 43 44 45 46 47 48 49 50
2: 1 3 4 5 6 7 8 9 10 11 12 13 14 15 16 17 18 19 20 21 22 23 24 25 26 27 28 29 30 31 32 33 34 35 36 37 38 39 40 41 42 43 44 45 46 47 48 49 50
3: 1 2 4 5 6 7 8 9 10 11 12 13 14 15 16 17 18 19 20 21 22 23 24 25 26 27 28 29 30 31 32 33 34 35 36 37 38 39 40 41 42 43 44 45 46 47 48 49
4: 1 2 3 5 6 7 8 9 10 11 12 13 14 15 16 17 18 20 21 22 23 24 25 28 29 30 31 32 34 35 36 37 39 40 41 43 44 46 47 48 50
5: 1 2 3 4 6 7 8 10 12 13 14 15 16 17 18 19 20 21 23 25 26 27 28 30 31 32 35 36 37 39 40 41 44 48 49 50
6: 1 2 3 4 5 7 8 10 12 14 16 17 18 19 20 21 23 24 27 29 30 31 35 36 37 39 42 43 45 47 49
7: 1 2 3 4 5 6 8 9 10 11 13 14 17 19 20 21 23 24 29 30 31 32 33 34 35 36 37 39 41 43 48 49
8: 1 2 3 4 5 6 7 10 13 14 15 21 23 24 25 26 29 31 32 35 36 37 38 41 42 43 46 47 49 50
9: 1 2 3 36 37 38 39 7 12 45 46 49 50 35 20 21 22 23 24 4 31
10: 1 2 3 4 5 6 7 8 12 15 20 21 28 29 30 36 38 42 43 45 46 48
11: 1 2 3 4 7 13 16 21 25 27 29 30 34 35 36 37 38 39 40 42 48 50
12: 1 2 3 4 5 6 9 10 13 15 16 17 19 21 23 24 27 30 33 35 36 37 39 43 44 46 48 49
13: 32 33 2 35 1 5 38 7 8 12 11 44 34 45 50 3 4
14: 1 2 3 4 5 6 7 8 15 16 18 19 20 21 22 23 27 28 30 42 44 45 46 50
15: 1 2 3 4 5 8 10 12 14 16 17 21 23 26 27 30 31 32 36 37 40 43 45 47
16: 1 2 3 4 5 6 11 12 14 15 17 20 21 23 25 27 29 31 32 33 35 37 40 41 43 45 49
17: 1 2 3 4 5 6 7 12 15 16 18 19 20 21 23 25 26 30 34 35 43 45 47
18: 1 2 3 4 5 6 14 17 19 24 27 31 33 34 35 36 37 38 39 42 44 46 49 50
19: 1 2 3 5 6 7 12 14 17 18 20 21 22 25 26 27 31 33 34 36 37 40 41 42 43 45 47 48
20: 1 2 3 4 5 6 7 9 10 14 16 17 19 22 27 28 29 33 35 37 39 46 47
21: 1 2 3 4 5 6 7 8 9 10 11 12 14 15 16 17 19 23 25 26 29 31 37 46 47 48 50
22: 32 33 2 35 36 37 3 1 40 9 43 44 34 14 19 20 46 23 4 26 27
23: 1 2 3 4 5 6 7 8 9 12 14 15 16 17 21 22 24 25 30 32 33 38 40 43 44 47
24: 1 34 3 36 37 38 7 8 9 43 44 2 12 47 18 23 4 6 27 30 31
25: 1 2 3 4 5 8 11 16 17 19 21 23 26 27 28 29 30 31 32 33 36 38 42 44 48 50
26: 1 2 3 5 8 15 17 19 21 22 25 27 29 31 33 35 36 37 38 41 43 45 46
27: 1 2 3 5 6 11 12 14 15 16 18 19 20 22 24 25 26 29 31 35 37 40 42 43 49 50
28: 32 33 34 3 36 37 1 42 2 14 47 49 20 25 10 4 5
29: 1 2 3 4 6 7 8 10 11 16 20 21 25 26 27 33 34 35 37 38 45 47 48
30: 1 2 3 4 5 6 7 10 11 12 14 15 17 23 24 25 33 35 37 39 40 41 44 45 46 50
31: 1 2 3 4 5 6 7 8 9 15 16 18 19 21 24 25 26 27 33 34 40 42 45 48
32: 1 2 3 4 5 7 8 13 15 16 22 23 25 28 36 40 41 43 44 45 48 49
33: 1 2 3 7 12 13 16 18 19 20 22 23 25 26 28 29 30 31 35 38 40 41 42 43 44 48 49
34: 3 1 2 11 4 37 17 41 43 13 45 48 49 18 19 22 24 7 28 29 31
35: 1 2 3 4 5 6 7 8 9 11 12 13 16 17 18 20 22 26 27 29 30 33 39 43 46 48 50
36: 1 2 3 4 5 6 7 8 9 10 11 12 15 18 19 22 24 25 26 28 32 37 42 48 50
37: 1 2 3 4 5 6 7 8 9 11 12 15 16 18 19 20 21 22 24 26 27 28 29 30 34 36 39 40 43 46 47 49 50
38: 33 2 43 1 40 9 10 11 13 46 45 48 49 18 3 8 23 24 25 26 29
39: 1 2 35 4 37 6 7 9 42 11 44 12 48 18 3 20 30 5
40: 1 2 3 4 5 11 15 16 19 22 23 27 30 31 32 33 37 38 44 45 47 49 50
41: 32 1 34 3 4 5 33 8 42 7 45 16 19 2 26 30
42: 1 33 2 3 36 6 39 8 41 10 11 45 14 47 18 19 46 25 27 28 31
43: 1 2 3 4 6 7 8 10 12 15 16 17 19 22 23 24 26 27 32 33 34 35 37 38 46 48 49
44: 32 33 2 50 1 5 39 40 12 13 14 49 18 3 4 22 23 24 25 30
45: 1 2 3 6 9 10 13 14 15 16 17 19 26 29 30 31 32 34 38 40 41 42 47 49 50
46: 1 2 3 4 8 9 10 12 14 18 20 21 22 26 30 35 37 38 42 43 47 49
47: 1 2 3 4 6 8 15 17 19 20 21 23 24 28 29 37 40 42 45 46 49 50
48: 1 2 3 4 5 7 10 11 12 19 21 25 29 31 32 33 34 35 36 38 39 43 49
49: 1 2 3 5 6 7 8 9 12 16 18 27 28 32 33 34 37 38 40 43 44 45 46 47 48 50
50: 1 2 4 5 8 9 11 13 14 18 21 25 27 30 35 36 37 40 44 45 47 49
-------
1(-1)->2 3 4 5 6 7 8 9 10 11 12 13 14 15 16 17 18 19 20 21 22 23 24 25 26 27 28 29 30 31 32 33 34 35 36 37 38 39 40 41 42 43 44 45 46 47 48 49 50 
2(-1)->1 3 4 5 6 7 8 9 10 11 12 13 14 15 16 17 18 19 20 21 22 23 24 25 26 27 28 29 30 31 32 33 34 35 36 37 38 39 40 41 42 43 44 45 46 47 48 49 50 
3(-1)->1 2 4 5 6 7 8 9 10 11 12 13 14 15 16 17 18 19 20 21 22 23 24 25 26 27 28 29 30 31 32 33 34 35 36 37 38 39 40 41 42 43 44 45 46 47 48 49 
4(-1)->1 2 3 5 6 7 8 9 10 11 12 13 14 15 16 17 18 20 21 22 23 24 25 28 29 30 31 32 34 35 36 37 39 40 41 43 44 46 47 48 50 
5(-1)->1 2 3 4 6 7 8 10 12 13 14 15 16 17 18 19 20 21 23 25 26 27 28 30 31 32 35 36 37 39 40 41 44 48 49 50 
6(-1)->1 2 3 4 5 7 8 10 12 14 16 17 18 19 20 21 23 24 27 29 30 31 35 36 37 39 42 43 45 47 49 
7(-1)->1 2 3 4 5 6 8 9 10 11 13 14 17 19 20 21 23 24 29 30 31 32 33 34 35 36 37 39 41 43 48 49 
8(-1)->1 2 3 4 5 6 7 10 13 14 15 21 23 24 25 26 29 31 32 35 36 37 38 41 42 43 46 47 49 50 
9(-1)->1 2 3 4 7 12 20 21 22 23 24 31 35 36 37 38 39 45 46 49 50 
10(-1)->1 2 3 4 5 6 7 8 12 15 20 21 28 29 30 36 38 42 43 45 46 48 
11(-1)->1 2 3 4 7 13 16 21 25 27 29 30 34 35 36 37 38 39 40 42 48 50 
12(-1)->1 2 3 4 5 6 9 10 13 15 16 17 19 21 23 24 27 30 33 35 36 37 39 43 44 46 48 49 
13(-1)->1 2 3 4 5 7 8 11 12 32 33 34 35 38 44 45 50 
14(-1)->1 2 3 4 5 6 7 8 15 16 18 19 20 21 22 23 27 28 30 42 44 45 46 50 
15(-1)->1 2 3 4 5 8 10 12 14 16 17 21 23 26 27 30 31 32 36 37 40 43 45 47 
16(-1)->1 2 3 4 5 6 11 12 14 15 17 20 21 23 25 27 29 31 32 33 35 37 40 41 43 45 49 
17(-1)->1 2 3 4 5 6 7 12 15 16 18 19 20 21 23 25 26 30 34 35 43 45 47 
18(-1)->1 2 3 4 5 6 14 17 19 24 27 31 33 34 35 36 37 38 39 42 44 46 49 50 
19(-1)->1 2 3 5 6 7 12 14 17 18 20 21 22 25 26 27 31 33 34 36 37 40 41 42 43 45 47 48 
20(-1)->1 2 3 4 5 6 7 9 10 14 16 17 19 22 27 28 29 33 35 37 39 46 47 
21(-1)->1 2 3 4 5 6 7 8 9 10 11 12 14 15 16 17 19 23 25 26 29 31 37 46 47 48 50 
22(-1)->1 2 3 4 9 14 19 20 23 26 27 32 33 34 35 36 37 40 43 44 46 
23(-1)->1 2 3 4 5 6 7 8 9 12 14 15 16 17 21 22 24 25 30 32 33 38 40 43 44 47 
24(-1)->1 2 3 4 6 7 8 9 12 18 23 27 30 31 34 36 37 38 43 44 47 
25(-1)->1 2 3 4 5 8 11 16 17 19 21 23 26 27 28 29 30 31 32 33 36 38 42 44 48 50 
26(-1)->1 2 3 5 8 15 17 19 21 22 25 27 29 31 33 35 36 37 38 41 43 45 46 
27(-1)->1 2 3 5 6 11 12 14 15 16 18 19 20 22 24 25 26 29 31 35 37 40 42 43 49 50 
28(-1)->1 2 3 4 5 10 14 20 25 32 33 34 36 37 42 47 49 
29(-1)->1 2 3 4 6 7 8 10 11 16 20 21 25 26 27 33 34 35 37 38 45 47 48 
30(-1)->1 2 3 4 5 6 7 10 11 12 14 15 17 23 24 25 33 35 37 39 40 41 44 45 46 50 
31(-1)->1 2 3 4 5 6 7 8 9 15 16 18 19 21 24 25 26 27 33 34 40 42 45 48 
32(-1)->1 2 3 4 5 7 8 13 15 16 22 23 25 28 36 40 41 43 44 45 48 49 
33(-1)->1 2 3 7 12 13 16 18 19 20 22 23 25 26 28 29 30 31 35 38 40 41 42 43 44 48 49 
34(-1)->1 2 3 4 7 11 13 17 18 19 22 24 28 29 31 37 41 43 45 48 49 
35(-1)->1 2 3 4 5 6 7 8 9 11 12 13 16 17 18 20 22 26 27 29 30 33 39 43 46 48 50 
36(-1)->1 2 3 4 5 6 7 8 9 10 11 12 15 18 19 22 24 25 26 28 32 37 42 48 50 
37(-1)->1 2 3 4 5 6 7 8 9 11 12 15 16 18 19 20 21 22 24 26 27 28 29 30 34 36 39 40 43 46 47 49 50 
38(-1)->1 2 3 8 9 10 11 13 18 23 24 25 26 29 33 40 43 45 46 48 49 
39(-1)->1 2 3 4 5 6 7 9 11 12 18 20 30 35 37 42 44 48 
40(-1)->1 2 3 4 5 11 15 16 19 22 23 27 30 31 32 33 37 38 44 45 47 49 50 
41(-1)->1 2 3 4 5 7 8 16 19 26 30 32 33 34 42 45 
42(-1)->1 2 3 6 8 10 11 14 18 19 25 27 28 31 33 36 39 41 45 46 47 
43(-1)->1 2 3 4 6 7 8 10 12 15 16 17 19 22 23 24 26 27 32 33 34 35 37 38 46 48 49 
44(-1)->1 2 3 4 5 12 13 14 18 22 23 24 25 30 32 33 39 40 49 50 
45(-1)->1 2 3 6 9 10 13 14 15 16 17 19 26 29 30 31 32 34 38 40 41 42 47 49 50 
46(-1)->1 2 3 4 8 9 10 12 14 18 20 21 22 26 30 35 37 38 42 43 47 49 
47(-1)->1 2 3 4 6 8 15 17 19 20 21 23 24 28 29 37 40 42 45 46 49 50 
48(-1)->1 2 3 4 5 7 10 11 12 19 21 25 29 31 32 33 34 35 36 38 39 43 49 
49(-1)->1 2 3 5 6 7 8 9 12 16 18 27 28 32 33 34 37 38 40 43 44 45 46 47 48 50 
50(-1)->1 2 4 5 8 9 11 13 14 18 21 25 27 30 35 36 37 40 44 45 47 49 
-------
1(-1)->2 3 4 5 6 7 8 9 10 11 12 13 14 15 16 17 18 19 20 21 22 23 24 25 26 27 28 29 30 31 32 33 34 35 36 37 38 39 40 41 42 43 44 45 46 47 48 49 50 
2(-1)->1 3 4 5 6 7 8 9 10 11 12 13 14 15 16 17 18 19 20 21 22 23 24 25 26 27 28 29 30 31 32 33 34 35 36 37 38 39 40 41 42 43 44 45 46 47 48 49 50 
3(-1)->1 2 4 5 6 7 8 9 10 11 12 13 14 15 16 17 18 19 20 21 22 23 24 25 26 27 28 29 30 31 32 33 34 35 36 37 38 39 40 41 42 43 44 45 46 47 48 49 
4(-1)->1 2 3 5 6 7 8 9 10 11 12 13 14 15 16 17 18 20 21 22 23 24 25 28 29 30 31 32 34 35 36 37 39 40 41 43 44 46 47 48 50 
5(-1)->1 2 3 4 6 7 8 10 12 13 14 15 16 17 18 19 20 21 23 25 26 27 28 30 31 32 35 36 37 39 40 41 44 48 49 50 
37(-1)->1 2 3 4 5 6 7 8 9 11 12 15 16 18 19 20 21 22 24 26 27 28 29 30 34 36 39 40 43 46 47 49 50 
7(-1)->1 2 3 4 5 6 8 9 10 11 13 14 17 19 20 21 23 24 29 30 31 32 33 34 35 36 37 39 41 43 48 49 
6(-1)->1 2 3 4 5 7 8 10 12 14 16 17 18 19 20 21 23 24 27 29 30 31 35 36 37 39 42 43 45 47 49 
8(-1)->1 2 3 4 5 6 7 10 13 14 15 21 23 24 25 26 29 31 32 35 36 37 38 41 42 43 46 47 49 50 
12(-1)->1 2 3 4 5 6 9 10 13 15 16 17 19 21 23 24 27 30 33 35 36 37 39 43 44 46 48 49 
19(-1)->1 2 3 5 6 7 12 14 17 18 20 21 22 25 26 27 31 33 34 36 37 40 41 42 43 45 47 48 
16(-1)->1 2 3 4 5 6 11 12 14 15 17 20 21 23 25 27 29 31 32 33 35 37 40 41 43 45 49 
21(-1)->1 2 3 4 5 6 7 8 9 10 11 12 14 15 16 17 19 23 25 26 29 31 37 46 47 48 50 
33(-1)->1 2 3 7 12 13 16 18 19 20 22 23 25 26 28 29 30 31 35 38 40 41 42 43 44 48 49 
35(-1)->1 2 3 4 5 6 7 8 9 11 12 13 16 17 18 20 22 26 27 29 30 33 39 43 46 48 50 
43(-1)->1 2 3 4 6 7 8 10 12 15 16 17 19 22 23 24 26 27 32 33 34 35 37 38 46 48 49 
23(-1)->1 2 3 4 5 6 7 8 9 12 14 15 16 17 21 22 24 25 30 32 33 38 40 43 44 47 
25(-1)->1 2 3 4 5 8 11 16 17 19 21 23 26 27 28 29 30 31 32 33 36 38 42 44 48 50 
27(-1)->1 2 3 5 6 11 12 14 15 16 18 19 20 22 24 25 26 29 31 35 37 40 42 43 49 50 
30(-1)->1 2 3 4 5 6 7 10 11 12 14 15 17 23 24 25 33 35 37 39 40 41 44 45 46 50 
49(-1)->1 2 3 5 6 7 8 9 12 16 18 27 28 32 33 34 37 38 40 43 44 45 46 47 48 50 
36(-1)->1 2 3 4 5 6 7 8 9 10 11 12 15 18 19 22 24 25 26 28 32 37 42 48 50 
45(-1)->1 2 3 6 9 10 13 14 15 16 17 19 26 29 30 31 32 34 38 40 41 42 47 49 50 
14(-1)->1 2 3 4 5 6 7 8 15 16 18 19 20 21 22 23 27 28 30 42 44 45 46 50 
15(-1)->1 2 3 4 5 8 10 12 14 16 17 21 23 26 27 30 31 32 36 37 40 43 45 47 
18(-1)->1 2 3 4 5 6 14 17 19 24 27 31 33 34 35 36 37 38 39 42 44 46 49 50 
31(-1)->1 2 3 4 5 6 7 8 9 15 16 18 19 21 24 25 26 27 33 34 40 42 45 48 
17(-1)->1 2 3 4 5 6 7 12 15 16 18 19 20 21 23 25 26 30 34 35 43 45 47 
20(-1)->1 2 3 4 5 6 7 9 10 14 16 17 19 22 27 28 29 33 35 37 39 46 47 
26(-1)->1 2 3 5 8 15 17 19 21 22 25 27 29 31 33 35 36 37 38 41 43 45 46 
29(-1)->1 2 3 4 6 7 8 10 11 16 20 21 25 26 27 33 34 35 37 38 45 47 48 
40(-1)->1 2 3 4 5 11 15 16 19 22 23 27 30 31 32 33 37 38 44 45 47 49 50 
48(-1)->1 2 3 4 5 7 10 11 12 19 21 25 29 31 32 33 34 35 36 38 39 43 49 
10(-1)->1 2 3 4 5 6 7 8 12 15 20 21 28 29 30 36 38 42 43 45 46 48 
11(-1)->1 2 3 4 7 13 16 21 25 27 29 30 34 35 36 37 38 39 40 42 48 50 
32(-1)->1 2 3 4 5 7 8 13 15 16 22 23 25 28 36 40 41 43 44 45 48 49 
46(-1)->1 2 3 4 8 9 10 12 14 18 20 21 22 26 30 35 37 38 42 43 47 49 
47(-1)->1 2 3 4 6 8 15 17 19 20 21 23 24 28 29 37 40 42 45 46 49 50 
50(-1)->1 2 4 5 8 9 11 13 14 18 21 25 27 30 35 36 37 40 44 45 47 49 
9(-1)->1 2 3 4 7 12 20 21 22 23 24 31 35 36 37 38 39 45 46 49 50 
22(-1)->1 2 3 4 9 14 19 20 23 26 27 32 33 34 35 36 37 40 43 44 46 
24(-1)->1 2 3 4 6 7 8 9 12 18 23 27 30 31 34 36 37 38 43 44 47 
34(-1)->1 2 3 4 7 11 13 17 18 19 22 24 28 29 31 37 41 43 45 48 49 
38(-1)->1 2 3 8 9 10 11 13 18 23 24 25 26 29 33 40 43 45 46 48 49 
42(-1)->1 2 3 6 8 10 11 14 18 19 25 27 28 31 33 36 39 41 45 46 47 
44(-1)->1 2 3 4 5 12 13 14 18 22 23 24 25 30 32 33 39 40 49 50 
39(-1)->1 2 3 4 5 6 7 9 11 12 18 20 30 35 37 42 44 48 
13(-1)->1 2 3 4 5 7 8 11 12 32 33 34 35 38 44 45 50 
28(-1)->1 2 3 4 5 10 14 20 25 32 33 34 36 37 42 47 49 
41(-1)->1 2 3 4 5 7 8 16 19 26 30 32 33 34 42 45 
-------
1 2 3 4 5 6 7 8 14 21 23 

-------
14(-1)->1 2 3 4 5 6 7 8 15 16 18 19 20 21 22 23 27 28 30 42 44 45 46 50 
23(-1)->1 2 3 4 5 6 7 8 9 12 14 15 16 17 21 22 24 25 30 32 33 38 40 43 44 47 
21(-1)->1 2 3 4 5 6 7 8 9 10 11 12 14 15 16 17 19 23 25 26 29 31 37 46 47 48 50 
8(-1)->1 2 3 4 5 6 7 10 13 14 15 21 23 24 25 26 29 31 32 35 36 37 38 41 42 43 46 47 49 50 
6(-1)->1 2 3 4 5 7 8 10 12 14 16 17 18 19 20 21 23 24 27 29 30 31 35 36 37 39 42 43 45 47 49 
7(-1)->1 2 3 4 5 6 8 9 10 11 13 14 17 19 20 21 23 24 29 30 31 32 33 34 35 36 37 39 41 43 48 49 
5(-1)->1 2 3 4 6 7 8 10 12 13 14 15 16 17 18 19 20 21 23 25 26 27 28 30 31 32 35 36 37 39 40 41 44 48 49 50 
4(-1)->1 2 3 5 6 7 8 9 10 11 12 13 14 15 16 17 18 20 21 22 23 24 25 28 29 30 31 32 34 35 36 37 39 40 41 43 44 46 47 48 50 
3(-1)->1 2 4 5 6 7 8 9 10 11 12 13 14 15 16 17 18 19 20 21 22 23 24 25 26 27 28 29 30 31 32 33 34 35 36 37 38 39 40 41 42 43 44 45 46 47 48 49 
2(-1)->1 3 4 5 6 7 8 9 10 11 12 13 14 15 16 17 18 19 20 21 22 23 24 25 26 27 28 29 30 31 32 33 34 35 36 37 38 39 40 41 42 43 44 45 46 47 48 49 50 
1(-1)->2 3 4 5 6 7 8 9 10 11 12 13 14 15 16 17 18 19 20 21 22 23 24 25 26 27 28 29 30 31 32 33 34 35 36 37 38 39 40 41 42 43 44 45 46 47 48 49 50 
37(-1)->1 2 3 4 5 6 7 8 9 11 12 15 16 18 19 20 21 22 24 26 27 28 29 30 34 36 39 40 43 46 47 49 50 
12(-1)->1 2 3 4 5 6 9 10 13 15 16 17 19 21 23 24 27 30 33 35 36 37 39 43 44 46 48 49 
19(-1)->1 2 3 5 6 7 12 14 17 18 20 21 22 25 26 27 31 33 34 36 37 40 41 42 43 45 47 48 
16(-1)->1 2 3 4 5 6 11 12 14 15 17 20 21 23 25 27 29 31 32 33 35 37 40 41 43 45 49 
33(-1)->1 2 3 7 12 13 16 18 19 20 22 23 25 26 28 29 30 31 35 38 40 41 42 43 44 48 49 
35(-1)->1 2 3 4 5 6 7 8 9 11 12 13 16 17 18 20 22 26 27 29 30 33 39 43 46 48 50 
43(-1)->1 2 3 4 6 7 8 10 12 15 16 17 19 22 23 24 26 27 32 33 34 35 37 38 46 48 49 
25(-1)->1 2 3 4 5 8 11 16 17 19 21 23 26 27 28 29 30 31 32 33 36 38 42 44 48 50 
27(-1)->1 2 3 5 6 11 12 14 15 16 18 19 20 22 24 25 26 29 31 35 37 40 42 43 49 50 
30(-1)->1 2 3 4 5 6 7 10 11 12 14 15 17 23 24 25 33 35 37 39 40 41 44 45 46 50 
49(-1)->1 2 3 5 6 7 8 9 12 16 18 27 28 32 33 34 37 38 40 43 44 45 46 47 48 50 
36(-1)->1 2 3 4 5 6 7 8 9 10 11 12 15 18 19 22 24 25 26 28 32 37 42 48 50 
45(-1)->1 2 3 6 9 10 13 14 15 16 17 19 26 29 30 31 32 34 38 40 41 42 47 49 50 
15(-1)->1 2 3 4 5 8 10 12 14 16 17 21 23 26 27 30 31 32 36 37 40 43 45 47 
18(-1)->1 2 3 4 5 6 14 17 19 24 27 31 33 34 35 36 37 38 39 42 44 46 49 50 
31(-1)->1 2 3 4 5 6 7 8 9 15 16 18 19 21 24 25 26 27 33 34 40 42 45 48 
17(-1)->1 2 3 4 5 6 7 12 15 16 18 19 20 21 23 25 26 30 34 35 43 45 47 
20(-1)->1 2 3 4 5 6 7 9 10 14 16 17 19 22 27 28 29 33 35 37 39 46 47 
26(-1)->1 2 3 5 8 15 17 19 21 22 25 27 29 31 33 35 36 37 38 41 43 45 46 
29(-1)->1 2 3 4 6 7 8 10 11 16 20 21 25 26 27 33 34 35 37 38 45 47 48 
40(-1)->1 2 3 4 5 11 15 16 19 22 23 27 30 31 32 33 37 38 44 45 47 49 50 
48(-1)->1 2 3 4 5 7 10 11 12 19 21 25 29 31 32 33 34 35 36 38 39 43 49 
10(-1)->1 2 3 4 5 6 7 8 12 15 20 21 28 29 30 36 38 42 43 45 46 48 
11(-1)->1 2 3 4 7 13 16 21 25 27 29 30 34 35 36 37 38 39 40 42 48 50 
32(-1)->1 2 3 4 5 7 8 13 15 16 22 23 25 28 36 40 41 43 44 45 48 49 
46(-1)->1 2 3 4 8 9 10 12 14 18 20 21 22 26 30 35 37 38 42 43 47 49 
47(-1)->1 2 3 4 6 8 15 17 19 20 21 23 24 28 29 37 40 42 45 46 49 50 
50(-1)->1 2 4 5 8 9 11 13 14 18 21 25 27 30 35 36 37 40 44 45 47 49 
9(-1)->1 2 3 4 7 12 20 21 22 23 24 31 35 36 37 38 39 45 46 49 50 
22(-1)->1 2 3 4 9 14 19 20 23 26 27 32 33 34 35 36 37 40 43 44 46 
24(-1)->1 2 3 4 6 7 8 9 12 18 23 27 30 31 34 36 37 38 43 44 47 
34(-1)->1 2 3 4 7 11 13 17 18 19 22 24 28 29 31 37 41 43 45 48 49 
38(-1)->1 2 3 8 9 10 11 13 18 23 24 25 26 29 33 40 43 45 46 48 49 
42(-1)->1 2 3 6 8 10 11 14 18 19 25 27 28 31 33 36 39 41 45 46 47 
44(-1)->1 2 3 4 5 12 13 14 18 22 23 24 25 30 32 33 39 40 49 50 
39(-1)->1 2 3 4 5 6 7 9 11 12 18 20 30 35 37 42 44 48 
13(-1)->1 2 3 4 5 7 8 11 12 32 33 34 35 38 44 45 50 
28(-1)->1 2 3 4 5 10 14 20 25 32 33 34 36 37 42 47 49 
41(-1)->1 2 3 4 5 7 8 16 19 26 30 32 33 34 42 45 
-------
START TIME: 1433713649
10000
20000
30000
40000
50000
60000
-------
1(10)->2 3 4 5 6 7 8 9 10 11 12 13 14 15 16 17 18 19 20 21 22 23 24 25 26 27 28 29 30 31 32 33 34 35 36 37 38 39 40 41 42 43 44 45 46 47 48 49 50 
2(9)->1 3 4 5 6 7 8 9 10 11 12 13 14 15 16 17 18 19 20 21 22 23 24 25 26 27 28 29 30 31 32 33 34 35 36 37 38 39 40 41 42 43 44 45 46 47 48 49 50 
3(8)->1 2 4 5 6 7 8 9 10 11 12 13 14 15 16 17 18 19 20 21 22 23 24 25 26 27 28 29 30 31 32 33 34 35 36 37 38 39 40 41 42 43 44 45 46 47 48 49 
4(7)->1 2 3 5 6 7 8 9 10 11 12 13 14 15 16 17 18 20 21 22 23 24 25 28 29 30 31 32 34 35 36 37 39 40 41 43 44 46 47 48 50 
5(6)->1 2 3 4 6 7 8 10 12 13 14 15 16 17 18 19 20 21 23 25 26 27 28 30 31 32 35 36 37 39 40 41 44 48 49 50 
6(4)->1 2 3 4 5 7 8 10 12 14 16 17 18 19 20 21 23 24 27 29 30 31 35 36 37 39 42 43 45 47 49 
7(5)->1 2 3 4 5 6 8 9 10 11 13 14 17 19 20 21 23 24 29 30 31 32 33 34 35 36 37 39 41 43 48 49 
8(3)->1 2 3 4 5 6 7 10 13 14 15 21 23 24 25 26 29 31 32 35 36 37 38 41 42 43 46 47 49 50 
9(6)->1 2 3 4 7 12 20 21 22 23 24 31 35 36 37 38 39 45 46 49 50 
10(0)->1 2 3 4 5 6 7 8 12 15 20 21 28 29 30 36 38 42 43 45 46 48 
11(3)->1 2 3 4 7 13 16 21 25 27 29 30 34 35 36 37 38 39 40 42 48 50 
12(3)->1 2 3 4 5 6 9 10 13 15 16 17 19 21 23 24 27 30 33 35 36 37 39 43 44 46 48 49 
13(1)->1 2 3 4 5 7 8 11 12 32 33 34 35 38 44 45 50 
14(0)->1 2 3 4 5 6 7 8 15 16 18 19 20 21 22 23 27 28 30 42 44 45 46 50 
15(4)->1 2 3 4 5 8 10 12 14 16 17 21 23 26 27 30 31 32 36 37 40 43 45 47 
16(5)->1 2 3 4 5 6 11 12 14 15 17 20 21 23 25 27 29 31 32 33 35 37 40 41 43 45 49 
17(11)->1 2 3 4 5 6 7 12 15 16 18 19 20 21 23 25 26 30 34 35 43 45 47 
18(3)->1 2 3 4 5 6 14 17 19 24 27 31 33 34 35 36 37 38 39 42 44 46 49 50 
19(1)->1 2 3 5 6 7 12 14 17 18 20 21 22 25 26 27 31 33 34 36 37 40 41 42 43 45 47 48 
20(2)->1 2 3 4 5 6 7 9 10 14 16 17 19 22 27 28 29 33 35 37 39 46 47 
21(2)->1 2 3 4 5 6 7 8 9 10 11 12 14 15 16 17 19 23 25 26 29 31 37 46 47 48 50 
22(3)->1 2 3 4 9 14 19 20 23 26 27 32 33 34 35 36 37 40 43 44 46 
23(1)->1 2 3 4 5 6 7 8 9 12 14 15 16 17 21 22 24 25 30 32 33 38 40 43 44 47 
24(11)->1 2 3 4 6 7 8 9 12 18 23 27 30 31 34 36 37 38 43 44 47 
25(4)->1 2 3 4 5 8 11 16 17 19 21 23 26 27 28 29 30 31 32 33 36 38 42 44 48 50 
26(5)->1 2 3 5 8 15 17 19 21 22 25 27 29 31 33 35 36 37 38 41 43 45 46 
27(7)->1 2 3 5 6 11 12 14 15 16 18 19 20 22 24 25 26 29 31 35 37 40 42 43 49 50 
28(3)->1 2 3 4 5 10 14 20 25 32 33 34 36 37 42 47 49 
29(1)->1 2 3 4 6 7 8 10 11 16 20 21 25 26 27 33 34 35 37 38 45 47 48 
30(2)->1 2 3 4 5 6 7 10 11 12 14 15 17 23 24 25 33 35 37 39 40 41 44 45 46 50 
31(0)->1 2 3 4 5 6 7 8 9 15 16 18 19 21 24 25 26 27 33 34 40 42 45 48 
32(0)->1 2 3 4 5 7 8 13 15 16 22 23 25 28 36 40 41 43 44 45 48 49 
33(6)->1 2 3 7 12 13 16 18 19 20 22 23 25 26 28 29 30 31 35 38 40 41 42 43 44 48 49 
34(6)->1 2 3 4 7 11 13 17 18 19 22 24 28 29 31 37 41 43 45 48 49 
35(0)->1 2 3 4 5 6 7 8 9 11 12 13 16 17 18 20 22 26 27 29 30 33 39 43 46 48 50 
36(2)->1 2 3 4 5 6 7 8 9 10 11 12 15 18 19 22 24 25 26 28 32 37 42 48 50 
37(0)->1 2 3 4 5 6 7 8 9 11 12 15 16 18 19 20 21 22 24 26 27 28 29 30 34 36 39 40 43 46 47 49 50 
38(7)->1 2 3 8 9 10 11 13 18 23 24 25 26 29 33 40 43 45 46 48 49 
39(1)->1 2 3 4 5 6 7 9 11 12 18 20 30 35 37 42 44 48 
40(11)->1 2 3 4 5 11 15 16 19 22 23 27 30 31 32 33 37 38 44 45 47 49 50 
41(4)->1 2 3 4 5 7 8 16 19 26 30 32 33 34 42 45 
42(11)->1 2 3 6 8 10 11 14 18 19 25 27 28 31 33 36 39 41 45 46 47 
43(2)->1 2 3 4 6 7 8 10 12 15 16 17 19 22 23 24 26 27 32 33 34 35 37 38 46 48 49 
44(5)->1 2 3 4 5 12 13 14 18 22 23 24 25 30 32 33 39 40 49 50 
45(3)->1 2 3 6 9 10 13 14 15 16 17 19 26 29 30 31 32 34 38 40 41 42 47 49 50 
46(4)->1 2 3 4 8 9 10 12 14 18 20 21 22 26 30 35 37 38 42 43 47 49 
47(5)->1 2 3 4 6 8 15 17 19 20 21 23 24 28 29 37 40 42 45 46 49 50 
48(11)->1 2 3 4 5 7 10 11 12 19 21 25 29 31 32 33 34 35 36 38 39 43 49 
49(1)->1 2 3 5 6 7 8 9 12 16 18 27 28 32 33 34 37 38 40 43 44 45 46 47 48 50 
50(8)->1 2 4 5 8 9 11 13 14 18 21 25 27 30 35 36 37 40 44 45 47 49 
COUNT: 63503
COLORS: 12
12
63503
