1: 36
2: 16 8 15
3: 
4: 8
5: 27 41 10 11 30
6: 12 26 35 36 38
7: 17
8: 32 2 4
9: 33
10: 16 12 5 23
11: 40 5
12: 24 10 6
13: 18 20 14
14: 41 44 13 47
15: 2 47
16: 10 35 2
17: 7
18: 29 46 13
19: 
20: 13 39
21: 49
22: 48 25 50
23: 10 27
24: 32 12
25: 35 22
26: 44 6
27: 5 23
28: 34
29: 18 36
30: 32 50 5
31: 44
32: 8 24 30
33: 48 9 37
34: 28
35: 16 25 6
36: 1 29 6
37: 33
38: 6
39: 20
40: 11
41: 5 14
42: 
43: 
44: 26 47 14 31
45: 
46: 18
47: 44 14 15
48: 33 22
49: 21
50: 30 22
-------
1(-1)->36 
2(-1)->8 15 16 
3(-1)->
4(-1)->8 
5(-1)->10 11 27 30 41 
6(-1)->12 26 35 36 38 
7(-1)->17 
8(-1)->2 4 32 
9(-1)->33 
10(-1)->5 12 16 23 
11(-1)->5 40 
12(-1)->6 10 24 
13(-1)->14 18 20 
14(-1)->13 41 44 47 
15(-1)->2 47 
16(-1)->2 10 35 
17(-1)->7 
18(-1)->13 29 46 
19(-1)->
20(-1)->13 39 
21(-1)->49 
22(-1)->25 48 50 
23(-1)->10 27 
24(-1)->12 32 
25(-1)->22 35 
26(-1)->6 44 
27(-1)->5 23 
28(-1)->34 
29(-1)->18 36 
30(-1)->5 32 50 
31(-1)->44 
32(-1)->8 24 30 
33(-1)->9 37 48 
34(-1)->28 
35(-1)->6 16 25 
36(-1)->1 6 29 
37(-1)->33 
38(-1)->6 
39(-1)->20 
40(-1)->11 
41(-1)->5 14 
42(-1)->
43(-1)->
44(-1)->14 26 31 47 
45(-1)->
46(-1)->18 
47(-1)->14 15 44 
48(-1)->22 33 
49(-1)->21 
50(-1)->22 30 
-------
5(-1)->10 11 27 30 41 
6(-1)->12 26 35 36 38 
10(-1)->5 12 16 23 
14(-1)->13 41 44 47 
44(-1)->14 26 31 47 
2(-1)->8 15 16 
8(-1)->2 4 32 
12(-1)->6 10 24 
13(-1)->14 18 20 
16(-1)->2 10 35 
18(-1)->13 29 46 
22(-1)->25 48 50 
30(-1)->5 32 50 
32(-1)->8 24 30 
33(-1)->9 37 48 
35(-1)->6 16 25 
36(-1)->1 6 29 
47(-1)->14 15 44 
11(-1)->5 40 
15(-1)->2 47 
20(-1)->13 39 
23(-1)->10 27 
24(-1)->12 32 
25(-1)->22 35 
26(-1)->6 44 
27(-1)->5 23 
29(-1)->18 36 
41(-1)->5 14 
48(-1)->22 33 
50(-1)->22 30 
1(-1)->36 
4(-1)->8 
7(-1)->17 
9(-1)->33 
17(-1)->7 
21(-1)->49 
28(-1)->34 
31(-1)->44 
34(-1)->28 
37(-1)->33 
38(-1)->6 
39(-1)->20 
40(-1)->11 
46(-1)->18 
49(-1)->21 
3(-1)->
19(-1)->
42(-1)->
43(-1)->
45(-1)->
-------
5 10 

3 

7 17 

19 

21 49 

28 34 

42 

43 

45 

****************
****************
10(-1)->5 12 16 23 
5(-1)->10 11 27 30 41 
6(-1)->12 26 35 36 38 
14(-1)->13 41 44 47 
44(-1)->14 26 31 47 
2(-1)->8 15 16 
8(-1)->2 4 32 
12(-1)->6 10 24 
13(-1)->14 18 20 
16(-1)->2 10 35 
18(-1)->13 29 46 
22(-1)->25 48 50 
30(-1)->5 32 50 
32(-1)->8 24 30 
33(-1)->9 37 48 
35(-1)->6 16 25 
36(-1)->1 6 29 
47(-1)->14 15 44 
11(-1)->5 40 
15(-1)->2 47 
20(-1)->13 39 
23(-1)->10 27 
24(-1)->12 32 
25(-1)->22 35 
26(-1)->6 44 
27(-1)->5 23 
29(-1)->18 36 
41(-1)->5 14 
48(-1)->22 33 
50(-1)->22 30 
1(-1)->36 
4(-1)->8 
9(-1)->33 
31(-1)->44 
37(-1)->33 
38(-1)->6 
39(-1)->20 
40(-1)->11 
46(-1)->18 
****************
3(-1)->
****************
17(-1)->7 
7(-1)->17 
****************
19(-1)->
****************
49(-1)->21 
21(-1)->49 
****************
34(-1)->28 
28(-1)->34 
****************
42(-1)->
****************
43(-1)->
****************
45(-1)->
START TIME: 1433711425
START TIME: 1433711425
START TIME: 1433711425
START TIME: 1433711425
START TIME: 1433711425
START TIME: 1433711425
START TIME: 1433711425
START TIME: 1433711425
START TIME: 1433711425
1(0)->36 
2(0)->8 15 16 
3(0)->
4(0)->8 
5(1)->10 11 27 30 41 
6(0)->12 26 35 36 38 
7(1)->17 
8(1)->2 4 32 
9(1)->33 
10(0)->5 12 16 23 
11(0)->5 40 
12(1)->6 10 24 
13(1)->14 18 20 
14(0)->13 41 44 47 
15(1)->2 47 
16(1)->2 10 35 
17(0)->7 
18(0)->13 29 46 
19(0)->
20(0)->13 39 
21(1)->49 
22(0)->25 48 50 
23(1)->10 27 
24(0)->12 32 
25(1)->22 35 
26(2)->6 44 
27(0)->5 23 
28(1)->34 
29(2)->18 36 
30(0)->5 32 50 
31(0)->44 
32(2)->8 24 30 
33(0)->9 37 48 
34(0)->28 
35(2)->6 16 25 
36(1)->1 6 29 
37(1)->33 
38(1)->6 
39(1)->20 
40(1)->11 
41(2)->5 14 
42(0)->
43(0)->
44(1)->14 26 31 47 
45(0)->
46(1)->18 
47(2)->14 15 44 
48(1)->22 33 
49(0)->21 
50(1)->22 30 
COUNT: 85
COLORS: 3
EDGES: 0
3
85
