1: 2 3 4 5 6 7 8 9 10 11 12 13 14 15 16 17 18 19 20 21 22 23 24 25 26 27 28 29 30 31 32 33 34 35 36 37 38 39 40 41 42 43 44 45 46 47 48 49
2: 1 3 4 5 6 7 8 9 10 11 12 13 14 15 16 17 18 19 20 21 22 23 24 25 26 27 28 29 30 31 32 33 34 35 36 37 38 39 40 41 42 43 44 45 46 47 48 49
3: 1 2 4 5 6 7 8 9 10 11 12 13 14 15 16 17 18 19 20 21 22 23 24 25 26 27 28 29 30 31 32 33 34 35 36 37 38 39 40 42 44 45 46 48 49
4: 1 2 3 5 6 7 8 9 10 11 12 13 15 16 17 18 19 20 21 22 23 24 25 26 27 28 30 32 34 35 36 38 44 45 46
5: 1 2 3 4 6 7 8 10 12 17 19 21 23 25 26 27 28 30 32 34 35 36 39 41 43 46 47 48
6: 1 2 3 4 5 7 8 9 10 11 12 16 17 18 21 23 26 27 28 30 34 39 40 41 46 48 49 50
7: 1 2 3 4 5 6 8 11 17 18 22 24 25 26 28 29 30 31 32 33 37 39 44 47 48
8: 1 2 3 4 5 6 7 9 10 11 15 16 17 21 22 26 29 30 31 34 40 41 47 50
9: 3 1 34 35 4 40 38 8 42 2 46 48 49 19 20 6 23 26 30 31
10: 1 2 3 4 5 6 8 11 12 16 18 22 24 26 28 29 34 35 36 39 41 42 46 48 49 50
11: 32 1 2 3 36 38 6 7 8 10 12 45 46 47 16 49 21 4 42 30
12: 1 2 3 4 5 6 10 11 15 16 17 23 24 26 28 29 30 31 32 36 37 39 40 44
13: 16 2 3 36 37 1 40 41 43 48 18 22 4 24 25 28 29 30
14: 33 2 3 36 1 40 46 48 17 22 23 24 28
15: 32 1 34 3 4 8 42 12 2 40 19 23 24 25 26 31
16: 33 34 3 4 6 1 8 42 11 12 13 46 10 24 2 27 29
17: 1 2 3 4 5 6 7 8 42 39 12 14 47 49 24 27 31
18: 1 2 3 4 37 6 7 40 42 43 44 45 13 48 50 19 20 23 10 31
19: 32 1 2 34 4 5 3 39 41 43 50 47 48 49 18 35 9 22 23 24 15
20: 32 33 18 3 4 38 1 40 9 42 2 45 49 50 22 24 27 30 31
21: 1 2 3 4 5 6 8 11 22 23 24 25 27 30 31 33 34 36 38 40 41 42 45 46
22: 3 1 34 35 36 39 8 10 43 13 14 48 19 20 21 7 2 26 27 4
23: 32 1 2 3 4 37 6 40 44 46 12 14 15 49 18 19 21 9 24 5
24: 1 2 3 4 7 10 12 13 14 15 16 17 19 20 21 23 27 29 31 34 36 45 48
25: 33 34 3 4 37 7 15 42 2 13 47 50 1 21 27 5
26: 1 2 27 4 5 6 7 8 9 42 29 45 12 47 50 3 22 36 15 10
27: 1 2 3 4 5 6 16 17 20 21 22 24 25 26 28 29 31 36 41 42 43 50
28: 32 1 2 3 4 5 6 7 10 12 13 14 48 49 27 31
29: 33 2 35 1 37 38 7 8 41 10 12 13 46 47 16 49 3 24 26 27 44
30: 32 33 2 3 4 5 38 12 8 9 1 11 44 13 46 45 40 20 21 7 6
31: 33 2 3 1 37 38 7 8 9 39 12 47 15 17 18 20 21 40 24 27 28
32: 1 2 3 4 5 38 7 40 41 11 12 15 49 19 20 23 36 28 44 30
33: 48 2 35 1 38 7 40 41 39 14 47 16 49 3 20 21 43 25 29 30 31
34: 3 1 2 35 4 5 6 40 9 10 43 46 15 16 8 50 19 21 22 24 25
35: 1 34 3 4 5 33 9 10 39 44 2 45 48 19 22 29
36: 1 2 3 4 5 10 11 12 13 14 21 22 24 26 27 32 37 38 44 45 47 48 50
37: 1 2 3 36 39 42 18 12 13 46 48 49 50 23 7 25 29 31
38: 32 33 2 3 4 1 9 11 44 46 48 49 20 21 36 29 30 31
39: 33 2 3 1 37 35 7 40 10 43 12 17 50 19 22 6 5 31
40: 1 2 3 6 8 9 12 13 14 15 18 20 21 23 30 31 32 33 34 39 45 50
41: 32 33 2 5 6 1 8 10 44 13 46 48 19 21 27 29
42: 1 2 3 17 37 48 15 9 10 11 45 47 16 49 18 20 21 25 26 27
43: 33 34 1 5 39 18 13 46 47 50 19 22 2 27
44: 32 1 2 35 36 38 7 41 12 47 18 3 23 4 29 30
45: 1 2 3 36 40 42 11 50 46 47 49 18 35 20 21 24 4 26 30
46: 1 34 43 4 37 38 9 10 11 45 14 16 3 21 41 23 2 6 29 30 5
47: 33 2 49 36 5 7 8 42 11 44 45 17 50 19 1 43 25 26 29 31
48: 1 2 3 5 6 7 9 10 13 14 18 19 22 24 28 33 35 36 37 38 41 42 49
49: 32 33 2 3 37 38 1 9 10 11 29 45 47 48 17 19 20 23 6 28 42
50: 34 36 37 6 39 8 10 43 45 47 40 18 19 20 25 26 27
-------
1(-1)->2 3 4 5 6 7 8 9 10 11 12 13 14 15 16 17 18 19 20 21 22 23 24 25 26 27 28 29 30 31 32 33 34 35 36 37 38 39 40 41 42 43 44 45 46 47 48 49 
2(-1)->1 3 4 5 6 7 8 9 10 11 12 13 14 15 16 17 18 19 20 21 22 23 24 25 26 27 28 29 30 31 32 33 34 35 36 37 38 39 40 41 42 43 44 45 46 47 48 49 
3(-1)->1 2 4 5 6 7 8 9 10 11 12 13 14 15 16 17 18 19 20 21 22 23 24 25 26 27 28 29 30 31 32 33 34 35 36 37 38 39 40 42 44 45 46 48 49 
4(-1)->1 2 3 5 6 7 8 9 10 11 12 13 15 16 17 18 19 20 21 22 23 24 25 26 27 28 30 32 34 35 36 38 44 45 46 
5(-1)->1 2 3 4 6 7 8 10 12 17 19 21 23 25 26 27 28 30 32 34 35 36 39 41 43 46 47 48 
6(-1)->1 2 3 4 5 7 8 9 10 11 12 16 17 18 21 23 26 27 28 30 34 39 40 41 46 48 49 50 
7(-1)->1 2 3 4 5 6 8 11 17 18 22 24 25 26 28 29 30 31 32 33 37 39 44 47 48 
8(-1)->1 2 3 4 5 6 7 9 10 11 15 16 17 21 22 26 29 30 31 34 40 41 47 50 
9(-1)->1 2 3 4 6 8 19 20 23 26 30 31 34 35 38 40 42 46 48 49 
10(-1)->1 2 3 4 5 6 8 11 12 16 18 22 24 26 28 29 34 35 36 39 41 42 46 48 49 50 
11(-1)->1 2 3 4 6 7 8 10 12 16 21 30 32 36 38 42 45 46 47 49 
12(-1)->1 2 3 4 5 6 10 11 15 16 17 23 24 26 28 29 30 31 32 36 37 39 40 44 
13(-1)->1 2 3 4 16 18 22 24 25 28 29 30 36 37 40 41 43 48 
14(-1)->1 2 3 17 22 23 24 28 33 36 40 46 48 
15(-1)->1 2 3 4 8 12 19 23 24 25 26 31 32 34 40 42 
16(-1)->1 2 3 4 6 8 10 11 12 13 24 27 29 33 34 42 46 
17(-1)->1 2 3 4 5 6 7 8 12 14 24 27 31 39 42 47 49 
18(-1)->1 2 3 4 6 7 10 13 19 20 23 31 37 40 42 43 44 45 48 50 
19(-1)->1 2 3 4 5 9 15 18 22 23 24 32 34 35 39 41 43 47 48 49 50 
20(-1)->1 2 3 4 9 18 22 24 27 30 31 32 33 38 40 42 45 49 50 
21(-1)->1 2 3 4 5 6 8 11 22 23 24 25 27 30 31 33 34 36 38 40 41 42 45 46 
22(-1)->1 2 3 4 7 8 10 13 14 19 20 21 26 27 34 35 36 39 43 48 
23(-1)->1 2 3 4 5 6 9 12 14 15 18 19 21 24 32 37 40 44 46 49 
24(-1)->1 2 3 4 7 10 12 13 14 15 16 17 19 20 21 23 27 29 31 34 36 45 48 
25(-1)->1 2 3 4 5 7 13 15 21 27 33 34 37 42 47 50 
26(-1)->1 2 3 4 5 6 7 8 9 10 12 15 22 27 29 36 42 45 47 50 
27(-1)->1 2 3 4 5 6 16 17 20 21 22 24 25 26 28 29 31 36 41 42 43 50 
28(-1)->1 2 3 4 5 6 7 10 12 13 14 27 31 32 48 49 
29(-1)->1 2 3 7 8 10 12 13 16 24 26 27 33 35 37 38 41 44 46 47 49 
30(-1)->1 2 3 4 5 6 7 8 9 11 12 13 20 21 32 33 38 40 44 45 46 
31(-1)->1 2 3 7 8 9 12 15 17 18 20 21 24 27 28 33 37 38 39 40 47 
32(-1)->1 2 3 4 5 7 11 12 15 19 20 23 28 30 36 38 40 41 44 49 
33(-1)->1 2 3 7 14 16 20 21 25 29 30 31 35 38 39 40 41 43 47 48 49 
34(-1)->1 2 3 4 5 6 8 9 10 15 16 19 21 22 24 25 35 40 43 46 50 
35(-1)->1 2 3 4 5 9 10 19 22 29 33 34 39 44 45 48 
36(-1)->1 2 3 4 5 10 11 12 13 14 21 22 24 26 27 32 37 38 44 45 47 48 50 
37(-1)->1 2 3 7 12 13 18 23 25 29 31 36 39 42 46 48 49 50 
38(-1)->1 2 3 4 9 11 20 21 29 30 31 32 33 36 44 46 48 49 
39(-1)->1 2 3 5 6 7 10 12 17 19 22 31 33 35 37 40 43 50 
40(-1)->1 2 3 6 8 9 12 13 14 15 18 20 21 23 30 31 32 33 34 39 45 50 
41(-1)->1 2 5 6 8 10 13 19 21 27 29 32 33 44 46 48 
42(-1)->1 2 3 9 10 11 15 16 17 18 20 21 25 26 27 37 45 47 48 49 
43(-1)->1 2 5 13 18 19 22 27 33 34 39 46 47 50 
44(-1)->1 2 3 4 7 12 18 23 29 30 32 35 36 38 41 47 
45(-1)->1 2 3 4 11 18 20 21 24 26 30 35 36 40 42 46 47 49 50 
46(-1)->1 2 3 4 5 6 9 10 11 14 16 21 23 29 30 34 37 38 41 43 45 
47(-1)->1 2 5 7 8 11 17 19 25 26 29 31 33 36 42 43 44 45 49 50 
48(-1)->1 2 3 5 6 7 9 10 13 14 18 19 22 24 28 33 35 36 37 38 41 42 49 
49(-1)->1 2 3 6 9 10 11 17 19 20 23 28 29 32 33 37 38 42 45 47 48 
50(-1)->6 8 10 18 19 20 25 26 27 34 36 37 39 40 43 45 47 
-------
1(-1)->2 3 4 5 6 7 8 9 10 11 12 13 14 15 16 17 18 19 20 21 22 23 24 25 26 27 28 29 30 31 32 33 34 35 36 37 38 39 40 41 42 43 44 45 46 47 48 49 
2(-1)->1 3 4 5 6 7 8 9 10 11 12 13 14 15 16 17 18 19 20 21 22 23 24 25 26 27 28 29 30 31 32 33 34 35 36 37 38 39 40 41 42 43 44 45 46 47 48 49 
3(-1)->1 2 4 5 6 7 8 9 10 11 12 13 14 15 16 17 18 19 20 21 22 23 24 25 26 27 28 29 30 31 32 33 34 35 36 37 38 39 40 42 44 45 46 48 49 
4(-1)->1 2 3 5 6 7 8 9 10 11 12 13 15 16 17 18 19 20 21 22 23 24 25 26 27 28 30 32 34 35 36 38 44 45 46 
5(-1)->1 2 3 4 6 7 8 10 12 17 19 21 23 25 26 27 28 30 32 34 35 36 39 41 43 46 47 48 
6(-1)->1 2 3 4 5 7 8 9 10 11 12 16 17 18 21 23 26 27 28 30 34 39 40 41 46 48 49 50 
10(-1)->1 2 3 4 5 6 8 11 12 16 18 22 24 26 28 29 34 35 36 39 41 42 46 48 49 50 
7(-1)->1 2 3 4 5 6 8 11 17 18 22 24 25 26 28 29 30 31 32 33 37 39 44 47 48 
8(-1)->1 2 3 4 5 6 7 9 10 11 15 16 17 21 22 26 29 30 31 34 40 41 47 50 
12(-1)->1 2 3 4 5 6 10 11 15 16 17 23 24 26 28 29 30 31 32 36 37 39 40 44 
21(-1)->1 2 3 4 5 6 8 11 22 23 24 25 27 30 31 33 34 36 38 40 41 42 45 46 
24(-1)->1 2 3 4 7 10 12 13 14 15 16 17 19 20 21 23 27 29 31 34 36 45 48 
36(-1)->1 2 3 4 5 10 11 12 13 14 21 22 24 26 27 32 37 38 44 45 47 48 50 
48(-1)->1 2 3 5 6 7 9 10 13 14 18 19 22 24 28 33 35 36 37 38 41 42 49 
27(-1)->1 2 3 4 5 6 16 17 20 21 22 24 25 26 28 29 31 36 41 42 43 50 
40(-1)->1 2 3 6 8 9 12 13 14 15 18 20 21 23 30 31 32 33 34 39 45 50 
19(-1)->1 2 3 4 5 9 15 18 22 23 24 32 34 35 39 41 43 47 48 49 50 
29(-1)->1 2 3 7 8 10 12 13 16 24 26 27 33 35 37 38 41 44 46 47 49 
30(-1)->1 2 3 4 5 6 7 8 9 11 12 13 20 21 32 33 38 40 44 45 46 
31(-1)->1 2 3 7 8 9 12 15 17 18 20 21 24 27 28 33 37 38 39 40 47 
33(-1)->1 2 3 7 14 16 20 21 25 29 30 31 35 38 39 40 41 43 47 48 49 
34(-1)->1 2 3 4 5 6 8 9 10 15 16 19 21 22 24 25 35 40 43 46 50 
46(-1)->1 2 3 4 5 6 9 10 11 14 16 21 23 29 30 34 37 38 41 43 45 
49(-1)->1 2 3 6 9 10 11 17 19 20 23 28 29 32 33 37 38 42 45 47 48 
9(-1)->1 2 3 4 6 8 19 20 23 26 30 31 34 35 38 40 42 46 48 49 
11(-1)->1 2 3 4 6 7 8 10 12 16 21 30 32 36 38 42 45 46 47 49 
18(-1)->1 2 3 4 6 7 10 13 19 20 23 31 37 40 42 43 44 45 48 50 
22(-1)->1 2 3 4 7 8 10 13 14 19 20 21 26 27 34 35 36 39 43 48 
23(-1)->1 2 3 4 5 6 9 12 14 15 18 19 21 24 32 37 40 44 46 49 
26(-1)->1 2 3 4 5 6 7 8 9 10 12 15 22 27 29 36 42 45 47 50 
32(-1)->1 2 3 4 5 7 11 12 15 19 20 23 28 30 36 38 40 41 44 49 
42(-1)->1 2 3 9 10 11 15 16 17 18 20 21 25 26 27 37 45 47 48 49 
47(-1)->1 2 5 7 8 11 17 19 25 26 29 31 33 36 42 43 44 45 49 50 
20(-1)->1 2 3 4 9 18 22 24 27 30 31 32 33 38 40 42 45 49 50 
45(-1)->1 2 3 4 11 18 20 21 24 26 30 35 36 40 42 46 47 49 50 
13(-1)->1 2 3 4 16 18 22 24 25 28 29 30 36 37 40 41 43 48 
37(-1)->1 2 3 7 12 13 18 23 25 29 31 36 39 42 46 48 49 50 
38(-1)->1 2 3 4 9 11 20 21 29 30 31 32 33 36 44 46 48 49 
39(-1)->1 2 3 5 6 7 10 12 17 19 22 31 33 35 37 40 43 50 
16(-1)->1 2 3 4 6 8 10 11 12 13 24 27 29 33 34 42 46 
17(-1)->1 2 3 4 5 6 7 8 12 14 24 27 31 39 42 47 49 
50(-1)->6 8 10 18 19 20 25 26 27 34 36 37 39 40 43 45 47 
15(-1)->1 2 3 4 8 12 19 23 24 25 26 31 32 34 40 42 
25(-1)->1 2 3 4 5 7 13 15 21 27 33 34 37 42 47 50 
28(-1)->1 2 3 4 5 6 7 10 12 13 14 27 31 32 48 49 
35(-1)->1 2 3 4 5 9 10 19 22 29 33 34 39 44 45 48 
41(-1)->1 2 5 6 8 10 13 19 21 27 29 32 33 44 46 48 
44(-1)->1 2 3 4 7 12 18 23 29 30 32 35 36 38 41 47 
43(-1)->1 2 5 13 18 19 22 27 33 34 39 46 47 50 
14(-1)->1 2 3 17 22 23 24 28 33 36 40 46 48 
-------
1 2 3 4 5 6 7 8 17 

-------
17(-1)->1 2 3 4 5 6 7 8 12 14 24 27 31 39 42 47 49 
8(-1)->1 2 3 4 5 6 7 9 10 11 15 16 17 21 22 26 29 30 31 34 40 41 47 50 
7(-1)->1 2 3 4 5 6 8 11 17 18 22 24 25 26 28 29 30 31 32 33 37 39 44 47 48 
6(-1)->1 2 3 4 5 7 8 9 10 11 12 16 17 18 21 23 26 27 28 30 34 39 40 41 46 48 49 50 
5(-1)->1 2 3 4 6 7 8 10 12 17 19 21 23 25 26 27 28 30 32 34 35 36 39 41 43 46 47 48 
4(-1)->1 2 3 5 6 7 8 9 10 11 12 13 15 16 17 18 19 20 21 22 23 24 25 26 27 28 30 32 34 35 36 38 44 45 46 
3(-1)->1 2 4 5 6 7 8 9 10 11 12 13 14 15 16 17 18 19 20 21 22 23 24 25 26 27 28 29 30 31 32 33 34 35 36 37 38 39 40 42 44 45 46 48 49 
2(-1)->1 3 4 5 6 7 8 9 10 11 12 13 14 15 16 17 18 19 20 21 22 23 24 25 26 27 28 29 30 31 32 33 34 35 36 37 38 39 40 41 42 43 44 45 46 47 48 49 
1(-1)->2 3 4 5 6 7 8 9 10 11 12 13 14 15 16 17 18 19 20 21 22 23 24 25 26 27 28 29 30 31 32 33 34 35 36 37 38 39 40 41 42 43 44 45 46 47 48 49 
10(-1)->1 2 3 4 5 6 8 11 12 16 18 22 24 26 28 29 34 35 36 39 41 42 46 48 49 50 
12(-1)->1 2 3 4 5 6 10 11 15 16 17 23 24 26 28 29 30 31 32 36 37 39 40 44 
21(-1)->1 2 3 4 5 6 8 11 22 23 24 25 27 30 31 33 34 36 38 40 41 42 45 46 
24(-1)->1 2 3 4 7 10 12 13 14 15 16 17 19 20 21 23 27 29 31 34 36 45 48 
36(-1)->1 2 3 4 5 10 11 12 13 14 21 22 24 26 27 32 37 38 44 45 47 48 50 
48(-1)->1 2 3 5 6 7 9 10 13 14 18 19 22 24 28 33 35 36 37 38 41 42 49 
27(-1)->1 2 3 4 5 6 16 17 20 21 22 24 25 26 28 29 31 36 41 42 43 50 
40(-1)->1 2 3 6 8 9 12 13 14 15 18 20 21 23 30 31 32 33 34 39 45 50 
19(-1)->1 2 3 4 5 9 15 18 22 23 24 32 34 35 39 41 43 47 48 49 50 
29(-1)->1 2 3 7 8 10 12 13 16 24 26 27 33 35 37 38 41 44 46 47 49 
30(-1)->1 2 3 4 5 6 7 8 9 11 12 13 20 21 32 33 38 40 44 45 46 
31(-1)->1 2 3 7 8 9 12 15 17 18 20 21 24 27 28 33 37 38 39 40 47 
33(-1)->1 2 3 7 14 16 20 21 25 29 30 31 35 38 39 40 41 43 47 48 49 
34(-1)->1 2 3 4 5 6 8 9 10 15 16 19 21 22 24 25 35 40 43 46 50 
46(-1)->1 2 3 4 5 6 9 10 11 14 16 21 23 29 30 34 37 38 41 43 45 
49(-1)->1 2 3 6 9 10 11 17 19 20 23 28 29 32 33 37 38 42 45 47 48 
9(-1)->1 2 3 4 6 8 19 20 23 26 30 31 34 35 38 40 42 46 48 49 
11(-1)->1 2 3 4 6 7 8 10 12 16 21 30 32 36 38 42 45 46 47 49 
18(-1)->1 2 3 4 6 7 10 13 19 20 23 31 37 40 42 43 44 45 48 50 
22(-1)->1 2 3 4 7 8 10 13 14 19 20 21 26 27 34 35 36 39 43 48 
23(-1)->1 2 3 4 5 6 9 12 14 15 18 19 21 24 32 37 40 44 46 49 
26(-1)->1 2 3 4 5 6 7 8 9 10 12 15 22 27 29 36 42 45 47 50 
32(-1)->1 2 3 4 5 7 11 12 15 19 20 23 28 30 36 38 40 41 44 49 
42(-1)->1 2 3 9 10 11 15 16 17 18 20 21 25 26 27 37 45 47 48 49 
47(-1)->1 2 5 7 8 11 17 19 25 26 29 31 33 36 42 43 44 45 49 50 
20(-1)->1 2 3 4 9 18 22 24 27 30 31 32 33 38 40 42 45 49 50 
45(-1)->1 2 3 4 11 18 20 21 24 26 30 35 36 40 42 46 47 49 50 
13(-1)->1 2 3 4 16 18 22 24 25 28 29 30 36 37 40 41 43 48 
37(-1)->1 2 3 7 12 13 18 23 25 29 31 36 39 42 46 48 49 50 
38(-1)->1 2 3 4 9 11 20 21 29 30 31 32 33 36 44 46 48 49 
39(-1)->1 2 3 5 6 7 10 12 17 19 22 31 33 35 37 40 43 50 
16(-1)->1 2 3 4 6 8 10 11 12 13 24 27 29 33 34 42 46 
50(-1)->6 8 10 18 19 20 25 26 27 34 36 37 39 40 43 45 47 
15(-1)->1 2 3 4 8 12 19 23 24 25 26 31 32 34 40 42 
25(-1)->1 2 3 4 5 7 13 15 21 27 33 34 37 42 47 50 
28(-1)->1 2 3 4 5 6 7 10 12 13 14 27 31 32 48 49 
35(-1)->1 2 3 4 5 9 10 19 22 29 33 34 39 44 45 48 
41(-1)->1 2 5 6 8 10 13 19 21 27 29 32 33 44 46 48 
44(-1)->1 2 3 4 7 12 18 23 29 30 32 35 36 38 41 47 
43(-1)->1 2 5 13 18 19 22 27 33 34 39 46 47 50 
14(-1)->1 2 3 17 22 23 24 28 33 36 40 46 48 
-------
START TIME: 1433712464
10000
20000
30000
40000
50000
60000
70000
80000
90000
100000
110000
120000
130000
140000
150000
160000
170000
180000
190000
200000
210000
220000
230000
240000
250000
260000
270000
280000
290000
300000
310000
320000
330000
340000
350000
360000
370000
380000
390000
400000
410000
420000
430000
440000
450000
460000
470000
480000
490000
500000
510000
520000
530000
540000
550000
560000
570000
-------
1(8)->2 3 4 5 6 7 8 9 10 11 12 13 14 15 16 17 18 19 20 21 22 23 24 25 26 27 28 29 30 31 32 33 34 35 36 37 38 39 40 41 42 43 44 45 46 47 48 49 
2(7)->1 3 4 5 6 7 8 9 10 11 12 13 14 15 16 17 18 19 20 21 22 23 24 25 26 27 28 29 30 31 32 33 34 35 36 37 38 39 40 41 42 43 44 45 46 47 48 49 
3(6)->1 2 4 5 6 7 8 9 10 11 12 13 14 15 16 17 18 19 20 21 22 23 24 25 26 27 28 29 30 31 32 33 34 35 36 37 38 39 40 42 44 45 46 48 49 
4(5)->1 2 3 5 6 7 8 9 10 11 12 13 15 16 17 18 19 20 21 22 23 24 25 26 27 28 30 32 34 35 36 38 44 45 46 
5(4)->1 2 3 4 6 7 8 10 12 17 19 21 23 25 26 27 28 30 32 34 35 36 39 41 43 46 47 48 
6(3)->1 2 3 4 5 7 8 9 10 11 12 16 17 18 21 23 26 27 28 30 34 39 40 41 46 48 49 50 
7(2)->1 2 3 4 5 6 8 11 17 18 22 24 25 26 28 29 30 31 32 33 37 39 44 47 48 
8(1)->1 2 3 4 5 6 7 9 10 11 15 16 17 21 22 26 29 30 31 34 40 41 47 50 
9(4)->1 2 3 4 6 8 19 20 23 26 30 31 34 35 38 40 42 46 48 49 
10(0)->1 2 3 4 5 6 8 11 12 16 18 22 24 26 28 29 34 35 36 39 41 42 46 48 49 50 
11(4)->1 2 3 4 6 7 8 10 12 16 21 30 32 36 38 42 45 46 47 49 
12(2)->1 2 3 4 5 6 10 11 15 16 17 23 24 26 28 29 30 31 32 36 37 39 40 44 
13(2)->1 2 3 4 16 18 22 24 25 28 29 30 36 37 40 41 43 48 
14(2)->1 2 3 17 22 23 24 28 33 36 40 46 48 
15(0)->1 2 3 4 8 12 19 23 24 25 26 31 32 34 40 42 
16(9)->1 2 3 4 6 8 10 11 12 13 24 27 29 33 34 42 46 
17(0)->1 2 3 4 5 6 7 8 12 14 24 27 31 39 42 47 49 
18(4)->1 2 3 4 6 7 10 13 19 20 23 31 37 40 42 43 44 45 48 50 
19(3)->1 2 3 4 5 9 15 18 22 23 24 32 34 35 39 41 43 47 48 49 50 
20(0)->1 2 3 4 9 18 22 24 27 30 31 32 33 38 40 42 45 49 50 
21(0)->1 2 3 4 5 6 8 11 22 23 24 25 27 30 31 33 34 36 38 40 41 42 45 46 
22(4)->1 2 3 4 7 8 10 13 14 19 20 21 26 27 34 35 36 39 43 48 
23(9)->1 2 3 4 5 6 9 12 14 15 18 19 21 24 32 37 40 44 46 49 
24(4)->1 2 3 4 7 10 12 13 14 15 16 17 19 20 21 23 27 29 31 34 36 45 48 
25(9)->1 2 3 4 5 7 13 15 21 27 33 34 37 42 47 50 
26(9)->1 2 3 4 5 6 7 8 9 10 12 15 22 27 29 36 42 45 47 50 
27(1)->1 2 3 4 5 6 16 17 20 21 22 24 25 26 28 29 31 36 41 42 43 50 
28(9)->1 2 3 4 5 6 7 10 12 13 14 27 31 32 48 49 
29(3)->1 2 3 7 8 10 12 13 16 24 26 27 33 35 37 38 41 44 46 47 49 
30(9)->1 2 3 4 5 6 7 8 9 11 12 13 20 21 32 33 38 40 44 45 46 
31(3)->1 2 3 7 8 9 12 15 17 18 20 21 24 27 28 33 37 38 39 40 47 
32(1)->1 2 3 4 5 7 11 12 15 19 20 23 28 30 36 38 40 41 44 49 
33(4)->1 2 3 7 14 16 20 21 25 29 30 31 35 38 39 40 41 43 47 48 49 
34(2)->1 2 3 4 5 6 8 9 10 15 16 19 21 22 24 25 35 40 43 46 50 
35(9)->1 2 3 4 5 9 10 19 22 29 33 34 39 44 45 48 
36(3)->1 2 3 4 5 10 11 12 13 14 21 22 24 26 27 32 37 38 44 45 47 48 50 
37(0)->1 2 3 7 12 13 18 23 25 29 31 36 39 42 46 48 49 50 
38(2)->1 2 3 4 9 11 20 21 29 30 31 32 33 36 44 46 48 49 
39(1)->1 2 3 5 6 7 10 12 17 19 22 31 33 35 37 40 43 50 
40(5)->1 2 3 6 8 9 12 13 14 15 18 20 21 23 30 31 32 33 34 39 45 50 
41(5)->1 2 5 6 8 10 13 19 21 27 29 32 33 44 46 48 
42(3)->1 2 3 9 10 11 15 16 17 18 20 21 25 26 27 37 45 47 48 49 
43(0)->1 2 5 13 18 19 22 27 33 34 39 46 47 50 
44(0)->1 2 3 4 7 12 18 23 29 30 32 35 36 38 41 47 
45(2)->1 2 3 4 11 18 20 21 24 26 30 35 36 40 42 46 47 49 50 
46(1)->1 2 3 4 5 6 9 10 11 14 16 21 23 29 30 34 37 38 41 43 45 
47(6)->1 2 5 7 8 11 17 19 25 26 29 31 33 36 42 43 44 45 49 50 
48(1)->1 2 3 5 6 7 9 10 13 14 18 19 22 24 28 33 35 36 37 38 41 42 49 
49(5)->1 2 3 6 9 10 11 17 19 20 23 28 29 32 33 37 38 42 45 47 48 
50(7)->6 8 10 18 19 20 25 26 27 34 36 37 39 40 43 45 47 
COUNT: 577671
COLORS: 10
10
577671
