1: 16 2 3 36 5 6 7 8 9 10 43 12 13 14 15 48 11 18 19 17 4
2: 1 3 9 42 13 14 16 20 25 26
3: 1 2 35 41 42 13 14 23 31
4: 1 35 46
5: 8 1 26 19
6: 28 35 12 22 1
7: 16 33 27 45 1
8: 1 34 5 23
9: 32 1 2 35 36 41 45 46 47 23 24
10: 16 1 19 15
11: 1 36 44 13 15 22
12: 1 6 46 17 22 27 28
13: 1 2 3 11 15 21 22 23
14: 1 2 3 36 41 48 19 31
15: 1 41 10 11 44 13
16: 1 2 35 7 10 18
17: 1 35 37 40 12 45 21
18: 32 1 34 35 37 39 16 19
19: 1 5 10 14 47 18 21 25 26
20: 32 44 2 36 39
21: 39 40 13 17 19 22 26
22: 6 11 12 13 49 21 26
23: 8 9 3 13 27
24: 48 33 9 30 32
25: 48 2 19 47
26: 2 35 5 41 19 21 22
27: 33 7 40 12 49 23
28: 32 49 34 12 6
29: 37
30: 24 40 46 47
31: 3 38 43 44 14 35
32: 9 42 18 20 24 28
33: 24 27 38 7
34: 8 49 18 35 28
35: 48 34 3 4 6 9 43 47 16 17 18 26 31
36: 1 11 20 14 9
37: 49 18 29 17
38: 33 46 31
39: 18 20 21
40: 17 27 46 30 21
41: 9 26 3 14 15
42: 32 3 2 43 44
43: 1 42 35 31
44: 31 42 11 20 15
45: 9 17 46 7
46: 4 38 40 9 12 45 49 30
47: 19 9 35 30 25
48: 1 35 14 50 24 25
49: 34 37 46 22 27 28
50: 48
-------
1(-1)->2 3 4 5 6 7 8 9 10 11 12 13 14 15 16 17 18 19 36 43 48 
2(-1)->1 3 9 13 14 16 20 25 26 42 
3(-1)->1 2 13 14 23 31 35 41 42 
4(-1)->1 35 46 
5(-1)->1 8 19 26 
6(-1)->1 12 22 28 35 
7(-1)->1 16 27 33 45 
8(-1)->1 5 23 34 
9(-1)->1 2 23 24 32 35 36 41 45 46 47 
10(-1)->1 15 16 19 
11(-1)->1 13 15 22 36 44 
12(-1)->1 6 17 22 27 28 46 
13(-1)->1 2 3 11 15 21 22 23 
14(-1)->1 2 3 19 31 36 41 48 
15(-1)->1 10 11 13 41 44 
16(-1)->1 2 7 10 18 35 
17(-1)->1 12 21 35 37 40 45 
18(-1)->1 16 19 32 34 35 37 39 
19(-1)->1 5 10 14 18 21 25 26 47 
20(-1)->2 32 36 39 44 
21(-1)->13 17 19 22 26 39 40 
22(-1)->6 11 12 13 21 26 49 
23(-1)->3 8 9 13 27 
24(-1)->9 30 32 33 48 
25(-1)->2 19 47 48 
26(-1)->2 5 19 21 22 35 41 
27(-1)->7 12 23 33 40 49 
28(-1)->6 12 32 34 49 
29(-1)->37 
30(-1)->24 40 46 47 
31(-1)->3 14 35 38 43 44 
32(-1)->9 18 20 24 28 42 
33(-1)->7 24 27 38 
34(-1)->8 18 28 35 49 
35(-1)->3 4 6 9 16 17 18 26 31 34 43 47 48 
36(-1)->1 9 11 14 20 
37(-1)->17 18 29 49 
38(-1)->31 33 46 
39(-1)->18 20 21 
40(-1)->17 21 27 30 46 
41(-1)->3 9 14 15 26 
42(-1)->2 3 32 43 44 
43(-1)->1 31 35 42 
44(-1)->11 15 20 31 42 
45(-1)->7 9 17 46 
46(-1)->4 9 12 30 38 40 45 49 
47(-1)->9 19 25 30 35 
48(-1)->1 14 24 25 35 50 
49(-1)->22 27 28 34 37 46 
50(-1)->48 
-------
1(-1)->2 3 4 5 6 7 8 9 10 11 12 13 14 15 16 17 18 19 36 43 48 
35(-1)->3 4 6 9 16 17 18 26 31 34 43 47 48 
9(-1)->1 2 23 24 32 35 36 41 45 46 47 
2(-1)->1 3 9 13 14 16 20 25 26 42 
3(-1)->1 2 13 14 23 31 35 41 42 
19(-1)->1 5 10 14 18 21 25 26 47 
13(-1)->1 2 3 11 15 21 22 23 
14(-1)->1 2 3 19 31 36 41 48 
18(-1)->1 16 19 32 34 35 37 39 
46(-1)->4 9 12 30 38 40 45 49 
12(-1)->1 6 17 22 27 28 46 
17(-1)->1 12 21 35 37 40 45 
21(-1)->13 17 19 22 26 39 40 
22(-1)->6 11 12 13 21 26 49 
26(-1)->2 5 19 21 22 35 41 
11(-1)->1 13 15 22 36 44 
15(-1)->1 10 11 13 41 44 
16(-1)->1 2 7 10 18 35 
27(-1)->7 12 23 33 40 49 
31(-1)->3 14 35 38 43 44 
32(-1)->9 18 20 24 28 42 
48(-1)->1 14 24 25 35 50 
49(-1)->22 27 28 34 37 46 
6(-1)->1 12 22 28 35 
7(-1)->1 16 27 33 45 
20(-1)->2 32 36 39 44 
23(-1)->3 8 9 13 27 
24(-1)->9 30 32 33 48 
28(-1)->6 12 32 34 49 
34(-1)->8 18 28 35 49 
36(-1)->1 9 11 14 20 
40(-1)->17 21 27 30 46 
41(-1)->3 9 14 15 26 
42(-1)->2 3 32 43 44 
44(-1)->11 15 20 31 42 
47(-1)->9 19 25 30 35 
5(-1)->1 8 19 26 
8(-1)->1 5 23 34 
10(-1)->1 15 16 19 
25(-1)->2 19 47 48 
30(-1)->24 40 46 47 
33(-1)->7 24 27 38 
37(-1)->17 18 29 49 
43(-1)->1 31 35 42 
45(-1)->7 9 17 46 
4(-1)->1 35 46 
38(-1)->31 33 46 
39(-1)->18 20 21 
29(-1)->37 
50(-1)->48 
-------
1 2 3 13 

-------
13(-1)->1 2 3 11 15 21 22 23 
3(-1)->1 2 13 14 23 31 35 41 42 
2(-1)->1 3 9 13 14 16 20 25 26 42 
1(-1)->2 3 4 5 6 7 8 9 10 11 12 13 14 15 16 17 18 19 36 43 48 
35(-1)->3 4 6 9 16 17 18 26 31 34 43 47 48 
9(-1)->1 2 23 24 32 35 36 41 45 46 47 
19(-1)->1 5 10 14 18 21 25 26 47 
14(-1)->1 2 3 19 31 36 41 48 
18(-1)->1 16 19 32 34 35 37 39 
46(-1)->4 9 12 30 38 40 45 49 
12(-1)->1 6 17 22 27 28 46 
17(-1)->1 12 21 35 37 40 45 
21(-1)->13 17 19 22 26 39 40 
22(-1)->6 11 12 13 21 26 49 
26(-1)->2 5 19 21 22 35 41 
11(-1)->1 13 15 22 36 44 
15(-1)->1 10 11 13 41 44 
16(-1)->1 2 7 10 18 35 
27(-1)->7 12 23 33 40 49 
31(-1)->3 14 35 38 43 44 
32(-1)->9 18 20 24 28 42 
48(-1)->1 14 24 25 35 50 
49(-1)->22 27 28 34 37 46 
6(-1)->1 12 22 28 35 
7(-1)->1 16 27 33 45 
20(-1)->2 32 36 39 44 
23(-1)->3 8 9 13 27 
24(-1)->9 30 32 33 48 
28(-1)->6 12 32 34 49 
34(-1)->8 18 28 35 49 
36(-1)->1 9 11 14 20 
40(-1)->17 21 27 30 46 
41(-1)->3 9 14 15 26 
42(-1)->2 3 32 43 44 
44(-1)->11 15 20 31 42 
47(-1)->9 19 25 30 35 
5(-1)->1 8 19 26 
8(-1)->1 5 23 34 
10(-1)->1 15 16 19 
25(-1)->2 19 47 48 
30(-1)->24 40 46 47 
33(-1)->7 24 27 38 
37(-1)->17 18 29 49 
43(-1)->1 31 35 42 
45(-1)->7 9 17 46 
4(-1)->1 35 46 
38(-1)->31 33 46 
39(-1)->18 20 21 
29(-1)->37 
50(-1)->48 
-------
START TIME: 1433711427
-------
1(3)->2 3 4 5 6 7 8 9 10 11 12 13 14 15 16 17 18 19 36 43 48 
2(2)->1 3 9 13 14 16 20 25 26 42 
3(1)->1 2 13 14 23 31 35 41 42 
4(0)->1 35 46 
5(2)->1 8 19 26 
6(1)->1 12 22 28 35 
7(0)->1 16 27 33 45 
8(0)->1 5 23 34 
9(0)->1 2 23 24 32 35 36 41 45 46 47 
10(0)->1 15 16 19 
11(1)->1 13 15 22 36 44 
12(0)->1 6 17 22 27 28 46 
13(0)->1 2 3 11 15 21 22 23 
14(0)->1 2 3 19 31 36 41 48 
15(2)->1 10 11 13 41 44 
16(1)->1 2 7 10 18 35 
17(1)->1 12 21 35 37 40 45 
18(0)->1 16 19 32 34 35 37 39 
19(1)->1 5 10 14 18 21 25 26 47 
20(3)->2 32 36 39 44 
21(2)->13 17 19 22 26 39 40 
22(3)->6 11 12 13 21 26 49 
23(2)->3 8 9 13 27 
24(2)->9 30 32 33 48 
25(0)->2 19 47 48 
26(0)->2 5 19 21 22 35 41 
27(1)->7 12 23 33 40 49 
28(2)->6 12 32 34 49 
29(0)->37 
30(0)->24 40 46 47 
31(3)->3 14 35 38 43 44 
32(1)->9 18 20 24 28 42 
33(3)->7 24 27 38 
34(1)->8 18 28 35 49 
35(2)->3 4 6 9 16 17 18 26 31 34 43 47 48 
36(2)->1 9 11 14 20 
37(2)->17 18 29 49 
38(0)->31 33 46 
39(1)->18 20 21 
40(3)->17 21 27 30 46 
41(3)->3 9 14 15 26 
42(3)->2 3 32 43 44 
43(0)->1 31 35 42 
44(0)->11 15 20 31 42 
45(2)->7 9 17 46 
46(1)->4 9 12 30 38 40 45 49 
47(3)->9 19 25 30 35 
48(1)->1 14 24 25 35 50 
49(0)->22 27 28 34 37 46 
50(0)->48 
COUNT: 3896
COLORS: 4
4
3896
