1: 2 3 4 5 6 7 8 11 13 46 14 24
2: 32 1 3 4 7 8 49 23 24 31
3: 1 2 35 6 8 44 27
4: 32 1 2 8 12 15 23 28
5: 32 1 38 41 46 16 17 30
6: 1 50 3 13 22
7: 33 2 1 23 25 29
8: 1 10 3 4 2
9: 36 37 40 11 14 19 24
10: 35 37 8 13 48 22 26
11: 1 33 9 13 46 20 14 21
12: 16 4 42 36 25
13: 1 6 10 11 42 31
14: 1 39 9 11 18 23
15: 4 30 31
16: 34 5 40 42 12 45 50 30
17: 34 5 39
18: 35 14
19: 9 29 45 23
20: 32 43 37 40 11 45 50
21: 40 11 39
22: 10 6
23: 32 2 4 7 42 43 45 14 50 19 28
24: 1 2 9 46 47 48
25: 32 34 35 37 7 12 48
26: 33 10 30
27: 35 3
28: 43 4 23
29: 36 19 44 7
30: 35 37 15 16 26 5 31
31: 33 2 38 45 13 15 47 30
32: 33 2 4 5 40 46 20 23 25
33: 32 11 36 7 43 46 50 26 31
34: 16 25 17
35: 3 10 18 25 27 30
36: 33 37 9 43 12 48 49 29
37: 36 9 10 46 47 48 20 41 25 30
38: 49 5 31
39: 17 21 14
40: 32 9 44 46 16 20 21
41: 48 49 5 46 37
42: 16 43 12 13 23
43: 33 36 42 48 20 23 28
44: 40 50 3 29 46
45: 16 23 19 20 31
46: 32 1 37 33 40 41 11 44 24 5
47: 24 37 31
48: 36 37 41 10 43 24 25
49: 41 50 36 2 38
50: 33 6 44 16 49 20 23
-------
1(-1)->2 3 4 5 6 7 8 11 13 14 24 46 
2(-1)->1 3 4 7 8 23 24 31 32 49 
3(-1)->1 2 6 8 27 35 44 
4(-1)->1 2 8 12 15 23 28 32 
5(-1)->1 16 17 30 32 38 41 46 
6(-1)->1 3 13 22 50 
7(-1)->1 2 23 25 29 33 
8(-1)->1 2 3 4 10 
9(-1)->11 14 19 24 36 37 40 
10(-1)->8 13 22 26 35 37 48 
11(-1)->1 9 13 14 20 21 33 46 
12(-1)->4 16 25 36 42 
13(-1)->1 6 10 11 31 42 
14(-1)->1 9 11 18 23 39 
15(-1)->4 30 31 
16(-1)->5 12 30 34 40 42 45 50 
17(-1)->5 34 39 
18(-1)->14 35 
19(-1)->9 23 29 45 
20(-1)->11 32 37 40 43 45 50 
21(-1)->11 39 40 
22(-1)->6 10 
23(-1)->2 4 7 14 19 28 32 42 43 45 50 
24(-1)->1 2 9 46 47 48 
25(-1)->7 12 32 34 35 37 48 
26(-1)->10 30 33 
27(-1)->3 35 
28(-1)->4 23 43 
29(-1)->7 19 36 44 
30(-1)->5 15 16 26 31 35 37 
31(-1)->2 13 15 30 33 38 45 47 
32(-1)->2 4 5 20 23 25 33 40 46 
33(-1)->7 11 26 31 32 36 43 46 50 
34(-1)->16 17 25 
35(-1)->3 10 18 25 27 30 
36(-1)->9 12 29 33 37 43 48 49 
37(-1)->9 10 20 25 30 36 41 46 47 48 
38(-1)->5 31 49 
39(-1)->14 17 21 
40(-1)->9 16 20 21 32 44 46 
41(-1)->5 37 46 48 49 
42(-1)->12 13 16 23 43 
43(-1)->20 23 28 33 36 42 48 
44(-1)->3 29 40 46 50 
45(-1)->16 19 20 23 31 
46(-1)->1 5 11 24 32 33 37 40 41 44 
47(-1)->24 31 37 
48(-1)->10 24 25 36 37 41 43 
49(-1)->2 36 38 41 50 
50(-1)->6 16 20 23 33 44 49 
-------
1(-1)->2 3 4 5 6 7 8 11 13 14 24 46 
23(-1)->2 4 7 14 19 28 32 42 43 45 50 
2(-1)->1 3 4 7 8 23 24 31 32 49 
37(-1)->9 10 20 25 30 36 41 46 47 48 
46(-1)->1 5 11 24 32 33 37 40 41 44 
32(-1)->2 4 5 20 23 25 33 40 46 
33(-1)->7 11 26 31 32 36 43 46 50 
4(-1)->1 2 8 12 15 23 28 32 
5(-1)->1 16 17 30 32 38 41 46 
11(-1)->1 9 13 14 20 21 33 46 
16(-1)->5 12 30 34 40 42 45 50 
31(-1)->2 13 15 30 33 38 45 47 
36(-1)->9 12 29 33 37 43 48 49 
3(-1)->1 2 6 8 27 35 44 
9(-1)->11 14 19 24 36 37 40 
10(-1)->8 13 22 26 35 37 48 
20(-1)->11 32 37 40 43 45 50 
25(-1)->7 12 32 34 35 37 48 
30(-1)->5 15 16 26 31 35 37 
40(-1)->9 16 20 21 32 44 46 
43(-1)->20 23 28 33 36 42 48 
48(-1)->10 24 25 36 37 41 43 
50(-1)->6 16 20 23 33 44 49 
7(-1)->1 2 23 25 29 33 
13(-1)->1 6 10 11 31 42 
14(-1)->1 9 11 18 23 39 
24(-1)->1 2 9 46 47 48 
35(-1)->3 10 18 25 27 30 
6(-1)->1 3 13 22 50 
8(-1)->1 2 3 4 10 
12(-1)->4 16 25 36 42 
41(-1)->5 37 46 48 49 
42(-1)->12 13 16 23 43 
44(-1)->3 29 40 46 50 
45(-1)->16 19 20 23 31 
49(-1)->2 36 38 41 50 
19(-1)->9 23 29 45 
29(-1)->7 19 36 44 
15(-1)->4 30 31 
17(-1)->5 34 39 
21(-1)->11 39 40 
26(-1)->10 30 33 
28(-1)->4 23 43 
34(-1)->16 17 25 
38(-1)->5 31 49 
39(-1)->14 17 21 
47(-1)->24 31 37 
18(-1)->14 35 
22(-1)->6 10 
27(-1)->3 35 
-------
1 2 3 8 

-------
8(-1)->1 2 3 4 10 
3(-1)->1 2 6 8 27 35 44 
2(-1)->1 3 4 7 8 23 24 31 32 49 
1(-1)->2 3 4 5 6 7 8 11 13 14 24 46 
23(-1)->2 4 7 14 19 28 32 42 43 45 50 
37(-1)->9 10 20 25 30 36 41 46 47 48 
46(-1)->1 5 11 24 32 33 37 40 41 44 
32(-1)->2 4 5 20 23 25 33 40 46 
33(-1)->7 11 26 31 32 36 43 46 50 
4(-1)->1 2 8 12 15 23 28 32 
5(-1)->1 16 17 30 32 38 41 46 
11(-1)->1 9 13 14 20 21 33 46 
16(-1)->5 12 30 34 40 42 45 50 
31(-1)->2 13 15 30 33 38 45 47 
36(-1)->9 12 29 33 37 43 48 49 
9(-1)->11 14 19 24 36 37 40 
10(-1)->8 13 22 26 35 37 48 
20(-1)->11 32 37 40 43 45 50 
25(-1)->7 12 32 34 35 37 48 
30(-1)->5 15 16 26 31 35 37 
40(-1)->9 16 20 21 32 44 46 
43(-1)->20 23 28 33 36 42 48 
48(-1)->10 24 25 36 37 41 43 
50(-1)->6 16 20 23 33 44 49 
7(-1)->1 2 23 25 29 33 
13(-1)->1 6 10 11 31 42 
14(-1)->1 9 11 18 23 39 
24(-1)->1 2 9 46 47 48 
35(-1)->3 10 18 25 27 30 
6(-1)->1 3 13 22 50 
12(-1)->4 16 25 36 42 
41(-1)->5 37 46 48 49 
42(-1)->12 13 16 23 43 
44(-1)->3 29 40 46 50 
45(-1)->16 19 20 23 31 
49(-1)->2 36 38 41 50 
19(-1)->9 23 29 45 
29(-1)->7 19 36 44 
15(-1)->4 30 31 
17(-1)->5 34 39 
21(-1)->11 39 40 
26(-1)->10 30 33 
28(-1)->4 23 43 
34(-1)->16 17 25 
38(-1)->5 31 49 
39(-1)->14 17 21 
47(-1)->24 31 37 
18(-1)->14 35 
22(-1)->6 10 
27(-1)->3 35 
-------
START TIME: 1433711427
-------
1(3)->2 3 4 5 6 7 8 11 13 14 24 46 
2(2)->1 3 4 7 8 23 24 31 32 49 
3(1)->1 2 6 8 27 35 44 
4(1)->1 2 8 12 15 23 28 32 
5(0)->1 16 17 30 32 38 41 46 
6(2)->1 3 13 22 50 
7(1)->1 2 23 25 29 33 
8(0)->1 2 3 4 10 
9(3)->11 14 19 24 36 37 40 
10(1)->8 13 22 26 35 37 48 
11(2)->1 9 13 14 20 21 33 46 
12(0)->4 16 25 36 42 
13(0)->1 6 10 11 31 42 
14(1)->1 9 11 18 23 39 
15(0)->4 30 31 
16(1)->5 12 30 34 40 42 45 50 
17(1)->5 34 39 
18(2)->14 35 
19(1)->9 23 29 45 
20(1)->11 32 37 40 43 45 50 
21(1)->11 39 40 
22(0)->6 10 
23(0)->2 4 7 14 19 28 32 42 43 45 50 
24(0)->1 2 9 46 47 48 
25(2)->7 12 32 34 35 37 48 
26(3)->10 30 33 
27(2)->3 35 
28(3)->4 23 43 
29(0)->7 19 36 44 
30(2)->5 15 16 26 31 35 37 
31(1)->2 13 15 30 33 38 45 47 
32(3)->2 4 5 20 23 25 33 40 46 
33(0)->7 11 26 31 32 36 43 46 50 
34(0)->16 17 25 
35(0)->3 10 18 25 27 30 
36(1)->9 12 29 33 37 43 48 49 
37(0)->9 10 20 25 30 36 41 46 47 48 
38(2)->5 31 49 
39(0)->14 17 21 
40(0)->9 16 20 21 32 44 46 
41(2)->5 37 46 48 49 
42(3)->12 13 16 23 43 
43(2)->20 23 28 33 36 42 48 
44(2)->3 29 40 46 50 
45(2)->16 19 20 23 31 
46(1)->1 5 11 24 32 33 37 40 41 44 
47(2)->24 31 37 
48(3)->10 24 25 36 37 41 43 
49(0)->2 36 38 41 50 
50(3)->6 16 20 23 33 44 49 
COUNT: 121
COLORS: 4
4
121
