1: 2 3 36 5 6 7 8 9 42 11 47 17 4 15 10
2: 11 1 3 13 22
3: 32 1 34 35 8 41 11 2 9 25
4: 1 39 9 12 48 21 25
5: 32 1 8 42 45 15 49 24 25
6: 32 33 1 9 12 46 44
7: 1 34 45 19 23 27
8: 1 34 3 5 9 48 20 23
9: 33 3 4 6 1 8 41 44 16 23 26
10: 41 50 1 45 15
11: 1 2 3 44 13 47 21
12: 4 6 39 44 17 25
13: 2 43 11 45 50 21
14: 32 27 47
15: 1 10 27 5
16: 32 40 9 42 44 46 17 28
17: 33 34 1 12 16 25 28
18: 24 29 38 39
19: 40 39 46 7
20: 8 49 28
21: 4 39 11 13 47 48 50 26
22: 40 50 43 2 30
23: 8 9 7
24: 27 18 50 5 46
25: 3 36 5 42 12 17 4 30
26: 9 21 45
27: 7 41 39 14 15 24
28: 16 17 44 46 20
29: 32 18 46 47
30: 25 22
31: 40 34 44 39
32: 3 5 6 41 14 16 50 29
33: 35 6 40 9 46 17
34: 3 17 8 7 49 31
35: 33 3
36: 1 25
37: 48 43
38: 40 18 47
39: 4 12 45 49 18 19 21 27 31
40: 33 38 41 16 19 22 31
41: 32 3 40 9 42 46 27 10
42: 48 5 1 41 16 25
43: 13 37 22 45
44: 6 9 11 12 47 16 28 31
45: 5 7 10 43 13 47 48 39 26
46: 33 6 41 16 19 24 28 29
47: 1 38 11 44 45 14 21 29
48: 4 37 8 42 45 21
49: 34 20 5 39
50: 32 10 13 21 22 24
-------
1(-1)->2 3 4 5 6 7 8 9 10 11 15 17 36 42 47 
2(-1)->1 3 11 13 22 
3(-1)->1 2 8 9 11 25 32 34 35 41 
4(-1)->1 9 12 21 25 39 48 
5(-1)->1 8 15 24 25 32 42 45 49 
6(-1)->1 9 12 32 33 44 46 
7(-1)->1 19 23 27 34 45 
8(-1)->1 3 5 9 20 23 34 48 
9(-1)->1 3 4 6 8 16 23 26 33 41 44 
10(-1)->1 15 41 45 50 
11(-1)->1 2 3 13 21 44 47 
12(-1)->4 6 17 25 39 44 
13(-1)->2 11 21 43 45 50 
14(-1)->27 32 47 
15(-1)->1 5 10 27 
16(-1)->9 17 28 32 40 42 44 46 
17(-1)->1 12 16 25 28 33 34 
18(-1)->24 29 38 39 
19(-1)->7 39 40 46 
20(-1)->8 28 49 
21(-1)->4 11 13 26 39 47 48 50 
22(-1)->2 30 40 43 50 
23(-1)->7 8 9 
24(-1)->5 18 27 46 50 
25(-1)->3 4 5 12 17 30 36 42 
26(-1)->9 21 45 
27(-1)->7 14 15 24 39 41 
28(-1)->16 17 20 44 46 
29(-1)->18 32 46 47 
30(-1)->22 25 
31(-1)->34 39 40 44 
32(-1)->3 5 6 14 16 29 41 50 
33(-1)->6 9 17 35 40 46 
34(-1)->3 7 8 17 31 49 
35(-1)->3 33 
36(-1)->1 25 
37(-1)->43 48 
38(-1)->18 40 47 
39(-1)->4 12 18 19 21 27 31 45 49 
40(-1)->16 19 22 31 33 38 41 
41(-1)->3 9 10 27 32 40 42 46 
42(-1)->1 5 16 25 41 48 
43(-1)->13 22 37 45 
44(-1)->6 9 11 12 16 28 31 47 
45(-1)->5 7 10 13 26 39 43 47 48 
46(-1)->6 16 19 24 28 29 33 41 
47(-1)->1 11 14 21 29 38 44 45 
48(-1)->4 8 21 37 42 45 
49(-1)->5 20 34 39 
50(-1)->10 13 21 22 24 32 
-------
1(-1)->2 3 4 5 6 7 8 9 10 11 15 17 36 42 47 
9(-1)->1 3 4 6 8 16 23 26 33 41 44 
3(-1)->1 2 8 9 11 25 32 34 35 41 
5(-1)->1 8 15 24 25 32 42 45 49 
39(-1)->4 12 18 19 21 27 31 45 49 
45(-1)->5 7 10 13 26 39 43 47 48 
8(-1)->1 3 5 9 20 23 34 48 
16(-1)->9 17 28 32 40 42 44 46 
21(-1)->4 11 13 26 39 47 48 50 
25(-1)->3 4 5 12 17 30 36 42 
32(-1)->3 5 6 14 16 29 41 50 
41(-1)->3 9 10 27 32 40 42 46 
44(-1)->6 9 11 12 16 28 31 47 
46(-1)->6 16 19 24 28 29 33 41 
47(-1)->1 11 14 21 29 38 44 45 
4(-1)->1 9 12 21 25 39 48 
6(-1)->1 9 12 32 33 44 46 
11(-1)->1 2 3 13 21 44 47 
17(-1)->1 12 16 25 28 33 34 
40(-1)->16 19 22 31 33 38 41 
7(-1)->1 19 23 27 34 45 
12(-1)->4 6 17 25 39 44 
13(-1)->2 11 21 43 45 50 
27(-1)->7 14 15 24 39 41 
33(-1)->6 9 17 35 40 46 
34(-1)->3 7 8 17 31 49 
42(-1)->1 5 16 25 41 48 
48(-1)->4 8 21 37 42 45 
50(-1)->10 13 21 22 24 32 
2(-1)->1 3 11 13 22 
10(-1)->1 15 41 45 50 
22(-1)->2 30 40 43 50 
24(-1)->5 18 27 46 50 
28(-1)->16 17 20 44 46 
15(-1)->1 5 10 27 
18(-1)->24 29 38 39 
19(-1)->7 39 40 46 
29(-1)->18 32 46 47 
31(-1)->34 39 40 44 
43(-1)->13 22 37 45 
49(-1)->5 20 34 39 
14(-1)->27 32 47 
20(-1)->8 28 49 
23(-1)->7 8 9 
26(-1)->9 21 45 
38(-1)->18 40 47 
30(-1)->22 25 
35(-1)->3 33 
36(-1)->1 25 
37(-1)->43 48 
-------
1 2 3 11 

-------
2(-1)->1 3 11 13 22 
11(-1)->1 2 3 13 21 44 47 
3(-1)->1 2 8 9 11 25 32 34 35 41 
1(-1)->2 3 4 5 6 7 8 9 10 11 15 17 36 42 47 
9(-1)->1 3 4 6 8 16 23 26 33 41 44 
5(-1)->1 8 15 24 25 32 42 45 49 
39(-1)->4 12 18 19 21 27 31 45 49 
45(-1)->5 7 10 13 26 39 43 47 48 
8(-1)->1 3 5 9 20 23 34 48 
16(-1)->9 17 28 32 40 42 44 46 
21(-1)->4 11 13 26 39 47 48 50 
25(-1)->3 4 5 12 17 30 36 42 
32(-1)->3 5 6 14 16 29 41 50 
41(-1)->3 9 10 27 32 40 42 46 
44(-1)->6 9 11 12 16 28 31 47 
46(-1)->6 16 19 24 28 29 33 41 
47(-1)->1 11 14 21 29 38 44 45 
4(-1)->1 9 12 21 25 39 48 
6(-1)->1 9 12 32 33 44 46 
17(-1)->1 12 16 25 28 33 34 
40(-1)->16 19 22 31 33 38 41 
7(-1)->1 19 23 27 34 45 
12(-1)->4 6 17 25 39 44 
13(-1)->2 11 21 43 45 50 
27(-1)->7 14 15 24 39 41 
33(-1)->6 9 17 35 40 46 
34(-1)->3 7 8 17 31 49 
42(-1)->1 5 16 25 41 48 
48(-1)->4 8 21 37 42 45 
50(-1)->10 13 21 22 24 32 
10(-1)->1 15 41 45 50 
22(-1)->2 30 40 43 50 
24(-1)->5 18 27 46 50 
28(-1)->16 17 20 44 46 
15(-1)->1 5 10 27 
18(-1)->24 29 38 39 
19(-1)->7 39 40 46 
29(-1)->18 32 46 47 
31(-1)->34 39 40 44 
43(-1)->13 22 37 45 
49(-1)->5 20 34 39 
14(-1)->27 32 47 
20(-1)->8 28 49 
23(-1)->7 8 9 
26(-1)->9 21 45 
38(-1)->18 40 47 
30(-1)->22 25 
35(-1)->3 33 
36(-1)->1 25 
37(-1)->43 48 
-------
START TIME: 1433711427
-------
1(3)->2 3 4 5 6 7 8 9 10 11 15 17 36 42 47 
2(0)->1 3 11 13 22 
3(2)->1 2 8 9 11 25 32 34 35 41 
4(1)->1 9 12 21 25 39 48 
5(0)->1 8 15 24 25 32 42 45 49 
6(1)->1 9 12 32 33 44 46 
7(0)->1 19 23 27 34 45 
8(1)->1 3 5 9 20 23 34 48 
9(0)->1 3 4 6 8 16 23 26 33 41 44 
10(2)->1 15 41 45 50 
11(1)->1 2 3 13 21 44 47 
12(2)->4 6 17 25 39 44 
13(3)->2 11 21 43 45 50 
14(1)->27 32 47 
15(1)->1 5 10 27 
16(1)->9 17 28 32 40 42 44 46 
17(0)->1 12 16 25 28 33 34 
18(2)->24 29 38 39 
19(1)->7 39 40 46 
20(0)->8 28 49 
21(2)->4 11 13 26 39 47 48 50 
22(1)->2 30 40 43 50 
23(2)->7 8 9 
24(1)->5 18 27 46 50 
25(3)->3 4 5 12 17 30 36 42 
26(3)->9 21 45 
27(2)->7 14 15 24 39 41 
28(2)->16 17 20 44 46 
29(1)->18 32 46 47 
30(0)->22 25 
31(1)->34 39 40 44 
32(3)->3 5 6 14 16 29 41 50 
33(2)->6 9 17 35 40 46 
34(3)->3 7 8 17 31 49 
35(0)->3 33 
36(0)->1 25 
37(1)->43 48 
38(1)->18 40 47 
39(0)->4 12 18 19 21 27 31 45 49 
40(0)->16 19 22 31 33 38 41 
41(1)->3 9 10 27 32 40 42 46 
42(2)->1 5 16 25 41 48 
43(0)->13 22 37 45 
44(3)->6 9 11 12 16 28 31 47 
45(1)->5 7 10 13 26 39 43 47 48 
46(0)->6 16 19 24 28 29 33 41 
47(0)->1 11 14 21 29 38 44 45 
48(0)->4 8 21 37 42 45 
49(1)->5 20 34 39 
50(0)->10 13 21 22 24 32 
COUNT: 172
COLORS: 4
4
172
