1: 2 3 4 5 6 7 8 9 10 11 12 14 16 49 18 31
2: 1 3 8 44 16 31
3: 1 2 6
4: 32 1 37 39 8 46 50
5: 1 35 40 12 13 49 23 31
6: 1 3 42 19 23 27
7: 1 36 39 17 23 24 30 31
8: 1 2 4 10 13 24
9: 1 38 45 49 20 21 22
10: 1 8 42 43 12 48
11: 1 36 39 42 13 50
12: 1 5 10 15 49 21 27
13: 8 50 11 5 38
14: 1 42 45 15 21 22
15: 40 12 45 14 16 30 31
16: 1 2 43 35 15
17: 18 35 45 7
18: 1 37 38 39 44 17
19: 33 34 6 41 42 48 20 21 22 25
20: 9 19 29 22 33
21: 9 12 14 19 46 23 31
22: 9 19 20 37 14
23: 33 5 6 7 21 25
24: 8 44 36 37 7
25: 33 48 19 23 27 31
26: 27 41 43 36 38
27: 25 26 43 12 6
28: 49 42 37
29: 20 37 47
30: 37 7 41 45 46 15 50
31: 1 2 5 7 42 15 21 25
32: 48 4
33: 38 44 19 20 23 25
34: 49 19
35: 16 17 50 43 5
36: 37 7 11 48 24 26
37: 4 47 18 22 24 36 28 29 30
38: 33 9 13 46 49 18 26
39: 18 11 4 7
40: 49 50 47 5 15
41: 26 19 42 30
42: 6 41 10 11 14 19 28 31
43: 35 10 46 16 26 27
44: 24 33 18 2
45: 9 14 47 17 15 30
46: 4 38 43 47 21 30
47: 37 40 45 46 50 29
48: 32 25 10 19 36
49: 1 34 5 38 40 9 12 28
50: 35 4 40 11 13 47 30
-------
1(-1)->2 3 4 5 6 7 8 9 10 11 12 14 16 18 31 49 
2(-1)->1 3 8 16 31 44 
3(-1)->1 2 6 
4(-1)->1 8 32 37 39 46 50 
5(-1)->1 12 13 23 31 35 40 49 
6(-1)->1 3 19 23 27 42 
7(-1)->1 17 23 24 30 31 36 39 
8(-1)->1 2 4 10 13 24 
9(-1)->1 20 21 22 38 45 49 
10(-1)->1 8 12 42 43 48 
11(-1)->1 13 36 39 42 50 
12(-1)->1 5 10 15 21 27 49 
13(-1)->5 8 11 38 50 
14(-1)->1 15 21 22 42 45 
15(-1)->12 14 16 30 31 40 45 
16(-1)->1 2 15 35 43 
17(-1)->7 18 35 45 
18(-1)->1 17 37 38 39 44 
19(-1)->6 20 21 22 25 33 34 41 42 48 
20(-1)->9 19 22 29 33 
21(-1)->9 12 14 19 23 31 46 
22(-1)->9 14 19 20 37 
23(-1)->5 6 7 21 25 33 
24(-1)->7 8 36 37 44 
25(-1)->19 23 27 31 33 48 
26(-1)->27 36 38 41 43 
27(-1)->6 12 25 26 43 
28(-1)->37 42 49 
29(-1)->20 37 47 
30(-1)->7 15 37 41 45 46 50 
31(-1)->1 2 5 7 15 21 25 42 
32(-1)->4 48 
33(-1)->19 20 23 25 38 44 
34(-1)->19 49 
35(-1)->5 16 17 43 50 
36(-1)->7 11 24 26 37 48 
37(-1)->4 18 22 24 28 29 30 36 47 
38(-1)->9 13 18 26 33 46 49 
39(-1)->4 7 11 18 
40(-1)->5 15 47 49 50 
41(-1)->19 26 30 42 
42(-1)->6 10 11 14 19 28 31 41 
43(-1)->10 16 26 27 35 46 
44(-1)->2 18 24 33 
45(-1)->9 14 15 17 30 47 
46(-1)->4 21 30 38 43 47 
47(-1)->29 37 40 45 46 50 
48(-1)->10 19 25 32 36 
49(-1)->1 5 9 12 28 34 38 40 
50(-1)->4 11 13 30 35 40 47 
-------
1(-1)->2 3 4 5 6 7 8 9 10 11 12 14 16 18 31 49 
19(-1)->6 20 21 22 25 33 34 41 42 48 
37(-1)->4 18 22 24 28 29 30 36 47 
5(-1)->1 12 13 23 31 35 40 49 
7(-1)->1 17 23 24 30 31 36 39 
31(-1)->1 2 5 7 15 21 25 42 
42(-1)->6 10 11 14 19 28 31 41 
49(-1)->1 5 9 12 28 34 38 40 
4(-1)->1 8 32 37 39 46 50 
9(-1)->1 20 21 22 38 45 49 
12(-1)->1 5 10 15 21 27 49 
15(-1)->12 14 16 30 31 40 45 
21(-1)->9 12 14 19 23 31 46 
30(-1)->7 15 37 41 45 46 50 
38(-1)->9 13 18 26 33 46 49 
50(-1)->4 11 13 30 35 40 47 
2(-1)->1 3 8 16 31 44 
6(-1)->1 3 19 23 27 42 
8(-1)->1 2 4 10 13 24 
10(-1)->1 8 12 42 43 48 
11(-1)->1 13 36 39 42 50 
14(-1)->1 15 21 22 42 45 
18(-1)->1 17 37 38 39 44 
23(-1)->5 6 7 21 25 33 
25(-1)->19 23 27 31 33 48 
33(-1)->19 20 23 25 38 44 
36(-1)->7 11 24 26 37 48 
43(-1)->10 16 26 27 35 46 
45(-1)->9 14 15 17 30 47 
46(-1)->4 21 30 38 43 47 
47(-1)->29 37 40 45 46 50 
13(-1)->5 8 11 38 50 
16(-1)->1 2 15 35 43 
20(-1)->9 19 22 29 33 
22(-1)->9 14 19 20 37 
24(-1)->7 8 36 37 44 
26(-1)->27 36 38 41 43 
27(-1)->6 12 25 26 43 
35(-1)->5 16 17 43 50 
40(-1)->5 15 47 49 50 
48(-1)->10 19 25 32 36 
17(-1)->7 18 35 45 
39(-1)->4 7 11 18 
41(-1)->19 26 30 42 
44(-1)->2 18 24 33 
3(-1)->1 2 6 
28(-1)->37 42 49 
29(-1)->20 37 47 
32(-1)->4 48 
34(-1)->19 49 
-------
1 2 3 

-------
3(-1)->1 2 6 
2(-1)->1 3 8 16 31 44 
1(-1)->2 3 4 5 6 7 8 9 10 11 12 14 16 18 31 49 
19(-1)->6 20 21 22 25 33 34 41 42 48 
37(-1)->4 18 22 24 28 29 30 36 47 
5(-1)->1 12 13 23 31 35 40 49 
7(-1)->1 17 23 24 30 31 36 39 
31(-1)->1 2 5 7 15 21 25 42 
42(-1)->6 10 11 14 19 28 31 41 
49(-1)->1 5 9 12 28 34 38 40 
4(-1)->1 8 32 37 39 46 50 
9(-1)->1 20 21 22 38 45 49 
12(-1)->1 5 10 15 21 27 49 
15(-1)->12 14 16 30 31 40 45 
21(-1)->9 12 14 19 23 31 46 
30(-1)->7 15 37 41 45 46 50 
38(-1)->9 13 18 26 33 46 49 
50(-1)->4 11 13 30 35 40 47 
6(-1)->1 3 19 23 27 42 
8(-1)->1 2 4 10 13 24 
10(-1)->1 8 12 42 43 48 
11(-1)->1 13 36 39 42 50 
14(-1)->1 15 21 22 42 45 
18(-1)->1 17 37 38 39 44 
23(-1)->5 6 7 21 25 33 
25(-1)->19 23 27 31 33 48 
33(-1)->19 20 23 25 38 44 
36(-1)->7 11 24 26 37 48 
43(-1)->10 16 26 27 35 46 
45(-1)->9 14 15 17 30 47 
46(-1)->4 21 30 38 43 47 
47(-1)->29 37 40 45 46 50 
13(-1)->5 8 11 38 50 
16(-1)->1 2 15 35 43 
20(-1)->9 19 22 29 33 
22(-1)->9 14 19 20 37 
24(-1)->7 8 36 37 44 
26(-1)->27 36 38 41 43 
27(-1)->6 12 25 26 43 
35(-1)->5 16 17 43 50 
40(-1)->5 15 47 49 50 
48(-1)->10 19 25 32 36 
17(-1)->7 18 35 45 
39(-1)->4 7 11 18 
41(-1)->19 26 30 42 
44(-1)->2 18 24 33 
28(-1)->37 42 49 
29(-1)->20 37 47 
32(-1)->4 48 
34(-1)->19 49 
-------
START TIME: 1433711427
-------
1(2)->2 3 4 5 6 7 8 9 10 11 12 14 16 18 31 49 
2(1)->1 3 8 16 31 44 
3(0)->1 2 6 
4(1)->1 8 32 37 39 46 50 
5(0)->1 12 13 23 31 35 40 49 
6(3)->1 3 19 23 27 42 
7(0)->1 17 23 24 30 31 36 39 
8(3)->1 2 4 10 13 24 
9(0)->1 20 21 22 38 45 49 
10(0)->1 8 12 42 43 48 
11(3)->1 13 36 39 42 50 
12(3)->1 5 10 15 21 27 49 
13(1)->5 8 11 38 50 
14(3)->1 15 21 22 42 45 
15(0)->12 14 16 30 31 40 45 
16(3)->1 2 15 35 43 
17(3)->7 18 35 45 
18(1)->1 17 37 38 39 44 
19(0)->6 20 21 22 25 33 34 41 42 48 
20(1)->9 19 22 29 33 
21(1)->9 12 14 19 23 31 46 
22(2)->9 14 19 20 37 
23(2)->5 6 7 21 25 33 
24(2)->7 8 36 37 44 
25(1)->19 23 27 31 33 48 
26(0)->27 36 38 41 43 
27(2)->6 12 25 26 43 
28(2)->37 42 49 
29(2)->20 37 47 
30(1)->7 15 37 41 45 46 50 
31(3)->1 2 5 7 15 21 25 42 
32(0)->4 48 
33(3)->19 20 23 25 38 44 
34(2)->19 49 
35(2)->5 16 17 43 50 
36(1)->7 11 24 26 37 48 
37(0)->4 18 22 24 28 29 30 36 47 
38(2)->9 13 18 26 33 46 49 
39(2)->4 7 11 18 
40(2)->5 15 47 49 50 
41(2)->19 26 30 42 
42(1)->6 10 11 14 19 28 31 41 
43(1)->10 16 26 27 35 46 
44(0)->2 18 24 33 
45(2)->9 14 15 17 30 47 
46(0)->4 21 30 38 43 47 
47(1)->29 37 40 45 46 50 
48(2)->10 19 25 32 36 
49(1)->1 5 9 12 28 34 38 40 
50(0)->4 11 13 30 35 40 47 
COUNT: 207
COLORS: 4
4
207
