1: 2 3 4 5 6 7 8 9 10 11 12 13 14 15 16 17 18 19 20 21 22 23 24 25 26 27 28 29 36 43
2: 1 35 8 10 44 3 20 21 22 23 25 26 31
3: 32 1 34 4 8 9 42 11 12 2 46 15 20 47 29
4: 33 3 5 38 1 40 43 44 18 27 37
5: 32 1 4 6 40 41 17 20 21 24
6: 32 1 5 41 43 12 13 16 50 20 24 28
7: 1 35 11 46 15 27
8: 1 2 35 33 10 50 3 24 27
9: 1 3 46 17 50 23
10: 1 2 8 50 49 18 40 29
11: 48 34 3 1 7 46 16 29 30 31
12: 33 3 1 6 17 49 24
13: 1 37 6 40 42 44 48 22 23 26 30 31
14: 1 36 39 41 44 49 23
15: 1 3 38 7 18 20 28 29
16: 1 37 6 40 11 48 18 25
17: 32 1 36 5 38 40 44 12 46 21 9
18: 48 4 33 10 43 15 16 49 1 22 24 28
19: 32 1 50 27 28
20: 1 2 3 36 5 6 39 40 15 28 29 30
21: 33 34 36 5 1 41 2 17 24 26 31
22: 1 34 35 2 13 18 29 31
23: 1 34 38 40 41 2 13 14 9 26 30
24: 1 5 6 8 41 46 44 12 18 21 30 31
25: 1 2 42 44 45 46 16 29 30 31
26: 1 2 41 13 46 47 49 21 23 29
27: 1 4 7 8 42 46 19 30
28: 1 35 36 6 41 15 18 19 20
29: 1 34 3 10 11 44 15 48 20 22 25 26
30: 43 11 13 45 20 23 24 25 27
31: 32 33 2 11 13 49 21 22 24 25
32: 3 5 6 17 40 43 49 19 31
33: 36 8 12 44 46 40 18 21 4 31
34: 3 36 42 11 48 49 21 22 23 29
35: 2 7 8 44 45 22 28
36: 1 34 38 33 41 46 14 17 20 21 28
37: 4 39 42 13 16 50
38: 36 41 43 44 45 15 17 50 23 4
39: 20 45 14 37
40: 32 33 4 5 10 44 13 46 16 17 20 23
41: 5 36 38 6 43 44 45 14 47 46 23 24 26 28 21
42: 34 3 37 13 25 27
43: 32 1 4 38 6 41 47 49 18 30
44: 33 2 35 4 38 40 41 13 14 17 24 25 29
45: 35 38 39 41 46 47 25 30
46: 33 3 36 17 40 41 11 45 49 50 25 9 24 7 26 27
47: 3 41 43 45 48 26
48: 34 11 13 47 16 18 29
49: 32 34 10 43 12 14 18 46 26 31
50: 37 6 8 9 10 46 19 38
-------
1(-1)->2 3 4 5 6 7 8 9 10 11 12 13 14 15 16 17 18 19 20 21 22 23 24 25 26 27 28 29 36 43 
2(-1)->1 3 8 10 20 21 22 23 25 26 31 35 44 
3(-1)->1 2 4 8 9 11 12 15 20 29 32 34 42 46 47 
4(-1)->1 3 5 18 27 33 37 38 40 43 44 
5(-1)->1 4 6 17 20 21 24 32 40 41 
6(-1)->1 5 12 13 16 20 24 28 32 41 43 50 
7(-1)->1 11 15 27 35 46 
8(-1)->1 2 3 10 24 27 33 35 50 
9(-1)->1 3 17 23 46 50 
10(-1)->1 2 8 18 29 40 49 50 
11(-1)->1 3 7 16 29 30 31 34 46 48 
12(-1)->1 3 6 17 24 33 49 
13(-1)->1 6 22 23 26 30 31 37 40 42 44 48 
14(-1)->1 23 36 39 41 44 49 
15(-1)->1 3 7 18 20 28 29 38 
16(-1)->1 6 11 18 25 37 40 48 
17(-1)->1 5 9 12 21 32 36 38 40 44 46 
18(-1)->1 4 10 15 16 22 24 28 33 43 48 49 
19(-1)->1 27 28 32 50 
20(-1)->1 2 3 5 6 15 28 29 30 36 39 40 
21(-1)->1 2 5 17 24 26 31 33 34 36 41 
22(-1)->1 2 13 18 29 31 34 35 
23(-1)->1 2 9 13 14 26 30 34 38 40 41 
24(-1)->1 5 6 8 12 18 21 30 31 41 44 46 
25(-1)->1 2 16 29 30 31 42 44 45 46 
26(-1)->1 2 13 21 23 29 41 46 47 49 
27(-1)->1 4 7 8 19 30 42 46 
28(-1)->1 6 15 18 19 20 35 36 41 
29(-1)->1 3 10 11 15 20 22 25 26 34 44 48 
30(-1)->11 13 20 23 24 25 27 43 45 
31(-1)->2 11 13 21 22 24 25 32 33 49 
32(-1)->3 5 6 17 19 31 40 43 49 
33(-1)->4 8 12 18 21 31 36 40 44 46 
34(-1)->3 11 21 22 23 29 36 42 48 49 
35(-1)->2 7 8 22 28 44 45 
36(-1)->1 14 17 20 21 28 33 34 38 41 46 
37(-1)->4 13 16 39 42 50 
38(-1)->4 15 17 23 36 41 43 44 45 50 
39(-1)->14 20 37 45 
40(-1)->4 5 10 13 16 17 20 23 32 33 44 46 
41(-1)->5 6 14 21 23 24 26 28 36 38 43 44 45 46 47 
42(-1)->3 13 25 27 34 37 
43(-1)->1 4 6 18 30 32 38 41 47 49 
44(-1)->2 4 13 14 17 24 25 29 33 35 38 40 41 
45(-1)->25 30 35 38 39 41 46 47 
46(-1)->3 7 9 11 17 24 25 26 27 33 36 40 41 45 49 50 
47(-1)->3 26 41 43 45 48 
48(-1)->11 13 16 18 29 34 47 
49(-1)->10 12 14 18 26 31 32 34 43 46 
50(-1)->6 8 9 10 19 37 38 46 
-------
1(-1)->2 3 4 5 6 7 8 9 10 11 12 13 14 15 16 17 18 19 20 21 22 23 24 25 26 27 28 29 36 43 
46(-1)->3 7 9 11 17 24 25 26 27 33 36 40 41 45 49 50 
3(-1)->1 2 4 8 9 11 12 15 20 29 32 34 42 46 47 
41(-1)->5 6 14 21 23 24 26 28 36 38 43 44 45 46 47 
2(-1)->1 3 8 10 20 21 22 23 25 26 31 35 44 
44(-1)->2 4 13 14 17 24 25 29 33 35 38 40 41 
6(-1)->1 5 12 13 16 20 24 28 32 41 43 50 
13(-1)->1 6 22 23 26 30 31 37 40 42 44 48 
18(-1)->1 4 10 15 16 22 24 28 33 43 48 49 
20(-1)->1 2 3 5 6 15 28 29 30 36 39 40 
24(-1)->1 5 6 8 12 18 21 30 31 41 44 46 
29(-1)->1 3 10 11 15 20 22 25 26 34 44 48 
40(-1)->4 5 10 13 16 17 20 23 32 33 44 46 
4(-1)->1 3 5 18 27 33 37 38 40 43 44 
17(-1)->1 5 9 12 21 32 36 38 40 44 46 
21(-1)->1 2 5 17 24 26 31 33 34 36 41 
23(-1)->1 2 9 13 14 26 30 34 38 40 41 
36(-1)->1 14 17 20 21 28 33 34 38 41 46 
5(-1)->1 4 6 17 20 21 24 32 40 41 
11(-1)->1 3 7 16 29 30 31 34 46 48 
25(-1)->1 2 16 29 30 31 42 44 45 46 
26(-1)->1 2 13 21 23 29 41 46 47 49 
31(-1)->2 11 13 21 22 24 25 32 33 49 
33(-1)->4 8 12 18 21 31 36 40 44 46 
34(-1)->3 11 21 22 23 29 36 42 48 49 
38(-1)->4 15 17 23 36 41 43 44 45 50 
43(-1)->1 4 6 18 30 32 38 41 47 49 
49(-1)->10 12 14 18 26 31 32 34 43 46 
8(-1)->1 2 3 10 24 27 33 35 50 
28(-1)->1 6 15 18 19 20 35 36 41 
30(-1)->11 13 20 23 24 25 27 43 45 
32(-1)->3 5 6 17 19 31 40 43 49 
10(-1)->1 2 8 18 29 40 49 50 
15(-1)->1 3 7 18 20 28 29 38 
16(-1)->1 6 11 18 25 37 40 48 
22(-1)->1 2 13 18 29 31 34 35 
27(-1)->1 4 7 8 19 30 42 46 
45(-1)->25 30 35 38 39 41 46 47 
50(-1)->6 8 9 10 19 37 38 46 
12(-1)->1 3 6 17 24 33 49 
14(-1)->1 23 36 39 41 44 49 
35(-1)->2 7 8 22 28 44 45 
48(-1)->11 13 16 18 29 34 47 
7(-1)->1 11 15 27 35 46 
9(-1)->1 3 17 23 46 50 
37(-1)->4 13 16 39 42 50 
42(-1)->3 13 25 27 34 37 
47(-1)->3 26 41 43 45 48 
19(-1)->1 27 28 32 50 
39(-1)->14 20 37 45 
-------
1 2 3 8 

-------
8(-1)->1 2 3 10 24 27 33 35 50 
2(-1)->1 3 8 10 20 21 22 23 25 26 31 35 44 
3(-1)->1 2 4 8 9 11 12 15 20 29 32 34 42 46 47 
1(-1)->2 3 4 5 6 7 8 9 10 11 12 13 14 15 16 17 18 19 20 21 22 23 24 25 26 27 28 29 36 43 
46(-1)->3 7 9 11 17 24 25 26 27 33 36 40 41 45 49 50 
41(-1)->5 6 14 21 23 24 26 28 36 38 43 44 45 46 47 
44(-1)->2 4 13 14 17 24 25 29 33 35 38 40 41 
6(-1)->1 5 12 13 16 20 24 28 32 41 43 50 
13(-1)->1 6 22 23 26 30 31 37 40 42 44 48 
18(-1)->1 4 10 15 16 22 24 28 33 43 48 49 
20(-1)->1 2 3 5 6 15 28 29 30 36 39 40 
24(-1)->1 5 6 8 12 18 21 30 31 41 44 46 
29(-1)->1 3 10 11 15 20 22 25 26 34 44 48 
40(-1)->4 5 10 13 16 17 20 23 32 33 44 46 
4(-1)->1 3 5 18 27 33 37 38 40 43 44 
17(-1)->1 5 9 12 21 32 36 38 40 44 46 
21(-1)->1 2 5 17 24 26 31 33 34 36 41 
23(-1)->1 2 9 13 14 26 30 34 38 40 41 
36(-1)->1 14 17 20 21 28 33 34 38 41 46 
5(-1)->1 4 6 17 20 21 24 32 40 41 
11(-1)->1 3 7 16 29 30 31 34 46 48 
25(-1)->1 2 16 29 30 31 42 44 45 46 
26(-1)->1 2 13 21 23 29 41 46 47 49 
31(-1)->2 11 13 21 22 24 25 32 33 49 
33(-1)->4 8 12 18 21 31 36 40 44 46 
34(-1)->3 11 21 22 23 29 36 42 48 49 
38(-1)->4 15 17 23 36 41 43 44 45 50 
43(-1)->1 4 6 18 30 32 38 41 47 49 
49(-1)->10 12 14 18 26 31 32 34 43 46 
28(-1)->1 6 15 18 19 20 35 36 41 
30(-1)->11 13 20 23 24 25 27 43 45 
32(-1)->3 5 6 17 19 31 40 43 49 
10(-1)->1 2 8 18 29 40 49 50 
15(-1)->1 3 7 18 20 28 29 38 
16(-1)->1 6 11 18 25 37 40 48 
22(-1)->1 2 13 18 29 31 34 35 
27(-1)->1 4 7 8 19 30 42 46 
45(-1)->25 30 35 38 39 41 46 47 
50(-1)->6 8 9 10 19 37 38 46 
12(-1)->1 3 6 17 24 33 49 
14(-1)->1 23 36 39 41 44 49 
35(-1)->2 7 8 22 28 44 45 
48(-1)->11 13 16 18 29 34 47 
7(-1)->1 11 15 27 35 46 
9(-1)->1 3 17 23 46 50 
37(-1)->4 13 16 39 42 50 
42(-1)->3 13 25 27 34 37 
47(-1)->3 26 41 43 45 48 
19(-1)->1 27 28 32 50 
39(-1)->14 20 37 45 
-------
START TIME: 1433711822
10000
20000
30000
40000
50000
-------
1(3)->2 3 4 5 6 7 8 9 10 11 12 13 14 15 16 17 18 19 20 21 22 23 24 25 26 27 28 29 36 43 
2(1)->1 3 8 10 20 21 22 23 25 26 31 35 44 
3(2)->1 2 4 8 9 11 12 15 20 29 32 34 42 46 47 
4(1)->1 3 5 18 27 33 37 38 40 43 44 
5(4)->1 4 6 17 20 21 24 32 40 41 
6(1)->1 5 12 13 16 20 24 28 32 41 43 50 
7(4)->1 11 15 27 35 46 
8(0)->1 2 3 10 24 27 33 35 50 
9(4)->1 3 17 23 46 50 
10(2)->1 2 8 18 29 40 49 50 
11(1)->1 3 7 16 29 30 31 34 46 48 
12(0)->1 3 6 17 24 33 49 
13(4)->1 6 22 23 26 30 31 37 40 42 44 48 
14(4)->1 23 36 39 41 44 49 
15(1)->1 3 7 18 20 28 29 38 
16(4)->1 6 11 18 25 37 40 48 
17(1)->1 5 9 12 21 32 36 38 40 44 46 
18(0)->1 4 10 15 16 22 24 28 33 43 48 49 
19(1)->1 27 28 32 50 
20(0)->1 2 3 5 6 15 28 29 30 36 39 40 
21(0)->1 2 5 17 24 26 31 33 34 36 41 
22(2)->1 2 13 18 29 31 34 35 
23(0)->1 2 9 13 14 26 30 34 38 40 41 
24(2)->1 5 6 8 12 18 21 30 31 41 44 46 
25(2)->1 2 16 29 30 31 42 44 45 46 
26(2)->1 2 13 21 23 29 41 46 47 49 
27(2)->1 4 7 8 19 30 42 46 
28(4)->1 6 15 18 19 20 35 36 41 
29(4)->1 3 10 11 15 20 22 25 26 34 44 48 
30(3)->11 13 20 23 24 25 27 43 45 
31(3)->2 11 13 21 22 24 25 32 33 49 
32(0)->3 5 6 17 19 31 40 43 49 
33(4)->4 8 12 18 21 31 36 40 44 46 
34(3)->3 11 21 22 23 29 36 42 48 49 
35(3)->2 7 8 22 28 44 45 
36(2)->1 14 17 20 21 28 33 34 38 41 46 
37(0)->4 13 16 39 42 50 
38(4)->4 15 17 23 36 41 43 44 45 50 
39(2)->14 20 37 45 
40(3)->4 5 10 13 16 17 20 23 32 33 44 46 
41(3)->5 6 14 21 23 24 26 28 36 38 43 44 45 46 47 
42(1)->3 13 25 27 34 37 
43(2)->1 4 6 18 30 32 38 41 47 49 
44(0)->2 4 13 14 17 24 25 29 33 35 38 40 41 
45(1)->25 30 35 38 39 41 46 47 
46(0)->3 7 9 11 17 24 25 26 27 33 36 40 41 45 49 50 
47(0)->3 26 41 43 45 48 
48(2)->11 13 16 18 29 34 47 
49(1)->10 12 14 18 26 31 32 34 43 46 
50(3)->6 8 9 10 19 37 38 46 
COUNT: 57515
COLORS: 5
5
57515
