1: 2 3 4 5 6 7 8 9 10 11 12 13 14 15 16 17 18 19 20 21 22 23 24 25 26 32 36 42 45 47 49
2: 1 3 37 11 44 13 14 15 17 21 22 26 5 31
3: 32 1 34 35 8 41 11 2 9 25
4: 1 39 9 11 12 48 49 50 21 25
5: 32 1 2 36 8 9 42 13 45 15 49 50 24 25
6: 32 33 35 1 9 12 46 44 31
7: 1 34 38 45 16 19 23 27
8: 32 1 34 3 5 9 12 48 20 23 24 26 27
9: 33 3 4 5 6 1 8 41 44 16 40 22 23 26
10: 1 41 42 45 15 50 28
11: 1 2 3 4 44 13 47 21
12: 1 4 6 39 8 44 47 16 17 25 28
13: 32 1 2 43 5 11 44 45 50 21 26 30
14: 32 1 2 47 48 27
15: 1 2 35 5 41 10 45 46 48 20 27
16: 32 1 12 40 9 42 7 44 45 46 47 17 28 31
17: 32 33 34 1 44 12 2 16 25 28
18: 1 38 39 45 50 24 29
19: 1 39 40 43 46 48 7
20: 1 35 8 15 49 22 28
21: 1 2 4 38 39 11 13 47 48 49 50 26 30
22: 1 2 40 9 43 50 20 30
23: 8 9 1 7
24: 1 36 5 8 50 46 18 27
25: 1 3 36 5 42 43 12 17 4 28 30
26: 1 2 8 9 13 45 21
27: 7 8 41 39 14 15 24 31
28: 35 37 12 10 44 46 16 17 20 25
29: 32 18 46 47
30: 25 42 21 22 13
31: 34 35 6 39 40 42 44 2 16 27
32: 1 3 5 6 8 41 43 13 14 16 17 50 29
33: 35 6 40 9 45 46 48 17
34: 3 38 17 8 7 49 43 31
35: 33 3 6 15 20 28 31
36: 1 37 40 44 45 50 24 25 5
37: 48 28 2 43 36
38: 34 7 40 41 44 47 18 21
39: 4 12 45 49 18 19 21 27 31
40: 33 36 38 41 46 16 19 22 9 31
41: 32 3 38 40 9 42 46 15 27 10
42: 48 5 1 41 10 43 45 16 49 25 30 31
43: 32 34 37 42 13 45 19 22 25
44: 2 36 38 6 9 11 12 13 47 16 17 28 31
45: 33 18 36 5 16 7 10 43 13 47 48 50 1 39 26 15 42
46: 33 6 40 41 15 16 50 19 24 28 29
47: 1 38 12 11 44 45 14 16 21 29
48: 33 4 37 8 42 45 14 15 19 21
49: 1 34 4 5 39 42 20 21
50: 32 4 5 10 13 46 45 18 21 22 24 36
-------
1(-1)->2 3 4 5 6 7 8 9 10 11 12 13 14 15 16 17 18 19 20 21 22 23 24 25 26 32 36 42 45 47 49 
2(-1)->1 3 5 11 13 14 15 17 21 22 26 31 37 44 
3(-1)->1 2 8 9 11 25 32 34 35 41 
4(-1)->1 9 11 12 21 25 39 48 49 50 
5(-1)->1 2 8 9 13 15 24 25 32 36 42 45 49 50 
6(-1)->1 9 12 31 32 33 35 44 46 
7(-1)->1 16 19 23 27 34 38 45 
8(-1)->1 3 5 9 12 20 23 24 26 27 32 34 48 
9(-1)->1 3 4 5 6 8 16 22 23 26 33 40 41 44 
10(-1)->1 15 28 41 42 45 50 
11(-1)->1 2 3 4 13 21 44 47 
12(-1)->1 4 6 8 16 17 25 28 39 44 47 
13(-1)->1 2 5 11 21 26 30 32 43 44 45 50 
14(-1)->1 2 27 32 47 48 
15(-1)->1 2 5 10 20 27 35 41 45 46 48 
16(-1)->1 7 9 12 17 28 31 32 40 42 44 45 46 47 
17(-1)->1 2 12 16 25 28 32 33 34 44 
18(-1)->1 24 29 38 39 45 50 
19(-1)->1 7 39 40 43 46 48 
20(-1)->1 8 15 22 28 35 49 
21(-1)->1 2 4 11 13 26 30 38 39 47 48 49 50 
22(-1)->1 2 9 20 30 40 43 50 
23(-1)->1 7 8 9 
24(-1)->1 5 8 18 27 36 46 50 
25(-1)->1 3 4 5 12 17 28 30 36 42 43 
26(-1)->1 2 8 9 13 21 45 
27(-1)->7 8 14 15 24 31 39 41 
28(-1)->10 12 16 17 20 25 35 37 44 46 
29(-1)->18 32 46 47 
30(-1)->13 21 22 25 42 
31(-1)->2 6 16 27 34 35 39 40 42 44 
32(-1)->1 3 5 6 8 13 14 16 17 29 41 43 50 
33(-1)->6 9 17 35 40 45 46 48 
34(-1)->3 7 8 17 31 38 43 49 
35(-1)->3 6 15 20 28 31 33 
36(-1)->1 5 24 25 37 40 44 45 50 
37(-1)->2 28 36 43 48 
38(-1)->7 18 21 34 40 41 44 47 
39(-1)->4 12 18 19 21 27 31 45 49 
40(-1)->9 16 19 22 31 33 36 38 41 46 
41(-1)->3 9 10 15 27 32 38 40 42 46 
42(-1)->1 5 10 16 25 30 31 41 43 45 48 49 
43(-1)->13 19 22 25 32 34 37 42 45 
44(-1)->2 6 9 11 12 13 16 17 28 31 36 38 47 
45(-1)->1 5 7 10 13 15 16 18 26 33 36 39 42 43 47 48 50 
46(-1)->6 15 16 19 24 28 29 33 40 41 50 
47(-1)->1 11 12 14 16 21 29 38 44 45 
48(-1)->4 8 14 15 19 21 33 37 42 45 
49(-1)->1 4 5 20 21 34 39 42 
50(-1)->4 5 10 13 18 21 22 24 32 36 45 46 
-------
1(-1)->2 3 4 5 6 7 8 9 10 11 12 13 14 15 16 17 18 19 20 21 22 23 24 25 26 32 36 42 45 47 49 
45(-1)->1 5 7 10 13 15 16 18 26 33 36 39 42 43 47 48 50 
2(-1)->1 3 5 11 13 14 15 17 21 22 26 31 37 44 
5(-1)->1 2 8 9 13 15 24 25 32 36 42 45 49 50 
9(-1)->1 3 4 5 6 8 16 22 23 26 33 40 41 44 
16(-1)->1 7 9 12 17 28 31 32 40 42 44 45 46 47 
8(-1)->1 3 5 9 12 20 23 24 26 27 32 34 48 
21(-1)->1 2 4 11 13 26 30 38 39 47 48 49 50 
32(-1)->1 3 5 6 8 13 14 16 17 29 41 43 50 
44(-1)->2 6 9 11 12 13 16 17 28 31 36 38 47 
13(-1)->1 2 5 11 21 26 30 32 43 44 45 50 
42(-1)->1 5 10 16 25 30 31 41 43 45 48 49 
50(-1)->4 5 10 13 18 21 22 24 32 36 45 46 
12(-1)->1 4 6 8 16 17 25 28 39 44 47 
15(-1)->1 2 5 10 20 27 35 41 45 46 48 
25(-1)->1 3 4 5 12 17 28 30 36 42 43 
46(-1)->6 15 16 19 24 28 29 33 40 41 50 
3(-1)->1 2 8 9 11 25 32 34 35 41 
4(-1)->1 9 11 12 21 25 39 48 49 50 
17(-1)->1 2 12 16 25 28 32 33 34 44 
28(-1)->10 12 16 17 20 25 35 37 44 46 
31(-1)->2 6 16 27 34 35 39 40 42 44 
40(-1)->9 16 19 22 31 33 36 38 41 46 
41(-1)->3 9 10 15 27 32 38 40 42 46 
47(-1)->1 11 12 14 16 21 29 38 44 45 
48(-1)->4 8 14 15 19 21 33 37 42 45 
6(-1)->1 9 12 31 32 33 35 44 46 
36(-1)->1 5 24 25 37 40 44 45 50 
39(-1)->4 12 18 19 21 27 31 45 49 
43(-1)->13 19 22 25 32 34 37 42 45 
7(-1)->1 16 19 23 27 34 38 45 
11(-1)->1 2 3 4 13 21 44 47 
22(-1)->1 2 9 20 30 40 43 50 
24(-1)->1 5 8 18 27 36 46 50 
27(-1)->7 8 14 15 24 31 39 41 
33(-1)->6 9 17 35 40 45 46 48 
34(-1)->3 7 8 17 31 38 43 49 
38(-1)->7 18 21 34 40 41 44 47 
49(-1)->1 4 5 20 21 34 39 42 
10(-1)->1 15 28 41 42 45 50 
18(-1)->1 24 29 38 39 45 50 
19(-1)->1 7 39 40 43 46 48 
20(-1)->1 8 15 22 28 35 49 
26(-1)->1 2 8 9 13 21 45 
35(-1)->3 6 15 20 28 31 33 
14(-1)->1 2 27 32 47 48 
30(-1)->13 21 22 25 42 
37(-1)->2 28 36 43 48 
23(-1)->1 7 8 9 
29(-1)->18 32 46 47 
-------
1 5 13 45 

-------
13(-1)->1 2 5 11 21 26 30 32 43 44 45 50 
5(-1)->1 2 8 9 13 15 24 25 32 36 42 45 49 50 
45(-1)->1 5 7 10 13 15 16 18 26 33 36 39 42 43 47 48 50 
1(-1)->2 3 4 5 6 7 8 9 10 11 12 13 14 15 16 17 18 19 20 21 22 23 24 25 26 32 36 42 45 47 49 
2(-1)->1 3 5 11 13 14 15 17 21 22 26 31 37 44 
9(-1)->1 3 4 5 6 8 16 22 23 26 33 40 41 44 
16(-1)->1 7 9 12 17 28 31 32 40 42 44 45 46 47 
8(-1)->1 3 5 9 12 20 23 24 26 27 32 34 48 
21(-1)->1 2 4 11 13 26 30 38 39 47 48 49 50 
32(-1)->1 3 5 6 8 13 14 16 17 29 41 43 50 
44(-1)->2 6 9 11 12 13 16 17 28 31 36 38 47 
42(-1)->1 5 10 16 25 30 31 41 43 45 48 49 
50(-1)->4 5 10 13 18 21 22 24 32 36 45 46 
12(-1)->1 4 6 8 16 17 25 28 39 44 47 
15(-1)->1 2 5 10 20 27 35 41 45 46 48 
25(-1)->1 3 4 5 12 17 28 30 36 42 43 
46(-1)->6 15 16 19 24 28 29 33 40 41 50 
3(-1)->1 2 8 9 11 25 32 34 35 41 
4(-1)->1 9 11 12 21 25 39 48 49 50 
17(-1)->1 2 12 16 25 28 32 33 34 44 
28(-1)->10 12 16 17 20 25 35 37 44 46 
31(-1)->2 6 16 27 34 35 39 40 42 44 
40(-1)->9 16 19 22 31 33 36 38 41 46 
41(-1)->3 9 10 15 27 32 38 40 42 46 
47(-1)->1 11 12 14 16 21 29 38 44 45 
48(-1)->4 8 14 15 19 21 33 37 42 45 
6(-1)->1 9 12 31 32 33 35 44 46 
36(-1)->1 5 24 25 37 40 44 45 50 
39(-1)->4 12 18 19 21 27 31 45 49 
43(-1)->13 19 22 25 32 34 37 42 45 
7(-1)->1 16 19 23 27 34 38 45 
11(-1)->1 2 3 4 13 21 44 47 
22(-1)->1 2 9 20 30 40 43 50 
24(-1)->1 5 8 18 27 36 46 50 
27(-1)->7 8 14 15 24 31 39 41 
33(-1)->6 9 17 35 40 45 46 48 
34(-1)->3 7 8 17 31 38 43 49 
38(-1)->7 18 21 34 40 41 44 47 
49(-1)->1 4 5 20 21 34 39 42 
10(-1)->1 15 28 41 42 45 50 
18(-1)->1 24 29 38 39 45 50 
19(-1)->1 7 39 40 43 46 48 
20(-1)->1 8 15 22 28 35 49 
26(-1)->1 2 8 9 13 21 45 
35(-1)->3 6 15 20 28 31 33 
14(-1)->1 2 27 32 47 48 
30(-1)->13 21 22 25 42 
37(-1)->2 28 36 43 48 
23(-1)->1 7 8 9 
29(-1)->18 32 46 47 
-------
START TIME: 1433711825
10000
-------
1(3)->2 3 4 5 6 7 8 9 10 11 12 13 14 15 16 17 18 19 20 21 22 23 24 25 26 32 36 42 45 47 49 
2(2)->1 3 5 11 13 14 15 17 21 22 26 31 37 44 
3(0)->1 2 8 9 11 25 32 34 35 41 
4(0)->1 9 11 12 21 25 39 48 49 50 
5(1)->1 2 8 9 13 15 24 25 32 36 42 45 49 50 
6(1)->1 9 12 31 32 33 35 44 46 
7(4)->1 16 19 23 27 34 38 45 
8(4)->1 3 5 9 12 20 23 24 26 27 32 34 48 
9(2)->1 3 4 5 6 8 16 22 23 26 33 40 41 44 
10(1)->1 15 28 41 42 45 50 
11(1)->1 2 3 4 13 21 44 47 
12(2)->1 4 6 8 16 17 25 28 39 44 47 
13(0)->1 2 5 11 21 26 30 32 43 44 45 50 
14(4)->1 2 27 32 47 48 
15(4)->1 2 5 10 20 27 35 41 45 46 48 
16(1)->1 7 9 12 17 28 31 32 40 42 44 45 46 47 
17(0)->1 2 12 16 25 28 32 33 34 44 
18(0)->1 24 29 38 39 45 50 
19(2)->1 7 39 40 43 46 48 
20(1)->1 8 15 22 28 35 49 
21(4)->1 2 4 11 13 26 30 38 39 47 48 49 50 
22(0)->1 2 9 20 30 40 43 50 
23(0)->1 7 8 9 
24(2)->1 5 8 18 27 36 46 50 
25(4)->1 3 4 5 12 17 28 30 36 42 43 
26(1)->1 2 8 9 13 21 45 
27(0)->7 8 14 15 24 31 39 41 
28(3)->10 12 16 17 20 25 35 37 44 46 
29(1)->18 32 46 47 
30(1)->13 21 22 25 42 
31(3)->2 6 16 27 34 35 39 40 42 44 
32(2)->1 3 5 6 8 13 14 16 17 29 41 43 50 
33(3)->6 9 17 35 40 45 46 48 
34(1)->3 7 8 17 31 38 43 49 
35(2)->3 6 15 20 28 31 33 
36(0)->1 5 24 25 37 40 44 45 50 
37(4)->2 28 36 43 48 
38(2)->7 18 21 34 40 41 44 47 
39(1)->4 12 18 19 21 27 31 45 49 
40(4)->9 16 19 22 31 33 36 38 41 46 
41(3)->3 9 10 15 27 32 38 40 42 46 
42(0)->1 5 10 16 25 30 31 41 43 45 48 49 
43(3)->13 19 22 25 32 34 37 42 45 
44(4)->2 6 9 11 12 13 16 17 28 31 36 38 47 
45(2)->1 5 7 10 13 15 16 18 26 33 36 39 42 43 47 48 50 
46(0)->6 15 16 19 24 28 29 33 40 41 50 
47(0)->1 11 12 14 16 21 29 38 44 45 
48(1)->4 8 14 15 19 21 33 37 42 45 
49(2)->1 4 5 20 21 34 39 42 
50(3)->4 5 10 13 18 21 22 24 32 36 45 46 
COUNT: 12248
COLORS: 5
5
12248
