1: 2 3 4 5 6 7 8 9 10 11 12 13 14 15 16 17 18 19 20 21 22 23 24 25 26 27 28 29 30 31 32 33 34 35 36 37 38 39 40 41 42 43 44 45 46 47 48
2: 1 3 4 7 8 9 10 12 15 16 17 18 23 26 28 29 30 32 33 36 37 38 39 41 42 43 50
3: 32 1 2 4 39 45 16 17 21 24 36 28
4: 3 1 34 35 38 7 8 42 11 2 47 19 22 10
5: 1 6 38 41 10 11 44 48 50 22 24 27 28 30
6: 32 1 35 36 5 38 7 44 42 43 12 13 14 45 49 21 24 25 26 30
7: 1 2 4 6 44 43 12 34 16 17 18 19 20 22 29
8: 32 1 2 35 4 37 12 13 47 48 27
9: 32 33 2 1 40 45 15 21 22 26
10: 1 2 36 5 40 12 16 23 25 4
11: 1 35 4 5 40 44 48 25 26 30 37
12: 1 34 33 6 7 8 41 10 18 13 46 47 49 50 20 22 24 2 37
13: 32 1 35 6 8 42 43 12 14 47 16 49 18 19 20 23 25 31
14: 1 6 41 44 13 46 47 16 21 23 24 25 31
15: 1 2 36 9 46 47 49 22 25 28
16: 1 2 35 33 39 40 42 7 44 13 14 3 21 27 10
17: 1 2 3 7 39 45 34 49 19 24 27 29
18: 1 2 12 7 41 42 44 13 46 47 25 29
19: 1 35 4 7 39 13 48 49 20 17 43 25 27 21
20: 1 39 40 7 12 13 19 23 24 26 29 31
21: 1 3 38 6 9 44 45 14 16 49 19 27
22: 1 35 4 5 7 9 39 12 15 48 49 50 43 25 28
23: 1 2 35 36 38 40 10 13 46 47 20 14 27 28
24: 32 1 3 36 6 38 28 44 12 14 48 17 50 20 5 31
25: 32 1 35 6 10 11 13 14 15 48 18 19 22 27
26: 1 2 11 6 40 9 43 44 46 48 50 20 29
27: 1 35 5 38 49 8 41 42 16 17 19 21 23 25
28: 33 34 35 5 1 43 24 2 47 48 49 3 22 23 45 15
29: 1 2 35 36 49 7 40 42 34 17 18 20 26 30
30: 32 1 2 5 6 11 44 46 50 29
31: 1 41 44 13 46 20 14 24
32: 1 2 3 36 6 38 8 9 42 13 45 24 25 30
33: 1 2 37 16 39 9 12 47 48 49 28
34: 1 35 4 7 40 42 12 48 17 28 29
35: 1 34 4 6 8 42 11 13 16 19 22 23 25 27 28 29
36: 32 1 2 3 6 10 15 48 49 23 24 29
37: 33 2 1 8 42 11 12
38: 32 1 2 4 5 6 39 48 21 23 24 27
39: 33 2 3 1 38 17 46 16 49 50 19 20 22
40: 48 34 1 9 10 11 16 20 23 26 29
41: 1 2 5 44 12 14 48 49 18 27 31
42: 32 1 34 35 4 37 6 2 44 13 16 18 27 29
43: 1 2 6 7 13 46 47 19 22 26 28
44: 1 5 6 7 41 42 11 14 47 16 18 21 24 26 30 31
45: 32 1 3 6 9 17 21 28
46: 1 39 43 12 50 14 15 18 23 26 47 30 31
47: 33 50 4 1 8 12 43 44 13 14 15 48 18 46 23 28
48: 33 34 36 5 38 1 8 41 11 47 40 19 22 24 25 26 28
49: 33 36 6 39 41 12 13 15 17 19 21 22 27 28 29
50: 2 5 39 12 46 47 22 24 26 30
-------
1(-1)->2 3 4 5 6 7 8 9 10 11 12 13 14 15 16 17 18 19 20 21 22 23 24 25 26 27 28 29 30 31 32 33 34 35 36 37 38 39 40 41 42 43 44 45 46 47 48 
2(-1)->1 3 4 7 8 9 10 12 15 16 17 18 23 26 28 29 30 32 33 36 37 38 39 41 42 43 50 
3(-1)->1 2 4 16 17 21 24 28 32 36 39 45 
4(-1)->1 2 3 7 8 10 11 19 22 34 35 38 42 47 
5(-1)->1 6 10 11 22 24 27 28 30 38 41 44 48 50 
6(-1)->1 5 7 12 13 14 21 24 25 26 30 32 35 36 38 42 43 44 45 49 
7(-1)->1 2 4 6 12 16 17 18 19 20 22 29 34 43 44 
8(-1)->1 2 4 12 13 27 32 35 37 47 48 
9(-1)->1 2 15 21 22 26 32 33 40 45 
10(-1)->1 2 4 5 12 16 23 25 36 40 
11(-1)->1 4 5 25 26 30 35 37 40 44 48 
12(-1)->1 2 6 7 8 10 13 18 20 22 24 33 34 37 41 46 47 49 50 
13(-1)->1 6 8 12 14 16 18 19 20 23 25 31 32 35 42 43 47 49 
14(-1)->1 6 13 16 21 23 24 25 31 41 44 46 47 
15(-1)->1 2 9 22 25 28 36 46 47 49 
16(-1)->1 2 3 7 10 13 14 21 27 33 35 39 40 42 44 
17(-1)->1 2 3 7 19 24 27 29 34 39 45 49 
18(-1)->1 2 7 12 13 25 29 41 42 44 46 47 
19(-1)->1 4 7 13 17 20 21 25 27 35 39 43 48 49 
20(-1)->1 7 12 13 19 23 24 26 29 31 39 40 
21(-1)->1 3 6 9 14 16 19 27 38 44 45 49 
22(-1)->1 4 5 7 9 12 15 25 28 35 39 43 48 49 50 
23(-1)->1 2 10 13 14 20 27 28 35 36 38 40 46 47 
24(-1)->1 3 5 6 12 14 17 20 28 31 32 36 38 44 48 50 
25(-1)->1 6 10 11 13 14 15 18 19 22 27 32 35 48 
26(-1)->1 2 6 9 11 20 29 40 43 44 46 48 50 
27(-1)->1 5 8 16 17 19 21 23 25 35 38 41 42 49 
28(-1)->1 2 3 5 15 22 23 24 33 34 35 43 45 47 48 49 
29(-1)->1 2 7 17 18 20 26 30 34 35 36 40 42 49 
30(-1)->1 2 5 6 11 29 32 44 46 50 
31(-1)->1 13 14 20 24 41 44 46 
32(-1)->1 2 3 6 8 9 13 24 25 30 36 38 42 45 
33(-1)->1 2 9 12 16 28 37 39 47 48 49 
34(-1)->1 4 7 12 17 28 29 35 40 42 48 
35(-1)->1 4 6 8 11 13 16 19 22 23 25 27 28 29 34 42 
36(-1)->1 2 3 6 10 15 23 24 29 32 48 49 
37(-1)->1 2 8 11 12 33 42 
38(-1)->1 2 4 5 6 21 23 24 27 32 39 48 
39(-1)->1 2 3 16 17 19 20 22 33 38 46 49 50 
40(-1)->1 9 10 11 16 20 23 26 29 34 48 
41(-1)->1 2 5 12 14 18 27 31 44 48 49 
42(-1)->1 2 4 6 13 16 18 27 29 32 34 35 37 44 
43(-1)->1 2 6 7 13 19 22 26 28 46 47 
44(-1)->1 5 6 7 11 14 16 18 21 24 26 30 31 41 42 47 
45(-1)->1 3 6 9 17 21 28 32 
46(-1)->1 12 14 15 18 23 26 30 31 39 43 47 50 
47(-1)->1 4 8 12 13 14 15 18 23 28 33 43 44 46 48 50 
48(-1)->1 5 8 11 19 22 24 25 26 28 33 34 36 38 40 41 47 
49(-1)->6 12 13 15 17 19 21 22 27 28 29 33 36 39 41 
50(-1)->2 5 12 22 24 26 30 39 46 47 
-------
1(-1)->2 3 4 5 6 7 8 9 10 11 12 13 14 15 16 17 18 19 20 21 22 23 24 25 26 27 28 29 30 31 32 33 34 35 36 37 38 39 40 41 42 43 44 45 46 47 48 
2(-1)->1 3 4 7 8 9 10 12 15 16 17 18 23 26 28 29 30 32 33 36 37 38 39 41 42 43 50 
6(-1)->1 5 7 12 13 14 21 24 25 26 30 32 35 36 38 42 43 44 45 49 
12(-1)->1 2 6 7 8 10 13 18 20 22 24 33 34 37 41 46 47 49 50 
13(-1)->1 6 8 12 14 16 18 19 20 23 25 31 32 35 42 43 47 49 
48(-1)->1 5 8 11 19 22 24 25 26 28 33 34 36 38 40 41 47 
24(-1)->1 3 5 6 12 14 17 20 28 31 32 36 38 44 48 50 
28(-1)->1 2 3 5 15 22 23 24 33 34 35 43 45 47 48 49 
35(-1)->1 4 6 8 11 13 16 19 22 23 25 27 28 29 34 42 
44(-1)->1 5 6 7 11 14 16 18 21 24 26 30 31 41 42 47 
47(-1)->1 4 8 12 13 14 15 18 23 28 33 43 44 46 48 50 
7(-1)->1 2 4 6 12 16 17 18 19 20 22 29 34 43 44 
16(-1)->1 2 3 7 10 13 14 21 27 33 35 39 40 42 44 
22(-1)->1 4 5 7 9 12 15 25 28 35 39 43 48 49 50 
49(-1)->6 12 13 15 17 19 21 22 27 28 29 33 36 39 41 
4(-1)->1 2 3 7 8 10 11 19 22 34 35 38 42 47 
5(-1)->1 6 10 11 22 24 27 28 30 38 41 44 48 50 
19(-1)->1 4 7 13 17 20 21 25 27 35 39 43 48 49 
23(-1)->1 2 10 13 14 20 27 28 35 36 38 40 46 47 
25(-1)->1 6 10 11 13 14 15 18 19 22 27 32 35 48 
27(-1)->1 5 8 16 17 19 21 23 25 35 38 41 42 49 
29(-1)->1 2 7 17 18 20 26 30 34 35 36 40 42 49 
32(-1)->1 2 3 6 8 9 13 24 25 30 36 38 42 45 
42(-1)->1 2 4 6 13 16 18 27 29 32 34 35 37 44 
14(-1)->1 6 13 16 21 23 24 25 31 41 44 46 47 
26(-1)->1 2 6 9 11 20 29 40 43 44 46 48 50 
39(-1)->1 2 3 16 17 19 20 22 33 38 46 49 50 
46(-1)->1 12 14 15 18 23 26 30 31 39 43 47 50 
3(-1)->1 2 4 16 17 21 24 28 32 36 39 45 
17(-1)->1 2 3 7 19 24 27 29 34 39 45 49 
18(-1)->1 2 7 12 13 25 29 41 42 44 46 47 
20(-1)->1 7 12 13 19 23 24 26 29 31 39 40 
21(-1)->1 3 6 9 14 16 19 27 38 44 45 49 
36(-1)->1 2 3 6 10 15 23 24 29 32 48 49 
38(-1)->1 2 4 5 6 21 23 24 27 32 39 48 
8(-1)->1 2 4 12 13 27 32 35 37 47 48 
11(-1)->1 4 5 25 26 30 35 37 40 44 48 
33(-1)->1 2 9 12 16 28 37 39 47 48 49 
34(-1)->1 4 7 12 17 28 29 35 40 42 48 
40(-1)->1 9 10 11 16 20 23 26 29 34 48 
41(-1)->1 2 5 12 14 18 27 31 44 48 49 
43(-1)->1 2 6 7 13 19 22 26 28 46 47 
9(-1)->1 2 15 21 22 26 32 33 40 45 
10(-1)->1 2 4 5 12 16 23 25 36 40 
15(-1)->1 2 9 22 25 28 36 46 47 49 
30(-1)->1 2 5 6 11 29 32 44 46 50 
50(-1)->2 5 12 22 24 26 30 39 46 47 
31(-1)->1 13 14 20 24 41 44 46 
45(-1)->1 3 6 9 17 21 28 32 
37(-1)->1 2 8 11 12 33 42 
-------
1 2 3 16 39 

-------
3(-1)->1 2 4 16 17 21 24 28 32 36 39 45 
39(-1)->1 2 3 16 17 19 20 22 33 38 46 49 50 
16(-1)->1 2 3 7 10 13 14 21 27 33 35 39 40 42 44 
2(-1)->1 3 4 7 8 9 10 12 15 16 17 18 23 26 28 29 30 32 33 36 37 38 39 41 42 43 50 
1(-1)->2 3 4 5 6 7 8 9 10 11 12 13 14 15 16 17 18 19 20 21 22 23 24 25 26 27 28 29 30 31 32 33 34 35 36 37 38 39 40 41 42 43 44 45 46 47 48 
6(-1)->1 5 7 12 13 14 21 24 25 26 30 32 35 36 38 42 43 44 45 49 
12(-1)->1 2 6 7 8 10 13 18 20 22 24 33 34 37 41 46 47 49 50 
13(-1)->1 6 8 12 14 16 18 19 20 23 25 31 32 35 42 43 47 49 
48(-1)->1 5 8 11 19 22 24 25 26 28 33 34 36 38 40 41 47 
24(-1)->1 3 5 6 12 14 17 20 28 31 32 36 38 44 48 50 
28(-1)->1 2 3 5 15 22 23 24 33 34 35 43 45 47 48 49 
35(-1)->1 4 6 8 11 13 16 19 22 23 25 27 28 29 34 42 
44(-1)->1 5 6 7 11 14 16 18 21 24 26 30 31 41 42 47 
47(-1)->1 4 8 12 13 14 15 18 23 28 33 43 44 46 48 50 
7(-1)->1 2 4 6 12 16 17 18 19 20 22 29 34 43 44 
22(-1)->1 4 5 7 9 12 15 25 28 35 39 43 48 49 50 
49(-1)->6 12 13 15 17 19 21 22 27 28 29 33 36 39 41 
4(-1)->1 2 3 7 8 10 11 19 22 34 35 38 42 47 
5(-1)->1 6 10 11 22 24 27 28 30 38 41 44 48 50 
19(-1)->1 4 7 13 17 20 21 25 27 35 39 43 48 49 
23(-1)->1 2 10 13 14 20 27 28 35 36 38 40 46 47 
25(-1)->1 6 10 11 13 14 15 18 19 22 27 32 35 48 
27(-1)->1 5 8 16 17 19 21 23 25 35 38 41 42 49 
29(-1)->1 2 7 17 18 20 26 30 34 35 36 40 42 49 
32(-1)->1 2 3 6 8 9 13 24 25 30 36 38 42 45 
42(-1)->1 2 4 6 13 16 18 27 29 32 34 35 37 44 
14(-1)->1 6 13 16 21 23 24 25 31 41 44 46 47 
26(-1)->1 2 6 9 11 20 29 40 43 44 46 48 50 
46(-1)->1 12 14 15 18 23 26 30 31 39 43 47 50 
17(-1)->1 2 3 7 19 24 27 29 34 39 45 49 
18(-1)->1 2 7 12 13 25 29 41 42 44 46 47 
20(-1)->1 7 12 13 19 23 24 26 29 31 39 40 
21(-1)->1 3 6 9 14 16 19 27 38 44 45 49 
36(-1)->1 2 3 6 10 15 23 24 29 32 48 49 
38(-1)->1 2 4 5 6 21 23 24 27 32 39 48 
8(-1)->1 2 4 12 13 27 32 35 37 47 48 
11(-1)->1 4 5 25 26 30 35 37 40 44 48 
33(-1)->1 2 9 12 16 28 37 39 47 48 49 
34(-1)->1 4 7 12 17 28 29 35 40 42 48 
40(-1)->1 9 10 11 16 20 23 26 29 34 48 
41(-1)->1 2 5 12 14 18 27 31 44 48 49 
43(-1)->1 2 6 7 13 19 22 26 28 46 47 
9(-1)->1 2 15 21 22 26 32 33 40 45 
10(-1)->1 2 4 5 12 16 23 25 36 40 
15(-1)->1 2 9 22 25 28 36 46 47 49 
30(-1)->1 2 5 6 11 29 32 44 46 50 
50(-1)->2 5 12 22 24 26 30 39 46 47 
31(-1)->1 13 14 20 24 41 44 46 
45(-1)->1 3 6 9 17 21 28 32 
37(-1)->1 2 8 11 12 33 42 
-------
START TIME: 1433711904
10000
20000
30000
40000
50000
60000
70000
80000
90000
100000
110000
120000
130000
140000
150000
160000
170000
180000
190000
200000
210000
220000
230000
240000
250000
260000
270000
280000
290000
300000
310000
320000
330000
340000
350000
360000
370000
380000
390000
-------
1(4)->2 3 4 5 6 7 8 9 10 11 12 13 14 15 16 17 18 19 20 21 22 23 24 25 26 27 28 29 30 31 32 33 34 35 36 37 38 39 40 41 42 43 44 45 46 47 48 
2(3)->1 3 4 7 8 9 10 12 15 16 17 18 23 26 28 29 30 32 33 36 37 38 39 41 42 43 50 
3(0)->1 2 4 16 17 21 24 28 32 36 39 45 
4(1)->1 2 3 7 8 10 11 19 22 34 35 38 42 47 
5(3)->1 6 10 11 22 24 27 28 30 38 41 44 48 50 
6(0)->1 5 7 12 13 14 21 24 25 26 30 32 35 36 38 42 43 44 45 49 
7(5)->1 2 4 6 12 16 17 18 19 20 22 29 34 43 44 
8(6)->1 2 4 12 13 27 32 35 37 47 48 
9(0)->1 2 15 21 22 26 32 33 40 45 
10(5)->1 2 4 5 12 16 23 25 36 40 
11(2)->1 4 5 25 26 30 35 37 40 44 48 
12(1)->1 2 6 7 8 10 13 18 20 22 24 33 34 37 41 46 47 49 50 
13(3)->1 6 8 12 14 16 18 19 20 23 25 31 32 35 42 43 47 49 
14(5)->1 6 13 16 21 23 24 25 31 41 44 46 47 
15(5)->1 2 9 22 25 28 36 46 47 49 
16(2)->1 2 3 7 10 13 14 21 27 33 35 39 40 42 44 
17(6)->1 2 3 7 19 24 27 29 34 39 45 49 
18(0)->1 2 7 12 13 25 29 41 42 44 46 47 
19(2)->1 4 7 13 17 20 21 25 27 35 39 43 48 49 
20(6)->1 7 12 13 19 23 24 26 29 31 39 40 
21(3)->1 3 6 9 14 16 19 27 38 44 45 49 
22(2)->1 4 5 7 9 12 15 25 28 35 39 43 48 49 50 
23(0)->1 2 10 13 14 20 27 28 35 36 38 40 46 47 
24(2)->1 3 5 6 12 14 17 20 28 31 32 36 38 44 48 50 
25(6)->1 6 10 11 13 14 15 18 19 22 27 32 35 48 
26(5)->1 2 6 9 11 20 29 40 43 44 46 48 50 
27(1)->1 5 8 16 17 19 21 23 25 35 38 41 42 49 
28(1)->1 2 3 5 15 22 23 24 33 34 35 43 45 47 48 49 
29(1)->1 2 7 17 18 20 26 30 34 35 36 40 42 49 
30(5)->1 2 5 6 11 29 32 44 46 50 
31(0)->1 13 14 20 24 41 44 46 
32(1)->1 2 3 6 8 9 13 24 25 30 36 38 42 45 
33(5)->1 2 9 12 16 28 37 39 47 48 49 
34(2)->1 4 7 12 17 28 29 35 40 42 48 
35(5)->1 4 6 8 11 13 16 19 22 23 25 27 28 29 34 42 
36(6)->1 2 3 6 10 15 23 24 29 32 48 49 
37(0)->1 2 8 11 12 33 42 
38(5)->1 2 4 5 6 21 23 24 27 32 39 48 
39(1)->1 2 3 16 17 19 20 22 33 38 46 49 50 
40(3)->1 9 10 11 16 20 23 26 29 34 48 
41(2)->1 2 5 12 14 18 27 31 44 48 49 
42(6)->1 2 4 6 13 16 18 27 29 32 34 35 37 44 
43(6)->1 2 6 7 13 19 22 26 28 46 47 
44(1)->1 5 6 7 11 14 16 18 21 24 26 30 31 41 42 47 
45(2)->1 3 6 9 17 21 28 32 
46(3)->1 12 14 15 18 23 26 30 31 39 43 47 50 
47(2)->1 4 8 12 13 14 15 18 23 28 33 43 44 46 48 50 
48(0)->1 5 8 11 19 22 24 25 26 28 33 34 36 38 40 41 47 
49(4)->6 12 13 15 17 19 21 22 27 28 29 33 36 39 41 
50(0)->2 5 12 22 24 26 30 39 46 47 
COUNT: 395914
COLORS: 7
7
395914
