1: 2 3 4 5 6 7 8 9 10 11 12 13 14 15 16 17 18 19 20 21 22 23 24 25 26 27 28 29 30 31 32 33 34 35 36 37 38 39 40 41 42 43 44 45 46 47 48 49 50
2: 1 3 4 5 6 7 8 9 10 11 12 13 14 15 16 17 18 19 20 21 22 23 24 25 26 27 28 29 30 31 32 33 34 35 36 37 38 39 40 41 42 43 44 45 46 47 48 49
3: 1 2 4 5 6 7 9 12 13 14 16 19 20 21 23 24 25 26 31 32 34 35 36 37 41 42 43 46 47 48
4: 1 2 3 5 6 7 8 9 10 13 14 16 21 24 33 35 42 43 46 47 48 50
5: 1 2 3 4 6 35 8 9 11 13 14 15 48 19 41 25 26 47 28
6: 33 34 35 4 37 1 9 12 2 46 48 3 14 22 25 28 5
7: 32 33 2 3 4 1 42 11 45 14 47 16 35 20 24 27 28 31
8: 33 34 4 5 1 2 12 45 46 16 49 23 28 37
9: 1 2 3 4 5 6 12 14 20 22 23 24 25 28 30 32 35 36 41 42 45 46 47
10: 1 2 4 12 45 15 16 19 22 25 31
11: 1 2 36 49 7 44 13 15 17 21 22 24 47 5
12: 14 1 2 3 6 8 9 10 46 47 17 19 21 22 25 27 28 30
13: 1 2 3 4 5 39 40 41 11 15 16 43 21 22 23
14: 32 1 2 3 36 37 6 7 41 5 12 45 48 19 9 4 27 28 31
15: 1 34 43 5 38 40 41 10 11 44 13 46 47 16 2
16: 1 2 35 4 7 8 10 44 13 47 18 3 20 15 28
17: 33 2 35 37 1 40 11 12 45 48 49 50 20 21 30
18: 32 1 34 35 36 37 38 39 2 16 50 19 21 24
19: 1 2 3 5 38 33 10 43 12 14 47 18 21 25 26 29
20: 32 1 2 3 36 49 39 9 7 44 46 47 16 17 22 26 31
21: 1 2 3 4 39 40 11 12 13 48 17 18 19 22 26 28
22: 1 2 6 9 10 11 12 13 20 21 26 29 33 34 38 42 44 45 46 47 49 50
23: 32 33 2 3 1 8 9 13 45 48 40 35 25 26 27
24: 32 33 34 3 4 1 9 11 45 48 18 7 2 30 31
25: 3 33 2 35 37 6 1 9 10 12 34 47 48 49 19 23 42 5
26: 3 33 2 35 5 1 41 47 19 20 21 22 23 31 37
27: 32 33 2 1 37 7 40 44 42 39 12 14 47 49 50 23 29
28: 32 1 34 35 5 6 7 40 9 12 2 14 16 49 21 8 30
29: 1 2 36 37 43 19 22 27
30: 32 1 34 39 40 9 12 2 46 47 17 24 28
31: 1 34 3 38 7 10 43 44 2 14 47 48 49 35 20 24 26
32: 1 2 3 36 7 9 42 39 50 14 49 18 20 23 24 27 28 30
33: 1 2 35 4 6 38 7 8 46 17 19 22 23 24 25 26 27
34: 1 2 35 36 6 8 41 44 50 15 49 18 3 22 24 25 28 30 31
35: 1 2 3 4 5 6 7 9 16 17 18 23 25 26 28 31 33 34 43 45 47 48 50
36: 32 1 34 3 38 39 9 11 50 14 48 18 20 2 29
37: 1 2 3 6 17 8 41 39 14 49 18 25 26 27 29
38: 33 2 36 1 40 42 44 46 15 48 49 18 19 22 31
39: 32 1 2 36 37 43 50 46 13 48 18 20 21 27 30
40: 1 2 38 13 45 46 15 17 21 23 27 28 30
41: 1 34 3 37 9 2 13 14 15 26 5
42: 32 1 2 3 4 38 7 9 43 44 22 25 27
43: 3 1 2 35 4 39 42 13 45 15 49 50 19 29 31
44: 48 34 38 1 42 11 2 46 15 16 49 50 20 22 27 31
45: 1 2 35 49 7 40 9 10 43 46 48 17 14 8 23 24 22
46: 33 2 3 4 6 38 39 40 9 12 45 44 49 50 20 1 8 22 15 30
47: 3 1 2 35 4 5 7 9 11 12 15 16 50 19 20 22 25 26 27 30 31
48: 1 2 35 4 6 38 39 5 44 45 14 17 50 3 21 23 24 25 36 31
49: 32 1 34 43 37 38 8 11 44 45 46 17 20 22 2 25 27 28 31
50: 32 1 34 35 36 39 43 44 46 47 48 17 18 22 4 27
-------
1(-1)->2 3 4 5 6 7 8 9 10 11 12 13 14 15 16 17 18 19 20 21 22 23 24 25 26 27 28 29 30 31 32 33 34 35 36 37 38 39 40 41 42 43 44 45 46 47 48 49 50 
2(-1)->1 3 4 5 6 7 8 9 10 11 12 13 14 15 16 17 18 19 20 21 22 23 24 25 26 27 28 29 30 31 32 33 34 35 36 37 38 39 40 41 42 43 44 45 46 47 48 49 
3(-1)->1 2 4 5 6 7 9 12 13 14 16 19 20 21 23 24 25 26 31 32 34 35 36 37 41 42 43 46 47 48 
4(-1)->1 2 3 5 6 7 8 9 10 13 14 16 21 24 33 35 42 43 46 47 48 50 
5(-1)->1 2 3 4 6 8 9 11 13 14 15 19 25 26 28 35 41 47 48 
6(-1)->1 2 3 4 5 9 12 14 22 25 28 33 34 35 37 46 48 
7(-1)->1 2 3 4 11 14 16 20 24 27 28 31 32 33 35 42 45 47 
8(-1)->1 2 4 5 12 16 23 28 33 34 37 45 46 49 
9(-1)->1 2 3 4 5 6 12 14 20 22 23 24 25 28 30 32 35 36 41 42 45 46 47 
10(-1)->1 2 4 12 15 16 19 22 25 31 45 
11(-1)->1 2 5 7 13 15 17 21 22 24 36 44 47 49 
12(-1)->1 2 3 6 8 9 10 14 17 19 21 22 25 27 28 30 46 47 
13(-1)->1 2 3 4 5 11 15 16 21 22 23 39 40 41 43 
14(-1)->1 2 3 4 5 6 7 9 12 19 27 28 31 32 36 37 41 45 48 
15(-1)->1 2 5 10 11 13 16 34 38 40 41 43 44 46 47 
16(-1)->1 2 3 4 7 8 10 13 15 18 20 28 35 44 47 
17(-1)->1 2 11 12 20 21 30 33 35 37 40 45 48 49 50 
18(-1)->1 2 16 19 21 24 32 34 35 36 37 38 39 50 
19(-1)->1 2 3 5 10 12 14 18 21 25 26 29 33 38 43 47 
20(-1)->1 2 3 7 9 16 17 22 26 31 32 36 39 44 46 47 49 
21(-1)->1 2 3 4 11 12 13 17 18 19 22 26 28 39 40 48 
22(-1)->1 2 6 9 10 11 12 13 20 21 26 29 33 34 38 42 44 45 46 47 49 50 
23(-1)->1 2 3 8 9 13 25 26 27 32 33 35 40 45 48 
24(-1)->1 2 3 4 7 9 11 18 30 31 32 33 34 45 48 
25(-1)->1 2 3 5 6 9 10 12 19 23 33 34 35 37 42 47 48 49 
26(-1)->1 2 3 5 19 20 21 22 23 31 33 35 37 41 47 
27(-1)->1 2 7 12 14 23 29 32 33 37 39 40 42 44 47 49 50 
28(-1)->1 2 5 6 7 8 9 12 14 16 21 30 32 34 35 40 49 
29(-1)->1 2 19 22 27 36 37 43 
30(-1)->1 2 9 12 17 24 28 32 34 39 40 46 47 
31(-1)->1 2 3 7 10 14 20 24 26 34 35 38 43 44 47 48 49 
32(-1)->1 2 3 7 9 14 18 20 23 24 27 28 30 36 39 42 49 50 
33(-1)->1 2 4 6 7 8 17 19 22 23 24 25 26 27 35 38 46 
34(-1)->1 2 3 6 8 15 18 22 24 25 28 30 31 35 36 41 44 49 50 
35(-1)->1 2 3 4 5 6 7 9 16 17 18 23 25 26 28 31 33 34 43 45 47 48 50 
36(-1)->1 2 3 9 11 14 18 20 29 32 34 38 39 48 50 
37(-1)->1 2 3 6 8 14 17 18 25 26 27 29 39 41 49 
38(-1)->1 2 15 18 19 22 31 33 36 40 42 44 46 48 49 
39(-1)->1 2 13 18 20 21 27 30 32 36 37 43 46 48 50 
40(-1)->1 2 13 15 17 21 23 27 28 30 38 45 46 
41(-1)->1 2 3 5 9 13 14 15 26 34 37 
42(-1)->1 2 3 4 7 9 22 25 27 32 38 43 44 
43(-1)->1 2 3 4 13 15 19 29 31 35 39 42 45 49 50 
44(-1)->1 2 11 15 16 20 22 27 31 34 38 42 46 48 49 50 
45(-1)->1 2 7 8 9 10 14 17 22 23 24 35 40 43 46 48 49 
46(-1)->1 2 3 4 6 8 9 12 15 20 22 30 33 38 39 40 44 45 49 50 
47(-1)->1 2 3 4 5 7 9 11 12 15 16 19 20 22 25 26 27 30 31 35 50 
48(-1)->1 2 3 4 5 6 14 17 21 23 24 25 31 35 36 38 39 44 45 50 
49(-1)->1 2 8 11 17 20 22 25 27 28 31 32 34 37 38 43 44 45 46 
50(-1)->1 4 17 18 22 27 32 34 35 36 39 43 44 46 47 48 
-------
1(-1)->2 3 4 5 6 7 8 9 10 11 12 13 14 15 16 17 18 19 20 21 22 23 24 25 26 27 28 29 30 31 32 33 34 35 36 37 38 39 40 41 42 43 44 45 46 47 48 49 50 
2(-1)->1 3 4 5 6 7 8 9 10 11 12 13 14 15 16 17 18 19 20 21 22 23 24 25 26 27 28 29 30 31 32 33 34 35 36 37 38 39 40 41 42 43 44 45 46 47 48 49 
3(-1)->1 2 4 5 6 7 9 12 13 14 16 19 20 21 23 24 25 26 31 32 34 35 36 37 41 42 43 46 47 48 
9(-1)->1 2 3 4 5 6 12 14 20 22 23 24 25 28 30 32 35 36 41 42 45 46 47 
35(-1)->1 2 3 4 5 6 7 9 16 17 18 23 25 26 28 31 33 34 43 45 47 48 50 
4(-1)->1 2 3 5 6 7 8 9 10 13 14 16 21 24 33 35 42 43 46 47 48 50 
22(-1)->1 2 6 9 10 11 12 13 20 21 26 29 33 34 38 42 44 45 46 47 49 50 
47(-1)->1 2 3 4 5 7 9 11 12 15 16 19 20 22 25 26 27 30 31 35 50 
46(-1)->1 2 3 4 6 8 9 12 15 20 22 30 33 38 39 40 44 45 49 50 
48(-1)->1 2 3 4 5 6 14 17 21 23 24 25 31 35 36 38 39 44 45 50 
5(-1)->1 2 3 4 6 8 9 11 13 14 15 19 25 26 28 35 41 47 48 
14(-1)->1 2 3 4 5 6 7 9 12 19 27 28 31 32 36 37 41 45 48 
34(-1)->1 2 3 6 8 15 18 22 24 25 28 30 31 35 36 41 44 49 50 
49(-1)->1 2 8 11 17 20 22 25 27 28 31 32 34 37 38 43 44 45 46 
7(-1)->1 2 3 4 11 14 16 20 24 27 28 31 32 33 35 42 45 47 
12(-1)->1 2 3 6 8 9 10 14 17 19 21 22 25 27 28 30 46 47 
25(-1)->1 2 3 5 6 9 10 12 19 23 33 34 35 37 42 47 48 49 
32(-1)->1 2 3 7 9 14 18 20 23 24 27 28 30 36 39 42 49 50 
6(-1)->1 2 3 4 5 9 12 14 22 25 28 33 34 35 37 46 48 
20(-1)->1 2 3 7 9 16 17 22 26 31 32 36 39 44 46 47 49 
27(-1)->1 2 7 12 14 23 29 32 33 37 39 40 42 44 47 49 50 
28(-1)->1 2 5 6 7 8 9 12 14 16 21 30 32 34 35 40 49 
31(-1)->1 2 3 7 10 14 20 24 26 34 35 38 43 44 47 48 49 
33(-1)->1 2 4 6 7 8 17 19 22 23 24 25 26 27 35 38 46 
45(-1)->1 2 7 8 9 10 14 17 22 23 24 35 40 43 46 48 49 
19(-1)->1 2 3 5 10 12 14 18 21 25 26 29 33 38 43 47 
21(-1)->1 2 3 4 11 12 13 17 18 19 22 26 28 39 40 48 
44(-1)->1 2 11 15 16 20 22 27 31 34 38 42 46 48 49 50 
50(-1)->1 4 17 18 22 27 32 34 35 36 39 43 44 46 47 48 
13(-1)->1 2 3 4 5 11 15 16 21 22 23 39 40 41 43 
15(-1)->1 2 5 10 11 13 16 34 38 40 41 43 44 46 47 
16(-1)->1 2 3 4 7 8 10 13 15 18 20 28 35 44 47 
17(-1)->1 2 11 12 20 21 30 33 35 37 40 45 48 49 50 
23(-1)->1 2 3 8 9 13 25 26 27 32 33 35 40 45 48 
24(-1)->1 2 3 4 7 9 11 18 30 31 32 33 34 45 48 
26(-1)->1 2 3 5 19 20 21 22 23 31 33 35 37 41 47 
36(-1)->1 2 3 9 11 14 18 20 29 32 34 38 39 48 50 
37(-1)->1 2 3 6 8 14 17 18 25 26 27 29 39 41 49 
38(-1)->1 2 15 18 19 22 31 33 36 40 42 44 46 48 49 
39(-1)->1 2 13 18 20 21 27 30 32 36 37 43 46 48 50 
43(-1)->1 2 3 4 13 15 19 29 31 35 39 42 45 49 50 
8(-1)->1 2 4 5 12 16 23 28 33 34 37 45 46 49 
11(-1)->1 2 5 7 13 15 17 21 22 24 36 44 47 49 
18(-1)->1 2 16 19 21 24 32 34 35 36 37 38 39 50 
30(-1)->1 2 9 12 17 24 28 32 34 39 40 46 47 
40(-1)->1 2 13 15 17 21 23 27 28 30 38 45 46 
42(-1)->1 2 3 4 7 9 22 25 27 32 38 43 44 
10(-1)->1 2 4 12 15 16 19 22 25 31 45 
41(-1)->1 2 3 5 9 13 14 15 26 34 37 
29(-1)->1 2 19 22 27 36 37 43 
-------
1 2 3 4 5 6 9 14 

-------
6(-1)->1 2 3 4 5 9 12 14 22 25 28 33 34 35 37 46 48 
14(-1)->1 2 3 4 5 6 7 9 12 19 27 28 31 32 36 37 41 45 48 
5(-1)->1 2 3 4 6 8 9 11 13 14 15 19 25 26 28 35 41 47 48 
4(-1)->1 2 3 5 6 7 8 9 10 13 14 16 21 24 33 35 42 43 46 47 48 50 
9(-1)->1 2 3 4 5 6 12 14 20 22 23 24 25 28 30 32 35 36 41 42 45 46 47 
3(-1)->1 2 4 5 6 7 9 12 13 14 16 19 20 21 23 24 25 26 31 32 34 35 36 37 41 42 43 46 47 48 
2(-1)->1 3 4 5 6 7 8 9 10 11 12 13 14 15 16 17 18 19 20 21 22 23 24 25 26 27 28 29 30 31 32 33 34 35 36 37 38 39 40 41 42 43 44 45 46 47 48 49 
1(-1)->2 3 4 5 6 7 8 9 10 11 12 13 14 15 16 17 18 19 20 21 22 23 24 25 26 27 28 29 30 31 32 33 34 35 36 37 38 39 40 41 42 43 44 45 46 47 48 49 50 
35(-1)->1 2 3 4 5 6 7 9 16 17 18 23 25 26 28 31 33 34 43 45 47 48 50 
22(-1)->1 2 6 9 10 11 12 13 20 21 26 29 33 34 38 42 44 45 46 47 49 50 
47(-1)->1 2 3 4 5 7 9 11 12 15 16 19 20 22 25 26 27 30 31 35 50 
46(-1)->1 2 3 4 6 8 9 12 15 20 22 30 33 38 39 40 44 45 49 50 
48(-1)->1 2 3 4 5 6 14 17 21 23 24 25 31 35 36 38 39 44 45 50 
34(-1)->1 2 3 6 8 15 18 22 24 25 28 30 31 35 36 41 44 49 50 
49(-1)->1 2 8 11 17 20 22 25 27 28 31 32 34 37 38 43 44 45 46 
7(-1)->1 2 3 4 11 14 16 20 24 27 28 31 32 33 35 42 45 47 
12(-1)->1 2 3 6 8 9 10 14 17 19 21 22 25 27 28 30 46 47 
25(-1)->1 2 3 5 6 9 10 12 19 23 33 34 35 37 42 47 48 49 
32(-1)->1 2 3 7 9 14 18 20 23 24 27 28 30 36 39 42 49 50 
20(-1)->1 2 3 7 9 16 17 22 26 31 32 36 39 44 46 47 49 
27(-1)->1 2 7 12 14 23 29 32 33 37 39 40 42 44 47 49 50 
28(-1)->1 2 5 6 7 8 9 12 14 16 21 30 32 34 35 40 49 
31(-1)->1 2 3 7 10 14 20 24 26 34 35 38 43 44 47 48 49 
33(-1)->1 2 4 6 7 8 17 19 22 23 24 25 26 27 35 38 46 
45(-1)->1 2 7 8 9 10 14 17 22 23 24 35 40 43 46 48 49 
19(-1)->1 2 3 5 10 12 14 18 21 25 26 29 33 38 43 47 
21(-1)->1 2 3 4 11 12 13 17 18 19 22 26 28 39 40 48 
44(-1)->1 2 11 15 16 20 22 27 31 34 38 42 46 48 49 50 
50(-1)->1 4 17 18 22 27 32 34 35 36 39 43 44 46 47 48 
13(-1)->1 2 3 4 5 11 15 16 21 22 23 39 40 41 43 
15(-1)->1 2 5 10 11 13 16 34 38 40 41 43 44 46 47 
16(-1)->1 2 3 4 7 8 10 13 15 18 20 28 35 44 47 
17(-1)->1 2 11 12 20 21 30 33 35 37 40 45 48 49 50 
23(-1)->1 2 3 8 9 13 25 26 27 32 33 35 40 45 48 
24(-1)->1 2 3 4 7 9 11 18 30 31 32 33 34 45 48 
26(-1)->1 2 3 5 19 20 21 22 23 31 33 35 37 41 47 
36(-1)->1 2 3 9 11 14 18 20 29 32 34 38 39 48 50 
37(-1)->1 2 3 6 8 14 17 18 25 26 27 29 39 41 49 
38(-1)->1 2 15 18 19 22 31 33 36 40 42 44 46 48 49 
39(-1)->1 2 13 18 20 21 27 30 32 36 37 43 46 48 50 
43(-1)->1 2 3 4 13 15 19 29 31 35 39 42 45 49 50 
8(-1)->1 2 4 5 12 16 23 28 33 34 37 45 46 49 
11(-1)->1 2 5 7 13 15 17 21 22 24 36 44 47 49 
18(-1)->1 2 16 19 21 24 32 34 35 36 37 38 39 50 
30(-1)->1 2 9 12 17 24 28 32 34 39 40 46 47 
40(-1)->1 2 13 15 17 21 23 27 28 30 38 45 46 
42(-1)->1 2 3 4 7 9 22 25 27 32 38 43 44 
10(-1)->1 2 4 12 15 16 19 22 25 31 45 
41(-1)->1 2 3 5 9 13 14 15 26 34 37 
29(-1)->1 2 19 22 27 36 37 43 
-------
START TIME: 1433712069
10000
20000
30000
40000
50000
60000
70000
80000
90000
100000
110000
120000
130000
140000
150000
160000
170000
180000
190000
200000
210000
220000
230000
240000
250000
260000
270000
-------
1(7)->2 3 4 5 6 7 8 9 10 11 12 13 14 15 16 17 18 19 20 21 22 23 24 25 26 27 28 29 30 31 32 33 34 35 36 37 38 39 40 41 42 43 44 45 46 47 48 49 50 
2(6)->1 3 4 5 6 7 8 9 10 11 12 13 14 15 16 17 18 19 20 21 22 23 24 25 26 27 28 29 30 31 32 33 34 35 36 37 38 39 40 41 42 43 44 45 46 47 48 49 
3(5)->1 2 4 5 6 7 9 12 13 14 16 19 20 21 23 24 25 26 31 32 34 35 36 37 41 42 43 46 47 48 
4(3)->1 2 3 5 6 7 8 9 10 13 14 16 21 24 33 35 42 43 46 47 48 50 
5(2)->1 2 3 4 6 8 9 11 13 14 15 19 25 26 28 35 41 47 48 
6(0)->1 2 3 4 5 9 12 14 22 25 28 33 34 35 37 46 48 
7(4)->1 2 3 4 11 14 16 20 24 27 28 31 32 33 35 42 45 47 
8(1)->1 2 4 5 12 16 23 28 33 34 37 45 46 49 
9(4)->1 2 3 4 5 6 12 14 20 22 23 24 25 28 30 32 35 36 41 42 45 46 47 
10(0)->1 2 4 12 15 16 19 22 25 31 45 
11(3)->1 2 5 7 13 15 17 21 22 24 36 44 47 49 
12(3)->1 2 3 6 8 9 10 14 17 19 21 22 25 27 28 30 46 47 
13(4)->1 2 3 4 5 11 15 16 21 22 23 39 40 41 43 
14(1)->1 2 3 4 5 6 7 9 12 19 27 28 31 32 36 37 41 45 48 
15(1)->1 2 5 10 11 13 16 34 38 40 41 43 44 46 47 
16(2)->1 2 3 4 7 8 10 13 15 18 20 28 35 44 47 
17(2)->1 2 11 12 20 21 30 33 35 37 40 45 48 49 50 
18(5)->1 2 16 19 21 24 32 34 35 36 37 38 39 50 
19(4)->1 2 3 5 10 12 14 18 21 25 26 29 33 38 43 47 
20(3)->1 2 3 7 9 16 17 22 26 31 32 36 39 44 46 47 49 
21(0)->1 2 3 4 11 12 13 17 18 19 22 26 28 39 40 48 
22(1)->1 2 6 9 10 11 12 13 20 21 26 29 33 34 38 42 44 45 46 47 49 50 
23(0)->1 2 3 8 9 13 25 26 27 32 33 35 40 45 48 
24(0)->1 2 3 4 7 9 11 18 30 31 32 33 34 45 48 
25(8)->1 2 3 5 6 9 10 12 19 23 33 34 35 37 42 47 48 49 
26(8)->1 2 3 5 19 20 21 22 23 31 33 35 37 41 47 
27(8)->1 2 7 12 14 23 29 32 33 37 39 40 42 44 47 49 50 
28(5)->1 2 5 6 7 8 9 12 14 16 21 30 32 34 35 40 49 
29(2)->1 2 19 22 27 36 37 43 
30(8)->1 2 9 12 17 24 28 32 34 39 40 46 47 
31(2)->1 2 3 7 10 14 20 24 26 34 35 38 43 44 47 48 49 
32(2)->1 2 3 7 9 14 18 20 23 24 27 28 30 36 39 42 49 50 
33(5)->1 2 4 6 7 8 17 19 22 23 24 25 26 27 35 38 46 
34(3)->1 2 3 6 8 15 18 22 24 25 28 30 31 35 36 41 44 49 50 
35(1)->1 2 3 4 5 6 7 9 16 17 18 23 25 26 28 31 33 34 43 45 47 48 50 
36(0)->1 2 3 9 11 14 18 20 29 32 34 38 39 48 50 
37(3)->1 2 3 6 8 14 17 18 25 26 27 29 39 41 49 
38(8)->1 2 15 18 19 22 31 33 36 40 42 44 46 48 49 
39(1)->1 2 13 18 20 21 27 30 32 36 37 43 46 48 50 
40(3)->1 2 13 15 17 21 23 27 28 30 38 45 46 
41(0)->1 2 3 5 9 13 14 15 26 34 37 
42(0)->1 2 3 4 7 9 22 25 27 32 38 43 44 
43(8)->1 2 3 4 13 15 19 29 31 35 39 42 45 49 50 
44(5)->1 2 11 15 16 20 22 27 31 34 38 42 46 48 49 50 
45(5)->1 2 7 8 9 10 14 17 22 23 24 35 40 43 46 48 49 
46(2)->1 2 3 4 6 8 9 12 15 20 22 30 33 38 39 40 44 45 49 50 
47(0)->1 2 3 4 5 7 9 11 12 15 16 19 20 22 25 26 27 30 31 35 50 
48(4)->1 2 3 4 5 6 14 17 21 23 24 25 31 35 36 38 39 44 45 50 
49(0)->1 2 8 11 17 20 22 25 27 28 31 32 34 37 38 43 44 45 46 
50(6)->1 4 17 18 22 27 32 34 35 36 39 43 44 46 47 48 
COUNT: 270708
COLORS: 9
9
270708
