1: 2 3 4 5 6 7 8 9 10 11 12 13 14 15 16 17 18 19 20 21 22 23 24 25 26 27 28 29 30 31 32 33 34 35 36 37 38 39 40 41 42 43 44 45 46 47 48 49 50
2: 1 3 4 5 6 7 8 9 10 11 12 13 14 15 16 17 18 19 20 21 22 23 24 25 26 27 28 29 30 31 32 33 34 35 36 37 38 39 40 41 42 45 46 47 48 49
3: 1 2 4 5 7 8 11 12 13 14 17 18 19 20 21 22 23 24 26 27 29 30 31 32 33 34 35 37 40 41 49
4: 32 33 2 3 37 1 40 9 11 12 13 20 22 23 24 26 27 29 30 5
5: 32 33 2 50 4 38 1 11 45 46 15 16 49 18 3 20 22 29 30
6: 32 48 2 17 37 38 7 40 9 1 11 44 45 12 13 16 8 20 46 23 24
7: 48 34 3 36 37 6 1 41 45 44 2 46 13 16 49 22 25 26 27 28 31
8: 32 1 2 3 6 38 40 12 42 11 44 13 14 48 17 43
9: 32 1 2 35 4 6 40 43 13 11 17 21 23 26 27 29
10: 1 2 37 39 12 14 15 19 20 21 27 28 29
11: 1 2 3 4 5 6 8 9 15 18 24 26 27 28 29 30 31 36 37 38 41 42 43 46 47
12: 1 2 3 4 6 8 10 17 23
13: 1 2 3 4 6 7 8 9 15 20 22 23 24 27 30 31 35 40 43 44 46 47 48 49
14: 1 2 35 36 40 10 48 8 3 25 27 30
15: 19 1 34 11 36 5 49 41 10 39 13 17 18 35 22 23 2 28 29
16: 1 2 5 6 7 49 20 21 23 28 30
17: 1 2 50 37 38 8 9 12 45 47 48 29 3 6 15 28 44 30
18: 1 34 3 5 41 42 11 45 15 20 22 24 2 29 30 37
19: 1 2 35 36 38 39 10 15 3 20 22 23 24 26 42 31
20: 16 2 3 4 5 6 1 40 10 43 44 13 48 18 19 31
21: 1 2 3 41 42 43 44 16 10 9 23 24 26 29
22: 32 33 2 3 36 5 38 7 41 39 13 15 18 19 1 24 4 47 29 30 31
23: 3 1 2 35 4 38 6 40 9 12 13 47 16 44 19 21 41 15 29 30 37
24: 3 1 2 35 4 6 11 44 18 46 13 43 50 19 21 22 36 26 31
25: 1 34 38 7 40 41 39 45 14 49 2 27 28 31
26: 1 2 3 4 38 39 9 11 46 47 48 19 21 24 7 27
27: 1 2 3 4 38 7 40 41 10 11 44 13 14 45 9 25 26 42
28: 1 2 38 7 41 10 11 45 46 15 16 17 25 47 30
29: 1 2 3 36 37 38 9 10 11 45 15 17 18 21 22 23 4 30 5
30: 1 2 3 36 37 40 11 44 13 14 16 17 18 35 22 23 4 28 29 5
31: 32 33 2 3 1 37 7 41 42 11 13 48 19 20 22 24 25
32: 1 2 3 4 5 6 8 9 42 48 40 22 31
33: 1 2 3 36 5 44 47 22 4 31
34: 1 18 35 37 7 41 39 45 46 47 50 3 2 25 15
35: 1 34 3 9 42 43 13 14 15 49 50 19 46 23 24 2 30
36: 33 2 1 7 40 42 11 44 45 14 47 48 19 22 24 15 29 30
37: 1 34 3 4 38 6 7 10 11 2 46 17 18 23 29 30 31
38: 1 2 43 5 6 40 42 11 46 8 17 19 22 23 25 26 27 28 29 37
39: 1 34 10 43 2 15 50 19 22 25 26
40: 32 1 2 3 36 38 6 8 41 23 13 14 48 50 20 9 25 4 27 30
41: 1 34 50 7 40 15 42 11 45 47 18 3 21 22 23 2 25 27 28 31
42: 32 1 2 35 36 38 49 8 41 11 43 18 19 21 27 31
43: 1 35 38 39 8 9 42 11 13 50 20 21 24
44: 33 36 6 7 8 1 13 46 17 50 20 21 23 24 27 30
45: 1 34 36 5 6 7 41 2 17 18 25 27 28 29
46: 1 34 35 37 6 7 11 44 13 49 24 2 26 38 28 5
47: 33 34 36 1 41 11 13 17 22 23 2 26 28
48: 32 1 2 36 49 6 7 40 13 14 17 20 8 26 31
49: 48 2 35 1 5 7 42 13 46 15 16 3 25
50: 1 34 35 5 39 40 41 43 44 17 24
-------
1(-1)->2 3 4 5 6 7 8 9 10 11 12 13 14 15 16 17 18 19 20 21 22 23 24 25 26 27 28 29 30 31 32 33 34 35 36 37 38 39 40 41 42 43 44 45 46 47 48 49 50 
2(-1)->1 3 4 5 6 7 8 9 10 11 12 13 14 15 16 17 18 19 20 21 22 23 24 25 26 27 28 29 30 31 32 33 34 35 36 37 38 39 40 41 42 45 46 47 48 49 
3(-1)->1 2 4 5 7 8 11 12 13 14 17 18 19 20 21 22 23 24 26 27 29 30 31 32 33 34 35 37 40 41 49 
4(-1)->1 2 3 5 9 11 12 13 20 22 23 24 26 27 29 30 32 33 37 40 
5(-1)->1 2 3 4 11 15 16 18 20 22 29 30 32 33 38 45 46 49 50 
6(-1)->1 2 7 8 9 11 12 13 16 17 20 23 24 32 37 38 40 44 45 46 48 
7(-1)->1 2 3 6 13 16 22 25 26 27 28 31 34 36 37 41 44 45 46 48 49 
8(-1)->1 2 3 6 11 12 13 14 17 32 38 40 42 43 44 48 
9(-1)->1 2 4 6 11 13 17 21 23 26 27 29 32 35 40 43 
10(-1)->1 2 12 14 15 19 20 21 27 28 29 37 39 
11(-1)->1 2 3 4 5 6 8 9 15 18 24 26 27 28 29 30 31 36 37 38 41 42 43 46 47 
12(-1)->1 2 3 4 6 8 10 17 23 
13(-1)->1 2 3 4 6 7 8 9 15 20 22 23 24 27 30 31 35 40 43 44 46 47 48 49 
14(-1)->1 2 3 8 10 25 27 30 35 36 40 48 
15(-1)->1 2 5 10 11 13 17 18 19 22 23 28 29 34 35 36 39 41 49 
16(-1)->1 2 5 6 7 20 21 23 28 30 49 
17(-1)->1 2 3 6 8 9 12 15 28 29 30 37 38 44 45 47 48 50 
18(-1)->1 2 3 5 11 15 20 22 24 29 30 34 37 41 42 45 
19(-1)->1 2 3 10 15 20 22 23 24 26 31 35 36 38 39 42 
20(-1)->1 2 3 4 5 6 10 13 16 18 19 31 40 43 44 48 
21(-1)->1 2 3 9 10 16 23 24 26 29 41 42 43 44 
22(-1)->1 2 3 4 5 7 13 15 18 19 24 29 30 31 32 33 36 38 39 41 47 
23(-1)->1 2 3 4 6 9 12 13 15 16 19 21 29 30 35 37 38 40 41 44 47 
24(-1)->1 2 3 4 6 11 13 18 19 21 22 26 31 35 36 43 44 46 50 
25(-1)->1 2 7 14 27 28 31 34 38 39 40 41 45 49 
26(-1)->1 2 3 4 7 9 11 19 21 24 27 38 39 46 47 48 
27(-1)->1 2 3 4 7 9 10 11 13 14 25 26 38 40 41 42 44 45 
28(-1)->1 2 7 10 11 15 16 17 25 30 38 41 45 46 47 
29(-1)->1 2 3 4 5 9 10 11 15 17 18 21 22 23 30 36 37 38 45 
30(-1)->1 2 3 4 5 11 13 14 16 17 18 22 23 28 29 35 36 37 40 44 
31(-1)->1 2 3 7 11 13 19 20 22 24 25 32 33 37 41 42 48 
32(-1)->1 2 3 4 5 6 8 9 22 31 40 42 48 
33(-1)->1 2 3 4 5 22 31 36 44 47 
34(-1)->1 2 3 7 15 18 25 35 37 39 41 45 46 47 50 
35(-1)->1 2 3 9 13 14 15 19 23 24 30 34 42 43 46 49 50 
36(-1)->1 2 7 11 14 15 19 22 24 29 30 33 40 42 44 45 47 48 
37(-1)->1 2 3 4 6 7 10 11 17 18 23 29 30 31 34 38 46 
38(-1)->1 2 5 6 8 11 17 19 22 23 25 26 27 28 29 37 40 42 43 46 
39(-1)->1 2 10 15 19 22 25 26 34 43 50 
40(-1)->1 2 3 4 6 8 9 13 14 20 23 25 27 30 32 36 38 41 48 50 
41(-1)->1 2 3 7 11 15 18 21 22 23 25 27 28 31 34 40 42 45 47 50 
42(-1)->1 2 8 11 18 19 21 27 31 32 35 36 38 41 43 49 
43(-1)->1 8 9 11 13 20 21 24 35 38 39 42 50 
44(-1)->1 6 7 8 13 17 20 21 23 24 27 30 33 36 46 50 
45(-1)->1 2 5 6 7 17 18 25 27 28 29 34 36 41 
46(-1)->1 2 5 6 7 11 13 24 26 28 34 35 37 38 44 49 
47(-1)->1 2 11 13 17 22 23 26 28 33 34 36 41 
48(-1)->1 2 6 7 8 13 14 17 20 26 31 32 36 40 49 
49(-1)->1 2 3 5 7 13 15 16 25 35 42 46 48 
50(-1)->1 5 17 24 34 35 39 40 41 43 44 
-------
1(-1)->2 3 4 5 6 7 8 9 10 11 12 13 14 15 16 17 18 19 20 21 22 23 24 25 26 27 28 29 30 31 32 33 34 35 36 37 38 39 40 41 42 43 44 45 46 47 48 49 50 
2(-1)->1 3 4 5 6 7 8 9 10 11 12 13 14 15 16 17 18 19 20 21 22 23 24 25 26 27 28 29 30 31 32 33 34 35 36 37 38 39 40 41 42 45 46 47 48 49 
3(-1)->1 2 4 5 7 8 11 12 13 14 17 18 19 20 21 22 23 24 26 27 29 30 31 32 33 34 35 37 40 41 49 
11(-1)->1 2 3 4 5 6 8 9 15 18 24 26 27 28 29 30 31 36 37 38 41 42 43 46 47 
13(-1)->1 2 3 4 6 7 8 9 15 20 22 23 24 27 30 31 35 40 43 44 46 47 48 49 
6(-1)->1 2 7 8 9 11 12 13 16 17 20 23 24 32 37 38 40 44 45 46 48 
7(-1)->1 2 3 6 13 16 22 25 26 27 28 31 34 36 37 41 44 45 46 48 49 
22(-1)->1 2 3 4 5 7 13 15 18 19 24 29 30 31 32 33 36 38 39 41 47 
23(-1)->1 2 3 4 6 9 12 13 15 16 19 21 29 30 35 37 38 40 41 44 47 
4(-1)->1 2 3 5 9 11 12 13 20 22 23 24 26 27 29 30 32 33 37 40 
30(-1)->1 2 3 4 5 11 13 14 16 17 18 22 23 28 29 35 36 37 40 44 
38(-1)->1 2 5 6 8 11 17 19 22 23 25 26 27 28 29 37 40 42 43 46 
40(-1)->1 2 3 4 6 8 9 13 14 20 23 25 27 30 32 36 38 41 48 50 
41(-1)->1 2 3 7 11 15 18 21 22 23 25 27 28 31 34 40 42 45 47 50 
5(-1)->1 2 3 4 11 15 16 18 20 22 29 30 32 33 38 45 46 49 50 
15(-1)->1 2 5 10 11 13 17 18 19 22 23 28 29 34 35 36 39 41 49 
24(-1)->1 2 3 4 6 11 13 18 19 21 22 26 31 35 36 43 44 46 50 
29(-1)->1 2 3 4 5 9 10 11 15 17 18 21 22 23 30 36 37 38 45 
17(-1)->1 2 3 6 8 9 12 15 28 29 30 37 38 44 45 47 48 50 
27(-1)->1 2 3 4 7 9 10 11 13 14 25 26 38 40 41 42 44 45 
36(-1)->1 2 7 11 14 15 19 22 24 29 30 33 40 42 44 45 47 48 
31(-1)->1 2 3 7 11 13 19 20 22 24 25 32 33 37 41 42 48 
35(-1)->1 2 3 9 13 14 15 19 23 24 30 34 42 43 46 49 50 
37(-1)->1 2 3 4 6 7 10 11 17 18 23 29 30 31 34 38 46 
8(-1)->1 2 3 6 11 12 13 14 17 32 38 40 42 43 44 48 
9(-1)->1 2 4 6 11 13 17 21 23 26 27 29 32 35 40 43 
18(-1)->1 2 3 5 11 15 20 22 24 29 30 34 37 41 42 45 
19(-1)->1 2 3 10 15 20 22 23 24 26 31 35 36 38 39 42 
20(-1)->1 2 3 4 5 6 10 13 16 18 19 31 40 43 44 48 
26(-1)->1 2 3 4 7 9 11 19 21 24 27 38 39 46 47 48 
42(-1)->1 2 8 11 18 19 21 27 31 32 35 36 38 41 43 49 
44(-1)->1 6 7 8 13 17 20 21 23 24 27 30 33 36 46 50 
46(-1)->1 2 5 6 7 11 13 24 26 28 34 35 37 38 44 49 
28(-1)->1 2 7 10 11 15 16 17 25 30 38 41 45 46 47 
34(-1)->1 2 3 7 15 18 25 35 37 39 41 45 46 47 50 
48(-1)->1 2 6 7 8 13 14 17 20 26 31 32 36 40 49 
21(-1)->1 2 3 9 10 16 23 24 26 29 41 42 43 44 
25(-1)->1 2 7 14 27 28 31 34 38 39 40 41 45 49 
45(-1)->1 2 5 6 7 17 18 25 27 28 29 34 36 41 
10(-1)->1 2 12 14 15 19 20 21 27 28 29 37 39 
32(-1)->1 2 3 4 5 6 8 9 22 31 40 42 48 
43(-1)->1 8 9 11 13 20 21 24 35 38 39 42 50 
47(-1)->1 2 11 13 17 22 23 26 28 33 34 36 41 
49(-1)->1 2 3 5 7 13 15 16 25 35 42 46 48 
14(-1)->1 2 3 8 10 25 27 30 35 36 40 48 
16(-1)->1 2 5 6 7 20 21 23 28 30 49 
39(-1)->1 2 10 15 19 22 25 26 34 43 50 
50(-1)->1 5 17 24 34 35 39 40 41 43 44 
33(-1)->1 2 3 4 5 22 31 36 44 47 
12(-1)->1 2 3 4 6 8 10 17 23 
-------
1 2 3 4 5 11 29 30 

-------
29(-1)->1 2 3 4 5 9 10 11 15 17 18 21 22 23 30 36 37 38 45 
5(-1)->1 2 3 4 11 15 16 18 20 22 29 30 32 33 38 45 46 49 50 
30(-1)->1 2 3 4 5 11 13 14 16 17 18 22 23 28 29 35 36 37 40 44 
4(-1)->1 2 3 5 9 11 12 13 20 22 23 24 26 27 29 30 32 33 37 40 
11(-1)->1 2 3 4 5 6 8 9 15 18 24 26 27 28 29 30 31 36 37 38 41 42 43 46 47 
3(-1)->1 2 4 5 7 8 11 12 13 14 17 18 19 20 21 22 23 24 26 27 29 30 31 32 33 34 35 37 40 41 49 
2(-1)->1 3 4 5 6 7 8 9 10 11 12 13 14 15 16 17 18 19 20 21 22 23 24 25 26 27 28 29 30 31 32 33 34 35 36 37 38 39 40 41 42 45 46 47 48 49 
1(-1)->2 3 4 5 6 7 8 9 10 11 12 13 14 15 16 17 18 19 20 21 22 23 24 25 26 27 28 29 30 31 32 33 34 35 36 37 38 39 40 41 42 43 44 45 46 47 48 49 50 
13(-1)->1 2 3 4 6 7 8 9 15 20 22 23 24 27 30 31 35 40 43 44 46 47 48 49 
6(-1)->1 2 7 8 9 11 12 13 16 17 20 23 24 32 37 38 40 44 45 46 48 
7(-1)->1 2 3 6 13 16 22 25 26 27 28 31 34 36 37 41 44 45 46 48 49 
22(-1)->1 2 3 4 5 7 13 15 18 19 24 29 30 31 32 33 36 38 39 41 47 
23(-1)->1 2 3 4 6 9 12 13 15 16 19 21 29 30 35 37 38 40 41 44 47 
38(-1)->1 2 5 6 8 11 17 19 22 23 25 26 27 28 29 37 40 42 43 46 
40(-1)->1 2 3 4 6 8 9 13 14 20 23 25 27 30 32 36 38 41 48 50 
41(-1)->1 2 3 7 11 15 18 21 22 23 25 27 28 31 34 40 42 45 47 50 
15(-1)->1 2 5 10 11 13 17 18 19 22 23 28 29 34 35 36 39 41 49 
24(-1)->1 2 3 4 6 11 13 18 19 21 22 26 31 35 36 43 44 46 50 
17(-1)->1 2 3 6 8 9 12 15 28 29 30 37 38 44 45 47 48 50 
27(-1)->1 2 3 4 7 9 10 11 13 14 25 26 38 40 41 42 44 45 
36(-1)->1 2 7 11 14 15 19 22 24 29 30 33 40 42 44 45 47 48 
31(-1)->1 2 3 7 11 13 19 20 22 24 25 32 33 37 41 42 48 
35(-1)->1 2 3 9 13 14 15 19 23 24 30 34 42 43 46 49 50 
37(-1)->1 2 3 4 6 7 10 11 17 18 23 29 30 31 34 38 46 
8(-1)->1 2 3 6 11 12 13 14 17 32 38 40 42 43 44 48 
9(-1)->1 2 4 6 11 13 17 21 23 26 27 29 32 35 40 43 
18(-1)->1 2 3 5 11 15 20 22 24 29 30 34 37 41 42 45 
19(-1)->1 2 3 10 15 20 22 23 24 26 31 35 36 38 39 42 
20(-1)->1 2 3 4 5 6 10 13 16 18 19 31 40 43 44 48 
26(-1)->1 2 3 4 7 9 11 19 21 24 27 38 39 46 47 48 
42(-1)->1 2 8 11 18 19 21 27 31 32 35 36 38 41 43 49 
44(-1)->1 6 7 8 13 17 20 21 23 24 27 30 33 36 46 50 
46(-1)->1 2 5 6 7 11 13 24 26 28 34 35 37 38 44 49 
28(-1)->1 2 7 10 11 15 16 17 25 30 38 41 45 46 47 
34(-1)->1 2 3 7 15 18 25 35 37 39 41 45 46 47 50 
48(-1)->1 2 6 7 8 13 14 17 20 26 31 32 36 40 49 
21(-1)->1 2 3 9 10 16 23 24 26 29 41 42 43 44 
25(-1)->1 2 7 14 27 28 31 34 38 39 40 41 45 49 
45(-1)->1 2 5 6 7 17 18 25 27 28 29 34 36 41 
10(-1)->1 2 12 14 15 19 20 21 27 28 29 37 39 
32(-1)->1 2 3 4 5 6 8 9 22 31 40 42 48 
43(-1)->1 8 9 11 13 20 21 24 35 38 39 42 50 
47(-1)->1 2 11 13 17 22 23 26 28 33 34 36 41 
49(-1)->1 2 3 5 7 13 15 16 25 35 42 46 48 
14(-1)->1 2 3 8 10 25 27 30 35 36 40 48 
16(-1)->1 2 5 6 7 20 21 23 28 30 49 
39(-1)->1 2 10 15 19 22 25 26 34 43 50 
50(-1)->1 5 17 24 34 35 39 40 41 43 44 
33(-1)->1 2 3 4 5 22 31 36 44 47 
12(-1)->1 2 3 4 6 8 10 17 23 
-------
START TIME: 1433712075
-------
1(7)->2 3 4 5 6 7 8 9 10 11 12 13 14 15 16 17 18 19 20 21 22 23 24 25 26 27 28 29 30 31 32 33 34 35 36 37 38 39 40 41 42 43 44 45 46 47 48 49 50 
2(6)->1 3 4 5 6 7 8 9 10 11 12 13 14 15 16 17 18 19 20 21 22 23 24 25 26 27 28 29 30 31 32 33 34 35 36 37 38 39 40 41 42 45 46 47 48 49 
3(5)->1 2 4 5 7 8 11 12 13 14 17 18 19 20 21 22 23 24 26 27 29 30 31 32 33 34 35 37 40 41 49 
4(3)->1 2 3 5 9 11 12 13 20 22 23 24 26 27 29 30 32 33 37 40 
5(1)->1 2 3 4 11 15 16 18 20 22 29 30 32 33 38 45 46 49 50 
6(1)->1 2 7 8 9 11 12 13 16 17 20 23 24 32 37 38 40 44 45 46 48 
7(2)->1 2 3 6 13 16 22 25 26 27 28 31 34 36 37 41 44 45 46 48 49 
8(3)->1 2 3 6 11 12 13 14 17 32 38 40 42 43 44 48 
9(2)->1 2 4 6 11 13 17 21 23 26 27 29 32 35 40 43 
10(3)->1 2 12 14 15 19 20 21 27 28 29 37 39 
11(4)->1 2 3 4 5 6 8 9 15 18 24 26 27 28 29 30 31 36 37 38 41 42 43 46 47 
12(0)->1 2 3 4 6 8 10 17 23 
13(0)->1 2 3 4 6 7 8 9 15 20 22 23 24 27 30 31 35 40 43 44 46 47 48 49 
14(0)->1 2 3 8 10 25 27 30 35 36 40 48 
15(2)->1 2 5 10 11 13 17 18 19 22 23 28 29 34 35 36 39 41 49 
16(0)->1 2 5 6 7 20 21 23 28 30 49 
17(4)->1 2 3 6 8 9 12 15 28 29 30 37 38 44 45 47 48 50 
18(3)->1 2 3 5 11 15 20 22 24 29 30 34 37 41 42 45 
19(0)->1 2 3 10 15 20 22 23 24 26 31 35 36 38 39 42 
20(2)->1 2 3 4 5 6 10 13 16 18 19 31 40 43 44 48 
21(1)->1 2 3 9 10 16 23 24 26 29 41 42 43 44 
22(4)->1 2 3 4 5 7 13 15 18 19 24 29 30 31 32 33 36 38 39 41 47 
23(4)->1 2 3 4 6 9 12 13 15 16 19 21 29 30 35 37 38 40 41 44 47 
24(2)->1 2 3 4 6 11 13 18 19 21 22 26 31 35 36 43 44 46 50 
25(3)->1 2 7 14 27 28 31 34 38 39 40 41 45 49 
26(8)->1 2 3 4 7 9 11 19 21 24 27 38 39 46 47 48 
27(1)->1 2 3 4 7 9 10 11 13 14 25 26 38 40 41 42 44 45 
28(1)->1 2 7 10 11 15 16 17 25 30 38 41 45 46 47 
29(0)->1 2 3 4 5 9 10 11 15 17 18 21 22 23 30 36 37 38 45 
30(2)->1 2 3 4 5 11 13 14 16 17 18 22 23 28 29 35 36 37 40 44 
31(1)->1 2 3 7 11 13 19 20 22 24 25 32 33 37 41 42 48 
32(0)->1 2 3 4 5 6 8 9 22 31 40 42 48 
33(0)->1 2 3 4 5 22 31 36 44 47 
34(4)->1 2 3 7 15 18 25 35 37 39 41 45 46 47 50 
35(1)->1 2 3 9 13 14 15 19 23 24 30 34 42 43 46 49 50 
36(1)->1 2 7 11 14 15 19 22 24 29 30 33 40 42 44 45 47 48 
37(8)->1 2 3 4 6 7 10 11 17 18 23 29 30 31 34 38 46 
38(2)->1 2 5 6 8 11 17 19 22 23 25 26 27 28 29 37 40 42 43 46 
39(1)->1 2 10 15 19 22 25 26 34 43 50 
40(8)->1 2 3 4 6 8 9 13 14 20 23 25 27 30 32 36 38 41 48 50 
41(0)->1 2 3 7 11 15 18 21 22 23 25 27 28 31 34 40 42 45 47 50 
42(5)->1 2 8 11 18 19 21 27 31 32 35 36 38 41 43 49 
43(6)->1 8 9 11 13 20 21 24 35 38 39 42 50 
44(5)->1 6 7 8 13 17 20 21 23 24 27 30 33 36 46 50 
45(5)->1 2 5 6 7 17 18 25 27 28 29 34 36 41 
46(3)->1 2 5 6 7 11 13 24 26 28 34 35 37 38 44 49 
47(2)->1 2 11 13 17 22 23 26 28 33 34 36 41 
48(5)->1 2 6 7 8 13 14 17 20 26 31 32 36 40 49 
49(4)->1 2 3 5 7 13 15 16 25 35 42 46 48 
50(3)->1 5 17 24 34 35 39 40 41 43 44 
COUNT: 5305
COLORS: 9
9
5305
