1: 2 3 4 5 6 7 8 9 10 11 12 13 14 15 16 17 18 19 20 21 22 23 24 25 26 27 28 29 30 31 32 33 34 35 36 37 38 39 40 41 42 43 44 45 46 47 48 49
2: 1 3 4 5 6 7 8 9 10 11 12 13 14 15 16 17 18 19 20 21 22 23 24 25 26 28 29 33 35 38 39 40 43 44 47 48 49 50
3: 1 2 4 5 6 7 8 9 10 11 14 15 16 17 19 20 21 22 23 24 26 27 28 29 31 35 36 37 40 43 44 47 49
4: 1 2 3 5 6 8 10 11 15 18 21 22 23 24 25 27 35 36 39 40 42 44 46 47
5: 1 2 3 4 6 8 9 10 11 12 18 19 21 22 26 27 28 32 34 39 45 46 47 49
6: 1 2 3 4 5 7 8 10 11 12 14 15 18 21 22 32 37 40 43 44 45 46
7: 33 34 35 6 1 41 11 44 2 46 15 17 50 3 20 24 29 30
8: 33 2 3 4 37 38 1 9 10 11 12 14 18 19 6 5 30 31
9: 32 1 34 3 5 39 8 11 45 14 47 48 49 50 20 2 27 28 29
10: 1 2 3 4 5 6 8 12 17 22 25 26 29 31 36 37 39 41 42 43 45 48 49
11: 1 2 3 4 37 6 7 8 9 42 45 14 49 20 22 24 29 30 5
12: 1 2 17 5 6 39 40 42 13 14 16 49 19 8 23 36 10 31
13: 32 1 2 35 36 40 44 42 43 12 14 16 19 31
14: 1 2 3 6 8 9 11 12 18 13 49 50 24 28 29
15: 1 2 3 36 6 7 40 41 42 44 21 22 25 4
16: 33 2 35 37 1 41 43 12 13 48 3 23 24 26 27
17: 32 1 2 35 7 40 42 12 3 20 21 23 26 28 10
18: 32 1 2 4 38 6 8 41 42 44 45 14 48 40 20 36 26 28 5
19: 32 33 34 3 1 5 38 39 8 12 43 44 13 47 20 21 2 24 25 45
20: 33 2 3 1 49 38 39 9 11 46 48 17 18 19 22 41 7 31
21: 1 2 3 4 5 6 34 15 48 17 50 19 36
22: 33 2 35 36 5 38 1 10 11 15 48 50 3 20 4 6 37
23: 1 34 35 36 37 39 41 12 2 16 17 50 3 24 4 26 28 30 31
24: 32 33 2 3 4 38 7 42 11 44 45 14 16 19 1 23 27 30
25: 32 1 34 27 4 41 10 2 45 47 48 19 15 31
26: 1 2 3 5 39 10 43 45 47 16 17 18 23 49 27 29
27: 16 34 3 4 5 38 1 9 47 48 49 35 24 25 26 30
28: 33 34 3 36 5 1 9 14 2 45 46 17 18 41 23 49 30 31
29: 1 34 3 33 7 9 10 11 44 45 14 47 2 26 31
30: 1 34 11 37 7 8 39 46 49 43 23 24 27 28 31
31: 1 3 8 41 10 12 13 48 49 50 20 23 25 28 29 30
32: 33 5 6 1 9 13 17 18 19 24 25 37
33: 32 1 2 7 40 42 16 8 19 20 22 24 28 29
34: 1 37 38 7 9 39 44 19 21 23 25 27 28 29 30 5
35: 1 2 3 4 37 7 47 42 39 13 45 16 49 17 22 23 36 27
36: 1 35 4 39 10 43 12 13 15 48 18 3 21 22 23 47 28
37: 32 1 34 3 6 39 8 10 11 16 50 35 22 23 30
38: 1 2 8 41 42 34 46 49 18 19 20 22 24 27
39: 1 2 35 36 5 9 10 43 12 45 34 19 20 23 4 26 30 37
40: 33 2 3 4 6 49 44 43 12 13 47 17 18 1 15
41: 1 38 7 10 15 16 18 20 23 25 28 31
42: 33 35 4 38 1 10 11 12 18 15 17 50 24 13
43: 1 2 3 36 6 48 40 10 39 13 16 50 19 26 30
44: 1 2 3 4 6 7 40 13 34 46 15 18 19 24 29
45: 1 35 5 6 39 9 10 11 47 18 19 24 25 26 28 29
46: 1 4 6 38 7 44 47 49 20 28 30 5
47: 3 1 2 35 36 5 40 9 45 46 48 49 19 25 26 27 29 4
48: 1 2 36 9 10 43 47 16 49 18 20 21 22 25 27 31
49: 1 2 3 5 38 40 9 10 11 12 46 47 48 35 20 14 26 27 28 30 31
50: 2 37 7 9 42 43 14 21 22 23 31
-------
1(-1)->2 3 4 5 6 7 8 9 10 11 12 13 14 15 16 17 18 19 20 21 22 23 24 25 26 27 28 29 30 31 32 33 34 35 36 37 38 39 40 41 42 43 44 45 46 47 48 49 
2(-1)->1 3 4 5 6 7 8 9 10 11 12 13 14 15 16 17 18 19 20 21 22 23 24 25 26 28 29 33 35 38 39 40 43 44 47 48 49 50 
3(-1)->1 2 4 5 6 7 8 9 10 11 14 15 16 17 19 20 21 22 23 24 26 27 28 29 31 35 36 37 40 43 44 47 49 
4(-1)->1 2 3 5 6 8 10 11 15 18 21 22 23 24 25 27 35 36 39 40 42 44 46 47 
5(-1)->1 2 3 4 6 8 9 10 11 12 18 19 21 22 26 27 28 32 34 39 45 46 47 49 
6(-1)->1 2 3 4 5 7 8 10 11 12 14 15 18 21 22 32 37 40 43 44 45 46 
7(-1)->1 2 3 6 11 15 17 20 24 29 30 33 34 35 41 44 46 50 
8(-1)->1 2 3 4 5 6 9 10 11 12 14 18 19 30 31 33 37 38 
9(-1)->1 2 3 5 8 11 14 20 27 28 29 32 34 39 45 47 48 49 50 
10(-1)->1 2 3 4 5 6 8 12 17 22 25 26 29 31 36 37 39 41 42 43 45 48 49 
11(-1)->1 2 3 4 5 6 7 8 9 14 20 22 24 29 30 37 42 45 49 
12(-1)->1 2 5 6 8 10 13 14 16 17 19 23 31 36 39 40 42 49 
13(-1)->1 2 12 14 16 19 31 32 35 36 40 42 43 44 
14(-1)->1 2 3 6 8 9 11 12 13 18 24 28 29 49 50 
15(-1)->1 2 3 4 6 7 21 22 25 36 40 41 42 44 
16(-1)->1 2 3 12 13 23 24 26 27 33 35 37 41 43 48 
17(-1)->1 2 3 7 10 12 20 21 23 26 28 32 35 40 42 
18(-1)->1 2 4 5 6 8 14 20 26 28 32 36 38 40 41 42 44 45 48 
19(-1)->1 2 3 5 8 12 13 20 21 24 25 32 33 34 38 39 43 44 45 47 
20(-1)->1 2 3 7 9 11 17 18 19 22 31 33 38 39 41 46 48 49 
21(-1)->1 2 3 4 5 6 15 17 19 34 36 48 50 
22(-1)->1 2 3 4 5 6 10 11 15 20 33 35 36 37 38 48 50 
23(-1)->1 2 3 4 12 16 17 24 26 28 30 31 34 35 36 37 39 41 50 
24(-1)->1 2 3 4 7 11 14 16 19 23 27 30 32 33 38 42 44 45 
25(-1)->1 2 4 10 15 19 27 31 32 34 41 45 47 48 
26(-1)->1 2 3 5 10 16 17 18 23 27 29 39 43 45 47 49 
27(-1)->1 3 4 5 9 16 24 25 26 30 34 35 38 47 48 49 
28(-1)->1 2 3 5 9 14 17 18 23 30 31 33 34 36 41 45 46 49 
29(-1)->1 2 3 7 9 10 11 14 26 31 33 34 44 45 47 
30(-1)->1 7 8 11 23 24 27 28 31 34 37 39 43 46 49 
31(-1)->1 3 8 10 12 13 20 23 25 28 29 30 41 48 49 50 
32(-1)->1 5 6 9 13 17 18 19 24 25 33 37 
33(-1)->1 2 7 8 16 19 20 22 24 28 29 32 40 42 
34(-1)->1 5 7 9 19 21 23 25 27 28 29 30 37 38 39 44 
35(-1)->1 2 3 4 7 13 16 17 22 23 27 36 37 39 42 45 47 49 
36(-1)->1 3 4 10 12 13 15 18 21 22 23 28 35 39 43 47 48 
37(-1)->1 3 6 8 10 11 16 22 23 30 32 34 35 39 50 
38(-1)->1 2 8 18 19 20 22 24 27 34 41 42 46 49 
39(-1)->1 2 4 5 9 10 12 19 20 23 26 30 34 35 36 37 43 45 
40(-1)->1 2 3 4 6 12 13 15 17 18 33 43 44 47 49 
41(-1)->1 7 10 15 16 18 20 23 25 28 31 38 
42(-1)->1 4 10 11 12 13 15 17 18 24 33 35 38 50 
43(-1)->1 2 3 6 10 13 16 19 26 30 36 39 40 48 50 
44(-1)->1 2 3 4 6 7 13 15 18 19 24 29 34 40 46 
45(-1)->1 5 6 9 10 11 18 19 24 25 26 28 29 35 39 47 
46(-1)->1 4 5 6 7 20 28 30 38 44 47 49 
47(-1)->1 2 3 4 5 9 19 25 26 27 29 35 36 40 45 46 48 49 
48(-1)->1 2 9 10 16 18 20 21 22 25 27 31 36 43 47 49 
49(-1)->1 2 3 5 9 10 11 12 14 20 26 27 28 30 31 35 38 40 46 47 48 
50(-1)->2 7 9 14 21 22 23 31 37 42 43 
-------
1(-1)->2 3 4 5 6 7 8 9 10 11 12 13 14 15 16 17 18 19 20 21 22 23 24 25 26 27 28 29 30 31 32 33 34 35 36 37 38 39 40 41 42 43 44 45 46 47 48 49 
2(-1)->1 3 4 5 6 7 8 9 10 11 12 13 14 15 16 17 18 19 20 21 22 23 24 25 26 28 29 33 35 38 39 40 43 44 47 48 49 50 
3(-1)->1 2 4 5 6 7 8 9 10 11 14 15 16 17 19 20 21 22 23 24 26 27 28 29 31 35 36 37 40 43 44 47 49 
4(-1)->1 2 3 5 6 8 10 11 15 18 21 22 23 24 25 27 35 36 39 40 42 44 46 47 
5(-1)->1 2 3 4 6 8 9 10 11 12 18 19 21 22 26 27 28 32 34 39 45 46 47 49 
10(-1)->1 2 3 4 5 6 8 12 17 22 25 26 29 31 36 37 39 41 42 43 45 48 49 
6(-1)->1 2 3 4 5 7 8 10 11 12 14 15 18 21 22 32 37 40 43 44 45 46 
49(-1)->1 2 3 5 9 10 11 12 14 20 26 27 28 30 31 35 38 40 46 47 48 
19(-1)->1 2 3 5 8 12 13 20 21 24 25 32 33 34 38 39 43 44 45 47 
9(-1)->1 2 3 5 8 11 14 20 27 28 29 32 34 39 45 47 48 49 50 
11(-1)->1 2 3 4 5 6 7 8 9 14 20 22 24 29 30 37 42 45 49 
18(-1)->1 2 4 5 6 8 14 20 26 28 32 36 38 40 41 42 44 45 48 
23(-1)->1 2 3 4 12 16 17 24 26 28 30 31 34 35 36 37 39 41 50 
7(-1)->1 2 3 6 11 15 17 20 24 29 30 33 34 35 41 44 46 50 
8(-1)->1 2 3 4 5 6 9 10 11 12 14 18 19 30 31 33 37 38 
12(-1)->1 2 5 6 8 10 13 14 16 17 19 23 31 36 39 40 42 49 
20(-1)->1 2 3 7 9 11 17 18 19 22 31 33 38 39 41 46 48 49 
24(-1)->1 2 3 4 7 11 14 16 19 23 27 30 32 33 38 42 44 45 
28(-1)->1 2 3 5 9 14 17 18 23 30 31 33 34 36 41 45 46 49 
35(-1)->1 2 3 4 7 13 16 17 22 23 27 36 37 39 42 45 47 49 
39(-1)->1 2 4 5 9 10 12 19 20 23 26 30 34 35 36 37 43 45 
47(-1)->1 2 3 4 5 9 19 25 26 27 29 35 36 40 45 46 48 49 
22(-1)->1 2 3 4 5 6 10 11 15 20 33 35 36 37 38 48 50 
36(-1)->1 3 4 10 12 13 15 18 21 22 23 28 35 39 43 47 48 
26(-1)->1 2 3 5 10 16 17 18 23 27 29 39 43 45 47 49 
27(-1)->1 3 4 5 9 16 24 25 26 30 34 35 38 47 48 49 
31(-1)->1 3 8 10 12 13 20 23 25 28 29 30 41 48 49 50 
34(-1)->1 5 7 9 19 21 23 25 27 28 29 30 37 38 39 44 
45(-1)->1 5 6 9 10 11 18 19 24 25 26 28 29 35 39 47 
48(-1)->1 2 9 10 16 18 20 21 22 25 27 31 36 43 47 49 
14(-1)->1 2 3 6 8 9 11 12 13 18 24 28 29 49 50 
16(-1)->1 2 3 12 13 23 24 26 27 33 35 37 41 43 48 
17(-1)->1 2 3 7 10 12 20 21 23 26 28 32 35 40 42 
29(-1)->1 2 3 7 9 10 11 14 26 31 33 34 44 45 47 
30(-1)->1 7 8 11 23 24 27 28 31 34 37 39 43 46 49 
37(-1)->1 3 6 8 10 11 16 22 23 30 32 34 35 39 50 
40(-1)->1 2 3 4 6 12 13 15 17 18 33 43 44 47 49 
43(-1)->1 2 3 6 10 13 16 19 26 30 36 39 40 48 50 
44(-1)->1 2 3 4 6 7 13 15 18 19 24 29 34 40 46 
13(-1)->1 2 12 14 16 19 31 32 35 36 40 42 43 44 
15(-1)->1 2 3 4 6 7 21 22 25 36 40 41 42 44 
25(-1)->1 2 4 10 15 19 27 31 32 34 41 45 47 48 
33(-1)->1 2 7 8 16 19 20 22 24 28 29 32 40 42 
38(-1)->1 2 8 18 19 20 22 24 27 34 41 42 46 49 
42(-1)->1 4 10 11 12 13 15 17 18 24 33 35 38 50 
21(-1)->1 2 3 4 5 6 15 17 19 34 36 48 50 
32(-1)->1 5 6 9 13 17 18 19 24 25 33 37 
41(-1)->1 7 10 15 16 18 20 23 25 28 31 38 
46(-1)->1 4 5 6 7 20 28 30 38 44 47 49 
50(-1)->2 7 9 14 21 22 23 31 37 42 43 
-------
1 2 3 4 5 6 8 10 

-------
8(-1)->1 2 3 4 5 6 9 10 11 12 14 18 19 30 31 33 37 38 
6(-1)->1 2 3 4 5 7 8 10 11 12 14 15 18 21 22 32 37 40 43 44 45 46 
10(-1)->1 2 3 4 5 6 8 12 17 22 25 26 29 31 36 37 39 41 42 43 45 48 49 
5(-1)->1 2 3 4 6 8 9 10 11 12 18 19 21 22 26 27 28 32 34 39 45 46 47 49 
4(-1)->1 2 3 5 6 8 10 11 15 18 21 22 23 24 25 27 35 36 39 40 42 44 46 47 
3(-1)->1 2 4 5 6 7 8 9 10 11 14 15 16 17 19 20 21 22 23 24 26 27 28 29 31 35 36 37 40 43 44 47 49 
2(-1)->1 3 4 5 6 7 8 9 10 11 12 13 14 15 16 17 18 19 20 21 22 23 24 25 26 28 29 33 35 38 39 40 43 44 47 48 49 50 
1(-1)->2 3 4 5 6 7 8 9 10 11 12 13 14 15 16 17 18 19 20 21 22 23 24 25 26 27 28 29 30 31 32 33 34 35 36 37 38 39 40 41 42 43 44 45 46 47 48 49 
49(-1)->1 2 3 5 9 10 11 12 14 20 26 27 28 30 31 35 38 40 46 47 48 
19(-1)->1 2 3 5 8 12 13 20 21 24 25 32 33 34 38 39 43 44 45 47 
9(-1)->1 2 3 5 8 11 14 20 27 28 29 32 34 39 45 47 48 49 50 
11(-1)->1 2 3 4 5 6 7 8 9 14 20 22 24 29 30 37 42 45 49 
18(-1)->1 2 4 5 6 8 14 20 26 28 32 36 38 40 41 42 44 45 48 
23(-1)->1 2 3 4 12 16 17 24 26 28 30 31 34 35 36 37 39 41 50 
7(-1)->1 2 3 6 11 15 17 20 24 29 30 33 34 35 41 44 46 50 
12(-1)->1 2 5 6 8 10 13 14 16 17 19 23 31 36 39 40 42 49 
20(-1)->1 2 3 7 9 11 17 18 19 22 31 33 38 39 41 46 48 49 
24(-1)->1 2 3 4 7 11 14 16 19 23 27 30 32 33 38 42 44 45 
28(-1)->1 2 3 5 9 14 17 18 23 30 31 33 34 36 41 45 46 49 
35(-1)->1 2 3 4 7 13 16 17 22 23 27 36 37 39 42 45 47 49 
39(-1)->1 2 4 5 9 10 12 19 20 23 26 30 34 35 36 37 43 45 
47(-1)->1 2 3 4 5 9 19 25 26 27 29 35 36 40 45 46 48 49 
22(-1)->1 2 3 4 5 6 10 11 15 20 33 35 36 37 38 48 50 
36(-1)->1 3 4 10 12 13 15 18 21 22 23 28 35 39 43 47 48 
26(-1)->1 2 3 5 10 16 17 18 23 27 29 39 43 45 47 49 
27(-1)->1 3 4 5 9 16 24 25 26 30 34 35 38 47 48 49 
31(-1)->1 3 8 10 12 13 20 23 25 28 29 30 41 48 49 50 
34(-1)->1 5 7 9 19 21 23 25 27 28 29 30 37 38 39 44 
45(-1)->1 5 6 9 10 11 18 19 24 25 26 28 29 35 39 47 
48(-1)->1 2 9 10 16 18 20 21 22 25 27 31 36 43 47 49 
14(-1)->1 2 3 6 8 9 11 12 13 18 24 28 29 49 50 
16(-1)->1 2 3 12 13 23 24 26 27 33 35 37 41 43 48 
17(-1)->1 2 3 7 10 12 20 21 23 26 28 32 35 40 42 
29(-1)->1 2 3 7 9 10 11 14 26 31 33 34 44 45 47 
30(-1)->1 7 8 11 23 24 27 28 31 34 37 39 43 46 49 
37(-1)->1 3 6 8 10 11 16 22 23 30 32 34 35 39 50 
40(-1)->1 2 3 4 6 12 13 15 17 18 33 43 44 47 49 
43(-1)->1 2 3 6 10 13 16 19 26 30 36 39 40 48 50 
44(-1)->1 2 3 4 6 7 13 15 18 19 24 29 34 40 46 
13(-1)->1 2 12 14 16 19 31 32 35 36 40 42 43 44 
15(-1)->1 2 3 4 6 7 21 22 25 36 40 41 42 44 
25(-1)->1 2 4 10 15 19 27 31 32 34 41 45 47 48 
33(-1)->1 2 7 8 16 19 20 22 24 28 29 32 40 42 
38(-1)->1 2 8 18 19 20 22 24 27 34 41 42 46 49 
42(-1)->1 4 10 11 12 13 15 17 18 24 33 35 38 50 
21(-1)->1 2 3 4 5 6 15 17 19 34 36 48 50 
32(-1)->1 5 6 9 13 17 18 19 24 25 33 37 
41(-1)->1 7 10 15 16 18 20 23 25 28 31 38 
46(-1)->1 4 5 6 7 20 28 30 38 44 47 49 
50(-1)->2 7 9 14 21 22 23 31 37 42 43 
-------
START TIME: 1433712064
10000
20000
30000
40000
50000
-------
1(7)->2 3 4 5 6 7 8 9 10 11 12 13 14 15 16 17 18 19 20 21 22 23 24 25 26 27 28 29 30 31 32 33 34 35 36 37 38 39 40 41 42 43 44 45 46 47 48 49 
2(6)->1 3 4 5 6 7 8 9 10 11 12 13 14 15 16 17 18 19 20 21 22 23 24 25 26 28 29 33 35 38 39 40 43 44 47 48 49 50 
3(5)->1 2 4 5 6 7 8 9 10 11 14 15 16 17 19 20 21 22 23 24 26 27 28 29 31 35 36 37 40 43 44 47 49 
4(4)->1 2 3 5 6 8 10 11 15 18 21 22 23 24 25 27 35 36 39 40 42 44 46 47 
5(3)->1 2 3 4 6 8 9 10 11 12 18 19 21 22 26 27 28 32 34 39 45 46 47 49 
6(1)->1 2 3 4 5 7 8 10 11 12 14 15 18 21 22 32 37 40 43 44 45 46 
7(4)->1 2 3 6 11 15 17 20 24 29 30 33 34 35 41 44 46 50 
8(0)->1 2 3 4 5 6 9 10 11 12 14 18 19 30 31 33 37 38 
9(4)->1 2 3 5 8 11 14 20 27 28 29 32 34 39 45 47 48 49 50 
10(2)->1 2 3 4 5 6 8 12 17 22 25 26 29 31 36 37 39 41 42 43 45 48 49 
11(2)->1 2 3 4 5 6 7 8 9 14 20 22 24 29 30 37 42 45 49 
12(5)->1 2 5 6 8 10 13 14 16 17 19 23 31 36 39 40 42 49 
13(1)->1 2 12 14 16 19 31 32 35 36 40 42 43 44 
14(3)->1 2 3 6 8 9 11 12 13 18 24 28 29 49 50 
15(2)->1 2 3 4 6 7 21 22 25 36 40 41 42 44 
16(2)->1 2 3 12 13 23 24 26 27 33 35 37 41 43 48 
17(1)->1 2 3 7 10 12 20 21 23 26 28 32 35 40 42 
18(5)->1 2 4 5 6 8 14 20 26 28 32 36 38 40 41 42 44 45 48 
19(4)->1 2 3 5 8 12 13 20 21 24 25 32 33 34 38 39 43 44 45 47 
20(3)->1 2 3 7 9 11 17 18 19 22 31 33 38 39 41 46 48 49 
21(0)->1 2 3 4 5 6 15 17 19 34 36 48 50 
22(0)->1 2 3 4 5 6 10 11 15 20 33 35 36 37 38 48 50 
23(0)->1 2 3 4 12 16 17 24 26 28 30 31 34 35 36 37 39 41 50 
24(1)->1 2 3 4 7 11 14 16 19 23 27 30 32 33 38 42 44 45 
25(3)->1 2 4 10 15 19 27 31 32 34 41 45 47 48 
26(4)->1 2 3 5 10 16 17 18 23 27 29 39 43 45 47 49 
27(6)->1 3 4 5 9 16 24 25 26 30 34 35 38 47 48 49 
28(2)->1 2 3 5 9 14 17 18 23 30 31 33 34 36 41 45 46 49 
29(1)->1 2 3 7 9 10 11 14 26 31 33 34 44 45 47 
30(3)->1 7 8 11 23 24 27 28 31 34 37 39 43 46 49 
31(4)->1 3 8 10 12 13 20 23 25 28 29 30 41 48 49 50 
32(0)->1 5 6 9 13 17 18 19 24 25 33 37 
33(5)->1 2 7 8 16 19 20 22 24 28 29 32 40 42 
34(5)->1 5 7 9 19 21 23 25 27 28 29 30 37 38 39 44 
35(3)->1 2 3 4 7 13 16 17 22 23 27 36 37 39 42 45 47 49 
36(6)->1 3 4 10 12 13 15 18 21 22 23 28 35 39 43 47 48 
37(4)->1 3 6 8 10 11 16 22 23 30 32 34 35 39 50 
38(2)->1 2 8 18 19 20 22 24 27 34 41 42 46 49 
39(1)->1 2 4 5 9 10 12 19 20 23 26 30 34 35 36 37 43 45 
40(3)->1 2 3 4 6 12 13 15 17 18 33 43 44 47 49 
41(1)->1 7 10 15 16 18 20 23 25 28 31 38 
42(0)->1 4 10 11 12 13 15 17 18 24 33 35 38 50 
43(0)->1 2 3 6 10 13 16 19 26 30 36 39 40 48 50 
44(0)->1 2 3 4 6 7 13 15 18 19 24 29 34 40 46 
45(0)->1 5 6 9 10 11 18 19 24 25 26 28 29 35 39 47 
46(5)->1 4 5 6 7 20 28 30 38 44 47 49 
47(2)->1 2 3 4 5 9 19 25 26 27 29 35 36 40 45 46 48 49 
48(1)->1 2 9 10 16 18 20 21 22 25 27 31 36 43 47 49 
49(0)->1 2 3 5 9 10 11 12 14 20 26 27 28 30 31 35 38 40 46 47 48 
50(1)->2 7 9 14 21 22 23 31 37 42 43 
COUNT: 53954
COLORS: 8
8
53954
