1: 2 3 4 5 6 7 8 9 10 11 12 13 14 15 16 17 18 19 20 21 22 23 24 25 26 27 28 29 30 31 32 33 34 35 36 37 38 39 40 41 42 43 44 45 46 47 48 49 50
2: 1 3 4 5 6 7 8 9 10 11 12 13 14 15 16 17 18 19 20 21 22 23 24 25 26 27 28 31 32 39 42 46 49 50
3: 1 2 4 5 6 7 8 10 11 13 14 15 16 18 19 23 24 25 26 27 31 35 38 44 47 48
4: 1 2 3 5 6 7 8 10 11 12 13 15 16 21 23 24 26 28 31 32 35 37 39 41 46 48
5: 1 2 3 4 6 8 12 13 14 16 17 19 23 30 32 34 36 38 41 42 44 46 47 48
6: 32 33 2 3 4 37 1 8 13 45 49 50 19 20 22 5 31
7: 33 2 3 4 1 40 45 47 8 22 23 25 26 27 29
8: 1 2 3 4 5 38 39 10 7 15 42 22 24 6 27 29
9: 1 2 36 37 38 39 40 10 11 14 19 21 24 25
10: 1 2 35 4 37 38 8 9 11 12 13 15 48 3 22 23 26 29 31
11: 1 2 3 4 9 10 13 14 18 20 21 22 29 32 33 34 39 40 42 43 45 46 50
12: 48 2 4 37 39 42 43 16 1 25 36 33 27 10 30 5
13: 1 2 3 17 5 6 33 10 11 46 49 19 21 22 4 42 31
14: 1 2 50 5 39 9 11 45 18 3 22 23 24 27
15: 3 1 2 35 36 37 17 8 10 45 49 19 4 30 31
16: 1 34 3 4 5 40 41 42 43 12 45 46 47 50 20 24 2 28 30
17: 1 34 35 5 39 40 2 13 46 15 20 24 28 37
18: 1 2 35 37 43 14 11 3 46 24 31
19: 1 2 3 5 6 40 9 41 13 45 15 21 22 23 24 27 29
20: 32 1 34 43 37 6 40 41 11 45 16 17 50 2 27
21: 32 1 2 35 4 37 39 40 41 11 13 46 19 9 27 30
22: 1 2 6 7 8 41 10 11 13 14 47 48 19 46 24 26 27 42
23: 32 1 2 34 4 5 3 7 42 43 45 14 29 50 19 28 10
24: 1 2 3 36 37 16 39 8 9 46 47 48 17 18 19 14 22 41 25 49 4
25: 32 1 34 35 37 7 9 12 2 48 3 24 27 29
26: 33 2 35 1 37 38 7 10 44 49 3 22 4 27 28 30
27: 1 2 3 7 8 12 14 19 20 21 22 25 26 28 30 32 35 36 39 40 47 49
28: 32 48 2 4 39 40 43 16 17 1 23 26 27 29
29: 33 35 36 7 8 10 11 44 48 49 19 1 23 25 28 42
30: 32 48 35 37 38 1 42 12 46 15 16 21 26 27 5 31
31: 33 2 43 36 37 38 1 10 45 13 15 18 3 4 6 47 30
32: 33 2 4 5 6 1 40 41 11 46 50 20 21 23 25 27 28 30
33: 32 1 11 36 6 7 42 43 12 13 46 48 49 50 26 29 31
34: 1 36 5 49 42 11 16 17 20 23 25
35: 1 3 4 37 39 15 10 46 29 17 18 21 25 26 27 42 30
36: 33 34 27 1 37 39 9 43 12 44 48 49 24 15 5 29 31
37: 1 4 6 9 10 12 15 17 18 20 21 24 25 26 30 31 35 36 41 45 46 47 48
38: 1 3 5 39 8 41 10 47 49 50 9 26 42 30 31
39: 1 2 35 36 38 8 9 11 12 14 17 21 24 4 27 28
40: 32 1 7 9 11 44 46 16 17 19 20 21 27 28
41: 32 16 4 5 38 1 43 45 46 48 49 50 19 20 21 22 24 37
42: 1 34 35 5 38 33 8 43 12 13 45 16 11 22 23 2 29 30
43: 33 36 16 1 41 42 11 12 50 46 48 18 20 23 28 31
44: 1 3 36 5 40 45 46 50 26 29
45: 1 37 6 7 41 42 11 44 14 47 16 19 20 23 15 31
46: 1 2 4 5 11 13 16 17 18 21 22 24 30 32 33 35 37 40 41 43 44 47
47: 16 3 1 37 38 7 45 46 48 22 24 27 5 31
48: 33 3 36 37 1 41 10 43 12 47 50 30 22 24 25 28 29 4 5
49: 33 2 34 36 6 38 1 41 13 15 50 24 26 27 29
50: 32 33 2 43 1 38 6 48 41 11 44 14 16 49 20 23
-------
1(-1)->2 3 4 5 6 7 8 9 10 11 12 13 14 15 16 17 18 19 20 21 22 23 24 25 26 27 28 29 30 31 32 33 34 35 36 37 38 39 40 41 42 43 44 45 46 47 48 49 50 
2(-1)->1 3 4 5 6 7 8 9 10 11 12 13 14 15 16 17 18 19 20 21 22 23 24 25 26 27 28 31 32 39 42 46 49 50 
3(-1)->1 2 4 5 6 7 8 10 11 13 14 15 16 18 19 23 24 25 26 27 31 35 38 44 47 48 
4(-1)->1 2 3 5 6 7 8 10 11 12 13 15 16 21 23 24 26 28 31 32 35 37 39 41 46 48 
5(-1)->1 2 3 4 6 8 12 13 14 16 17 19 23 30 32 34 36 38 41 42 44 46 47 48 
6(-1)->1 2 3 4 5 8 13 19 20 22 31 32 33 37 45 49 50 
7(-1)->1 2 3 4 8 22 23 25 26 27 29 33 40 45 47 
8(-1)->1 2 3 4 5 6 7 10 15 22 24 27 29 38 39 42 
9(-1)->1 2 10 11 14 19 21 24 25 36 37 38 39 40 
10(-1)->1 2 3 4 8 9 11 12 13 15 22 23 26 29 31 35 37 38 48 
11(-1)->1 2 3 4 9 10 13 14 18 20 21 22 29 32 33 34 39 40 42 43 45 46 50 
12(-1)->1 2 4 5 10 16 25 27 30 33 36 37 39 42 43 48 
13(-1)->1 2 3 4 5 6 10 11 17 19 21 22 31 33 42 46 49 
14(-1)->1 2 3 5 9 11 18 22 23 24 27 39 45 50 
15(-1)->1 2 3 4 8 10 17 19 30 31 35 36 37 45 49 
16(-1)->1 2 3 4 5 12 20 24 28 30 34 40 41 42 43 45 46 47 50 
17(-1)->1 2 5 13 15 20 24 28 34 35 37 39 40 46 
18(-1)->1 2 3 11 14 24 31 35 37 43 46 
19(-1)->1 2 3 5 6 9 13 15 21 22 23 24 27 29 40 41 45 
20(-1)->1 2 6 11 16 17 27 32 34 37 40 41 43 45 50 
21(-1)->1 2 4 9 11 13 19 27 30 32 35 37 39 40 41 46 
22(-1)->1 2 6 7 8 10 11 13 14 19 24 26 27 41 42 46 47 48 
23(-1)->1 2 3 4 5 7 10 14 19 28 29 32 34 42 43 45 50 
24(-1)->1 2 3 4 8 9 14 16 17 18 19 22 25 36 37 39 41 46 47 48 49 
25(-1)->1 2 3 7 9 12 24 27 29 32 34 35 37 48 
26(-1)->1 2 3 4 7 10 22 27 28 30 33 35 37 38 44 49 
27(-1)->1 2 3 7 8 12 14 19 20 21 22 25 26 28 30 32 35 36 39 40 47 49 
28(-1)->1 2 4 16 17 23 26 27 29 32 39 40 43 48 
29(-1)->1 7 8 10 11 19 23 25 28 33 35 36 42 44 48 49 
30(-1)->1 5 12 15 16 21 26 27 31 32 35 37 38 42 46 48 
31(-1)->1 2 3 4 6 10 13 15 18 30 33 36 37 38 43 45 47 
32(-1)->1 2 4 5 6 11 20 21 23 25 27 28 30 33 40 41 46 50 
33(-1)->1 6 7 11 12 13 26 29 31 32 36 42 43 46 48 49 50 
34(-1)->1 5 11 16 17 20 23 25 36 42 49 
35(-1)->1 3 4 10 15 17 18 21 25 26 27 29 30 37 39 42 46 
36(-1)->1 5 9 12 15 24 27 29 31 33 34 37 39 43 44 48 49 
37(-1)->1 4 6 9 10 12 15 17 18 20 21 24 25 26 30 31 35 36 41 45 46 47 48 
38(-1)->1 3 5 8 9 10 26 30 31 39 41 42 47 49 50 
39(-1)->1 2 4 8 9 11 12 14 17 21 24 27 28 35 36 38 
40(-1)->1 7 9 11 16 17 19 20 21 27 28 32 44 46 
41(-1)->1 4 5 16 19 20 21 22 24 32 37 38 43 45 46 48 49 50 
42(-1)->1 2 5 8 11 12 13 16 22 23 29 30 33 34 35 38 43 45 
43(-1)->1 11 12 16 18 20 23 28 31 33 36 41 42 46 48 50 
44(-1)->1 3 5 26 29 36 40 45 46 50 
45(-1)->1 6 7 11 14 15 16 19 20 23 31 37 41 42 44 47 
46(-1)->1 2 4 5 11 13 16 17 18 21 22 24 30 32 33 35 37 40 41 43 44 47 
47(-1)->1 3 5 7 16 22 24 27 31 37 38 45 46 48 
48(-1)->1 3 4 5 10 12 22 24 25 28 29 30 33 36 37 41 43 47 50 
49(-1)->1 2 6 13 15 24 26 27 29 33 34 36 38 41 50 
50(-1)->1 2 6 11 14 16 20 23 32 33 38 41 43 44 48 49 
-------
1(-1)->2 3 4 5 6 7 8 9 10 11 12 13 14 15 16 17 18 19 20 21 22 23 24 25 26 27 28 29 30 31 32 33 34 35 36 37 38 39 40 41 42 43 44 45 46 47 48 49 50 
2(-1)->1 3 4 5 6 7 8 9 10 11 12 13 14 15 16 17 18 19 20 21 22 23 24 25 26 27 28 31 32 39 42 46 49 50 
3(-1)->1 2 4 5 6 7 8 10 11 13 14 15 16 18 19 23 24 25 26 27 31 35 38 44 47 48 
4(-1)->1 2 3 5 6 7 8 10 11 12 13 15 16 21 23 24 26 28 31 32 35 37 39 41 46 48 
5(-1)->1 2 3 4 6 8 12 13 14 16 17 19 23 30 32 34 36 38 41 42 44 46 47 48 
11(-1)->1 2 3 4 9 10 13 14 18 20 21 22 29 32 33 34 39 40 42 43 45 46 50 
37(-1)->1 4 6 9 10 12 15 17 18 20 21 24 25 26 30 31 35 36 41 45 46 47 48 
27(-1)->1 2 3 7 8 12 14 19 20 21 22 25 26 28 30 32 35 36 39 40 47 49 
46(-1)->1 2 4 5 11 13 16 17 18 21 22 24 30 32 33 35 37 40 41 43 44 47 
24(-1)->1 2 3 4 8 9 14 16 17 18 19 22 25 36 37 39 41 46 47 48 49 
10(-1)->1 2 3 4 8 9 11 12 13 15 22 23 26 29 31 35 37 38 48 
16(-1)->1 2 3 4 5 12 20 24 28 30 34 40 41 42 43 45 46 47 50 
48(-1)->1 3 4 5 10 12 22 24 25 28 29 30 33 36 37 41 43 47 50 
22(-1)->1 2 6 7 8 10 11 13 14 19 24 26 27 41 42 46 47 48 
32(-1)->1 2 4 5 6 11 20 21 23 25 27 28 30 33 40 41 46 50 
41(-1)->1 4 5 16 19 20 21 22 24 32 37 38 43 45 46 48 49 50 
42(-1)->1 2 5 8 11 12 13 16 22 23 29 30 33 34 35 38 43 45 
6(-1)->1 2 3 4 5 8 13 19 20 22 31 32 33 37 45 49 50 
13(-1)->1 2 3 4 5 6 10 11 17 19 21 22 31 33 42 46 49 
19(-1)->1 2 3 5 6 9 13 15 21 22 23 24 27 29 40 41 45 
23(-1)->1 2 3 4 5 7 10 14 19 28 29 32 34 42 43 45 50 
31(-1)->1 2 3 4 6 10 13 15 18 30 33 36 37 38 43 45 47 
33(-1)->1 6 7 11 12 13 26 29 31 32 36 42 43 46 48 49 50 
35(-1)->1 3 4 10 15 17 18 21 25 26 27 29 30 37 39 42 46 
36(-1)->1 5 9 12 15 24 27 29 31 33 34 37 39 43 44 48 49 
8(-1)->1 2 3 4 5 6 7 10 15 22 24 27 29 38 39 42 
12(-1)->1 2 4 5 10 16 25 27 30 33 36 37 39 42 43 48 
21(-1)->1 2 4 9 11 13 19 27 30 32 35 37 39 40 41 46 
26(-1)->1 2 3 4 7 10 22 27 28 30 33 35 37 38 44 49 
29(-1)->1 7 8 10 11 19 23 25 28 33 35 36 42 44 48 49 
30(-1)->1 5 12 15 16 21 26 27 31 32 35 37 38 42 46 48 
39(-1)->1 2 4 8 9 11 12 14 17 21 24 27 28 35 36 38 
43(-1)->1 11 12 16 18 20 23 28 31 33 36 41 42 46 48 50 
45(-1)->1 6 7 11 14 15 16 19 20 23 31 37 41 42 44 47 
50(-1)->1 2 6 11 14 16 20 23 32 33 38 41 43 44 48 49 
7(-1)->1 2 3 4 8 22 23 25 26 27 29 33 40 45 47 
15(-1)->1 2 3 4 8 10 17 19 30 31 35 36 37 45 49 
20(-1)->1 2 6 11 16 17 27 32 34 37 40 41 43 45 50 
38(-1)->1 3 5 8 9 10 26 30 31 39 41 42 47 49 50 
49(-1)->1 2 6 13 15 24 26 27 29 33 34 36 38 41 50 
9(-1)->1 2 10 11 14 19 21 24 25 36 37 38 39 40 
14(-1)->1 2 3 5 9 11 18 22 23 24 27 39 45 50 
17(-1)->1 2 5 13 15 20 24 28 34 35 37 39 40 46 
25(-1)->1 2 3 7 9 12 24 27 29 32 34 35 37 48 
28(-1)->1 2 4 16 17 23 26 27 29 32 39 40 43 48 
40(-1)->1 7 9 11 16 17 19 20 21 27 28 32 44 46 
47(-1)->1 3 5 7 16 22 24 27 31 37 38 45 46 48 
18(-1)->1 2 3 11 14 24 31 35 37 43 46 
34(-1)->1 5 11 16 17 20 23 25 36 42 49 
44(-1)->1 3 5 26 29 36 40 45 46 50 
-------
1 2 3 4 10 11 13 

-------
13(-1)->1 2 3 4 5 6 10 11 17 19 21 22 31 33 42 46 49 
10(-1)->1 2 3 4 8 9 11 12 13 15 22 23 26 29 31 35 37 38 48 
11(-1)->1 2 3 4 9 10 13 14 18 20 21 22 29 32 33 34 39 40 42 43 45 46 50 
4(-1)->1 2 3 5 6 7 8 10 11 12 13 15 16 21 23 24 26 28 31 32 35 37 39 41 46 48 
3(-1)->1 2 4 5 6 7 8 10 11 13 14 15 16 18 19 23 24 25 26 27 31 35 38 44 47 48 
2(-1)->1 3 4 5 6 7 8 9 10 11 12 13 14 15 16 17 18 19 20 21 22 23 24 25 26 27 28 31 32 39 42 46 49 50 
1(-1)->2 3 4 5 6 7 8 9 10 11 12 13 14 15 16 17 18 19 20 21 22 23 24 25 26 27 28 29 30 31 32 33 34 35 36 37 38 39 40 41 42 43 44 45 46 47 48 49 50 
5(-1)->1 2 3 4 6 8 12 13 14 16 17 19 23 30 32 34 36 38 41 42 44 46 47 48 
37(-1)->1 4 6 9 10 12 15 17 18 20 21 24 25 26 30 31 35 36 41 45 46 47 48 
27(-1)->1 2 3 7 8 12 14 19 20 21 22 25 26 28 30 32 35 36 39 40 47 49 
46(-1)->1 2 4 5 11 13 16 17 18 21 22 24 30 32 33 35 37 40 41 43 44 47 
24(-1)->1 2 3 4 8 9 14 16 17 18 19 22 25 36 37 39 41 46 47 48 49 
16(-1)->1 2 3 4 5 12 20 24 28 30 34 40 41 42 43 45 46 47 50 
48(-1)->1 3 4 5 10 12 22 24 25 28 29 30 33 36 37 41 43 47 50 
22(-1)->1 2 6 7 8 10 11 13 14 19 24 26 27 41 42 46 47 48 
32(-1)->1 2 4 5 6 11 20 21 23 25 27 28 30 33 40 41 46 50 
41(-1)->1 4 5 16 19 20 21 22 24 32 37 38 43 45 46 48 49 50 
42(-1)->1 2 5 8 11 12 13 16 22 23 29 30 33 34 35 38 43 45 
6(-1)->1 2 3 4 5 8 13 19 20 22 31 32 33 37 45 49 50 
19(-1)->1 2 3 5 6 9 13 15 21 22 23 24 27 29 40 41 45 
23(-1)->1 2 3 4 5 7 10 14 19 28 29 32 34 42 43 45 50 
31(-1)->1 2 3 4 6 10 13 15 18 30 33 36 37 38 43 45 47 
33(-1)->1 6 7 11 12 13 26 29 31 32 36 42 43 46 48 49 50 
35(-1)->1 3 4 10 15 17 18 21 25 26 27 29 30 37 39 42 46 
36(-1)->1 5 9 12 15 24 27 29 31 33 34 37 39 43 44 48 49 
8(-1)->1 2 3 4 5 6 7 10 15 22 24 27 29 38 39 42 
12(-1)->1 2 4 5 10 16 25 27 30 33 36 37 39 42 43 48 
21(-1)->1 2 4 9 11 13 19 27 30 32 35 37 39 40 41 46 
26(-1)->1 2 3 4 7 10 22 27 28 30 33 35 37 38 44 49 
29(-1)->1 7 8 10 11 19 23 25 28 33 35 36 42 44 48 49 
30(-1)->1 5 12 15 16 21 26 27 31 32 35 37 38 42 46 48 
39(-1)->1 2 4 8 9 11 12 14 17 21 24 27 28 35 36 38 
43(-1)->1 11 12 16 18 20 23 28 31 33 36 41 42 46 48 50 
45(-1)->1 6 7 11 14 15 16 19 20 23 31 37 41 42 44 47 
50(-1)->1 2 6 11 14 16 20 23 32 33 38 41 43 44 48 49 
7(-1)->1 2 3 4 8 22 23 25 26 27 29 33 40 45 47 
15(-1)->1 2 3 4 8 10 17 19 30 31 35 36 37 45 49 
20(-1)->1 2 6 11 16 17 27 32 34 37 40 41 43 45 50 
38(-1)->1 3 5 8 9 10 26 30 31 39 41 42 47 49 50 
49(-1)->1 2 6 13 15 24 26 27 29 33 34 36 38 41 50 
9(-1)->1 2 10 11 14 19 21 24 25 36 37 38 39 40 
14(-1)->1 2 3 5 9 11 18 22 23 24 27 39 45 50 
17(-1)->1 2 5 13 15 20 24 28 34 35 37 39 40 46 
25(-1)->1 2 3 7 9 12 24 27 29 32 34 35 37 48 
28(-1)->1 2 4 16 17 23 26 27 29 32 39 40 43 48 
40(-1)->1 7 9 11 16 17 19 20 21 27 28 32 44 46 
47(-1)->1 3 5 7 16 22 24 27 31 37 38 45 46 48 
18(-1)->1 2 3 11 14 24 31 35 37 43 46 
34(-1)->1 5 11 16 17 20 23 25 36 42 49 
44(-1)->1 3 5 26 29 36 40 45 46 50 
-------
START TIME: 1433712066
10000
20000
30000
40000
50000
60000
70000
80000
90000
100000
110000
120000
130000
140000
150000
160000
-------
1(6)->2 3 4 5 6 7 8 9 10 11 12 13 14 15 16 17 18 19 20 21 22 23 24 25 26 27 28 29 30 31 32 33 34 35 36 37 38 39 40 41 42 43 44 45 46 47 48 49 50 
2(5)->1 3 4 5 6 7 8 9 10 11 12 13 14 15 16 17 18 19 20 21 22 23 24 25 26 27 28 31 32 39 42 46 49 50 
3(4)->1 2 4 5 6 7 8 10 11 13 14 15 16 18 19 23 24 25 26 27 31 35 38 44 47 48 
4(3)->1 2 3 5 6 7 8 10 11 12 13 15 16 21 23 24 26 28 31 32 35 37 39 41 46 48 
5(1)->1 2 3 4 6 8 12 13 14 16 17 19 23 30 32 34 36 38 41 42 44 46 47 48 
6(2)->1 2 3 4 5 8 13 19 20 22 31 32 33 37 45 49 50 
7(1)->1 2 3 4 8 22 23 25 26 27 29 33 40 45 47 
8(7)->1 2 3 4 5 6 7 10 15 22 24 27 29 38 39 42 
9(4)->1 2 10 11 14 19 21 24 25 36 37 38 39 40 
10(1)->1 2 3 4 8 9 11 12 13 15 22 23 26 29 31 35 37 38 48 
11(2)->1 2 3 4 9 10 13 14 18 20 21 22 29 32 33 34 39 40 42 43 45 46 50 
12(7)->1 2 4 5 10 16 25 27 30 33 36 37 39 42 43 48 
13(0)->1 2 3 4 5 6 10 11 17 19 21 22 31 33 42 46 49 
14(7)->1 2 3 5 9 11 18 22 23 24 27 39 45 50 
15(2)->1 2 3 4 8 10 17 19 30 31 35 36 37 45 49 
16(0)->1 2 3 4 5 12 20 24 28 30 34 40 41 42 43 45 46 47 50 
17(3)->1 2 5 13 15 20 24 28 34 35 37 39 40 46 
18(3)->1 2 3 11 14 24 31 35 37 43 46 
19(7)->1 2 3 5 6 9 13 15 21 22 23 24 27 29 40 41 45 
20(4)->1 2 6 11 16 17 27 32 34 37 40 41 43 45 50 
21(1)->1 2 4 9 11 13 19 27 30 32 35 37 39 40 41 46 
22(3)->1 2 6 7 8 10 11 13 14 19 24 26 27 41 42 46 47 48 
23(2)->1 2 3 4 5 7 10 14 19 28 29 32 34 42 43 45 50 
24(1)->1 2 3 4 8 9 14 16 17 18 19 22 25 36 37 39 41 46 47 48 49 
25(3)->1 2 3 7 9 12 24 27 29 32 34 35 37 48 
26(7)->1 2 3 4 7 10 22 27 28 30 33 35 37 38 44 49 
27(2)->1 2 3 7 8 12 14 19 20 21 22 25 26 28 30 32 35 36 39 40 47 49 
28(4)->1 2 4 16 17 23 26 27 29 32 39 40 43 48 
29(0)->1 7 8 10 11 19 23 25 28 33 35 36 42 44 48 49 
30(3)->1 5 12 15 16 21 26 27 31 32 35 37 38 42 46 48 
31(7)->1 2 3 4 6 10 13 15 18 30 33 36 37 38 43 45 47 
32(0)->1 2 4 5 6 11 20 21 23 25 27 28 30 33 40 41 46 50 
33(5)->1 6 7 11 12 13 26 29 31 32 36 42 43 46 48 49 50 
34(5)->1 5 11 16 17 20 23 25 36 42 49 
35(5)->1 3 4 10 15 17 18 21 25 26 27 29 30 37 39 42 46 
36(3)->1 5 9 12 15 24 27 29 31 33 34 37 39 43 44 48 49 
37(0)->1 4 6 9 10 12 15 17 18 20 21 24 25 26 30 31 35 36 41 45 46 47 48 
38(2)->1 3 5 8 9 10 26 30 31 39 41 42 47 49 50 
39(0)->1 2 4 8 9 11 12 14 17 21 24 27 28 35 36 38 
40(5)->1 7 9 11 16 17 19 20 21 27 28 32 44 46 
41(5)->1 4 5 16 19 20 21 22 24 32 37 38 43 45 46 48 49 50 
42(4)->1 2 5 8 11 12 13 16 22 23 29 30 33 34 35 38 43 45 
43(1)->1 11 12 16 18 20 23 28 31 33 36 41 42 46 48 50 
44(2)->1 3 5 26 29 36 40 45 46 50 
45(3)->1 6 7 11 14 15 16 19 20 23 31 37 41 42 44 47 
46(4)->1 2 4 5 11 13 16 17 18 21 22 24 30 32 33 35 37 40 41 43 44 47 
47(5)->1 3 5 7 16 22 24 27 31 37 38 45 46 48 
48(2)->1 3 4 5 10 12 22 24 25 28 29 30 33 36 37 41 43 47 50 
49(4)->1 2 6 13 15 24 26 27 29 33 34 36 38 41 50 
50(3)->1 2 6 11 14 16 20 23 32 33 38 41 43 44 48 49 
COUNT: 165442
COLORS: 8
8
165442
