1: 17 4 21 9
2: 16 15
3: 36 23
4: 17 26 36 22 1
5: 24 40 10 12 37
6: 25 35
7: 24 30
8: 36
9: 1 11
10: 25 5
11: 40 9
12: 33 5
13: 
14: 
15: 2 19
16: 17 2 20 30
17: 16 1 4
18: 
19: 29 15
20: 16 37
21: 1 37
22: 4
23: 25 3
24: 27 7 36 5 31
25: 10 39 6 23
26: 4
27: 24 30
28: 
29: 19 39
30: 16 27 7
31: 24
32: 
33: 12
34: 
35: 6
36: 8 24 3 4
37: 20 21 5
38: 
39: 25 29
40: 11 5
-------
1(-1)->4 9 17 21 
2(-1)->15 16 
3(-1)->23 36 
4(-1)->1 17 22 26 36 
5(-1)->10 12 24 37 40 
6(-1)->25 35 
7(-1)->24 30 
8(-1)->36 
9(-1)->1 11 
10(-1)->5 25 
11(-1)->9 40 
12(-1)->5 33 
13(-1)->
14(-1)->
15(-1)->2 19 
16(-1)->2 17 20 30 
17(-1)->1 4 16 
18(-1)->
19(-1)->15 29 
20(-1)->16 37 
21(-1)->1 37 
22(-1)->4 
23(-1)->3 25 
24(-1)->5 7 27 31 36 
25(-1)->6 10 23 39 
26(-1)->4 
27(-1)->24 30 
28(-1)->
29(-1)->19 39 
30(-1)->7 16 27 
31(-1)->24 
32(-1)->
33(-1)->12 
34(-1)->
35(-1)->6 
36(-1)->3 4 8 24 
37(-1)->5 20 21 
38(-1)->
39(-1)->25 29 
40(-1)->5 11 
-------
Node 4 maps to position 0
Node 5 maps to position 1
Node 24 maps to position 2
Node 1 maps to position 3
Node 16 maps to position 4
Node 25 maps to position 5
Node 36 maps to position 6
Node 17 maps to position 7
Node 30 maps to position 8
Node 37 maps to position 9
Node 2 maps to position 10
Node 3 maps to position 11
Node 6 maps to position 12
Node 7 maps to position 13
Node 9 maps to position 14
Node 10 maps to position 15
Node 11 maps to position 16
Node 12 maps to position 17
Node 15 maps to position 18
Node 19 maps to position 19
Node 20 maps to position 20
Node 21 maps to position 21
Node 23 maps to position 22
Node 27 maps to position 23
Node 29 maps to position 24
Node 39 maps to position 25
Node 40 maps to position 26
Node 8 maps to position 27
Node 22 maps to position 28
Node 26 maps to position 29
Node 31 maps to position 30
Node 33 maps to position 31
Node 35 maps to position 32
Node 13 maps to position 33
Node 14 maps to position 34
Node 18 maps to position 35
Node 28 maps to position 36
Node 32 maps to position 37
Node 34 maps to position 38
Node 38 maps to position 39
4(-1)->1 17 22 26 36 
5(-1)->10 12 24 37 40 
24(-1)->5 7 27 31 36 
1(-1)->4 9 17 21 
16(-1)->2 17 20 30 
25(-1)->6 10 23 39 
36(-1)->3 4 8 24 
17(-1)->1 4 16 
30(-1)->7 16 27 
37(-1)->5 20 21 
2(-1)->15 16 
3(-1)->23 36 
6(-1)->25 35 
7(-1)->24 30 
9(-1)->1 11 
10(-1)->5 25 
11(-1)->9 40 
12(-1)->5 33 
15(-1)->2 19 
19(-1)->15 29 
20(-1)->16 37 
21(-1)->1 37 
23(-1)->3 25 
27(-1)->24 30 
29(-1)->19 39 
39(-1)->25 29 
40(-1)->5 11 
8(-1)->36 
22(-1)->4 
26(-1)->4 
31(-1)->24 
33(-1)->12 
35(-1)->6 
13(-1)->
14(-1)->
18(-1)->
28(-1)->
32(-1)->
34(-1)->
38(-1)->
-------
BLAH
START TIME: 1433098316
1(1)->4 9 17 21 
2(1)->15 16 
3(0)->23 36 
4(0)->1 17 22 26 36 
5(0)->10 12 24 37 40 
6(1)->25 35 
7(0)->24 30 
8(0)->36 
9(0)->1 11 
10(1)->5 25 
11(1)->9 40 
12(1)->5 33 
13(0)->
14(0)->
15(0)->2 19 
16(0)->2 17 20 30 
17(2)->1 4 16 
18(0)->
19(1)->15 29 
20(2)->16 37 
21(0)->1 37 
22(1)->4 
23(1)->3 25 
24(1)->5 7 27 31 36 
25(0)->6 10 23 39 
26(1)->4 
27(0)->24 30 
28(0)->
29(0)->19 39 
30(1)->7 16 27 
31(0)->24 
32(0)->
33(0)->12 
34(0)->
35(0)->6 
36(2)->3 4 8 24 
37(1)->5 20 21 
38(0)->
39(1)->25 29 
40(2)->5 11 
COUNT: 44
COLORS: 3
EDGES: 40
44
