1: 2 20 22
2: 1
3: 
4: 20 13
5: 19 23
6: 
7: 
8: 23
9: 
10: 35 39
11: 17 33 25
12: 24 31
13: 32 4 30
14: 35
15: 
16: 24 29
17: 11 21
18: 24 25 33
19: 5
20: 24 1 35 4
21: 17 37 38
22: 1 29 33
23: 8 5
24: 16 12 18 20
25: 27 18 11 39
26: 
27: 33 25
28: 36
29: 16 22
30: 13
31: 36 34 12
32: 13
33: 27 18 11 37 22
34: 37 31
35: 10 20 14
36: 28 31
37: 40 33 34 21 39
38: 21
39: 25 10 37
40: 37
-------
1(-1)->2 20 22 
2(-1)->1 
3(-1)->
4(-1)->13 20 
5(-1)->19 23 
6(-1)->
7(-1)->
8(-1)->23 
9(-1)->
10(-1)->35 39 
11(-1)->17 25 33 
12(-1)->24 31 
13(-1)->4 30 32 
14(-1)->35 
15(-1)->
16(-1)->24 29 
17(-1)->11 21 
18(-1)->24 25 33 
19(-1)->5 
20(-1)->1 4 24 35 
21(-1)->17 37 38 
22(-1)->1 29 33 
23(-1)->5 8 
24(-1)->12 16 18 20 
25(-1)->11 18 27 39 
26(-1)->
27(-1)->25 33 
28(-1)->36 
29(-1)->16 22 
30(-1)->13 
31(-1)->12 34 36 
32(-1)->13 
33(-1)->11 18 22 27 37 
34(-1)->31 37 
35(-1)->10 14 20 
36(-1)->28 31 
37(-1)->21 33 34 39 40 
38(-1)->21 
39(-1)->10 25 37 
40(-1)->37 
-------
Node 33 maps to position 0
Node 37 maps to position 1
Node 20 maps to position 2
Node 24 maps to position 3
Node 25 maps to position 4
Node 1 maps to position 5
Node 11 maps to position 6
Node 13 maps to position 7
Node 18 maps to position 8
Node 21 maps to position 9
Node 22 maps to position 10
Node 31 maps to position 11
Node 35 maps to position 12
Node 39 maps to position 13
Node 4 maps to position 14
Node 5 maps to position 15
Node 10 maps to position 16
Node 12 maps to position 17
Node 16 maps to position 18
Node 17 maps to position 19
Node 23 maps to position 20
Node 27 maps to position 21
Node 29 maps to position 22
Node 34 maps to position 23
Node 36 maps to position 24
Node 2 maps to position 25
Node 8 maps to position 26
Node 14 maps to position 27
Node 19 maps to position 28
Node 28 maps to position 29
Node 30 maps to position 30
Node 32 maps to position 31
Node 38 maps to position 32
Node 40 maps to position 33
Node 3 maps to position 34
Node 6 maps to position 35
Node 7 maps to position 36
Node 9 maps to position 37
Node 15 maps to position 38
Node 26 maps to position 39
33(-1)->11 18 22 27 37 
37(-1)->21 33 34 39 40 
20(-1)->1 4 24 35 
24(-1)->12 16 18 20 
25(-1)->11 18 27 39 
1(-1)->2 20 22 
11(-1)->17 25 33 
13(-1)->4 30 32 
18(-1)->24 25 33 
21(-1)->17 37 38 
22(-1)->1 29 33 
31(-1)->12 34 36 
35(-1)->10 14 20 
39(-1)->10 25 37 
4(-1)->13 20 
5(-1)->19 23 
10(-1)->35 39 
12(-1)->24 31 
16(-1)->24 29 
17(-1)->11 21 
23(-1)->5 8 
27(-1)->25 33 
29(-1)->16 22 
34(-1)->31 37 
36(-1)->28 31 
2(-1)->1 
8(-1)->23 
14(-1)->35 
19(-1)->5 
28(-1)->36 
30(-1)->13 
32(-1)->13 
38(-1)->21 
40(-1)->37 
3(-1)->
6(-1)->
7(-1)->
9(-1)->
15(-1)->
26(-1)->
-------
BLAH
START TIME: 1433098316
1(1)->2 20 22 
2(0)->1 
3(0)->
4(1)->13 20 
5(0)->19 23 
6(0)->
7(0)->
8(0)->23 
9(0)->
10(0)->35 39 
11(1)->17 25 33 
12(2)->24 31 
13(0)->4 30 32 
14(0)->35 
15(0)->
16(0)->24 29 
17(2)->11 21 
18(2)->24 25 33 
19(1)->5 
20(0)->1 4 24 35 
21(0)->17 37 38 
22(2)->1 29 33 
23(1)->5 8 
24(1)->12 16 18 20 
25(0)->11 18 27 39 
26(0)->
27(1)->25 33 
28(0)->36 
29(1)->16 22 
30(1)->13 
31(0)->12 34 36 
32(1)->13 
33(0)->11 18 22 27 37 
34(2)->31 37 
35(1)->10 14 20 
36(1)->28 31 
37(1)->21 33 34 39 40 
38(1)->21 
39(2)->10 25 37 
40(0)->37 
COUNT: 66
COLORS: 3
EDGES: 40
66
