1: 34 3 4 37 6 9 12 2 14 29 5
2: 33 3 1 7 11 17 20 26 27 28
3: 32 1 2 6 7 9 10 39 17
4: 1 34 36 39 12 19 20
5: 1 36 37 7 10 22 25
6: 1 3 36 8 15 18 28
7: 2 35 5 13 16 3
8: 33 36 6 40 12 19 21
9: 1 3 36 38 10 17 35 31
10: 3 36 5 40 9 14 17 35 20
11: 2 37
12: 8 1 26 4 22
13: 32 34 7 22 23 26
14: 27 1 10 19 20
15: 32 6 30
16: 39 22 7
17: 32 2 3 38 40 9 10 21 31
18: 24 35 6
19: 8 4 22 14
20: 2 4 40 10 34 14 24
21: 8 17 36 31
22: 33 5 12 13 16 19 37
23: 26 36 37 38 13
24: 18 20
25: 33 27 5 35 31
26: 32 2 12 13 23
27: 2 37 39 14 25 28
28: 2 27 6
29: 1
30: 32 39 35 38 15
31: 9 21 17 36 25
32: 33 3 39 13 15 17 26 30
33: 32 34 37 8 2 22 25
34: 33 36 1 13 20 4
35: 38 7 9 10 18 25 30
36: 34 4 37 6 39 8 9 10 21 23 31 5
37: 33 36 5 1 11 22 23 27
38: 23 9 35 30 17
39: 32 3 36 16 4 27 30
40: 8 17 10 20
-------
1(-1)->2 3 4 5 6 9 12 14 29 34 37 
2(-1)->1 3 7 11 17 20 26 27 28 33 
3(-1)->1 2 6 7 9 10 17 32 39 
4(-1)->1 12 19 20 34 36 39 
5(-1)->1 7 10 22 25 36 37 
6(-1)->1 3 8 15 18 28 36 
7(-1)->2 3 5 13 16 35 
8(-1)->6 12 19 21 33 36 40 
9(-1)->1 3 10 17 31 35 36 38 
10(-1)->3 5 9 14 17 20 35 36 40 
11(-1)->2 37 
12(-1)->1 4 8 22 26 
13(-1)->7 22 23 26 32 34 
14(-1)->1 10 19 20 27 
15(-1)->6 30 32 
16(-1)->7 22 39 
17(-1)->2 3 9 10 21 31 32 38 40 
18(-1)->6 24 35 
19(-1)->4 8 14 22 
20(-1)->2 4 10 14 24 34 40 
21(-1)->8 17 31 36 
22(-1)->5 12 13 16 19 33 37 
23(-1)->13 26 36 37 38 
24(-1)->18 20 
25(-1)->5 27 31 33 35 
26(-1)->2 12 13 23 32 
27(-1)->2 14 25 28 37 39 
28(-1)->2 6 27 
29(-1)->1 
30(-1)->15 32 35 38 39 
31(-1)->9 17 21 25 36 
32(-1)->3 13 15 17 26 30 33 39 
33(-1)->2 8 22 25 32 34 37 
34(-1)->1 4 13 20 33 36 
35(-1)->7 9 10 18 25 30 38 
36(-1)->4 5 6 8 9 10 21 23 31 34 37 39 
37(-1)->1 5 11 22 23 27 33 36 
38(-1)->9 17 23 30 35 
39(-1)->3 4 16 27 30 32 36 
40(-1)->8 10 17 20 
-------
Node 36 maps to position 0
Node 1 maps to position 1
Node 2 maps to position 2
Node 3 maps to position 3
Node 10 maps to position 4
Node 17 maps to position 5
Node 9 maps to position 6
Node 32 maps to position 7
Node 37 maps to position 8
Node 4 maps to position 9
Node 5 maps to position 10
Node 6 maps to position 11
Node 8 maps to position 12
Node 20 maps to position 13
Node 22 maps to position 14
Node 33 maps to position 15
Node 35 maps to position 16
Node 39 maps to position 17
Node 7 maps to position 18
Node 13 maps to position 19
Node 27 maps to position 20
Node 34 maps to position 21
Node 12 maps to position 22
Node 14 maps to position 23
Node 23 maps to position 24
Node 25 maps to position 25
Node 26 maps to position 26
Node 30 maps to position 27
Node 31 maps to position 28
Node 38 maps to position 29
Node 19 maps to position 30
Node 21 maps to position 31
Node 40 maps to position 32
Node 15 maps to position 33
Node 16 maps to position 34
Node 18 maps to position 35
Node 28 maps to position 36
Node 11 maps to position 37
Node 24 maps to position 38
Node 29 maps to position 39
36(-1)->4 5 6 8 9 10 21 23 31 34 37 39 
1(-1)->2 3 4 5 6 9 12 14 29 34 37 
2(-1)->1 3 7 11 17 20 26 27 28 33 
3(-1)->1 2 6 7 9 10 17 32 39 
10(-1)->3 5 9 14 17 20 35 36 40 
17(-1)->2 3 9 10 21 31 32 38 40 
9(-1)->1 3 10 17 31 35 36 38 
32(-1)->3 13 15 17 26 30 33 39 
37(-1)->1 5 11 22 23 27 33 36 
4(-1)->1 12 19 20 34 36 39 
5(-1)->1 7 10 22 25 36 37 
6(-1)->1 3 8 15 18 28 36 
8(-1)->6 12 19 21 33 36 40 
20(-1)->2 4 10 14 24 34 40 
22(-1)->5 12 13 16 19 33 37 
33(-1)->2 8 22 25 32 34 37 
35(-1)->7 9 10 18 25 30 38 
39(-1)->3 4 16 27 30 32 36 
7(-1)->2 3 5 13 16 35 
13(-1)->7 22 23 26 32 34 
27(-1)->2 14 25 28 37 39 
34(-1)->1 4 13 20 33 36 
12(-1)->1 4 8 22 26 
14(-1)->1 10 19 20 27 
23(-1)->13 26 36 37 38 
25(-1)->5 27 31 33 35 
26(-1)->2 12 13 23 32 
30(-1)->15 32 35 38 39 
31(-1)->9 17 21 25 36 
38(-1)->9 17 23 30 35 
19(-1)->4 8 14 22 
21(-1)->8 17 31 36 
40(-1)->8 10 17 20 
15(-1)->6 30 32 
16(-1)->7 22 39 
18(-1)->6 24 35 
28(-1)->2 6 27 
11(-1)->2 37 
24(-1)->18 20 
29(-1)->1 
-------
BLAH
START TIME: 1433098317
1(0)->2 3 4 5 6 9 12 14 29 34 37 
2(1)->1 3 7 11 17 20 26 27 28 33 
3(2)->1 2 6 7 9 10 17 32 39 
4(1)->1 12 19 20 34 36 39 
5(2)->1 7 10 22 25 36 37 
6(1)->1 3 8 15 18 28 36 
7(0)->2 3 5 13 16 35 
8(2)->6 12 19 21 33 36 40 
9(3)->1 3 10 17 31 35 36 38 
10(1)->3 5 9 14 17 20 35 36 40 
11(0)->2 37 
12(3)->1 4 8 22 26 
13(3)->7 22 23 26 32 34 
14(2)->1 10 19 20 27 
15(2)->6 30 32 
16(1)->7 22 39 
17(0)->2 3 9 10 21 31 32 38 40 
18(0)->6 24 35 
19(3)->4 8 14 22 
20(0)->2 4 10 14 24 34 40 
21(1)->8 17 31 36 
22(0)->5 12 13 16 19 33 37 
23(2)->13 26 36 37 38 
24(1)->18 20 
25(1)->5 27 31 33 35 
26(0)->2 12 13 23 32 
27(0)->2 14 25 28 37 39 
28(2)->2 6 27 
29(1)->1 
30(0)->15 32 35 38 39 
31(2)->9 17 21 25 36 
32(1)->3 13 15 17 26 30 33 39 
33(3)->2 8 22 25 32 34 37 
34(2)->1 4 13 20 33 36 
35(2)->7 9 10 18 25 30 38 
36(0)->4 5 6 8 9 10 21 23 31 34 37 39 
37(1)->1 5 11 22 23 27 33 36 
38(1)->9 17 23 30 35 
39(3)->3 4 16 27 30 32 36 
40(3)->8 10 17 20 
COUNT: 76
COLORS: 4
EDGES: 120
76
