1: 2 3 4 5 6 7 8 9 10 11 12 13 14 15 16 17 18 19 20 21 22 23 24 25 26 27 28 29 30 31 32 33 34 35 36 37 38 39
2: 1 3 4 5 6 7 8 9 10 11 13 14 21 22 24 25 30 31 32 33 34 35 38
3: 32 1 2 11 4 5 6 33 9 10 7 12 13 15 17 25 26 27 29 31
4: 33 34 3 36 37 6 1 8 10 2 13 21 30 5
5: 33 34 3 36 6 1 10 11 2 22 23 24 4 27 28 29
6: 1 2 3 36 5 38 40 9 12 24 4 28
7: 32 1 2 35 37 12 15 17 3 25 26 27 30
8: 1 2 4 10 11 12 13 14 15 16 17 18 22 23 24 36 29
9: 1 2 3 6 38 11 13 24 29
10: 33 2 3 4 5 35 1 8 11 13 19 21 22 25 29
11: 32 1 2 35 5 3 8 9 10 16 19 22 24 27 31
12: 1 3 6 7 8 14 15 24 28 29 31
13: 1 2 3 4 39 8 9 10 14 15 16 17 35 24 26 31
14: 33 2 1 8 12 13 17 25 27 29
15: 1 34 3 38 7 8 12 13 16 17 18 20 24 25 26 28 30 31
16: 32 33 36 38 39 8 1 11 13 15 20 21 29 31
17: 35 3 1 38 7 8 39 13 14 15 19 24 28 30
18: 1 34 36 38 39 8 15 20 26 29
19: 1 34 35 36 40 10 11 17 21 26
20: 32 1 34 35 15 16 18 24 26 27 29
21: 1 2 4 37 38 40 10 16 19 27 30 31
22: 1 2 5 38 33 8 10 11 23 28 31
23: 33 34 1 37 39 8 22 24 25 30 5
24: 1 2 36 37 6 39 8 28 11 12 13 15 17 20 9 23 26 5 31
25: 32 1 2 35 33 7 10 14 15 3 23 30
26: 19 33 35 1 7 40 13 15 18 3 20 24
27: 32 33 34 3 36 5 7 1 11 14 20 21 39
28: 1 37 38 39 12 15 17 22 24 6 31 29 5
29: 1 3 36 37 8 9 10 12 14 16 18 20 28 30 5
30: 32 1 34 4 33 38 7 39 2 15 17 21 23 25 29
31: 1 2 3 11 12 13 15 16 21 22 24 28
32: 1 2 3 36 7 11 16 20 25 27 30
33: 1 34 3 4 37 10 2 14 16 22 23 25 26 27 36 30 5
34: 1 2 4 5 33 15 18 19 20 23 27 30
35: 1 2 11 36 7 40 10 39 13 17 19 20 25 26
36: 32 33 35 4 37 6 1 40 16 8 18 19 24 27 29 5
37: 33 36 7 1 21 23 24 4 28 29
38: 1 2 6 9 15 16 17 18 21 22 28 30
39: 1 35 13 16 17 18 23 24 27 28 30
40: 35 36 6 19 21 26
-------
1(-1)->2 3 4 5 6 7 8 9 10 11 12 13 14 15 16 17 18 19 20 21 22 23 24 25 26 27 28 29 30 31 32 33 34 35 36 37 38 39 
2(-1)->1 3 4 5 6 7 8 9 10 11 13 14 21 22 24 25 30 31 32 33 34 35 38 
3(-1)->1 2 4 5 6 7 9 10 11 12 13 15 17 25 26 27 29 31 32 33 
4(-1)->1 2 3 5 6 8 10 13 21 30 33 34 36 37 
5(-1)->1 2 3 4 6 10 11 22 23 24 27 28 29 33 34 36 
6(-1)->1 2 3 4 5 9 12 24 28 36 38 40 
7(-1)->1 2 3 12 15 17 25 26 27 30 32 35 37 
8(-1)->1 2 4 10 11 12 13 14 15 16 17 18 22 23 24 29 36 
9(-1)->1 2 3 6 11 13 24 29 38 
10(-1)->1 2 3 4 5 8 11 13 19 21 22 25 29 33 35 
11(-1)->1 2 3 5 8 9 10 16 19 22 24 27 31 32 35 
12(-1)->1 3 6 7 8 14 15 24 28 29 31 
13(-1)->1 2 3 4 8 9 10 14 15 16 17 24 26 31 35 39 
14(-1)->1 2 8 12 13 17 25 27 29 33 
15(-1)->1 3 7 8 12 13 16 17 18 20 24 25 26 28 30 31 34 38 
16(-1)->1 8 11 13 15 20 21 29 31 32 33 36 38 39 
17(-1)->1 3 7 8 13 14 15 19 24 28 30 35 38 39 
18(-1)->1 8 15 20 26 29 34 36 38 39 
19(-1)->1 10 11 17 21 26 34 35 36 40 
20(-1)->1 15 16 18 24 26 27 29 32 34 35 
21(-1)->1 2 4 10 16 19 27 30 31 37 38 40 
22(-1)->1 2 5 8 10 11 23 28 31 33 38 
23(-1)->1 5 8 22 24 25 30 33 34 37 39 
24(-1)->1 2 5 6 8 9 11 12 13 15 17 20 23 26 28 31 36 37 39 
25(-1)->1 2 3 7 10 14 15 23 30 32 33 35 
26(-1)->1 3 7 13 15 18 19 20 24 33 35 40 
27(-1)->1 3 5 7 11 14 20 21 32 33 34 36 39 
28(-1)->1 5 6 12 15 17 22 24 29 31 37 38 39 
29(-1)->1 3 5 8 9 10 12 14 16 18 20 28 30 36 37 
30(-1)->1 2 4 7 15 17 21 23 25 29 32 33 34 38 39 
31(-1)->1 2 3 11 12 13 15 16 21 22 24 28 
32(-1)->1 2 3 7 11 16 20 25 27 30 36 
33(-1)->1 2 3 4 5 10 14 16 22 23 25 26 27 30 34 36 37 
34(-1)->1 2 4 5 15 18 19 20 23 27 30 33 
35(-1)->1 2 7 10 11 13 17 19 20 25 26 36 39 40 
36(-1)->1 4 5 6 8 16 18 19 24 27 29 32 33 35 37 40 
37(-1)->1 4 7 21 23 24 28 29 33 36 
38(-1)->1 2 6 9 15 16 17 18 21 22 28 30 
39(-1)->1 13 16 17 18 23 24 27 28 30 35 
40(-1)->6 19 21 26 35 36 
-------
Node 1 maps to position 0
Node 2 maps to position 1
Node 3 maps to position 2
Node 24 maps to position 3
Node 15 maps to position 4
Node 8 maps to position 5
Node 33 maps to position 6
Node 5 maps to position 7
Node 13 maps to position 8
Node 36 maps to position 9
Node 10 maps to position 10
Node 11 maps to position 11
Node 29 maps to position 12
Node 30 maps to position 13
Node 4 maps to position 14
Node 16 maps to position 15
Node 17 maps to position 16
Node 35 maps to position 17
Node 7 maps to position 18
Node 27 maps to position 19
Node 28 maps to position 20
Node 6 maps to position 21
Node 21 maps to position 22
Node 25 maps to position 23
Node 26 maps to position 24
Node 31 maps to position 25
Node 34 maps to position 26
Node 38 maps to position 27
Node 12 maps to position 28
Node 20 maps to position 29
Node 22 maps to position 30
Node 23 maps to position 31
Node 32 maps to position 32
Node 39 maps to position 33
Node 14 maps to position 34
Node 18 maps to position 35
Node 19 maps to position 36
Node 37 maps to position 37
Node 9 maps to position 38
Node 40 maps to position 39
1(-1)->2 3 4 5 6 7 8 9 10 11 12 13 14 15 16 17 18 19 20 21 22 23 24 25 26 27 28 29 30 31 32 33 34 35 36 37 38 39 
2(-1)->1 3 4 5 6 7 8 9 10 11 13 14 21 22 24 25 30 31 32 33 34 35 38 
3(-1)->1 2 4 5 6 7 9 10 11 12 13 15 17 25 26 27 29 31 32 33 
24(-1)->1 2 5 6 8 9 11 12 13 15 17 20 23 26 28 31 36 37 39 
15(-1)->1 3 7 8 12 13 16 17 18 20 24 25 26 28 30 31 34 38 
8(-1)->1 2 4 10 11 12 13 14 15 16 17 18 22 23 24 29 36 
33(-1)->1 2 3 4 5 10 14 16 22 23 25 26 27 30 34 36 37 
5(-1)->1 2 3 4 6 10 11 22 23 24 27 28 29 33 34 36 
13(-1)->1 2 3 4 8 9 10 14 15 16 17 24 26 31 35 39 
36(-1)->1 4 5 6 8 16 18 19 24 27 29 32 33 35 37 40 
10(-1)->1 2 3 4 5 8 11 13 19 21 22 25 29 33 35 
11(-1)->1 2 3 5 8 9 10 16 19 22 24 27 31 32 35 
29(-1)->1 3 5 8 9 10 12 14 16 18 20 28 30 36 37 
30(-1)->1 2 4 7 15 17 21 23 25 29 32 33 34 38 39 
4(-1)->1 2 3 5 6 8 10 13 21 30 33 34 36 37 
16(-1)->1 8 11 13 15 20 21 29 31 32 33 36 38 39 
17(-1)->1 3 7 8 13 14 15 19 24 28 30 35 38 39 
35(-1)->1 2 7 10 11 13 17 19 20 25 26 36 39 40 
7(-1)->1 2 3 12 15 17 25 26 27 30 32 35 37 
27(-1)->1 3 5 7 11 14 20 21 32 33 34 36 39 
28(-1)->1 5 6 12 15 17 22 24 29 31 37 38 39 
6(-1)->1 2 3 4 5 9 12 24 28 36 38 40 
21(-1)->1 2 4 10 16 19 27 30 31 37 38 40 
25(-1)->1 2 3 7 10 14 15 23 30 32 33 35 
26(-1)->1 3 7 13 15 18 19 20 24 33 35 40 
31(-1)->1 2 3 11 12 13 15 16 21 22 24 28 
34(-1)->1 2 4 5 15 18 19 20 23 27 30 33 
38(-1)->1 2 6 9 15 16 17 18 21 22 28 30 
12(-1)->1 3 6 7 8 14 15 24 28 29 31 
20(-1)->1 15 16 18 24 26 27 29 32 34 35 
22(-1)->1 2 5 8 10 11 23 28 31 33 38 
23(-1)->1 5 8 22 24 25 30 33 34 37 39 
32(-1)->1 2 3 7 11 16 20 25 27 30 36 
39(-1)->1 13 16 17 18 23 24 27 28 30 35 
14(-1)->1 2 8 12 13 17 25 27 29 33 
18(-1)->1 8 15 20 26 29 34 36 38 39 
19(-1)->1 10 11 17 21 26 34 35 36 40 
37(-1)->1 4 7 21 23 24 28 29 33 36 
9(-1)->1 2 3 6 11 13 24 29 38 
40(-1)->6 19 21 26 35 36 
-------
BLAH
START TIME: 1433098321
1(0)->2 3 4 5 6 7 8 9 10 11 12 13 14 15 16 17 18 19 20 21 22 23 24 25 26 27 28 29 30 31 32 33 34 35 36 37 38 39 
2(1)->1 3 4 5 6 7 8 9 10 11 13 14 21 22 24 25 30 31 32 33 34 35 38 
3(2)->1 2 4 5 6 7 9 10 11 12 13 15 17 25 26 27 29 31 32 33 
4(6)->1 2 3 5 6 8 10 13 21 30 33 34 36 37 
5(4)->1 2 3 4 6 10 11 22 23 24 27 28 29 33 34 36 
6(3)->1 2 3 4 5 9 12 24 28 36 38 40 
7(3)->1 2 3 12 15 17 25 26 27 30 32 35 37 
8(3)->1 2 4 10 11 12 13 14 15 16 17 18 22 23 24 29 36 
9(5)->1 2 3 6 11 13 24 29 38 
10(5)->1 2 3 4 5 8 11 13 19 21 22 25 29 33 35 
11(6)->1 2 3 5 8 9 10 16 19 22 24 27 31 32 35 
12(4)->1 3 6 7 8 14 15 24 28 29 31 
13(4)->1 2 3 4 8 9 10 14 15 16 17 24 26 31 35 39 
14(2)->1 2 8 12 13 17 25 27 29 33 
15(1)->1 3 7 8 12 13 16 17 18 20 24 25 26 28 30 31 34 38 
16(5)->1 8 11 13 15 20 21 29 31 32 33 36 38 39 
17(6)->1 3 7 8 13 14 15 19 24 28 30 35 38 39 
18(5)->1 8 15 20 26 29 34 36 38 39 
19(3)->1 10 11 17 21 26 34 35 36 40 
20(3)->1 15 16 18 24 26 27 29 32 34 35 
21(2)->1 2 4 10 16 19 27 30 31 37 38 40 
22(2)->1 2 5 8 10 11 23 28 31 33 38 
23(1)->1 5 8 22 24 25 30 33 34 37 39 
24(2)->1 2 5 6 8 9 11 12 13 15 17 20 23 26 28 31 36 37 39 
25(6)->1 2 3 7 10 14 15 23 30 32 33 35 
26(6)->1 3 7 13 15 18 19 20 24 33 35 40 
27(5)->1 3 5 7 11 14 20 21 32 33 34 36 39 
28(5)->1 5 6 12 15 17 22 24 29 31 37 38 39 
29(6)->1 3 5 8 9 10 12 14 16 18 20 28 30 36 37 
30(5)->1 2 4 7 15 17 21 23 25 29 32 33 34 38 39 
31(3)->1 2 3 11 12 13 15 16 21 22 24 28 
32(4)->1 2 3 7 11 16 20 25 27 30 36 
33(3)->1 2 3 4 5 10 14 16 22 23 25 26 27 30 34 36 37 
34(2)->1 2 4 5 15 18 19 20 23 27 30 33 
35(2)->1 2 7 10 11 13 17 19 20 25 26 36 39 40 
36(1)->1 4 5 6 8 16 18 19 24 27 29 32 33 35 37 40 
37(4)->1 4 7 21 23 24 28 29 33 36 
38(4)->1 2 6 9 15 16 17 18 21 22 28 30 
39(3)->1 13 16 17 18 23 24 27 28 30 35 
40(0)->6 19 21 26 35 36 
COUNT: 957
COLORS: 7
EDGES: 280
957
