1: 2 3 4 5 6 7 8 9 10 11 12 13 14 15 16 17 18 19 20 21 22 23 24 25 26 27 28 29 30 31 32 33 34 35 36 37 38 39
2: 1 3 4 5 6 7 8 9 10 11 12 13 14 15 16 17 18 19 20 21 22 23 24 25 26 27 28 29 30 31 32 33 34 35 36 37 38 39
3: 1 2 4 5 6 7 8 9 10 11 12 13 14 15 16 17 18 19 20 21 22 23 24 25 26 27 28 29 30 33 34 35 37 38 39
4: 1 2 3 5 6 7 8 9 10 12 13 15 16 17 18 20 21 23 25 26 27 28 29 32 33 34 35 38
5: 1 2 3 4 6 8 9 11 12 13 14 16 17 19 23 26 28 33 35 36 38 40
6: 1 2 3 17 37 39 8 7 12 16 40 19 21 24 4 27 28 5
7: 1 2 3 4 37 6 40 14 17 18 19 22 24 26
8: 32 1 2 35 4 5 6 39 40 9 15 3 23 26
9: 1 2 3 36 5 38 8 12 13 23 24 25 26 27 29 4 37
10: 1 2 35 4 37 39 14 18 3 20 30 31
11: 32 33 34 3 5 1 12 2 17 18 19 21 24 25
12: 32 1 2 35 36 5 6 40 9 11 15 16 17 19 21 22 24 4 3 29 31
13: 32 33 2 3 4 37 38 1 9 15 20 27 30 5
14: 32 1 34 35 5 3 39 10 7 2 17 19 20 22 26 27 29 30
15: 1 2 3 4 38 39 40 12 13 8 18 19 22 27
16: 32 1 2 3 4 5 6 33 12 22 24 26 28 29 31
17: 33 2 3 4 5 6 7 1 11 12 14 19 21 22 25 26 27 28 29
18: 32 1 2 3 36 33 7 10 11 15 21 23 24 25 28 29 4 37
19: 33 2 3 36 37 38 7 31 11 12 14 15 17 1 25 6 27 28 29 39 5
20: 1 34 35 4 37 10 2 13 14 3 23 24 25 26 28 36
21: 33 2 3 1 37 6 39 11 12 17 18 23 4 26 38 29
22: 1 2 3 37 7 12 14 15 16 17 24 33 29
23: 1 2 3 36 5 8 9 18 20 21 4 26 28 30
24: 1 34 35 36 6 38 7 9 11 12 2 16 18 3 20 22
25: 32 1 2 3 4 39 9 11 17 18 19 20 26 27 28
26: 1 34 35 4 37 39 8 9 7 2 14 16 17 3 20 21 23 25 31 5
27: 32 33 2 3 1 38 6 39 9 13 14 15 17 19 25 29 4
28: 35 2 3 36 5 6 1 16 17 18 19 20 23 25 4 30 31
29: 1 2 3 4 37 33 9 12 14 16 17 18 19 21 22 27 30
30: 1 34 3 40 10 2 13 14 23 28 29 31
31: 33 34 36 37 1 10 12 2 16 19 26 28 30
32: 1 2 35 4 37 8 11 12 13 14 16 18 25 27 36
33: 1 34 3 36 37 38 31 11 13 16 17 18 19 21 22 2 4 27 29 5
34: 33 2 3 4 37 1 40 11 14 20 24 26 30 31
35: 32 1 2 3 4 5 8 10 12 14 40 20 24 26 28
36: 32 33 2 37 38 1 9 12 5 18 19 20 23 24 28 31
37: 1 2 3 6 7 9 10 13 18 19 20 21 22 26 29 31 32 33 34 36 38 39 40
38: 33 2 3 36 37 39 9 1 13 15 19 21 24 4 27 5
39: 1 2 3 37 6 8 38 10 14 15 19 21 25 26 27
40: 34 35 5 6 7 8 12 15 30 37
-------
1(-1)->2 3 4 5 6 7 8 9 10 11 12 13 14 15 16 17 18 19 20 21 22 23 24 25 26 27 28 29 30 31 32 33 34 35 36 37 38 39 
2(-1)->1 3 4 5 6 7 8 9 10 11 12 13 14 15 16 17 18 19 20 21 22 23 24 25 26 27 28 29 30 31 32 33 34 35 36 37 38 39 
3(-1)->1 2 4 5 6 7 8 9 10 11 12 13 14 15 16 17 18 19 20 21 22 23 24 25 26 27 28 29 30 33 34 35 37 38 39 
4(-1)->1 2 3 5 6 7 8 9 10 12 13 15 16 17 18 20 21 23 25 26 27 28 29 32 33 34 35 38 
5(-1)->1 2 3 4 6 8 9 11 12 13 14 16 17 19 23 26 28 33 35 36 38 40 
6(-1)->1 2 3 4 5 7 8 12 16 17 19 21 24 27 28 37 39 40 
7(-1)->1 2 3 4 6 14 17 18 19 22 24 26 37 40 
8(-1)->1 2 3 4 5 6 9 15 23 26 32 35 39 40 
9(-1)->1 2 3 4 5 8 12 13 23 24 25 26 27 29 36 37 38 
10(-1)->1 2 3 4 14 18 20 30 31 35 37 39 
11(-1)->1 2 3 5 12 17 18 19 21 24 25 32 33 34 
12(-1)->1 2 3 4 5 6 9 11 15 16 17 19 21 22 24 29 31 32 35 36 40 
13(-1)->1 2 3 4 5 9 15 20 27 30 32 33 37 38 
14(-1)->1 2 3 5 7 10 17 19 20 22 26 27 29 30 32 34 35 39 
15(-1)->1 2 3 4 8 12 13 18 19 22 27 38 39 40 
16(-1)->1 2 3 4 5 6 12 22 24 26 28 29 31 32 33 
17(-1)->1 2 3 4 5 6 7 11 12 14 19 21 22 25 26 27 28 29 33 
18(-1)->1 2 3 4 7 10 11 15 21 23 24 25 28 29 32 33 36 37 
19(-1)->1 2 3 5 6 7 11 12 14 15 17 25 27 28 29 31 33 36 37 38 39 
20(-1)->1 2 3 4 10 13 14 23 24 25 26 28 34 35 36 37 
21(-1)->1 2 3 4 6 11 12 17 18 23 26 29 33 37 38 39 
22(-1)->1 2 3 7 12 14 15 16 17 24 29 33 37 
23(-1)->1 2 3 4 5 8 9 18 20 21 26 28 30 36 
24(-1)->1 2 3 6 7 9 11 12 16 18 20 22 34 35 36 38 
25(-1)->1 2 3 4 9 11 17 18 19 20 26 27 28 32 39 
26(-1)->1 2 3 4 5 7 8 9 14 16 17 20 21 23 25 31 34 35 37 39 
27(-1)->1 2 3 4 6 9 13 14 15 17 19 25 29 32 33 38 39 
28(-1)->1 2 3 4 5 6 16 17 18 19 20 23 25 30 31 35 36 
29(-1)->1 2 3 4 9 12 14 16 17 18 19 21 22 27 30 33 37 
30(-1)->1 2 3 10 13 14 23 28 29 31 34 40 
31(-1)->1 2 10 12 16 19 26 28 30 33 34 36 37 
32(-1)->1 2 4 8 11 12 13 14 16 18 25 27 35 36 37 
33(-1)->1 2 3 4 5 11 13 16 17 18 19 21 22 27 29 31 34 36 37 38 
34(-1)->1 2 3 4 11 14 20 24 26 30 31 33 37 40 
35(-1)->1 2 3 4 5 8 10 12 14 20 24 26 28 32 40 
36(-1)->1 2 5 9 12 18 19 20 23 24 28 31 32 33 37 38 
37(-1)->1 2 3 6 7 9 10 13 18 19 20 21 22 26 29 31 32 33 34 36 38 39 40 
38(-1)->1 2 3 4 5 9 13 15 19 21 24 27 33 36 37 39 
39(-1)->1 2 3 6 8 10 14 15 19 21 25 26 27 37 38 
40(-1)->5 6 7 8 12 15 30 34 35 37 
-------
Node 1 maps to position 0
Node 2 maps to position 1
Node 3 maps to position 2
Node 4 maps to position 3
Node 37 maps to position 4
Node 5 maps to position 5
Node 12 maps to position 6
Node 19 maps to position 7
Node 26 maps to position 8
Node 33 maps to position 9
Node 17 maps to position 10
Node 6 maps to position 11
Node 14 maps to position 12
Node 18 maps to position 13
Node 9 maps to position 14
Node 27 maps to position 15
Node 28 maps to position 16
Node 29 maps to position 17
Node 20 maps to position 18
Node 21 maps to position 19
Node 24 maps to position 20
Node 36 maps to position 21
Node 38 maps to position 22
Node 16 maps to position 23
Node 25 maps to position 24
Node 32 maps to position 25
Node 35 maps to position 26
Node 39 maps to position 27
Node 7 maps to position 28
Node 8 maps to position 29
Node 11 maps to position 30
Node 13 maps to position 31
Node 15 maps to position 32
Node 23 maps to position 33
Node 34 maps to position 34
Node 22 maps to position 35
Node 31 maps to position 36
Node 10 maps to position 37
Node 30 maps to position 38
Node 40 maps to position 39
1(-1)->2 3 4 5 6 7 8 9 10 11 12 13 14 15 16 17 18 19 20 21 22 23 24 25 26 27 28 29 30 31 32 33 34 35 36 37 38 39 
2(-1)->1 3 4 5 6 7 8 9 10 11 12 13 14 15 16 17 18 19 20 21 22 23 24 25 26 27 28 29 30 31 32 33 34 35 36 37 38 39 
3(-1)->1 2 4 5 6 7 8 9 10 11 12 13 14 15 16 17 18 19 20 21 22 23 24 25 26 27 28 29 30 33 34 35 37 38 39 
4(-1)->1 2 3 5 6 7 8 9 10 12 13 15 16 17 18 20 21 23 25 26 27 28 29 32 33 34 35 38 
37(-1)->1 2 3 6 7 9 10 13 18 19 20 21 22 26 29 31 32 33 34 36 38 39 40 
5(-1)->1 2 3 4 6 8 9 11 12 13 14 16 17 19 23 26 28 33 35 36 38 40 
12(-1)->1 2 3 4 5 6 9 11 15 16 17 19 21 22 24 29 31 32 35 36 40 
19(-1)->1 2 3 5 6 7 11 12 14 15 17 25 27 28 29 31 33 36 37 38 39 
26(-1)->1 2 3 4 5 7 8 9 14 16 17 20 21 23 25 31 34 35 37 39 
33(-1)->1 2 3 4 5 11 13 16 17 18 19 21 22 27 29 31 34 36 37 38 
17(-1)->1 2 3 4 5 6 7 11 12 14 19 21 22 25 26 27 28 29 33 
6(-1)->1 2 3 4 5 7 8 12 16 17 19 21 24 27 28 37 39 40 
14(-1)->1 2 3 5 7 10 17 19 20 22 26 27 29 30 32 34 35 39 
18(-1)->1 2 3 4 7 10 11 15 21 23 24 25 28 29 32 33 36 37 
9(-1)->1 2 3 4 5 8 12 13 23 24 25 26 27 29 36 37 38 
27(-1)->1 2 3 4 6 9 13 14 15 17 19 25 29 32 33 38 39 
28(-1)->1 2 3 4 5 6 16 17 18 19 20 23 25 30 31 35 36 
29(-1)->1 2 3 4 9 12 14 16 17 18 19 21 22 27 30 33 37 
20(-1)->1 2 3 4 10 13 14 23 24 25 26 28 34 35 36 37 
21(-1)->1 2 3 4 6 11 12 17 18 23 26 29 33 37 38 39 
24(-1)->1 2 3 6 7 9 11 12 16 18 20 22 34 35 36 38 
36(-1)->1 2 5 9 12 18 19 20 23 24 28 31 32 33 37 38 
38(-1)->1 2 3 4 5 9 13 15 19 21 24 27 33 36 37 39 
16(-1)->1 2 3 4 5 6 12 22 24 26 28 29 31 32 33 
25(-1)->1 2 3 4 9 11 17 18 19 20 26 27 28 32 39 
32(-1)->1 2 4 8 11 12 13 14 16 18 25 27 35 36 37 
35(-1)->1 2 3 4 5 8 10 12 14 20 24 26 28 32 40 
39(-1)->1 2 3 6 8 10 14 15 19 21 25 26 27 37 38 
7(-1)->1 2 3 4 6 14 17 18 19 22 24 26 37 40 
8(-1)->1 2 3 4 5 6 9 15 23 26 32 35 39 40 
11(-1)->1 2 3 5 12 17 18 19 21 24 25 32 33 34 
13(-1)->1 2 3 4 5 9 15 20 27 30 32 33 37 38 
15(-1)->1 2 3 4 8 12 13 18 19 22 27 38 39 40 
23(-1)->1 2 3 4 5 8 9 18 20 21 26 28 30 36 
34(-1)->1 2 3 4 11 14 20 24 26 30 31 33 37 40 
22(-1)->1 2 3 7 12 14 15 16 17 24 29 33 37 
31(-1)->1 2 10 12 16 19 26 28 30 33 34 36 37 
10(-1)->1 2 3 4 14 18 20 30 31 35 37 39 
30(-1)->1 2 3 10 13 14 23 28 29 31 34 40 
40(-1)->5 6 7 8 12 15 30 34 35 37 
-------
BLAH
START TIME: 1433098327
10000
1(0)->2 3 4 5 6 7 8 9 10 11 12 13 14 15 16 17 18 19 20 21 22 23 24 25 26 27 28 29 30 31 32 33 34 35 36 37 38 39 
2(1)->1 3 4 5 6 7 8 9 10 11 12 13 14 15 16 17 18 19 20 21 22 23 24 25 26 27 28 29 30 31 32 33 34 35 36 37 38 39 
3(2)->1 2 4 5 6 7 8 9 10 11 12 13 14 15 16 17 18 19 20 21 22 23 24 25 26 27 28 29 30 33 34 35 37 38 39 
4(3)->1 2 3 5 6 7 8 9 10 12 13 15 16 17 18 20 21 23 25 26 27 28 29 32 33 34 35 38 
5(4)->1 2 3 4 6 8 9 11 12 13 14 16 17 19 23 26 28 33 35 36 38 40 
6(8)->1 2 3 4 5 7 8 12 16 17 19 21 24 27 28 37 39 40 
7(9)->1 2 3 4 6 14 17 18 19 22 24 26 37 40 
8(7)->1 2 3 4 5 6 9 15 23 26 32 35 39 40 
9(6)->1 2 3 4 5 8 12 13 23 24 25 26 27 29 36 37 38 
10(5)->1 2 3 4 14 18 20 30 31 35 37 39 
11(9)->1 2 3 5 12 17 18 19 21 24 25 32 33 34 
12(5)->1 2 3 4 5 6 9 11 15 16 17 19 21 22 24 29 31 32 35 36 40 
13(9)->1 2 3 4 5 9 15 20 27 30 32 33 37 38 
14(3)->1 2 3 5 7 10 17 19 20 22 26 27 29 30 32 34 35 39 
15(8)->1 2 3 4 8 12 13 18 19 22 27 38 39 40 
16(7)->1 2 3 4 5 6 12 22 24 26 28 29 31 32 33 
17(7)->1 2 3 4 5 6 7 11 12 14 19 21 22 25 26 27 28 29 33 
18(4)->1 2 3 4 7 10 11 15 21 23 24 25 28 29 32 33 36 37 
19(6)->1 2 3 5 6 7 11 12 14 15 17 25 27 28 29 31 33 36 37 38 39 
20(4)->1 2 3 4 10 13 14 23 24 25 26 28 34 35 36 37 
21(6)->1 2 3 4 6 11 12 17 18 23 26 29 33 37 38 39 
22(4)->1 2 3 7 12 14 15 16 17 24 29 33 37 
23(8)->1 2 3 4 5 8 9 18 20 21 26 28 30 36 
24(3)->1 2 3 6 7 9 11 12 16 18 20 22 34 35 36 38 
25(8)->1 2 3 4 9 11 17 18 19 20 26 27 28 32 39 
26(5)->1 2 3 4 5 7 8 9 14 16 17 20 21 23 25 31 34 35 37 39 
27(4)->1 2 3 4 6 9 13 14 15 17 19 25 29 32 33 38 39 
28(5)->1 2 3 4 5 6 16 17 18 19 20 23 25 30 31 35 36 
29(8)->1 2 3 4 9 12 14 16 17 18 19 21 22 27 30 33 37 
30(7)->1 2 3 10 13 14 23 28 29 31 34 40 
31(4)->1 2 10 12 16 19 26 28 30 33 34 36 37 
32(6)->1 2 4 8 11 12 13 14 16 18 25 27 35 36 37 
33(5)->1 2 3 4 5 11 13 16 17 18 19 21 22 27 29 31 34 36 37 38 
34(6)->1 2 3 4 11 14 20 24 26 30 31 33 37 40 
35(8)->1 2 3 4 5 8 10 12 14 20 24 26 28 32 40 
36(2)->1 2 5 9 12 18 19 20 23 24 28 31 32 33 37 38 
37(3)->1 2 3 6 7 9 10 13 18 19 20 21 22 26 29 31 32 33 34 36 38 39 40 
38(7)->1 2 3 4 5 9 13 15 19 21 24 27 33 36 37 39 
39(9)->1 2 3 6 8 10 14 15 19 21 25 26 27 37 38 
40(0)->5 6 7 8 12 15 30 34 35 37 
COUNT: 12616
COLORS: 10
EDGES: 360
12616
