1: 2 3 4 5 6 7 8 9 10 11 48 26 28 29
2: 1 3 4 5 6 39 40 9 44 50 22
3: 1 2 5 40 44 14 49 19 28 31
4: 1 2 35 10 46 18
5: 32 1 2 3 39 45 49 22 26 27 28
6: 1 2 37 7 40 12 46 15 18
7: 33 6 1 44 50 29 30
8: 1 18 37 31
9: 1 34 2 45 48 20 27 28 29
10: 1 4 12 45 22 36 26 31
11: 1 20 22 14 37
12: 6 39 40 42 13 49 10 31
13: 16 12 43 36
14: 3 24 50 11
15: 41 36 6
16: 41 37 13
17: 32 40 42 21 23 28
18: 8 4 42 44 6
19: 32 3 38 43 44 21 24 25
20: 9 11 22 38 39
21: 17 50 19 34
22: 2 5 10 11 48 20 37
23: 35 36 17 28 30 31
24: 27 19 44 14
25: 32 41 45 47 48 19 31
26: 1 10 5 47
27: 48 9 5 24
28: 33 3 5 1 9 45 17 23 31
29: 31 9 7 45 1
30: 34 7 39 49 23 31
31: 3 8 10 12 48 49 50 23 25 28 29 30
32: 25 19 17 5 37
33: 28 7
34: 9 37 30 21
35: 4 23
36: 39 10 13 15 48 23
37: 32 34 6 8 11 16 22
38: 19 20
39: 2 36 5 12 45 20 30
40: 2 3 6 49 12 17
41: 16 25 15
42: 17 50 12 18
43: 19 13
44: 2 3 7 46 18 19 24
45: 5 39 9 10 25 28 29
46: 44 4 6 47
47: 25 26 46 49
48: 1 36 9 22 25 27 31
49: 3 5 40 12 47 30 31
50: 2 7 42 14 21 31
-------
1(-1)->2 3 4 5 6 7 8 9 10 11 26 28 29 48 
2(-1)->1 3 4 5 6 9 22 39 40 44 50 
3(-1)->1 2 5 14 19 28 31 40 44 49 
4(-1)->1 2 10 18 35 46 
5(-1)->1 2 3 22 26 27 28 32 39 45 49 
6(-1)->1 2 7 12 15 18 37 40 46 
7(-1)->1 6 29 30 33 44 50 
8(-1)->1 18 31 37 
9(-1)->1 2 20 27 28 29 34 45 48 
10(-1)->1 4 12 22 26 31 36 45 
11(-1)->1 14 20 22 37 
12(-1)->6 10 13 31 39 40 42 49 
13(-1)->12 16 36 43 
14(-1)->3 11 24 50 
15(-1)->6 36 41 
16(-1)->13 37 41 
17(-1)->21 23 28 32 40 42 
18(-1)->4 6 8 42 44 
19(-1)->3 21 24 25 32 38 43 44 
20(-1)->9 11 22 38 39 
21(-1)->17 19 34 50 
22(-1)->2 5 10 11 20 37 48 
23(-1)->17 28 30 31 35 36 
24(-1)->14 19 27 44 
25(-1)->19 31 32 41 45 47 48 
26(-1)->1 5 10 47 
27(-1)->5 9 24 48 
28(-1)->1 3 5 9 17 23 31 33 45 
29(-1)->1 7 9 31 45 
30(-1)->7 23 31 34 39 49 
31(-1)->3 8 10 12 23 25 28 29 30 48 49 50 
32(-1)->5 17 19 25 37 
33(-1)->7 28 
34(-1)->9 21 30 37 
35(-1)->4 23 
36(-1)->10 13 15 23 39 48 
37(-1)->6 8 11 16 22 32 34 
38(-1)->19 20 
39(-1)->2 5 12 20 30 36 45 
40(-1)->2 3 6 12 17 49 
41(-1)->15 16 25 
42(-1)->12 17 18 50 
43(-1)->13 19 
44(-1)->2 3 7 18 19 24 46 
45(-1)->5 9 10 25 28 29 39 
46(-1)->4 6 44 47 
47(-1)->25 26 46 49 
48(-1)->1 9 22 25 27 31 36 
49(-1)->3 5 12 30 31 40 47 
50(-1)->2 7 14 21 31 42 
-------
Node 1 maps to position 0
Node 31 maps to position 1
Node 2 maps to position 2
Node 5 maps to position 3
Node 3 maps to position 4
Node 6 maps to position 5
Node 9 maps to position 6
Node 28 maps to position 7
Node 10 maps to position 8
Node 12 maps to position 9
Node 19 maps to position 10
Node 7 maps to position 11
Node 22 maps to position 12
Node 25 maps to position 13
Node 37 maps to position 14
Node 39 maps to position 15
Node 44 maps to position 16
Node 45 maps to position 17
Node 48 maps to position 18
Node 49 maps to position 19
Node 4 maps to position 20
Node 17 maps to position 21
Node 23 maps to position 22
Node 30 maps to position 23
Node 36 maps to position 24
Node 40 maps to position 25
Node 50 maps to position 26
Node 11 maps to position 27
Node 18 maps to position 28
Node 20 maps to position 29
Node 29 maps to position 30
Node 32 maps to position 31
Node 8 maps to position 32
Node 13 maps to position 33
Node 14 maps to position 34
Node 21 maps to position 35
Node 24 maps to position 36
Node 26 maps to position 37
Node 27 maps to position 38
Node 34 maps to position 39
Node 42 maps to position 40
Node 46 maps to position 41
Node 47 maps to position 42
Node 15 maps to position 43
Node 16 maps to position 44
Node 41 maps to position 45
Node 33 maps to position 46
Node 35 maps to position 47
Node 38 maps to position 48
Node 43 maps to position 49
1(-1)->2 3 4 5 6 7 8 9 10 11 26 28 29 48 
31(-1)->3 8 10 12 23 25 28 29 30 48 49 50 
2(-1)->1 3 4 5 6 9 22 39 40 44 50 
5(-1)->1 2 3 22 26 27 28 32 39 45 49 
3(-1)->1 2 5 14 19 28 31 40 44 49 
6(-1)->1 2 7 12 15 18 37 40 46 
9(-1)->1 2 20 27 28 29 34 45 48 
28(-1)->1 3 5 9 17 23 31 33 45 
10(-1)->1 4 12 22 26 31 36 45 
12(-1)->6 10 13 31 39 40 42 49 
19(-1)->3 21 24 25 32 38 43 44 
7(-1)->1 6 29 30 33 44 50 
22(-1)->2 5 10 11 20 37 48 
25(-1)->19 31 32 41 45 47 48 
37(-1)->6 8 11 16 22 32 34 
39(-1)->2 5 12 20 30 36 45 
44(-1)->2 3 7 18 19 24 46 
45(-1)->5 9 10 25 28 29 39 
48(-1)->1 9 22 25 27 31 36 
49(-1)->3 5 12 30 31 40 47 
4(-1)->1 2 10 18 35 46 
17(-1)->21 23 28 32 40 42 
23(-1)->17 28 30 31 35 36 
30(-1)->7 23 31 34 39 49 
36(-1)->10 13 15 23 39 48 
40(-1)->2 3 6 12 17 49 
50(-1)->2 7 14 21 31 42 
11(-1)->1 14 20 22 37 
18(-1)->4 6 8 42 44 
20(-1)->9 11 22 38 39 
29(-1)->1 7 9 31 45 
32(-1)->5 17 19 25 37 
8(-1)->1 18 31 37 
13(-1)->12 16 36 43 
14(-1)->3 11 24 50 
21(-1)->17 19 34 50 
24(-1)->14 19 27 44 
26(-1)->1 5 10 47 
27(-1)->5 9 24 48 
34(-1)->9 21 30 37 
42(-1)->12 17 18 50 
46(-1)->4 6 44 47 
47(-1)->25 26 46 49 
15(-1)->6 36 41 
16(-1)->13 37 41 
41(-1)->15 16 25 
33(-1)->7 28 
35(-1)->4 23 
38(-1)->19 20 
43(-1)->13 19 
-------
BLAH
START TIME: 1433098508
1(0)->2 3 4 5 6 7 8 9 10 11 26 28 29 48 
2(1)->1 3 4 5 6 9 22 39 40 44 50 
3(3)->1 2 5 14 19 28 31 40 44 49 
4(2)->1 2 10 18 35 46 
5(2)->1 2 3 22 26 27 28 32 39 45 49 
6(2)->1 2 7 12 15 18 37 40 46 
7(3)->1 6 29 30 33 44 50 
8(2)->1 18 31 37 
9(2)->1 2 20 27 28 29 34 45 48 
10(1)->1 4 12 22 26 31 36 45 
11(2)->1 14 20 22 37 
12(3)->6 10 13 31 39 40 42 49 
13(0)->12 16 36 43 
14(0)->3 11 24 50 
15(0)->6 36 41 
16(2)->13 37 41 
17(2)->21 23 28 32 40 42 
18(0)->4 6 8 42 44 
19(0)->3 21 24 25 32 38 43 44 
20(1)->9 11 22 38 39 
21(1)->17 19 34 50 
22(0)->2 5 10 11 20 37 48 
23(3)->17 28 30 31 35 36 
24(1)->14 19 27 44 
25(1)->19 31 32 41 45 47 48 
26(3)->1 5 10 47 
27(0)->5 9 24 48 
28(1)->1 3 5 9 17 23 31 33 45 
29(1)->1 7 9 31 45 
30(2)->7 23 31 34 39 49 
31(0)->3 8 10 12 23 25 28 29 30 48 49 50 
32(3)->5 17 19 25 37 
33(0)->7 28 
34(0)->9 21 30 37 
35(0)->4 23 
36(2)->10 13 15 23 39 48 
37(1)->6 8 11 16 22 32 34 
38(2)->19 20 
39(0)->2 5 12 20 30 36 45 
40(0)->2 3 6 12 17 49 
41(3)->15 16 25 
42(1)->12 17 18 50 
43(1)->13 19 
44(2)->2 3 7 18 19 24 46 
45(3)->5 9 10 25 28 29 39 
46(0)->4 6 44 47 
47(2)->25 26 46 49 
48(3)->1 9 22 25 27 31 36 
49(1)->3 5 12 30 31 40 47 
50(2)->2 7 14 21 31 42 
COUNT: 1054
COLORS: 4
EDGES: 150
1054
