1: 2 3 4 5 6 7 8 9 10 11 12 13 14 15 16 17 18 19 20 21 22 23 24 26 28 29 35 43 47 48
2: 1 3 4 38 6 39 40 9 10 11 44 47 49 50 21 22 24 15 5
3: 1 2 11 5 40 43 44 14 49 19 8 22 27 28 29 31
4: 1 2 35 36 10 46 18 23 25 27
5: 32 1 34 3 39 9 2 45 49 18 22 26 27 28
6: 1 2 37 7 40 12 45 46 15 18
7: 33 35 6 1 11 44 15 50 24 29 30
8: 1 3 37 9 14 18 19 31
9: 32 1 34 5 8 2 45 48 49 50 20 27 28 29
10: 1 2 4 39 43 12 45 48 49 22 36 26 29 31
11: 1 2 3 37 7 14 20 22 30
12: 1 17 6 39 40 42 13 16 49 10 31
13: 1 36 43 12 16 31
14: 1 3 8 11 18 50 24
15: 1 2 36 6 7 40 41 42 25
16: 1 37 41 43 12 13 23
17: 32 1 40 42 12 20 21 23 28
18: 1 4 38 6 8 42 44 45 14 48 36 5
19: 32 1 34 3 38 8 43 44 47 21 24 25
20: 33 1 49 38 39 9 11 48 17 22 41
21: 1 2 34 48 17 50 19
22: 33 2 35 5 1 10 11 48 3 20 37
23: 1 34 35 36 39 16 17 4 28 30 31
24: 32 1 2 7 44 14 19 27
25: 32 4 41 45 47 48 19 15 31
26: 1 5 10 43 45 47
27: 34 3 4 5 38 9 47 48 49 24
28: 33 3 36 5 1 9 45 46 17 23 49 31
29: 1 3 7 9 10 44 45 31
30: 34 11 7 39 49 43 23 31
31: 3 8 10 12 13 48 49 50 23 25 28 29 30
32: 5 9 17 19 24 25 37
33: 40 20 28 22 7
34: 37 9 44 19 21 23 27 30 5
35: 1 4 7 42 22 23
36: 4 39 10 13 15 48 18 23 47 28
37: 32 34 6 8 11 16 22
38: 2 46 18 19 20 27
39: 2 36 5 10 12 45 20 23 30
40: 33 2 3 6 49 12 47 17 15
41: 16 25 20 15
42: 35 12 18 15 17 50
43: 1 3 10 13 16 50 19 26 30
44: 2 3 7 34 46 18 19 24 29
45: 5 6 39 9 10 18 25 26 28 29
46: 4 6 38 44 47 49 28
47: 1 2 36 40 46 49 19 25 26 27
48: 1 36 9 10 49 18 20 21 22 25 27 31
49: 2 3 5 40 9 10 12 46 47 48 20 27 28 30 31
50: 2 7 9 42 43 14 21 31
-------
1(-1)->2 3 4 5 6 7 8 9 10 11 12 13 14 15 16 17 18 19 20 21 22 23 24 26 28 29 35 43 47 48 
2(-1)->1 3 4 5 6 9 10 11 15 21 22 24 38 39 40 44 47 49 50 
3(-1)->1 2 5 8 11 14 19 22 27 28 29 31 40 43 44 49 
4(-1)->1 2 10 18 23 25 27 35 36 46 
5(-1)->1 2 3 9 18 22 26 27 28 32 34 39 45 49 
6(-1)->1 2 7 12 15 18 37 40 45 46 
7(-1)->1 6 11 15 24 29 30 33 35 44 50 
8(-1)->1 3 9 14 18 19 31 37 
9(-1)->1 2 5 8 20 27 28 29 32 34 45 48 49 50 
10(-1)->1 2 4 12 22 26 29 31 36 39 43 45 48 49 
11(-1)->1 2 3 7 14 20 22 30 37 
12(-1)->1 6 10 13 16 17 31 39 40 42 49 
13(-1)->1 12 16 31 36 43 
14(-1)->1 3 8 11 18 24 50 
15(-1)->1 2 6 7 25 36 40 41 42 
16(-1)->1 12 13 23 37 41 43 
17(-1)->1 12 20 21 23 28 32 40 42 
18(-1)->1 4 5 6 8 14 36 38 42 44 45 48 
19(-1)->1 3 8 21 24 25 32 34 38 43 44 47 
20(-1)->1 9 11 17 22 33 38 39 41 48 49 
21(-1)->1 2 17 19 34 48 50 
22(-1)->1 2 3 5 10 11 20 33 35 37 48 
23(-1)->1 4 16 17 28 30 31 34 35 36 39 
24(-1)->1 2 7 14 19 27 32 44 
25(-1)->4 15 19 31 32 41 45 47 48 
26(-1)->1 5 10 43 45 47 
27(-1)->3 4 5 9 24 34 38 47 48 49 
28(-1)->1 3 5 9 17 23 31 33 36 45 46 49 
29(-1)->1 3 7 9 10 31 44 45 
30(-1)->7 11 23 31 34 39 43 49 
31(-1)->3 8 10 12 13 23 25 28 29 30 48 49 50 
32(-1)->5 9 17 19 24 25 37 
33(-1)->7 20 22 28 40 
34(-1)->5 9 19 21 23 27 30 37 44 
35(-1)->1 4 7 22 23 42 
36(-1)->4 10 13 15 18 23 28 39 47 48 
37(-1)->6 8 11 16 22 32 34 
38(-1)->2 18 19 20 27 46 
39(-1)->2 5 10 12 20 23 30 36 45 
40(-1)->2 3 6 12 15 17 33 47 49 
41(-1)->15 16 20 25 
42(-1)->12 15 17 18 35 50 
43(-1)->1 3 10 13 16 19 26 30 50 
44(-1)->2 3 7 18 19 24 29 34 46 
45(-1)->5 6 9 10 18 25 26 28 29 39 
46(-1)->4 6 28 38 44 47 49 
47(-1)->1 2 19 25 26 27 36 40 46 49 
48(-1)->1 9 10 18 20 21 22 25 27 31 36 49 
49(-1)->2 3 5 9 10 12 20 27 28 30 31 40 46 47 48 
50(-1)->2 7 9 14 21 31 42 43 
-------
Node 1 maps to position 0
Node 2 maps to position 1
Node 3 maps to position 2
Node 49 maps to position 3
Node 5 maps to position 4
Node 9 maps to position 5
Node 10 maps to position 6
Node 31 maps to position 7
Node 18 maps to position 8
Node 19 maps to position 9
Node 28 maps to position 10
Node 48 maps to position 11
Node 7 maps to position 12
Node 12 maps to position 13
Node 20 maps to position 14
Node 22 maps to position 15
Node 23 maps to position 16
Node 4 maps to position 17
Node 6 maps to position 18
Node 27 maps to position 19
Node 36 maps to position 20
Node 45 maps to position 21
Node 47 maps to position 22
Node 11 maps to position 23
Node 15 maps to position 24
Node 17 maps to position 25
Node 25 maps to position 26
Node 34 maps to position 27
Node 39 maps to position 28
Node 40 maps to position 29
Node 43 maps to position 30
Node 44 maps to position 31
Node 8 maps to position 32
Node 24 maps to position 33
Node 29 maps to position 34
Node 30 maps to position 35
Node 50 maps to position 36
Node 14 maps to position 37
Node 16 maps to position 38
Node 21 maps to position 39
Node 32 maps to position 40
Node 37 maps to position 41
Node 46 maps to position 42
Node 13 maps to position 43
Node 26 maps to position 44
Node 35 maps to position 45
Node 38 maps to position 46
Node 42 maps to position 47
Node 33 maps to position 48
Node 41 maps to position 49
1(-1)->2 3 4 5 6 7 8 9 10 11 12 13 14 15 16 17 18 19 20 21 22 23 24 26 28 29 35 43 47 48 
2(-1)->1 3 4 5 6 9 10 11 15 21 22 24 38 39 40 44 47 49 50 
3(-1)->1 2 5 8 11 14 19 22 27 28 29 31 40 43 44 49 
49(-1)->2 3 5 9 10 12 20 27 28 30 31 40 46 47 48 
5(-1)->1 2 3 9 18 22 26 27 28 32 34 39 45 49 
9(-1)->1 2 5 8 20 27 28 29 32 34 45 48 49 50 
10(-1)->1 2 4 12 22 26 29 31 36 39 43 45 48 49 
31(-1)->3 8 10 12 13 23 25 28 29 30 48 49 50 
18(-1)->1 4 5 6 8 14 36 38 42 44 45 48 
19(-1)->1 3 8 21 24 25 32 34 38 43 44 47 
28(-1)->1 3 5 9 17 23 31 33 36 45 46 49 
48(-1)->1 9 10 18 20 21 22 25 27 31 36 49 
7(-1)->1 6 11 15 24 29 30 33 35 44 50 
12(-1)->1 6 10 13 16 17 31 39 40 42 49 
20(-1)->1 9 11 17 22 33 38 39 41 48 49 
22(-1)->1 2 3 5 10 11 20 33 35 37 48 
23(-1)->1 4 16 17 28 30 31 34 35 36 39 
4(-1)->1 2 10 18 23 25 27 35 36 46 
6(-1)->1 2 7 12 15 18 37 40 45 46 
27(-1)->3 4 5 9 24 34 38 47 48 49 
36(-1)->4 10 13 15 18 23 28 39 47 48 
45(-1)->5 6 9 10 18 25 26 28 29 39 
47(-1)->1 2 19 25 26 27 36 40 46 49 
11(-1)->1 2 3 7 14 20 22 30 37 
15(-1)->1 2 6 7 25 36 40 41 42 
17(-1)->1 12 20 21 23 28 32 40 42 
25(-1)->4 15 19 31 32 41 45 47 48 
34(-1)->5 9 19 21 23 27 30 37 44 
39(-1)->2 5 10 12 20 23 30 36 45 
40(-1)->2 3 6 12 15 17 33 47 49 
43(-1)->1 3 10 13 16 19 26 30 50 
44(-1)->2 3 7 18 19 24 29 34 46 
8(-1)->1 3 9 14 18 19 31 37 
24(-1)->1 2 7 14 19 27 32 44 
29(-1)->1 3 7 9 10 31 44 45 
30(-1)->7 11 23 31 34 39 43 49 
50(-1)->2 7 9 14 21 31 42 43 
14(-1)->1 3 8 11 18 24 50 
16(-1)->1 12 13 23 37 41 43 
21(-1)->1 2 17 19 34 48 50 
32(-1)->5 9 17 19 24 25 37 
37(-1)->6 8 11 16 22 32 34 
46(-1)->4 6 28 38 44 47 49 
13(-1)->1 12 16 31 36 43 
26(-1)->1 5 10 43 45 47 
35(-1)->1 4 7 22 23 42 
38(-1)->2 18 19 20 27 46 
42(-1)->12 15 17 18 35 50 
33(-1)->7 20 22 28 40 
41(-1)->15 16 20 25 
-------
BLAH
START TIME: 1433098514
1(0)->2 3 4 5 6 7 8 9 10 11 12 13 14 15 16 17 18 19 20 21 22 23 24 26 28 29 35 43 47 48 
2(1)->1 3 4 5 6 9 10 11 15 21 22 24 38 39 40 44 47 49 50 
3(2)->1 2 5 8 11 14 19 22 27 28 29 31 40 43 44 49 
4(4)->1 2 10 18 23 25 27 35 36 46 
5(3)->1 2 3 9 18 22 26 27 28 32 34 39 45 49 
6(2)->1 2 7 12 15 18 37 40 45 46 
7(1)->1 6 11 15 24 29 30 33 35 44 50 
8(3)->1 3 9 14 18 19 31 37 
9(2)->1 2 5 8 20 27 28 29 32 34 45 48 49 50 
10(2)->1 2 4 12 22 26 29 31 36 39 43 45 48 49 
11(3)->1 2 3 7 14 20 22 30 37 
12(3)->1 6 10 13 16 17 31 39 40 42 49 
13(4)->1 12 16 31 36 43 
14(4)->1 3 8 11 18 24 50 
15(3)->1 2 6 7 25 36 40 41 42 
16(2)->1 12 13 23 37 41 43 
17(2)->1 12 20 21 23 28 32 40 42 
18(1)->1 4 5 6 8 14 36 38 42 44 45 48 
19(1)->1 3 8 21 24 25 32 34 38 43 44 47 
20(1)->1 9 11 17 22 33 38 39 41 48 49 
21(4)->1 2 17 19 34 48 50 
22(4)->1 2 3 5 10 11 20 33 35 37 48 
23(3)->1 4 16 17 28 30 31 34 35 36 39 
24(2)->1 2 7 14 19 27 32 44 
25(2)->4 15 19 31 32 41 45 47 48 
26(1)->1 5 10 43 45 47 
27(1)->3 4 5 9 24 34 38 47 48 49 
28(4)->1 3 5 9 17 23 31 33 36 45 46 49 
29(4)->1 3 7 9 10 31 44 45 
30(2)->7 11 23 31 34 39 43 49 
31(1)->3 8 10 12 13 23 25 28 29 30 48 49 50 
32(0)->5 9 17 19 24 25 37 
33(0)->7 20 22 28 40 
34(0)->5 9 19 21 23 27 30 37 44 
35(2)->1 4 7 22 23 42 
36(0)->4 10 13 15 18 23 28 39 47 48 
37(1)->6 8 11 16 22 32 34 
38(0)->2 18 19 20 27 46 
39(4)->2 5 10 12 20 23 30 36 45 
40(4)->2 3 6 12 15 17 33 47 49 
41(0)->15 16 20 25 
42(4)->12 15 17 18 35 50 
43(3)->1 3 10 13 16 19 26 30 50 
44(3)->2 3 7 18 19 24 29 34 46 
45(0)->5 6 9 10 18 25 26 28 29 39 
46(1)->4 6 28 38 44 47 49 
47(3)->1 2 19 25 26 27 36 40 46 49 
48(3)->1 9 10 18 20 21 22 25 27 31 36 49 
49(0)->2 3 5 9 10 12 20 27 28 30 31 40 46 47 48 
50(0)->2 7 9 14 21 31 42 43 
COUNT: 217
COLORS: 5
EDGES: 250
217
