1: 2 3 4 5 6 7 8 9 10 11 12 13 14 15 16 17 18 19 20 21 22 23 24 25 26 27 28 29 30 31 32 33 34 35 36 37 38 39 40 41 42 43 44 45 46 47 48 49
2: 1 3 4 5 6 7 8 9 10 11 16 17 26 28 30 31 36 38 39 40 42 43 48 49
3: 33 2 11 36 5 6 7 41 39 44 14 48 18 1 4 30 31
4: 32 1 34 3 36 5 6 7 9 11 12 2 15 16 17 22 39
5: 1 2 6 4 37 38 41 42 11 44 34 46 48 18 3 26
6: 1 2 35 36 5 45 14 3 20 4 27 28 30
7: 33 2 3 4 1 41 11 12 45 15 43 35 28
8: 32 1 2 40 45 47 50 21 25 30 31
9: 1 34 11 4 38 40 43 13 45 14 15 16 19 21 24 25 47 2
10: 1 2 36 13 14 45 17 18 20 21 22 23 27 29 30
11: 1 2 3 4 5 7 9 13 46 36 30
12: 1 4 7 41 43 13 47 16 21 24 36 28 30
13: 1 43 12 10 23 44 14 11 9 24 26 31
14: 1 34 3 6 38 40 9 10 13 20 24 27 30 37
15: 1 34 35 4 7 9 39 43 18 36 30
16: 32 1 2 4 9 12 47 48 19 22 24 31
17: 33 2 35 36 37 39 10 44 19 1 4 30 21
18: 32 33 34 3 1 37 39 41 10 43 15 21 25 5 30 31
19: 48 36 1 9 45 47 16 17 20 22 27 30 31
20: 1 36 6 38 40 41 10 14 48 19 21 24 26
21: 1 38 17 8 9 10 43 12 47 49 18 20 23 29
22: 16 35 4 37 33 10 44 48 49 19 1 24 25 42
23: 33 36 1 10 44 45 13 21 47
24: 32 1 38 40 12 42 44 13 14 16 49 50 20 22 9 27 30
25: 33 34 36 37 38 39 8 9 44 18 1 22
26: 1 34 5 39 2 13 46 48 50 20
27: 1 34 35 6 38 41 10 14 47 49 19 24 29
28: 32 1 2 38 6 7 42 39 12 30
29: 1 37 42 45 46 48 21 27 10
30: 33 2 3 6 38 1 8 10 11 12 34 46 15 17 18 19 14 24 28
31: 1 2 3 37 8 43 13 16 18 19
32: 33 4 1 8 41 44 16 49 18 40 24 28
33: 32 1 3 7 41 44 17 18 22 23 25 30
34: 1 4 5 40 9 42 45 14 15 48 49 18 25 36 26 27 30
35: 1 17 6 38 7 15 46 47 48 49 22 27
36: 1 34 3 4 37 6 12 10 11 44 2 47 17 19 20 23 25 15
37: 1 36 5 17 39 45 14 49 18 22 25 29 31
38: 1 2 35 5 39 9 42 14 47 20 21 41 24 25 27 28 30
39: 1 2 3 4 37 38 15 17 18 25 26 28
40: 32 1 34 8 9 2 45 14 20 24
41: 32 33 3 1 5 38 7 42 12 45 46 47 18 20 27
42: 1 34 5 38 41 2 22 24 28 29
43: 1 2 7 9 18 12 13 45 49 50 21 15 31
44: 32 33 3 36 5 17 13 49 50 1 22 23 24 25
45: 1 34 37 6 7 40 9 10 43 47 8 50 19 41 23 29
46: 1 35 5 41 11 26 29 30
47: 1 35 36 38 8 41 12 45 16 19 9 21 23 27
48: 3 1 34 35 5 2 16 19 20 22 26 29
49: 32 1 34 35 37 43 44 2 21 22 24 27
50: 8 43 44 45 24 26
-------
1(-1)->2 3 4 5 6 7 8 9 10 11 12 13 14 15 16 17 18 19 20 21 22 23 24 25 26 27 28 29 30 31 32 33 34 35 36 37 38 39 40 41 42 43 44 45 46 47 48 49 
2(-1)->1 3 4 5 6 7 8 9 10 11 16 17 26 28 30 31 36 38 39 40 42 43 48 49 
3(-1)->1 2 4 5 6 7 11 14 18 30 31 33 36 39 41 44 48 
4(-1)->1 2 3 5 6 7 9 11 12 15 16 17 22 32 34 36 39 
5(-1)->1 2 3 4 6 11 18 26 34 37 38 41 42 44 46 48 
6(-1)->1 2 3 4 5 14 20 27 28 30 35 36 45 
7(-1)->1 2 3 4 11 12 15 28 33 35 41 43 45 
8(-1)->1 2 21 25 30 31 32 40 45 47 50 
9(-1)->1 2 4 11 13 14 15 16 19 21 24 25 34 38 40 43 45 47 
10(-1)->1 2 13 14 17 18 20 21 22 23 27 29 30 36 45 
11(-1)->1 2 3 4 5 7 9 13 30 36 46 
12(-1)->1 4 7 13 16 21 24 28 30 36 41 43 47 
13(-1)->1 9 10 11 12 14 23 24 26 31 43 44 
14(-1)->1 3 6 9 10 13 20 24 27 30 34 37 38 40 
15(-1)->1 4 7 9 18 30 34 35 36 39 43 
16(-1)->1 2 4 9 12 19 22 24 31 32 47 48 
17(-1)->1 2 4 10 19 21 30 33 35 36 37 39 44 
18(-1)->1 3 5 10 15 21 25 30 31 32 33 34 37 39 41 43 
19(-1)->1 9 16 17 20 22 27 30 31 36 45 47 48 
20(-1)->1 6 10 14 19 21 24 26 36 38 40 41 48 
21(-1)->1 8 9 10 12 17 18 20 23 29 38 43 47 49 
22(-1)->1 4 10 16 19 24 25 33 35 37 42 44 48 49 
23(-1)->1 10 13 21 33 36 44 45 47 
24(-1)->1 9 12 13 14 16 20 22 27 30 32 38 40 42 44 49 50 
25(-1)->1 8 9 18 22 33 34 36 37 38 39 44 
26(-1)->1 2 5 13 20 34 39 46 48 50 
27(-1)->1 6 10 14 19 24 29 34 35 38 41 47 49 
28(-1)->1 2 6 7 12 30 32 38 39 42 
29(-1)->1 10 21 27 37 42 45 46 48 
30(-1)->1 2 3 6 8 10 11 12 14 15 17 18 19 24 28 33 34 38 46 
31(-1)->1 2 3 8 13 16 18 19 37 43 
32(-1)->1 4 8 16 18 24 28 33 40 41 44 49 
33(-1)->1 3 7 17 18 22 23 25 30 32 41 44 
34(-1)->1 4 5 9 14 15 18 25 26 27 30 36 40 42 45 48 49 
35(-1)->1 6 7 15 17 22 27 38 46 47 48 49 
36(-1)->1 2 3 4 6 10 11 12 15 17 19 20 23 25 34 37 44 47 
37(-1)->1 5 14 17 18 22 25 29 31 36 39 45 49 
38(-1)->1 2 5 9 14 20 21 24 25 27 28 30 35 39 41 42 47 
39(-1)->1 2 3 4 15 17 18 25 26 28 37 38 
40(-1)->1 2 8 9 14 20 24 32 34 45 
41(-1)->1 3 5 7 12 18 20 27 32 33 38 42 45 46 47 
42(-1)->1 2 5 22 24 28 29 34 38 41 
43(-1)->1 2 7 9 12 13 15 18 21 31 45 49 50 
44(-1)->1 3 5 13 17 22 23 24 25 32 33 36 49 50 
45(-1)->1 6 7 8 9 10 19 23 29 34 37 40 41 43 47 50 
46(-1)->1 5 11 26 29 30 35 41 
47(-1)->1 8 9 12 16 19 21 23 27 35 36 38 41 45 
48(-1)->1 2 3 5 16 19 20 22 26 29 34 35 
49(-1)->1 2 21 22 24 27 32 34 35 37 43 44 
50(-1)->8 24 26 43 44 45 
-------
Node 1 maps to position 0
Node 2 maps to position 1
Node 30 maps to position 2
Node 9 maps to position 3
Node 36 maps to position 4
Node 3 maps to position 5
Node 4 maps to position 6
Node 24 maps to position 7
Node 34 maps to position 8
Node 38 maps to position 9
Node 5 maps to position 10
Node 18 maps to position 11
Node 45 maps to position 12
Node 10 maps to position 13
Node 41 maps to position 14
Node 14 maps to position 15
Node 21 maps to position 16
Node 22 maps to position 17
Node 44 maps to position 18
Node 47 maps to position 19
Node 6 maps to position 20
Node 7 maps to position 21
Node 12 maps to position 22
Node 17 maps to position 23
Node 19 maps to position 24
Node 20 maps to position 25
Node 27 maps to position 26
Node 37 maps to position 27
Node 43 maps to position 28
Node 13 maps to position 29
Node 16 maps to position 30
Node 25 maps to position 31
Node 32 maps to position 32
Node 33 maps to position 33
Node 35 maps to position 34
Node 39 maps to position 35
Node 48 maps to position 36
Node 49 maps to position 37
Node 8 maps to position 38
Node 11 maps to position 39
Node 15 maps to position 40
Node 26 maps to position 41
Node 28 maps to position 42
Node 31 maps to position 43
Node 40 maps to position 44
Node 42 maps to position 45
Node 23 maps to position 46
Node 29 maps to position 47
Node 46 maps to position 48
Node 50 maps to position 49
1(-1)->2 3 4 5 6 7 8 9 10 11 12 13 14 15 16 17 18 19 20 21 22 23 24 25 26 27 28 29 30 31 32 33 34 35 36 37 38 39 40 41 42 43 44 45 46 47 48 49 
2(-1)->1 3 4 5 6 7 8 9 10 11 16 17 26 28 30 31 36 38 39 40 42 43 48 49 
30(-1)->1 2 3 6 8 10 11 12 14 15 17 18 19 24 28 33 34 38 46 
9(-1)->1 2 4 11 13 14 15 16 19 21 24 25 34 38 40 43 45 47 
36(-1)->1 2 3 4 6 10 11 12 15 17 19 20 23 25 34 37 44 47 
3(-1)->1 2 4 5 6 7 11 14 18 30 31 33 36 39 41 44 48 
4(-1)->1 2 3 5 6 7 9 11 12 15 16 17 22 32 34 36 39 
24(-1)->1 9 12 13 14 16 20 22 27 30 32 38 40 42 44 49 50 
34(-1)->1 4 5 9 14 15 18 25 26 27 30 36 40 42 45 48 49 
38(-1)->1 2 5 9 14 20 21 24 25 27 28 30 35 39 41 42 47 
5(-1)->1 2 3 4 6 11 18 26 34 37 38 41 42 44 46 48 
18(-1)->1 3 5 10 15 21 25 30 31 32 33 34 37 39 41 43 
45(-1)->1 6 7 8 9 10 19 23 29 34 37 40 41 43 47 50 
10(-1)->1 2 13 14 17 18 20 21 22 23 27 29 30 36 45 
41(-1)->1 3 5 7 12 18 20 27 32 33 38 42 45 46 47 
14(-1)->1 3 6 9 10 13 20 24 27 30 34 37 38 40 
21(-1)->1 8 9 10 12 17 18 20 23 29 38 43 47 49 
22(-1)->1 4 10 16 19 24 25 33 35 37 42 44 48 49 
44(-1)->1 3 5 13 17 22 23 24 25 32 33 36 49 50 
47(-1)->1 8 9 12 16 19 21 23 27 35 36 38 41 45 
6(-1)->1 2 3 4 5 14 20 27 28 30 35 36 45 
7(-1)->1 2 3 4 11 12 15 28 33 35 41 43 45 
12(-1)->1 4 7 13 16 21 24 28 30 36 41 43 47 
17(-1)->1 2 4 10 19 21 30 33 35 36 37 39 44 
19(-1)->1 9 16 17 20 22 27 30 31 36 45 47 48 
20(-1)->1 6 10 14 19 21 24 26 36 38 40 41 48 
27(-1)->1 6 10 14 19 24 29 34 35 38 41 47 49 
37(-1)->1 5 14 17 18 22 25 29 31 36 39 45 49 
43(-1)->1 2 7 9 12 13 15 18 21 31 45 49 50 
13(-1)->1 9 10 11 12 14 23 24 26 31 43 44 
16(-1)->1 2 4 9 12 19 22 24 31 32 47 48 
25(-1)->1 8 9 18 22 33 34 36 37 38 39 44 
32(-1)->1 4 8 16 18 24 28 33 40 41 44 49 
33(-1)->1 3 7 17 18 22 23 25 30 32 41 44 
35(-1)->1 6 7 15 17 22 27 38 46 47 48 49 
39(-1)->1 2 3 4 15 17 18 25 26 28 37 38 
48(-1)->1 2 3 5 16 19 20 22 26 29 34 35 
49(-1)->1 2 21 22 24 27 32 34 35 37 43 44 
8(-1)->1 2 21 25 30 31 32 40 45 47 50 
11(-1)->1 2 3 4 5 7 9 13 30 36 46 
15(-1)->1 4 7 9 18 30 34 35 36 39 43 
26(-1)->1 2 5 13 20 34 39 46 48 50 
28(-1)->1 2 6 7 12 30 32 38 39 42 
31(-1)->1 2 3 8 13 16 18 19 37 43 
40(-1)->1 2 8 9 14 20 24 32 34 45 
42(-1)->1 2 5 22 24 28 29 34 38 41 
23(-1)->1 10 13 21 33 36 44 45 47 
29(-1)->1 10 21 27 37 42 45 46 48 
46(-1)->1 5 11 26 29 30 35 41 
50(-1)->8 24 26 43 44 45 
-------
BLAH
START TIME: 1433098804
10000
20000
30000
40000
50000
60000
70000
80000
90000
1(0)->2 3 4 5 6 7 8 9 10 11 12 13 14 15 16 17 18 19 20 21 22 23 24 25 26 27 28 29 30 31 32 33 34 35 36 37 38 39 40 41 42 43 44 45 46 47 48 49 
2(1)->1 3 4 5 6 7 8 9 10 11 16 17 26 28 30 31 36 38 39 40 42 43 48 49 
3(3)->1 2 4 5 6 7 11 14 18 30 31 33 36 39 41 44 48 
4(4)->1 2 3 5 6 7 9 11 12 15 16 17 22 32 34 36 39 
5(2)->1 2 3 4 6 11 18 26 34 37 38 41 42 44 46 48 
6(5)->1 2 3 4 5 14 20 27 28 30 35 36 45 
7(2)->1 2 3 4 11 12 15 28 33 35 41 43 45 
8(4)->1 2 21 25 30 31 32 40 45 47 50 
9(2)->1 2 4 11 13 14 15 16 19 21 24 25 34 38 40 43 45 47 
10(5)->1 2 13 14 17 18 20 21 22 23 27 29 30 36 45 
11(5)->1 2 3 4 5 7 9 13 30 36 46 
12(6)->1 4 7 13 16 21 24 28 30 36 41 43 47 
13(3)->1 9 10 11 12 14 23 24 26 31 43 44 
14(4)->1 3 6 9 10 13 20 24 27 30 34 37 38 40 
15(3)->1 4 7 9 18 30 34 35 36 39 43 
16(3)->1 2 4 9 12 19 22 24 31 32 47 48 
17(3)->1 2 4 10 19 21 30 33 35 36 37 39 44 
18(4)->1 3 5 10 15 21 25 30 31 32 33 34 37 39 41 43 
19(1)->1 9 16 17 20 22 27 30 31 36 45 47 48 
20(6)->1 6 10 14 19 21 24 26 36 38 40 41 48 
21(1)->1 8 9 10 12 17 18 20 23 29 38 43 47 49 
22(2)->1 4 10 16 19 24 25 33 35 37 42 44 48 49 
23(6)->1 10 13 21 33 36 44 45 47 
24(1)->1 9 12 13 14 16 20 22 27 30 32 38 40 42 44 49 50 
25(6)->1 8 9 18 22 33 34 36 37 38 39 44 
26(5)->1 2 5 13 20 34 39 46 48 50 
27(2)->1 6 10 14 19 24 29 34 35 38 41 47 49 
28(4)->1 2 6 7 12 30 32 38 39 42 
29(6)->1 10 21 27 37 42 45 46 48 
30(2)->1 2 3 6 8 10 11 12 14 15 17 18 19 24 28 33 34 38 46 
31(2)->1 2 3 8 13 16 18 19 37 43 
32(2)->1 4 8 16 18 24 28 33 40 41 44 49 
33(5)->1 3 7 17 18 22 23 25 30 32 41 44 
34(1)->1 4 5 9 14 15 18 25 26 27 30 36 40 42 45 48 49 
35(1)->1 6 7 15 17 22 27 38 46 47 48 49 
36(2)->1 2 3 4 6 10 11 12 15 17 19 20 23 25 34 37 44 47 
37(1)->1 5 14 17 18 22 25 29 31 36 39 45 49 
38(3)->1 2 5 9 14 20 21 24 25 27 28 30 35 39 41 42 47 
39(2)->1 2 3 4 15 17 18 25 26 28 37 38 
40(5)->1 2 8 9 14 20 24 32 34 45 
41(1)->1 3 5 7 12 18 20 27 32 33 38 42 45 46 47 
42(5)->1 2 5 22 24 28 29 34 38 41 
43(5)->1 2 7 9 12 13 15 18 21 31 45 49 50 
44(4)->1 3 5 13 17 22 23 24 25 32 33 36 49 50 
45(3)->1 6 7 8 9 10 19 23 29 34 37 40 41 43 47 50 
46(3)->1 5 11 26 29 30 35 41 
47(5)->1 8 9 12 16 19 21 23 27 35 36 38 41 45 
48(4)->1 2 3 5 16 19 20 22 26 29 34 35 
49(3)->1 2 21 22 24 27 32 34 35 37 43 44 
50(0)->8 24 26 43 44 45 
COUNT: 97814
COLORS: 7
EDGES: 350
97814
