1: 2 3 4 5 6 7 8 9 10 11 12 13 14 15 16 17 18 19 20 21 22 23 24 25 26 27 28 29 30 31 32 33 34 35 36 37 38 39 40 41 42 43 44 45 46 47 48 49
2: 1 3 4 5 6 7 8 9 10 11 12 13 14 15 16 17 18 19 20 21 22 23 24 25 26 27 28 29 32 33 34 35 38 39 41 43 45 46 47 50
3: 1 2 4 5 6 7 8 9 10 11 12 14 15 18 19 20 21 22 23 24 26 27 28 36 39 42 50
4: 1 2 3 5 6 7 8 10 15 18 19 20 23 25 26 27 39 41 43 45 46 50
5: 1 2 3 4 6 7 10 16 18 19 21 23 27 30 31 32 33 34 41 42 44 47 50
6: 1 2 3 4 5 7 9 12 19 20 22 24 26 27 30 31 33 34 35 36 37 41 42 46 48 50
7: 1 34 3 4 5 6 40 9 42 18 45 13 48 50 20 21 2 25 30
8: 32 1 34 3 36 40 11 13 45 15 49 18 24 2 29 4 31
9: 32 1 2 3 6 7 10 43 13 34 14 45 16 18 27
10: 48 34 3 36 5 17 9 1 2 46 47 16 49 18 41 22 23 4 28 31
11: 32 33 2 34 1 40 44 45 16 49 3 21 8 23 24 26 30
12: 1 2 3 6 40 45 47 18 20 22 26 29
13: 32 1 2 7 8 9 46 44 45 14 50 19 21 22 25 29 30
14: 32 33 2 3 36 37 38 1 40 41 43 44 13 46 16 50 9 24 25 29 30
15: 32 1 2 3 4 38 33 8 39 16 49 50 21 24 31
16: 32 1 34 5 9 10 11 2 14 15 49 19 37 30 31
17: 1 34 35 41 10 43 2 46 49 21 24 25 28 30 31
18: 33 2 3 4 5 1 8 9 10 7 12 19 21 26 28
19: 1 2 3 36 38 6 39 41 42 43 13 46 47 16 18 20 48 22 25 4 5
20: 32 1 2 3 4 6 38 7 12 50 19 23 25 29 30
21: 32 1 2 3 37 38 7 11 13 46 15 17 18 24 49 31 26 30 5
22: 1 2 3 6 12 10 44 13 48 49 19 26 30 31
23: 1 2 3 4 37 39 40 41 42 11 45 46 47 50 20 10 5
24: 1 2 11 36 6 38 8 43 45 14 15 17 3 21 40 25 28 30
25: 1 34 4 37 7 40 2 44 13 14 47 49 19 20 17 24 29 30 31
26: 1 2 3 4 6 40 12 11 44 46 48 18 21 22 29 31
27: 32 1 2 35 4 5 6 39 9 44 45 46 3 31
28: 1 2 50 10 34 45 17 18 3 24
29: 32 33 34 37 1 8 41 2 12 13 14 47 40 50 20 46 25 26 30
30: 16 1 5 6 7 11 44 13 14 48 17 20 21 22 24 25 33 29 37
31: 1 35 5 6 39 8 10 44 15 16 17 49 21 22 25 26 27 42
32: 1 34 11 36 5 39 8 9 43 13 14 15 16 49 20 21 2 27 29
33: 1 2 35 36 5 6 40 42 11 44 14 15 49 18 43 38 29 30
34: 32 1 2 17 37 6 7 8 9 10 11 45 16 49 50 48 25 38 28 29 5
35: 1 2 36 33 6 39 40 41 17 27 31
36: 32 33 3 37 6 1 8 10 43 14 48 40 50 19 24 35
37: 1 34 36 6 40 14 44 46 16 21 23 25 29 30
38: 33 2 1 40 43 34 46 15 19 20 14 24 21
39: 32 1 2 35 4 3 43 15 50 19 23 27 31
40: 33 35 36 37 38 7 8 41 42 11 12 14 47 1 23 24 25 26 29
41: 1 2 35 4 5 6 17 40 10 14 48 49 19 23 29
42: 33 3 1 5 6 7 40 46 49 19 23 31
43: 32 33 2 4 38 39 9 14 48 17 50 19 1 24 36
44: 33 37 1 11 45 46 13 50 14 22 25 26 27 5 30 31
45: 1 34 4 7 8 9 11 44 13 12 49 23 24 2 27 28
46: 1 2 6 4 37 38 42 44 13 14 29 48 17 19 21 23 26 27 10
47: 1 2 5 40 10 12 19 23 25 29
48: 1 34 36 6 7 41 10 43 46 19 22 26 30
49: 32 33 34 1 8 41 10 11 45 15 16 17 50 21 22 25 42 31
50: 2 3 36 5 6 39 7 44 13 14 15 34 43 20 23 4 49 28 29
-------
1(-1)->2 3 4 5 6 7 8 9 10 11 12 13 14 15 16 17 18 19 20 21 22 23 24 25 26 27 28 29 30 31 32 33 34 35 36 37 38 39 40 41 42 43 44 45 46 47 48 49 
2(-1)->1 3 4 5 6 7 8 9 10 11 12 13 14 15 16 17 18 19 20 21 22 23 24 25 26 27 28 29 32 33 34 35 38 39 41 43 45 46 47 50 
3(-1)->1 2 4 5 6 7 8 9 10 11 12 14 15 18 19 20 21 22 23 24 26 27 28 36 39 42 50 
4(-1)->1 2 3 5 6 7 8 10 15 18 19 20 23 25 26 27 39 41 43 45 46 50 
5(-1)->1 2 3 4 6 7 10 16 18 19 21 23 27 30 31 32 33 34 41 42 44 47 50 
6(-1)->1 2 3 4 5 7 9 12 19 20 22 24 26 27 30 31 33 34 35 36 37 41 42 46 48 50 
7(-1)->1 2 3 4 5 6 9 13 18 20 21 25 30 34 40 42 45 48 50 
8(-1)->1 2 3 4 11 13 15 18 24 29 31 32 34 36 40 45 49 
9(-1)->1 2 3 6 7 10 13 14 16 18 27 32 34 43 45 
10(-1)->1 2 3 4 5 9 16 17 18 22 23 28 31 34 36 41 46 47 48 49 
11(-1)->1 2 3 8 16 21 23 24 26 30 32 33 34 40 44 45 49 
12(-1)->1 2 3 6 18 20 22 26 29 40 45 47 
13(-1)->1 2 7 8 9 14 19 21 22 25 29 30 32 44 45 46 50 
14(-1)->1 2 3 9 13 16 24 25 29 30 32 33 36 37 38 40 41 43 44 46 50 
15(-1)->1 2 3 4 8 16 21 24 31 32 33 38 39 49 50 
16(-1)->1 2 5 9 10 11 14 15 19 30 31 32 34 37 49 
17(-1)->1 2 10 21 24 25 28 30 31 34 35 41 43 46 49 
18(-1)->1 2 3 4 5 7 8 9 10 12 19 21 26 28 33 
19(-1)->1 2 3 4 5 6 13 16 18 20 22 25 36 38 39 41 42 43 46 47 48 
20(-1)->1 2 3 4 6 7 12 19 23 25 29 30 32 38 50 
21(-1)->1 2 3 5 7 11 13 15 17 18 24 26 30 31 32 37 38 46 49 
22(-1)->1 2 3 6 10 12 13 19 26 30 31 44 48 49 
23(-1)->1 2 3 4 5 10 11 20 37 39 40 41 42 45 46 47 50 
24(-1)->1 2 3 6 8 11 14 15 17 21 25 28 30 36 38 40 43 45 
25(-1)->1 2 4 7 13 14 17 19 20 24 29 30 31 34 37 40 44 47 49 
26(-1)->1 2 3 4 6 11 12 18 21 22 29 31 40 44 46 48 
27(-1)->1 2 3 4 5 6 9 31 32 35 39 44 45 46 
28(-1)->1 2 3 10 17 18 24 34 45 50 
29(-1)->1 2 8 12 13 14 20 25 26 30 32 33 34 37 40 41 46 47 50 
30(-1)->1 5 6 7 11 13 14 16 17 20 21 22 24 25 29 33 37 44 48 
31(-1)->1 5 6 8 10 15 16 17 21 22 25 26 27 35 39 42 44 49 
32(-1)->1 2 5 8 9 11 13 14 15 16 20 21 27 29 34 36 39 43 49 
33(-1)->1 2 5 6 11 14 15 18 29 30 35 36 38 40 42 43 44 49 
34(-1)->1 2 5 6 7 8 9 10 11 16 17 25 28 29 32 37 38 45 48 49 50 
35(-1)->1 2 6 17 27 31 33 36 39 40 41 
36(-1)->1 3 6 8 10 14 19 24 32 33 35 37 40 43 48 50 
37(-1)->1 6 14 16 21 23 25 29 30 34 36 40 44 46 
38(-1)->1 2 14 15 19 20 21 24 33 34 40 43 46 
39(-1)->1 2 3 4 15 19 23 27 31 32 35 43 50 
40(-1)->1 7 8 11 12 14 23 24 25 26 29 33 35 36 37 38 41 42 47 
41(-1)->1 2 4 5 6 10 14 17 19 23 29 35 40 48 49 
42(-1)->1 3 5 6 7 19 23 31 33 40 46 49 
43(-1)->1 2 4 9 14 17 19 24 32 33 36 38 39 48 50 
44(-1)->1 5 11 13 14 22 25 26 27 30 31 33 37 45 46 50 
45(-1)->1 2 4 7 8 9 11 12 13 23 24 27 28 34 44 49 
46(-1)->1 2 4 6 10 13 14 17 19 21 23 26 27 29 37 38 42 44 48 
47(-1)->1 2 5 10 12 19 23 25 29 40 
48(-1)->1 6 7 10 19 22 26 30 34 36 41 43 46 
49(-1)->1 8 10 11 15 16 17 21 22 25 31 32 33 34 41 42 45 50 
50(-1)->2 3 4 5 6 7 13 14 15 20 23 28 29 34 36 39 43 44 49 
-------
Node 1 maps to position 0
Node 2 maps to position 1
Node 3 maps to position 2
Node 6 maps to position 3
Node 5 maps to position 4
Node 4 maps to position 5
Node 14 maps to position 6
Node 19 maps to position 7
Node 34 maps to position 8
Node 10 maps to position 9
Node 7 maps to position 10
Node 21 maps to position 11
Node 25 maps to position 12
Node 29 maps to position 13
Node 30 maps to position 14
Node 32 maps to position 15
Node 40 maps to position 16
Node 46 maps to position 17
Node 50 maps to position 18
Node 24 maps to position 19
Node 31 maps to position 20
Node 33 maps to position 21
Node 49 maps to position 22
Node 8 maps to position 23
Node 11 maps to position 24
Node 13 maps to position 25
Node 23 maps to position 26
Node 26 maps to position 27
Node 36 maps to position 28
Node 44 maps to position 29
Node 45 maps to position 30
Node 9 maps to position 31
Node 15 maps to position 32
Node 16 maps to position 33
Node 17 maps to position 34
Node 18 maps to position 35
Node 20 maps to position 36
Node 41 maps to position 37
Node 43 maps to position 38
Node 22 maps to position 39
Node 27 maps to position 40
Node 37 maps to position 41
Node 38 maps to position 42
Node 39 maps to position 43
Node 48 maps to position 44
Node 12 maps to position 45
Node 42 maps to position 46
Node 35 maps to position 47
Node 28 maps to position 48
Node 47 maps to position 49
1(-1)->2 3 4 5 6 7 8 9 10 11 12 13 14 15 16 17 18 19 20 21 22 23 24 25 26 27 28 29 30 31 32 33 34 35 36 37 38 39 40 41 42 43 44 45 46 47 48 49 
2(-1)->1 3 4 5 6 7 8 9 10 11 12 13 14 15 16 17 18 19 20 21 22 23 24 25 26 27 28 29 32 33 34 35 38 39 41 43 45 46 47 50 
3(-1)->1 2 4 5 6 7 8 9 10 11 12 14 15 18 19 20 21 22 23 24 26 27 28 36 39 42 50 
6(-1)->1 2 3 4 5 7 9 12 19 20 22 24 26 27 30 31 33 34 35 36 37 41 42 46 48 50 
5(-1)->1 2 3 4 6 7 10 16 18 19 21 23 27 30 31 32 33 34 41 42 44 47 50 
4(-1)->1 2 3 5 6 7 8 10 15 18 19 20 23 25 26 27 39 41 43 45 46 50 
14(-1)->1 2 3 9 13 16 24 25 29 30 32 33 36 37 38 40 41 43 44 46 50 
19(-1)->1 2 3 4 5 6 13 16 18 20 22 25 36 38 39 41 42 43 46 47 48 
34(-1)->1 2 5 6 7 8 9 10 11 16 17 25 28 29 32 37 38 45 48 49 50 
10(-1)->1 2 3 4 5 9 16 17 18 22 23 28 31 34 36 41 46 47 48 49 
7(-1)->1 2 3 4 5 6 9 13 18 20 21 25 30 34 40 42 45 48 50 
21(-1)->1 2 3 5 7 11 13 15 17 18 24 26 30 31 32 37 38 46 49 
25(-1)->1 2 4 7 13 14 17 19 20 24 29 30 31 34 37 40 44 47 49 
29(-1)->1 2 8 12 13 14 20 25 26 30 32 33 34 37 40 41 46 47 50 
30(-1)->1 5 6 7 11 13 14 16 17 20 21 22 24 25 29 33 37 44 48 
32(-1)->1 2 5 8 9 11 13 14 15 16 20 21 27 29 34 36 39 43 49 
40(-1)->1 7 8 11 12 14 23 24 25 26 29 33 35 36 37 38 41 42 47 
46(-1)->1 2 4 6 10 13 14 17 19 21 23 26 27 29 37 38 42 44 48 
50(-1)->2 3 4 5 6 7 13 14 15 20 23 28 29 34 36 39 43 44 49 
24(-1)->1 2 3 6 8 11 14 15 17 21 25 28 30 36 38 40 43 45 
31(-1)->1 5 6 8 10 15 16 17 21 22 25 26 27 35 39 42 44 49 
33(-1)->1 2 5 6 11 14 15 18 29 30 35 36 38 40 42 43 44 49 
49(-1)->1 8 10 11 15 16 17 21 22 25 31 32 33 34 41 42 45 50 
8(-1)->1 2 3 4 11 13 15 18 24 29 31 32 34 36 40 45 49 
11(-1)->1 2 3 8 16 21 23 24 26 30 32 33 34 40 44 45 49 
13(-1)->1 2 7 8 9 14 19 21 22 25 29 30 32 44 45 46 50 
23(-1)->1 2 3 4 5 10 11 20 37 39 40 41 42 45 46 47 50 
26(-1)->1 2 3 4 6 11 12 18 21 22 29 31 40 44 46 48 
36(-1)->1 3 6 8 10 14 19 24 32 33 35 37 40 43 48 50 
44(-1)->1 5 11 13 14 22 25 26 27 30 31 33 37 45 46 50 
45(-1)->1 2 4 7 8 9 11 12 13 23 24 27 28 34 44 49 
9(-1)->1 2 3 6 7 10 13 14 16 18 27 32 34 43 45 
15(-1)->1 2 3 4 8 16 21 24 31 32 33 38 39 49 50 
16(-1)->1 2 5 9 10 11 14 15 19 30 31 32 34 37 49 
17(-1)->1 2 10 21 24 25 28 30 31 34 35 41 43 46 49 
18(-1)->1 2 3 4 5 7 8 9 10 12 19 21 26 28 33 
20(-1)->1 2 3 4 6 7 12 19 23 25 29 30 32 38 50 
41(-1)->1 2 4 5 6 10 14 17 19 23 29 35 40 48 49 
43(-1)->1 2 4 9 14 17 19 24 32 33 36 38 39 48 50 
22(-1)->1 2 3 6 10 12 13 19 26 30 31 44 48 49 
27(-1)->1 2 3 4 5 6 9 31 32 35 39 44 45 46 
37(-1)->1 6 14 16 21 23 25 29 30 34 36 40 44 46 
38(-1)->1 2 14 15 19 20 21 24 33 34 40 43 46 
39(-1)->1 2 3 4 15 19 23 27 31 32 35 43 50 
48(-1)->1 6 7 10 19 22 26 30 34 36 41 43 46 
12(-1)->1 2 3 6 18 20 22 26 29 40 45 47 
42(-1)->1 3 5 6 7 19 23 31 33 40 46 49 
35(-1)->1 2 6 17 27 31 33 36 39 40 41 
28(-1)->1 2 3 10 17 18 24 34 45 50 
47(-1)->1 2 5 10 12 19 23 25 29 40 
-------
BLAH
START TIME: 1433098871
10000
20000
30000
40000
50000
60000
70000
80000
90000
1(0)->2 3 4 5 6 7 8 9 10 11 12 13 14 15 16 17 18 19 20 21 22 23 24 25 26 27 28 29 30 31 32 33 34 35 36 37 38 39 40 41 42 43 44 45 46 47 48 49 
2(1)->1 3 4 5 6 7 8 9 10 11 12 13 14 15 16 17 18 19 20 21 22 23 24 25 26 27 28 29 32 33 34 35 38 39 41 43 45 46 47 50 
3(2)->1 2 4 5 6 7 8 9 10 11 12 14 15 18 19 20 21 22 23 24 26 27 28 36 39 42 50 
4(5)->1 2 3 5 6 7 8 10 15 18 19 20 23 25 26 27 39 41 43 45 46 50 
5(4)->1 2 3 4 6 7 10 16 18 19 21 23 27 30 31 32 33 34 41 42 44 47 50 
6(3)->1 2 3 4 5 7 9 12 19 20 22 24 26 27 30 31 33 34 35 36 37 41 42 46 48 50 
7(6)->1 2 3 4 5 6 9 13 18 20 21 25 30 34 40 42 45 48 50 
8(4)->1 2 3 4 11 13 15 18 24 29 31 32 34 36 40 45 49 
9(4)->1 2 3 6 7 10 13 14 16 18 27 32 34 43 45 
10(3)->1 2 3 4 5 9 16 17 18 22 23 28 31 34 36 41 46 47 48 49 
11(7)->1 2 3 8 16 21 23 24 26 30 32 33 34 40 44 45 49 
12(4)->1 2 3 6 18 20 22 26 29 40 45 47 
13(2)->1 2 7 8 9 14 19 21 22 25 29 30 32 44 45 46 50 
14(3)->1 2 3 9 13 16 24 25 29 30 32 33 36 37 38 40 41 43 44 46 50 
15(7)->1 2 3 4 8 16 21 24 31 32 33 38 39 49 50 
16(5)->1 2 5 9 10 11 14 15 19 30 31 32 34 37 49 
17(5)->1 2 10 21 24 25 28 30 31 34 35 41 43 46 49 
18(7)->1 2 3 4 5 7 8 9 10 12 19 21 26 28 33 
19(6)->1 2 3 4 5 6 13 16 18 20 22 25 36 38 39 41 42 43 46 47 48 
20(7)->1 2 3 4 6 7 12 19 23 25 29 30 32 38 50 
21(3)->1 2 3 5 7 11 13 15 17 18 24 26 30 31 32 37 38 46 49 
22(7)->1 2 3 6 10 12 13 19 26 30 31 44 48 49 
23(6)->1 2 3 4 5 10 11 20 37 39 40 41 42 45 46 47 50 
24(6)->1 2 3 6 8 11 14 15 17 21 25 28 30 36 38 40 43 45 
25(4)->1 2 4 7 13 14 17 19 20 24 29 30 31 34 37 40 44 47 49 
26(6)->1 2 3 4 6 11 12 18 21 22 29 31 40 44 46 48 
27(7)->1 2 3 4 5 6 9 31 32 35 39 44 45 46 
28(4)->1 2 3 10 17 18 24 34 45 50 
29(5)->1 2 8 12 13 14 20 25 26 30 32 33 34 37 40 41 46 47 50 
30(1)->1 5 6 7 11 13 14 16 17 20 21 22 24 25 29 33 37 44 48 
31(2)->1 5 6 8 10 15 16 17 21 22 25 26 27 35 39 42 44 49 
32(6)->1 2 5 8 9 11 13 14 15 16 20 21 27 29 34 36 39 43 49 
33(6)->1 2 5 6 11 14 15 18 29 30 35 36 38 40 42 43 44 49 
34(2)->1 2 5 6 7 8 9 10 11 16 17 25 28 29 32 37 38 45 48 49 50 
35(4)->1 2 6 17 27 31 33 36 39 40 41 
36(1)->1 3 6 8 10 14 19 24 32 33 35 37 40 43 48 50 
37(7)->1 6 14 16 21 23 25 29 30 34 36 40 44 46 
38(5)->1 2 14 15 19 20 21 24 33 34 40 43 46 
39(3)->1 2 3 4 15 19 23 27 31 32 35 43 50 
40(2)->1 7 8 11 12 14 23 24 25 26 29 33 35 36 37 38 41 42 47 
41(7)->1 2 4 5 6 10 14 17 19 23 29 35 40 48 49 
42(5)->1 3 5 6 7 19 23 31 33 40 46 49 
43(2)->1 2 4 9 14 17 19 24 32 33 36 38 39 48 50 
44(5)->1 5 11 13 14 22 25 26 27 30 31 33 37 45 46 50 
45(3)->1 2 4 7 8 9 11 12 13 23 24 27 28 34 44 49 
46(4)->1 2 4 6 10 13 14 17 19 21 23 26 27 29 37 38 42 44 48 
47(7)->1 2 5 10 12 19 23 25 29 40 
48(5)->1 6 7 10 19 22 26 30 34 36 41 43 46 
49(1)->1 8 10 11 15 16 17 21 22 25 31 32 33 34 41 42 45 50 
50(0)->2 3 4 5 6 7 13 14 15 20 23 28 29 34 36 39 43 44 49 
COUNT: 91923
COLORS: 8
EDGES: 450
91923
