-1=-1,-1,-1
-1=-1,-1,-1
-1=-1,-1,-1
41=-1,-1,-1
-1=-1,-1,-1
-1=-1,-1,-1
27=-1,-1,-1
-1=-1,-1,-1
48=-1,-1,-1
-1=-1,-1,-1
44=48,-1,-1
-1=-1,-1,-1
-1=-1,-1,-1
-1=-1,-1,-1
-1=-1,-1,-1
-1=-1,-1,-1
-1=-1,-1,-1
-1=-1,-1,-1
39=-1,-1,-1
-1=-1,-1,-1
-1=-1,-1,-1
-1=-1,-1,-1
1=39,-1,-1
48=-1,-1,-1
-1=-1,-1,-1
-1=-1,-1,-1
-1=-1,-1,-1
-1=-1,-1,-1
-1=-1,-1,-1
-1=-1,-1,-1
30=-1,-1,-1
-1=-1,-1,-1
12=-1,-1,-1
-1=-1,-1,-1
25=-1,-1,-1
-1=30,-1,-1
-1=-1,-1,-1
-1=-1,-1,-1
-1=-1,-1,-1
29=-1,-1,-1
-1=-1,-1,-1
-1=-1,-1,-1
39=-1,-1,-1
9=44,-1,-1
-1=1,-1,-1
-1=-1,-1,-1
-1=-1,-1,-1
-1=-1,-1,-1
14=-1,-1,-1
-1=-1,-1,-1
6=-1,-1,-1
-1=-1,-1,-1
33=-1,-1,-1
-1=-1,-1,-1
-1=-1,-1,-1
-1=25,-1,-1
-1=33,-1,-1
-1=-1,-1,-1
36=-1,-1,-1
-1=48,-1,-1
-1=-1,-1,-1
23=27,-1,-1
-1=41,-1,-1
-1=23,-1,-1
-1=-1,-1,-1
-1=-1,-1,-1
27=-1,-1,-1
-1=-1,-1,-1
-1=-1,-1,-1
-1=-1,-1,-1
25=-1,-1,-1
-1=-1,-1,-1
-1=-1,-1,-1
-1=-1,-1,-1
-1=-1,-1,-1
-1=-1,-1,-1
-1=-1,-1,-1
23=-1,-1,-1
-1=-1,-1,-1
-1=23,-1,-1
1=-1,-1,-1
-1=-1,-1,-1
5=12,-1,-1
23=-1,-1,-1
-1=-1,-1,-1
-1=-1,-1,-1
-1=-1,-1,-1
-1=5,29,-1
-1=-1,-1,-1
-1=-1,-1,-1
-1=14,-1,-1
-1=-1,-1,-1
-1=-1,-1,-1
-1=-1,-1,-1
-1=23,-1,-1
-1=-1,-1,-1
12=-1,-1,-1
-1=-1,-1,-1
-1=-1,-1,-1
-1=-1,-1,-1
-1=-1,-1,-1
-1=-1,-1,-1
-1=-1,-1,-1
-1=6,36,-1
-1=-1,-1,-1
-1=-1,-1,-1
-1=-1,-1,-1
-1=25,-1,-1
-1=-1,-1,-1
46=-1,-1,-1
-1=-1,-1,-1
-1=-1,-1,-1
-1=-1,-1,-1
-1=-1,-1,-1
-1=12,-1,-1
30=1,-1,-1
-1=39,-1,-1
18=-1,-1,-1
10=46,-1,-1
5=27,-1,-1
-1=-1,-1,-1
-1=-1,-1,-1
-1=-1,-1,-1
-1=-1,-1,-1
-1=-1,-1,-1
-1=18,-1,-1
-1=10,-1,-1
-1=-1,-1,-1
-1=-1,-1,-1
-1=30,-1,-1
-1=-1,-1,-1
-1=-1,-1,-1
-1=9,-1,-1
31=-1,-1,-1
-1=-1,-1,-1
-1=-1,-1,-1
-1=-1,-1,-1
22=-1,-1,-1
3=-1,-1,-1
-1=-1,-1,-1
-1=-1,-1,-1
-1=-1,-1,-1
-1=-1,-1,-1
-1=-1,-1,-1
-1=-1,-1,-1
-1=-1,-1,-1
-1=-1,-1,-1
-1=-1,-1,-1
-1=-1,-1,-1
-1=3,-1,-1
-1=-1,-1,-1
-1=22,-1,-1
-1=-1,-1,-1
-1=-1,-1,-1
-1=5,-1,-1
-1=-1,-1,-1
-1=-1,-1,-1
-1=-1,-1,-1
-1=-1,-1,-1
-1=-1,-1,-1
-1=-1,-1,-1
-1=-1,-1,-1
-1=-1,-1,-1
43=-1,-1,-1
-1=-1,-1,-1
17=31,-1,-1
-1=-1,-1,-1
-1=-1,-1,-1
-1=-1,-1,-1
-1=-1,-1,-1
9=-1,-1,-1
40=43,-1,-1
-1=40,-1,-1
38=17,-1,-1
-1=-1,-1,-1
29=-1,-1,-1
-1=-1,-1,-1
-1=-1,-1,-1
-1=38,-1,-1
11=29,-1,-1
-1=-1,-1,-1
-1=-1,-1,-1
-1=-1,-1,-1
-1=-1,-1,-1
-1=9,-1,-1
-1=-1,-1,-1
-1=-1,-1,-1
35=-1,-1,-1
29=11,-1,-1
-1=29,35,-1
-1=-1,-1,-1
-1=-1,-1,-1
8=-1,-1,-1
-1=-1,-1,-1
-1=8,-1,-1
-1=-1,-1,-1
47=-1,-1,-1
-1=47,-1,-1
-1=-1,-1,-1
-1=-1,-1,-1
--------
,
,
47 ,
,47 
,
8 ,
8 ,8 
,8 
,
,
29 35 ,
11 35 ,29 35 
11 ,11 35 
11 ,11 
11 ,11 
9 11 ,11 
9 11 ,9 11 
9 11 ,9 11 
9 11 ,9 11 
9 11 ,9 11 
9 29 ,9 11 
9 29 38 ,9 29 
9 29 38 ,9 29 38 
9 29 38 ,9 29 38 
9 38 ,9 29 38 
9 38 ,9 38 
9 17 ,9 38 
9 17 40 ,9 17 
9 17 43 ,9 17 40 
17 43 ,9 17 43 
17 43 ,17 43 
17 43 ,17 43 
17 43 ,17 43 
17 43 ,17 43 
31 43 ,17 43 
31 43 ,31 43 
31 ,31 43 
31 ,31 
31 ,31 
31 ,31 
31 ,31 
31 ,31 
31 ,31 
31 ,31 
31 ,31 
5 31 ,31 
5 31 ,5 31 
5 31 ,5 31 
5 22 31 ,5 31 
5 22 31 ,5 22 31 
3 5 22 31 ,5 22 31 
3 5 22 31 ,3 5 22 31 
3 5 22 31 ,3 5 22 31 
3 5 22 31 ,3 5 22 31 
3 5 22 31 ,3 5 22 31 
3 5 22 31 ,3 5 22 31 
3 5 22 31 ,3 5 22 31 
3 5 22 31 ,3 5 22 31 
3 5 22 31 ,3 5 22 31 
3 5 22 31 ,3 5 22 31 
3 5 22 31 ,3 5 22 31 
5 22 31 ,3 5 22 31 
5 31 ,5 22 31 
5 31 ,5 31 
5 31 ,5 31 
5 31 ,5 31 
5 ,5 31 
5 9 ,5 
5 9 ,5 9 
5 9 ,5 9 
5 9 30 ,5 9 
5 9 30 ,5 9 30 
5 9 30 ,5 9 30 
5 9 10 30 ,5 9 30 
5 9 10 18 30 ,5 9 10 30 
5 9 10 18 30 ,5 9 10 18 30 
5 9 10 18 30 ,5 9 10 18 30 
5 9 10 18 30 ,5 9 10 18 30 
5 9 10 18 30 ,5 9 10 18 30 
5 9 10 18 30 ,5 9 10 18 30 
9 10 18 27 30 ,5 9 10 18 30 
9 18 27 30 46 ,9 10 18 27 30 
9 27 30 46 ,9 18 27 30 46 
9 27 30 39 46 ,9 27 30 46 
1 9 27 39 46 ,9 27 30 39 46 
1 9 12 27 39 46 ,1 9 27 39 46 
1 9 12 27 39 46 ,1 9 12 27 39 46 
1 9 12 27 39 46 ,1 9 12 27 39 46 
1 9 12 27 39 46 ,1 9 12 27 39 46 
1 9 12 27 39 46 ,1 9 12 27 39 46 
1 9 12 27 39 ,1 9 12 27 39 46 
1 9 12 27 39 ,1 9 12 27 39 
1 9 12 25 27 39 ,1 9 12 27 39 
1 9 12 25 27 39 ,1 9 12 25 27 39 
1 9 12 25 27 39 ,1 9 12 25 27 39 
1 9 12 25 27 39 ,1 9 12 25 27 39 
1 6 9 12 25 27 36 39 ,1 9 12 25 27 39 
1 6 9 12 25 27 36 39 ,1 6 9 12 25 27 36 39 
1 6 9 12 25 27 36 39 ,1 6 9 12 25 27 36 39 
1 6 9 12 25 27 36 39 ,1 6 9 12 25 27 36 39 
1 6 9 12 25 27 36 39 ,1 6 9 12 25 27 36 39 
1 6 9 12 25 27 36 39 ,1 6 9 12 25 27 36 39 
1 6 9 12 25 27 36 39 ,1 6 9 12 25 27 36 39 
1 6 9 25 27 36 39 ,1 6 9 12 25 27 36 39 
1 6 9 25 27 36 39 ,1 6 9 25 27 36 39 
1 6 9 23 25 27 36 39 ,1 6 9 25 27 36 39 
1 6 9 23 25 27 36 39 ,1 6 9 23 25 27 36 39 
1 6 9 23 25 27 36 39 ,1 6 9 23 25 27 36 39 
1 6 9 23 25 27 36 39 ,1 6 9 23 25 27 36 39 
1 6 9 14 23 25 27 36 39 ,1 6 9 23 25 27 36 39 
1 6 9 14 23 25 27 36 39 ,1 6 9 14 23 25 27 36 39 
1 6 9 14 23 25 27 36 39 ,1 6 9 14 23 25 27 36 39 
1 5 6 9 14 23 25 27 29 36 39 ,1 6 9 14 23 25 27 36 39 
1 5 6 9 14 23 25 27 29 36 39 ,1 5 6 9 14 23 25 27 29 36 39 
1 5 6 9 14 23 25 27 29 36 39 ,1 5 6 9 14 23 25 27 29 36 39 
1 5 6 9 14 23 25 27 29 36 39 ,1 5 6 9 14 23 25 27 29 36 39 
1 5 6 9 14 25 27 29 36 39 ,1 5 6 9 14 23 25 27 29 36 39 
1 6 9 12 14 25 27 29 36 39 ,1 5 6 9 14 25 27 29 36 39 
1 6 9 12 14 25 27 29 36 39 ,1 6 9 12 14 25 27 29 36 39 
6 9 12 14 25 27 29 36 39 ,1 6 9 12 14 25 27 29 36 39 
6 9 12 14 23 25 27 29 36 39 ,6 9 12 14 25 27 29 36 39 
6 9 12 14 23 25 27 29 36 39 ,6 9 12 14 23 25 27 29 36 39 
6 9 12 14 25 27 29 36 39 ,6 9 12 14 23 25 27 29 36 39 
6 9 12 14 25 27 29 36 39 ,6 9 12 14 25 27 29 36 39 
6 9 12 14 25 27 29 36 39 ,6 9 12 14 25 27 29 36 39 
6 9 12 14 25 27 29 36 39 ,6 9 12 14 25 27 29 36 39 
6 9 12 14 25 27 29 36 39 ,6 9 12 14 25 27 29 36 39 
6 9 12 14 25 27 29 36 39 ,6 9 12 14 25 27 29 36 39 
6 9 12 14 25 27 29 36 39 ,6 9 12 14 25 27 29 36 39 
6 9 12 14 27 29 36 39 ,6 9 12 14 25 27 29 36 39 
6 9 12 14 27 29 36 39 ,6 9 12 14 27 29 36 39 
6 9 12 14 27 29 36 39 ,6 9 12 14 27 29 36 39 
6 9 12 14 27 29 36 39 ,6 9 12 14 27 29 36 39 
6 9 12 14 29 36 39 ,6 9 12 14 27 29 36 39 
6 9 12 14 29 36 39 ,6 9 12 14 29 36 39 
6 9 12 14 29 36 39 ,6 9 12 14 29 36 39 
6 9 12 14 23 29 36 39 ,6 9 12 14 29 36 39 
6 9 12 14 23 29 36 39 41 ,6 9 12 14 23 29 36 39 
6 9 12 14 27 29 36 39 41 ,6 9 12 14 23 29 36 39 41 
6 9 12 14 27 29 36 39 41 ,6 9 12 14 27 29 36 39 41 
6 9 12 14 27 29 36 39 41 48 ,6 9 12 14 27 29 36 39 41 
6 9 12 14 27 29 39 41 48 ,6 9 12 14 27 29 36 39 41 48 
6 9 12 14 27 29 39 41 48 ,6 9 12 14 27 29 39 41 48 
6 9 12 14 27 29 33 39 41 48 ,6 9 12 14 27 29 39 41 48 
6 9 12 14 25 27 29 33 39 41 48 ,6 9 12 14 27 29 33 39 41 48 
6 9 12 14 25 27 29 33 39 41 48 ,6 9 12 14 25 27 29 33 39 41 48 
6 9 12 14 25 27 29 33 39 41 48 ,6 9 12 14 25 27 29 33 39 41 48 
6 9 12 14 25 27 29 39 41 48 ,6 9 12 14 25 27 29 33 39 41 48 
6 9 12 14 25 27 29 39 41 48 ,6 9 12 14 25 27 29 39 41 48 
9 12 14 25 27 29 39 41 48 ,6 9 12 14 25 27 29 39 41 48 
9 12 14 25 27 29 39 41 48 ,9 12 14 25 27 29 39 41 48 
9 12 25 27 29 39 41 48 ,9 12 14 25 27 29 39 41 48 
9 12 25 27 29 39 41 48 ,9 12 25 27 29 39 41 48 
9 12 25 27 29 39 41 48 ,9 12 25 27 29 39 41 48 
9 12 25 27 29 39 41 48 ,9 12 25 27 29 39 41 48 
1 9 12 25 27 29 39 41 48 ,9 12 25 27 29 39 41 48 
1 12 25 27 29 39 41 44 48 ,1 9 12 25 27 29 39 41 48 
1 12 25 27 29 41 44 48 ,1 12 25 27 29 39 41 44 48 
1 12 25 27 29 41 44 48 ,1 12 25 27 29 41 44 48 
1 12 25 27 29 41 44 48 ,1 12 25 27 29 41 44 48 
1 12 25 27 41 44 48 ,1 12 25 27 29 41 44 48 
1 12 25 27 41 44 48 ,1 12 25 27 41 44 48 
1 12 25 27 41 44 48 ,1 12 25 27 41 44 48 
1 12 25 27 41 44 48 ,1 12 25 27 41 44 48 
1 12 25 27 30 41 44 48 ,1 12 25 27 41 44 48 
1 12 27 30 41 44 48 ,1 12 25 27 30 41 44 48 
1 12 27 30 41 44 48 ,1 12 27 30 41 44 48 
1 27 30 41 44 48 ,1 12 27 30 41 44 48 
1 27 30 41 44 48 ,1 27 30 41 44 48 
1 27 41 44 48 ,1 27 30 41 44 48 
1 27 41 44 48 ,1 27 41 44 48 
1 27 41 44 48 ,1 27 41 44 48 
1 27 41 44 48 ,1 27 41 44 48 
1 27 41 44 48 ,1 27 41 44 48 
1 27 41 44 48 ,1 27 41 44 48 
1 27 41 44 48 ,1 27 41 44 48 
1 27 41 44 ,1 27 41 44 48 
27 39 41 44 ,1 27 41 44 
27 39 41 44 ,27 39 41 44 
27 39 41 44 ,27 39 41 44 
27 39 41 44 ,27 39 41 44 
27 41 44 ,27 39 41 44 
27 41 44 ,27 41 44 
27 41 44 ,27 41 44 
27 41 44 ,27 41 44 
27 41 44 ,27 41 44 
27 41 44 ,27 41 44 
27 41 44 ,27 41 44 
27 41 44 ,27 41 44 
27 41 48 ,27 41 44 
27 41 48 ,27 41 48 
27 41 ,27 41 48 
27 41 ,27 41 
41 ,27 41 
41 ,41 
41 ,41 
,41 
,
,
,
--------
,
,
47 ,
,47 
,
8 ,
8 ,8 
,8 
,
,
29 35 ,
11 35 ,29 35 
11 ,11 35 
11 ,11 
11 ,11 
9 11 ,11 
9 11 ,9 11 
9 11 ,9 11 
9 11 ,9 11 
9 11 ,9 11 
9 29 ,9 11 
9 29 38 ,9 29 
9 29 38 ,9 29 38 
9 29 38 ,9 29 38 
9 38 ,9 29 38 
9 38 ,9 38 
9 17 ,9 38 
9 17 40 ,9 17 
9 17 43 ,9 17 40 
17 43 ,9 17 43 
17 43 ,17 43 
17 43 ,17 43 
17 43 ,17 43 
17 43 ,17 43 
31 43 ,17 43 
31 43 ,31 43 
31 ,31 43 
31 ,31 
31 ,31 
31 ,31 
31 ,31 
31 ,31 
31 ,31 
31 ,31 
31 ,31 
5 31 ,31 
5 31 ,5 31 
5 31 ,5 31 
5 22 31 ,5 31 
5 22 31 ,5 22 31 
3 5 22 31 ,5 22 31 
3 5 22 31 ,3 5 22 31 
3 5 22 31 ,3 5 22 31 
3 5 22 31 ,3 5 22 31 
3 5 22 31 ,3 5 22 31 
3 5 22 31 ,3 5 22 31 
3 5 22 31 ,3 5 22 31 
3 5 22 31 ,3 5 22 31 
3 5 22 31 ,3 5 22 31 
3 5 22 31 ,3 5 22 31 
3 5 22 31 ,3 5 22 31 
5 22 31 ,3 5 22 31 
5 31 ,5 22 31 
5 31 ,5 31 
5 31 ,5 31 
5 31 ,5 31 
5 ,5 31 
5 9 ,5 
5 9 ,5 9 
5 9 ,5 9 
5 9 30 ,5 9 
5 9 30 ,5 9 30 
5 9 30 ,5 9 30 
5 9 10 30 ,5 9 30 
5 9 10 18 30 ,5 9 10 30 
5 9 10 18 30 ,5 9 10 18 30 
5 9 10 18 30 ,5 9 10 18 30 
5 9 10 18 30 ,5 9 10 18 30 
5 9 10 18 30 ,5 9 10 18 30 
5 9 10 18 30 ,5 9 10 18 30 
9 10 18 27 30 ,5 9 10 18 30 
9 18 27 30 46 ,9 10 18 27 30 
9 27 30 46 ,9 18 27 30 46 
9 27 30 39 46 ,9 27 30 46 
1 9 27 39 46 ,9 27 30 39 46 
1 9 12 27 39 46 ,1 9 27 39 46 
1 9 12 27 39 46 ,1 9 12 27 39 46 
1 9 12 27 39 46 ,1 9 12 27 39 46 
1 9 12 27 39 46 ,1 9 12 27 39 46 
1 9 12 27 39 46 ,1 9 12 27 39 46 
1 9 12 27 39 ,1 9 12 27 39 46 
1 9 12 27 39 ,1 9 12 27 39 
1 9 12 25 27 39 ,1 9 12 27 39 
1 9 12 25 27 39 ,1 9 12 25 27 39 
1 9 12 25 27 39 ,1 9 12 25 27 39 
1 9 12 25 27 39 ,1 9 12 25 27 39 
1 6 9 12 25 27 36 39 ,1 9 12 25 27 39 
1 6 9 12 25 27 36 39 ,1 6 9 12 25 27 36 39 
1 6 9 12 25 27 36 39 ,1 6 9 12 25 27 36 39 
1 6 9 12 25 27 36 39 ,1 6 9 12 25 27 36 39 
1 6 9 12 25 27 36 39 ,1 6 9 12 25 27 36 39 
1 6 9 12 25 27 36 39 ,1 6 9 12 25 27 36 39 
1 6 9 12 25 27 36 39 ,1 6 9 12 25 27 36 39 
1 6 9 25 27 36 39 ,1 6 9 12 25 27 36 39 
1 6 9 25 27 36 39 ,1 6 9 25 27 36 39 
1 6 9 23 25 27 36 39 ,1 6 9 25 27 36 39 
1 6 9 23 25 27 36 39 ,1 6 9 23 25 27 36 39 
1 6 9 23 25 27 36 39 ,1 6 9 23 25 27 36 39 
1 6 9 23 25 27 36 39 ,1 6 9 23 25 27 36 39 
1 6 9 14 23 25 27 36 39 ,1 6 9 23 25 27 36 39 
1 6 9 14 23 25 27 36 39 ,1 6 9 14 23 25 27 36 39 
1 6 9 14 23 25 27 36 39 ,1 6 9 14 23 25 27 36 39 
1 5 6 9 14 23 25 27 29 36 39 ,1 6 9 14 23 25 27 36 39 
1 5 6 9 14 23 25 27 29 36 39 ,1 5 6 9 14 23 25 27 29 36 39 
1 5 6 9 14 23 25 27 29 36 39 ,1 5 6 9 14 23 25 27 29 36 39 
1 5 6 9 14 23 25 27 29 36 39 ,1 5 6 9 14 23 25 27 29 36 39 
1 5 6 9 14 25 27 29 36 39 ,1 5 6 9 14 23 25 27 29 36 39 
1 6 9 12 14 25 27 29 36 39 ,1 5 6 9 14 25 27 29 36 39 
1 6 9 12 14 25 27 29 36 39 ,1 6 9 12 14 25 27 29 36 39 
6 9 12 14 25 27 29 36 39 ,1 6 9 12 14 25 27 29 36 39 
6 9 12 14 23 25 27 29 36 39 ,6 9 12 14 25 27 29 36 39 
6 9 12 14 23 25 27 29 36 39 ,6 9 12 14 23 25 27 29 36 39 
6 9 12 14 25 27 29 36 39 ,6 9 12 14 23 25 27 29 36 39 
6 9 12 14 25 27 29 36 39 ,6 9 12 14 25 27 29 36 39 
6 9 12 14 25 27 29 36 39 ,6 9 12 14 25 27 29 36 39 
6 9 12 14 25 27 29 36 39 ,6 9 12 14 25 27 29 36 39 
6 9 12 14 25 27 29 36 39 ,6 9 12 14 25 27 29 36 39 
6 9 12 14 25 27 29 36 39 ,6 9 12 14 25 27 29 36 39 
6 9 12 14 25 27 29 36 39 ,6 9 12 14 25 27 29 36 39 
6 9 12 14 27 29 36 39 ,6 9 12 14 25 27 29 36 39 
6 9 12 14 27 29 36 39 ,6 9 12 14 27 29 36 39 
6 9 12 14 27 29 36 39 ,6 9 12 14 27 29 36 39 
6 9 12 14 27 29 36 39 ,6 9 12 14 27 29 36 39 
6 9 12 14 29 36 39 ,6 9 12 14 27 29 36 39 
6 9 12 14 29 36 39 ,6 9 12 14 29 36 39 
6 9 12 14 29 36 39 ,6 9 12 14 29 36 39 
6 9 12 14 23 29 36 39 ,6 9 12 14 29 36 39 
6 9 12 14 23 29 36 39 41 ,6 9 12 14 23 29 36 39 
6 9 12 14 27 29 36 39 41 ,6 9 12 14 23 29 36 39 41 
6 9 12 14 27 29 36 39 41 ,6 9 12 14 27 29 36 39 41 
6 9 12 14 27 29 36 39 41 48 ,6 9 12 14 27 29 36 39 41 
6 9 12 14 27 29 39 41 48 ,6 9 12 14 27 29 36 39 41 48 
6 9 12 14 27 29 39 41 48 ,6 9 12 14 27 29 39 41 48 
6 9 12 14 27 29 33 39 41 48 ,6 9 12 14 27 29 39 41 48 
6 9 12 14 25 27 29 33 39 41 48 ,6 9 12 14 27 29 33 39 41 48 
6 9 12 14 25 27 29 33 39 41 48 ,6 9 12 14 25 27 29 33 39 41 48 
6 9 12 14 25 27 29 33 39 41 48 ,6 9 12 14 25 27 29 33 39 41 48 
6 9 12 14 25 27 29 39 41 48 ,6 9 12 14 25 27 29 33 39 41 48 
6 9 12 14 25 27 29 39 41 48 ,6 9 12 14 25 27 29 39 41 48 
9 12 14 25 27 29 39 41 48 ,6 9 12 14 25 27 29 39 41 48 
9 12 14 25 27 29 39 41 48 ,9 12 14 25 27 29 39 41 48 
9 12 25 27 29 39 41 48 ,9 12 14 25 27 29 39 41 48 
9 12 25 27 29 39 41 48 ,9 12 25 27 29 39 41 48 
9 12 25 27 29 39 41 48 ,9 12 25 27 29 39 41 48 
9 12 25 27 29 39 41 48 ,9 12 25 27 29 39 41 48 
1 9 12 25 27 29 39 41 48 ,9 12 25 27 29 39 41 48 
1 12 25 27 29 39 41 44 48 ,1 9 12 25 27 29 39 41 48 
1 12 25 27 29 41 44 48 ,1 12 25 27 29 39 41 44 48 
1 12 25 27 29 41 44 48 ,1 12 25 27 29 41 44 48 
1 12 25 27 29 41 44 48 ,1 12 25 27 29 41 44 48 
1 12 25 27 41 44 48 ,1 12 25 27 29 41 44 48 
1 12 25 27 41 44 48 ,1 12 25 27 41 44 48 
1 12 25 27 41 44 48 ,1 12 25 27 41 44 48 
1 12 25 27 41 44 48 ,1 12 25 27 41 44 48 
1 12 25 27 30 41 44 48 ,1 12 25 27 41 44 48 
1 12 27 30 41 44 48 ,1 12 25 27 30 41 44 48 
1 12 27 30 41 44 48 ,1 12 27 30 41 44 48 
1 27 30 41 44 48 ,1 12 27 30 41 44 48 
1 27 30 41 44 48 ,1 27 30 41 44 48 
1 27 41 44 48 ,1 27 30 41 44 48 
1 27 41 44 48 ,1 27 41 44 48 
1 27 41 44 48 ,1 27 41 44 48 
1 27 41 44 48 ,1 27 41 44 48 
1 27 41 44 48 ,1 27 41 44 48 
1 27 41 44 48 ,1 27 41 44 48 
1 27 41 44 48 ,1 27 41 44 48 
1 27 41 44 ,1 27 41 44 48 
27 39 41 44 ,1 27 41 44 
27 39 41 44 ,27 39 41 44 
27 39 41 44 ,27 39 41 44 
27 39 41 44 ,27 39 41 44 
27 41 44 ,27 39 41 44 
27 41 44 ,27 41 44 
27 41 44 ,27 41 44 
27 41 44 ,27 41 44 
27 41 44 ,27 41 44 
27 41 44 ,27 41 44 
27 41 44 ,27 41 44 
27 41 44 ,27 41 44 
27 41 48 ,27 41 44 
27 41 48 ,27 41 48 
27 41 ,27 41 48 
27 41 ,27 41 
41 ,27 41 
41 ,41 
41 ,41 
,41 
,
,
,
-------------
-------
1(-1)->5 6 9 12 14 23 25 27 29 30 36 39 41 44 46 48 
3(-1)->5 22 31 
5(-1)->1 3 6 9 10 14 18 22 23 25 27 29 30 31 36 39 
6(-1)->1 5 9 12 14 23 25 27 29 33 36 39 41 48 
8(-1)->
9(-1)->1 5 6 10 11 12 14 17 18 23 25 27 29 30 33 36 38 39 40 41 43 46 48 
10(-1)->5 9 18 27 30 
11(-1)->9 35 
12(-1)->1 6 9 14 23 25 27 29 30 33 36 39 41 44 46 48 
14(-1)->1 5 6 9 12 23 25 27 29 33 36 39 41 48 
17(-1)->9 40 43 
18(-1)->5 9 10 27 30 46 
22(-1)->3 5 31 
23(-1)->1 5 6 9 12 14 25 27 29 36 39 41 
25(-1)->1 5 6 9 12 14 23 27 29 30 33 36 39 41 44 48 
27(-1)->1 5 6 9 10 12 14 18 23 25 29 30 33 36 39 41 44 46 48 
29(-1)->1 5 6 9 12 14 23 25 27 33 35 36 38 39 41 44 48 
30(-1)->1 5 9 10 12 18 25 27 39 41 44 46 48 
31(-1)->3 5 22 43 
33(-1)->6 9 12 14 25 27 29 39 41 48 
35(-1)->11 29 
36(-1)->1 5 6 9 12 14 23 25 27 29 39 41 48 
38(-1)->9 29 
39(-1)->1 5 6 9 12 14 23 25 27 29 30 33 36 41 44 46 48 
40(-1)->9 17 
41(-1)->1 6 9 12 14 23 25 27 29 30 33 36 39 44 48 
43(-1)->9 17 31 
44(-1)->1 12 25 27 29 30 39 41 48 
46(-1)->1 9 12 18 27 30 39 
47(-1)->
48(-1)->1 6 9 12 14 25 27 29 30 33 36 39 41 44 
-------
Node 9 maps to position 0
Node 27 maps to position 1
Node 29 maps to position 2
Node 39 maps to position 3
Node 1 maps to position 4
Node 5 maps to position 5
Node 25 maps to position 6
Node 12 maps to position 7
Node 41 maps to position 8
Node 6 maps to position 9
Node 14 maps to position 10
Node 48 maps to position 11
Node 30 maps to position 12
Node 44 maps to position 13
Node 36 maps to position 14
Node 23 maps to position 15
Node 33 maps to position 16
Node 46 maps to position 17
Node 18 maps to position 18
Node 10 maps to position 19
Node 31 maps to position 20
Node 3 maps to position 21
Node 22 maps to position 22
Node 17 maps to position 23
Node 43 maps to position 24
Node 11 maps to position 25
Node 35 maps to position 26
Node 38 maps to position 27
Node 40 maps to position 28
Node 8 maps to position 29
Node 47 maps to position 30
9(-1)->1 5 6 10 11 12 14 17 18 23 25 27 29 30 33 36 38 39 40 41 43 46 48 
27(-1)->1 5 6 9 10 12 14 18 23 25 29 30 33 36 39 41 44 46 48 
29(-1)->1 5 6 9 12 14 23 25 27 33 35 36 38 39 41 44 48 
39(-1)->1 5 6 9 12 14 23 25 27 29 30 33 36 41 44 46 48 
1(-1)->5 6 9 12 14 23 25 27 29 30 36 39 41 44 46 48 
5(-1)->1 3 6 9 10 14 18 22 23 25 27 29 30 31 36 39 
25(-1)->1 5 6 9 12 14 23 27 29 30 33 36 39 41 44 48 
12(-1)->1 6 9 14 23 25 27 29 30 33 36 39 41 44 46 48 
41(-1)->1 6 9 12 14 23 25 27 29 30 33 36 39 44 48 
6(-1)->1 5 9 12 14 23 25 27 29 33 36 39 41 48 
14(-1)->1 5 6 9 12 23 25 27 29 33 36 39 41 48 
48(-1)->1 6 9 12 14 25 27 29 30 33 36 39 41 44 
30(-1)->1 5 9 10 12 18 25 27 39 41 44 46 48 
44(-1)->1 12 25 27 29 30 39 41 48 
36(-1)->1 5 6 9 12 14 23 25 27 29 39 41 48 
23(-1)->1 5 6 9 12 14 25 27 29 36 39 41 
33(-1)->6 9 12 14 25 27 29 39 41 48 
46(-1)->1 9 12 18 27 30 39 
18(-1)->5 9 10 27 30 46 
10(-1)->5 9 18 27 30 
31(-1)->3 5 22 43 
3(-1)->5 22 31 
22(-1)->3 5 31 
17(-1)->9 40 43 
43(-1)->9 17 31 
11(-1)->9 35 
35(-1)->11 29 
38(-1)->9 29 
40(-1)->9 17 
8(-1)->
47(-1)->
-------
BLAH
****************
****************
9(-1)->1 5 6 10 11 12 14 17 18 23 25 27 29 30 33 36 38 39 40 41 43 46 48 
27(-1)->1 5 6 9 10 12 14 18 23 25 29 30 33 36 39 41 44 46 48 
29(-1)->1 5 6 9 12 14 23 25 27 33 35 36 38 39 41 44 48 
39(-1)->1 5 6 9 12 14 23 25 27 29 30 33 36 41 44 46 48 
1(-1)->5 6 9 12 14 23 25 27 29 30 36 39 41 44 46 48 
5(-1)->1 3 6 9 10 14 18 22 23 25 27 29 30 31 36 39 
12(-1)->1 6 9 14 23 25 27 29 30 33 36 39 41 44 46 48 
25(-1)->1 5 6 9 12 14 23 27 29 30 33 36 39 41 44 48 
41(-1)->1 6 9 12 14 23 25 27 29 30 33 36 39 44 48 
6(-1)->1 5 9 12 14 23 25 27 29 33 36 39 41 48 
14(-1)->1 5 6 9 12 23 25 27 29 33 36 39 41 48 
48(-1)->1 6 9 12 14 25 27 29 30 33 36 39 41 44 
30(-1)->1 5 9 10 12 18 25 27 39 41 44 46 48 
36(-1)->1 5 6 9 12 14 23 25 27 29 39 41 48 
23(-1)->1 5 6 9 12 14 25 27 29 36 39 41 
33(-1)->6 9 12 14 25 27 29 39 41 48 
44(-1)->1 12 25 27 29 30 39 41 48 
46(-1)->1 9 12 18 27 30 39 
18(-1)->5 9 10 27 30 46 
10(-1)->5 9 18 27 30 
31(-1)->3 5 22 43 
3(-1)->5 22 31 
17(-1)->9 40 43 
22(-1)->3 5 31 
43(-1)->9 17 31 
11(-1)->9 35 
35(-1)->11 29 
38(-1)->9 29 
40(-1)->9 17 
****************
8(-1)->
****************
47(-1)->
START TIME: 1433732001
START TIME: 1433732001
START TIME: 1433732001
1(4)->5 6 9 12 14 23 25 27 29 30 36 39 41 44 46 48 
3(1)->5 22 31 
5(5)->1 3 6 9 10 14 18 22 23 25 27 29 30 31 36 39 
6(8)->1 5 9 12 14 23 25 27 29 33 36 39 41 48 
8(0)->
9(0)->1 5 6 10 11 12 14 17 18 23 25 27 29 30 33 36 38 39 40 41 43 46 48 
10(4)->5 9 18 27 30 
11(1)->9 35 
12(5)->1 6 9 14 23 25 27 29 30 33 36 39 41 44 46 48 
14(9)->1 5 6 9 12 23 25 27 29 33 36 39 41 48 
17(1)->9 40 43 
18(3)->5 9 10 27 30 46 
22(2)->3 5 31 
23(10)->1 5 6 9 12 14 25 27 29 36 39 41 
25(6)->1 5 6 9 12 14 23 27 29 30 33 36 39 41 44 48 
27(1)->1 5 6 9 10 12 14 18 23 25 29 30 33 36 39 41 44 46 48 
29(2)->1 5 6 9 12 14 23 25 27 33 35 36 38 39 41 44 48 
30(2)->1 5 9 10 12 18 25 27 39 41 44 46 48 
31(0)->3 5 22 43 
33(4)->6 9 12 14 25 27 29 39 41 48 
35(0)->11 29 
36(11)->1 5 6 9 12 14 23 25 27 29 39 41 48 
38(1)->9 29 
39(3)->1 5 6 9 12 14 23 25 27 29 30 33 36 41 44 46 48 
40(2)->9 17 
41(7)->1 6 9 12 14 23 25 27 29 30 33 36 39 44 48 
43(2)->9 17 31 
44(0)->1 12 25 27 29 30 39 41 48 
46(6)->1 9 12 18 27 30 39 
47(0)->
48(10)->1 6 9 12 14 25 27 29 30 33 36 39 41 44 
COUNT: 49
COLORS: 12
EDGES: 0
12
49
