-1=-1,-1,-1
-1=-1,-1,-1
-1=-1,-1,-1
-1=-1,-1,-1
12=-1,-1,-1
12=12,-1,-1
-1=-1,-1,-1
27=-1,-1,-1
15=-1,-1,-1
-1=-1,-1,-1
-1=-1,-1,-1
-1=-1,-1,-1
14=-1,-1,-1
44=-1,-1,-1
-1=12,-1,-1
-1=-1,-1,-1
-1=-1,-1,-1
-1=-1,-1,-1
-1=-1,-1,-1
-1=-1,-1,-1
-1=-1,-1,-1
-1=-1,-1,-1
-1=-1,-1,-1
-1=-1,-1,-1
-1=-1,-1,-1
-1=-1,-1,-1
-1=-1,-1,-1
-1=-1,-1,-1
-1=-1,-1,-1
41=-1,-1,-1
-1=-1,-1,-1
-1=-1,-1,-1
-1=-1,-1,-1
-1=-1,-1,-1
-1=-1,-1,-1
34=-1,-1,-1
-1=27,-1,-1
11=-1,-1,-1
-1=-1,-1,-1
-1=-1,-1,-1
-1=-1,-1,-1
-1=-1,-1,-1
-1=-1,-1,-1
25=-1,-1,-1
12=-1,-1,-1
19=-1,-1,-1
33=-1,-1,-1
-1=-1,-1,-1
-1=33,-1,-1
-1=-1,-1,-1
-1=-1,-1,-1
8=-1,-1,-1
-1=-1,-1,-1
-1=-1,-1,-1
-1=14,-1,-1
21=-1,-1,-1
-1=-1,-1,-1
-1=-1,-1,-1
-1=12,-1,-1
43=-1,-1,-1
-1=-1,-1,-1
-1=-1,-1,-1
49=-1,-1,-1
-1=-1,-1,-1
-1=-1,-1,-1
31=-1,-1,-1
-1=-1,-1,-1
-1=41,-1,-1
-1=49,-1,-1
-1=-1,-1,-1
-1=-1,-1,-1
-1=-1,-1,-1
35=-1,-1,-1
12=-1,-1,-1
33=12,-1,-1
-1=-1,-1,-1
-1=-1,-1,-1
22=-1,-1,-1
-1=15,-1,-1
1=-1,-1,-1
-1=-1,-1,-1
16=-1,-1,-1
-1=-1,-1,-1
-1=-1,-1,-1
24=-1,-1,-1
-1=-1,-1,-1
-1=1,34,-1
17=8,11,-1
-1=16,25,-1
-1=-1,-1,-1
-1=-1,-1,-1
-1=-1,-1,-1
-1=-1,-1,-1
-1=-1,-1,-1
26=-1,-1,-1
-1=-1,-1,-1
-1=-1,-1,-1
-1=43,-1,-1
-1=-1,-1,-1
-1=-1,-1,-1
-1=-1,-1,-1
-1=-1,-1,-1
-1=44,-1,-1
15=-1,-1,-1
18=-1,-1,-1
20=31,35,-1
38=-1,-1,-1
-1=-1,-1,-1
39=-1,-1,-1
25=-1,-1,-1
-1=-1,-1,-1
-1=17,-1,-1
-1=-1,-1,-1
-1=-1,-1,-1
44=33,-1,-1
42=-1,-1,-1
16=-1,-1,-1
-1=-1,-1,-1
7=-1,-1,-1
-1=16,24,-1
-1=15,-1,-1
-1=-1,-1,-1
-1=44,-1,-1
27=21,-1,-1
41=-1,-1,-1
-1=26,-1,-1
-1=-1,-1,-1
-1=22,-1,-1
1=-1,-1,-1
44=27,-1,-1
24=-1,-1,-1
-1=-1,-1,-1
-1=-1,-1,-1
-1=-1,-1,-1
36=39,-1,-1
-1=-1,-1,-1
-1=-1,-1,-1
-1=-1,-1,-1
-1=-1,-1,-1
-1=7,-1,-1
-1=25,-1,-1
-1=-1,-1,-1
-1=-1,-1,-1
-1=-1,-1,-1
7=-1,-1,-1
-1=19,42,-1
-1=36,-1,-1
-1=18,-1,-1
-1=20,-1,-1
-1=-1,-1,-1
-1=-1,-1,-1
3=7,-1,-1
37=-1,-1,-1
36=3,-1,-1
-1=24,44,-1
-1=-1,-1,-1
-1=-1,-1,-1
-1=-1,-1,-1
-1=1,-1,-1
-1=41,-1,-1
-1=-1,-1,-1
-1=37,-1,-1
-1=-1,-1,-1
16=-1,-1,-1
-1=-1,-1,-1
-1=-1,-1,-1
-1=-1,-1,-1
-1=-1,-1,-1
-1=-1,-1,-1
2=-1,-1,-1
-1=-1,-1,-1
-1=-1,-1,-1
-1=2,-1,-1
43=-1,-1,-1
-1=36,-1,-1
-1=38,-1,-1
-1=16,-1,-1
-1=-1,-1,-1
-1=-1,-1,-1
-1=-1,-1,-1
-1=-1,-1,-1
-1=-1,-1,-1
-1=43,-1,-1
19=-1,-1,-1
-1=19,-1,-1
29=-1,-1,-1
42=-1,-1,-1
6=-1,-1,-1
-1=-1,-1,-1
-1=-1,-1,-1
-1=-1,-1,-1
-1=6,29,-1
-1=42,-1,-1
-1=-1,-1,-1
38=-1,-1,-1
-1=38,-1,-1
-1=-1,-1,-1
-1=-1,-1,-1
44=-1,-1,-1
-1=44,-1,-1
--------
44 ,
,44 
,
,
38 ,
,38 
,
42 ,
6 29 42 ,42 
6 29 42 ,6 29 42 
6 29 42 ,6 29 42 
6 29 42 ,6 29 42 
29 42 ,6 29 42 
29 ,29 42 
,29 
19 ,
,19 
43 ,
43 ,43 
43 ,43 
43 ,43 
43 ,43 
43 ,43 
16 43 ,43 
16 38 43 ,16 43 
16 36 38 43 ,16 38 43 
16 36 38 ,16 36 38 43 
2 16 36 38 ,16 36 38 
2 16 36 38 ,2 16 36 38 
2 16 36 38 ,2 16 36 38 
16 36 38 ,2 16 36 38 
16 36 38 ,16 36 38 
16 36 38 ,16 36 38 
16 36 38 ,16 36 38 
16 36 38 ,16 36 38 
16 36 38 ,16 36 38 
36 38 ,16 36 38 
36 38 ,36 38 
36 37 38 ,36 38 
36 37 38 ,36 37 38 
36 37 38 41 ,36 37 38 
1 36 37 38 41 ,36 37 38 41 
1 36 37 38 41 ,1 36 37 38 41 
1 36 37 38 41 ,1 36 37 38 41 
1 36 37 38 41 ,1 36 37 38 41 
1 24 36 37 38 41 44 ,1 36 37 38 41 
1 3 24 37 38 41 44 ,1 24 36 37 38 41 44 
1 3 24 38 41 44 ,1 3 24 37 38 41 44 
1 7 24 38 41 44 ,1 3 24 38 41 44 
1 7 24 38 41 44 ,1 7 24 38 41 44 
1 7 24 38 41 44 ,1 7 24 38 41 44 
1 7 20 24 38 41 44 ,1 7 24 38 41 44 
1 7 18 20 24 38 41 44 ,1 7 20 24 38 41 44 
1 7 18 20 24 36 38 41 44 ,1 7 18 20 24 38 41 44 
1 7 18 19 20 24 36 38 41 42 44 ,1 7 18 20 24 36 38 41 44 
1 18 19 20 24 36 38 41 42 44 ,1 7 18 19 20 24 36 38 41 42 44 
1 18 19 20 24 36 38 41 42 44 ,1 18 19 20 24 36 38 41 42 44 
1 18 19 20 24 36 38 41 42 44 ,1 18 19 20 24 36 38 41 42 44 
1 18 19 20 24 36 38 41 42 44 ,1 18 19 20 24 36 38 41 42 44 
1 18 19 20 24 25 36 38 41 42 44 ,1 18 19 20 24 36 38 41 42 44 
1 7 18 19 20 24 25 36 38 41 42 44 ,1 18 19 20 24 25 36 38 41 42 44 
1 7 18 19 20 24 25 36 38 41 42 44 ,1 7 18 19 20 24 25 36 38 41 42 44 
1 7 18 19 20 24 25 36 38 41 42 44 ,1 7 18 19 20 24 25 36 38 41 42 44 
1 7 18 19 20 24 25 36 38 41 42 44 ,1 7 18 19 20 24 25 36 38 41 42 44 
1 7 18 19 20 24 25 36 38 41 42 44 ,1 7 18 19 20 24 25 36 38 41 42 44 
1 7 18 19 20 24 25 38 39 41 42 44 ,1 7 18 19 20 24 25 36 38 41 42 44 
1 7 18 19 20 24 25 38 39 41 42 44 ,1 7 18 19 20 24 25 38 39 41 42 44 
1 7 18 19 20 24 25 38 39 41 42 44 ,1 7 18 19 20 24 25 38 39 41 42 44 
1 7 18 19 20 24 25 38 39 41 42 44 ,1 7 18 19 20 24 25 38 39 41 42 44 
1 7 18 19 20 25 38 39 41 42 44 ,1 7 18 19 20 24 25 38 39 41 42 44 
1 7 18 19 20 25 27 38 39 41 42 ,1 7 18 19 20 25 38 39 41 42 44 
7 18 19 20 25 27 38 39 41 42 ,1 7 18 19 20 25 27 38 39 41 42 
7 18 19 20 22 25 27 38 39 41 42 ,7 18 19 20 25 27 38 39 41 42 
7 18 19 20 22 25 27 38 39 41 42 ,7 18 19 20 22 25 27 38 39 41 42 
7 18 19 20 22 25 26 27 38 39 41 42 ,7 18 19 20 22 25 27 38 39 41 42 
7 18 19 20 22 25 26 27 38 39 42 ,7 18 19 20 22 25 26 27 38 39 41 42 
7 18 19 20 21 22 25 26 38 39 42 ,7 18 19 20 22 25 26 27 38 39 42 
7 18 19 20 21 22 25 26 38 39 42 44 ,7 18 19 20 21 22 25 26 38 39 42 
7 18 19 20 21 22 25 26 38 39 42 44 ,7 18 19 20 21 22 25 26 38 39 42 44 
7 15 18 19 20 21 22 25 26 38 39 42 44 ,7 18 19 20 21 22 25 26 38 39 42 44 
7 15 16 18 19 20 21 22 24 25 26 38 39 42 44 ,7 15 18 19 20 21 22 25 26 38 39 42 44 
15 16 18 19 20 21 22 24 25 26 38 39 42 44 ,7 15 16 18 19 20 21 22 24 25 26 38 39 42 44 
15 16 18 19 20 21 22 24 25 26 38 39 42 44 ,15 16 18 19 20 21 22 24 25 26 38 39 42 44 
15 18 19 20 21 22 24 25 26 38 39 42 44 ,15 16 18 19 20 21 22 24 25 26 38 39 42 44 
15 18 19 20 21 22 24 25 26 38 39 44 ,15 18 19 20 21 22 24 25 26 38 39 42 44 
15 18 19 20 21 22 24 25 26 33 38 39 ,15 18 19 20 21 22 24 25 26 38 39 44 
15 18 19 20 21 22 24 25 26 33 38 39 ,15 18 19 20 21 22 24 25 26 33 38 39 
15 18 19 20 21 22 24 25 26 33 38 39 ,15 18 19 20 21 22 24 25 26 33 38 39 
15 17 18 19 20 21 22 24 25 26 33 38 39 ,15 18 19 20 21 22 24 25 26 33 38 39 
15 17 18 19 20 21 22 24 25 26 33 38 39 ,15 17 18 19 20 21 22 24 25 26 33 38 39 
15 17 18 19 20 21 22 24 26 33 38 39 ,15 17 18 19 20 21 22 24 25 26 33 38 39 
15 17 18 19 20 21 22 24 26 33 38 ,15 17 18 19 20 21 22 24 26 33 38 39 
15 17 18 19 20 21 22 24 26 33 38 ,15 17 18 19 20 21 22 24 26 33 38 
15 17 18 19 20 21 22 24 26 33 ,15 17 18 19 20 21 22 24 26 33 38 
15 17 18 19 21 22 24 26 31 33 35 ,15 17 18 19 20 21 22 24 26 33 
15 17 19 21 22 24 26 31 33 35 ,15 17 18 19 21 22 24 26 31 33 35 
17 19 21 22 24 26 31 33 35 ,15 17 19 21 22 24 26 31 33 35 
17 19 21 22 24 26 31 33 35 44 ,17 19 21 22 24 26 31 33 35 
17 19 21 22 24 26 31 33 35 44 ,17 19 21 22 24 26 31 33 35 44 
17 19 21 22 24 26 31 33 35 44 ,17 19 21 22 24 26 31 33 35 44 
17 19 21 22 24 26 31 33 35 44 ,17 19 21 22 24 26 31 33 35 44 
17 19 21 22 24 26 31 33 35 44 ,17 19 21 22 24 26 31 33 35 44 
17 19 21 22 24 26 31 33 35 43 44 ,17 19 21 22 24 26 31 33 35 44 
17 19 21 22 24 26 31 33 35 43 44 ,17 19 21 22 24 26 31 33 35 43 44 
17 19 21 22 24 26 31 33 35 43 44 ,17 19 21 22 24 26 31 33 35 43 44 
17 19 21 22 24 31 33 35 43 44 ,17 19 21 22 24 26 31 33 35 43 44 
17 19 21 22 24 31 33 35 43 44 ,17 19 21 22 24 31 33 35 43 44 
17 19 21 22 24 31 33 35 43 44 ,17 19 21 22 24 31 33 35 43 44 
17 19 21 22 24 31 33 35 43 44 ,17 19 21 22 24 31 33 35 43 44 
17 19 21 22 24 31 33 35 43 44 ,17 19 21 22 24 31 33 35 43 44 
17 19 21 22 24 31 33 35 43 44 ,17 19 21 22 24 31 33 35 43 44 
16 17 19 21 22 24 25 31 33 35 43 44 ,17 19 21 22 24 31 33 35 43 44 
8 11 16 19 21 22 24 25 31 33 35 43 44 ,16 17 19 21 22 24 25 31 33 35 43 44 
1 8 11 16 19 21 22 24 25 31 33 34 35 43 44 ,8 11 16 19 21 22 24 25 31 33 35 43 44 
1 8 11 16 19 21 22 24 25 31 33 34 35 43 44 ,1 8 11 16 19 21 22 24 25 31 33 34 35 43 44 
1 8 11 16 19 21 22 25 31 33 34 35 43 44 ,1 8 11 16 19 21 22 24 25 31 33 34 35 43 44 
1 8 11 16 19 21 22 25 31 33 34 35 43 44 ,1 8 11 16 19 21 22 25 31 33 34 35 43 44 
1 8 11 16 19 21 22 25 31 33 34 35 43 44 ,1 8 11 16 19 21 22 25 31 33 34 35 43 44 
1 8 11 19 21 22 25 31 33 34 35 43 44 ,1 8 11 16 19 21 22 25 31 33 34 35 43 44 
1 8 11 19 21 22 25 31 33 34 35 43 44 ,1 8 11 19 21 22 25 31 33 34 35 43 44 
8 11 19 21 22 25 31 33 34 35 43 44 ,1 8 11 19 21 22 25 31 33 34 35 43 44 
8 11 15 19 21 22 25 31 33 34 35 43 44 ,8 11 19 21 22 25 31 33 34 35 43 44 
8 11 15 19 21 25 31 33 34 35 43 44 ,8 11 15 19 21 22 25 31 33 34 35 43 44 
8 11 15 19 21 25 31 33 34 35 43 44 ,8 11 15 19 21 25 31 33 34 35 43 44 
8 11 15 19 21 25 31 33 34 35 43 44 ,8 11 15 19 21 25 31 33 34 35 43 44 
8 11 12 15 19 21 25 31 34 35 43 44 ,8 11 15 19 21 25 31 33 34 35 43 44 
8 11 15 19 21 25 31 34 35 43 44 ,8 11 12 15 19 21 25 31 34 35 43 44 
8 11 15 19 21 25 31 34 43 44 ,8 11 15 19 21 25 31 34 35 43 44 
8 11 15 19 21 25 31 34 43 44 ,8 11 15 19 21 25 31 34 43 44 
8 11 15 19 21 25 31 34 43 44 ,8 11 15 19 21 25 31 34 43 44 
8 11 15 19 21 25 31 34 43 44 ,8 11 15 19 21 25 31 34 43 44 
8 11 15 19 21 25 31 34 43 44 49 ,8 11 15 19 21 25 31 34 43 44 
8 11 15 19 21 25 31 34 41 43 44 49 ,8 11 15 19 21 25 31 34 43 44 49 
8 11 15 19 21 25 31 34 41 43 44 49 ,8 11 15 19 21 25 31 34 41 43 44 49 
8 11 15 19 21 25 34 41 43 44 49 ,8 11 15 19 21 25 31 34 41 43 44 49 
8 11 15 19 21 25 34 41 43 44 49 ,8 11 15 19 21 25 34 41 43 44 49 
8 11 15 19 21 25 34 41 43 44 49 ,8 11 15 19 21 25 34 41 43 44 49 
8 11 15 19 21 25 34 41 43 44 ,8 11 15 19 21 25 34 41 43 44 49 
8 11 15 19 21 25 34 41 43 44 ,8 11 15 19 21 25 34 41 43 44 
8 11 15 19 21 25 34 41 43 44 ,8 11 15 19 21 25 34 41 43 44 
8 11 15 19 21 25 34 41 44 ,8 11 15 19 21 25 34 41 43 44 
8 11 12 15 19 21 25 34 41 44 ,8 11 15 19 21 25 34 41 44 
8 11 12 15 19 21 25 34 41 44 ,8 11 12 15 19 21 25 34 41 44 
8 11 12 15 19 21 25 34 41 44 ,8 11 12 15 19 21 25 34 41 44 
8 11 12 15 19 25 34 41 44 ,8 11 12 15 19 21 25 34 41 44 
8 11 12 14 15 19 25 34 41 44 ,8 11 12 15 19 25 34 41 44 
8 11 12 14 15 19 25 34 41 44 ,8 11 12 14 15 19 25 34 41 44 
8 11 12 14 15 19 25 34 41 44 ,8 11 12 14 15 19 25 34 41 44 
11 12 14 15 19 25 34 41 44 ,8 11 12 14 15 19 25 34 41 44 
11 12 14 15 19 25 34 41 44 ,11 12 14 15 19 25 34 41 44 
11 12 14 15 19 25 34 41 44 ,11 12 14 15 19 25 34 41 44 
11 12 14 15 19 25 33 34 41 44 ,11 12 14 15 19 25 34 41 44 
11 12 14 15 19 25 33 34 41 44 ,11 12 14 15 19 25 33 34 41 44 
11 12 14 15 19 25 34 41 44 ,11 12 14 15 19 25 33 34 41 44 
11 12 14 15 25 34 41 44 ,11 12 14 15 19 25 34 41 44 
11 14 15 25 34 41 44 ,11 12 14 15 25 34 41 44 
11 14 15 34 41 44 ,11 14 15 25 34 41 44 
11 14 15 34 41 44 ,11 14 15 34 41 44 
11 14 15 34 41 44 ,11 14 15 34 41 44 
11 14 15 34 41 44 ,11 14 15 34 41 44 
11 14 15 34 41 44 ,11 14 15 34 41 44 
11 14 15 34 41 44 ,11 14 15 34 41 44 
14 15 34 41 44 ,11 14 15 34 41 44 
14 15 27 34 41 44 ,14 15 34 41 44 
14 15 27 41 44 ,14 15 27 34 41 44 
14 15 27 41 44 ,14 15 27 41 44 
14 15 27 41 44 ,14 15 27 41 44 
14 15 27 41 44 ,14 15 27 41 44 
14 15 27 41 44 ,14 15 27 41 44 
14 15 27 41 44 ,14 15 27 41 44 
14 15 27 44 ,14 15 27 41 44 
14 15 27 44 ,14 15 27 44 
14 15 27 44 ,14 15 27 44 
14 15 27 44 ,14 15 27 44 
14 15 27 44 ,14 15 27 44 
14 15 27 44 ,14 15 27 44 
14 15 27 44 ,14 15 27 44 
14 15 27 44 ,14 15 27 44 
14 15 27 44 ,14 15 27 44 
14 15 27 44 ,14 15 27 44 
14 15 27 44 ,14 15 27 44 
14 15 27 44 ,14 15 27 44 
14 15 27 44 ,14 15 27 44 
14 15 27 44 ,14 15 27 44 
14 15 27 44 ,14 15 27 44 
12 14 15 27 44 ,14 15 27 44 
12 14 15 27 ,12 14 15 27 44 
12 15 27 ,12 14 15 27 
12 15 27 ,12 15 27 
12 15 27 ,12 15 27 
12 15 27 ,12 15 27 
12 27 ,12 15 27 
12 ,12 27 
12 ,12 
12 ,12 
,12 
,
,
,
,
--------
44 ,
,44 
,
,
38 ,
,38 
,
42 ,
6 29 42 ,42 
6 29 42 ,6 29 42 
6 29 42 ,6 29 42 
6 29 42 ,6 29 42 
29 42 ,6 29 42 
29 ,29 42 
,29 
19 ,
,19 
43 ,
43 ,43 
43 ,43 
43 ,43 
43 ,43 
43 ,43 
16 43 ,43 
16 38 43 ,16 43 
16 36 38 43 ,16 38 43 
16 36 38 ,16 36 38 43 
2 16 36 38 ,16 36 38 
2 16 36 38 ,2 16 36 38 
2 16 36 38 ,2 16 36 38 
16 36 38 ,2 16 36 38 
16 36 38 ,16 36 38 
16 36 38 ,16 36 38 
16 36 38 ,16 36 38 
16 36 38 ,16 36 38 
16 36 38 ,16 36 38 
36 38 ,16 36 38 
36 38 ,36 38 
36 37 38 ,36 38 
36 37 38 ,36 37 38 
36 37 38 41 ,36 37 38 
1 36 37 38 41 ,36 37 38 41 
1 36 37 38 41 ,1 36 37 38 41 
1 36 37 38 41 ,1 36 37 38 41 
1 36 37 38 41 ,1 36 37 38 41 
1 24 36 37 38 41 44 ,1 36 37 38 41 
1 3 24 37 38 41 44 ,1 24 36 37 38 41 44 
1 3 24 38 41 44 ,1 3 24 37 38 41 44 
1 7 24 38 41 44 ,1 3 24 38 41 44 
1 7 24 38 41 44 ,1 7 24 38 41 44 
1 7 24 38 41 44 ,1 7 24 38 41 44 
1 7 20 24 38 41 44 ,1 7 24 38 41 44 
1 7 18 20 24 38 41 44 ,1 7 20 24 38 41 44 
1 7 18 20 24 36 38 41 44 ,1 7 18 20 24 38 41 44 
1 7 18 19 20 24 36 38 41 42 44 ,1 7 18 20 24 36 38 41 44 
1 18 19 20 24 36 38 41 42 44 ,1 7 18 19 20 24 36 38 41 42 44 
1 18 19 20 24 36 38 41 42 44 ,1 18 19 20 24 36 38 41 42 44 
1 18 19 20 24 36 38 41 42 44 ,1 18 19 20 24 36 38 41 42 44 
1 18 19 20 24 36 38 41 42 44 ,1 18 19 20 24 36 38 41 42 44 
1 18 19 20 24 25 36 38 41 42 44 ,1 18 19 20 24 36 38 41 42 44 
1 7 18 19 20 24 25 36 38 41 42 44 ,1 18 19 20 24 25 36 38 41 42 44 
1 7 18 19 20 24 25 36 38 41 42 44 ,1 7 18 19 20 24 25 36 38 41 42 44 
1 7 18 19 20 24 25 36 38 41 42 44 ,1 7 18 19 20 24 25 36 38 41 42 44 
1 7 18 19 20 24 25 36 38 41 42 44 ,1 7 18 19 20 24 25 36 38 41 42 44 
1 7 18 19 20 24 25 36 38 41 42 44 ,1 7 18 19 20 24 25 36 38 41 42 44 
1 7 18 19 20 24 25 38 39 41 42 44 ,1 7 18 19 20 24 25 36 38 41 42 44 
1 7 18 19 20 24 25 38 39 41 42 44 ,1 7 18 19 20 24 25 38 39 41 42 44 
1 7 18 19 20 24 25 38 39 41 42 44 ,1 7 18 19 20 24 25 38 39 41 42 44 
1 7 18 19 20 24 25 38 39 41 42 44 ,1 7 18 19 20 24 25 38 39 41 42 44 
1 7 18 19 20 25 38 39 41 42 44 ,1 7 18 19 20 24 25 38 39 41 42 44 
1 7 18 19 20 25 27 38 39 41 42 ,1 7 18 19 20 25 38 39 41 42 44 
7 18 19 20 25 27 38 39 41 42 ,1 7 18 19 20 25 27 38 39 41 42 
7 18 19 20 22 25 27 38 39 41 42 ,7 18 19 20 25 27 38 39 41 42 
7 18 19 20 22 25 27 38 39 41 42 ,7 18 19 20 22 25 27 38 39 41 42 
7 18 19 20 22 25 26 27 38 39 41 42 ,7 18 19 20 22 25 27 38 39 41 42 
7 18 19 20 22 25 26 27 38 39 42 ,7 18 19 20 22 25 26 27 38 39 41 42 
7 18 19 20 21 22 25 26 38 39 42 ,7 18 19 20 22 25 26 27 38 39 42 
7 18 19 20 21 22 25 26 38 39 42 44 ,7 18 19 20 21 22 25 26 38 39 42 
7 18 19 20 21 22 25 26 38 39 42 44 ,7 18 19 20 21 22 25 26 38 39 42 44 
7 15 18 19 20 21 22 25 26 38 39 42 44 ,7 18 19 20 21 22 25 26 38 39 42 44 
7 15 16 18 19 20 21 22 24 25 26 38 39 42 44 ,7 15 18 19 20 21 22 25 26 38 39 42 44 
15 16 18 19 20 21 22 24 25 26 38 39 42 44 ,7 15 16 18 19 20 21 22 24 25 26 38 39 42 44 
15 16 18 19 20 21 22 24 25 26 38 39 42 44 ,15 16 18 19 20 21 22 24 25 26 38 39 42 44 
15 18 19 20 21 22 24 25 26 38 39 42 44 ,15 16 18 19 20 21 22 24 25 26 38 39 42 44 
15 18 19 20 21 22 24 25 26 38 39 44 ,15 18 19 20 21 22 24 25 26 38 39 42 44 
15 18 19 20 21 22 24 25 26 33 38 39 ,15 18 19 20 21 22 24 25 26 38 39 44 
15 18 19 20 21 22 24 25 26 33 38 39 ,15 18 19 20 21 22 24 25 26 33 38 39 
15 18 19 20 21 22 24 25 26 33 38 39 ,15 18 19 20 21 22 24 25 26 33 38 39 
15 17 18 19 20 21 22 24 25 26 33 38 39 ,15 18 19 20 21 22 24 25 26 33 38 39 
15 17 18 19 20 21 22 24 25 26 33 38 39 ,15 17 18 19 20 21 22 24 25 26 33 38 39 
15 17 18 19 20 21 22 24 26 33 38 39 ,15 17 18 19 20 21 22 24 25 26 33 38 39 
15 17 18 19 20 21 22 24 26 33 38 ,15 17 18 19 20 21 22 24 26 33 38 39 
15 17 18 19 20 21 22 24 26 33 38 ,15 17 18 19 20 21 22 24 26 33 38 
15 17 18 19 20 21 22 24 26 33 ,15 17 18 19 20 21 22 24 26 33 38 
15 17 18 19 21 22 24 26 31 33 35 ,15 17 18 19 20 21 22 24 26 33 
15 17 19 21 22 24 26 31 33 35 ,15 17 18 19 21 22 24 26 31 33 35 
17 19 21 22 24 26 31 33 35 ,15 17 19 21 22 24 26 31 33 35 
17 19 21 22 24 26 31 33 35 44 ,17 19 21 22 24 26 31 33 35 
17 19 21 22 24 26 31 33 35 44 ,17 19 21 22 24 26 31 33 35 44 
17 19 21 22 24 26 31 33 35 44 ,17 19 21 22 24 26 31 33 35 44 
17 19 21 22 24 26 31 33 35 44 ,17 19 21 22 24 26 31 33 35 44 
17 19 21 22 24 26 31 33 35 44 ,17 19 21 22 24 26 31 33 35 44 
17 19 21 22 24 26 31 33 35 43 44 ,17 19 21 22 24 26 31 33 35 44 
17 19 21 22 24 26 31 33 35 43 44 ,17 19 21 22 24 26 31 33 35 43 44 
17 19 21 22 24 26 31 33 35 43 44 ,17 19 21 22 24 26 31 33 35 43 44 
17 19 21 22 24 31 33 35 43 44 ,17 19 21 22 24 26 31 33 35 43 44 
17 19 21 22 24 31 33 35 43 44 ,17 19 21 22 24 31 33 35 43 44 
17 19 21 22 24 31 33 35 43 44 ,17 19 21 22 24 31 33 35 43 44 
17 19 21 22 24 31 33 35 43 44 ,17 19 21 22 24 31 33 35 43 44 
17 19 21 22 24 31 33 35 43 44 ,17 19 21 22 24 31 33 35 43 44 
17 19 21 22 24 31 33 35 43 44 ,17 19 21 22 24 31 33 35 43 44 
16 17 19 21 22 24 25 31 33 35 43 44 ,17 19 21 22 24 31 33 35 43 44 
8 11 16 19 21 22 24 25 31 33 35 43 44 ,16 17 19 21 22 24 25 31 33 35 43 44 
1 8 11 16 19 21 22 24 25 31 33 34 35 43 44 ,8 11 16 19 21 22 24 25 31 33 35 43 44 
1 8 11 16 19 21 22 24 25 31 33 34 35 43 44 ,1 8 11 16 19 21 22 24 25 31 33 34 35 43 44 
1 8 11 16 19 21 22 25 31 33 34 35 43 44 ,1 8 11 16 19 21 22 24 25 31 33 34 35 43 44 
1 8 11 16 19 21 22 25 31 33 34 35 43 44 ,1 8 11 16 19 21 22 25 31 33 34 35 43 44 
1 8 11 16 19 21 22 25 31 33 34 35 43 44 ,1 8 11 16 19 21 22 25 31 33 34 35 43 44 
1 8 11 19 21 22 25 31 33 34 35 43 44 ,1 8 11 16 19 21 22 25 31 33 34 35 43 44 
1 8 11 19 21 22 25 31 33 34 35 43 44 ,1 8 11 19 21 22 25 31 33 34 35 43 44 
8 11 19 21 22 25 31 33 34 35 43 44 ,1 8 11 19 21 22 25 31 33 34 35 43 44 
8 11 15 19 21 22 25 31 33 34 35 43 44 ,8 11 19 21 22 25 31 33 34 35 43 44 
8 11 15 19 21 25 31 33 34 35 43 44 ,8 11 15 19 21 22 25 31 33 34 35 43 44 
8 11 15 19 21 25 31 33 34 35 43 44 ,8 11 15 19 21 25 31 33 34 35 43 44 
8 11 15 19 21 25 31 33 34 35 43 44 ,8 11 15 19 21 25 31 33 34 35 43 44 
8 11 12 15 19 21 25 31 34 35 43 44 ,8 11 15 19 21 25 31 33 34 35 43 44 
8 11 15 19 21 25 31 34 35 43 44 ,8 11 12 15 19 21 25 31 34 35 43 44 
8 11 15 19 21 25 31 34 43 44 ,8 11 15 19 21 25 31 34 35 43 44 
8 11 15 19 21 25 31 34 43 44 ,8 11 15 19 21 25 31 34 43 44 
8 11 15 19 21 25 31 34 43 44 ,8 11 15 19 21 25 31 34 43 44 
8 11 15 19 21 25 31 34 43 44 ,8 11 15 19 21 25 31 34 43 44 
8 11 15 19 21 25 31 34 43 44 49 ,8 11 15 19 21 25 31 34 43 44 
8 11 15 19 21 25 31 34 41 43 44 49 ,8 11 15 19 21 25 31 34 43 44 49 
8 11 15 19 21 25 31 34 41 43 44 49 ,8 11 15 19 21 25 31 34 41 43 44 49 
8 11 15 19 21 25 34 41 43 44 49 ,8 11 15 19 21 25 31 34 41 43 44 49 
8 11 15 19 21 25 34 41 43 44 49 ,8 11 15 19 21 25 34 41 43 44 49 
8 11 15 19 21 25 34 41 43 44 49 ,8 11 15 19 21 25 34 41 43 44 49 
8 11 15 19 21 25 34 41 43 44 ,8 11 15 19 21 25 34 41 43 44 49 
8 11 15 19 21 25 34 41 43 44 ,8 11 15 19 21 25 34 41 43 44 
8 11 15 19 21 25 34 41 43 44 ,8 11 15 19 21 25 34 41 43 44 
8 11 15 19 21 25 34 41 44 ,8 11 15 19 21 25 34 41 43 44 
8 11 12 15 19 21 25 34 41 44 ,8 11 15 19 21 25 34 41 44 
8 11 12 15 19 21 25 34 41 44 ,8 11 12 15 19 21 25 34 41 44 
8 11 12 15 19 21 25 34 41 44 ,8 11 12 15 19 21 25 34 41 44 
8 11 12 15 19 25 34 41 44 ,8 11 12 15 19 21 25 34 41 44 
8 11 12 14 15 19 25 34 41 44 ,8 11 12 15 19 25 34 41 44 
8 11 12 14 15 19 25 34 41 44 ,8 11 12 14 15 19 25 34 41 44 
8 11 12 14 15 19 25 34 41 44 ,8 11 12 14 15 19 25 34 41 44 
11 12 14 15 19 25 34 41 44 ,8 11 12 14 15 19 25 34 41 44 
11 12 14 15 19 25 34 41 44 ,11 12 14 15 19 25 34 41 44 
11 12 14 15 19 25 34 41 44 ,11 12 14 15 19 25 34 41 44 
11 12 14 15 19 25 33 34 41 44 ,11 12 14 15 19 25 34 41 44 
11 12 14 15 19 25 33 34 41 44 ,11 12 14 15 19 25 33 34 41 44 
11 12 14 15 19 25 34 41 44 ,11 12 14 15 19 25 33 34 41 44 
11 12 14 15 25 34 41 44 ,11 12 14 15 19 25 34 41 44 
11 14 15 25 34 41 44 ,11 12 14 15 25 34 41 44 
11 14 15 34 41 44 ,11 14 15 25 34 41 44 
11 14 15 34 41 44 ,11 14 15 34 41 44 
11 14 15 34 41 44 ,11 14 15 34 41 44 
11 14 15 34 41 44 ,11 14 15 34 41 44 
11 14 15 34 41 44 ,11 14 15 34 41 44 
11 14 15 34 41 44 ,11 14 15 34 41 44 
14 15 34 41 44 ,11 14 15 34 41 44 
14 15 27 34 41 44 ,14 15 34 41 44 
14 15 27 41 44 ,14 15 27 34 41 44 
14 15 27 41 44 ,14 15 27 41 44 
14 15 27 41 44 ,14 15 27 41 44 
14 15 27 41 44 ,14 15 27 41 44 
14 15 27 41 44 ,14 15 27 41 44 
14 15 27 41 44 ,14 15 27 41 44 
14 15 27 44 ,14 15 27 41 44 
14 15 27 44 ,14 15 27 44 
14 15 27 44 ,14 15 27 44 
14 15 27 44 ,14 15 27 44 
14 15 27 44 ,14 15 27 44 
14 15 27 44 ,14 15 27 44 
14 15 27 44 ,14 15 27 44 
14 15 27 44 ,14 15 27 44 
14 15 27 44 ,14 15 27 44 
14 15 27 44 ,14 15 27 44 
14 15 27 44 ,14 15 27 44 
14 15 27 44 ,14 15 27 44 
14 15 27 44 ,14 15 27 44 
14 15 27 44 ,14 15 27 44 
14 15 27 44 ,14 15 27 44 
12 14 15 27 44 ,14 15 27 44 
12 14 15 27 ,12 14 15 27 44 
12 15 27 ,12 14 15 27 
12 15 27 ,12 15 27 
12 15 27 ,12 15 27 
12 15 27 ,12 15 27 
12 27 ,12 15 27 
12 ,12 27 
12 ,12 
12 ,12 
,12 
,
,
,
,
-------------
-------
1(-1)->3 7 8 11 16 18 19 20 21 22 24 25 27 31 33 34 35 36 37 38 39 41 42 43 44 
2(-1)->16 36 38 
3(-1)->1 24 37 38 41 44 
6(-1)->29 42 
7(-1)->1 15 16 18 19 20 21 22 24 25 26 27 36 38 39 41 42 44 
8(-1)->1 11 12 14 15 16 19 21 22 24 25 31 33 34 35 41 43 44 49 
11(-1)->1 8 12 14 15 16 19 21 22 24 25 31 33 34 35 41 43 44 49 
12(-1)->8 11 14 15 19 21 25 27 31 33 34 35 41 43 44 
14(-1)->8 11 12 15 19 25 27 33 34 41 44 
15(-1)->7 8 11 12 14 16 17 18 19 20 21 22 24 25 26 27 31 33 34 35 38 39 41 42 43 44 49 
16(-1)->1 2 7 8 11 15 17 18 19 20 21 22 24 25 26 31 33 34 35 36 38 39 42 43 44 
17(-1)->15 16 18 19 20 21 22 24 25 26 31 33 35 38 39 43 44 
18(-1)->1 7 15 16 17 19 20 21 22 24 25 26 27 31 33 35 36 38 39 41 42 44 
19(-1)->1 7 8 11 12 14 15 16 17 18 20 21 22 24 25 26 27 31 33 34 35 36 38 39 41 42 43 44 49 
20(-1)->1 7 15 16 17 18 19 21 22 24 25 26 27 33 36 38 39 41 42 44 
21(-1)->1 7 8 11 12 15 16 17 18 19 20 22 24 25 26 31 33 34 35 38 39 41 42 43 44 49 
22(-1)->1 7 8 11 15 16 17 18 19 20 21 24 25 26 27 31 33 34 35 38 39 41 42 43 44 
24(-1)->1 3 7 8 11 15 16 17 18 19 20 21 22 25 26 31 33 34 35 36 37 38 39 41 42 43 44 
25(-1)->1 7 8 11 12 14 15 16 17 18 19 20 21 22 24 26 27 31 33 34 35 36 38 39 41 42 43 44 49 
26(-1)->7 15 16 17 18 19 20 21 22 24 25 27 31 33 35 38 39 41 42 43 44 
27(-1)->1 7 12 14 15 18 19 20 22 25 26 34 38 39 41 42 44 
29(-1)->6 42 
31(-1)->1 8 11 12 15 16 17 18 19 21 22 24 25 26 33 34 35 41 43 44 49 
33(-1)->1 8 11 12 14 15 16 17 18 19 20 21 22 24 25 26 31 34 35 38 39 41 43 44 
34(-1)->1 8 11 12 14 15 16 19 21 22 24 25 27 31 33 35 41 43 44 49 
35(-1)->1 8 11 12 15 16 17 18 19 21 22 24 25 26 31 33 34 43 44 
36(-1)->1 2 7 16 18 19 20 24 25 37 38 41 42 43 44 
37(-1)->1 3 24 36 38 41 44 
38(-1)->1 2 3 7 15 16 17 18 19 20 21 22 24 25 26 27 33 36 37 39 41 42 43 44 
39(-1)->1 7 15 16 17 18 19 20 21 22 24 25 26 27 33 38 41 42 44 
41(-1)->1 3 7 8 11 12 14 15 18 19 20 21 22 24 25 26 27 31 33 34 36 37 38 39 42 43 44 49 
42(-1)->1 6 7 15 16 18 19 20 21 22 24 25 26 27 29 36 38 39 41 44 
43(-1)->1 8 11 12 15 16 17 19 21 22 24 25 26 31 33 34 35 36 38 41 44 49 
44(-1)->1 3 7 8 11 12 14 15 16 17 18 19 20 21 22 24 25 26 27 31 33 34 35 36 37 38 39 41 42 43 49 
49(-1)->8 11 15 19 21 25 31 34 41 43 44 
-------
Node 44 maps to position 0
Node 19 maps to position 1
Node 25 maps to position 2
Node 41 maps to position 3
Node 15 maps to position 4
Node 24 maps to position 5
Node 21 maps to position 6
Node 1 maps to position 7
Node 16 maps to position 8
Node 22 maps to position 9
Node 33 maps to position 10
Node 38 maps to position 11
Node 18 maps to position 12
Node 26 maps to position 13
Node 43 maps to position 14
Node 31 maps to position 15
Node 34 maps to position 16
Node 8 maps to position 17
Node 11 maps to position 18
Node 35 maps to position 19
Node 17 maps to position 20
Node 20 maps to position 21
Node 42 maps to position 22
Node 39 maps to position 23
Node 7 maps to position 24
Node 27 maps to position 25
Node 12 maps to position 26
Node 14 maps to position 27
Node 36 maps to position 28
Node 37 maps to position 29
Node 3 maps to position 30
Node 49 maps to position 31
Node 2 maps to position 32
Node 6 maps to position 33
Node 29 maps to position 34
44(-1)->1 3 7 8 11 12 14 15 16 17 18 19 20 21 22 24 25 26 27 31 33 34 35 36 37 38 39 41 42 43 49 
19(-1)->1 7 8 11 12 14 15 16 17 18 20 21 22 24 25 26 27 31 33 34 35 36 38 39 41 42 43 44 49 
25(-1)->1 7 8 11 12 14 15 16 17 18 19 20 21 22 24 26 27 31 33 34 35 36 38 39 41 42 43 44 49 
41(-1)->1 3 7 8 11 12 14 15 18 19 20 21 22 24 25 26 27 31 33 34 36 37 38 39 42 43 44 49 
15(-1)->7 8 11 12 14 16 17 18 19 20 21 22 24 25 26 27 31 33 34 35 38 39 41 42 43 44 49 
24(-1)->1 3 7 8 11 15 16 17 18 19 20 21 22 25 26 31 33 34 35 36 37 38 39 41 42 43 44 
21(-1)->1 7 8 11 12 15 16 17 18 19 20 22 24 25 26 31 33 34 35 38 39 41 42 43 44 49 
1(-1)->3 7 8 11 16 18 19 20 21 22 24 25 27 31 33 34 35 36 37 38 39 41 42 43 44 
16(-1)->1 2 7 8 11 15 17 18 19 20 21 22 24 25 26 31 33 34 35 36 38 39 42 43 44 
22(-1)->1 7 8 11 15 16 17 18 19 20 21 24 25 26 27 31 33 34 35 38 39 41 42 43 44 
33(-1)->1 8 11 12 14 15 16 17 18 19 20 21 22 24 25 26 31 34 35 38 39 41 43 44 
38(-1)->1 2 3 7 15 16 17 18 19 20 21 22 24 25 26 27 33 36 37 39 41 42 43 44 
18(-1)->1 7 15 16 17 19 20 21 22 24 25 26 27 31 33 35 36 38 39 41 42 44 
26(-1)->7 15 16 17 18 19 20 21 22 24 25 27 31 33 35 38 39 41 42 43 44 
43(-1)->1 8 11 12 15 16 17 19 21 22 24 25 26 31 33 34 35 36 38 41 44 49 
31(-1)->1 8 11 12 15 16 17 18 19 21 22 24 25 26 33 34 35 41 43 44 49 
34(-1)->1 8 11 12 14 15 16 19 21 22 24 25 27 31 33 35 41 43 44 49 
8(-1)->1 11 12 14 15 16 19 21 22 24 25 31 33 34 35 41 43 44 49 
11(-1)->1 8 12 14 15 16 19 21 22 24 25 31 33 34 35 41 43 44 49 
35(-1)->1 8 11 12 15 16 17 18 19 21 22 24 25 26 31 33 34 43 44 
17(-1)->15 16 18 19 20 21 22 24 25 26 31 33 35 38 39 43 44 
20(-1)->1 7 15 16 17 18 19 21 22 24 25 26 27 33 36 38 39 41 42 44 
42(-1)->1 6 7 15 16 18 19 20 21 22 24 25 26 27 29 36 38 39 41 44 
39(-1)->1 7 15 16 17 18 19 20 21 22 24 25 26 27 33 38 41 42 44 
7(-1)->1 15 16 18 19 20 21 22 24 25 26 27 36 38 39 41 42 44 
27(-1)->1 7 12 14 15 18 19 20 22 25 26 34 38 39 41 42 44 
12(-1)->8 11 14 15 19 21 25 27 31 33 34 35 41 43 44 
14(-1)->8 11 12 15 19 25 27 33 34 41 44 
36(-1)->1 2 7 16 18 19 20 24 25 37 38 41 42 43 44 
37(-1)->1 3 24 36 38 41 44 
3(-1)->1 24 37 38 41 44 
49(-1)->8 11 15 19 21 25 31 34 41 43 44 
2(-1)->16 36 38 
6(-1)->29 42 
29(-1)->6 42 
-------
BLAH
START TIME: 1433732001
1(4)->3 7 8 11 16 18 19 20 21 22 24 25 27 31 33 34 35 36 37 38 39 41 42 43 44 
2(0)->16 36 38 
3(2)->1 24 37 38 41 44 
6(0)->29 42 
7(12)->1 15 16 18 19 20 21 22 24 25 26 27 36 38 39 41 42 44 
8(12)->1 11 12 14 15 16 19 21 22 24 25 31 33 34 35 41 43 44 49 
11(13)->1 8 12 14 15 16 19 21 22 24 25 31 33 34 35 41 43 44 49 
12(7)->8 11 14 15 19 21 25 27 31 33 34 35 41 43 44 
14(6)->8 11 12 15 19 25 27 33 34 41 44 
15(4)->7 8 11 12 14 16 17 18 19 20 21 22 24 25 26 27 31 33 34 35 38 39 41 42 43 44 49 
16(3)->1 2 7 8 11 15 17 18 19 20 21 22 24 25 26 31 33 34 35 36 38 39 42 43 44 
17(12)->15 16 18 19 20 21 22 24 25 26 31 33 35 38 39 43 44 
18(10)->1 7 15 16 17 19 20 21 22 24 25 26 27 31 33 35 36 38 39 41 42 44 
19(1)->1 7 8 11 12 14 15 16 17 18 20 21 22 24 25 26 27 31 33 34 35 36 38 39 41 42 43 44 49 
20(13)->1 7 15 16 17 18 19 21 22 24 25 26 27 33 36 38 39 41 42 44 
21(6)->1 7 8 11 12 15 16 17 18 19 20 22 24 25 26 31 33 34 35 38 39 41 42 43 44 49 
22(7)->1 7 8 11 15 16 17 18 19 20 21 24 25 26 27 31 33 34 35 38 39 41 42 43 44 
24(5)->1 3 7 8 11 15 16 17 18 19 20 21 22 25 26 31 33 34 35 36 37 38 39 41 42 43 44 
25(2)->1 7 8 11 12 14 15 16 17 18 19 20 21 22 24 26 27 31 33 34 35 36 38 39 41 42 43 44 49 
26(11)->7 15 16 17 18 19 20 21 22 24 25 27 31 33 35 38 39 41 42 43 44 
27(5)->1 7 12 14 15 18 19 20 22 25 26 34 38 39 41 42 44 
29(1)->6 42 
31(9)->1 8 11 12 15 16 17 18 19 21 22 24 25 26 33 34 35 41 43 44 49 
33(8)->1 8 11 12 14 15 16 17 18 19 20 21 22 24 25 26 31 34 35 38 39 41 43 44 
34(11)->1 8 11 12 14 15 16 19 21 22 24 25 27 31 33 35 41 43 44 49 
35(14)->1 8 11 12 15 16 17 18 19 21 22 24 25 26 31 33 34 43 44 
36(6)->1 2 7 16 18 19 20 24 25 37 38 41 42 43 44 
37(1)->1 3 24 36 38 41 44 
38(9)->1 2 3 7 15 16 17 18 19 20 21 22 24 25 26 27 33 36 37 39 41 42 43 44 
39(14)->1 7 15 16 17 18 19 20 21 22 24 25 26 27 33 38 41 42 44 
41(3)->1 3 7 8 11 12 14 15 18 19 20 21 22 24 25 26 27 31 33 34 36 37 38 39 42 43 44 49 
42(8)->1 6 7 15 16 18 19 20 21 22 24 25 26 27 29 36 38 39 41 44 
43(10)->1 8 11 12 15 16 17 19 21 22 24 25 26 31 33 34 35 36 38 41 44 49 
44(0)->1 3 7 8 11 12 14 15 16 17 18 19 20 21 22 24 25 26 27 31 33 34 35 36 37 38 39 41 42 43 49 
49(5)->8 11 15 19 21 25 31 34 41 43 44 
COUNT: 175
COLORS: 15
EDGES: 0
15
175
