1 -> 12 23 34 45 56 67 78 89 100 2 3 4 5 6 7 8 9 10 11 21 31 41 51 61 71 81 91
2 -> 13 24 35 46 57 68 79 90 11 3 4 5 6 7 8 9 10 12 22 32 42 52 62 72 82 92 1
3 -> 14 25 36 47 58 69 80 12 21 4 5 6 7 8 9 10 13 23 33 43 53 63 73 83 93 2 1
4 -> 15 26 37 48 59 70 13 22 31 5 6 7 8 9 10 14 24 34 44 54 64 74 84 94 3 2 1
5 -> 16 27 38 49 60 14 23 32 41 6 7 8 9 10 15 25 35 45 55 65 75 85 95 4 3 2 1
6 -> 17 28 39 50 15 24 33 42 51 7 8 9 10 16 26 36 46 56 66 76 86 96 5 4 3 2 1
7 -> 18 29 40 16 25 34 43 52 61 8 9 10 17 27 37 47 57 67 77 87 97 6 5 4 3 2 1
8 -> 19 30 17 26 35 44 53 62 71 9 10 18 28 38 48 58 68 78 88 98 7 6 5 4 3 2 1
9 -> 20 18 27 36 45 54 63 72 81 10 19 29 39 49 59 69 79 89 99 8 7 6 5 4 3 2 1
10 -> 19 28 37 46 55 64 73 82 91 20 30 40 50 60 70 80 90 100 9 8 7 6 5 4 3 2 1
11 -> 22 33 44 55 66 77 88 99 12 13 14 15 16 17 18 19 20 21 31 41 51 61 71 81 91 2 1
12 -> 23 34 45 56 67 78 89 100 21 13 14 15 16 17 18 19 20 22 32 42 52 62 72 82 92 11 3 2 1
13 -> 24 35 46 57 68 79 90 22 31 14 15 16 17 18 19 20 23 33 43 53 63 73 83 93 12 11 4 3 2
14 -> 25 36 47 58 69 80 23 32 41 15 16 17 18 19 20 24 34 44 54 64 74 84 94 13 12 11 5 4 3
15 -> 26 37 48 59 70 24 33 42 51 16 17 18 19 20 25 35 45 55 65 75 85 95 14 13 12 11 6 5 4
16 -> 27 38 49 60 25 34 43 52 61 17 18 19 20 26 36 46 56 66 76 86 96 15 14 13 12 11 7 6 5
17 -> 28 39 50 26 35 44 53 62 71 18 19 20 27 37 47 57 67 77 87 97 16 15 14 13 12 11 8 7 6
18 -> 29 40 27 36 45 54 63 72 81 19 20 28 38 48 58 68 78 88 98 17 16 15 14 13 12 11 9 8 7
19 -> 30 28 37 46 55 64 73 82 91 20 29 39 49 59 69 79 89 99 18 17 16 15 14 13 12 11 10 9 8
20 -> 29 38 47 56 65 74 83 92 30 40 50 60 70 80 90 100 19 18 17 16 15 14 13 12 11 10 9
21 -> 32 43 54 65 76 87 98 22 23 24 25 26 27 28 29 30 31 41 51 61 71 81 91 12 11 3 1
22 -> 33 44 55 66 77 88 99 31 23 24 25 26 27 28 29 30 32 42 52 62 72 82 92 21 13 12 11 4 2
23 -> 34 45 56 67 78 89 100 32 41 24 25 26 27 28 29 30 33 43 53 63 73 83 93 22 21 14 13 12 5 3 1
24 -> 35 46 57 68 79 90 33 42 51 25 26 27 28 29 30 34 44 54 64 74 84 94 23 22 21 15 14 13 6 4 2
25 -> 36 47 58 69 80 34 43 52 61 26 27 28 29 30 35 45 55 65 75 85 95 24 23 22 21 16 15 14 7 5 3
26 -> 37 48 59 70 35 44 53 62 71 27 28 29 30 36 46 56 66 76 86 96 25 24 23 22 21 17 16 15 8 6 4
27 -> 38 49 60 36 45 54 63 72 81 28 29 30 37 47 57 67 77 87 97 26 25 24 23 22 21 18 17 16 9 7 5
28 -> 39 50 37 46 55 64 73 82 91 29 30 38 48 58 68 78 88 98 27 26 25 24 23 22 21 19 18 17 10 8 6
29 -> 40 38 47 56 65 74 83 92 30 39 49 59 69 79 89 99 28 27 26 25 24 23 22 21 20 19 18 9 7
30 -> 39 48 57 66 75 84 93 40 50 60 70 80 90 100 29 28 27 26 25 24 23 22 21 20 19 10 8
31 -> 42 53 64 75 86 97 32 33 34 35 36 37 38 39 40 41 51 61 71 81 91 22 21 13 11 4 1
32 -> 43 54 65 76 87 98 41 33 34 35 36 37 38 39 40 42 52 62 72 82 92 31 23 22 21 14 12 5 2
33 -> 44 55 66 77 88 99 42 51 34 35 36 37 38 39 40 43 53 63 73 83 93 32 31 24 23 22 15 13 11 6 3
34 -> 45 56 67 78 89 100 43 52 61 35 36 37 38 39 40 44 54 64 74 84 94 33 32 31 25 24 23 16 14 12 7 4 1
35 -> 46 57 68 79 90 44 53 62 71 36 37 38 39 40 45 55 65 75 85 95 34 33 32 31 26 25 24 17 15 13 8 5 2
36 -> 47 58 69 80 45 54 63 72 81 37 38 39 40 46 56 66 76 86 96 35 34 33 32 31 27 26 25 18 16 14 9 6 3
37 -> 48 59 70 46 55 64 73 82 91 38 39 40 47 57 67 77 87 97 36 35 34 33 32 31 28 27 26 19 17 15 10 7 4
38 -> 49 60 47 56 65 74 83 92 39 40 48 58 68 78 88 98 37 36 35 34 33 32 31 29 28 27 20 18 16 8 5
39 -> 50 48 57 66 75 84 93 40 49 59 69 79 89 99 38 37 36 35 34 33 32 31 30 29 28 19 17 9 6
40 -> 49 58 67 76 85 94 50 60 70 80 90 100 39 38 37 36 35 34 33 32 31 30 29 20 18 10 7
41 -> 52 63 74 85 96 42 43 44 45 46 47 48 49 50 51 61 71 81 91 32 31 23 21 14 11 5 1
42 -> 53 64 75 86 97 51 43 44 45 46 47 48 49 50 52 62 72 82 92 41 33 32 31 24 22 15 12 6 2
43 -> 54 65 76 87 98 52 61 44 45 46 47 48 49 50 53 63 73 83 93 42 41 34 33 32 25 23 21 16 13 7 3
44 -> 55 66 77 88 99 53 62 71 45 46 47 48 49 50 54 64 74 84 94 43 42 41 35 34 33 26 24 22 17 14 11 8 4
45 -> 56 67 78 89 100 54 63 72 81 46 47 48 49 50 55 65 75 85 95 44 43 42 41 36 35 34 27 25 23 18 15 12 9 5 1
46 -> 57 68 79 90 55 64 73 82 91 47 48 49 50 56 66 76 86 96 45 44 43 42 41 37 36 35 28 26 24 19 16 13 10 6 2
47 -> 58 69 80 56 65 74 83 92 48 49 50 57 67 77 87 97 46 45 44 43 42 41 38 37 36 29 27 25 20 17 14 7 3
48 -> 59 70 57 66 75 84 93 49 50 58 68 78 88 98 47 46 45 44 43 42 41 39 38 37 30 28 26 18 15 8 4
49 -> 60 58 67 76 85 94 50 59 69 79 89 99 48 47 46 45 44 43 42 41 40 39 38 29 27 19 16 9 5
50 -> 59 68 77 86 95 60 70 80 90 100 49 48 47 46 45 44 43 42 41 40 39 30 28 20 17 10 6
51 -> 62 73 84 95 52 53 54 55 56 57 58 59 60 61 71 81 91 42 41 33 31 24 21 15 11 6 1
52 -> 63 74 85 96 61 53 54 55 56 57 58 59 60 62 72 82 92 51 43 42 41 34 32 25 22 16 12 7 2
53 -> 64 75 86 97 62 71 54 55 56 57 58 59 60 63 73 83 93 52 51 44 43 42 35 33 31 26 23 17 13 8 3
54 -> 65 76 87 98 63 72 81 55 56 57 58 59 60 64 74 84 94 53 52 51 45 44 43 36 34 32 27 24 21 18 14 9 4
55 -> 66 77 88 99 64 73 82 91 56 57 58 59 60 65 75 85 95 54 53 52 51 46 45 44 37 35 33 28 25 22 19 15 11 10 5
56 -> 67 78 89 100 65 74 83 92 57 58 59 60 66 76 86 96 55 54 53 52 51 47 46 45 38 36 34 29 26 23 20 16 12 6 1
57 -> 68 79 90 66 75 84 93 58 59 60 67 77 87 97 56 55 54 53 52 51 48 47 46 39 37 35 30 27 24 17 13 7 2
58 -> 69 80 67 76 85 94 59 60 68 78 88 98 57 56 55 54 53 52 51 49 48 47 40 38 36 28 25 18 14 8 3
59 -> 70 68 77 86 95 60 69 79 89 99 58 57 56 55 54 53 52 51 50 49 48 39 37 29 26 19 15 9 4
60 -> 69 78 87 96 70 80 90 100 59 58 57 56 55 54 53 52 51 50 49 40 38 30 27 20 16 10 5
61 -> 72 83 94 62 63 64 65 66 67 68 69 70 71 81 91 52 51 43 41 34 31 25 21 16 11 7 1
62 -> 73 84 95 71 63 64 65 66 67 68 69 70 72 82 92 61 53 52 51 44 42 35 32 26 22 17 12 8 2
63 -> 74 85 96 72 81 64 65 66 67 68 69 70 73 83 93 62 61 54 53 52 45 43 41 36 33 27 23 18 13 9 3
64 -> 75 86 97 73 82 91 65 66 67 68 69 70 74 84 94 63 62 61 55 54 53 46 44 42 37 34 31 28 24 19 14 10 4
65 -> 76 87 98 74 83 92 66 67 68 69 70 75 85 95 64 63 62 61 56 55 54 47 45 43 38 35 32 29 25 21 20 15 5
66 -> 77 88 99 75 84 93 67 68 69 70 76 86 96 65 64 63 62 61 57 56 55 48 46 44 39 36 33 30 26 22 16 11 6
67 -> 78 89 100 76 85 94 68 69 70 77 87 97 66 65 64 63 62 61 58 57 56 49 47 45 40 37 34 27 23 17 12 7 1
68 -> 79 90 77 86 95 69 70 78 88 98 67 66 65 64 63 62 61 59 58 57 50 48 46 38 35 28 24 18 13 8 2
69 -> 80 78 87 96 70 79 89 99 68 67 66 65 64 63 62 61 60 59 58 49 47 39 36 29 25 19 14 9 3
70 -> 79 88 97 80 90 100 69 68 67 66 65 64 63 62 61 60 59 50 48 40 37 30 26 20 15 10 4
71 -> 82 93 72 73 74 75 76 77 78 79 80 81 91 62 61 53 51 44 41 35 31 26 21 17 11 8 1
72 -> 83 94 81 73 74 75 76 77 78 79 80 82 92 71 63 62 61 54 52 45 42 36 32 27 22 18 12 9 2
73 -> 84 95 82 91 74 75 76 77 78 79 80 83 93 72 71 64 63 62 55 53 51 46 43 37 33 28 23 19 13 10 3
74 -> 85 96 83 92 75 76 77 78 79 80 84 94 73 72 71 65 64 63 56 54 52 47 44 41 38 34 29 24 20 14 4
75 -> 86 97 84 93 76 77 78 79 80 85 95 74 73 72 71 66 65 64 57 55 53 48 45 42 39 35 31 30 25 15 5
76 -> 87 98 85 94 77 78 79 80 86 96 75 74 73 72 71 67 66 65 58 56 54 49 46 43 40 36 32 26 21 16 6
77 -> 88 99 86 95 78 79 80 87 97 76 75 74 73 72 71 68 67 66 59 57 55 50 47 44 37 33 27 22 17 11 7
78 -> 89 100 87 96 79 80 88 98 77 76 75 74 73 72 71 69 68 67 60 58 56 48 45 38 34 28 23 18 12 8 1
79 -> 90 88 97 80 89 99 78 77 76 75 74 73 72 71 70 69 68 59 57 49 46 39 35 29 24 19 13 9 2
80 -> 89 98 90 100 79 78 77 76 75 74 73 72 71 70 69 60 58 50 47 40 36 30 25 20 14 10 3
81 -> 92 82 83 84 85 86 87 88 89 90 91 72 71 63 61 54 51 45 41 36 31 27 21 18 11 9 1
82 -> 93 91 83 84 85 86 87 88 89 90 92 81 73 72 71 64 62 55 52 46 42 37 32 28 22 19 12 10 2
83 -> 94 92 84 85 86 87 88 89 90 93 82 81 74 73 72 65 63 61 56 53 47 43 38 33 29 23 20 13 3
84 -> 95 93 85 86 87 88 89 90 94 83 82 81 75 74 73 66 64 62 57 54 51 48 44 39 34 30 24 14 4
85 -> 96 94 86 87 88 89 90 95 84 83 82 81 76 75 74 67 65 63 58 55 52 49 45 41 40 35 25 15 5
86 -> 97 95 87 88 89 90 96 85 84 83 82 81 77 76 75 68 66 64 59 56 53 50 46 42 36 31 26 16 6
87 -> 98 96 88 89 90 97 86 85 84 83 82 81 78 77 76 69 67 65 60 57 54 47 43 37 32 27 21 17 7
88 -> 99 97 89 90 98 87 86 85 84 83 82 81 79 78 77 70 68 66 58 55 48 44 38 33 28 22 18 11 8
89 -> 100 98 90 99 88 87 86 85 84 83 82 81 80 79 78 69 67 59 56 49 45 39 34 29 23 19 12 9 1
90 -> 99 100 89 88 87 86 85 84 83 82 81 80 79 70 68 60 57 50 46 40 35 30 24 20 13 10 2
91 -> 92 93 94 95 96 97 98 99 100 82 81 73 71 64 61 55 51 46 41 37 31 28 21 19 11 10 1
92 -> 93 94 95 96 97 98 99 100 91 83 82 81 74 72 65 62 56 52 47 42 38 32 29 22 20 12 2
93 -> 94 95 96 97 98 99 100 92 91 84 83 82 75 73 71 66 63 57 53 48 43 39 33 30 23 13 3
94 -> 95 96 97 98 99 100 93 92 91 85 84 83 76 74 72 67 64 61 58 54 49 44 40 34 24 14 4
95 -> 96 97 98 99 100 94 93 92 91 86 85 84 77 75 73 68 65 62 59 55 51 50 45 35 25 15 5
96 -> 97 98 99 100 95 94 93 92 91 87 86 85 78 76 74 69 66 63 60 56 52 46 41 36 26 16 6
97 -> 98 99 100 96 95 94 93 92 91 88 87 86 79 77 75 70 67 64 57 53 47 42 37 31 27 17 7
98 -> 99 100 97 96 95 94 93 92 91 89 88 87 80 78 76 68 65 58 54 48 43 38 32 28 21 18 8
99 -> 100 98 97 96 95 94 93 92 91 90 89 88 79 77 69 66 59 55 49 44 39 33 29 22 19 11 9
100 -> 99 98 97 96 95 94 93 92 91 90 89 80 78 70 67 60 56 50 45 40 34 30 23 20 12 10 1
