-1=-1,-1,-1
-1=-1,-1,-1
-1=-1,-1,-1
-1=-1,-1,-1
12=-1,-1,-1
12=12,-1,-1
-1=-1,-1,-1
27=-1,-1,-1
15=-1,-1,-1
-1=-1,-1,-1
-1=-1,-1,-1
-1=-1,-1,-1
14=-1,-1,-1
44=-1,-1,-1
-1=12,-1,-1
-1=-1,-1,-1
-1=-1,-1,-1
-1=-1,-1,-1
-1=-1,-1,-1
-1=-1,-1,-1
-1=-1,-1,-1
-1=-1,-1,-1
-1=-1,-1,-1
-1=-1,-1,-1
-1=-1,-1,-1
-1=-1,-1,-1
-1=-1,-1,-1
-1=-1,-1,-1
-1=-1,-1,-1
41=-1,-1,-1
-1=-1,-1,-1
-1=-1,-1,-1
-1=-1,-1,-1
-1=-1,-1,-1
-1=-1,-1,-1
34=-1,-1,-1
-1=27,-1,-1
11=-1,-1,-1
-1=-1,-1,-1
-1=-1,-1,-1
-1=-1,-1,-1
-1=-1,-1,-1
-1=-1,-1,-1
25=-1,-1,-1
12=-1,-1,-1
19=-1,-1,-1
33=-1,-1,-1
-1=-1,-1,-1
-1=33,-1,-1
-1=-1,-1,-1
-1=-1,-1,-1
8=-1,-1,-1
-1=-1,-1,-1
-1=-1,-1,-1
-1=14,-1,-1
21=-1,-1,-1
-1=-1,-1,-1
-1=-1,-1,-1
-1=12,-1,-1
43=-1,-1,-1
-1=-1,-1,-1
-1=-1,-1,-1
49=-1,-1,-1
-1=-1,-1,-1
-1=-1,-1,-1
31=-1,-1,-1
-1=-1,-1,-1
-1=41,-1,-1
-1=49,-1,-1
-1=-1,-1,-1
-1=-1,-1,-1
-1=-1,-1,-1
35=-1,-1,-1
12=-1,-1,-1
33=12,-1,-1
-1=-1,-1,-1
-1=-1,-1,-1
22=-1,-1,-1
-1=15,-1,-1
1=-1,-1,-1
-1=-1,-1,-1
16=-1,-1,-1
-1=-1,-1,-1
-1=-1,-1,-1
24=-1,-1,-1
-1=-1,-1,-1
-1=1,34,-1
17=8,11,-1
-1=16,25,-1
-1=-1,-1,-1
-1=-1,-1,-1
-1=-1,-1,-1
-1=-1,-1,-1
-1=-1,-1,-1
26=-1,-1,-1
-1=-1,-1,-1
-1=-1,-1,-1
-1=43,-1,-1
-1=-1,-1,-1
-1=-1,-1,-1
-1=-1,-1,-1
-1=-1,-1,-1
-1=44,-1,-1
15=-1,-1,-1
18=-1,-1,-1
20=31,35,-1
38=-1,-1,-1
-1=-1,-1,-1
39=-1,-1,-1
25=-1,-1,-1
-1=-1,-1,-1
-1=17,-1,-1
-1=-1,-1,-1
-1=-1,-1,-1
44=33,-1,-1
42=-1,-1,-1
16=-1,-1,-1
-1=-1,-1,-1
7=-1,-1,-1
-1=16,24,-1
-1=15,-1,-1
-1=-1,-1,-1
-1=44,-1,-1
27=21,-1,-1
41=-1,-1,-1
-1=26,-1,-1
-1=-1,-1,-1
-1=22,-1,-1
1=-1,-1,-1
44=27,-1,-1
24=-1,-1,-1
-1=-1,-1,-1
-1=-1,-1,-1
-1=-1,-1,-1
36=39,-1,-1
-1=-1,-1,-1
-1=-1,-1,-1
-1=-1,-1,-1
-1=-1,-1,-1
-1=7,-1,-1
-1=25,-1,-1
-1=-1,-1,-1
-1=-1,-1,-1
-1=-1,-1,-1
7=-1,-1,-1
-1=19,42,-1
-1=36,-1,-1
-1=18,-1,-1
-1=20,-1,-1
-1=-1,-1,-1
-1=-1,-1,-1
3=7,-1,-1
37=-1,-1,-1
36=3,-1,-1
-1=24,44,-1
-1=-1,-1,-1
-1=-1,-1,-1
-1=-1,-1,-1
-1=1,-1,-1
-1=41,-1,-1
-1=-1,-1,-1
-1=37,-1,-1
-1=-1,-1,-1
16=-1,-1,-1
-1=-1,-1,-1
-1=-1,-1,-1
-1=-1,-1,-1
-1=-1,-1,-1
-1=-1,-1,-1
2=-1,-1,-1
-1=-1,-1,-1
-1=-1,-1,-1
-1=2,-1,-1
43=-1,-1,-1
-1=36,-1,-1
-1=38,-1,-1
-1=16,-1,-1
-1=-1,-1,-1
-1=-1,-1,-1
-1=-1,-1,-1
-1=-1,-1,-1
-1=-1,-1,-1
-1=43,-1,-1
19=-1,-1,-1
-1=19,-1,-1
29=-1,-1,-1
42=-1,-1,-1
6=-1,-1,-1
-1=-1,-1,-1
-1=-1,-1,-1
-1=-1,-1,-1
-1=6,29,-1
-1=42,-1,-1
-1=-1,-1,-1
38=-1,-1,-1
-1=38,-1,-1
-1=-1,-1,-1
-1=-1,-1,-1
44=-1,-1,-1
-1=44,-1,-1
--------
44 ,
,44 
,
,
38 ,
,38 
,
42 ,
6 29 42 ,42 
6 29 42 ,6 29 42 
6 29 42 ,6 29 42 
6 29 42 ,6 29 42 
29 42 ,6 29 42 
29 ,29 42 
,29 
19 ,
,19 
43 ,
43 ,43 
43 ,43 
43 ,43 
43 ,43 
43 ,43 
16 43 ,43 
16 38 43 ,16 43 
16 36 38 43 ,16 38 43 
16 36 38 ,16 36 38 43 
2 16 36 38 ,16 36 38 
2 16 36 38 ,2 16 36 38 
2 16 36 38 ,2 16 36 38 
16 36 38 ,2 16 36 38 
16 36 38 ,16 36 38 
16 36 38 ,16 36 38 
16 36 38 ,16 36 38 
16 36 38 ,16 36 38 
16 36 38 ,16 36 38 
36 38 ,16 36 38 
36 38 ,36 38 
36 37 38 ,36 38 
36 37 38 ,36 37 38 
36 37 38 41 ,36 37 38 
1 36 37 38 41 ,36 37 38 41 
1 36 37 38 41 ,1 36 37 38 41 
1 36 37 38 41 ,1 36 37 38 41 
1 36 37 38 41 ,1 36 37 38 41 
1 24 36 37 38 41 44 ,1 36 37 38 41 
1 3 24 37 38 41 44 ,1 24 36 37 38 41 44 
1 3 24 38 41 44 ,1 3 24 37 38 41 44 
1 7 24 38 41 44 ,1 3 24 38 41 44 
1 7 24 38 41 44 ,1 7 24 38 41 44 
1 7 24 38 41 44 ,1 7 24 38 41 44 
1 7 20 24 38 41 44 ,1 7 24 38 41 44 
1 7 18 20 24 38 41 44 ,1 7 20 24 38 41 44 
1 7 18 20 24 36 38 41 44 ,1 7 18 20 24 38 41 44 
1 7 18 19 20 24 36 38 41 42 44 ,1 7 18 20 24 36 38 41 44 
1 18 19 20 24 36 38 41 42 44 ,1 7 18 19 20 24 36 38 41 42 44 
1 18 19 20 24 36 38 41 42 44 ,1 18 19 20 24 36 38 41 42 44 
1 18 19 20 24 36 38 41 42 44 ,1 18 19 20 24 36 38 41 42 44 
1 18 19 20 24 36 38 41 42 44 ,1 18 19 20 24 36 38 41 42 44 
1 18 19 20 24 25 36 38 41 42 44 ,1 18 19 20 24 36 38 41 42 44 
1 7 18 19 20 24 25 36 38 41 42 44 ,1 18 19 20 24 25 36 38 41 42 44 
1 7 18 19 20 24 25 36 38 41 42 44 ,1 7 18 19 20 24 25 36 38 41 42 44 
1 7 18 19 20 24 25 36 38 41 42 44 ,1 7 18 19 20 24 25 36 38 41 42 44 
1 7 18 19 20 24 25 36 38 41 42 44 ,1 7 18 19 20 24 25 36 38 41 42 44 
1 7 18 19 20 24 25 36 38 41 42 44 ,1 7 18 19 20 24 25 36 38 41 42 44 
1 7 18 19 20 24 25 38 39 41 42 44 ,1 7 18 19 20 24 25 36 38 41 42 44 
1 7 18 19 20 24 25 38 39 41 42 44 ,1 7 18 19 20 24 25 38 39 41 42 44 
1 7 18 19 20 24 25 38 39 41 42 44 ,1 7 18 19 20 24 25 38 39 41 42 44 
1 7 18 19 20 24 25 38 39 41 42 44 ,1 7 18 19 20 24 25 38 39 41 42 44 
1 7 18 19 20 25 38 39 41 42 44 ,1 7 18 19 20 24 25 38 39 41 42 44 
1 7 18 19 20 25 27 38 39 41 42 ,1 7 18 19 20 25 38 39 41 42 44 
7 18 19 20 25 27 38 39 41 42 ,1 7 18 19 20 25 27 38 39 41 42 
7 18 19 20 22 25 27 38 39 41 42 ,7 18 19 20 25 27 38 39 41 42 
7 18 19 20 22 25 27 38 39 41 42 ,7 18 19 20 22 25 27 38 39 41 42 
7 18 19 20 22 25 26 27 38 39 41 42 ,7 18 19 20 22 25 27 38 39 41 42 
7 18 19 20 22 25 26 27 38 39 42 ,7 18 19 20 22 25 26 27 38 39 41 42 
7 18 19 20 21 22 25 26 38 39 42 ,7 18 19 20 22 25 26 27 38 39 42 
7 18 19 20 21 22 25 26 38 39 42 44 ,7 18 19 20 21 22 25 26 38 39 42 
7 18 19 20 21 22 25 26 38 39 42 44 ,7 18 19 20 21 22 25 26 38 39 42 44 
7 15 18 19 20 21 22 25 26 38 39 42 44 ,7 18 19 20 21 22 25 26 38 39 42 44 
7 15 16 18 19 20 21 22 24 25 26 38 39 42 44 ,7 15 18 19 20 21 22 25 26 38 39 42 44 
15 16 18 19 20 21 22 24 25 26 38 39 42 44 ,7 15 16 18 19 20 21 22 24 25 26 38 39 42 44 
15 16 18 19 20 21 22 24 25 26 38 39 42 44 ,15 16 18 19 20 21 22 24 25 26 38 39 42 44 
15 18 19 20 21 22 24 25 26 38 39 42 44 ,15 16 18 19 20 21 22 24 25 26 38 39 42 44 
15 18 19 20 21 22 24 25 26 38 39 44 ,15 18 19 20 21 22 24 25 26 38 39 42 44 
15 18 19 20 21 22 24 25 26 33 38 39 ,15 18 19 20 21 22 24 25 26 38 39 44 
15 18 19 20 21 22 24 25 26 33 38 39 ,15 18 19 20 21 22 24 25 26 33 38 39 
15 18 19 20 21 22 24 25 26 33 38 39 ,15 18 19 20 21 22 24 25 26 33 38 39 
15 17 18 19 20 21 22 24 25 26 33 38 39 ,15 18 19 20 21 22 24 25 26 33 38 39 
15 17 18 19 20 21 22 24 25 26 33 38 39 ,15 17 18 19 20 21 22 24 25 26 33 38 39 
15 17 18 19 20 21 22 24 26 33 38 39 ,15 17 18 19 20 21 22 24 25 26 33 38 39 
15 17 18 19 20 21 22 24 26 33 38 ,15 17 18 19 20 21 22 24 26 33 38 39 
15 17 18 19 20 21 22 24 26 33 38 ,15 17 18 19 20 21 22 24 26 33 38 
15 17 18 19 20 21 22 24 26 33 ,15 17 18 19 20 21 22 24 26 33 38 
15 17 18 19 21 22 24 26 31 33 35 ,15 17 18 19 20 21 22 24 26 33 
15 17 19 21 22 24 26 31 33 35 ,15 17 18 19 21 22 24 26 31 33 35 
17 19 21 22 24 26 31 33 35 ,15 17 19 21 22 24 26 31 33 35 
17 19 21 22 24 26 31 33 35 44 ,17 19 21 22 24 26 31 33 35 
17 19 21 22 24 26 31 33 35 44 ,17 19 21 22 24 26 31 33 35 44 
17 19 21 22 24 26 31 33 35 44 ,17 19 21 22 24 26 31 33 35 44 
17 19 21 22 24 26 31 33 35 44 ,17 19 21 22 24 26 31 33 35 44 
17 19 21 22 24 26 31 33 35 44 ,17 19 21 22 24 26 31 33 35 44 
17 19 21 22 24 26 31 33 35 43 44 ,17 19 21 22 24 26 31 33 35 44 
17 19 21 22 24 26 31 33 35 43 44 ,17 19 21 22 24 26 31 33 35 43 44 
17 19 21 22 24 26 31 33 35 43 44 ,17 19 21 22 24 26 31 33 35 43 44 
17 19 21 22 24 31 33 35 43 44 ,17 19 21 22 24 26 31 33 35 43 44 
17 19 21 22 24 31 33 35 43 44 ,17 19 21 22 24 31 33 35 43 44 
17 19 21 22 24 31 33 35 43 44 ,17 19 21 22 24 31 33 35 43 44 
17 19 21 22 24 31 33 35 43 44 ,17 19 21 22 24 31 33 35 43 44 
17 19 21 22 24 31 33 35 43 44 ,17 19 21 22 24 31 33 35 43 44 
17 19 21 22 24 31 33 35 43 44 ,17 19 21 22 24 31 33 35 43 44 
16 17 19 21 22 24 25 31 33 35 43 44 ,17 19 21 22 24 31 33 35 43 44 
8 11 16 19 21 22 24 25 31 33 35 43 44 ,16 17 19 21 22 24 25 31 33 35 43 44 
1 8 11 16 19 21 22 24 25 31 33 34 35 43 44 ,8 11 16 19 21 22 24 25 31 33 35 43 44 
1 8 11 16 19 21 22 24 25 31 33 34 35 43 44 ,1 8 11 16 19 21 22 24 25 31 33 34 35 43 44 
1 8 11 16 19 21 22 25 31 33 34 35 43 44 ,1 8 11 16 19 21 22 24 25 31 33 34 35 43 44 
1 8 11 16 19 21 22 25 31 33 34 35 43 44 ,1 8 11 16 19 21 22 25 31 33 34 35 43 44 
1 8 11 16 19 21 22 25 31 33 34 35 43 44 ,1 8 11 16 19 21 22 25 31 33 34 35 43 44 
1 8 11 19 21 22 25 31 33 34 35 43 44 ,1 8 11 16 19 21 22 25 31 33 34 35 43 44 
1 8 11 19 21 22 25 31 33 34 35 43 44 ,1 8 11 19 21 22 25 31 33 34 35 43 44 
8 11 19 21 22 25 31 33 34 35 43 44 ,1 8 11 19 21 22 25 31 33 34 35 43 44 
8 11 15 19 21 22 25 31 33 34 35 43 44 ,8 11 19 21 22 25 31 33 34 35 43 44 
8 11 15 19 21 25 31 33 34 35 43 44 ,8 11 15 19 21 22 25 31 33 34 35 43 44 
8 11 15 19 21 25 31 33 34 35 43 44 ,8 11 15 19 21 25 31 33 34 35 43 44 
8 11 15 19 21 25 31 33 34 35 43 44 ,8 11 15 19 21 25 31 33 34 35 43 44 
8 11 12 15 19 21 25 31 34 35 43 44 ,8 11 15 19 21 25 31 33 34 35 43 44 
8 11 15 19 21 25 31 34 35 43 44 ,8 11 12 15 19 21 25 31 34 35 43 44 
8 11 15 19 21 25 31 34 43 44 ,8 11 15 19 21 25 31 34 35 43 44 
8 11 15 19 21 25 31 34 43 44 ,8 11 15 19 21 25 31 34 43 44 
8 11 15 19 21 25 31 34 43 44 ,8 11 15 19 21 25 31 34 43 44 
8 11 15 19 21 25 31 34 43 44 ,8 11 15 19 21 25 31 34 43 44 
8 11 15 19 21 25 31 34 43 44 49 ,8 11 15 19 21 25 31 34 43 44 
8 11 15 19 21 25 31 34 41 43 44 49 ,8 11 15 19 21 25 31 34 43 44 49 
8 11 15 19 21 25 31 34 41 43 44 49 ,8 11 15 19 21 25 31 34 41 43 44 49 
8 11 15 19 21 25 34 41 43 44 49 ,8 11 15 19 21 25 31 34 41 43 44 49 
8 11 15 19 21 25 34 41 43 44 49 ,8 11 15 19 21 25 34 41 43 44 49 
8 11 15 19 21 25 34 41 43 44 49 ,8 11 15 19 21 25 34 41 43 44 49 
8 11 15 19 21 25 34 41 43 44 ,8 11 15 19 21 25 34 41 43 44 49 
8 11 15 19 21 25 34 41 43 44 ,8 11 15 19 21 25 34 41 43 44 
8 11 15 19 21 25 34 41 43 44 ,8 11 15 19 21 25 34 41 43 44 
8 11 15 19 21 25 34 41 44 ,8 11 15 19 21 25 34 41 43 44 
8 11 12 15 19 21 25 34 41 44 ,8 11 15 19 21 25 34 41 44 
8 11 12 15 19 21 25 34 41 44 ,8 11 12 15 19 21 25 34 41 44 
8 11 12 15 19 21 25 34 41 44 ,8 11 12 15 19 21 25 34 41 44 
8 11 12 15 19 25 34 41 44 ,8 11 12 15 19 21 25 34 41 44 
8 11 12 14 15 19 25 34 41 44 ,8 11 12 15 19 25 34 41 44 
8 11 12 14 15 19 25 34 41 44 ,8 11 12 14 15 19 25 34 41 44 
8 11 12 14 15 19 25 34 41 44 ,8 11 12 14 15 19 25 34 41 44 
11 12 14 15 19 25 34 41 44 ,8 11 12 14 15 19 25 34 41 44 
11 12 14 15 19 25 34 41 44 ,11 12 14 15 19 25 34 41 44 
11 12 14 15 19 25 34 41 44 ,11 12 14 15 19 25 34 41 44 
11 12 14 15 19 25 33 34 41 44 ,11 12 14 15 19 25 34 41 44 
11 12 14 15 19 25 33 34 41 44 ,11 12 14 15 19 25 33 34 41 44 
11 12 14 15 19 25 34 41 44 ,11 12 14 15 19 25 33 34 41 44 
11 12 14 15 25 34 41 44 ,11 12 14 15 19 25 34 41 44 
11 14 15 25 34 41 44 ,11 12 14 15 25 34 41 44 
11 14 15 34 41 44 ,11 14 15 25 34 41 44 
11 14 15 34 41 44 ,11 14 15 34 41 44 
11 14 15 34 41 44 ,11 14 15 34 41 44 
11 14 15 34 41 44 ,11 14 15 34 41 44 
11 14 15 34 41 44 ,11 14 15 34 41 44 
11 14 15 34 41 44 ,11 14 15 34 41 44 
14 15 34 41 44 ,11 14 15 34 41 44 
14 15 27 34 41 44 ,14 15 34 41 44 
14 15 27 41 44 ,14 15 27 34 41 44 
14 15 27 41 44 ,14 15 27 41 44 
14 15 27 41 44 ,14 15 27 41 44 
14 15 27 41 44 ,14 15 27 41 44 
14 15 27 41 44 ,14 15 27 41 44 
14 15 27 41 44 ,14 15 27 41 44 
14 15 27 44 ,14 15 27 41 44 
14 15 27 44 ,14 15 27 44 
14 15 27 44 ,14 15 27 44 
14 15 27 44 ,14 15 27 44 
14 15 27 44 ,14 15 27 44 
14 15 27 44 ,14 15 27 44 
14 15 27 44 ,14 15 27 44 
14 15 27 44 ,14 15 27 44 
14 15 27 44 ,14 15 27 44 
14 15 27 44 ,14 15 27 44 
14 15 27 44 ,14 15 27 44 
14 15 27 44 ,14 15 27 44 
14 15 27 44 ,14 15 27 44 
14 15 27 44 ,14 15 27 44 
14 15 27 44 ,14 15 27 44 
12 14 15 27 44 ,14 15 27 44 
12 14 15 27 ,12 14 15 27 44 
12 15 27 ,12 14 15 27 
12 15 27 ,12 15 27 
12 15 27 ,12 15 27 
12 15 27 ,12 15 27 
12 27 ,12 15 27 
12 ,12 27 
12 ,12 
12 ,12 
,12 
,
,
,
,
--------
44 ,
,44 
,
,
38 ,
,38 
,
42 ,
6 29 42 ,42 
6 29 42 ,6 29 42 
6 29 42 ,6 29 42 
6 29 42 ,6 29 42 
29 42 ,6 29 42 
29 ,29 42 
,29 
19 ,
,19 
43 ,
43 ,43 
43 ,43 
43 ,43 
43 ,43 
43 ,43 
16 43 ,43 
16 38 43 ,16 43 
16 36 38 43 ,16 38 43 
16 36 38 ,16 36 38 43 
2 16 36 38 ,16 36 38 
2 16 36 38 ,2 16 36 38 
2 16 36 38 ,2 16 36 38 
16 36 38 ,2 16 36 38 
16 36 38 ,16 36 38 
16 36 38 ,16 36 38 
16 36 38 ,16 36 38 
16 36 38 ,16 36 38 
16 36 38 ,16 36 38 
36 38 ,16 36 38 
36 38 ,36 38 
36 37 38 ,36 38 
36 37 38 ,36 37 38 
36 37 38 41 ,36 37 38 
1 36 37 38 41 ,36 37 38 41 
1 36 37 38 41 ,1 36 37 38 41 
1 36 37 38 41 ,1 36 37 38 41 
1 36 37 38 41 ,1 36 37 38 41 
1 24 36 37 38 41 44 ,1 36 37 38 41 
1 3 24 37 38 41 44 ,1 24 36 37 38 41 44 
1 3 24 38 41 44 ,1 3 24 37 38 41 44 
1 7 24 38 41 44 ,1 3 24 38 41 44 
1 7 24 38 41 44 ,1 7 24 38 41 44 
1 7 24 38 41 44 ,1 7 24 38 41 44 
1 7 20 24 38 41 44 ,1 7 24 38 41 44 
1 7 18 20 24 38 41 44 ,1 7 20 24 38 41 44 
1 7 18 20 24 36 38 41 44 ,1 7 18 20 24 38 41 44 
1 7 18 19 20 24 36 38 41 42 44 ,1 7 18 20 24 36 38 41 44 
1 18 19 20 24 36 38 41 42 44 ,1 7 18 19 20 24 36 38 41 42 44 
1 18 19 20 24 36 38 41 42 44 ,1 18 19 20 24 36 38 41 42 44 
1 18 19 20 24 36 38 41 42 44 ,1 18 19 20 24 36 38 41 42 44 
1 18 19 20 24 36 38 41 42 44 ,1 18 19 20 24 36 38 41 42 44 
1 18 19 20 24 25 36 38 41 42 44 ,1 18 19 20 24 36 38 41 42 44 
1 7 18 19 20 24 25 36 38 41 42 44 ,1 18 19 20 24 25 36 38 41 42 44 
1 7 18 19 20 24 25 36 38 41 42 44 ,1 7 18 19 20 24 25 36 38 41 42 44 
1 7 18 19 20 24 25 36 38 41 42 44 ,1 7 18 19 20 24 25 36 38 41 42 44 
1 7 18 19 20 24 25 36 38 41 42 44 ,1 7 18 19 20 24 25 36 38 41 42 44 
1 7 18 19 20 24 25 36 38 41 42 44 ,1 7 18 19 20 24 25 36 38 41 42 44 
1 7 18 19 20 24 25 38 39 41 42 44 ,1 7 18 19 20 24 25 36 38 41 42 44 
1 7 18 19 20 24 25 38 39 41 42 44 ,1 7 18 19 20 24 25 38 39 41 42 44 
1 7 18 19 20 24 25 38 39 41 42 44 ,1 7 18 19 20 24 25 38 39 41 42 44 
1 7 18 19 20 24 25 38 39 41 42 44 ,1 7 18 19 20 24 25 38 39 41 42 44 
1 7 18 19 20 25 38 39 41 42 44 ,1 7 18 19 20 24 25 38 39 41 42 44 
1 7 18 19 20 25 27 38 39 41 42 ,1 7 18 19 20 25 38 39 41 42 44 
7 18 19 20 25 27 38 39 41 42 ,1 7 18 19 20 25 27 38 39 41 42 
7 18 19 20 22 25 27 38 39 41 42 ,7 18 19 20 25 27 38 39 41 42 
7 18 19 20 22 25 27 38 39 41 42 ,7 18 19 20 22 25 27 38 39 41 42 
7 18 19 20 22 25 26 27 38 39 41 42 ,7 18 19 20 22 25 27 38 39 41 42 
7 18 19 20 22 25 26 27 38 39 42 ,7 18 19 20 22 25 26 27 38 39 41 42 
7 18 19 20 21 22 25 26 38 39 42 ,7 18 19 20 22 25 26 27 38 39 42 
7 18 19 20 21 22 25 26 38 39 42 44 ,7 18 19 20 21 22 25 26 38 39 42 
7 18 19 20 21 22 25 26 38 39 42 44 ,7 18 19 20 21 22 25 26 38 39 42 44 
7 15 18 19 20 21 22 25 26 38 39 42 44 ,7 18 19 20 21 22 25 26 38 39 42 44 
7 15 16 18 19 20 21 22 24 25 26 38 39 42 44 ,7 15 18 19 20 21 22 25 26 38 39 42 44 
15 16 18 19 20 21 22 24 25 26 38 39 42 44 ,7 15 16 18 19 20 21 22 24 25 26 38 39 42 44 
15 16 18 19 20 21 22 24 25 26 38 39 42 44 ,15 16 18 19 20 21 22 24 25 26 38 39 42 44 
15 18 19 20 21 22 24 25 26 38 39 42 44 ,15 16 18 19 20 21 22 24 25 26 38 39 42 44 
15 18 19 20 21 22 24 25 26 38 39 44 ,15 18 19 20 21 22 24 25 26 38 39 42 44 
15 18 19 20 21 22 24 25 26 33 38 39 ,15 18 19 20 21 22 24 25 26 38 39 44 
15 18 19 20 21 22 24 25 26 33 38 39 ,15 18 19 20 21 22 24 25 26 33 38 39 
15 18 19 20 21 22 24 25 26 33 38 39 ,15 18 19 20 21 22 24 25 26 33 38 39 
15 17 18 19 20 21 22 24 25 26 33 38 39 ,15 18 19 20 21 22 24 25 26 33 38 39 
15 17 18 19 20 21 22 24 25 26 33 38 39 ,15 17 18 19 20 21 22 24 25 26 33 38 39 
15 17 18 19 20 21 22 24 26 33 38 39 ,15 17 18 19 20 21 22 24 25 26 33 38 39 
15 17 18 19 20 21 22 24 26 33 38 ,15 17 18 19 20 21 22 24 26 33 38 39 
15 17 18 19 20 21 22 24 26 33 38 ,15 17 18 19 20 21 22 24 26 33 38 
15 17 18 19 20 21 22 24 26 33 ,15 17 18 19 20 21 22 24 26 33 38 
15 17 18 19 21 22 24 26 31 33 35 ,15 17 18 19 20 21 22 24 26 33 
15 17 19 21 22 24 26 31 33 35 ,15 17 18 19 21 22 24 26 31 33 35 
17 19 21 22 24 26 31 33 35 ,15 17 19 21 22 24 26 31 33 35 
17 19 21 22 24 26 31 33 35 44 ,17 19 21 22 24 26 31 33 35 
17 19 21 22 24 26 31 33 35 44 ,17 19 21 22 24 26 31 33 35 44 
17 19 21 22 24 26 31 33 35 44 ,17 19 21 22 24 26 31 33 35 44 
17 19 21 22 24 26 31 33 35 44 ,17 19 21 22 24 26 31 33 35 44 
17 19 21 22 24 26 31 33 35 44 ,17 19 21 22 24 26 31 33 35 44 
17 19 21 22 24 26 31 33 35 43 44 ,17 19 21 22 24 26 31 33 35 44 
17 19 21 22 24 26 31 33 35 43 44 ,17 19 21 22 24 26 31 33 35 43 44 
17 19 21 22 24 26 31 33 35 43 44 ,17 19 21 22 24 26 31 33 35 43 44 
17 19 21 22 24 31 33 35 43 44 ,17 19 21 22 24 26 31 33 35 43 44 
17 19 21 22 24 31 33 35 43 44 ,17 19 21 22 24 31 33 35 43 44 
17 19 21 22 24 31 33 35 43 44 ,17 19 21 22 24 31 33 35 43 44 
17 19 21 22 24 31 33 35 43 44 ,17 19 21 22 24 31 33 35 43 44 
17 19 21 22 24 31 33 35 43 44 ,17 19 21 22 24 31 33 35 43 44 
17 19 21 22 24 31 33 35 43 44 ,17 19 21 22 24 31 33 35 43 44 
16 17 19 21 22 24 25 31 33 35 43 44 ,17 19 21 22 24 31 33 35 43 44 
8 11 16 19 21 22 24 25 31 33 35 43 44 ,16 17 19 21 22 24 25 31 33 35 43 44 
1 8 11 16 19 21 22 24 25 31 33 34 35 43 44 ,8 11 16 19 21 22 24 25 31 33 35 43 44 
1 8 11 16 19 21 22 24 25 31 33 34 35 43 44 ,1 8 11 16 19 21 22 24 25 31 33 34 35 43 44 
1 8 11 16 19 21 22 25 31 33 34 35 43 44 ,1 8 11 16 19 21 22 24 25 31 33 34 35 43 44 
1 8 11 16 19 21 22 25 31 33 34 35 43 44 ,1 8 11 16 19 21 22 25 31 33 34 35 43 44 
1 8 11 16 19 21 22 25 31 33 34 35 43 44 ,1 8 11 16 19 21 22 25 31 33 34 35 43 44 
1 8 11 19 21 22 25 31 33 34 35 43 44 ,1 8 11 16 19 21 22 25 31 33 34 35 43 44 
1 8 11 19 21 22 25 31 33 34 35 43 44 ,1 8 11 19 21 22 25 31 33 34 35 43 44 
8 11 19 21 22 25 31 33 34 35 43 44 ,1 8 11 19 21 22 25 31 33 34 35 43 44 
8 11 15 19 21 22 25 31 33 34 35 43 44 ,8 11 19 21 22 25 31 33 34 35 43 44 
8 11 15 19 21 25 31 33 34 35 43 44 ,8 11 15 19 21 22 25 31 33 34 35 43 44 
8 11 15 19 21 25 31 33 34 35 43 44 ,8 11 15 19 21 25 31 33 34 35 43 44 
8 11 15 19 21 25 31 33 34 35 43 44 ,8 11 15 19 21 25 31 33 34 35 43 44 
8 11 12 15 19 21 25 31 34 35 43 44 ,8 11 15 19 21 25 31 33 34 35 43 44 
8 11 15 19 21 25 31 34 35 43 44 ,8 11 12 15 19 21 25 31 34 35 43 44 
8 11 15 19 21 25 31 34 43 44 ,8 11 15 19 21 25 31 34 35 43 44 
8 11 15 19 21 25 31 34 43 44 ,8 11 15 19 21 25 31 34 43 44 
8 11 15 19 21 25 31 34 43 44 ,8 11 15 19 21 25 31 34 43 44 
8 11 15 19 21 25 31 34 43 44 ,8 11 15 19 21 25 31 34 43 44 
8 11 15 19 21 25 31 34 43 44 49 ,8 11 15 19 21 25 31 34 43 44 
8 11 15 19 21 25 31 34 41 43 44 49 ,8 11 15 19 21 25 31 34 43 44 49 
8 11 15 19 21 25 31 34 41 43 44 49 ,8 11 15 19 21 25 31 34 41 43 44 49 
8 11 15 19 21 25 34 41 43 44 49 ,8 11 15 19 21 25 31 34 41 43 44 49 
8 11 15 19 21 25 34 41 43 44 49 ,8 11 15 19 21 25 34 41 43 44 49 
8 11 15 19 21 25 34 41 43 44 49 ,8 11 15 19 21 25 34 41 43 44 49 
8 11 15 19 21 25 34 41 43 44 ,8 11 15 19 21 25 34 41 43 44 49 
8 11 15 19 21 25 34 41 43 44 ,8 11 15 19 21 25 34 41 43 44 
8 11 15 19 21 25 34 41 43 44 ,8 11 15 19 21 25 34 41 43 44 
8 11 15 19 21 25 34 41 44 ,8 11 15 19 21 25 34 41 43 44 
8 11 12 15 19 21 25 34 41 44 ,8 11 15 19 21 25 34 41 44 
8 11 12 15 19 21 25 34 41 44 ,8 11 12 15 19 21 25 34 41 44 
8 11 12 15 19 21 25 34 41 44 ,8 11 12 15 19 21 25 34 41 44 
8 11 12 15 19 25 34 41 44 ,8 11 12 15 19 21 25 34 41 44 
8 11 12 14 15 19 25 34 41 44 ,8 11 12 15 19 25 34 41 44 
8 11 12 14 15 19 25 34 41 44 ,8 11 12 14 15 19 25 34 41 44 
8 11 12 14 15 19 25 34 41 44 ,8 11 12 14 15 19 25 34 41 44 
11 12 14 15 19 25 34 41 44 ,8 11 12 14 15 19 25 34 41 44 
11 12 14 15 19 25 34 41 44 ,11 12 14 15 19 25 34 41 44 
11 12 14 15 19 25 34 41 44 ,11 12 14 15 19 25 34 41 44 
11 12 14 15 19 25 33 34 41 44 ,11 12 14 15 19 25 34 41 44 
11 12 14 15 19 25 33 34 41 44 ,11 12 14 15 19 25 33 34 41 44 
11 12 14 15 19 25 34 41 44 ,11 12 14 15 19 25 33 34 41 44 
11 12 14 15 25 34 41 44 ,11 12 14 15 19 25 34 41 44 
11 14 15 25 34 41 44 ,11 12 14 15 25 34 41 44 
11 14 15 34 41 44 ,11 14 15 25 34 41 44 
11 14 15 34 41 44 ,11 14 15 34 41 44 
11 14 15 34 41 44 ,11 14 15 34 41 44 
11 14 15 34 41 44 ,11 14 15 34 41 44 
11 14 15 34 41 44 ,11 14 15 34 41 44 
11 14 15 34 41 44 ,11 14 15 34 41 44 
14 15 34 41 44 ,11 14 15 34 41 44 
14 15 27 34 41 44 ,14 15 34 41 44 
14 15 27 41 44 ,14 15 27 34 41 44 
14 15 27 41 44 ,14 15 27 41 44 
14 15 27 41 44 ,14 15 27 41 44 
14 15 27 41 44 ,14 15 27 41 44 
14 15 27 41 44 ,14 15 27 41 44 
14 15 27 41 44 ,14 15 27 41 44 
14 15 27 44 ,14 15 27 41 44 
14 15 27 44 ,14 15 27 44 
14 15 27 44 ,14 15 27 44 
14 15 27 44 ,14 15 27 44 
14 15 27 44 ,14 15 27 44 
14 15 27 44 ,14 15 27 44 
14 15 27 44 ,14 15 27 44 
14 15 27 44 ,14 15 27 44 
14 15 27 44 ,14 15 27 44 
14 15 27 44 ,14 15 27 44 
14 15 27 44 ,14 15 27 44 
14 15 27 44 ,14 15 27 44 
14 15 27 44 ,14 15 27 44 
14 15 27 44 ,14 15 27 44 
14 15 27 44 ,14 15 27 44 
12 14 15 27 44 ,14 15 27 44 
12 14 15 27 ,12 14 15 27 44 
12 15 27 ,12 14 15 27 
12 15 27 ,12 15 27 
12 15 27 ,12 15 27 
12 15 27 ,12 15 27 
12 27 ,12 15 27 
12 ,12 27 
12 ,12 
12 ,12 
,12 
,
,
,
,
-------------
-------
1(-1)->3 7 8 11 16 18 19 20 21 22 24 25 27 31 33 34 35 36 37 38 39 41 42 43 44 
2(-1)->16 36 38 
3(-1)->1 24 37 38 41 44 
6(-1)->29 42 
7(-1)->1 15 16 18 19 20 21 22 24 25 26 27 36 38 39 41 42 44 
8(-1)->1 11 12 14 15 16 19 21 22 24 25 31 33 34 35 41 43 44 49 
11(-1)->1 8 12 14 15 16 19 21 22 24 25 31 33 34 35 41 43 44 49 
12(-1)->8 11 14 15 19 21 25 27 31 33 34 35 41 43 44 
14(-1)->8 11 12 15 19 25 27 33 34 41 44 
15(-1)->7 8 11 12 14 16 17 18 19 20 21 22 24 25 26 27 31 33 34 35 38 39 41 42 43 44 49 
16(-1)->1 2 7 8 11 15 17 18 19 20 21 22 24 25 26 31 33 34 35 36 38 39 42 43 44 
17(-1)->15 16 18 19 20 21 22 24 25 26 31 33 35 38 39 43 44 
18(-1)->1 7 15 16 17 19 20 21 22 24 25 26 27 31 33 35 36 38 39 41 42 44 
19(-1)->1 7 8 11 12 14 15 16 17 18 20 21 22 24 25 26 27 31 33 34 35 36 38 39 41 42 43 44 49 
20(-1)->1 7 15 16 17 18 19 21 22 24 25 26 27 33 36 38 39 41 42 44 
21(-1)->1 7 8 11 12 15 16 17 18 19 20 22 24 25 26 31 33 34 35 38 39 41 42 43 44 49 
22(-1)->1 7 8 11 15 16 17 18 19 20 21 24 25 26 27 31 33 34 35 38 39 41 42 43 44 
24(-1)->1 3 7 8 11 15 16 17 18 19 20 21 22 25 26 31 33 34 35 36 37 38 39 41 42 43 44 
25(-1)->1 7 8 11 12 14 15 16 17 18 19 20 21 22 24 26 27 31 33 34 35 36 38 39 41 42 43 44 49 
26(-1)->7 15 16 17 18 19 20 21 22 24 25 27 31 33 35 38 39 41 42 43 44 
27(-1)->1 7 12 14 15 18 19 20 22 25 26 34 38 39 41 42 44 
29(-1)->6 42 
31(-1)->1 8 11 12 15 16 17 18 19 21 22 24 25 26 33 34 35 41 43 44 49 
33(-1)->1 8 11 12 14 15 16 17 18 19 20 21 22 24 25 26 31 34 35 38 39 41 43 44 
34(-1)->1 8 11 12 14 15 16 19 21 22 24 25 27 31 33 35 41 43 44 49 
35(-1)->1 8 11 12 15 16 17 18 19 21 22 24 25 26 31 33 34 43 44 
36(-1)->1 2 7 16 18 19 20 24 25 37 38 41 42 43 44 
37(-1)->1 3 24 36 38 41 44 
38(-1)->1 2 3 7 15 16 17 18 19 20 21 22 24 25 26 27 33 36 37 39 41 42 43 44 
39(-1)->1 7 15 16 17 18 19 20 21 22 24 25 26 27 33 38 41 42 44 
41(-1)->1 3 7 8 11 12 14 15 18 19 20 21 22 24 25 26 27 31 33 34 36 37 38 39 42 43 44 49 
42(-1)->1 6 7 15 16 18 19 20 21 22 24 25 26 27 29 36 38 39 41 44 
43(-1)->1 8 11 12 15 16 17 19 21 22 24 25 26 31 33 34 35 36 38 41 44 49 
44(-1)->1 3 7 8 11 12 14 15 16 17 18 19 20 21 22 24 25 26 27 31 33 34 35 36 37 38 39 41 42 43 49 
49(-1)->8 11 15 19 21 25 31 34 41 43 44 
-------
1(0)->3 7 8 11 16 18 19 20 21 22 24 25 27 31 33 34 35 36 37 38 39 41 42 43 44 
2(0)->16 36 38 
3(1)->1 24 37 38 41 44 
6(0)->29 42 
7(1)->1 15 16 18 19 20 21 22 24 25 26 27 36 38 39 41 42 44 
8(1)->1 11 12 14 15 16 19 21 22 24 25 31 33 34 35 41 43 44 49 
11(2)->1 8 12 14 15 16 19 21 22 24 25 31 33 34 35 41 43 44 49 
12(0)->8 11 14 15 19 21 25 27 31 33 34 35 41 43 44 
14(3)->8 11 12 15 19 25 27 33 34 41 44 
15(4)->7 8 11 12 14 16 17 18 19 20 21 22 24 25 26 27 31 33 34 35 38 39 41 42 43 44 49 
16(3)->1 2 7 8 11 15 17 18 19 20 21 22 24 25 26 31 33 34 35 36 38 39 42 43 44 
17(0)->15 16 18 19 20 21 22 24 25 26 31 33 35 38 39 43 44 
18(2)->1 7 15 16 17 19 20 21 22 24 25 26 27 31 33 35 36 38 39 41 42 44 
19(5)->1 7 8 11 12 14 15 16 17 18 20 21 22 24 25 26 27 31 33 34 35 36 38 39 41 42 43 44 49 
20(6)->1 7 15 16 17 18 19 21 22 24 25 26 27 33 36 38 39 41 42 44 
21(7)->1 7 8 11 12 15 16 17 18 19 20 22 24 25 26 31 33 34 35 38 39 41 42 43 44 49 
22(8)->1 7 8 11 15 16 17 18 19 20 21 24 25 26 27 31 33 34 35 38 39 41 42 43 44 
24(9)->1 3 7 8 11 15 16 17 18 19 20 21 22 25 26 31 33 34 35 36 37 38 39 41 42 43 44 
25(10)->1 7 8 11 12 14 15 16 17 18 19 20 21 22 24 26 27 31 33 34 35 36 38 39 41 42 43 44 49 
26(11)->7 15 16 17 18 19 20 21 22 24 25 27 31 33 35 38 39 41 42 43 44 
27(7)->1 7 12 14 15 18 19 20 22 25 26 34 38 39 41 42 44 
29(1)->6 42 
31(6)->1 8 11 12 15 16 17 18 19 21 22 24 25 26 33 34 35 41 43 44 49 
33(12)->1 8 11 12 14 15 16 17 18 19 20 21 22 24 25 26 31 34 35 38 39 41 43 44 
34(11)->1 8 11 12 14 15 16 19 21 22 24 25 27 31 33 35 41 43 44 49 
35(13)->1 8 11 12 15 16 17 18 19 21 22 24 25 26 31 33 34 43 44 
36(4)->1 2 7 16 18 19 20 24 25 37 38 41 42 43 44 
37(2)->1 3 24 36 38 41 44 
38(13)->1 2 3 7 15 16 17 18 19 20 21 22 24 25 26 27 33 36 37 39 41 42 43 44 
39(14)->1 7 15 16 17 18 19 20 21 22 24 25 26 27 33 38 41 42 44 
41(15)->1 3 7 8 11 12 14 15 18 19 20 21 22 24 25 26 27 31 33 34 36 37 38 39 42 43 44 49 
42(12)->1 6 7 15 16 18 19 20 21 22 24 25 26 27 29 36 38 39 41 44 
43(14)->1 8 11 12 15 16 17 19 21 22 24 25 26 31 33 34 35 36 38 41 44 49 
44(16)->1 3 7 8 11 12 14 15 16 17 18 19 20 21 22 24 25 26 27 31 33 34 35 36 37 38 39 41 42 43 49 
49(0)->8 11 15 19 21 25 31 34 41 43 44 
COUNT: 0
BEST COST: 17
17
17
