-1=-1,-1,-1
-1=-1,-1,-1
-1=-1,-1,-1
-1=-1,-1,-1
-1=-1,-1,-1
-1=-1,-1,-1
24=-1,-1,-1
-1=24,-1,-1
-1=-1,-1,-1
-1=-1,-1,-1
24=-1,-1,-1
-1=-1,-1,-1
-1=-1,-1,-1
-1=-1,-1,-1
11=-1,-1,-1
-1=-1,-1,-1
-1=-1,-1,-1
-1=-1,-1,-1
40=-1,-1,-1
31=-1,-1,-1
1=-1,-1,-1
-1=-1,-1,-1
-1=-1,-1,-1
-1=-1,-1,-1
-1=-1,-1,-1
-1=-1,-1,-1
-1=-1,-1,-1
-1=-1,-1,-1
-1=-1,-1,-1
-1=-1,-1,-1
-1=-1,-1,-1
-1=-1,-1,-1
-1=-1,-1,-1
-1=-1,-1,-1
-1=-1,-1,-1
-1=-1,-1,-1
-1=40,-1,-1
8=-1,-1,-1
16=-1,-1,-1
-1=-1,-1,-1
34=-1,-1,-1
-1=-1,-1,-1
-1=-1,-1,-1
-1=-1,-1,-1
-1=-1,-1,-1
-1=-1,-1,-1
-1=-1,-1,-1
-1=-1,-1,-1
49=-1,-1,-1
38=-1,-1,-1
-1=-1,-1,-1
40=-1,-1,-1
-1=-1,-1,-1
-1=-1,-1,-1
3=-1,-1,-1
-1=-1,-1,-1
-1=-1,-1,-1
-1=-1,-1,-1
-1=31,-1,-1
-1=-1,-1,-1
-1=8,-1,-1
-1=38,-1,-1
-1=-1,-1,-1
-1=-1,-1,-1
-1=-1,-1,-1
38=-1,-1,-1
-1=-1,-1,-1
-1=16,-1,-1
48=-1,-1,-1
18=3,-1,-1
-1=-1,-1,-1
-1=40,-1,-1
-1=-1,-1,-1
-1=-1,-1,-1
-1=-1,-1,-1
-1=-1,-1,-1
-1=-1,-1,-1
-1=-1,-1,-1
8=-1,-1,-1
-1=-1,-1,-1
-1=-1,-1,-1
3=-1,-1,-1
-1=-1,-1,-1
-1=-1,-1,-1
-1=-1,-1,-1
-1=49,-1,-1
-1=-1,-1,-1
-1=-1,-1,-1
-1=-1,-1,-1
-1=-1,-1,-1
46=-1,-1,-1
25=-1,-1,-1
-1=-1,-1,-1
37=1,-1,-1
-1=-1,-1,-1
-1=-1,-1,-1
-1=-1,-1,-1
22=-1,-1,-1
43=-1,-1,-1
-1=-1,-1,-1
-1=-1,-1,-1
-1=-1,-1,-1
-1=-1,-1,-1
-1=3,-1,-1
-1=11,-1,-1
-1=-1,-1,-1
-1=-1,-1,-1
-1=-1,-1,-1
-1=46,-1,-1
-1=-1,-1,-1
19=24,-1,-1
-1=19,-1,-1
-1=8,-1,-1
-1=-1,-1,-1
-1=37,-1,-1
-1=-1,-1,-1
14=-1,-1,-1
-1=34,-1,-1
-1=-1,-1,-1
-1=43,-1,-1
-1=-1,-1,-1
-1=-1,-1,-1
-1=-1,-1,-1
-1=-1,-1,-1
-1=-1,-1,-1
-1=-1,-1,-1
-1=22,-1,-1
-1=38,-1,-1
-1=18,-1,-1
-1=-1,-1,-1
-1=-1,-1,-1
-1=-1,-1,-1
-1=48,-1,-1
-1=-1,-1,-1
-1=-1,-1,-1
28=-1,-1,-1
-1=-1,-1,-1
-1=-1,-1,-1
-1=-1,-1,-1
-1=-1,-1,-1
-1=25,-1,-1
-1=14,-1,-1
-1=-1,-1,-1
-1=-1,-1,-1
-1=-1,-1,-1
-1=-1,-1,-1
-1=-1,-1,-1
-1=-1,-1,-1
-1=-1,-1,-1
-1=-1,-1,-1
-1=-1,-1,-1
-1=-1,-1,-1
-1=-1,-1,-1
-1=-1,-1,-1
42=-1,-1,-1
-1=-1,-1,-1
-1=28,-1,-1
-1=-1,-1,-1
-1=-1,-1,-1
-1=-1,-1,-1
-1=-1,-1,-1
-1=-1,-1,-1
-1=-1,-1,-1
-1=-1,-1,-1
-1=-1,-1,-1
-1=-1,-1,-1
-1=-1,-1,-1
-1=-1,-1,-1
-1=-1,-1,-1
9=-1,-1,-1
-1=-1,-1,-1
-1=-1,-1,-1
-1=-1,-1,-1
-1=-1,-1,-1
-1=-1,-1,-1
24=-1,-1,-1
-1=24,-1,-1
7=-1,-1,-1
-1=-1,-1,-1
-1=7,-1,-1
-1=-1,-1,-1
24=-1,-1,-1
-1=-1,-1,-1
-1=-1,-1,-1
-1=9,-1,-1
-1=-1,-1,-1
-1=42,-1,-1
21=24,-1,-1
-1=21,-1,-1
-1=-1,-1,-1
42=-1,-1,-1
-1=-1,-1,-1
31=42,-1,-1
28=31,-1,-1
-1=-1,-1,-1
-1=28,-1,-1
-1=-1,-1,-1
-1=-1,-1,-1
-1=-1,-1,-1
-1=-1,-1,-1
--------
,
,
,
,
28 ,
28 ,28 
31 ,28 
42 ,31 
42 ,42 
,42 
,
21 ,
24 ,21 
24 42 ,24 
24 42 ,24 42 
9 24 42 ,24 42 
9 24 42 ,9 24 42 
9 24 42 ,9 24 42 
9 42 ,9 24 42 
9 42 ,9 42 
7 9 42 ,9 42 
7 9 42 ,7 9 42 
9 42 ,7 9 42 
9 24 42 ,9 42 
9 42 ,9 24 42 
9 42 ,9 42 
9 42 ,9 42 
9 42 ,9 42 
9 42 ,9 42 
9 42 ,9 42 
42 ,9 42 
42 ,42 
42 ,42 
42 ,42 
42 ,42 
42 ,42 
42 ,42 
42 ,42 
42 ,42 
42 ,42 
42 ,42 
42 ,42 
42 ,42 
28 42 ,42 
28 42 ,28 42 
28 ,28 42 
28 ,28 
28 ,28 
28 ,28 
28 ,28 
28 ,28 
28 ,28 
28 ,28 
28 ,28 
28 ,28 
28 ,28 
28 ,28 
28 ,28 
14 28 ,28 
14 25 28 ,14 28 
14 25 28 ,14 25 28 
14 25 28 ,14 25 28 
14 25 28 ,14 25 28 
14 25 28 ,14 25 28 
14 25 ,14 25 28 
14 25 ,14 25 
14 25 ,14 25 
14 25 48 ,14 25 
14 25 48 ,14 25 48 
14 25 48 ,14 25 48 
14 25 48 ,14 25 48 
14 18 25 48 ,14 25 48 
14 18 25 38 48 ,14 18 25 48 
14 18 22 25 38 48 ,14 18 25 38 48 
14 18 22 25 38 48 ,14 18 22 25 38 48 
14 18 22 25 38 48 ,14 18 22 25 38 48 
14 18 22 25 38 48 ,14 18 22 25 38 48 
14 18 22 25 38 48 ,14 18 22 25 38 48 
14 18 22 25 38 48 ,14 18 22 25 38 48 
14 18 22 25 38 48 ,14 18 22 25 38 48 
14 18 22 25 38 43 48 ,14 18 22 25 38 48 
14 18 22 25 38 43 48 ,14 18 22 25 38 43 48 
14 18 22 25 34 38 43 48 ,14 18 22 25 38 43 48 
18 22 25 34 38 43 48 ,14 18 22 25 34 38 43 48 
18 22 25 34 38 43 48 ,18 22 25 34 38 43 48 
18 22 25 34 37 38 43 48 ,18 22 25 34 38 43 48 
18 22 25 34 37 38 43 48 ,18 22 25 34 37 38 43 48 
8 18 22 25 34 37 38 43 48 ,18 22 25 34 37 38 43 48 
8 18 19 22 25 34 37 38 43 48 ,8 18 22 25 34 37 38 43 48 
8 18 22 24 25 34 37 38 43 48 ,8 18 19 22 25 34 37 38 43 48 
8 18 22 24 25 34 37 38 43 48 ,8 18 22 24 25 34 37 38 43 48 
8 18 22 24 25 34 37 38 43 46 48 ,8 18 22 24 25 34 37 38 43 48 
8 18 22 24 25 34 37 38 43 46 48 ,8 18 22 24 25 34 37 38 43 46 48 
8 18 22 24 25 34 37 38 43 46 48 ,8 18 22 24 25 34 37 38 43 46 48 
8 18 22 24 25 34 37 38 43 46 48 ,8 18 22 24 25 34 37 38 43 46 48 
8 11 18 22 24 25 34 37 38 43 46 48 ,8 18 22 24 25 34 37 38 43 46 48 
3 8 11 18 22 24 25 34 37 38 43 46 48 ,8 11 18 22 24 25 34 37 38 43 46 48 
3 8 11 18 22 24 25 34 37 38 43 46 48 ,3 8 11 18 22 24 25 34 37 38 43 46 48 
3 8 11 18 22 24 25 34 37 38 43 46 48 ,3 8 11 18 22 24 25 34 37 38 43 46 48 
3 8 11 18 22 24 25 34 37 38 43 46 48 ,3 8 11 18 22 24 25 34 37 38 43 46 48 
3 8 11 18 22 24 25 34 37 38 43 46 48 ,3 8 11 18 22 24 25 34 37 38 43 46 48 
3 8 11 18 22 24 25 34 37 38 46 48 ,3 8 11 18 22 24 25 34 37 38 43 46 48 
3 8 11 18 24 25 34 37 38 46 48 ,3 8 11 18 22 24 25 34 37 38 46 48 
3 8 11 18 24 25 34 37 38 46 48 ,3 8 11 18 24 25 34 37 38 46 48 
3 8 11 18 24 25 34 37 38 46 48 ,3 8 11 18 24 25 34 37 38 46 48 
3 8 11 18 24 25 34 37 38 46 48 ,3 8 11 18 24 25 34 37 38 46 48 
1 3 8 11 18 24 25 34 38 46 48 ,3 8 11 18 24 25 34 37 38 46 48 
1 3 8 11 18 24 25 34 38 46 48 ,1 3 8 11 18 24 25 34 38 46 48 
1 3 8 11 18 24 34 38 46 48 ,1 3 8 11 18 24 25 34 38 46 48 
1 3 8 11 18 24 34 38 48 ,1 3 8 11 18 24 34 38 46 48 
1 3 8 11 18 24 34 38 48 ,1 3 8 11 18 24 34 38 48 
1 3 8 11 18 24 34 38 48 ,1 3 8 11 18 24 34 38 48 
1 3 8 11 18 24 34 38 48 ,1 3 8 11 18 24 34 38 48 
1 3 8 11 18 24 34 38 48 ,1 3 8 11 18 24 34 38 48 
1 3 8 11 18 24 34 38 48 49 ,1 3 8 11 18 24 34 38 48 
1 3 8 11 18 24 34 38 48 49 ,1 3 8 11 18 24 34 38 48 49 
1 3 8 11 18 24 34 38 48 49 ,1 3 8 11 18 24 34 38 48 49 
1 3 8 11 18 24 34 38 48 49 ,1 3 8 11 18 24 34 38 48 49 
1 8 11 18 24 34 38 48 49 ,1 3 8 11 18 24 34 38 48 49 
1 8 11 18 24 34 38 48 49 ,1 8 11 18 24 34 38 48 49 
1 8 11 18 24 34 38 48 49 ,1 8 11 18 24 34 38 48 49 
1 11 18 24 34 38 48 49 ,1 8 11 18 24 34 38 48 49 
1 11 18 24 34 38 48 49 ,1 11 18 24 34 38 48 49 
1 11 18 24 34 38 48 49 ,1 11 18 24 34 38 48 49 
1 11 18 24 34 38 48 49 ,1 11 18 24 34 38 48 49 
1 11 18 24 34 38 48 49 ,1 11 18 24 34 38 48 49 
1 11 18 24 34 38 48 49 ,1 11 18 24 34 38 48 49 
1 11 18 24 34 38 48 49 ,1 11 18 24 34 38 48 49 
1 11 18 24 34 38 40 48 49 ,1 11 18 24 34 38 48 49 
1 11 18 24 34 38 40 48 49 ,1 11 18 24 34 38 40 48 49 
1 3 11 24 34 38 40 48 49 ,1 11 18 24 34 38 40 48 49 
1 3 11 24 34 38 40 49 ,1 3 11 24 34 38 40 48 49 
1 3 11 16 24 34 38 40 49 ,1 3 11 24 34 38 40 49 
1 3 11 16 24 34 38 40 49 ,1 3 11 16 24 34 38 40 49 
1 3 11 16 24 34 40 49 ,1 3 11 16 24 34 38 40 49 
1 3 11 16 24 34 40 49 ,1 3 11 16 24 34 40 49 
1 3 11 16 24 34 40 49 ,1 3 11 16 24 34 40 49 
1 3 11 16 24 34 40 49 ,1 3 11 16 24 34 40 49 
1 3 11 16 24 34 38 40 49 ,1 3 11 16 24 34 40 49 
1 3 8 11 16 24 34 38 40 49 ,1 3 11 16 24 34 38 40 49 
1 3 8 11 16 24 34 38 40 49 ,1 3 8 11 16 24 34 38 40 49 
1 3 8 11 16 24 31 34 38 40 49 ,1 3 8 11 16 24 34 38 40 49 
1 3 8 11 16 24 31 34 38 40 49 ,1 3 8 11 16 24 31 34 38 40 49 
1 3 8 11 16 24 31 34 38 40 49 ,1 3 8 11 16 24 31 34 38 40 49 
1 3 8 11 16 24 31 34 38 40 49 ,1 3 8 11 16 24 31 34 38 40 49 
1 8 11 16 24 31 34 38 40 49 ,1 3 8 11 16 24 31 34 38 40 49 
1 8 11 16 24 31 34 38 40 49 ,1 8 11 16 24 31 34 38 40 49 
1 8 11 16 24 31 34 38 40 49 ,1 8 11 16 24 31 34 38 40 49 
1 8 11 16 24 31 34 38 49 ,1 8 11 16 24 31 34 38 40 49 
1 8 11 16 24 31 34 38 49 ,1 8 11 16 24 31 34 38 49 
1 8 11 16 24 31 34 49 ,1 8 11 16 24 31 34 38 49 
1 8 11 16 24 31 34 ,1 8 11 16 24 31 34 49 
1 8 11 16 24 31 34 ,1 8 11 16 24 31 34 
1 8 11 16 24 31 34 ,1 8 11 16 24 31 34 
1 8 11 16 24 31 34 ,1 8 11 16 24 31 34 
1 8 11 16 24 31 34 ,1 8 11 16 24 31 34 
1 8 11 16 24 31 34 ,1 8 11 16 24 31 34 
1 8 11 16 24 31 34 ,1 8 11 16 24 31 34 
1 8 11 16 24 31 34 ,1 8 11 16 24 31 34 
1 8 11 16 24 31 ,1 8 11 16 24 31 34 
1 8 11 16 24 31 ,1 8 11 16 24 31 
1 8 11 24 31 ,1 8 11 16 24 31 
1 11 24 31 ,1 8 11 24 31 
1 11 24 31 40 ,1 11 24 31 
1 11 24 31 40 ,1 11 24 31 40 
1 11 24 31 40 ,1 11 24 31 40 
1 11 24 31 40 ,1 11 24 31 40 
1 11 24 31 40 ,1 11 24 31 40 
1 11 24 31 40 ,1 11 24 31 40 
1 11 24 31 40 ,1 11 24 31 40 
1 11 24 31 40 ,1 11 24 31 40 
1 11 24 31 40 ,1 11 24 31 40 
1 11 24 31 40 ,1 11 24 31 40 
1 11 24 31 40 ,1 11 24 31 40 
1 11 24 31 40 ,1 11 24 31 40 
1 11 24 31 40 ,1 11 24 31 40 
1 11 24 31 40 ,1 11 24 31 40 
1 11 24 31 40 ,1 11 24 31 40 
1 11 24 31 40 ,1 11 24 31 40 
11 24 31 40 ,1 11 24 31 40 
11 24 40 ,11 24 31 40 
11 24 ,11 24 40 
11 24 ,11 24 
11 24 ,11 24 
11 24 ,11 24 
24 ,11 24 
24 ,24 
24 ,24 
24 ,24 
,24 
,
,
24 ,
,24 
,
,
,
,
,
,
--------
,
,
,
,
28 ,
28 ,28 
31 ,28 
42 ,31 
42 ,42 
,42 
,
21 ,
24 ,21 
24 42 ,24 
24 42 ,24 42 
9 24 42 ,24 42 
9 24 42 ,9 24 42 
9 24 42 ,9 24 42 
9 42 ,9 24 42 
9 42 ,9 42 
7 9 42 ,9 42 
7 9 42 ,7 9 42 
9 42 ,7 9 42 
9 24 42 ,9 42 
9 42 ,9 24 42 
9 42 ,9 42 
9 42 ,9 42 
9 42 ,9 42 
9 42 ,9 42 
9 42 ,9 42 
42 ,9 42 
42 ,42 
42 ,42 
42 ,42 
42 ,42 
42 ,42 
42 ,42 
42 ,42 
42 ,42 
42 ,42 
42 ,42 
42 ,42 
42 ,42 
28 42 ,42 
28 42 ,28 42 
28 ,28 42 
28 ,28 
28 ,28 
28 ,28 
28 ,28 
28 ,28 
28 ,28 
28 ,28 
28 ,28 
28 ,28 
28 ,28 
28 ,28 
28 ,28 
14 28 ,28 
14 25 28 ,14 28 
14 25 28 ,14 25 28 
14 25 28 ,14 25 28 
14 25 28 ,14 25 28 
14 25 28 ,14 25 28 
14 25 ,14 25 28 
14 25 ,14 25 
14 25 ,14 25 
14 25 48 ,14 25 
14 25 48 ,14 25 48 
14 25 48 ,14 25 48 
14 25 48 ,14 25 48 
14 18 25 48 ,14 25 48 
14 18 25 38 48 ,14 18 25 48 
14 18 22 25 38 48 ,14 18 25 38 48 
14 18 22 25 38 48 ,14 18 22 25 38 48 
14 18 22 25 38 48 ,14 18 22 25 38 48 
14 18 22 25 38 48 ,14 18 22 25 38 48 
14 18 22 25 38 48 ,14 18 22 25 38 48 
14 18 22 25 38 48 ,14 18 22 25 38 48 
14 18 22 25 38 48 ,14 18 22 25 38 48 
14 18 22 25 38 43 48 ,14 18 22 25 38 48 
14 18 22 25 38 43 48 ,14 18 22 25 38 43 48 
14 18 22 25 34 38 43 48 ,14 18 22 25 38 43 48 
18 22 25 34 38 43 48 ,14 18 22 25 34 38 43 48 
18 22 25 34 38 43 48 ,18 22 25 34 38 43 48 
18 22 25 34 37 38 43 48 ,18 22 25 34 38 43 48 
18 22 25 34 37 38 43 48 ,18 22 25 34 37 38 43 48 
8 18 22 25 34 37 38 43 48 ,18 22 25 34 37 38 43 48 
8 18 19 22 25 34 37 38 43 48 ,8 18 22 25 34 37 38 43 48 
8 18 22 24 25 34 37 38 43 48 ,8 18 19 22 25 34 37 38 43 48 
8 18 22 24 25 34 37 38 43 48 ,8 18 22 24 25 34 37 38 43 48 
8 18 22 24 25 34 37 38 43 46 48 ,8 18 22 24 25 34 37 38 43 48 
8 18 22 24 25 34 37 38 43 46 48 ,8 18 22 24 25 34 37 38 43 46 48 
8 18 22 24 25 34 37 38 43 46 48 ,8 18 22 24 25 34 37 38 43 46 48 
8 18 22 24 25 34 37 38 43 46 48 ,8 18 22 24 25 34 37 38 43 46 48 
8 11 18 22 24 25 34 37 38 43 46 48 ,8 18 22 24 25 34 37 38 43 46 48 
3 8 11 18 22 24 25 34 37 38 43 46 48 ,8 11 18 22 24 25 34 37 38 43 46 48 
3 8 11 18 22 24 25 34 37 38 43 46 48 ,3 8 11 18 22 24 25 34 37 38 43 46 48 
3 8 11 18 22 24 25 34 37 38 43 46 48 ,3 8 11 18 22 24 25 34 37 38 43 46 48 
3 8 11 18 22 24 25 34 37 38 43 46 48 ,3 8 11 18 22 24 25 34 37 38 43 46 48 
3 8 11 18 22 24 25 34 37 38 43 46 48 ,3 8 11 18 22 24 25 34 37 38 43 46 48 
3 8 11 18 22 24 25 34 37 38 46 48 ,3 8 11 18 22 24 25 34 37 38 43 46 48 
3 8 11 18 24 25 34 37 38 46 48 ,3 8 11 18 22 24 25 34 37 38 46 48 
3 8 11 18 24 25 34 37 38 46 48 ,3 8 11 18 24 25 34 37 38 46 48 
3 8 11 18 24 25 34 37 38 46 48 ,3 8 11 18 24 25 34 37 38 46 48 
3 8 11 18 24 25 34 37 38 46 48 ,3 8 11 18 24 25 34 37 38 46 48 
1 3 8 11 18 24 25 34 38 46 48 ,3 8 11 18 24 25 34 37 38 46 48 
1 3 8 11 18 24 25 34 38 46 48 ,1 3 8 11 18 24 25 34 38 46 48 
1 3 8 11 18 24 34 38 46 48 ,1 3 8 11 18 24 25 34 38 46 48 
1 3 8 11 18 24 34 38 48 ,1 3 8 11 18 24 34 38 46 48 
1 3 8 11 18 24 34 38 48 ,1 3 8 11 18 24 34 38 48 
1 3 8 11 18 24 34 38 48 ,1 3 8 11 18 24 34 38 48 
1 3 8 11 18 24 34 38 48 ,1 3 8 11 18 24 34 38 48 
1 3 8 11 18 24 34 38 48 ,1 3 8 11 18 24 34 38 48 
1 3 8 11 18 24 34 38 48 49 ,1 3 8 11 18 24 34 38 48 
1 3 8 11 18 24 34 38 48 49 ,1 3 8 11 18 24 34 38 48 49 
1 3 8 11 18 24 34 38 48 49 ,1 3 8 11 18 24 34 38 48 49 
1 3 8 11 18 24 34 38 48 49 ,1 3 8 11 18 24 34 38 48 49 
1 8 11 18 24 34 38 48 49 ,1 3 8 11 18 24 34 38 48 49 
1 8 11 18 24 34 38 48 49 ,1 8 11 18 24 34 38 48 49 
1 8 11 18 24 34 38 48 49 ,1 8 11 18 24 34 38 48 49 
1 11 18 24 34 38 48 49 ,1 8 11 18 24 34 38 48 49 
1 11 18 24 34 38 48 49 ,1 11 18 24 34 38 48 49 
1 11 18 24 34 38 48 49 ,1 11 18 24 34 38 48 49 
1 11 18 24 34 38 48 49 ,1 11 18 24 34 38 48 49 
1 11 18 24 34 38 48 49 ,1 11 18 24 34 38 48 49 
1 11 18 24 34 38 48 49 ,1 11 18 24 34 38 48 49 
1 11 18 24 34 38 48 49 ,1 11 18 24 34 38 48 49 
1 11 18 24 34 38 40 48 49 ,1 11 18 24 34 38 48 49 
1 11 18 24 34 38 40 48 49 ,1 11 18 24 34 38 40 48 49 
1 3 11 24 34 38 40 48 49 ,1 11 18 24 34 38 40 48 49 
1 3 11 24 34 38 40 49 ,1 3 11 24 34 38 40 48 49 
1 3 11 16 24 34 38 40 49 ,1 3 11 24 34 38 40 49 
1 3 11 16 24 34 38 40 49 ,1 3 11 16 24 34 38 40 49 
1 3 11 16 24 34 40 49 ,1 3 11 16 24 34 38 40 49 
1 3 11 16 24 34 40 49 ,1 3 11 16 24 34 40 49 
1 3 11 16 24 34 40 49 ,1 3 11 16 24 34 40 49 
1 3 11 16 24 34 40 49 ,1 3 11 16 24 34 40 49 
1 3 11 16 24 34 38 40 49 ,1 3 11 16 24 34 40 49 
1 3 8 11 16 24 34 38 40 49 ,1 3 11 16 24 34 38 40 49 
1 3 8 11 16 24 34 38 40 49 ,1 3 8 11 16 24 34 38 40 49 
1 3 8 11 16 24 31 34 38 40 49 ,1 3 8 11 16 24 34 38 40 49 
1 3 8 11 16 24 31 34 38 40 49 ,1 3 8 11 16 24 31 34 38 40 49 
1 3 8 11 16 24 31 34 38 40 49 ,1 3 8 11 16 24 31 34 38 40 49 
1 3 8 11 16 24 31 34 38 40 49 ,1 3 8 11 16 24 31 34 38 40 49 
1 8 11 16 24 31 34 38 40 49 ,1 3 8 11 16 24 31 34 38 40 49 
1 8 11 16 24 31 34 38 40 49 ,1 8 11 16 24 31 34 38 40 49 
1 8 11 16 24 31 34 38 40 49 ,1 8 11 16 24 31 34 38 40 49 
1 8 11 16 24 31 34 38 49 ,1 8 11 16 24 31 34 38 40 49 
1 8 11 16 24 31 34 38 49 ,1 8 11 16 24 31 34 38 49 
1 8 11 16 24 31 34 49 ,1 8 11 16 24 31 34 38 49 
1 8 11 16 24 31 34 ,1 8 11 16 24 31 34 49 
1 8 11 16 24 31 34 ,1 8 11 16 24 31 34 
1 8 11 16 24 31 34 ,1 8 11 16 24 31 34 
1 8 11 16 24 31 34 ,1 8 11 16 24 31 34 
1 8 11 16 24 31 34 ,1 8 11 16 24 31 34 
1 8 11 16 24 31 34 ,1 8 11 16 24 31 34 
1 8 11 16 24 31 34 ,1 8 11 16 24 31 34 
1 8 11 16 24 31 34 ,1 8 11 16 24 31 34 
1 8 11 16 24 31 ,1 8 11 16 24 31 34 
1 8 11 16 24 31 ,1 8 11 16 24 31 
1 8 11 24 31 ,1 8 11 16 24 31 
1 11 24 31 ,1 8 11 24 31 
1 11 24 31 40 ,1 11 24 31 
1 11 24 31 40 ,1 11 24 31 40 
1 11 24 31 40 ,1 11 24 31 40 
1 11 24 31 40 ,1 11 24 31 40 
1 11 24 31 40 ,1 11 24 31 40 
1 11 24 31 40 ,1 11 24 31 40 
1 11 24 31 40 ,1 11 24 31 40 
1 11 24 31 40 ,1 11 24 31 40 
1 11 24 31 40 ,1 11 24 31 40 
1 11 24 31 40 ,1 11 24 31 40 
1 11 24 31 40 ,1 11 24 31 40 
1 11 24 31 40 ,1 11 24 31 40 
1 11 24 31 40 ,1 11 24 31 40 
1 11 24 31 40 ,1 11 24 31 40 
1 11 24 31 40 ,1 11 24 31 40 
1 11 24 31 40 ,1 11 24 31 40 
11 24 31 40 ,1 11 24 31 40 
11 24 40 ,11 24 31 40 
11 24 ,11 24 40 
11 24 ,11 24 
11 24 ,11 24 
11 24 ,11 24 
24 ,11 24 
24 ,24 
24 ,24 
24 ,24 
,24 
,
,
24 ,
,24 
,
,
,
,
,
,
-------------
-------
1(-1)->3 8 11 16 18 24 25 31 34 38 40 46 48 49 
3(-1)->1 8 11 16 18 22 24 25 31 34 37 38 40 43 46 48 49 
7(-1)->9 42 
8(-1)->1 3 11 16 18 19 22 24 25 31 34 37 38 40 43 46 48 49 
9(-1)->7 24 42 
11(-1)->1 3 8 16 18 22 24 25 31 34 37 38 40 43 46 48 49 
14(-1)->18 22 25 28 34 38 43 48 
16(-1)->1 3 8 11 24 31 34 38 40 49 
18(-1)->1 3 8 11 14 19 22 24 25 34 37 38 40 43 46 48 49 
19(-1)->8 18 22 25 34 37 38 43 48 
21(-1)->
22(-1)->3 8 11 14 18 19 24 25 34 37 38 43 46 48 
24(-1)->1 3 8 9 11 16 18 22 25 31 34 37 38 40 42 43 46 48 49 
25(-1)->1 3 8 11 14 18 19 22 24 28 34 37 38 43 46 48 
28(-1)->14 25 42 
31(-1)->1 3 8 11 16 24 34 38 40 49 
34(-1)->1 3 8 11 14 16 18 19 22 24 25 31 37 38 40 43 46 48 49 
37(-1)->3 8 11 18 19 22 24 25 34 38 43 46 48 
38(-1)->1 3 8 11 14 16 18 19 22 24 25 31 34 37 40 43 46 48 49 
40(-1)->1 3 8 11 16 18 24 31 34 38 48 49 
42(-1)->7 9 24 28 
43(-1)->3 8 11 14 18 19 22 24 25 34 37 38 46 48 
46(-1)->1 3 8 11 18 22 24 25 34 37 38 43 48 
48(-1)->1 3 8 11 14 18 19 22 24 25 34 37 38 40 43 46 49 
49(-1)->1 3 8 11 16 18 24 31 34 38 40 48 
-------
1(0)->3 8 11 16 18 24 25 31 34 38 40 46 48 49 
3(1)->1 8 11 16 18 22 24 25 31 34 37 38 40 43 46 48 49 
7(0)->9 42 
8(2)->1 3 11 16 18 19 22 24 25 31 34 37 38 40 43 46 48 49 
9(1)->7 24 42 
11(3)->1 3 8 16 18 22 24 25 31 34 37 38 40 43 46 48 49 
14(0)->18 22 25 28 34 38 43 48 
16(4)->1 3 8 11 24 31 34 38 40 49 
18(4)->1 3 8 11 14 19 22 24 25 34 37 38 40 43 46 48 49 
19(0)->8 18 22 25 34 37 38 43 48 
21(0)->
22(5)->3 8 11 14 18 19 24 25 34 37 38 43 46 48 
24(6)->1 3 8 9 11 16 18 22 25 31 34 37 38 40 42 43 46 48 49 
25(7)->1 3 8 11 14 18 19 22 24 28 34 37 38 43 46 48 
28(1)->14 25 42 
31(5)->1 3 8 11 16 24 34 38 40 49 
34(8)->1 3 8 11 14 16 18 19 22 24 25 31 37 38 40 43 46 48 49 
37(9)->3 8 11 18 19 22 24 25 34 38 43 46 48 
38(10)->1 3 8 11 14 16 18 19 22 24 25 31 34 37 40 43 46 48 49 
40(7)->1 3 8 11 16 18 24 31 34 38 48 49 
42(2)->7 9 24 28 
43(11)->3 8 11 14 18 19 22 24 25 34 37 38 46 48 
46(12)->1 3 8 11 18 22 24 25 34 37 38 43 48 
48(13)->1 3 8 11 14 18 19 22 24 25 34 37 38 40 43 46 49 
49(9)->1 3 8 11 16 18 24 31 34 38 40 48 
COUNT: 0
BEST COST: 14
14
14
