28=-1,-1,-1
-1=-1,-1,-1
-1=-1,-1,-1
-1=-1,-1,-1
1=-1,-1,-1
-1=-1,-1,-1
-1=-1,-1,-1
50=-1,-1,-1
-1=-1,-1,-1
-1=-1,-1,-1
-1=-1,-1,-1
-1=-1,-1,-1
32=-1,-1,-1
-1=-1,-1,-1
-1=-1,-1,-1
-1=-1,-1,-1
-1=-1,-1,-1
38=-1,-1,-1
-1=-1,-1,-1
-1=32,-1,-1
44=-1,-1,-1
-1=-1,-1,-1
-1=-1,-1,-1
-1=-1,-1,-1
-1=-1,-1,-1
-1=-1,-1,-1
-1=-1,-1,-1
-1=-1,-1,-1
-1=-1,-1,-1
-1=-1,-1,-1
-1=-1,-1,-1
7=-1,-1,-1
49=-1,-1,-1
-1=28,-1,-1
-1=-1,-1,-1
-1=-1,-1,-1
-1=44,-1,-1
-1=-1,-1,-1
-1=-1,-1,-1
-1=-1,-1,-1
-1=-1,-1,-1
-1=-1,-1,-1
-1=-1,-1,-1
-1=-1,-1,-1
-1=7,-1,-1
-1=-1,-1,-1
-1=-1,-1,-1
44=-1,-1,-1
-1=-1,-1,-1
-1=-1,-1,-1
-1=-1,-1,-1
-1=-1,-1,-1
42=-1,-1,-1
-1=-1,-1,-1
-1=-1,-1,-1
43=-1,-1,-1
-1=-1,-1,-1
41=-1,-1,-1
-1=-1,-1,-1
15=-1,-1,-1
-1=-1,-1,-1
-1=-1,-1,-1
31=-1,-1,-1
36=-1,-1,-1
-1=-1,-1,-1
-1=-1,-1,-1
-1=-1,-1,-1
-1=-1,-1,-1
-1=-1,-1,-1
-1=-1,-1,-1
30=-1,-1,-1
10=-1,-1,-1
-1=1,-1,-1
-1=-1,-1,-1
3=50,-1,-1
-1=3,-1,-1
-1=-1,-1,-1
-1=49,-1,-1
-1=-1,-1,-1
-1=-1,-1,-1
-1=-1,-1,-1
-1=-1,-1,-1
-1=-1,-1,-1
-1=41,44,-1
-1=31,-1,-1
-1=15,-1,-1
-1=43,-1,-1
-1=-1,-1,-1
-1=-1,-1,-1
-1=-1,-1,-1
16=-1,-1,-1
-1=-1,-1,-1
-1=-1,-1,-1
-1=-1,-1,-1
21=-1,-1,-1
-1=-1,-1,-1
31=-1,-1,-1
-1=-1,-1,-1
32=-1,-1,-1
-1=-1,-1,-1
-1=-1,-1,-1
-1=-1,-1,-1
-1=-1,-1,-1
-1=-1,-1,-1
4=42,-1,-1
-1=36,-1,-1
-1=30,-1,-1
-1=-1,-1,-1
-1=4,-1,-1
-1=-1,-1,-1
-1=-1,-1,-1
-1=-1,-1,-1
-1=-1,-1,-1
-1=21,-1,-1
-1=-1,-1,-1
-1=32,-1,-1
-1=31,-1,-1
-1=10,-1,-1
29=-1,-1,-1
-1=-1,-1,-1
-1=-1,-1,-1
41=-1,-1,-1
10=-1,-1,-1
-1=29,-1,-1
-1=-1,-1,-1
17=16,38,-1
-1=17,41,-1
-1=-1,-1,-1
-1=-1,-1,-1
-1=-1,-1,-1
17=-1,-1,-1
-1=-1,-1,-1
-1=-1,-1,-1
-1=-1,-1,-1
7=-1,-1,-1
-1=-1,-1,-1
41=-1,-1,-1
-1=7,-1,-1
14=-1,-1,-1
-1=-1,-1,-1
-1=-1,-1,-1
-1=-1,-1,-1
-1=-1,-1,-1
15=14,-1,-1
-1=-1,-1,-1
-1=-1,-1,-1
-1=-1,-1,-1
-1=-1,-1,-1
-1=-1,-1,-1
-1=-1,-1,-1
-1=17,-1,-1
1=-1,-1,-1
-1=15,41,-1
-1=-1,-1,-1
-1=-1,-1,-1
-1=10,-1,-1
-1=-1,-1,-1
-1=-1,-1,-1
38=-1,-1,-1
-1=-1,-1,-1
-1=-1,-1,-1
-1=-1,-1,-1
-1=-1,-1,-1
-1=38,-1,-1
4=-1,-1,-1
-1=-1,-1,-1
-1=-1,-1,-1
-1=4,-1,-1
46=-1,-1,-1
-1=-1,-1,-1
-1=1,-1,-1
-1=-1,-1,-1
-1=46,-1,-1
-1=-1,-1,-1
38=-1,-1,-1
15=-1,-1,-1
-1=-1,-1,-1
-1=-1,-1,-1
-1=-1,-1,-1
-1=-1,-1,-1
-1=15,-1,-1
-1=-1,-1,-1
-1=-1,-1,-1
-1=-1,-1,-1
-1=38,-1,-1
-1=-1,-1,-1
-1=-1,-1,-1
27=-1,-1,-1
-1=-1,-1,-1
40=27,-1,-1
-1=-1,-1,-1
-1=-1,-1,-1
-1=-1,-1,-1
32=40,-1,-1
-1=-1,-1,-1
14=32,-1,-1
-1=-1,-1,-1
-1=14,-1,-1
-1=-1,-1,-1
-1=-1,-1,-1
--------
,
,
14 ,
14 ,14 
32 ,14 
32 ,32 
40 ,32 
40 ,40 
40 ,40 
40 ,40 
27 ,40 
27 ,27 
,27 
,
,
38 ,
38 ,38 
38 ,38 
38 ,38 
15 38 ,38 
15 38 ,15 38 
15 38 ,15 38 
15 38 ,15 38 
15 38 ,15 38 
38 ,15 38 
,38 
,
46 ,
46 ,46 
1 46 ,46 
1 46 ,1 46 
1 ,1 46 
1 4 ,1 
1 4 ,1 4 
1 4 ,1 4 
1 ,1 4 
1 38 ,1 
1 38 ,1 38 
1 38 ,1 38 
1 38 ,1 38 
1 38 ,1 38 
1 ,1 38 
1 ,1 
1 ,1 
1 10 ,1 
1 10 ,1 10 
1 10 ,1 10 
1 10 15 41 ,1 10 
10 15 41 ,1 10 15 41 
10 15 17 41 ,10 15 41 
10 15 17 41 ,10 15 17 41 
10 15 17 41 ,10 15 17 41 
10 15 17 41 ,10 15 17 41 
10 15 17 41 ,10 15 17 41 
10 15 17 41 ,10 15 17 41 
10 15 17 41 ,10 15 17 41 
10 14 17 41 ,10 15 17 41 
10 14 17 41 ,10 14 17 41 
10 14 17 41 ,10 14 17 41 
10 14 17 41 ,10 14 17 41 
10 14 17 41 ,10 14 17 41 
10 17 41 ,10 14 17 41 
7 10 17 41 ,10 17 41 
7 10 17 ,7 10 17 41 
7 10 17 ,7 10 17 
10 17 ,7 10 17 
10 17 ,10 17 
10 17 ,10 17 
10 17 ,10 17 
10 ,10 17 
10 ,10 
10 ,10 
10 ,10 
10 17 41 ,10 
10 16 38 41 ,10 17 41 
10 16 38 41 ,10 16 38 41 
10 16 29 38 41 ,10 16 38 41 
16 29 38 41 ,10 16 29 38 41 
16 29 38 ,16 29 38 41 
16 29 38 ,16 29 38 
16 29 38 ,16 29 38 
16 38 ,16 29 38 
10 16 38 ,16 38 
10 16 31 38 ,10 16 38 
10 16 31 32 38 ,10 16 31 38 
10 16 31 32 38 ,10 16 31 32 38 
10 16 21 31 32 38 ,10 16 31 32 38 
10 16 21 31 32 38 ,10 16 21 31 32 38 
10 16 21 31 32 38 ,10 16 21 31 32 38 
10 16 21 31 32 38 ,10 16 21 31 32 38 
10 16 21 31 32 38 ,10 16 21 31 32 38 
4 10 16 21 31 32 38 ,10 16 21 31 32 38 
4 10 16 21 31 32 38 ,4 10 16 21 31 32 38 
4 10 16 21 30 31 32 38 ,4 10 16 21 31 32 38 
4 10 16 21 30 31 32 36 38 ,4 10 16 21 30 31 32 38 
10 16 21 30 31 32 36 38 42 ,4 10 16 21 30 31 32 36 38 
10 16 21 30 31 32 36 38 42 ,10 16 21 30 31 32 36 38 42 
10 16 21 30 31 32 36 38 42 ,10 16 21 30 31 32 36 38 42 
10 16 21 30 31 32 36 38 42 ,10 16 21 30 31 32 36 38 42 
10 16 21 30 31 32 36 38 42 ,10 16 21 30 31 32 36 38 42 
10 16 21 30 31 32 36 38 42 ,10 16 21 30 31 32 36 38 42 
10 16 21 30 31 36 38 42 ,10 16 21 30 31 32 36 38 42 
10 16 21 30 31 36 38 42 ,10 16 21 30 31 36 38 42 
10 16 21 30 36 38 42 ,10 16 21 30 31 36 38 42 
10 16 21 30 36 38 42 ,10 16 21 30 36 38 42 
10 16 30 36 38 42 ,10 16 21 30 36 38 42 
10 16 30 36 38 42 ,10 16 30 36 38 42 
10 16 30 36 38 42 ,10 16 30 36 38 42 
10 16 30 36 38 42 ,10 16 30 36 38 42 
10 30 36 38 42 ,10 16 30 36 38 42 
10 30 36 38 42 ,10 30 36 38 42 
10 30 36 38 42 ,10 30 36 38 42 
10 30 36 38 42 ,10 30 36 38 42 
10 30 36 38 42 43 ,10 30 36 38 42 
10 15 30 36 38 42 43 ,10 30 36 38 42 43 
10 15 30 31 36 38 42 43 ,10 15 30 36 38 42 43 
10 15 30 31 36 38 41 42 43 44 ,10 15 30 31 36 38 42 43 
10 15 30 31 36 38 41 42 43 44 ,10 15 30 31 36 38 41 42 43 44 
10 15 30 31 36 38 41 42 43 44 ,10 15 30 31 36 38 41 42 43 44 
10 15 30 31 36 38 41 42 43 44 ,10 15 30 31 36 38 41 42 43 44 
10 15 30 31 36 38 41 42 43 44 ,10 15 30 31 36 38 41 42 43 44 
10 15 30 31 36 38 41 42 43 44 ,10 15 30 31 36 38 41 42 43 44 
10 15 30 31 36 38 41 42 43 44 49 ,10 15 30 31 36 38 41 42 43 44 
10 15 30 31 36 38 41 42 43 44 49 ,10 15 30 31 36 38 41 42 43 44 49 
3 10 15 30 31 36 38 41 42 43 44 49 ,10 15 30 31 36 38 41 42 43 44 49 
10 15 30 31 36 38 41 42 43 44 49 50 ,3 10 15 30 31 36 38 41 42 43 44 49 
10 15 30 31 36 38 41 42 43 44 49 50 ,10 15 30 31 36 38 41 42 43 44 49 50 
1 10 15 30 31 36 38 41 42 43 44 49 50 ,10 15 30 31 36 38 41 42 43 44 49 50 
1 15 30 31 36 38 41 42 43 44 49 50 ,1 10 15 30 31 36 38 41 42 43 44 49 50 
1 15 31 36 38 41 42 43 44 49 50 ,1 15 30 31 36 38 41 42 43 44 49 50 
1 15 31 36 38 41 42 43 44 49 50 ,1 15 31 36 38 41 42 43 44 49 50 
1 15 31 36 38 41 42 43 44 49 50 ,1 15 31 36 38 41 42 43 44 49 50 
1 15 31 36 38 41 42 43 44 49 50 ,1 15 31 36 38 41 42 43 44 49 50 
1 15 31 36 38 41 42 43 44 49 50 ,1 15 31 36 38 41 42 43 44 49 50 
1 15 31 36 38 41 42 43 44 49 50 ,1 15 31 36 38 41 42 43 44 49 50 
1 15 31 36 38 41 42 43 44 49 50 ,1 15 31 36 38 41 42 43 44 49 50 
1 15 31 38 41 42 43 44 49 50 ,1 15 31 36 38 41 42 43 44 49 50 
1 15 38 41 42 43 44 49 50 ,1 15 31 38 41 42 43 44 49 50 
1 15 38 41 42 43 44 49 50 ,1 15 38 41 42 43 44 49 50 
1 15 38 41 42 43 44 49 50 ,1 15 38 41 42 43 44 49 50 
1 38 41 42 43 44 49 50 ,1 15 38 41 42 43 44 49 50 
1 38 41 42 43 44 49 50 ,1 38 41 42 43 44 49 50 
1 38 42 43 44 49 50 ,1 38 41 42 43 44 49 50 
1 38 42 43 44 49 50 ,1 38 42 43 44 49 50 
1 38 42 44 49 50 ,1 38 42 43 44 49 50 
1 38 42 44 49 50 ,1 38 42 44 49 50 
1 38 42 44 49 50 ,1 38 42 44 49 50 
1 38 44 49 50 ,1 38 42 44 49 50 
1 38 44 49 50 ,1 38 44 49 50 
1 38 44 49 50 ,1 38 44 49 50 
1 38 44 49 50 ,1 38 44 49 50 
1 38 44 49 50 ,1 38 44 49 50 
1 38 49 50 ,1 38 44 49 50 
1 38 49 50 ,1 38 49 50 
1 38 49 50 ,1 38 49 50 
1 7 38 49 50 ,1 38 49 50 
1 7 38 49 50 ,1 7 38 49 50 
1 7 38 49 50 ,1 7 38 49 50 
1 7 38 49 50 ,1 7 38 49 50 
1 7 38 49 50 ,1 7 38 49 50 
1 7 38 49 50 ,1 7 38 49 50 
1 7 38 49 50 ,1 7 38 49 50 
1 7 38 49 50 ,1 7 38 49 50 
1 7 38 44 49 50 ,1 7 38 49 50 
1 7 38 44 49 50 ,1 7 38 44 49 50 
1 7 38 44 49 50 ,1 7 38 44 49 50 
1 7 28 38 44 49 50 ,1 7 38 44 49 50 
1 7 28 38 44 50 ,1 7 28 38 44 49 50 
1 28 38 44 50 ,1 7 28 38 44 50 
1 28 38 44 50 ,1 28 38 44 50 
1 28 38 44 50 ,1 28 38 44 50 
1 28 38 44 50 ,1 28 38 44 50 
1 28 38 44 50 ,1 28 38 44 50 
1 28 38 44 50 ,1 28 38 44 50 
1 28 38 44 50 ,1 28 38 44 50 
1 28 38 44 50 ,1 28 38 44 50 
1 28 38 44 50 ,1 28 38 44 50 
1 28 38 44 50 ,1 28 38 44 50 
1 28 38 44 50 ,1 28 38 44 50 
1 28 38 50 ,1 28 38 44 50 
1 28 32 38 50 ,1 28 38 50 
1 28 32 38 50 ,1 28 32 38 50 
1 28 32 50 ,1 28 32 38 50 
1 28 32 50 ,1 28 32 50 
1 28 32 50 ,1 28 32 50 
1 28 32 50 ,1 28 32 50 
1 28 32 50 ,1 28 32 50 
1 28 50 ,1 28 32 50 
1 28 50 ,1 28 50 
1 28 50 ,1 28 50 
1 28 50 ,1 28 50 
1 28 50 ,1 28 50 
1 28 ,1 28 50 
1 28 ,1 28 
1 28 ,1 28 
28 ,1 28 
28 ,28 
28 ,28 
28 ,28 
,28 
--------
,
,
14 ,
14 ,14 
32 ,14 
32 ,32 
40 ,32 
40 ,40 
40 ,40 
40 ,40 
27 ,40 
27 ,27 
,27 
,
,
38 ,
38 ,38 
38 ,38 
38 ,38 
15 38 ,38 
15 38 ,15 38 
15 38 ,15 38 
15 38 ,15 38 
15 38 ,15 38 
38 ,15 38 
,38 
,
46 ,
46 ,46 
1 46 ,46 
1 46 ,1 46 
1 ,1 46 
1 4 ,1 
1 4 ,1 4 
1 4 ,1 4 
1 ,1 4 
1 38 ,1 
1 38 ,1 38 
1 38 ,1 38 
1 38 ,1 38 
1 38 ,1 38 
1 ,1 38 
1 ,1 
1 ,1 
1 10 ,1 
1 10 ,1 10 
1 10 ,1 10 
1 10 15 41 ,1 10 
10 15 41 ,1 10 15 41 
10 15 17 41 ,10 15 41 
10 15 17 41 ,10 15 17 41 
10 15 17 41 ,10 15 17 41 
10 15 17 41 ,10 15 17 41 
10 15 17 41 ,10 15 17 41 
10 15 17 41 ,10 15 17 41 
10 15 17 41 ,10 15 17 41 
10 14 17 41 ,10 15 17 41 
10 14 17 41 ,10 14 17 41 
10 14 17 41 ,10 14 17 41 
10 14 17 41 ,10 14 17 41 
10 14 17 41 ,10 14 17 41 
10 17 41 ,10 14 17 41 
7 10 17 41 ,10 17 41 
7 10 17 ,7 10 17 41 
7 10 17 ,7 10 17 
10 17 ,7 10 17 
10 17 ,10 17 
10 17 ,10 17 
10 17 ,10 17 
10 ,10 17 
10 ,10 
10 ,10 
10 ,10 
10 17 41 ,10 
10 16 38 41 ,10 17 41 
10 16 38 41 ,10 16 38 41 
10 16 29 38 41 ,10 16 38 41 
16 29 38 41 ,10 16 29 38 41 
16 29 38 ,16 29 38 41 
16 29 38 ,16 29 38 
16 29 38 ,16 29 38 
16 38 ,16 29 38 
10 16 38 ,16 38 
10 16 31 38 ,10 16 38 
10 16 31 32 38 ,10 16 31 38 
10 16 31 32 38 ,10 16 31 32 38 
10 16 21 31 32 38 ,10 16 31 32 38 
10 16 21 31 32 38 ,10 16 21 31 32 38 
10 16 21 31 32 38 ,10 16 21 31 32 38 
10 16 21 31 32 38 ,10 16 21 31 32 38 
10 16 21 31 32 38 ,10 16 21 31 32 38 
4 10 16 21 31 32 38 ,10 16 21 31 32 38 
4 10 16 21 31 32 38 ,4 10 16 21 31 32 38 
4 10 16 21 30 31 32 38 ,4 10 16 21 31 32 38 
4 10 16 21 30 31 32 36 38 ,4 10 16 21 30 31 32 38 
10 16 21 30 31 32 36 38 42 ,4 10 16 21 30 31 32 36 38 
10 16 21 30 31 32 36 38 42 ,10 16 21 30 31 32 36 38 42 
10 16 21 30 31 32 36 38 42 ,10 16 21 30 31 32 36 38 42 
10 16 21 30 31 32 36 38 42 ,10 16 21 30 31 32 36 38 42 
10 16 21 30 31 32 36 38 42 ,10 16 21 30 31 32 36 38 42 
10 16 21 30 31 32 36 38 42 ,10 16 21 30 31 32 36 38 42 
10 16 21 30 31 36 38 42 ,10 16 21 30 31 32 36 38 42 
10 16 21 30 31 36 38 42 ,10 16 21 30 31 36 38 42 
10 16 21 30 36 38 42 ,10 16 21 30 31 36 38 42 
10 16 21 30 36 38 42 ,10 16 21 30 36 38 42 
10 16 30 36 38 42 ,10 16 21 30 36 38 42 
10 16 30 36 38 42 ,10 16 30 36 38 42 
10 16 30 36 38 42 ,10 16 30 36 38 42 
10 16 30 36 38 42 ,10 16 30 36 38 42 
10 30 36 38 42 ,10 16 30 36 38 42 
10 30 36 38 42 ,10 30 36 38 42 
10 30 36 38 42 ,10 30 36 38 42 
10 30 36 38 42 ,10 30 36 38 42 
10 30 36 38 42 43 ,10 30 36 38 42 
10 15 30 36 38 42 43 ,10 30 36 38 42 43 
10 15 30 31 36 38 42 43 ,10 15 30 36 38 42 43 
10 15 30 31 36 38 41 42 43 44 ,10 15 30 31 36 38 42 43 
10 15 30 31 36 38 41 42 43 44 ,10 15 30 31 36 38 41 42 43 44 
10 15 30 31 36 38 41 42 43 44 ,10 15 30 31 36 38 41 42 43 44 
10 15 30 31 36 38 41 42 43 44 ,10 15 30 31 36 38 41 42 43 44 
10 15 30 31 36 38 41 42 43 44 ,10 15 30 31 36 38 41 42 43 44 
10 15 30 31 36 38 41 42 43 44 ,10 15 30 31 36 38 41 42 43 44 
10 15 30 31 36 38 41 42 43 44 49 ,10 15 30 31 36 38 41 42 43 44 
10 15 30 31 36 38 41 42 43 44 49 ,10 15 30 31 36 38 41 42 43 44 49 
3 10 15 30 31 36 38 41 42 43 44 49 ,10 15 30 31 36 38 41 42 43 44 49 
10 15 30 31 36 38 41 42 43 44 49 50 ,3 10 15 30 31 36 38 41 42 43 44 49 
10 15 30 31 36 38 41 42 43 44 49 50 ,10 15 30 31 36 38 41 42 43 44 49 50 
1 10 15 30 31 36 38 41 42 43 44 49 50 ,10 15 30 31 36 38 41 42 43 44 49 50 
1 15 30 31 36 38 41 42 43 44 49 50 ,1 10 15 30 31 36 38 41 42 43 44 49 50 
1 15 31 36 38 41 42 43 44 49 50 ,1 15 30 31 36 38 41 42 43 44 49 50 
1 15 31 36 38 41 42 43 44 49 50 ,1 15 31 36 38 41 42 43 44 49 50 
1 15 31 36 38 41 42 43 44 49 50 ,1 15 31 36 38 41 42 43 44 49 50 
1 15 31 36 38 41 42 43 44 49 50 ,1 15 31 36 38 41 42 43 44 49 50 
1 15 31 36 38 41 42 43 44 49 50 ,1 15 31 36 38 41 42 43 44 49 50 
1 15 31 36 38 41 42 43 44 49 50 ,1 15 31 36 38 41 42 43 44 49 50 
1 15 31 36 38 41 42 43 44 49 50 ,1 15 31 36 38 41 42 43 44 49 50 
1 15 31 38 41 42 43 44 49 50 ,1 15 31 36 38 41 42 43 44 49 50 
1 15 38 41 42 43 44 49 50 ,1 15 31 38 41 42 43 44 49 50 
1 15 38 41 42 43 44 49 50 ,1 15 38 41 42 43 44 49 50 
1 15 38 41 42 43 44 49 50 ,1 15 38 41 42 43 44 49 50 
1 38 41 42 43 44 49 50 ,1 15 38 41 42 43 44 49 50 
1 38 41 42 43 44 49 50 ,1 38 41 42 43 44 49 50 
1 38 42 43 44 49 50 ,1 38 41 42 43 44 49 50 
1 38 42 43 44 49 50 ,1 38 42 43 44 49 50 
1 38 42 44 49 50 ,1 38 42 43 44 49 50 
1 38 42 44 49 50 ,1 38 42 44 49 50 
1 38 42 44 49 50 ,1 38 42 44 49 50 
1 38 44 49 50 ,1 38 42 44 49 50 
1 38 44 49 50 ,1 38 44 49 50 
1 38 44 49 50 ,1 38 44 49 50 
1 38 44 49 50 ,1 38 44 49 50 
1 38 44 49 50 ,1 38 44 49 50 
1 38 49 50 ,1 38 44 49 50 
1 38 49 50 ,1 38 49 50 
1 38 49 50 ,1 38 49 50 
1 7 38 49 50 ,1 38 49 50 
1 7 38 49 50 ,1 7 38 49 50 
1 7 38 49 50 ,1 7 38 49 50 
1 7 38 49 50 ,1 7 38 49 50 
1 7 38 49 50 ,1 7 38 49 50 
1 7 38 49 50 ,1 7 38 49 50 
1 7 38 49 50 ,1 7 38 49 50 
1 7 38 49 50 ,1 7 38 49 50 
1 7 38 44 49 50 ,1 7 38 49 50 
1 7 38 44 49 50 ,1 7 38 44 49 50 
1 7 38 44 49 50 ,1 7 38 44 49 50 
1 7 28 38 44 49 50 ,1 7 38 44 49 50 
1 7 28 38 44 50 ,1 7 28 38 44 49 50 
1 28 38 44 50 ,1 7 28 38 44 50 
1 28 38 44 50 ,1 28 38 44 50 
1 28 38 44 50 ,1 28 38 44 50 
1 28 38 44 50 ,1 28 38 44 50 
1 28 38 44 50 ,1 28 38 44 50 
1 28 38 44 50 ,1 28 38 44 50 
1 28 38 44 50 ,1 28 38 44 50 
1 28 38 44 50 ,1 28 38 44 50 
1 28 38 44 50 ,1 28 38 44 50 
1 28 38 44 50 ,1 28 38 44 50 
1 28 38 44 50 ,1 28 38 44 50 
1 28 38 50 ,1 28 38 44 50 
1 28 32 38 50 ,1 28 38 50 
1 28 32 38 50 ,1 28 32 38 50 
1 28 32 50 ,1 28 32 38 50 
1 28 32 50 ,1 28 32 50 
1 28 32 50 ,1 28 32 50 
1 28 32 50 ,1 28 32 50 
1 28 32 50 ,1 28 32 50 
1 28 50 ,1 28 32 50 
1 28 50 ,1 28 50 
1 28 50 ,1 28 50 
1 28 50 ,1 28 50 
1 28 50 ,1 28 50 
1 28 ,1 28 50 
1 28 ,1 28 
1 28 ,1 28 
28 ,1 28 
28 ,28 
28 ,28 
28 ,28 
,28 
-------------
-------
1(-1)->4 7 10 15 28 30 31 32 36 38 41 42 43 44 46 49 50 
3(-1)->10 15 30 31 36 38 41 42 43 44 49 
4(-1)->1 10 16 21 30 31 32 36 38 
7(-1)->1 10 17 28 38 41 44 49 50 
10(-1)->1 3 4 7 14 15 16 17 21 29 30 31 32 36 38 41 42 43 44 49 50 
14(-1)->10 17 41 
15(-1)->1 3 10 17 30 31 36 38 41 42 43 44 49 50 
16(-1)->4 10 21 29 30 31 32 36 38 41 42 
17(-1)->7 10 14 15 41 
21(-1)->4 10 16 30 31 32 36 38 42 
27(-1)->
28(-1)->1 7 32 38 44 49 50 
29(-1)->10 16 38 41 
30(-1)->1 3 4 10 15 16 21 31 32 36 38 41 42 43 44 49 50 
31(-1)->1 3 4 10 15 16 21 30 32 36 38 41 42 43 44 49 50 
32(-1)->1 4 10 16 21 28 30 31 36 38 42 50 
36(-1)->1 3 4 10 15 16 21 30 31 32 38 41 42 43 44 49 50 
38(-1)->1 3 4 7 10 15 16 21 28 29 30 31 32 36 41 42 43 44 49 50 
40(-1)->
41(-1)->1 3 7 10 14 15 16 17 29 30 31 36 38 42 43 44 49 50 
42(-1)->1 3 10 15 16 21 30 31 32 36 38 41 43 44 49 50 
43(-1)->1 3 10 15 30 31 36 38 41 42 44 49 50 
44(-1)->1 3 7 10 15 28 30 31 36 38 41 42 43 49 50 
46(-1)->1 
49(-1)->1 3 7 10 15 28 30 31 36 38 41 42 43 44 50 
50(-1)->1 7 10 15 28 30 31 32 36 38 41 42 43 44 49 
-------
1(0)->4 7 10 15 28 30 31 32 36 38 41 42 43 44 46 49 50 
3(0)->10 15 30 31 36 38 41 42 43 44 49 
4(1)->1 10 16 21 30 31 32 36 38 
7(1)->1 10 17 28 38 41 44 49 50 
10(2)->1 3 4 7 14 15 16 17 21 29 30 31 32 36 38 41 42 43 44 49 50 
14(0)->10 17 41 
15(1)->1 3 10 17 30 31 36 38 41 42 43 44 49 50 
16(0)->4 10 21 29 30 31 32 36 38 41 42 
17(3)->7 10 14 15 41 
21(3)->4 10 16 30 31 32 36 38 42 
27(0)->
28(2)->1 7 32 38 44 49 50 
29(1)->10 16 38 41 
30(4)->1 3 4 10 15 16 21 31 32 36 38 41 42 43 44 49 50 
31(5)->1 3 4 10 15 16 21 30 32 36 38 41 42 43 44 49 50 
32(6)->1 4 10 16 21 28 30 31 36 38 42 50 
36(7)->1 3 4 10 15 16 21 30 31 32 38 41 42 43 44 49 50 
38(8)->1 3 4 7 10 15 16 21 28 29 30 31 32 36 41 42 43 44 49 50 
40(0)->
41(6)->1 3 7 10 14 15 16 17 29 30 31 36 38 42 43 44 49 50 
42(9)->1 3 10 15 16 21 30 31 32 36 38 41 43 44 49 50 
43(3)->1 3 10 15 30 31 36 38 41 42 44 49 50 
44(10)->1 3 7 10 15 28 30 31 36 38 41 42 43 49 50 
46(1)->1 
49(11)->1 3 7 10 15 28 30 31 36 38 41 42 43 44 50 
50(12)->1 7 10 15 28 30 31 32 36 38 41 42 43 44 49 
COUNT: 0
BEST COST: 13
13
13
