-1=-1,-1,-1
-1=-1,-1,-1
-1=-1,-1,-1
41=-1,-1,-1
-1=-1,-1,-1
-1=-1,-1,-1
27=-1,-1,-1
-1=-1,-1,-1
48=-1,-1,-1
-1=-1,-1,-1
44=48,-1,-1
-1=-1,-1,-1
-1=-1,-1,-1
-1=-1,-1,-1
-1=-1,-1,-1
-1=-1,-1,-1
-1=-1,-1,-1
-1=-1,-1,-1
39=-1,-1,-1
-1=-1,-1,-1
-1=-1,-1,-1
-1=-1,-1,-1
1=39,-1,-1
48=-1,-1,-1
-1=-1,-1,-1
-1=-1,-1,-1
-1=-1,-1,-1
-1=-1,-1,-1
-1=-1,-1,-1
-1=-1,-1,-1
30=-1,-1,-1
-1=-1,-1,-1
12=-1,-1,-1
-1=-1,-1,-1
25=-1,-1,-1
-1=30,-1,-1
-1=-1,-1,-1
-1=-1,-1,-1
-1=-1,-1,-1
29=-1,-1,-1
-1=-1,-1,-1
-1=-1,-1,-1
39=-1,-1,-1
9=44,-1,-1
-1=1,-1,-1
-1=-1,-1,-1
-1=-1,-1,-1
-1=-1,-1,-1
14=-1,-1,-1
-1=-1,-1,-1
6=-1,-1,-1
-1=-1,-1,-1
33=-1,-1,-1
-1=-1,-1,-1
-1=-1,-1,-1
-1=25,-1,-1
-1=33,-1,-1
-1=-1,-1,-1
36=-1,-1,-1
-1=48,-1,-1
-1=-1,-1,-1
23=27,-1,-1
-1=41,-1,-1
-1=23,-1,-1
-1=-1,-1,-1
-1=-1,-1,-1
27=-1,-1,-1
-1=-1,-1,-1
-1=-1,-1,-1
-1=-1,-1,-1
25=-1,-1,-1
-1=-1,-1,-1
-1=-1,-1,-1
-1=-1,-1,-1
-1=-1,-1,-1
-1=-1,-1,-1
-1=-1,-1,-1
23=-1,-1,-1
-1=-1,-1,-1
-1=23,-1,-1
1=-1,-1,-1
-1=-1,-1,-1
5=12,-1,-1
23=-1,-1,-1
-1=-1,-1,-1
-1=-1,-1,-1
-1=-1,-1,-1
-1=5,29,-1
-1=-1,-1,-1
-1=-1,-1,-1
-1=14,-1,-1
-1=-1,-1,-1
-1=-1,-1,-1
-1=-1,-1,-1
-1=23,-1,-1
-1=-1,-1,-1
12=-1,-1,-1
-1=-1,-1,-1
-1=-1,-1,-1
-1=-1,-1,-1
-1=-1,-1,-1
-1=-1,-1,-1
-1=-1,-1,-1
-1=6,36,-1
-1=-1,-1,-1
-1=-1,-1,-1
-1=-1,-1,-1
-1=25,-1,-1
-1=-1,-1,-1
46=-1,-1,-1
-1=-1,-1,-1
-1=-1,-1,-1
-1=-1,-1,-1
-1=-1,-1,-1
-1=12,-1,-1
30=1,-1,-1
-1=39,-1,-1
18=-1,-1,-1
10=46,-1,-1
5=27,-1,-1
-1=-1,-1,-1
-1=-1,-1,-1
-1=-1,-1,-1
-1=-1,-1,-1
-1=-1,-1,-1
-1=18,-1,-1
-1=10,-1,-1
-1=-1,-1,-1
-1=-1,-1,-1
-1=30,-1,-1
-1=-1,-1,-1
-1=-1,-1,-1
-1=9,-1,-1
31=-1,-1,-1
-1=-1,-1,-1
-1=-1,-1,-1
-1=-1,-1,-1
22=-1,-1,-1
3=-1,-1,-1
-1=-1,-1,-1
-1=-1,-1,-1
-1=-1,-1,-1
-1=-1,-1,-1
-1=-1,-1,-1
-1=-1,-1,-1
-1=-1,-1,-1
-1=-1,-1,-1
-1=-1,-1,-1
-1=-1,-1,-1
-1=3,-1,-1
-1=-1,-1,-1
-1=22,-1,-1
-1=-1,-1,-1
-1=-1,-1,-1
-1=5,-1,-1
-1=-1,-1,-1
-1=-1,-1,-1
-1=-1,-1,-1
-1=-1,-1,-1
-1=-1,-1,-1
-1=-1,-1,-1
-1=-1,-1,-1
-1=-1,-1,-1
43=-1,-1,-1
-1=-1,-1,-1
17=31,-1,-1
-1=-1,-1,-1
-1=-1,-1,-1
-1=-1,-1,-1
-1=-1,-1,-1
9=-1,-1,-1
40=43,-1,-1
-1=40,-1,-1
38=17,-1,-1
-1=-1,-1,-1
29=-1,-1,-1
-1=-1,-1,-1
-1=-1,-1,-1
-1=38,-1,-1
11=29,-1,-1
-1=-1,-1,-1
-1=-1,-1,-1
-1=-1,-1,-1
-1=-1,-1,-1
-1=9,-1,-1
-1=-1,-1,-1
-1=-1,-1,-1
35=-1,-1,-1
29=11,-1,-1
-1=29,35,-1
-1=-1,-1,-1
-1=-1,-1,-1
8=-1,-1,-1
-1=-1,-1,-1
-1=8,-1,-1
-1=-1,-1,-1
47=-1,-1,-1
-1=47,-1,-1
-1=-1,-1,-1
-1=-1,-1,-1
--------
,
,
47 ,
,47 
,
8 ,
8 ,8 
,8 
,
,
29 35 ,
11 35 ,29 35 
11 ,11 35 
11 ,11 
11 ,11 
9 11 ,11 
9 11 ,9 11 
9 11 ,9 11 
9 11 ,9 11 
9 11 ,9 11 
9 29 ,9 11 
9 29 38 ,9 29 
9 29 38 ,9 29 38 
9 29 38 ,9 29 38 
9 38 ,9 29 38 
9 38 ,9 38 
9 17 ,9 38 
9 17 40 ,9 17 
9 17 43 ,9 17 40 
17 43 ,9 17 43 
17 43 ,17 43 
17 43 ,17 43 
17 43 ,17 43 
17 43 ,17 43 
31 43 ,17 43 
31 43 ,31 43 
31 ,31 43 
31 ,31 
31 ,31 
31 ,31 
31 ,31 
31 ,31 
31 ,31 
31 ,31 
31 ,31 
5 31 ,31 
5 31 ,5 31 
5 31 ,5 31 
5 22 31 ,5 31 
5 22 31 ,5 22 31 
3 5 22 31 ,5 22 31 
3 5 22 31 ,3 5 22 31 
3 5 22 31 ,3 5 22 31 
3 5 22 31 ,3 5 22 31 
3 5 22 31 ,3 5 22 31 
3 5 22 31 ,3 5 22 31 
3 5 22 31 ,3 5 22 31 
3 5 22 31 ,3 5 22 31 
3 5 22 31 ,3 5 22 31 
3 5 22 31 ,3 5 22 31 
3 5 22 31 ,3 5 22 31 
5 22 31 ,3 5 22 31 
5 31 ,5 22 31 
5 31 ,5 31 
5 31 ,5 31 
5 31 ,5 31 
5 ,5 31 
5 9 ,5 
5 9 ,5 9 
5 9 ,5 9 
5 9 30 ,5 9 
5 9 30 ,5 9 30 
5 9 30 ,5 9 30 
5 9 10 30 ,5 9 30 
5 9 10 18 30 ,5 9 10 30 
5 9 10 18 30 ,5 9 10 18 30 
5 9 10 18 30 ,5 9 10 18 30 
5 9 10 18 30 ,5 9 10 18 30 
5 9 10 18 30 ,5 9 10 18 30 
5 9 10 18 30 ,5 9 10 18 30 
9 10 18 27 30 ,5 9 10 18 30 
9 18 27 30 46 ,9 10 18 27 30 
9 27 30 46 ,9 18 27 30 46 
9 27 30 39 46 ,9 27 30 46 
1 9 27 39 46 ,9 27 30 39 46 
1 9 12 27 39 46 ,1 9 27 39 46 
1 9 12 27 39 46 ,1 9 12 27 39 46 
1 9 12 27 39 46 ,1 9 12 27 39 46 
1 9 12 27 39 46 ,1 9 12 27 39 46 
1 9 12 27 39 46 ,1 9 12 27 39 46 
1 9 12 27 39 ,1 9 12 27 39 46 
1 9 12 27 39 ,1 9 12 27 39 
1 9 12 25 27 39 ,1 9 12 27 39 
1 9 12 25 27 39 ,1 9 12 25 27 39 
1 9 12 25 27 39 ,1 9 12 25 27 39 
1 9 12 25 27 39 ,1 9 12 25 27 39 
1 6 9 12 25 27 36 39 ,1 9 12 25 27 39 
1 6 9 12 25 27 36 39 ,1 6 9 12 25 27 36 39 
1 6 9 12 25 27 36 39 ,1 6 9 12 25 27 36 39 
1 6 9 12 25 27 36 39 ,1 6 9 12 25 27 36 39 
1 6 9 12 25 27 36 39 ,1 6 9 12 25 27 36 39 
1 6 9 12 25 27 36 39 ,1 6 9 12 25 27 36 39 
1 6 9 12 25 27 36 39 ,1 6 9 12 25 27 36 39 
1 6 9 25 27 36 39 ,1 6 9 12 25 27 36 39 
1 6 9 25 27 36 39 ,1 6 9 25 27 36 39 
1 6 9 23 25 27 36 39 ,1 6 9 25 27 36 39 
1 6 9 23 25 27 36 39 ,1 6 9 23 25 27 36 39 
1 6 9 23 25 27 36 39 ,1 6 9 23 25 27 36 39 
1 6 9 23 25 27 36 39 ,1 6 9 23 25 27 36 39 
1 6 9 14 23 25 27 36 39 ,1 6 9 23 25 27 36 39 
1 6 9 14 23 25 27 36 39 ,1 6 9 14 23 25 27 36 39 
1 6 9 14 23 25 27 36 39 ,1 6 9 14 23 25 27 36 39 
1 5 6 9 14 23 25 27 29 36 39 ,1 6 9 14 23 25 27 36 39 
1 5 6 9 14 23 25 27 29 36 39 ,1 5 6 9 14 23 25 27 29 36 39 
1 5 6 9 14 23 25 27 29 36 39 ,1 5 6 9 14 23 25 27 29 36 39 
1 5 6 9 14 23 25 27 29 36 39 ,1 5 6 9 14 23 25 27 29 36 39 
1 5 6 9 14 25 27 29 36 39 ,1 5 6 9 14 23 25 27 29 36 39 
1 6 9 12 14 25 27 29 36 39 ,1 5 6 9 14 25 27 29 36 39 
1 6 9 12 14 25 27 29 36 39 ,1 6 9 12 14 25 27 29 36 39 
6 9 12 14 25 27 29 36 39 ,1 6 9 12 14 25 27 29 36 39 
6 9 12 14 23 25 27 29 36 39 ,6 9 12 14 25 27 29 36 39 
6 9 12 14 23 25 27 29 36 39 ,6 9 12 14 23 25 27 29 36 39 
6 9 12 14 25 27 29 36 39 ,6 9 12 14 23 25 27 29 36 39 
6 9 12 14 25 27 29 36 39 ,6 9 12 14 25 27 29 36 39 
6 9 12 14 25 27 29 36 39 ,6 9 12 14 25 27 29 36 39 
6 9 12 14 25 27 29 36 39 ,6 9 12 14 25 27 29 36 39 
6 9 12 14 25 27 29 36 39 ,6 9 12 14 25 27 29 36 39 
6 9 12 14 25 27 29 36 39 ,6 9 12 14 25 27 29 36 39 
6 9 12 14 25 27 29 36 39 ,6 9 12 14 25 27 29 36 39 
6 9 12 14 27 29 36 39 ,6 9 12 14 25 27 29 36 39 
6 9 12 14 27 29 36 39 ,6 9 12 14 27 29 36 39 
6 9 12 14 27 29 36 39 ,6 9 12 14 27 29 36 39 
6 9 12 14 27 29 36 39 ,6 9 12 14 27 29 36 39 
6 9 12 14 29 36 39 ,6 9 12 14 27 29 36 39 
6 9 12 14 29 36 39 ,6 9 12 14 29 36 39 
6 9 12 14 29 36 39 ,6 9 12 14 29 36 39 
6 9 12 14 23 29 36 39 ,6 9 12 14 29 36 39 
6 9 12 14 23 29 36 39 41 ,6 9 12 14 23 29 36 39 
6 9 12 14 27 29 36 39 41 ,6 9 12 14 23 29 36 39 41 
6 9 12 14 27 29 36 39 41 ,6 9 12 14 27 29 36 39 41 
6 9 12 14 27 29 36 39 41 48 ,6 9 12 14 27 29 36 39 41 
6 9 12 14 27 29 39 41 48 ,6 9 12 14 27 29 36 39 41 48 
6 9 12 14 27 29 39 41 48 ,6 9 12 14 27 29 39 41 48 
6 9 12 14 27 29 33 39 41 48 ,6 9 12 14 27 29 39 41 48 
6 9 12 14 25 27 29 33 39 41 48 ,6 9 12 14 27 29 33 39 41 48 
6 9 12 14 25 27 29 33 39 41 48 ,6 9 12 14 25 27 29 33 39 41 48 
6 9 12 14 25 27 29 33 39 41 48 ,6 9 12 14 25 27 29 33 39 41 48 
6 9 12 14 25 27 29 39 41 48 ,6 9 12 14 25 27 29 33 39 41 48 
6 9 12 14 25 27 29 39 41 48 ,6 9 12 14 25 27 29 39 41 48 
9 12 14 25 27 29 39 41 48 ,6 9 12 14 25 27 29 39 41 48 
9 12 14 25 27 29 39 41 48 ,9 12 14 25 27 29 39 41 48 
9 12 25 27 29 39 41 48 ,9 12 14 25 27 29 39 41 48 
9 12 25 27 29 39 41 48 ,9 12 25 27 29 39 41 48 
9 12 25 27 29 39 41 48 ,9 12 25 27 29 39 41 48 
9 12 25 27 29 39 41 48 ,9 12 25 27 29 39 41 48 
1 9 12 25 27 29 39 41 48 ,9 12 25 27 29 39 41 48 
1 12 25 27 29 39 41 44 48 ,1 9 12 25 27 29 39 41 48 
1 12 25 27 29 41 44 48 ,1 12 25 27 29 39 41 44 48 
1 12 25 27 29 41 44 48 ,1 12 25 27 29 41 44 48 
1 12 25 27 29 41 44 48 ,1 12 25 27 29 41 44 48 
1 12 25 27 41 44 48 ,1 12 25 27 29 41 44 48 
1 12 25 27 41 44 48 ,1 12 25 27 41 44 48 
1 12 25 27 41 44 48 ,1 12 25 27 41 44 48 
1 12 25 27 41 44 48 ,1 12 25 27 41 44 48 
1 12 25 27 30 41 44 48 ,1 12 25 27 41 44 48 
1 12 27 30 41 44 48 ,1 12 25 27 30 41 44 48 
1 12 27 30 41 44 48 ,1 12 27 30 41 44 48 
1 27 30 41 44 48 ,1 12 27 30 41 44 48 
1 27 30 41 44 48 ,1 27 30 41 44 48 
1 27 41 44 48 ,1 27 30 41 44 48 
1 27 41 44 48 ,1 27 41 44 48 
1 27 41 44 48 ,1 27 41 44 48 
1 27 41 44 48 ,1 27 41 44 48 
1 27 41 44 48 ,1 27 41 44 48 
1 27 41 44 48 ,1 27 41 44 48 
1 27 41 44 48 ,1 27 41 44 48 
1 27 41 44 ,1 27 41 44 48 
27 39 41 44 ,1 27 41 44 
27 39 41 44 ,27 39 41 44 
27 39 41 44 ,27 39 41 44 
27 39 41 44 ,27 39 41 44 
27 41 44 ,27 39 41 44 
27 41 44 ,27 41 44 
27 41 44 ,27 41 44 
27 41 44 ,27 41 44 
27 41 44 ,27 41 44 
27 41 44 ,27 41 44 
27 41 44 ,27 41 44 
27 41 44 ,27 41 44 
27 41 48 ,27 41 44 
27 41 48 ,27 41 48 
27 41 ,27 41 48 
27 41 ,27 41 
41 ,27 41 
41 ,41 
41 ,41 
,41 
,
,
,
--------
,
,
47 ,
,47 
,
8 ,
8 ,8 
,8 
,
,
29 35 ,
11 35 ,29 35 
11 ,11 35 
11 ,11 
11 ,11 
9 11 ,11 
9 11 ,9 11 
9 11 ,9 11 
9 11 ,9 11 
9 11 ,9 11 
9 29 ,9 11 
9 29 38 ,9 29 
9 29 38 ,9 29 38 
9 29 38 ,9 29 38 
9 38 ,9 29 38 
9 38 ,9 38 
9 17 ,9 38 
9 17 40 ,9 17 
9 17 43 ,9 17 40 
17 43 ,9 17 43 
17 43 ,17 43 
17 43 ,17 43 
17 43 ,17 43 
17 43 ,17 43 
31 43 ,17 43 
31 43 ,31 43 
31 ,31 43 
31 ,31 
31 ,31 
31 ,31 
31 ,31 
31 ,31 
31 ,31 
31 ,31 
31 ,31 
5 31 ,31 
5 31 ,5 31 
5 31 ,5 31 
5 22 31 ,5 31 
5 22 31 ,5 22 31 
3 5 22 31 ,5 22 31 
3 5 22 31 ,3 5 22 31 
3 5 22 31 ,3 5 22 31 
3 5 22 31 ,3 5 22 31 
3 5 22 31 ,3 5 22 31 
3 5 22 31 ,3 5 22 31 
3 5 22 31 ,3 5 22 31 
3 5 22 31 ,3 5 22 31 
3 5 22 31 ,3 5 22 31 
3 5 22 31 ,3 5 22 31 
3 5 22 31 ,3 5 22 31 
5 22 31 ,3 5 22 31 
5 31 ,5 22 31 
5 31 ,5 31 
5 31 ,5 31 
5 31 ,5 31 
5 ,5 31 
5 9 ,5 
5 9 ,5 9 
5 9 ,5 9 
5 9 30 ,5 9 
5 9 30 ,5 9 30 
5 9 30 ,5 9 30 
5 9 10 30 ,5 9 30 
5 9 10 18 30 ,5 9 10 30 
5 9 10 18 30 ,5 9 10 18 30 
5 9 10 18 30 ,5 9 10 18 30 
5 9 10 18 30 ,5 9 10 18 30 
5 9 10 18 30 ,5 9 10 18 30 
5 9 10 18 30 ,5 9 10 18 30 
9 10 18 27 30 ,5 9 10 18 30 
9 18 27 30 46 ,9 10 18 27 30 
9 27 30 46 ,9 18 27 30 46 
9 27 30 39 46 ,9 27 30 46 
1 9 27 39 46 ,9 27 30 39 46 
1 9 12 27 39 46 ,1 9 27 39 46 
1 9 12 27 39 46 ,1 9 12 27 39 46 
1 9 12 27 39 46 ,1 9 12 27 39 46 
1 9 12 27 39 46 ,1 9 12 27 39 46 
1 9 12 27 39 46 ,1 9 12 27 39 46 
1 9 12 27 39 ,1 9 12 27 39 46 
1 9 12 27 39 ,1 9 12 27 39 
1 9 12 25 27 39 ,1 9 12 27 39 
1 9 12 25 27 39 ,1 9 12 25 27 39 
1 9 12 25 27 39 ,1 9 12 25 27 39 
1 9 12 25 27 39 ,1 9 12 25 27 39 
1 6 9 12 25 27 36 39 ,1 9 12 25 27 39 
1 6 9 12 25 27 36 39 ,1 6 9 12 25 27 36 39 
1 6 9 12 25 27 36 39 ,1 6 9 12 25 27 36 39 
1 6 9 12 25 27 36 39 ,1 6 9 12 25 27 36 39 
1 6 9 12 25 27 36 39 ,1 6 9 12 25 27 36 39 
1 6 9 12 25 27 36 39 ,1 6 9 12 25 27 36 39 
1 6 9 12 25 27 36 39 ,1 6 9 12 25 27 36 39 
1 6 9 25 27 36 39 ,1 6 9 12 25 27 36 39 
1 6 9 25 27 36 39 ,1 6 9 25 27 36 39 
1 6 9 23 25 27 36 39 ,1 6 9 25 27 36 39 
1 6 9 23 25 27 36 39 ,1 6 9 23 25 27 36 39 
1 6 9 23 25 27 36 39 ,1 6 9 23 25 27 36 39 
1 6 9 23 25 27 36 39 ,1 6 9 23 25 27 36 39 
1 6 9 14 23 25 27 36 39 ,1 6 9 23 25 27 36 39 
1 6 9 14 23 25 27 36 39 ,1 6 9 14 23 25 27 36 39 
1 6 9 14 23 25 27 36 39 ,1 6 9 14 23 25 27 36 39 
1 5 6 9 14 23 25 27 29 36 39 ,1 6 9 14 23 25 27 36 39 
1 5 6 9 14 23 25 27 29 36 39 ,1 5 6 9 14 23 25 27 29 36 39 
1 5 6 9 14 23 25 27 29 36 39 ,1 5 6 9 14 23 25 27 29 36 39 
1 5 6 9 14 23 25 27 29 36 39 ,1 5 6 9 14 23 25 27 29 36 39 
1 5 6 9 14 25 27 29 36 39 ,1 5 6 9 14 23 25 27 29 36 39 
1 6 9 12 14 25 27 29 36 39 ,1 5 6 9 14 25 27 29 36 39 
1 6 9 12 14 25 27 29 36 39 ,1 6 9 12 14 25 27 29 36 39 
6 9 12 14 25 27 29 36 39 ,1 6 9 12 14 25 27 29 36 39 
6 9 12 14 23 25 27 29 36 39 ,6 9 12 14 25 27 29 36 39 
6 9 12 14 23 25 27 29 36 39 ,6 9 12 14 23 25 27 29 36 39 
6 9 12 14 25 27 29 36 39 ,6 9 12 14 23 25 27 29 36 39 
6 9 12 14 25 27 29 36 39 ,6 9 12 14 25 27 29 36 39 
6 9 12 14 25 27 29 36 39 ,6 9 12 14 25 27 29 36 39 
6 9 12 14 25 27 29 36 39 ,6 9 12 14 25 27 29 36 39 
6 9 12 14 25 27 29 36 39 ,6 9 12 14 25 27 29 36 39 
6 9 12 14 25 27 29 36 39 ,6 9 12 14 25 27 29 36 39 
6 9 12 14 25 27 29 36 39 ,6 9 12 14 25 27 29 36 39 
6 9 12 14 27 29 36 39 ,6 9 12 14 25 27 29 36 39 
6 9 12 14 27 29 36 39 ,6 9 12 14 27 29 36 39 
6 9 12 14 27 29 36 39 ,6 9 12 14 27 29 36 39 
6 9 12 14 27 29 36 39 ,6 9 12 14 27 29 36 39 
6 9 12 14 29 36 39 ,6 9 12 14 27 29 36 39 
6 9 12 14 29 36 39 ,6 9 12 14 29 36 39 
6 9 12 14 29 36 39 ,6 9 12 14 29 36 39 
6 9 12 14 23 29 36 39 ,6 9 12 14 29 36 39 
6 9 12 14 23 29 36 39 41 ,6 9 12 14 23 29 36 39 
6 9 12 14 27 29 36 39 41 ,6 9 12 14 23 29 36 39 41 
6 9 12 14 27 29 36 39 41 ,6 9 12 14 27 29 36 39 41 
6 9 12 14 27 29 36 39 41 48 ,6 9 12 14 27 29 36 39 41 
6 9 12 14 27 29 39 41 48 ,6 9 12 14 27 29 36 39 41 48 
6 9 12 14 27 29 39 41 48 ,6 9 12 14 27 29 39 41 48 
6 9 12 14 27 29 33 39 41 48 ,6 9 12 14 27 29 39 41 48 
6 9 12 14 25 27 29 33 39 41 48 ,6 9 12 14 27 29 33 39 41 48 
6 9 12 14 25 27 29 33 39 41 48 ,6 9 12 14 25 27 29 33 39 41 48 
6 9 12 14 25 27 29 33 39 41 48 ,6 9 12 14 25 27 29 33 39 41 48 
6 9 12 14 25 27 29 39 41 48 ,6 9 12 14 25 27 29 33 39 41 48 
6 9 12 14 25 27 29 39 41 48 ,6 9 12 14 25 27 29 39 41 48 
9 12 14 25 27 29 39 41 48 ,6 9 12 14 25 27 29 39 41 48 
9 12 14 25 27 29 39 41 48 ,9 12 14 25 27 29 39 41 48 
9 12 25 27 29 39 41 48 ,9 12 14 25 27 29 39 41 48 
9 12 25 27 29 39 41 48 ,9 12 25 27 29 39 41 48 
9 12 25 27 29 39 41 48 ,9 12 25 27 29 39 41 48 
9 12 25 27 29 39 41 48 ,9 12 25 27 29 39 41 48 
1 9 12 25 27 29 39 41 48 ,9 12 25 27 29 39 41 48 
1 12 25 27 29 39 41 44 48 ,1 9 12 25 27 29 39 41 48 
1 12 25 27 29 41 44 48 ,1 12 25 27 29 39 41 44 48 
1 12 25 27 29 41 44 48 ,1 12 25 27 29 41 44 48 
1 12 25 27 29 41 44 48 ,1 12 25 27 29 41 44 48 
1 12 25 27 41 44 48 ,1 12 25 27 29 41 44 48 
1 12 25 27 41 44 48 ,1 12 25 27 41 44 48 
1 12 25 27 41 44 48 ,1 12 25 27 41 44 48 
1 12 25 27 41 44 48 ,1 12 25 27 41 44 48 
1 12 25 27 30 41 44 48 ,1 12 25 27 41 44 48 
1 12 27 30 41 44 48 ,1 12 25 27 30 41 44 48 
1 12 27 30 41 44 48 ,1 12 27 30 41 44 48 
1 27 30 41 44 48 ,1 12 27 30 41 44 48 
1 27 30 41 44 48 ,1 27 30 41 44 48 
1 27 41 44 48 ,1 27 30 41 44 48 
1 27 41 44 48 ,1 27 41 44 48 
1 27 41 44 48 ,1 27 41 44 48 
1 27 41 44 48 ,1 27 41 44 48 
1 27 41 44 48 ,1 27 41 44 48 
1 27 41 44 48 ,1 27 41 44 48 
1 27 41 44 48 ,1 27 41 44 48 
1 27 41 44 ,1 27 41 44 48 
27 39 41 44 ,1 27 41 44 
27 39 41 44 ,27 39 41 44 
27 39 41 44 ,27 39 41 44 
27 39 41 44 ,27 39 41 44 
27 41 44 ,27 39 41 44 
27 41 44 ,27 41 44 
27 41 44 ,27 41 44 
27 41 44 ,27 41 44 
27 41 44 ,27 41 44 
27 41 44 ,27 41 44 
27 41 44 ,27 41 44 
27 41 44 ,27 41 44 
27 41 48 ,27 41 44 
27 41 48 ,27 41 48 
27 41 ,27 41 48 
27 41 ,27 41 
41 ,27 41 
41 ,41 
41 ,41 
,41 
,
,
,
-------------
-------
1(-1)->5 6 9 12 14 23 25 27 29 30 36 39 41 44 46 48 
3(-1)->5 22 31 
5(-1)->1 3 6 9 10 14 18 22 23 25 27 29 30 31 36 39 
6(-1)->1 5 9 12 14 23 25 27 29 33 36 39 41 48 
8(-1)->
9(-1)->1 5 6 10 11 12 14 17 18 23 25 27 29 30 33 36 38 39 40 41 43 46 48 
10(-1)->5 9 18 27 30 
11(-1)->9 35 
12(-1)->1 6 9 14 23 25 27 29 30 33 36 39 41 44 46 48 
14(-1)->1 5 6 9 12 23 25 27 29 33 36 39 41 48 
17(-1)->9 40 43 
18(-1)->5 9 10 27 30 46 
22(-1)->3 5 31 
23(-1)->1 5 6 9 12 14 25 27 29 36 39 41 
25(-1)->1 5 6 9 12 14 23 27 29 30 33 36 39 41 44 48 
27(-1)->1 5 6 9 10 12 14 18 23 25 29 30 33 36 39 41 44 46 48 
29(-1)->1 5 6 9 12 14 23 25 27 33 35 36 38 39 41 44 48 
30(-1)->1 5 9 10 12 18 25 27 39 41 44 46 48 
31(-1)->3 5 22 43 
33(-1)->6 9 12 14 25 27 29 39 41 48 
35(-1)->11 29 
36(-1)->1 5 6 9 12 14 23 25 27 29 39 41 48 
38(-1)->9 29 
39(-1)->1 5 6 9 12 14 23 25 27 29 30 33 36 41 44 46 48 
40(-1)->9 17 
41(-1)->1 6 9 12 14 23 25 27 29 30 33 36 39 44 48 
43(-1)->9 17 31 
44(-1)->1 12 25 27 29 30 39 41 48 
46(-1)->1 9 12 18 27 30 39 
47(-1)->
48(-1)->1 6 9 12 14 25 27 29 30 33 36 39 41 44 
-------
1(0)->5 6 9 12 14 23 25 27 29 30 36 39 41 44 46 48 
3(0)->5 22 31 
5(1)->1 3 6 9 10 14 18 22 23 25 27 29 30 31 36 39 
6(2)->1 5 9 12 14 23 25 27 29 33 36 39 41 48 
8(0)->
9(3)->1 5 6 10 11 12 14 17 18 23 25 27 29 30 33 36 38 39 40 41 43 46 48 
10(0)->5 9 18 27 30 
11(0)->9 35 
12(1)->1 6 9 14 23 25 27 29 30 33 36 39 41 44 46 48 
14(4)->1 5 6 9 12 23 25 27 29 33 36 39 41 48 
17(0)->9 40 43 
18(2)->5 9 10 27 30 46 
22(2)->3 5 31 
23(5)->1 5 6 9 12 14 25 27 29 36 39 41 
25(6)->1 5 6 9 12 14 23 27 29 30 33 36 39 41 44 48 
27(7)->1 5 6 9 10 12 14 18 23 25 29 30 33 36 39 41 44 46 48 
29(8)->1 5 6 9 12 14 23 25 27 33 35 36 38 39 41 44 48 
30(4)->1 5 9 10 12 18 25 27 39 41 44 46 48 
31(3)->3 5 22 43 
33(0)->6 9 12 14 25 27 29 39 41 48 
35(1)->11 29 
36(9)->1 5 6 9 12 14 23 25 27 29 39 41 48 
38(0)->9 29 
39(10)->1 5 6 9 12 14 23 25 27 29 30 33 36 41 44 46 48 
40(1)->9 17 
41(11)->1 6 9 12 14 23 25 27 29 30 33 36 39 44 48 
43(1)->9 17 31 
44(2)->1 12 25 27 29 30 39 41 48 
46(5)->1 9 12 18 27 30 39 
47(0)->
48(5)->1 6 9 12 14 25 27 29 30 33 36 39 41 44 
COUNT: 0
BEST COST: 12
12
12
