36=-1,-1,-1
-1=-1,-1,-1
-1=-1,-1,-1
13=-1,-1,-1
-1=-1,-1,-1
-1=-1,-1,-1
35=-1,-1,-1
39=-1,-1,-1
12=-1,-1,-1
-1=-1,-1,-1
14=-1,-1,-1
-1=-1,-1,-1
-1=14,-1,-1
28=-1,-1,-1
-1=-1,-1,-1
33=-1,-1,-1
17=-1,-1,-1
11=-1,-1,-1
-1=-1,-1,-1
50=-1,-1,-1
31=-1,-1,-1
-1=-1,-1,-1
-1=-1,-1,-1
30=-1,-1,-1
-1=-1,-1,-1
5=12,28,-1
-1=30,-1,-1
-1=50,-1,-1
23=-1,-1,-1
40=-1,-1,-1
-1=-1,-1,-1
41=17,-1,-1
15=39,-1,-1
38=-1,-1,-1
27=-1,-1,-1
25=-1,-1,-1
-1=25,36,-1
-1=-1,-1,-1
25=15,33,-1
30=13,-1,-1
24=-1,-1,-1
44=-1,-1,-1
-1=-1,-1,-1
8=-1,-1,-1
-1=-1,-1,-1
-1=-1,-1,-1
36=-1,-1,-1
-1=-1,-1,-1
18=-1,-1,-1
-1=8,-1,-1
-1=-1,-1,-1
16=-1,-1,-1
32=-1,-1,-1
13=-1,-1,-1
2=13,31,-1
50=-1,-1,-1
-1=-1,-1,-1
47=27,-1,-1
13=-1,-1,-1
8=13,44,-1
12=2,-1,-1
-1=-1,-1,-1
13=47,-1,-1
-1=-1,-1,-1
-1=-1,-1,-1
39=-1,-1,-1
29=-1,-1,-1
-1=-1,-1,-1
-1=-1,-1,-1
-1=8,-1,-1
-1=-1,-1,-1
-1=-1,-1,-1
20=23,-1,-1
-1=13,-1,-1
-1=29,-1,-1
-1=35,40,-1
46=-1,-1,-1
-1=-1,-1,-1
47=36,-1,-1
17=16,-1,-1
6=-1,-1,-1
35=12,30,-1
13=47,-1,-1
28=-1,-1,-1
40=-1,-1,-1
19=13,35,-1
7=17,-1,-1
8=-1,-1,-1
-1=-1,-1,-1
34=-1,-1,-1
33=24,-1,-1
-1=7,8,-1
47=-1,-1,-1
-1=40,-1,-1
-1=38,39,-1
21=-1,-1,-1
24=-1,-1,-1
-1=-1,-1,-1
-1=50,-1,-1
35=11,20,-1
-1=-1,-1,-1
-1=-1,-1,-1
44=-1,-1,-1
50=-1,-1,-1
-1=24,-1,-1
-1=-1,-1,-1
-1=44,47,-1
40=50,-1,-1
7=35,-1,-1
30=-1,-1,-1
23=5,-1,-1
-1=-1,-1,-1
27=18,-1,-1
49=6,-1,-1
35=-1,-1,-1
-1=-1,-1,-1
50=-1,-1,-1
50=23,50,-1
-1=7,-1,-1
-1=34,-1,-1
-1=-1,-1,-1
23=-1,-1,-1
47=-1,-1,-1
7=-1,-1,-1
-1=27,-1,-1
-1=46,-1,-1
-1=30,-1,-1
-1=21,-1,-1
-1=7,35,49
-1=-1,-1,-1
46=-1,-1,-1
22=-1,-1,-1
-1=-1,-1,-1
-1=-1,-1,-1
35=-1,-1,-1
-1=32,35,-1
10=50,-1,-1
44=-1,-1,-1
20=-1,-1,-1
-1=28,33,-1
12=46,-1,-1
13=-1,-1,-1
-1=-1,-1,-1
5=12,-1,-1
-1=-1,-1,-1
-1=-1,-1,-1
34=5,19,20
-1=-1,-1,-1
-1=25,-1,-1
-1=23,40,-1
12=-1,-1,-1
-1=-1,-1,-1
-1=34,-1,-1
-1=47,-1,-1
19=-1,-1,-1
-1=13,-1,-1
31=-1,-1,-1
38=-1,-1,-1
25=-1,-1,-1
-1=-1,-1,-1
9=22,31,-1
-1=-1,-1,-1
43=-1,-1,-1
46=-1,-1,-1
-1=-1,-1,-1
27=-1,-1,-1
-1=-1,-1,-1
32=-1,-1,-1
48=-1,-1,-1
40=25,48,-1
26=-1,-1,-1
7=46,-1,-1
-1=43,-1,-1
-1=9,27,41
21=12,-1,-1
31=19,-1,-1
18=31,-1,-1
-1=38,-1,-1
-1=7,10,32
41=21,40,-1
-1=26,-1,-1
1=-1,-1,-1
45=-1,-1,-1
10=45,-1,-1
-1=-1,-1,-1
43=18,-1,-1
20=10,-1,-1
-1=-1,-1,-1
39=-1,-1,-1
39=1,39,41
-1=39,-1,-1
42=-1,-1,-1
-1=20,43,-1
30=-1,-1,-1
27=30,-1,-1
-1=27,42,-1
27=-1,-1,-1
44=27,-1,-1
-1=44,-1,-1
-1=-1,-1,-1
--------
,
44 ,
27 ,44 
,27 
27 42 ,
30 42 ,27 42 
42 ,30 42 
20 42 43 ,42 
20 43 ,20 42 43 
20 39 43 ,20 43 
1 20 39 41 43 ,20 39 43 
1 20 41 43 ,1 20 39 41 43 
1 20 41 43 ,1 20 41 43 
1 10 41 43 ,1 20 41 43 
1 10 18 41 ,1 10 41 43 
1 10 18 41 ,1 10 18 41 
1 18 41 45 ,1 10 18 41 
1 18 41 ,1 18 41 45 
18 41 ,1 18 41 
18 26 41 ,18 41 
18 21 26 40 ,18 26 41 
7 10 18 21 26 32 40 ,18 21 26 40 
7 10 18 21 26 32 38 40 ,7 10 18 21 26 32 40 
7 10 21 26 31 32 38 40 ,7 10 18 21 26 32 38 40 
7 10 19 21 26 32 38 40 ,7 10 21 26 31 32 38 40 
7 10 12 19 26 32 38 40 ,7 10 19 21 26 32 38 40 
7 9 10 12 19 26 27 32 38 40 41 ,7 10 12 19 26 32 38 40 
7 9 10 12 19 26 27 32 38 40 41 43 ,7 9 10 12 19 26 27 32 38 40 41 
9 10 12 19 26 27 32 38 40 41 43 46 ,7 9 10 12 19 26 27 32 38 40 41 43 
9 10 12 19 27 32 38 40 41 43 46 ,9 10 12 19 26 27 32 38 40 41 43 46 
9 10 12 19 25 27 32 38 41 43 46 48 ,9 10 12 19 27 32 38 40 41 43 46 
9 10 12 19 25 27 32 38 41 43 46 ,9 10 12 19 25 27 32 38 41 43 46 48 
9 10 12 19 25 27 38 41 43 46 ,9 10 12 19 25 27 32 38 41 43 46 
9 10 12 19 25 27 38 41 43 46 ,9 10 12 19 25 27 38 41 43 46 
9 10 12 19 25 38 41 43 46 ,9 10 12 19 25 27 38 41 43 46 
9 10 12 19 25 38 41 43 46 ,9 10 12 19 25 38 41 43 46 
9 10 12 19 25 38 41 43 ,9 10 12 19 25 38 41 43 46 
9 10 12 19 25 38 41 ,9 10 12 19 25 38 41 43 
9 10 12 19 25 38 41 ,9 10 12 19 25 38 41 
10 12 19 22 25 31 38 41 ,9 10 12 19 25 38 41 
10 12 19 22 25 31 38 41 ,10 12 19 22 25 31 38 41 
10 12 19 22 31 38 41 ,10 12 19 22 25 31 38 41 
10 12 19 22 31 41 ,10 12 19 22 31 38 41 
10 12 19 22 41 ,10 12 19 22 31 41 
10 12 13 19 22 41 ,10 12 19 22 41 
10 12 13 22 41 ,10 12 13 19 22 41 
10 12 13 22 41 47 ,10 12 13 22 41 
10 12 13 22 34 41 47 ,10 12 13 22 41 47 
10 12 13 22 34 41 47 ,10 12 13 22 34 41 47 
10 13 22 34 41 47 ,10 12 13 22 34 41 47 
10 13 22 23 34 40 41 47 ,10 13 22 34 41 47 
10 13 22 23 25 34 40 41 47 ,10 13 22 23 34 40 41 47 
10 13 22 23 25 34 40 41 47 ,10 13 22 23 25 34 40 41 47 
5 10 13 19 20 22 23 25 40 41 47 ,10 13 22 23 25 34 40 41 47 
5 10 13 19 20 22 23 25 40 41 47 ,5 10 13 19 20 22 23 25 40 41 47 
5 10 13 19 20 22 23 25 40 41 47 ,5 10 13 19 20 22 23 25 40 41 47 
10 12 13 19 20 22 23 25 40 41 47 ,5 10 13 19 20 22 23 25 40 41 47 
10 12 13 19 20 22 23 25 40 41 47 ,10 12 13 19 20 22 23 25 40 41 47 
10 12 19 20 22 23 25 40 41 47 ,10 12 13 19 20 22 23 25 40 41 47 
10 19 20 22 23 25 40 41 46 47 ,10 12 19 20 22 23 25 40 41 47 
10 19 20 22 23 25 28 33 40 41 46 47 ,10 19 20 22 23 25 40 41 46 47 
10 19 22 23 25 28 33 40 41 46 47 ,10 19 20 22 23 25 28 33 40 41 46 47 
10 19 22 23 25 28 33 40 41 46 47 ,10 19 22 23 25 28 33 40 41 46 47 
19 22 23 25 28 33 40 41 46 47 50 ,10 19 22 23 25 28 33 40 41 46 47 
19 22 23 25 28 32 33 35 40 41 46 47 50 ,19 22 23 25 28 33 40 41 46 47 50 
19 22 23 25 28 32 33 40 41 46 47 50 ,19 22 23 25 28 32 33 35 40 41 46 47 50 
19 22 23 25 28 32 33 40 41 46 47 50 ,19 22 23 25 28 32 33 40 41 46 47 50 
19 22 23 25 28 32 33 40 41 46 47 50 ,19 22 23 25 28 32 33 40 41 46 47 50 
19 23 25 28 32 33 40 41 46 47 50 ,19 22 23 25 28 32 33 40 41 46 47 50 
19 23 25 28 32 33 40 41 47 50 ,19 23 25 28 32 33 40 41 46 47 50 
19 23 25 28 32 33 40 41 47 50 ,19 23 25 28 32 33 40 41 47 50 
7 19 23 25 28 32 33 35 40 41 47 49 50 ,19 23 25 28 32 33 40 41 47 50 
7 19 21 23 25 28 32 33 35 40 41 47 49 50 ,7 19 23 25 28 32 33 35 40 41 47 49 50 
7 19 21 23 25 28 30 32 33 35 40 41 47 49 50 ,7 19 21 23 25 28 32 33 35 40 41 47 49 50 
7 19 21 23 25 28 30 32 33 35 40 41 46 47 49 50 ,7 19 21 23 25 28 30 32 33 35 40 41 47 49 50 
7 19 21 23 25 27 28 30 32 33 35 40 41 46 47 49 50 ,7 19 21 23 25 28 30 32 33 35 40 41 46 47 49 50 
19 21 23 25 27 28 30 32 33 35 40 41 46 47 49 50 ,7 19 21 23 25 27 28 30 32 33 35 40 41 46 47 49 50 
19 21 23 25 27 28 30 32 33 35 40 41 46 49 50 ,19 21 23 25 27 28 30 32 33 35 40 41 46 47 49 50 
19 21 25 27 28 30 32 33 35 40 41 46 49 50 ,19 21 23 25 27 28 30 32 33 35 40 41 46 49 50 
19 21 25 27 28 30 32 33 35 40 41 46 49 50 ,19 21 25 27 28 30 32 33 35 40 41 46 49 50 
19 21 25 27 28 30 32 33 34 35 40 41 46 49 50 ,19 21 25 27 28 30 32 33 35 40 41 46 49 50 
7 19 21 25 27 28 30 32 33 34 35 40 41 46 49 50 ,19 21 25 27 28 30 32 33 34 35 40 41 46 49 50 
7 19 21 23 25 27 28 30 32 33 34 35 40 41 46 49 50 ,7 19 21 25 27 28 30 32 33 34 35 40 41 46 49 50 
7 19 21 23 25 27 28 30 32 33 34 35 40 41 46 49 ,7 19 21 23 25 27 28 30 32 33 34 35 40 41 46 49 50 
7 19 21 23 25 27 28 30 32 33 34 35 40 41 46 49 ,7 19 21 23 25 27 28 30 32 33 34 35 40 41 46 49 
7 19 21 23 25 27 28 30 32 33 34 40 41 46 49 ,7 19 21 23 25 27 28 30 32 33 34 35 40 41 46 49 
6 7 19 21 23 25 27 28 30 32 33 34 40 41 46 ,7 19 21 23 25 27 28 30 32 33 34 40 41 46 49 
6 7 18 19 21 23 25 28 30 32 33 34 40 41 46 ,6 7 19 21 23 25 27 28 30 32 33 34 40 41 46 
6 7 18 19 21 23 25 28 30 32 33 34 40 41 46 ,6 7 18 19 21 23 25 28 30 32 33 34 40 41 46 
5 6 7 18 19 21 25 28 30 32 33 34 40 41 46 ,6 7 18 19 21 23 25 28 30 32 33 34 40 41 46 
5 6 7 18 19 21 25 28 32 33 34 40 41 46 ,5 6 7 18 19 21 25 28 30 32 33 34 40 41 46 
5 6 18 19 21 25 28 32 33 34 35 40 41 46 ,5 6 7 18 19 21 25 28 32 33 34 40 41 46 
5 6 18 19 21 25 28 32 33 34 35 41 46 50 ,5 6 18 19 21 25 28 32 33 34 35 40 41 46 
5 6 18 19 21 25 28 32 33 34 35 41 44 46 47 50 ,5 6 18 19 21 25 28 32 33 34 35 41 46 50 
5 6 18 19 21 25 28 32 33 34 35 41 44 46 47 50 ,5 6 18 19 21 25 28 32 33 34 35 41 44 46 47 50 
5 6 18 19 21 24 25 28 32 33 34 35 41 44 46 47 50 ,5 6 18 19 21 25 28 32 33 34 35 41 44 46 47 50 
5 6 18 19 21 24 25 28 32 33 34 35 41 44 46 47 ,5 6 18 19 21 24 25 28 32 33 34 35 41 44 46 47 50 
5 6 18 19 21 24 25 28 32 33 34 35 41 46 47 ,5 6 18 19 21 24 25 28 32 33 34 35 41 44 46 47 
5 6 18 19 21 24 25 28 32 33 34 35 41 46 47 ,5 6 18 19 21 24 25 28 32 33 34 35 41 46 47 
5 6 18 19 21 24 25 28 32 33 34 35 41 46 47 ,5 6 18 19 21 24 25 28 32 33 34 35 41 46 47 
5 6 11 18 19 20 21 24 25 28 32 33 34 41 46 47 ,5 6 18 19 21 24 25 28 32 33 34 35 41 46 47 
5 6 11 18 19 20 21 24 25 28 32 33 34 41 46 47 50 ,5 6 11 18 19 20 21 24 25 28 32 33 34 41 46 47 
5 6 11 18 19 20 21 24 25 28 32 33 34 41 46 47 50 ,5 6 11 18 19 20 21 24 25 28 32 33 34 41 46 47 50 
5 6 11 18 19 20 21 25 28 32 33 34 41 46 47 50 ,5 6 11 18 19 20 21 24 25 28 32 33 34 41 46 47 50 
5 6 11 18 19 20 25 28 32 33 34 41 46 47 50 ,5 6 11 18 19 20 21 25 28 32 33 34 41 46 47 50 
5 6 11 18 19 20 25 28 32 33 34 38 39 41 46 47 50 ,5 6 11 18 19 20 25 28 32 33 34 41 46 47 50 
5 6 11 18 19 20 25 28 32 33 34 38 39 40 41 46 47 50 ,5 6 11 18 19 20 25 28 32 33 34 38 39 41 46 47 50 
5 6 11 18 19 20 25 28 32 33 34 38 39 40 41 46 50 ,5 6 11 18 19 20 25 28 32 33 34 38 39 40 41 46 47 50 
5 6 7 8 11 18 19 20 25 28 32 33 34 38 39 40 41 46 50 ,5 6 11 18 19 20 25 28 32 33 34 38 39 40 41 46 50 
5 6 7 8 11 18 19 20 24 25 28 32 34 38 39 40 41 46 50 ,5 6 7 8 11 18 19 20 25 28 32 33 34 38 39 40 41 46 50 
5 6 7 8 11 18 19 20 24 25 28 32 38 39 40 41 46 50 ,5 6 7 8 11 18 19 20 24 25 28 32 34 38 39 40 41 46 50 
5 6 7 8 11 18 19 20 24 25 28 32 38 39 40 41 46 50 ,5 6 7 8 11 18 19 20 24 25 28 32 38 39 40 41 46 50 
5 6 7 11 18 19 20 24 25 28 32 38 39 40 41 46 50 ,5 6 7 8 11 18 19 20 24 25 28 32 38 39 40 41 46 50 
5 6 11 17 18 19 20 24 25 28 32 38 39 40 41 46 50 ,5 6 7 11 18 19 20 24 25 28 32 38 39 40 41 46 50 
5 6 11 13 17 18 20 24 25 28 32 35 38 39 40 41 46 50 ,5 6 11 17 18 19 20 24 25 28 32 38 39 40 41 46 50 
5 6 11 13 17 18 20 24 25 28 32 35 38 39 41 46 50 ,5 6 11 13 17 18 20 24 25 28 32 35 38 39 40 41 46 50 
5 6 11 13 17 18 20 24 25 32 35 38 39 41 46 50 ,5 6 11 13 17 18 20 24 25 28 32 35 38 39 41 46 50 
5 6 11 17 18 20 24 25 32 35 38 39 41 46 47 50 ,5 6 11 13 17 18 20 24 25 32 35 38 39 41 46 50 
5 6 11 12 17 18 20 24 25 30 32 38 39 41 46 47 50 ,5 6 11 17 18 20 24 25 32 35 38 39 41 46 47 50 
5 11 12 17 18 20 24 25 30 32 38 39 41 46 47 50 ,5 6 11 12 17 18 20 24 25 30 32 38 39 41 46 47 50 
5 11 12 16 18 20 24 25 30 32 38 39 41 46 47 50 ,5 11 12 17 18 20 24 25 30 32 38 39 41 46 47 50 
5 11 12 16 18 20 24 25 30 32 36 38 39 41 46 50 ,5 11 12 16 18 20 24 25 30 32 38 39 41 46 47 50 
5 11 12 16 18 20 24 25 30 32 36 38 39 41 46 50 ,5 11 12 16 18 20 24 25 30 32 36 38 39 41 46 50 
5 11 12 16 18 20 24 25 30 32 36 38 39 41 50 ,5 11 12 16 18 20 24 25 30 32 36 38 39 41 46 50 
5 11 12 16 18 20 24 25 30 32 35 36 38 39 40 41 50 ,5 11 12 16 18 20 24 25 30 32 36 38 39 41 50 
5 11 12 16 18 20 24 25 29 30 32 35 36 38 39 40 41 50 ,5 11 12 16 18 20 24 25 30 32 35 36 38 39 40 41 50 
5 11 12 13 16 18 20 24 25 29 30 32 35 36 38 39 40 41 50 ,5 11 12 16 18 20 24 25 29 30 32 35 36 38 39 40 41 50 
5 11 12 13 16 18 23 24 25 29 30 32 35 36 38 39 40 41 50 ,5 11 12 13 16 18 20 24 25 29 30 32 35 36 38 39 40 41 50 
5 11 12 13 16 18 23 24 25 29 30 32 35 36 38 39 40 41 50 ,5 11 12 13 16 18 23 24 25 29 30 32 35 36 38 39 40 41 50 
5 11 12 13 16 18 23 24 25 29 30 32 35 36 38 39 40 41 50 ,5 11 12 13 16 18 23 24 25 29 30 32 35 36 38 39 40 41 50 
5 8 11 12 13 16 18 23 24 25 29 30 32 35 36 38 39 40 41 50 ,5 11 12 13 16 18 23 24 25 29 30 32 35 36 38 39 40 41 50 
5 8 11 12 13 16 18 23 24 25 29 30 32 35 36 38 39 40 41 50 ,5 8 11 12 13 16 18 23 24 25 29 30 32 35 36 38 39 40 41 50 
5 8 11 12 13 16 18 23 24 25 29 30 32 35 36 38 39 40 41 50 ,5 8 11 12 13 16 18 23 24 25 29 30 32 35 36 38 39 40 41 50 
5 8 11 12 13 16 18 23 24 25 30 32 35 36 38 39 40 41 50 ,5 8 11 12 13 16 18 23 24 25 29 30 32 35 36 38 39 40 41 50 
5 8 11 12 13 16 18 23 24 25 30 32 35 36 38 40 41 50 ,5 8 11 12 13 16 18 23 24 25 30 32 35 36 38 39 40 41 50 
5 8 11 12 13 16 18 23 24 25 30 32 35 36 38 40 41 50 ,5 8 11 12 13 16 18 23 24 25 30 32 35 36 38 40 41 50 
5 8 11 12 13 16 18 23 24 25 30 32 35 36 38 40 41 50 ,5 8 11 12 13 16 18 23 24 25 30 32 35 36 38 40 41 50 
5 8 11 12 16 18 23 24 25 30 32 35 36 38 40 41 47 50 ,5 8 11 12 13 16 18 23 24 25 30 32 35 36 38 40 41 50 
5 8 11 12 16 18 23 24 25 30 32 35 36 38 40 41 47 50 ,5 8 11 12 16 18 23 24 25 30 32 35 36 38 40 41 47 50 
2 5 8 11 16 18 23 24 25 30 32 35 36 38 40 41 47 50 ,5 8 11 12 16 18 23 24 25 30 32 35 36 38 40 41 47 50 
2 5 11 13 16 18 23 24 25 30 32 35 36 38 40 41 44 47 50 ,2 5 8 11 16 18 23 24 25 30 32 35 36 38 40 41 47 50 
2 5 11 16 18 23 24 25 30 32 35 36 38 40 41 44 47 50 ,2 5 11 13 16 18 23 24 25 30 32 35 36 38 40 41 44 47 50 
2 5 11 16 18 23 24 25 27 30 32 35 36 38 40 41 44 50 ,2 5 11 16 18 23 24 25 30 32 35 36 38 40 41 44 47 50 
2 5 11 16 18 23 24 25 27 30 32 35 36 38 40 41 44 50 ,2 5 11 16 18 23 24 25 27 30 32 35 36 38 40 41 44 50 
2 5 11 16 18 23 24 25 27 30 32 35 36 38 40 41 44 ,2 5 11 16 18 23 24 25 27 30 32 35 36 38 40 41 44 50 
5 11 13 16 18 23 24 25 27 30 31 32 35 36 38 40 41 44 ,2 5 11 16 18 23 24 25 27 30 32 35 36 38 40 41 44 
5 11 16 18 23 24 25 27 30 31 32 35 36 38 40 41 44 ,5 11 13 16 18 23 24 25 27 30 31 32 35 36 38 40 41 44 
5 11 16 18 23 24 25 27 30 31 35 36 38 40 41 44 ,5 11 16 18 23 24 25 27 30 31 32 35 36 38 40 41 44 
5 11 18 23 24 25 27 30 31 35 36 38 40 41 44 ,5 11 16 18 23 24 25 27 30 31 35 36 38 40 41 44 
5 11 18 23 24 25 27 30 31 35 36 38 40 41 44 ,5 11 18 23 24 25 27 30 31 35 36 38 40 41 44 
5 8 11 18 23 24 25 27 30 31 35 36 38 40 41 44 ,5 11 18 23 24 25 27 30 31 35 36 38 40 41 44 
5 8 11 23 24 25 27 30 31 35 36 38 40 41 44 ,5 8 11 18 23 24 25 27 30 31 35 36 38 40 41 44 
5 8 11 23 24 25 27 30 31 35 36 38 40 41 44 ,5 8 11 23 24 25 27 30 31 35 36 38 40 41 44 
5 8 11 23 24 25 27 30 31 35 38 40 41 44 ,5 8 11 23 24 25 27 30 31 35 36 38 40 41 44 
5 8 11 23 24 25 27 30 31 35 38 40 41 44 ,5 8 11 23 24 25 27 30 31 35 38 40 41 44 
5 8 11 23 24 25 27 30 31 35 38 40 41 44 ,5 8 11 23 24 25 27 30 31 35 38 40 41 44 
5 11 23 24 25 27 30 31 35 38 40 41 44 ,5 8 11 23 24 25 27 30 31 35 38 40 41 44 
5 11 23 24 25 27 30 31 35 38 40 41 44 ,5 11 23 24 25 27 30 31 35 38 40 41 44 
5 11 23 24 25 27 30 31 35 38 40 41 ,5 11 23 24 25 27 30 31 35 38 40 41 44 
5 11 23 25 27 30 31 35 38 40 41 ,5 11 23 24 25 27 30 31 35 38 40 41 
5 11 13 23 25 27 31 35 38 40 41 ,5 11 23 25 27 30 31 35 38 40 41 
5 11 13 15 23 27 31 33 35 38 40 41 ,5 11 13 23 25 27 31 35 38 40 41 
5 11 13 15 23 27 31 33 35 38 40 41 ,5 11 13 15 23 27 31 33 35 38 40 41 
5 11 13 15 23 25 27 31 33 35 36 38 40 41 ,5 11 13 15 23 27 31 33 35 38 40 41 
5 11 13 15 23 27 31 33 35 36 38 40 41 ,5 11 13 15 23 25 27 31 33 35 36 38 40 41 
5 11 13 15 23 31 33 35 36 38 40 41 ,5 11 13 15 23 27 31 33 35 36 38 40 41 
5 11 13 15 23 31 33 35 36 40 41 ,5 11 13 15 23 31 33 35 36 38 40 41 
5 11 13 23 31 33 35 36 39 40 41 ,5 11 13 15 23 31 33 35 36 40 41 
5 11 13 17 23 31 33 35 36 39 40 ,5 11 13 23 31 33 35 36 39 40 41 
5 11 13 17 23 31 33 35 36 39 40 ,5 11 13 17 23 31 33 35 36 39 40 
5 11 13 17 23 31 33 35 36 39 ,5 11 13 17 23 31 33 35 36 39 40 
5 11 13 17 31 33 35 36 39 ,5 11 13 17 23 31 33 35 36 39 
5 11 13 17 31 33 35 36 39 50 ,5 11 13 17 31 33 35 36 39 
5 11 13 17 30 31 33 35 36 39 50 ,5 11 13 17 31 33 35 36 39 50 
11 12 13 17 28 30 31 33 35 36 39 50 ,5 11 13 17 30 31 33 35 36 39 50 
11 12 13 17 28 30 31 33 35 36 39 50 ,11 12 13 17 28 30 31 33 35 36 39 50 
11 12 13 17 28 31 33 35 36 39 50 ,11 12 13 17 28 30 31 33 35 36 39 50 
11 12 13 17 28 31 33 35 36 39 50 ,11 12 13 17 28 31 33 35 36 39 50 
11 12 13 17 28 31 33 35 36 39 50 ,11 12 13 17 28 31 33 35 36 39 50 
11 12 13 17 28 33 35 36 39 50 ,11 12 13 17 28 31 33 35 36 39 50 
11 12 13 17 28 33 35 36 39 ,11 12 13 17 28 33 35 36 39 50 
11 12 13 17 28 33 35 36 39 ,11 12 13 17 28 33 35 36 39 
12 13 17 28 33 35 36 39 ,11 12 13 17 28 33 35 36 39 
12 13 28 33 35 36 39 ,12 13 17 28 33 35 36 39 
12 13 28 35 36 39 ,12 13 28 33 35 36 39 
12 13 28 35 36 39 ,12 13 28 35 36 39 
12 13 35 36 39 ,12 13 28 35 36 39 
12 13 14 35 36 39 ,12 13 35 36 39 
12 13 14 35 36 39 ,12 13 14 35 36 39 
12 13 35 36 39 ,12 13 14 35 36 39 
12 13 35 36 39 ,12 13 35 36 39 
13 35 36 39 ,12 13 35 36 39 
13 35 36 ,13 35 36 39 
13 36 ,13 35 36 
13 36 ,13 36 
13 36 ,13 36 
36 ,13 36 
36 ,36 
36 ,36 
,36 
--------
,
44 ,
27 ,44 
,27 
27 42 ,
30 42 ,27 42 
42 ,30 42 
20 42 43 ,42 
20 43 ,20 42 43 
20 39 43 ,20 43 
1 20 39 41 43 ,20 39 43 
1 20 41 43 ,1 20 39 41 43 
1 20 41 43 ,1 20 41 43 
1 10 41 43 ,1 20 41 43 
1 10 18 41 ,1 10 41 43 
1 10 18 41 ,1 10 18 41 
1 18 41 45 ,1 10 18 41 
1 18 41 ,1 18 41 45 
18 41 ,1 18 41 
18 26 41 ,18 41 
18 21 26 40 ,18 26 41 
7 10 18 21 26 32 40 ,18 21 26 40 
7 10 18 21 26 32 38 40 ,7 10 18 21 26 32 40 
7 10 21 26 31 32 38 40 ,7 10 18 21 26 32 38 40 
7 10 19 21 26 32 38 40 ,7 10 21 26 31 32 38 40 
7 10 12 19 26 32 38 40 ,7 10 19 21 26 32 38 40 
7 9 10 12 19 26 27 32 38 40 41 ,7 10 12 19 26 32 38 40 
7 9 10 12 19 26 27 32 38 40 41 43 ,7 9 10 12 19 26 27 32 38 40 41 
9 10 12 19 26 27 32 38 40 41 43 46 ,7 9 10 12 19 26 27 32 38 40 41 43 
9 10 12 19 27 32 38 40 41 43 46 ,9 10 12 19 26 27 32 38 40 41 43 46 
9 10 12 19 25 27 32 38 41 43 46 48 ,9 10 12 19 27 32 38 40 41 43 46 
9 10 12 19 25 27 32 38 41 43 46 ,9 10 12 19 25 27 32 38 41 43 46 48 
9 10 12 19 25 27 38 41 43 46 ,9 10 12 19 25 27 32 38 41 43 46 
9 10 12 19 25 27 38 41 43 46 ,9 10 12 19 25 27 38 41 43 46 
9 10 12 19 25 38 41 43 46 ,9 10 12 19 25 27 38 41 43 46 
9 10 12 19 25 38 41 43 46 ,9 10 12 19 25 38 41 43 46 
9 10 12 19 25 38 41 43 ,9 10 12 19 25 38 41 43 46 
9 10 12 19 25 38 41 ,9 10 12 19 25 38 41 43 
9 10 12 19 25 38 41 ,9 10 12 19 25 38 41 
10 12 19 22 25 31 38 41 ,9 10 12 19 25 38 41 
10 12 19 22 25 31 38 41 ,10 12 19 22 25 31 38 41 
10 12 19 22 31 38 41 ,10 12 19 22 25 31 38 41 
10 12 19 22 31 41 ,10 12 19 22 31 38 41 
10 12 19 22 41 ,10 12 19 22 31 41 
10 12 13 19 22 41 ,10 12 19 22 41 
10 12 13 22 41 ,10 12 13 19 22 41 
10 12 13 22 41 47 ,10 12 13 22 41 
10 12 13 22 34 41 47 ,10 12 13 22 41 47 
10 12 13 22 34 41 47 ,10 12 13 22 34 41 47 
10 13 22 34 41 47 ,10 12 13 22 34 41 47 
10 13 22 23 34 40 41 47 ,10 13 22 34 41 47 
10 13 22 23 25 34 40 41 47 ,10 13 22 23 34 40 41 47 
10 13 22 23 25 34 40 41 47 ,10 13 22 23 25 34 40 41 47 
5 10 13 19 20 22 23 25 40 41 47 ,10 13 22 23 25 34 40 41 47 
5 10 13 19 20 22 23 25 40 41 47 ,5 10 13 19 20 22 23 25 40 41 47 
5 10 13 19 20 22 23 25 40 41 47 ,5 10 13 19 20 22 23 25 40 41 47 
10 12 13 19 20 22 23 25 40 41 47 ,5 10 13 19 20 22 23 25 40 41 47 
10 12 13 19 20 22 23 25 40 41 47 ,10 12 13 19 20 22 23 25 40 41 47 
10 12 19 20 22 23 25 40 41 47 ,10 12 13 19 20 22 23 25 40 41 47 
10 19 20 22 23 25 40 41 46 47 ,10 12 19 20 22 23 25 40 41 47 
10 19 20 22 23 25 28 33 40 41 46 47 ,10 19 20 22 23 25 40 41 46 47 
10 19 22 23 25 28 33 40 41 46 47 ,10 19 20 22 23 25 28 33 40 41 46 47 
10 19 22 23 25 28 33 40 41 46 47 ,10 19 22 23 25 28 33 40 41 46 47 
19 22 23 25 28 33 40 41 46 47 50 ,10 19 22 23 25 28 33 40 41 46 47 
19 22 23 25 28 32 33 35 40 41 46 47 50 ,19 22 23 25 28 33 40 41 46 47 50 
19 22 23 25 28 32 33 40 41 46 47 50 ,19 22 23 25 28 32 33 35 40 41 46 47 50 
19 22 23 25 28 32 33 40 41 46 47 50 ,19 22 23 25 28 32 33 40 41 46 47 50 
19 22 23 25 28 32 33 40 41 46 47 50 ,19 22 23 25 28 32 33 40 41 46 47 50 
19 23 25 28 32 33 40 41 46 47 50 ,19 22 23 25 28 32 33 40 41 46 47 50 
19 23 25 28 32 33 40 41 47 50 ,19 23 25 28 32 33 40 41 46 47 50 
19 23 25 28 32 33 40 41 47 50 ,19 23 25 28 32 33 40 41 47 50 
7 19 23 25 28 32 33 35 40 41 47 49 50 ,19 23 25 28 32 33 40 41 47 50 
7 19 21 23 25 28 32 33 35 40 41 47 49 50 ,7 19 23 25 28 32 33 35 40 41 47 49 50 
7 19 21 23 25 28 30 32 33 35 40 41 47 49 50 ,7 19 21 23 25 28 32 33 35 40 41 47 49 50 
7 19 21 23 25 28 30 32 33 35 40 41 46 47 49 50 ,7 19 21 23 25 28 30 32 33 35 40 41 47 49 50 
7 19 21 23 25 27 28 30 32 33 35 40 41 46 47 49 50 ,7 19 21 23 25 28 30 32 33 35 40 41 46 47 49 50 
19 21 23 25 27 28 30 32 33 35 40 41 46 47 49 50 ,7 19 21 23 25 27 28 30 32 33 35 40 41 46 47 49 50 
19 21 23 25 27 28 30 32 33 35 40 41 46 49 50 ,19 21 23 25 27 28 30 32 33 35 40 41 46 47 49 50 
19 21 25 27 28 30 32 33 35 40 41 46 49 50 ,19 21 23 25 27 28 30 32 33 35 40 41 46 49 50 
19 21 25 27 28 30 32 33 35 40 41 46 49 50 ,19 21 25 27 28 30 32 33 35 40 41 46 49 50 
19 21 25 27 28 30 32 33 34 35 40 41 46 49 50 ,19 21 25 27 28 30 32 33 35 40 41 46 49 50 
7 19 21 25 27 28 30 32 33 34 35 40 41 46 49 50 ,19 21 25 27 28 30 32 33 34 35 40 41 46 49 50 
7 19 21 23 25 27 28 30 32 33 34 35 40 41 46 49 50 ,7 19 21 25 27 28 30 32 33 34 35 40 41 46 49 50 
7 19 21 23 25 27 28 30 32 33 34 35 40 41 46 49 ,7 19 21 23 25 27 28 30 32 33 34 35 40 41 46 49 50 
7 19 21 23 25 27 28 30 32 33 34 35 40 41 46 49 ,7 19 21 23 25 27 28 30 32 33 34 35 40 41 46 49 
7 19 21 23 25 27 28 30 32 33 34 40 41 46 49 ,7 19 21 23 25 27 28 30 32 33 34 35 40 41 46 49 
6 7 19 21 23 25 27 28 30 32 33 34 40 41 46 ,7 19 21 23 25 27 28 30 32 33 34 40 41 46 49 
6 7 18 19 21 23 25 28 30 32 33 34 40 41 46 ,6 7 19 21 23 25 27 28 30 32 33 34 40 41 46 
6 7 18 19 21 23 25 28 30 32 33 34 40 41 46 ,6 7 18 19 21 23 25 28 30 32 33 34 40 41 46 
5 6 7 18 19 21 25 28 30 32 33 34 40 41 46 ,6 7 18 19 21 23 25 28 30 32 33 34 40 41 46 
5 6 7 18 19 21 25 28 32 33 34 40 41 46 ,5 6 7 18 19 21 25 28 30 32 33 34 40 41 46 
5 6 18 19 21 25 28 32 33 34 35 40 41 46 ,5 6 7 18 19 21 25 28 32 33 34 40 41 46 
5 6 18 19 21 25 28 32 33 34 35 41 46 50 ,5 6 18 19 21 25 28 32 33 34 35 40 41 46 
5 6 18 19 21 25 28 32 33 34 35 41 44 46 47 50 ,5 6 18 19 21 25 28 32 33 34 35 41 46 50 
5 6 18 19 21 25 28 32 33 34 35 41 44 46 47 50 ,5 6 18 19 21 25 28 32 33 34 35 41 44 46 47 50 
5 6 18 19 21 24 25 28 32 33 34 35 41 44 46 47 50 ,5 6 18 19 21 25 28 32 33 34 35 41 44 46 47 50 
5 6 18 19 21 24 25 28 32 33 34 35 41 44 46 47 ,5 6 18 19 21 24 25 28 32 33 34 35 41 44 46 47 50 
5 6 18 19 21 24 25 28 32 33 34 35 41 46 47 ,5 6 18 19 21 24 25 28 32 33 34 35 41 44 46 47 
5 6 18 19 21 24 25 28 32 33 34 35 41 46 47 ,5 6 18 19 21 24 25 28 32 33 34 35 41 46 47 
5 6 18 19 21 24 25 28 32 33 34 35 41 46 47 ,5 6 18 19 21 24 25 28 32 33 34 35 41 46 47 
5 6 11 18 19 20 21 24 25 28 32 33 34 41 46 47 ,5 6 18 19 21 24 25 28 32 33 34 35 41 46 47 
5 6 11 18 19 20 21 24 25 28 32 33 34 41 46 47 50 ,5 6 11 18 19 20 21 24 25 28 32 33 34 41 46 47 
5 6 11 18 19 20 21 24 25 28 32 33 34 41 46 47 50 ,5 6 11 18 19 20 21 24 25 28 32 33 34 41 46 47 50 
5 6 11 18 19 20 21 25 28 32 33 34 41 46 47 50 ,5 6 11 18 19 20 21 24 25 28 32 33 34 41 46 47 50 
5 6 11 18 19 20 25 28 32 33 34 41 46 47 50 ,5 6 11 18 19 20 21 25 28 32 33 34 41 46 47 50 
5 6 11 18 19 20 25 28 32 33 34 38 39 41 46 47 50 ,5 6 11 18 19 20 25 28 32 33 34 41 46 47 50 
5 6 11 18 19 20 25 28 32 33 34 38 39 40 41 46 47 50 ,5 6 11 18 19 20 25 28 32 33 34 38 39 41 46 47 50 
5 6 11 18 19 20 25 28 32 33 34 38 39 40 41 46 50 ,5 6 11 18 19 20 25 28 32 33 34 38 39 40 41 46 47 50 
5 6 7 8 11 18 19 20 25 28 32 33 34 38 39 40 41 46 50 ,5 6 11 18 19 20 25 28 32 33 34 38 39 40 41 46 50 
5 6 7 8 11 18 19 20 24 25 28 32 34 38 39 40 41 46 50 ,5 6 7 8 11 18 19 20 25 28 32 33 34 38 39 40 41 46 50 
5 6 7 8 11 18 19 20 24 25 28 32 38 39 40 41 46 50 ,5 6 7 8 11 18 19 20 24 25 28 32 34 38 39 40 41 46 50 
5 6 7 8 11 18 19 20 24 25 28 32 38 39 40 41 46 50 ,5 6 7 8 11 18 19 20 24 25 28 32 38 39 40 41 46 50 
5 6 7 11 18 19 20 24 25 28 32 38 39 40 41 46 50 ,5 6 7 8 11 18 19 20 24 25 28 32 38 39 40 41 46 50 
5 6 11 17 18 19 20 24 25 28 32 38 39 40 41 46 50 ,5 6 7 11 18 19 20 24 25 28 32 38 39 40 41 46 50 
5 6 11 13 17 18 20 24 25 28 32 35 38 39 40 41 46 50 ,5 6 11 17 18 19 20 24 25 28 32 38 39 40 41 46 50 
5 6 11 13 17 18 20 24 25 28 32 35 38 39 41 46 50 ,5 6 11 13 17 18 20 24 25 28 32 35 38 39 40 41 46 50 
5 6 11 13 17 18 20 24 25 32 35 38 39 41 46 50 ,5 6 11 13 17 18 20 24 25 28 32 35 38 39 41 46 50 
5 6 11 17 18 20 24 25 32 35 38 39 41 46 47 50 ,5 6 11 13 17 18 20 24 25 32 35 38 39 41 46 50 
5 6 11 12 17 18 20 24 25 30 32 38 39 41 46 47 50 ,5 6 11 17 18 20 24 25 32 35 38 39 41 46 47 50 
5 11 12 17 18 20 24 25 30 32 38 39 41 46 47 50 ,5 6 11 12 17 18 20 24 25 30 32 38 39 41 46 47 50 
5 11 12 16 18 20 24 25 30 32 38 39 41 46 47 50 ,5 11 12 17 18 20 24 25 30 32 38 39 41 46 47 50 
5 11 12 16 18 20 24 25 30 32 36 38 39 41 46 50 ,5 11 12 16 18 20 24 25 30 32 38 39 41 46 47 50 
5 11 12 16 18 20 24 25 30 32 36 38 39 41 46 50 ,5 11 12 16 18 20 24 25 30 32 36 38 39 41 46 50 
5 11 12 16 18 20 24 25 30 32 36 38 39 41 50 ,5 11 12 16 18 20 24 25 30 32 36 38 39 41 46 50 
5 11 12 16 18 20 24 25 30 32 35 36 38 39 40 41 50 ,5 11 12 16 18 20 24 25 30 32 36 38 39 41 50 
5 11 12 16 18 20 24 25 29 30 32 35 36 38 39 40 41 50 ,5 11 12 16 18 20 24 25 30 32 35 36 38 39 40 41 50 
5 11 12 13 16 18 20 24 25 29 30 32 35 36 38 39 40 41 50 ,5 11 12 16 18 20 24 25 29 30 32 35 36 38 39 40 41 50 
5 11 12 13 16 18 23 24 25 29 30 32 35 36 38 39 40 41 50 ,5 11 12 13 16 18 20 24 25 29 30 32 35 36 38 39 40 41 50 
5 11 12 13 16 18 23 24 25 29 30 32 35 36 38 39 40 41 50 ,5 11 12 13 16 18 23 24 25 29 30 32 35 36 38 39 40 41 50 
5 11 12 13 16 18 23 24 25 29 30 32 35 36 38 39 40 41 50 ,5 11 12 13 16 18 23 24 25 29 30 32 35 36 38 39 40 41 50 
5 8 11 12 13 16 18 23 24 25 29 30 32 35 36 38 39 40 41 50 ,5 11 12 13 16 18 23 24 25 29 30 32 35 36 38 39 40 41 50 
5 8 11 12 13 16 18 23 24 25 29 30 32 35 36 38 39 40 41 50 ,5 8 11 12 13 16 18 23 24 25 29 30 32 35 36 38 39 40 41 50 
5 8 11 12 13 16 18 23 24 25 29 30 32 35 36 38 39 40 41 50 ,5 8 11 12 13 16 18 23 24 25 29 30 32 35 36 38 39 40 41 50 
5 8 11 12 13 16 18 23 24 25 30 32 35 36 38 39 40 41 50 ,5 8 11 12 13 16 18 23 24 25 29 30 32 35 36 38 39 40 41 50 
5 8 11 12 13 16 18 23 24 25 30 32 35 36 38 40 41 50 ,5 8 11 12 13 16 18 23 24 25 30 32 35 36 38 39 40 41 50 
5 8 11 12 13 16 18 23 24 25 30 32 35 36 38 40 41 50 ,5 8 11 12 13 16 18 23 24 25 30 32 35 36 38 40 41 50 
5 8 11 12 13 16 18 23 24 25 30 32 35 36 38 40 41 50 ,5 8 11 12 13 16 18 23 24 25 30 32 35 36 38 40 41 50 
5 8 11 12 16 18 23 24 25 30 32 35 36 38 40 41 47 50 ,5 8 11 12 13 16 18 23 24 25 30 32 35 36 38 40 41 50 
5 8 11 12 16 18 23 24 25 30 32 35 36 38 40 41 47 50 ,5 8 11 12 16 18 23 24 25 30 32 35 36 38 40 41 47 50 
2 5 8 11 16 18 23 24 25 30 32 35 36 38 40 41 47 50 ,5 8 11 12 16 18 23 24 25 30 32 35 36 38 40 41 47 50 
2 5 11 13 16 18 23 24 25 30 32 35 36 38 40 41 44 47 50 ,2 5 8 11 16 18 23 24 25 30 32 35 36 38 40 41 47 50 
2 5 11 16 18 23 24 25 30 32 35 36 38 40 41 44 47 50 ,2 5 11 13 16 18 23 24 25 30 32 35 36 38 40 41 44 47 50 
2 5 11 16 18 23 24 25 27 30 32 35 36 38 40 41 44 50 ,2 5 11 16 18 23 24 25 30 32 35 36 38 40 41 44 47 50 
2 5 11 16 18 23 24 25 27 30 32 35 36 38 40 41 44 50 ,2 5 11 16 18 23 24 25 27 30 32 35 36 38 40 41 44 50 
2 5 11 16 18 23 24 25 27 30 32 35 36 38 40 41 44 ,2 5 11 16 18 23 24 25 27 30 32 35 36 38 40 41 44 50 
5 11 13 16 18 23 24 25 27 30 31 32 35 36 38 40 41 44 ,2 5 11 16 18 23 24 25 27 30 32 35 36 38 40 41 44 
5 11 16 18 23 24 25 27 30 31 32 35 36 38 40 41 44 ,5 11 13 16 18 23 24 25 27 30 31 32 35 36 38 40 41 44 
5 11 16 18 23 24 25 27 30 31 35 36 38 40 41 44 ,5 11 16 18 23 24 25 27 30 31 32 35 36 38 40 41 44 
5 11 18 23 24 25 27 30 31 35 36 38 40 41 44 ,5 11 16 18 23 24 25 27 30 31 35 36 38 40 41 44 
5 11 18 23 24 25 27 30 31 35 36 38 40 41 44 ,5 11 18 23 24 25 27 30 31 35 36 38 40 41 44 
5 8 11 18 23 24 25 27 30 31 35 36 38 40 41 44 ,5 11 18 23 24 25 27 30 31 35 36 38 40 41 44 
5 8 11 23 24 25 27 30 31 35 36 38 40 41 44 ,5 8 11 18 23 24 25 27 30 31 35 36 38 40 41 44 
5 8 11 23 24 25 27 30 31 35 36 38 40 41 44 ,5 8 11 23 24 25 27 30 31 35 36 38 40 41 44 
5 8 11 23 24 25 27 30 31 35 38 40 41 44 ,5 8 11 23 24 25 27 30 31 35 36 38 40 41 44 
5 8 11 23 24 25 27 30 31 35 38 40 41 44 ,5 8 11 23 24 25 27 30 31 35 38 40 41 44 
5 8 11 23 24 25 27 30 31 35 38 40 41 44 ,5 8 11 23 24 25 27 30 31 35 38 40 41 44 
5 11 23 24 25 27 30 31 35 38 40 41 44 ,5 8 11 23 24 25 27 30 31 35 38 40 41 44 
5 11 23 24 25 27 30 31 35 38 40 41 44 ,5 11 23 24 25 27 30 31 35 38 40 41 44 
5 11 23 24 25 27 30 31 35 38 40 41 ,5 11 23 24 25 27 30 31 35 38 40 41 44 
5 11 23 25 27 30 31 35 38 40 41 ,5 11 23 24 25 27 30 31 35 38 40 41 
5 11 13 23 25 27 31 35 38 40 41 ,5 11 23 25 27 30 31 35 38 40 41 
5 11 13 15 23 27 31 33 35 38 40 41 ,5 11 13 23 25 27 31 35 38 40 41 
5 11 13 15 23 27 31 33 35 38 40 41 ,5 11 13 15 23 27 31 33 35 38 40 41 
5 11 13 15 23 25 27 31 33 35 36 38 40 41 ,5 11 13 15 23 27 31 33 35 38 40 41 
5 11 13 15 23 27 31 33 35 36 38 40 41 ,5 11 13 15 23 25 27 31 33 35 36 38 40 41 
5 11 13 15 23 31 33 35 36 38 40 41 ,5 11 13 15 23 27 31 33 35 36 38 40 41 
5 11 13 15 23 31 33 35 36 40 41 ,5 11 13 15 23 31 33 35 36 38 40 41 
5 11 13 23 31 33 35 36 39 40 41 ,5 11 13 15 23 31 33 35 36 40 41 
5 11 13 17 23 31 33 35 36 39 40 ,5 11 13 23 31 33 35 36 39 40 41 
5 11 13 17 23 31 33 35 36 39 40 ,5 11 13 17 23 31 33 35 36 39 40 
5 11 13 17 23 31 33 35 36 39 ,5 11 13 17 23 31 33 35 36 39 40 
5 11 13 17 31 33 35 36 39 ,5 11 13 17 23 31 33 35 36 39 
5 11 13 17 31 33 35 36 39 50 ,5 11 13 17 31 33 35 36 39 
5 11 13 17 30 31 33 35 36 39 50 ,5 11 13 17 31 33 35 36 39 50 
11 12 13 17 28 30 31 33 35 36 39 50 ,5 11 13 17 30 31 33 35 36 39 50 
11 12 13 17 28 30 31 33 35 36 39 50 ,11 12 13 17 28 30 31 33 35 36 39 50 
11 12 13 17 28 31 33 35 36 39 50 ,11 12 13 17 28 30 31 33 35 36 39 50 
11 12 13 17 28 31 33 35 36 39 50 ,11 12 13 17 28 31 33 35 36 39 50 
11 12 13 17 28 31 33 35 36 39 50 ,11 12 13 17 28 31 33 35 36 39 50 
11 12 13 17 28 33 35 36 39 50 ,11 12 13 17 28 31 33 35 36 39 50 
11 12 13 17 28 33 35 36 39 ,11 12 13 17 28 33 35 36 39 50 
11 12 13 17 28 33 35 36 39 ,11 12 13 17 28 33 35 36 39 
12 13 17 28 33 35 36 39 ,11 12 13 17 28 33 35 36 39 
12 13 28 33 35 36 39 ,12 13 17 28 33 35 36 39 
12 13 28 35 36 39 ,12 13 28 33 35 36 39 
12 13 28 35 36 39 ,12 13 28 35 36 39 
12 13 35 36 39 ,12 13 28 35 36 39 
12 13 14 35 36 39 ,12 13 35 36 39 
12 13 14 35 36 39 ,12 13 14 35 36 39 
12 13 35 36 39 ,12 13 14 35 36 39 
12 13 35 36 39 ,12 13 35 36 39 
13 35 36 39 ,12 13 35 36 39 
13 35 36 ,13 35 36 39 
13 36 ,13 35 36 
13 36 ,13 36 
13 36 ,13 36 
36 ,13 36 
36 ,36 
36 ,36 
,36 
-------------
-------
1(-1)->10 18 20 39 41 43 45 
2(-1)->5 8 11 13 16 18 23 24 25 27 30 32 35 36 38 40 41 44 47 50 
5(-1)->2 6 7 8 10 11 12 13 15 16 17 18 19 20 21 22 23 24 25 27 28 29 30 31 32 33 34 35 36 38 39 40 41 44 46 47 50 
6(-1)->5 7 8 11 12 13 17 18 19 20 21 23 24 25 27 28 30 32 33 34 35 38 39 40 41 44 46 47 50 
7(-1)->5 6 8 9 10 11 12 18 19 20 21 23 24 25 26 27 28 30 31 32 33 34 35 38 39 40 41 43 46 47 49 50 
8(-1)->2 5 6 7 11 12 13 16 18 19 20 23 24 25 27 28 29 30 31 32 33 34 35 36 38 39 40 41 44 46 47 50 
9(-1)->7 10 12 19 25 26 27 32 38 40 41 43 46 48 
10(-1)->1 5 7 9 12 13 18 19 20 21 22 23 25 26 27 28 31 32 33 34 38 40 41 43 46 47 48 
11(-1)->2 5 6 7 8 12 13 15 16 17 18 19 20 21 23 24 25 27 28 29 30 31 32 33 34 35 36 38 39 40 41 44 46 47 50 
12(-1)->5 6 7 8 9 10 11 13 14 16 17 18 19 20 22 23 24 25 26 27 28 29 30 31 32 33 34 35 36 38 39 40 41 43 46 47 48 50 
13(-1)->2 5 6 8 10 11 12 14 15 16 17 18 19 20 22 23 24 25 27 28 29 30 31 32 33 34 35 36 38 39 40 41 44 46 47 50 
14(-1)->12 13 35 36 39 
15(-1)->5 11 13 23 25 27 31 33 35 36 38 40 41 
16(-1)->2 5 8 11 12 13 18 20 23 24 25 27 29 30 31 32 35 36 38 39 40 41 44 46 47 50 
17(-1)->5 6 11 12 13 18 19 20 23 24 25 28 30 31 32 33 35 36 38 39 40 41 46 47 50 
18(-1)->1 2 5 6 7 8 10 11 12 13 16 17 19 20 21 23 24 25 26 27 28 29 30 31 32 33 34 35 36 38 39 40 41 44 45 46 47 50 
19(-1)->5 6 7 8 9 10 11 12 13 17 18 20 21 22 23 24 25 26 27 28 30 31 32 33 34 35 38 39 40 41 43 44 46 47 48 49 50 
20(-1)->1 5 6 7 8 10 11 12 13 16 17 18 19 21 22 23 24 25 28 29 30 32 33 34 35 36 38 39 40 41 42 43 46 47 50 
21(-1)->5 6 7 10 11 18 19 20 23 24 25 26 27 28 30 31 32 33 34 35 38 40 41 44 46 47 49 50 
22(-1)->5 10 12 13 19 20 23 25 28 31 32 33 34 35 38 40 41 46 47 50 
23(-1)->2 5 6 7 8 10 11 12 13 15 16 17 18 19 20 21 22 24 25 27 28 29 30 31 32 33 34 35 36 38 39 40 41 44 46 47 49 50 
24(-1)->2 5 6 7 8 11 12 13 16 17 18 19 20 21 23 25 27 28 29 30 31 32 33 34 35 36 38 39 40 41 44 46 47 50 
25(-1)->2 5 6 7 8 9 10 11 12 13 15 16 17 18 19 20 21 22 23 24 27 28 29 30 31 32 33 34 35 36 38 39 40 41 43 44 46 47 48 49 50 
26(-1)->7 9 10 12 18 19 21 27 31 32 38 40 41 43 46 
27(-1)->2 5 6 7 8 9 10 11 12 13 15 16 18 19 21 23 24 25 26 28 30 31 32 33 34 35 36 38 40 41 42 43 44 46 47 48 49 50 
28(-1)->5 6 7 8 10 11 12 13 17 18 19 20 21 22 23 24 25 27 30 31 32 33 34 35 36 38 39 40 41 44 46 47 49 50 
29(-1)->5 8 11 12 13 16 18 20 23 24 25 30 32 35 36 38 39 40 41 50 
30(-1)->2 5 6 7 8 11 12 13 16 17 18 19 20 21 23 24 25 27 28 29 31 32 33 34 35 36 38 39 40 41 42 44 46 47 49 50 
31(-1)->5 7 8 10 11 12 13 15 16 17 18 19 21 22 23 24 25 26 27 28 30 32 33 35 36 38 39 40 41 44 50 
32(-1)->2 5 6 7 8 9 10 11 12 13 16 17 18 19 20 21 22 23 24 25 26 27 28 29 30 31 33 34 35 36 38 39 40 41 43 44 46 47 48 49 50 
33(-1)->5 6 7 8 10 11 12 13 15 17 18 19 20 21 22 23 24 25 27 28 30 31 32 34 35 36 38 39 40 41 44 46 47 49 50 
34(-1)->5 6 7 8 10 11 12 13 18 19 20 21 22 23 24 25 27 28 30 32 33 35 38 39 40 41 44 46 47 49 50 
35(-1)->2 5 6 7 8 11 12 13 14 15 16 17 18 19 20 21 22 23 24 25 27 28 29 30 31 32 33 34 36 38 39 40 41 44 46 47 49 50 
36(-1)->2 5 8 11 12 13 14 15 16 17 18 20 23 24 25 27 28 29 30 31 32 33 35 38 39 40 41 44 46 47 50 
38(-1)->2 5 6 7 8 9 10 11 12 13 15 16 17 18 19 20 21 22 23 24 25 26 27 28 29 30 31 32 33 34 35 36 39 40 41 43 44 46 47 48 50 
39(-1)->1 5 6 7 8 11 12 13 14 16 17 18 19 20 23 24 25 28 29 30 31 32 33 34 35 36 38 40 41 43 46 47 50 
40(-1)->2 5 6 7 8 9 10 11 12 13 15 16 17 18 19 20 21 22 23 24 25 26 27 28 29 30 31 32 33 34 35 36 38 39 41 43 44 46 47 49 50 
41(-1)->1 2 5 6 7 8 9 10 11 12 13 15 16 17 18 19 20 21 22 23 24 25 26 27 28 29 30 31 32 33 34 35 36 38 39 40 43 44 45 46 47 48 49 50 
42(-1)->20 27 30 43 
43(-1)->1 7 9 10 12 19 20 25 26 27 32 38 39 40 41 42 46 48 
44(-1)->2 5 6 8 11 13 16 18 19 21 23 24 25 27 28 30 31 32 33 34 35 36 38 40 41 46 47 50 
45(-1)->1 18 41 
46(-1)->5 6 7 8 9 10 11 12 13 16 17 18 19 20 21 22 23 24 25 26 27 28 30 32 33 34 35 36 38 39 40 41 43 44 47 48 49 50 
47(-1)->2 5 6 7 8 10 11 12 13 16 17 18 19 20 21 22 23 24 25 27 28 30 32 33 34 35 36 38 39 40 41 44 46 49 50 
48(-1)->9 10 12 19 25 27 32 38 41 43 46 
49(-1)->7 19 21 23 25 27 28 30 32 33 34 35 40 41 46 47 50 
50(-1)->2 5 6 7 8 11 12 13 16 17 18 19 20 21 22 23 24 25 27 28 29 30 31 32 33 34 35 36 38 39 40 41 44 46 47 49 
-------
1(0)->10 18 20 39 41 43 45 
2(0)->5 8 11 13 16 18 23 24 25 27 30 32 35 36 38 40 41 44 47 50 
5(1)->2 6 7 8 10 11 12 13 15 16 17 18 19 20 21 22 23 24 25 27 28 29 30 31 32 33 34 35 36 38 39 40 41 44 46 47 50 
6(0)->5 7 8 11 12 13 17 18 19 20 21 23 24 25 27 28 30 32 33 34 35 38 39 40 41 44 46 47 50 
7(2)->5 6 8 9 10 11 12 18 19 20 21 23 24 25 26 27 28 30 31 32 33 34 35 38 39 40 41 43 46 47 49 50 
8(3)->2 5 6 7 11 12 13 16 18 19 20 23 24 25 27 28 29 30 31 32 33 34 35 36 38 39 40 41 44 46 47 50 
9(0)->7 10 12 19 25 26 27 32 38 40 41 43 46 48 
10(3)->1 5 7 9 12 13 18 19 20 21 22 23 25 26 27 28 31 32 33 34 38 40 41 43 46 47 48 
11(4)->2 5 6 7 8 12 13 15 16 17 18 19 20 21 23 24 25 27 28 29 30 31 32 33 34 35 36 38 39 40 41 44 46 47 50 
12(5)->5 6 7 8 9 10 11 13 14 16 17 18 19 20 22 23 24 25 26 27 28 29 30 31 32 33 34 35 36 38 39 40 41 43 46 47 48 50 
13(2)->2 5 6 8 10 11 12 14 15 16 17 18 19 20 22 23 24 25 27 28 29 30 31 32 33 34 35 36 38 39 40 41 44 46 47 50 
14(0)->12 13 35 36 39 
15(0)->5 11 13 23 25 27 31 33 35 36 38 40 41 
16(6)->2 5 8 11 12 13 18 20 23 24 25 27 29 30 31 32 35 36 38 39 40 41 44 46 47 50 
17(3)->5 6 11 12 13 18 19 20 23 24 25 28 30 31 32 33 35 36 38 39 40 41 46 47 50 
18(7)->1 2 5 6 7 8 10 11 12 13 16 17 19 20 21 23 24 25 26 27 28 29 30 31 32 33 34 35 36 38 39 40 41 44 45 46 47 50 
19(6)->5 6 7 8 9 10 11 12 13 17 18 20 21 22 23 24 25 26 27 28 30 31 32 33 34 35 38 39 40 41 43 44 46 47 48 49 50 
20(8)->1 5 6 7 8 10 11 12 13 16 17 18 19 21 22 23 24 25 28 29 30 32 33 34 35 36 38 39 40 41 42 43 46 47 50 
21(5)->5 6 7 10 11 18 19 20 23 24 25 26 27 28 30 31 32 33 34 35 38 40 41 44 46 47 49 50 
22(0)->5 10 12 13 19 20 23 25 28 31 32 33 34 35 38 40 41 46 47 50 
23(9)->2 5 6 7 8 10 11 12 13 15 16 17 18 19 20 21 22 24 25 27 28 29 30 31 32 33 34 35 36 38 39 40 41 44 46 47 49 50 
24(10)->2 5 6 7 8 11 12 13 16 17 18 19 20 21 23 25 27 28 29 30 31 32 33 34 35 36 38 39 40 41 44 46 47 50 
25(11)->2 5 6 7 8 9 10 11 12 13 15 16 17 18 19 20 21 22 23 24 27 28 29 30 31 32 33 34 35 36 38 39 40 41 43 44 46 47 48 49 50 
26(1)->7 9 10 12 18 19 21 27 31 32 38 40 41 43 46 
27(8)->2 5 6 7 8 9 10 11 12 13 15 16 18 19 21 23 24 25 26 28 30 31 32 33 34 35 36 38 40 41 42 43 44 46 47 48 49 50 
28(12)->5 6 7 8 10 11 12 13 17 18 19 20 21 22 23 24 25 27 30 31 32 33 34 35 36 38 39 40 41 44 46 47 49 50 
29(0)->5 8 11 12 13 16 18 20 23 24 25 30 32 35 36 38 39 40 41 50 
30(13)->2 5 6 7 8 11 12 13 16 17 18 19 20 21 23 24 25 27 28 29 31 32 33 34 35 36 38 39 40 41 42 44 46 47 49 50 
31(14)->5 7 8 10 11 12 13 15 16 17 18 19 21 22 23 24 25 26 27 28 30 32 33 35 36 38 39 40 41 44 50 
32(15)->2 5 6 7 8 9 10 11 12 13 16 17 18 19 20 21 22 23 24 25 26 27 28 29 30 31 33 34 35 36 38 39 40 41 43 44 46 47 48 49 50 
33(16)->5 6 7 8 10 11 12 13 15 17 18 19 20 21 22 23 24 25 27 28 30 31 32 34 35 36 38 39 40 41 44 46 47 49 50 
34(14)->5 6 7 8 10 11 12 13 18 19 20 21 22 23 24 25 27 28 30 32 33 35 38 39 40 41 44 46 47 49 50 
35(17)->2 5 6 7 8 11 12 13 14 15 16 17 18 19 20 21 22 23 24 25 27 28 29 30 31 32 33 34 36 38 39 40 41 44 46 47 49 50 
36(18)->2 5 8 11 12 13 14 15 16 17 18 20 23 24 25 27 28 29 30 31 32 33 35 38 39 40 41 44 46 47 50 
38(19)->2 5 6 7 8 9 10 11 12 13 15 16 17 18 19 20 21 22 23 24 25 26 27 28 29 30 31 32 33 34 35 36 39 40 41 43 44 46 47 48 50 
39(20)->1 5 6 7 8 11 12 13 14 16 17 18 19 20 23 24 25 28 29 30 31 32 33 34 35 36 38 40 41 43 46 47 50 
40(21)->2 5 6 7 8 9 10 11 12 13 15 16 17 18 19 20 21 22 23 24 25 26 27 28 29 30 31 32 33 34 35 36 38 39 41 43 44 46 47 49 50 
41(22)->1 2 5 6 7 8 9 10 11 12 13 15 16 17 18 19 20 21 22 23 24 25 26 27 28 29 30 31 32 33 34 35 36 38 39 40 43 44 45 46 47 48 49 50 
42(0)->20 27 30 43 
43(4)->1 7 9 10 12 19 20 25 26 27 32 38 39 40 41 42 46 48 
44(20)->2 5 6 8 11 13 16 18 19 21 23 24 25 27 28 30 31 32 33 34 35 36 38 40 41 46 47 50 
45(1)->1 18 41 
46(23)->5 6 7 8 9 10 11 12 13 16 17 18 19 20 21 22 23 24 25 26 27 28 30 32 33 34 35 36 38 39 40 41 43 44 47 48 49 50 
47(24)->2 5 6 7 8 10 11 12 13 16 17 18 19 20 21 22 23 24 25 27 28 30 32 33 34 35 36 38 39 40 41 44 46 49 50 
48(1)->9 10 12 19 25 27 32 38 41 43 46 
49(0)->7 19 21 23 25 27 28 30 32 33 34 35 40 41 46 47 50 
50(25)->2 5 6 7 8 11 12 13 16 17 18 19 20 21 22 23 24 25 27 28 29 30 31 32 33 34 35 36 38 39 40 41 44 46 47 49 
COUNT: 0
BEST COST: 26
26
26
