-1=-1,-1,-1
-1=-1,-1,-1
-1=-1,-1,-1
-1=-1,-1,-1
-1=-1,-1,-1
-1=-1,-1,-1
-1=-1,-1,-1
-1=-1,-1,-1
-1=-1,-1,-1
-1=-1,-1,-1
16=-1,-1,-1
41=-1,-1,-1
-1=-1,-1,-1
50=-1,-1,-1
-1=-1,-1,-1
-1=-1,-1,-1
-1=-1,-1,-1
1=-1,-1,-1
-1=-1,-1,-1
10=-1,-1,-1
-1=-1,-1,-1
24=-1,-1,-1
-1=-1,-1,-1
-1=-1,-1,-1
-1=-1,-1,-1
-1=41,-1,-1
-1=-1,-1,-1
-1=-1,-1,-1
-1=-1,-1,-1
-1=-1,-1,-1
-1=-1,-1,-1
-1=-1,-1,-1
-1=-1,-1,-1
-1=-1,-1,-1
-1=-1,-1,-1
-1=-1,-1,-1
-1=-1,-1,-1
39=-1,-1,-1
-1=-1,-1,-1
-1=50,-1,-1
-1=-1,-1,-1
-1=-1,-1,-1
-1=-1,-1,-1
11=1,-1,-1
-1=-1,-1,-1
-1=-1,-1,-1
-1=-1,-1,-1
-1=-1,-1,-1
32=-1,-1,-1
-1=-1,-1,-1
-1=32,-1,-1
17=-1,-1,-1
-1=-1,-1,-1
-1=-1,-1,-1
13=17,-1,-1
3=-1,-1,-1
-1=-1,-1,-1
-1=39,-1,-1
-1=-1,-1,-1
-1=-1,-1,-1
-1=-1,-1,-1
-1=-1,-1,-1
33=-1,-1,-1
22=-1,-1,-1
-1=33,-1,-1
-1=-1,-1,-1
-1=22,-1,-1
-1=-1,-1,-1
-1=-1,-1,-1
-1=-1,-1,-1
-1=-1,-1,-1
-1=-1,-1,-1
-1=-1,-1,-1
-1=-1,-1,-1
50=-1,-1,-1
-1=3,-1,-1
-1=10,-1,-1
-1=-1,-1,-1
-1=-1,-1,-1
-1=-1,-1,-1
5=-1,-1,-1
-1=-1,-1,-1
-1=11,-1,-1
-1=-1,-1,-1
-1=16,-1,-1
-1=24,-1,-1
-1=-1,-1,-1
-1=-1,-1,-1
-1=-1,-1,-1
-1=-1,-1,-1
-1=-1,-1,-1
46=-1,-1,-1
-1=-1,-1,-1
-1=5,46,-1
-1=-1,-1,-1
-1=-1,-1,-1
-1=-1,-1,-1
-1=-1,-1,-1
-1=-1,-1,-1
-1=-1,-1,-1
-1=-1,-1,-1
-1=-1,-1,-1
2=-1,-1,-1
-1=-1,-1,-1
-1=-1,-1,-1
-1=-1,-1,-1
-1=-1,-1,-1
-1=2,-1,-1
-1=-1,-1,-1
-1=-1,-1,-1
-1=-1,-1,-1
-1=-1,-1,-1
12=-1,-1,-1
-1=-1,-1,-1
-1=50,-1,-1
-1=13,-1,-1
-1=-1,-1,-1
-1=-1,-1,-1
-1=-1,-1,-1
14=-1,-1,-1
-1=-1,-1,-1
9=-1,-1,-1
-1=-1,-1,-1
-1=-1,-1,-1
19=-1,-1,-1
-1=-1,-1,-1
-1=12,-1,-1
-1=-1,-1,-1
-1=-1,-1,-1
-1=-1,-1,-1
2=-1,-1,-1
46=-1,-1,-1
-1=-1,-1,-1
-1=-1,-1,-1
32=-1,-1,-1
-1=-1,-1,-1
-1=-1,-1,-1
-1=32,-1,-1
-1=9,-1,-1
28=-1,-1,-1
-1=-1,-1,-1
-1=-1,-1,-1
-1=-1,-1,-1
-1=-1,-1,-1
-1=-1,-1,-1
-1=-1,-1,-1
-1=2,-1,-1
-1=-1,-1,-1
-1=-1,-1,-1
-1=28,-1,-1
-1=-1,-1,-1
-1=-1,-1,-1
-1=-1,-1,-1
-1=46,-1,-1
-1=-1,-1,-1
-1=-1,-1,-1
-1=-1,-1,-1
-1=19,-1,-1
32=-1,-1,-1
-1=14,-1,-1
-1=-1,-1,-1
-1=-1,-1,-1
-1=-1,-1,-1
-1=-1,-1,-1
-1=-1,-1,-1
-1=-1,-1,-1
-1=-1,-1,-1
38=-1,-1,-1
31=32,-1,-1
-1=-1,-1,-1
-1=-1,-1,-1
-1=-1,-1,-1
-1=-1,-1,-1
-1=-1,-1,-1
-1=-1,-1,-1
-1=-1,-1,-1
16=-1,-1,-1
-1=16,-1,-1
-1=-1,-1,-1
-1=-1,-1,-1
-1=31,-1,-1
-1=38,-1,-1
-1=-1,-1,-1
-1=-1,-1,-1
-1=-1,-1,-1
-1=-1,-1,-1
-1=-1,-1,-1
-1=-1,-1,-1
-1=-1,-1,-1
-1=-1,-1,-1
-1=-1,-1,-1
-1=-1,-1,-1
-1=-1,-1,-1
-1=-1,-1,-1
25=-1,-1,-1
-1=-1,-1,-1
-1=25,-1,-1
-1=-1,-1,-1
-1=-1,-1,-1
-1=-1,-1,-1
--------
,
,
,
25 ,
25 ,25 
,25 
,
,
,
,
,
,
,
,
,
,
,
,
38 ,
31 38 ,38 
31 38 ,31 38 
31 38 ,31 38 
16 31 38 ,31 38 
31 38 ,16 31 38 
31 38 ,31 38 
31 38 ,31 38 
31 38 ,31 38 
31 38 ,31 38 
31 38 ,31 38 
31 38 ,31 38 
31 38 ,31 38 
32 38 ,31 38 
32 ,32 38 
32 ,32 
32 ,32 
32 ,32 
32 ,32 
32 ,32 
32 ,32 
32 ,32 
14 32 ,32 
14 ,14 32 
14 19 ,14 
14 19 ,14 19 
14 19 ,14 19 
14 19 ,14 19 
14 19 46 ,14 19 
14 19 46 ,14 19 46 
14 19 46 ,14 19 46 
14 19 46 ,14 19 46 
14 19 28 46 ,14 19 46 
14 19 28 46 ,14 19 28 46 
14 19 28 46 ,14 19 28 46 
2 14 19 28 46 ,14 19 28 46 
2 14 19 28 46 ,2 14 19 28 46 
2 14 19 28 46 ,2 14 19 28 46 
2 14 19 28 46 ,2 14 19 28 46 
2 14 19 28 46 ,2 14 19 28 46 
2 14 19 28 46 ,2 14 19 28 46 
2 14 19 28 46 ,2 14 19 28 46 
2 14 19 46 ,2 14 19 28 46 
2 9 14 19 46 ,2 14 19 46 
2 9 14 19 32 46 ,2 9 14 19 46 
2 9 14 19 32 46 ,2 9 14 19 32 46 
2 9 14 19 32 46 ,2 9 14 19 32 46 
2 9 14 19 46 ,2 9 14 19 32 46 
2 9 14 19 46 ,2 9 14 19 46 
2 9 14 19 46 ,2 9 14 19 46 
2 9 14 19 ,2 9 14 19 46 
9 14 19 ,2 9 14 19 
9 14 19 ,9 14 19 
9 14 19 ,9 14 19 
9 14 19 ,9 14 19 
9 12 14 19 ,9 14 19 
9 12 14 19 ,9 12 14 19 
9 12 14 ,9 12 14 19 
9 12 14 ,9 12 14 
9 12 14 ,9 12 14 
12 14 ,9 12 14 
12 14 ,12 14 
12 ,12 14 
12 ,12 
12 ,12 
12 ,12 
12 13 ,12 
12 13 50 ,12 13 
12 13 50 ,12 13 50 
13 50 ,12 13 50 
13 50 ,13 50 
13 50 ,13 50 
13 50 ,13 50 
13 50 ,13 50 
2 13 50 ,13 50 
2 13 50 ,2 13 50 
2 13 50 ,2 13 50 
2 13 50 ,2 13 50 
2 13 50 ,2 13 50 
13 50 ,2 13 50 
13 50 ,13 50 
13 50 ,13 50 
13 50 ,13 50 
13 50 ,13 50 
13 50 ,13 50 
13 50 ,13 50 
13 50 ,13 50 
13 50 ,13 50 
5 13 46 50 ,13 50 
5 13 46 50 ,5 13 46 50 
5 13 50 ,5 13 46 50 
5 13 50 ,5 13 50 
5 13 50 ,5 13 50 
5 13 50 ,5 13 50 
5 13 50 ,5 13 50 
5 13 50 ,5 13 50 
5 13 24 50 ,5 13 50 
5 13 16 24 50 ,5 13 24 50 
5 13 16 24 50 ,5 13 16 24 50 
5 11 13 16 24 50 ,5 13 16 24 50 
5 11 13 16 24 50 ,5 11 13 16 24 50 
11 13 16 24 50 ,5 11 13 16 24 50 
11 13 16 24 50 ,11 13 16 24 50 
11 13 16 24 50 ,11 13 16 24 50 
11 13 16 24 50 ,11 13 16 24 50 
10 11 13 16 24 50 ,11 13 16 24 50 
3 10 11 13 16 24 50 ,10 11 13 16 24 50 
3 10 11 13 16 24 ,3 10 11 13 16 24 50 
3 10 11 13 16 24 ,3 10 11 13 16 24 
3 10 11 13 16 24 ,3 10 11 13 16 24 
3 10 11 13 16 24 ,3 10 11 13 16 24 
3 10 11 13 16 24 ,3 10 11 13 16 24 
3 10 11 13 16 24 ,3 10 11 13 16 24 
3 10 11 13 16 24 ,3 10 11 13 16 24 
3 10 11 13 16 24 ,3 10 11 13 16 24 
3 10 11 13 16 22 24 ,3 10 11 13 16 24 
3 10 11 13 16 22 24 ,3 10 11 13 16 22 24 
3 10 11 13 16 22 24 33 ,3 10 11 13 16 22 24 
3 10 11 13 16 24 33 ,3 10 11 13 16 22 24 33 
3 10 11 13 16 24 ,3 10 11 13 16 24 33 
3 10 11 13 16 24 ,3 10 11 13 16 24 
3 10 11 13 16 24 ,3 10 11 13 16 24 
3 10 11 13 16 24 ,3 10 11 13 16 24 
3 10 11 13 16 24 ,3 10 11 13 16 24 
3 10 11 13 16 24 39 ,3 10 11 13 16 24 
3 10 11 13 16 24 39 ,3 10 11 13 16 24 39 
10 11 13 16 24 39 ,3 10 11 13 16 24 39 
10 11 16 17 24 39 ,10 11 13 16 24 39 
10 11 16 17 24 39 ,10 11 16 17 24 39 
10 11 16 17 24 39 ,10 11 16 17 24 39 
10 11 16 24 39 ,10 11 16 17 24 39 
10 11 16 24 32 39 ,10 11 16 24 39 
10 11 16 24 32 39 ,10 11 16 24 32 39 
10 11 16 24 39 ,10 11 16 24 32 39 
10 11 16 24 39 ,10 11 16 24 39 
10 11 16 24 39 ,10 11 16 24 39 
10 11 16 24 39 ,10 11 16 24 39 
10 11 16 24 39 ,10 11 16 24 39 
1 10 16 24 39 ,10 11 16 24 39 
1 10 16 24 39 ,1 10 16 24 39 
1 10 16 24 39 ,1 10 16 24 39 
1 10 16 24 39 ,1 10 16 24 39 
1 10 16 24 39 50 ,1 10 16 24 39 
1 10 16 24 39 50 ,1 10 16 24 39 50 
1 10 16 24 50 ,1 10 16 24 39 50 
1 10 16 24 50 ,1 10 16 24 50 
1 10 16 24 50 ,1 10 16 24 50 
1 10 16 24 50 ,1 10 16 24 50 
1 10 16 24 50 ,1 10 16 24 50 
1 10 16 24 50 ,1 10 16 24 50 
1 10 16 24 50 ,1 10 16 24 50 
1 10 16 24 50 ,1 10 16 24 50 
1 10 16 24 50 ,1 10 16 24 50 
1 10 16 24 50 ,1 10 16 24 50 
1 10 16 24 50 ,1 10 16 24 50 
1 10 16 24 50 ,1 10 16 24 50 
1 10 16 24 41 50 ,1 10 16 24 50 
1 10 16 24 41 50 ,1 10 16 24 41 50 
1 10 16 24 41 50 ,1 10 16 24 41 50 
1 10 16 24 41 50 ,1 10 16 24 41 50 
1 10 16 41 50 ,1 10 16 24 41 50 
1 10 16 41 50 ,1 10 16 41 50 
1 16 41 50 ,1 10 16 41 50 
1 16 41 50 ,1 16 41 50 
16 41 50 ,1 16 41 50 
16 41 50 ,16 41 50 
16 41 50 ,16 41 50 
16 41 50 ,16 41 50 
16 41 ,16 41 50 
16 41 ,16 41 
16 ,16 41 
,16 
,
,
,
,
,
,
,
,
,
,
--------
,
,
,
25 ,
25 ,25 
,25 
,
,
,
,
,
,
,
,
,
,
,
,
38 ,
31 38 ,38 
31 38 ,31 38 
31 38 ,31 38 
16 31 38 ,31 38 
31 38 ,16 31 38 
31 38 ,31 38 
31 38 ,31 38 
31 38 ,31 38 
31 38 ,31 38 
31 38 ,31 38 
31 38 ,31 38 
31 38 ,31 38 
32 38 ,31 38 
32 ,32 38 
32 ,32 
32 ,32 
32 ,32 
32 ,32 
32 ,32 
32 ,32 
32 ,32 
14 32 ,32 
14 ,14 32 
14 19 ,14 
14 19 ,14 19 
14 19 ,14 19 
14 19 ,14 19 
14 19 46 ,14 19 
14 19 46 ,14 19 46 
14 19 46 ,14 19 46 
14 19 46 ,14 19 46 
14 19 28 46 ,14 19 46 
14 19 28 46 ,14 19 28 46 
14 19 28 46 ,14 19 28 46 
2 14 19 28 46 ,14 19 28 46 
2 14 19 28 46 ,2 14 19 28 46 
2 14 19 28 46 ,2 14 19 28 46 
2 14 19 28 46 ,2 14 19 28 46 
2 14 19 28 46 ,2 14 19 28 46 
2 14 19 28 46 ,2 14 19 28 46 
2 14 19 28 46 ,2 14 19 28 46 
2 14 19 46 ,2 14 19 28 46 
2 9 14 19 46 ,2 14 19 46 
2 9 14 19 32 46 ,2 9 14 19 46 
2 9 14 19 32 46 ,2 9 14 19 32 46 
2 9 14 19 32 46 ,2 9 14 19 32 46 
2 9 14 19 46 ,2 9 14 19 32 46 
2 9 14 19 46 ,2 9 14 19 46 
2 9 14 19 46 ,2 9 14 19 46 
2 9 14 19 ,2 9 14 19 46 
9 14 19 ,2 9 14 19 
9 14 19 ,9 14 19 
9 14 19 ,9 14 19 
9 14 19 ,9 14 19 
9 12 14 19 ,9 14 19 
9 12 14 19 ,9 12 14 19 
9 12 14 ,9 12 14 19 
9 12 14 ,9 12 14 
9 12 14 ,9 12 14 
12 14 ,9 12 14 
12 14 ,12 14 
12 ,12 14 
12 ,12 
12 ,12 
12 ,12 
12 13 ,12 
12 13 50 ,12 13 
12 13 50 ,12 13 50 
13 50 ,12 13 50 
13 50 ,13 50 
13 50 ,13 50 
13 50 ,13 50 
13 50 ,13 50 
2 13 50 ,13 50 
2 13 50 ,2 13 50 
2 13 50 ,2 13 50 
2 13 50 ,2 13 50 
2 13 50 ,2 13 50 
13 50 ,2 13 50 
13 50 ,13 50 
13 50 ,13 50 
13 50 ,13 50 
13 50 ,13 50 
13 50 ,13 50 
13 50 ,13 50 
13 50 ,13 50 
13 50 ,13 50 
5 13 46 50 ,13 50 
5 13 46 50 ,5 13 46 50 
5 13 50 ,5 13 46 50 
5 13 50 ,5 13 50 
5 13 50 ,5 13 50 
5 13 50 ,5 13 50 
5 13 50 ,5 13 50 
5 13 50 ,5 13 50 
5 13 24 50 ,5 13 50 
5 13 16 24 50 ,5 13 24 50 
5 13 16 24 50 ,5 13 16 24 50 
5 11 13 16 24 50 ,5 13 16 24 50 
5 11 13 16 24 50 ,5 11 13 16 24 50 
11 13 16 24 50 ,5 11 13 16 24 50 
11 13 16 24 50 ,11 13 16 24 50 
11 13 16 24 50 ,11 13 16 24 50 
11 13 16 24 50 ,11 13 16 24 50 
10 11 13 16 24 50 ,11 13 16 24 50 
3 10 11 13 16 24 50 ,10 11 13 16 24 50 
3 10 11 13 16 24 ,3 10 11 13 16 24 50 
3 10 11 13 16 24 ,3 10 11 13 16 24 
3 10 11 13 16 24 ,3 10 11 13 16 24 
3 10 11 13 16 24 ,3 10 11 13 16 24 
3 10 11 13 16 24 ,3 10 11 13 16 24 
3 10 11 13 16 24 ,3 10 11 13 16 24 
3 10 11 13 16 24 ,3 10 11 13 16 24 
3 10 11 13 16 24 ,3 10 11 13 16 24 
3 10 11 13 16 22 24 ,3 10 11 13 16 24 
3 10 11 13 16 22 24 ,3 10 11 13 16 22 24 
3 10 11 13 16 22 24 33 ,3 10 11 13 16 22 24 
3 10 11 13 16 24 33 ,3 10 11 13 16 22 24 33 
3 10 11 13 16 24 ,3 10 11 13 16 24 33 
3 10 11 13 16 24 ,3 10 11 13 16 24 
3 10 11 13 16 24 ,3 10 11 13 16 24 
3 10 11 13 16 24 ,3 10 11 13 16 24 
3 10 11 13 16 24 ,3 10 11 13 16 24 
3 10 11 13 16 24 39 ,3 10 11 13 16 24 
3 10 11 13 16 24 39 ,3 10 11 13 16 24 39 
10 11 13 16 24 39 ,3 10 11 13 16 24 39 
10 11 16 17 24 39 ,10 11 13 16 24 39 
10 11 16 17 24 39 ,10 11 16 17 24 39 
10 11 16 17 24 39 ,10 11 16 17 24 39 
10 11 16 24 39 ,10 11 16 17 24 39 
10 11 16 24 32 39 ,10 11 16 24 39 
10 11 16 24 32 39 ,10 11 16 24 32 39 
10 11 16 24 39 ,10 11 16 24 32 39 
10 11 16 24 39 ,10 11 16 24 39 
10 11 16 24 39 ,10 11 16 24 39 
10 11 16 24 39 ,10 11 16 24 39 
10 11 16 24 39 ,10 11 16 24 39 
1 10 16 24 39 ,10 11 16 24 39 
1 10 16 24 39 ,1 10 16 24 39 
1 10 16 24 39 ,1 10 16 24 39 
1 10 16 24 39 ,1 10 16 24 39 
1 10 16 24 39 50 ,1 10 16 24 39 
1 10 16 24 39 50 ,1 10 16 24 39 50 
1 10 16 24 50 ,1 10 16 24 39 50 
1 10 16 24 50 ,1 10 16 24 50 
1 10 16 24 50 ,1 10 16 24 50 
1 10 16 24 50 ,1 10 16 24 50 
1 10 16 24 50 ,1 10 16 24 50 
1 10 16 24 50 ,1 10 16 24 50 
1 10 16 24 50 ,1 10 16 24 50 
1 10 16 24 50 ,1 10 16 24 50 
1 10 16 24 50 ,1 10 16 24 50 
1 10 16 24 50 ,1 10 16 24 50 
1 10 16 24 50 ,1 10 16 24 50 
1 10 16 24 50 ,1 10 16 24 50 
1 10 16 24 41 50 ,1 10 16 24 50 
1 10 16 24 41 50 ,1 10 16 24 41 50 
1 10 16 24 41 50 ,1 10 16 24 41 50 
1 10 16 24 41 50 ,1 10 16 24 41 50 
1 10 16 41 50 ,1 10 16 24 41 50 
1 10 16 41 50 ,1 10 16 41 50 
1 16 41 50 ,1 10 16 41 50 
1 16 41 50 ,1 16 41 50 
16 41 50 ,1 16 41 50 
16 41 50 ,16 41 50 
16 41 50 ,16 41 50 
16 41 50 ,16 41 50 
16 41 ,16 41 50 
16 41 ,16 41 
16 ,16 41 
,16 
,
,
,
,
,
,
,
,
,
,
-------------
-------
1(-1)->10 16 24 39 41 50 
2(-1)->9 13 14 19 28 32 46 50 
3(-1)->10 11 13 16 22 24 33 39 50 
5(-1)->11 13 16 24 46 50 
9(-1)->2 12 14 19 32 46 
10(-1)->1 3 11 13 16 17 22 24 32 33 39 41 50 
11(-1)->3 5 10 13 16 17 22 24 32 33 39 50 
12(-1)->9 13 14 19 50 
13(-1)->2 3 5 10 11 12 16 22 24 33 39 46 50 
14(-1)->2 9 12 19 28 32 46 
16(-1)->1 3 5 10 11 13 17 22 24 31 32 33 38 39 41 50 
17(-1)->10 11 16 24 39 
19(-1)->2 9 12 14 28 32 46 
22(-1)->3 10 11 13 16 24 33 
24(-1)->1 3 5 10 11 13 16 17 22 32 33 39 41 50 
25(-1)->
28(-1)->2 14 19 46 
31(-1)->16 38 
32(-1)->2 9 10 11 14 16 19 24 38 39 46 
33(-1)->3 10 11 13 16 22 24 
38(-1)->16 31 32 
39(-1)->1 3 10 11 13 16 17 24 32 50 
41(-1)->1 10 16 24 50 
46(-1)->2 5 9 13 14 19 28 32 50 
50(-1)->1 2 3 5 10 11 12 13 16 24 39 41 46 
-------
16(-1)->1 3 5 10 11 13 17 22 24 31 32 33 38 39 41 50 
24(-1)->1 3 5 10 11 13 16 17 22 32 33 39 41 50 
10(-1)->1 3 11 13 16 17 22 24 32 33 39 41 50 
13(-1)->2 3 5 10 11 12 16 22 24 33 39 46 50 
50(-1)->1 2 3 5 10 11 12 13 16 24 39 41 46 
11(-1)->3 5 10 13 16 17 22 24 32 33 39 50 
32(-1)->2 9 10 11 14 16 19 24 38 39 46 
39(-1)->1 3 10 11 13 16 17 24 32 50 
3(-1)->10 11 13 16 22 24 33 39 50 
46(-1)->2 5 9 13 14 19 28 32 50 
2(-1)->9 13 14 19 28 32 46 50 
14(-1)->2 9 12 19 28 32 46 
19(-1)->2 9 12 14 28 32 46 
22(-1)->3 10 11 13 16 24 33 
33(-1)->3 10 11 13 16 22 24 
1(-1)->10 16 24 39 41 50 
5(-1)->11 13 16 24 46 50 
9(-1)->2 12 14 19 32 46 
12(-1)->9 13 14 19 50 
17(-1)->10 11 16 24 39 
41(-1)->1 10 16 24 50 
28(-1)->2 14 19 46 
38(-1)->16 31 32 
31(-1)->16 38 
25(-1)->
-------
3 10 11 13 16 22 24 33 

25 

****************
****************
33(-1)->3 10 11 13 16 22 24 
22(-1)->3 10 11 13 16 24 33 
3(-1)->10 11 13 16 22 24 33 39 50 
11(-1)->3 5 10 13 16 17 22 24 32 33 39 50 
13(-1)->2 3 5 10 11 12 16 22 24 33 39 46 50 
10(-1)->1 3 11 13 16 17 22 24 32 33 39 41 50 
24(-1)->1 3 5 10 11 13 16 17 22 32 33 39 41 50 
16(-1)->1 3 5 10 11 13 17 22 24 31 32 33 38 39 41 50 
50(-1)->1 2 3 5 10 11 12 13 16 24 39 41 46 
32(-1)->2 9 10 11 14 16 19 24 38 39 46 
39(-1)->1 3 10 11 13 16 17 24 32 50 
46(-1)->2 5 9 13 14 19 28 32 50 
2(-1)->9 13 14 19 28 32 46 50 
14(-1)->2 9 12 19 28 32 46 
19(-1)->2 9 12 14 28 32 46 
1(-1)->10 16 24 39 41 50 
5(-1)->11 13 16 24 46 50 
9(-1)->2 12 14 19 32 46 
12(-1)->9 13 14 19 50 
17(-1)->10 11 16 24 39 
41(-1)->1 10 16 24 50 
28(-1)->2 14 19 46 
38(-1)->16 31 32 
31(-1)->16 38 
****************
25(-1)->
START TIME: 1433732222
START TIME: 1433732222
1(2)->10 16 24 39 41 50 
2(2)->9 13 14 19 28 32 46 50 
3(2)->10 11 13 16 22 24 33 39 50 
5(2)->11 13 16 24 46 50 
9(5)->2 12 14 19 32 46 
10(5)->1 3 11 13 16 17 22 24 32 33 39 41 50 
11(3)->3 5 10 13 16 17 22 24 32 33 39 50 
12(1)->9 13 14 19 50 
13(4)->2 3 5 10 11 12 16 22 24 33 39 46 50 
14(3)->2 9 12 19 28 32 46 
16(7)->1 3 5 10 11 13 17 22 24 31 32 33 38 39 41 50 
17(0)->10 11 16 24 39 
19(4)->2 9 12 14 28 32 46 
22(1)->3 10 11 13 16 24 33 
24(6)->1 3 5 10 11 13 16 17 22 32 33 39 41 50 
25(0)->
28(0)->2 14 19 46 
31(0)->16 38 
32(0)->2 9 10 11 14 16 19 24 38 39 46 
33(0)->3 10 11 13 16 22 24 
38(1)->16 31 32 
39(1)->1 3 10 11 13 16 17 24 32 50 
41(1)->1 10 16 24 50 
46(1)->2 5 9 13 14 19 28 32 50 
50(0)->1 2 3 5 10 11 12 13 16 24 39 41 46 
COUNT: 25
COLORS: 8
EDGES: 0
8
25
