-1=-1,-1,-1
-1=-1,-1,-1
-1=-1,-1,-1
1=-1,-1,-1
-1=-1,-1,-1
-1=-1,-1,-1
-1=-1,-1,-1
-1=-1,-1,-1
-1=-1,-1,-1
-1=-1,-1,-1
-1=-1,-1,-1
23=-1,-1,-1
46=-1,-1,-1
41=-1,-1,-1
35=-1,-1,-1
-1=-1,-1,-1
-1=-1,-1,-1
-1=-1,-1,-1
4=-1,-1,-1
-1=23,-1,-1
-1=35,-1,-1
50=-1,-1,-1
-1=-1,-1,-1
22=4,-1,-1
16=-1,-1,-1
-1=-1,-1,-1
35=-1,-1,-1
9=22,-1,-1
-1=-1,-1,-1
-1=-1,-1,-1
-1=-1,-1,-1
-1=-1,-1,-1
-1=-1,-1,-1
-1=-1,-1,-1
37=-1,-1,-1
-1=-1,-1,-1
-1=-1,-1,-1
-1=-1,-1,-1
-1=35,-1,-1
-1=-1,-1,-1
-1=-1,-1,-1
-1=-1,-1,-1
12=-1,-1,-1
-1=16,-1,-1
-1=-1,-1,-1
-1=-1,-1,-1
-1=-1,-1,-1
42=-1,-1,-1
-1=-1,-1,-1
-1=-1,-1,-1
22=-1,-1,-1
-1=-1,-1,-1
-1=-1,-1,-1
28=-1,-1,-1
35=-1,-1,-1
14=-1,-1,-1
-1=-1,-1,-1
-1=-1,-1,-1
23=-1,-1,-1
15=-1,-1,-1
-1=-1,-1,-1
-1=-1,-1,-1
-1=14,-1,-1
-1=15,-1,-1
47=-1,-1,-1
-1=-1,-1,-1
38=1,-1,-1
-1=-1,-1,-1
14=-1,-1,-1
-1=37,-1,-1
-1=-1,-1,-1
1=-1,-1,-1
31=-1,-1,-1
-1=-1,-1,-1
-1=-1,-1,-1
-1=-1,-1,-1
17=-1,-1,-1
-1=-1,-1,-1
-1=-1,-1,-1
-1=-1,-1,-1
27=-1,-1,-1
-1=-1,-1,-1
-1=50,-1,-1
-1=22,-1,-1
-1=-1,-1,-1
-1=-1,-1,-1
15=-1,-1,-1
-1=-1,-1,-1
-1=14,23,-1
-1=15,-1,-1
-1=-1,-1,-1
-1=-1,-1,-1
-1=28,-1,-1
15=-1,-1,-1
-1=-1,-1,-1
-1=-1,-1,-1
-1=-1,-1,-1
45=-1,-1,-1
-1=-1,-1,-1
22=-1,-1,-1
-1=35,-1,-1
-1=38,-1,-1
-1=-1,-1,-1
-1=9,-1,-1
-1=-1,-1,-1
-1=1,-1,-1
-1=-1,-1,-1
-1=-1,-1,-1
-1=-1,-1,-1
-1=-1,-1,-1
-1=-1,-1,-1
-1=27,-1,-1
-1=-1,-1,-1
-1=22,-1,-1
-1=31,-1,-1
36=-1,-1,-1
-1=-1,-1,-1
-1=-1,-1,-1
-1=42,-1,-1
-1=-1,-1,-1
-1=-1,-1,-1
-1=-1,-1,-1
-1=-1,-1,-1
18=45,-1,-1
-1=-1,-1,-1
-1=-1,-1,-1
-1=-1,-1,-1
-1=-1,-1,-1
-1=41,46,-1
27=47,-1,-1
-1=-1,-1,-1
-1=-1,-1,-1
21=36,-1,-1
-1=-1,-1,-1
-1=-1,-1,-1
5=17,18,-1
-1=-1,-1,-1
-1=-1,-1,-1
-1=15,21,-1
-1=-1,-1,-1
-1=-1,-1,-1
-1=-1,-1,-1
25=-1,-1,-1
-1=-1,-1,-1
34=27,-1,-1
-1=25,-1,-1
17=-1,-1,-1
-1=17,-1,-1
19=12,-1,-1
-1=19,-1,-1
22=-1,-1,-1
46=-1,-1,-1
-1=-1,-1,-1
-1=-1,-1,-1
24=-1,-1,-1
-1=22,-1,-1
-1=-1,-1,-1
23=-1,-1,-1
-1=34,-1,-1
-1=-1,-1,-1
27=-1,-1,-1
-1=-1,-1,-1
-1=5,-1,-1
-1=-1,-1,-1
-1=-1,-1,-1
-1=-1,-1,-1
-1=-1,-1,-1
-1=-1,-1,-1
-1=24,46,-1
-1=27,-1,-1
-1=-1,-1,-1
-1=-1,-1,-1
-1=-1,-1,-1
-1=-1,-1,-1
12=-1,-1,-1
-1=-1,-1,-1
-1=23,-1,-1
41=-1,-1,-1
-1=-1,-1,-1
-1=12,-1,-1
-1=-1,-1,-1
-1=41,-1,-1
-1=-1,-1,-1
-1=-1,-1,-1
-1=-1,-1,-1
33=-1,-1,-1
-1=-1,-1,-1
-1=-1,-1,-1
-1=-1,-1,-1
-1=-1,-1,-1
-1=-1,-1,-1
-1=33,-1,-1
-1=-1,-1,-1
-1=-1,-1,-1
-1=-1,-1,-1
-1=-1,-1,-1
-1=-1,-1,-1
11=-1,-1,-1
-1=11,-1,-1
-1=-1,-1,-1
--------
,
11 ,
,11 
,
,
,
,
,
33 ,
33 ,33 
33 ,33 
33 ,33 
33 ,33 
33 ,33 
,33 
,
,
,
41 ,
41 ,41 
12 41 ,41 
12 41 ,12 41 
12 ,12 41 
12 23 ,12 
12 23 ,12 23 
23 ,12 23 
23 ,23 
23 ,23 
23 ,23 
23 ,23 
23 27 ,23 
23 24 27 46 ,23 27 
23 24 27 46 ,23 24 27 46 
23 24 27 46 ,23 24 27 46 
23 24 27 46 ,23 24 27 46 
23 24 27 46 ,23 24 27 46 
23 24 27 46 ,23 24 27 46 
5 23 24 27 46 ,23 24 27 46 
5 23 24 27 46 ,5 23 24 27 46 
5 23 24 46 ,5 23 24 27 46 
5 23 24 46 ,5 23 24 46 
5 23 24 34 46 ,5 23 24 46 
5 24 34 46 ,5 23 24 34 46 
5 24 34 46 ,5 24 34 46 
5 22 24 34 46 ,5 24 34 46 
5 22 34 46 ,5 22 24 34 46 
5 22 34 46 ,5 22 34 46 
5 22 34 46 ,5 22 34 46 
5 22 34 ,5 22 34 46 
5 34 ,5 22 34 
5 19 34 ,5 34 
5 12 34 ,5 19 34 
5 12 17 34 ,5 12 34 
5 12 34 ,5 12 17 34 
5 12 25 34 ,5 12 34 
5 12 25 27 ,5 12 25 34 
5 12 25 27 ,5 12 25 27 
5 12 27 ,5 12 25 27 
5 12 27 ,5 12 27 
5 12 27 ,5 12 27 
5 12 27 ,5 12 27 
5 12 15 21 27 ,5 12 27 
5 12 15 21 27 ,5 12 15 21 27 
5 12 15 21 27 ,5 12 15 21 27 
12 15 17 18 21 27 ,5 12 15 21 27 
12 15 17 18 21 27 ,12 15 17 18 21 27 
12 15 17 18 21 27 ,12 15 17 18 21 27 
12 15 17 18 27 36 ,12 15 17 18 21 27 
12 15 17 18 27 36 ,12 15 17 18 27 36 
12 15 17 18 27 36 ,12 15 17 18 27 36 
12 15 17 18 36 47 ,12 15 17 18 27 36 
12 15 17 18 36 41 46 47 ,12 15 17 18 36 47 
12 15 17 18 36 41 46 47 ,12 15 17 18 36 41 46 47 
12 15 17 18 36 41 46 47 ,12 15 17 18 36 41 46 47 
12 15 17 18 36 41 46 47 ,12 15 17 18 36 41 46 47 
12 15 17 18 36 41 46 47 ,12 15 17 18 36 41 46 47 
12 15 17 36 41 45 46 47 ,12 15 17 18 36 41 46 47 
12 15 17 36 41 45 46 47 ,12 15 17 36 41 45 46 47 
12 15 17 36 41 45 46 47 ,12 15 17 36 41 45 46 47 
12 15 17 36 41 45 46 47 ,12 15 17 36 41 45 46 47 
12 15 17 36 41 45 46 47 ,12 15 17 36 41 45 46 47 
12 15 17 36 41 42 45 46 47 ,12 15 17 36 41 45 46 47 
12 15 17 36 41 42 45 46 47 ,12 15 17 36 41 42 45 46 47 
12 15 17 36 41 42 45 46 47 ,12 15 17 36 41 42 45 46 47 
12 15 17 41 42 45 46 47 ,12 15 17 36 41 42 45 46 47 
12 15 17 31 41 42 45 46 47 ,12 15 17 41 42 45 46 47 
12 15 17 22 31 41 42 45 46 47 ,12 15 17 31 41 42 45 46 47 
12 15 17 22 31 41 42 45 46 47 ,12 15 17 22 31 41 42 45 46 47 
12 15 17 22 27 31 41 42 45 46 47 ,12 15 17 22 31 41 42 45 46 47 
12 15 17 22 27 31 41 42 45 46 47 ,12 15 17 22 27 31 41 42 45 46 47 
12 15 17 22 27 31 41 42 45 46 47 ,12 15 17 22 27 31 41 42 45 46 47 
12 15 17 22 27 31 41 42 45 46 47 ,12 15 17 22 27 31 41 42 45 46 47 
12 15 17 22 27 31 41 42 45 46 47 ,12 15 17 22 27 31 41 42 45 46 47 
12 15 17 22 27 31 41 42 45 46 47 ,12 15 17 22 27 31 41 42 45 46 47 
1 12 15 17 22 27 31 41 42 45 46 47 ,12 15 17 22 27 31 41 42 45 46 47 
1 12 15 17 22 27 31 41 42 45 46 47 ,1 12 15 17 22 27 31 41 42 45 46 47 
1 9 12 15 17 22 27 31 41 42 45 46 47 ,1 12 15 17 22 27 31 41 42 45 46 47 
1 9 12 15 17 22 27 31 41 42 45 46 47 ,1 9 12 15 17 22 27 31 41 42 45 46 47 
1 9 12 15 17 22 27 31 38 41 42 45 46 47 ,1 9 12 15 17 22 27 31 41 42 45 46 47 
1 9 12 15 17 22 27 31 35 38 41 42 45 46 47 ,1 9 12 15 17 22 27 31 38 41 42 45 46 47 
1 9 12 15 17 27 31 35 38 41 42 45 46 47 ,1 9 12 15 17 22 27 31 35 38 41 42 45 46 47 
1 9 12 15 17 27 31 35 38 41 42 45 46 47 ,1 9 12 15 17 27 31 35 38 41 42 45 46 47 
1 9 12 15 17 27 31 35 38 41 42 46 47 ,1 9 12 15 17 27 31 35 38 41 42 45 46 47 
1 9 12 15 17 27 31 35 38 41 42 46 47 ,1 9 12 15 17 27 31 35 38 41 42 46 47 
1 9 12 15 17 27 31 35 38 41 42 46 47 ,1 9 12 15 17 27 31 35 38 41 42 46 47 
1 9 12 15 17 27 31 35 38 41 42 46 47 ,1 9 12 15 17 27 31 35 38 41 42 46 47 
1 9 12 17 27 31 35 38 41 42 46 47 ,1 9 12 15 17 27 31 35 38 41 42 46 47 
1 9 12 17 27 28 31 35 38 41 42 46 47 ,1 9 12 17 27 31 35 38 41 42 46 47 
1 9 12 17 27 28 31 35 38 41 42 46 47 ,1 9 12 17 27 28 31 35 38 41 42 46 47 
1 9 12 17 27 28 31 35 38 41 42 46 47 ,1 9 12 17 27 28 31 35 38 41 42 46 47 
1 9 12 15 17 27 28 31 35 38 41 42 46 47 ,1 9 12 17 27 28 31 35 38 41 42 46 47 
1 9 12 14 15 17 23 27 28 31 35 38 41 42 46 47 ,1 9 12 15 17 27 28 31 35 38 41 42 46 47 
1 9 12 14 15 17 23 27 28 31 35 38 41 42 46 47 ,1 9 12 14 15 17 23 27 28 31 35 38 41 42 46 47 
1 9 12 14 17 23 27 28 31 35 38 41 42 46 47 ,1 9 12 14 15 17 23 27 28 31 35 38 41 42 46 47 
1 9 12 14 17 23 27 28 31 35 38 41 42 46 47 ,1 9 12 14 17 23 27 28 31 35 38 41 42 46 47 
1 9 12 14 17 23 27 28 31 35 38 41 42 46 47 ,1 9 12 14 17 23 27 28 31 35 38 41 42 46 47 
1 9 12 14 17 22 23 27 28 31 35 38 41 42 46 47 ,1 9 12 14 17 23 27 28 31 35 38 41 42 46 47 
1 9 12 14 17 22 23 27 28 31 35 38 41 42 46 47 50 ,1 9 12 14 17 22 23 27 28 31 35 38 41 42 46 47 
1 9 12 14 17 22 23 27 28 31 35 38 41 42 46 47 50 ,1 9 12 14 17 22 23 27 28 31 35 38 41 42 46 47 50 
1 9 12 14 17 22 23 28 31 35 38 41 42 46 47 50 ,1 9 12 14 17 22 23 27 28 31 35 38 41 42 46 47 50 
1 9 12 14 17 22 23 28 31 35 38 41 42 46 47 50 ,1 9 12 14 17 22 23 28 31 35 38 41 42 46 47 50 
1 9 12 14 17 22 23 28 31 35 38 41 42 46 47 50 ,1 9 12 14 17 22 23 28 31 35 38 41 42 46 47 50 
1 9 12 14 17 22 23 28 31 35 38 41 42 46 47 50 ,1 9 12 14 17 22 23 28 31 35 38 41 42 46 47 50 
1 9 12 14 22 23 28 31 35 38 41 42 46 47 50 ,1 9 12 14 17 22 23 28 31 35 38 41 42 46 47 50 
1 9 12 14 22 23 28 31 35 38 41 42 46 47 50 ,1 9 12 14 22 23 28 31 35 38 41 42 46 47 50 
1 9 12 14 22 23 28 31 35 38 41 42 46 47 50 ,1 9 12 14 22 23 28 31 35 38 41 42 46 47 50 
1 9 12 14 22 23 28 31 35 38 41 42 46 47 50 ,1 9 12 14 22 23 28 31 35 38 41 42 46 47 50 
1 9 12 14 22 23 28 35 38 41 42 46 47 50 ,1 9 12 14 22 23 28 31 35 38 41 42 46 47 50 
9 12 14 22 23 28 35 38 41 42 46 47 50 ,1 9 12 14 22 23 28 35 38 41 42 46 47 50 
9 12 14 22 23 28 35 38 41 42 46 47 50 ,9 12 14 22 23 28 35 38 41 42 46 47 50 
9 12 14 22 23 28 35 37 38 41 42 46 47 50 ,9 12 14 22 23 28 35 38 41 42 46 47 50 
9 12 22 23 28 35 37 38 41 42 46 47 50 ,9 12 14 22 23 28 35 37 38 41 42 46 47 50 
9 12 22 23 28 35 37 38 41 42 46 47 50 ,9 12 22 23 28 35 37 38 41 42 46 47 50 
1 9 12 22 23 28 35 37 41 42 46 47 50 ,9 12 22 23 28 35 37 38 41 42 46 47 50 
1 9 12 22 23 28 35 37 41 42 46 47 50 ,1 9 12 22 23 28 35 37 41 42 46 47 50 
1 9 12 22 23 28 35 37 41 42 46 50 ,1 9 12 22 23 28 35 37 41 42 46 47 50 
1 9 12 15 22 23 28 35 37 41 42 46 50 ,1 9 12 22 23 28 35 37 41 42 46 50 
1 9 12 14 15 22 23 28 35 37 41 42 46 50 ,1 9 12 15 22 23 28 35 37 41 42 46 50 
1 9 12 14 15 22 23 28 35 37 41 42 46 50 ,1 9 12 14 15 22 23 28 35 37 41 42 46 50 
1 9 12 14 15 22 23 28 35 37 41 42 46 50 ,1 9 12 14 15 22 23 28 35 37 41 42 46 50 
1 9 12 14 22 23 28 35 37 41 42 46 50 ,1 9 12 14 15 22 23 28 35 37 41 42 46 50 
1 9 12 14 22 28 35 37 41 42 46 50 ,1 9 12 14 22 23 28 35 37 41 42 46 50 
1 9 12 14 22 28 35 37 41 42 46 50 ,1 9 12 14 22 28 35 37 41 42 46 50 
1 9 12 14 22 28 35 37 41 42 46 50 ,1 9 12 14 22 28 35 37 41 42 46 50 
1 9 12 22 28 35 37 41 42 46 50 ,1 9 12 14 22 28 35 37 41 42 46 50 
1 9 12 22 28 37 41 42 46 50 ,1 9 12 22 28 35 37 41 42 46 50 
1 9 12 22 37 41 42 46 50 ,1 9 12 22 28 37 41 42 46 50 
1 9 12 22 37 41 42 46 50 ,1 9 12 22 37 41 42 46 50 
1 9 12 22 37 41 42 46 50 ,1 9 12 22 37 41 42 46 50 
1 9 12 37 41 42 46 50 ,1 9 12 22 37 41 42 46 50 
1 9 12 37 41 42 46 50 ,1 9 12 37 41 42 46 50 
1 9 12 37 41 42 46 50 ,1 9 12 37 41 42 46 50 
1 9 12 37 41 46 50 ,1 9 12 37 41 42 46 50 
1 9 12 37 41 46 50 ,1 9 12 37 41 46 50 
1 9 12 37 41 46 50 ,1 9 12 37 41 46 50 
1 9 12 37 41 46 50 ,1 9 12 37 41 46 50 
1 9 12 16 37 41 46 50 ,1 9 12 37 41 46 50 
1 9 16 37 41 46 50 ,1 9 12 16 37 41 46 50 
1 9 16 37 41 46 50 ,1 9 16 37 41 46 50 
1 9 16 37 41 46 50 ,1 9 16 37 41 46 50 
1 9 16 37 41 46 50 ,1 9 16 37 41 46 50 
1 9 16 35 37 41 46 50 ,1 9 16 37 41 46 50 
1 9 16 35 37 41 46 50 ,1 9 16 35 37 41 46 50 
1 9 16 35 37 41 46 50 ,1 9 16 35 37 41 46 50 
1 9 16 35 37 41 46 50 ,1 9 16 35 37 41 46 50 
1 9 16 35 41 46 50 ,1 9 16 35 37 41 46 50 
1 9 16 35 41 46 50 ,1 9 16 35 41 46 50 
1 9 16 35 41 46 50 ,1 9 16 35 41 46 50 
1 9 16 35 41 46 50 ,1 9 16 35 41 46 50 
1 9 16 35 41 46 50 ,1 9 16 35 41 46 50 
1 9 16 35 41 46 50 ,1 9 16 35 41 46 50 
1 9 16 35 41 46 50 ,1 9 16 35 41 46 50 
1 16 22 35 41 46 50 ,1 9 16 35 41 46 50 
1 16 22 41 46 50 ,1 16 22 35 41 46 50 
1 16 22 41 46 50 ,1 16 22 41 46 50 
1 22 41 46 50 ,1 16 22 41 46 50 
1 4 41 46 50 ,1 22 41 46 50 
1 4 41 46 50 ,1 4 41 46 50 
1 4 41 46 ,1 4 41 46 50 
1 4 35 41 46 ,1 4 41 46 
1 4 23 35 41 46 ,1 4 35 41 46 
1 23 35 41 46 ,1 4 23 35 41 46 
1 23 35 41 46 ,1 23 35 41 46 
1 23 35 41 46 ,1 23 35 41 46 
1 23 35 41 46 ,1 23 35 41 46 
1 23 41 46 ,1 23 35 41 46 
1 23 46 ,1 23 41 46 
1 23 ,1 23 46 
1 ,1 23 
1 ,1 
1 ,1 
1 ,1 
1 ,1 
1 ,1 
1 ,1 
1 ,1 
,1 
,
,
,
--------
,
11 ,
,11 
,
,
,
,
,
33 ,
33 ,33 
33 ,33 
33 ,33 
33 ,33 
33 ,33 
,33 
,
,
,
41 ,
41 ,41 
12 41 ,41 
12 41 ,12 41 
12 ,12 41 
12 23 ,12 
12 23 ,12 23 
23 ,12 23 
23 ,23 
23 ,23 
23 ,23 
23 ,23 
23 27 ,23 
23 24 27 46 ,23 27 
23 24 27 46 ,23 24 27 46 
23 24 27 46 ,23 24 27 46 
23 24 27 46 ,23 24 27 46 
23 24 27 46 ,23 24 27 46 
23 24 27 46 ,23 24 27 46 
5 23 24 27 46 ,23 24 27 46 
5 23 24 27 46 ,5 23 24 27 46 
5 23 24 46 ,5 23 24 27 46 
5 23 24 46 ,5 23 24 46 
5 23 24 34 46 ,5 23 24 46 
5 24 34 46 ,5 23 24 34 46 
5 24 34 46 ,5 24 34 46 
5 22 24 34 46 ,5 24 34 46 
5 22 34 46 ,5 22 24 34 46 
5 22 34 46 ,5 22 34 46 
5 22 34 46 ,5 22 34 46 
5 22 34 ,5 22 34 46 
5 34 ,5 22 34 
5 19 34 ,5 34 
5 12 34 ,5 19 34 
5 12 17 34 ,5 12 34 
5 12 34 ,5 12 17 34 
5 12 25 34 ,5 12 34 
5 12 25 27 ,5 12 25 34 
5 12 25 27 ,5 12 25 27 
5 12 27 ,5 12 25 27 
5 12 27 ,5 12 27 
5 12 27 ,5 12 27 
5 12 27 ,5 12 27 
5 12 15 21 27 ,5 12 27 
5 12 15 21 27 ,5 12 15 21 27 
5 12 15 21 27 ,5 12 15 21 27 
12 15 17 18 21 27 ,5 12 15 21 27 
12 15 17 18 21 27 ,12 15 17 18 21 27 
12 15 17 18 21 27 ,12 15 17 18 21 27 
12 15 17 18 27 36 ,12 15 17 18 21 27 
12 15 17 18 27 36 ,12 15 17 18 27 36 
12 15 17 18 27 36 ,12 15 17 18 27 36 
12 15 17 18 36 47 ,12 15 17 18 27 36 
12 15 17 18 36 41 46 47 ,12 15 17 18 36 47 
12 15 17 18 36 41 46 47 ,12 15 17 18 36 41 46 47 
12 15 17 18 36 41 46 47 ,12 15 17 18 36 41 46 47 
12 15 17 18 36 41 46 47 ,12 15 17 18 36 41 46 47 
12 15 17 18 36 41 46 47 ,12 15 17 18 36 41 46 47 
12 15 17 36 41 45 46 47 ,12 15 17 18 36 41 46 47 
12 15 17 36 41 45 46 47 ,12 15 17 36 41 45 46 47 
12 15 17 36 41 45 46 47 ,12 15 17 36 41 45 46 47 
12 15 17 36 41 45 46 47 ,12 15 17 36 41 45 46 47 
12 15 17 36 41 45 46 47 ,12 15 17 36 41 45 46 47 
12 15 17 36 41 42 45 46 47 ,12 15 17 36 41 45 46 47 
12 15 17 36 41 42 45 46 47 ,12 15 17 36 41 42 45 46 47 
12 15 17 36 41 42 45 46 47 ,12 15 17 36 41 42 45 46 47 
12 15 17 41 42 45 46 47 ,12 15 17 36 41 42 45 46 47 
12 15 17 31 41 42 45 46 47 ,12 15 17 41 42 45 46 47 
12 15 17 22 31 41 42 45 46 47 ,12 15 17 31 41 42 45 46 47 
12 15 17 22 31 41 42 45 46 47 ,12 15 17 22 31 41 42 45 46 47 
12 15 17 22 27 31 41 42 45 46 47 ,12 15 17 22 31 41 42 45 46 47 
12 15 17 22 27 31 41 42 45 46 47 ,12 15 17 22 27 31 41 42 45 46 47 
12 15 17 22 27 31 41 42 45 46 47 ,12 15 17 22 27 31 41 42 45 46 47 
12 15 17 22 27 31 41 42 45 46 47 ,12 15 17 22 27 31 41 42 45 46 47 
12 15 17 22 27 31 41 42 45 46 47 ,12 15 17 22 27 31 41 42 45 46 47 
12 15 17 22 27 31 41 42 45 46 47 ,12 15 17 22 27 31 41 42 45 46 47 
1 12 15 17 22 27 31 41 42 45 46 47 ,12 15 17 22 27 31 41 42 45 46 47 
1 12 15 17 22 27 31 41 42 45 46 47 ,1 12 15 17 22 27 31 41 42 45 46 47 
1 9 12 15 17 22 27 31 41 42 45 46 47 ,1 12 15 17 22 27 31 41 42 45 46 47 
1 9 12 15 17 22 27 31 41 42 45 46 47 ,1 9 12 15 17 22 27 31 41 42 45 46 47 
1 9 12 15 17 22 27 31 38 41 42 45 46 47 ,1 9 12 15 17 22 27 31 41 42 45 46 47 
1 9 12 15 17 22 27 31 35 38 41 42 45 46 47 ,1 9 12 15 17 22 27 31 38 41 42 45 46 47 
1 9 12 15 17 27 31 35 38 41 42 45 46 47 ,1 9 12 15 17 22 27 31 35 38 41 42 45 46 47 
1 9 12 15 17 27 31 35 38 41 42 45 46 47 ,1 9 12 15 17 27 31 35 38 41 42 45 46 47 
1 9 12 15 17 27 31 35 38 41 42 46 47 ,1 9 12 15 17 27 31 35 38 41 42 45 46 47 
1 9 12 15 17 27 31 35 38 41 42 46 47 ,1 9 12 15 17 27 31 35 38 41 42 46 47 
1 9 12 15 17 27 31 35 38 41 42 46 47 ,1 9 12 15 17 27 31 35 38 41 42 46 47 
1 9 12 15 17 27 31 35 38 41 42 46 47 ,1 9 12 15 17 27 31 35 38 41 42 46 47 
1 9 12 17 27 31 35 38 41 42 46 47 ,1 9 12 15 17 27 31 35 38 41 42 46 47 
1 9 12 17 27 28 31 35 38 41 42 46 47 ,1 9 12 17 27 31 35 38 41 42 46 47 
1 9 12 17 27 28 31 35 38 41 42 46 47 ,1 9 12 17 27 28 31 35 38 41 42 46 47 
1 9 12 17 27 28 31 35 38 41 42 46 47 ,1 9 12 17 27 28 31 35 38 41 42 46 47 
1 9 12 15 17 27 28 31 35 38 41 42 46 47 ,1 9 12 17 27 28 31 35 38 41 42 46 47 
1 9 12 14 15 17 23 27 28 31 35 38 41 42 46 47 ,1 9 12 15 17 27 28 31 35 38 41 42 46 47 
1 9 12 14 15 17 23 27 28 31 35 38 41 42 46 47 ,1 9 12 14 15 17 23 27 28 31 35 38 41 42 46 47 
1 9 12 14 17 23 27 28 31 35 38 41 42 46 47 ,1 9 12 14 15 17 23 27 28 31 35 38 41 42 46 47 
1 9 12 14 17 23 27 28 31 35 38 41 42 46 47 ,1 9 12 14 17 23 27 28 31 35 38 41 42 46 47 
1 9 12 14 17 23 27 28 31 35 38 41 42 46 47 ,1 9 12 14 17 23 27 28 31 35 38 41 42 46 47 
1 9 12 14 17 22 23 27 28 31 35 38 41 42 46 47 ,1 9 12 14 17 23 27 28 31 35 38 41 42 46 47 
1 9 12 14 17 22 23 27 28 31 35 38 41 42 46 47 50 ,1 9 12 14 17 22 23 27 28 31 35 38 41 42 46 47 
1 9 12 14 17 22 23 27 28 31 35 38 41 42 46 47 50 ,1 9 12 14 17 22 23 27 28 31 35 38 41 42 46 47 50 
1 9 12 14 17 22 23 28 31 35 38 41 42 46 47 50 ,1 9 12 14 17 22 23 27 28 31 35 38 41 42 46 47 50 
1 9 12 14 17 22 23 28 31 35 38 41 42 46 47 50 ,1 9 12 14 17 22 23 28 31 35 38 41 42 46 47 50 
1 9 12 14 17 22 23 28 31 35 38 41 42 46 47 50 ,1 9 12 14 17 22 23 28 31 35 38 41 42 46 47 50 
1 9 12 14 17 22 23 28 31 35 38 41 42 46 47 50 ,1 9 12 14 17 22 23 28 31 35 38 41 42 46 47 50 
1 9 12 14 22 23 28 31 35 38 41 42 46 47 50 ,1 9 12 14 17 22 23 28 31 35 38 41 42 46 47 50 
1 9 12 14 22 23 28 31 35 38 41 42 46 47 50 ,1 9 12 14 22 23 28 31 35 38 41 42 46 47 50 
1 9 12 14 22 23 28 31 35 38 41 42 46 47 50 ,1 9 12 14 22 23 28 31 35 38 41 42 46 47 50 
1 9 12 14 22 23 28 31 35 38 41 42 46 47 50 ,1 9 12 14 22 23 28 31 35 38 41 42 46 47 50 
1 9 12 14 22 23 28 35 38 41 42 46 47 50 ,1 9 12 14 22 23 28 31 35 38 41 42 46 47 50 
9 12 14 22 23 28 35 38 41 42 46 47 50 ,1 9 12 14 22 23 28 35 38 41 42 46 47 50 
9 12 14 22 23 28 35 38 41 42 46 47 50 ,9 12 14 22 23 28 35 38 41 42 46 47 50 
9 12 14 22 23 28 35 37 38 41 42 46 47 50 ,9 12 14 22 23 28 35 38 41 42 46 47 50 
9 12 22 23 28 35 37 38 41 42 46 47 50 ,9 12 14 22 23 28 35 37 38 41 42 46 47 50 
9 12 22 23 28 35 37 38 41 42 46 47 50 ,9 12 22 23 28 35 37 38 41 42 46 47 50 
1 9 12 22 23 28 35 37 41 42 46 47 50 ,9 12 22 23 28 35 37 38 41 42 46 47 50 
1 9 12 22 23 28 35 37 41 42 46 47 50 ,1 9 12 22 23 28 35 37 41 42 46 47 50 
1 9 12 22 23 28 35 37 41 42 46 50 ,1 9 12 22 23 28 35 37 41 42 46 47 50 
1 9 12 15 22 23 28 35 37 41 42 46 50 ,1 9 12 22 23 28 35 37 41 42 46 50 
1 9 12 14 15 22 23 28 35 37 41 42 46 50 ,1 9 12 15 22 23 28 35 37 41 42 46 50 
1 9 12 14 15 22 23 28 35 37 41 42 46 50 ,1 9 12 14 15 22 23 28 35 37 41 42 46 50 
1 9 12 14 15 22 23 28 35 37 41 42 46 50 ,1 9 12 14 15 22 23 28 35 37 41 42 46 50 
1 9 12 14 22 23 28 35 37 41 42 46 50 ,1 9 12 14 15 22 23 28 35 37 41 42 46 50 
1 9 12 14 22 28 35 37 41 42 46 50 ,1 9 12 14 22 23 28 35 37 41 42 46 50 
1 9 12 14 22 28 35 37 41 42 46 50 ,1 9 12 14 22 28 35 37 41 42 46 50 
1 9 12 14 22 28 35 37 41 42 46 50 ,1 9 12 14 22 28 35 37 41 42 46 50 
1 9 12 22 28 35 37 41 42 46 50 ,1 9 12 14 22 28 35 37 41 42 46 50 
1 9 12 22 28 37 41 42 46 50 ,1 9 12 22 28 35 37 41 42 46 50 
1 9 12 22 37 41 42 46 50 ,1 9 12 22 28 37 41 42 46 50 
1 9 12 22 37 41 42 46 50 ,1 9 12 22 37 41 42 46 50 
1 9 12 22 37 41 42 46 50 ,1 9 12 22 37 41 42 46 50 
1 9 12 37 41 42 46 50 ,1 9 12 22 37 41 42 46 50 
1 9 12 37 41 42 46 50 ,1 9 12 37 41 42 46 50 
1 9 12 37 41 42 46 50 ,1 9 12 37 41 42 46 50 
1 9 12 37 41 46 50 ,1 9 12 37 41 42 46 50 
1 9 12 37 41 46 50 ,1 9 12 37 41 46 50 
1 9 12 37 41 46 50 ,1 9 12 37 41 46 50 
1 9 12 37 41 46 50 ,1 9 12 37 41 46 50 
1 9 12 16 37 41 46 50 ,1 9 12 37 41 46 50 
1 9 16 37 41 46 50 ,1 9 12 16 37 41 46 50 
1 9 16 37 41 46 50 ,1 9 16 37 41 46 50 
1 9 16 37 41 46 50 ,1 9 16 37 41 46 50 
1 9 16 37 41 46 50 ,1 9 16 37 41 46 50 
1 9 16 35 37 41 46 50 ,1 9 16 37 41 46 50 
1 9 16 35 37 41 46 50 ,1 9 16 35 37 41 46 50 
1 9 16 35 37 41 46 50 ,1 9 16 35 37 41 46 50 
1 9 16 35 37 41 46 50 ,1 9 16 35 37 41 46 50 
1 9 16 35 41 46 50 ,1 9 16 35 37 41 46 50 
1 9 16 35 41 46 50 ,1 9 16 35 41 46 50 
1 9 16 35 41 46 50 ,1 9 16 35 41 46 50 
1 9 16 35 41 46 50 ,1 9 16 35 41 46 50 
1 9 16 35 41 46 50 ,1 9 16 35 41 46 50 
1 9 16 35 41 46 50 ,1 9 16 35 41 46 50 
1 9 16 35 41 46 50 ,1 9 16 35 41 46 50 
1 16 22 35 41 46 50 ,1 9 16 35 41 46 50 
1 16 22 41 46 50 ,1 16 22 35 41 46 50 
1 16 22 41 46 50 ,1 16 22 41 46 50 
1 22 41 46 50 ,1 16 22 41 46 50 
1 4 41 46 50 ,1 22 41 46 50 
1 4 41 46 50 ,1 4 41 46 50 
1 4 41 46 ,1 4 41 46 50 
1 4 35 41 46 ,1 4 41 46 
1 4 23 35 41 46 ,1 4 35 41 46 
1 23 35 41 46 ,1 4 23 35 41 46 
1 23 35 41 46 ,1 23 35 41 46 
1 23 35 41 46 ,1 23 35 41 46 
1 23 35 41 46 ,1 23 35 41 46 
1 23 41 46 ,1 23 35 41 46 
1 23 46 ,1 23 41 46 
1 23 ,1 23 46 
1 ,1 23 
1 ,1 
1 ,1 
1 ,1 
1 ,1 
1 ,1 
1 ,1 
1 ,1 
,1 
,
,
,
-------------
-------
1(-1)->4 9 12 14 15 16 17 22 23 27 28 31 35 37 38 41 42 45 46 47 50 
4(-1)->1 23 35 41 46 50 
5(-1)->12 15 17 19 21 22 23 24 25 27 34 46 
9(-1)->1 12 14 15 16 17 22 23 27 28 31 35 37 38 41 42 45 46 47 50 
11(-1)->
12(-1)->1 5 9 14 15 16 17 18 21 22 23 25 27 28 31 34 35 36 37 38 41 42 45 46 47 50 
14(-1)->1 9 12 15 17 22 23 27 28 31 35 37 38 41 42 46 47 50 
15(-1)->1 5 9 12 14 17 18 21 22 23 27 28 31 35 36 37 38 41 42 45 46 47 50 
16(-1)->1 9 12 22 35 37 41 46 50 
17(-1)->1 5 9 12 14 15 18 21 22 23 27 28 31 34 35 36 38 41 42 45 46 47 50 
18(-1)->12 15 17 21 27 36 41 46 47 
19(-1)->5 34 
21(-1)->5 12 15 17 18 27 
22(-1)->1 5 9 12 14 15 16 17 23 24 27 28 31 34 35 37 38 41 42 45 46 47 50 
23(-1)->1 4 5 9 12 14 15 17 22 24 27 28 31 34 35 37 38 41 42 46 47 50 
24(-1)->5 22 23 27 34 46 
25(-1)->5 12 27 34 
27(-1)->1 5 9 12 14 15 17 18 21 22 23 24 25 28 31 35 36 38 41 42 45 46 47 50 
28(-1)->1 9 12 14 15 17 22 23 27 31 35 37 38 41 42 46 47 50 
31(-1)->1 9 12 14 15 17 22 23 27 28 35 38 41 42 45 46 47 50 
33(-1)->
34(-1)->5 12 17 19 22 23 24 25 46 
35(-1)->1 4 9 12 14 15 16 17 22 23 27 28 31 37 38 41 42 45 46 47 50 
36(-1)->12 15 17 18 27 41 42 45 46 47 
37(-1)->1 9 12 14 15 16 22 23 28 35 38 41 42 46 47 50 
38(-1)->1 9 12 14 15 17 22 23 27 28 31 35 37 41 42 45 46 47 50 
41(-1)->1 4 9 12 14 15 16 17 18 22 23 27 28 31 35 36 37 38 42 45 46 47 50 
42(-1)->1 9 12 14 15 17 22 23 27 28 31 35 36 37 38 41 45 46 47 50 
45(-1)->1 9 12 15 17 22 27 31 35 36 38 41 42 46 47 
46(-1)->1 4 5 9 12 14 15 16 17 18 22 23 24 27 28 31 34 35 36 37 38 41 42 45 47 50 
47(-1)->1 9 12 14 15 17 18 22 23 27 28 31 35 36 37 38 41 42 45 46 50 
50(-1)->1 4 9 12 14 15 16 17 22 23 27 28 31 35 37 38 41 42 46 47 
-------
12(-1)->1 5 9 14 15 16 17 18 21 22 23 25 27 28 31 34 35 36 37 38 41 42 45 46 47 50 
46(-1)->1 4 5 9 12 14 15 16 17 18 22 23 24 27 28 31 34 35 36 37 38 41 42 45 47 50 
27(-1)->1 5 9 12 14 15 17 18 21 22 23 24 25 28 31 35 36 38 41 42 45 46 47 50 
15(-1)->1 5 9 12 14 17 18 21 22 23 27 28 31 35 36 37 38 41 42 45 46 47 50 
17(-1)->1 5 9 12 14 15 18 21 22 23 27 28 31 34 35 36 38 41 42 45 46 47 50 
22(-1)->1 5 9 12 14 15 16 17 23 24 27 28 31 34 35 37 38 41 42 45 46 47 50 
41(-1)->1 4 9 12 14 15 16 17 18 22 23 27 28 31 35 36 37 38 42 45 46 47 50 
23(-1)->1 4 5 9 12 14 15 17 22 24 27 28 31 34 35 37 38 41 42 46 47 50 
1(-1)->4 9 12 14 15 16 17 22 23 27 28 31 35 37 38 41 42 45 46 47 50 
35(-1)->1 4 9 12 14 15 16 17 22 23 27 28 31 37 38 41 42 45 46 47 50 
47(-1)->1 9 12 14 15 17 18 22 23 27 28 31 35 36 37 38 41 42 45 46 50 
9(-1)->1 12 14 15 16 17 22 23 27 28 31 35 37 38 41 42 45 46 47 50 
42(-1)->1 9 12 14 15 17 22 23 27 28 31 35 36 37 38 41 45 46 47 50 
50(-1)->1 4 9 12 14 15 16 17 22 23 27 28 31 35 37 38 41 42 46 47 
38(-1)->1 9 12 14 15 17 22 23 27 28 31 35 37 41 42 45 46 47 50 
14(-1)->1 9 12 15 17 22 23 27 28 31 35 37 38 41 42 46 47 50 
28(-1)->1 9 12 14 15 17 22 23 27 31 35 37 38 41 42 46 47 50 
31(-1)->1 9 12 14 15 17 22 23 27 28 35 38 41 42 45 46 47 50 
37(-1)->1 9 12 14 15 16 22 23 28 35 38 41 42 46 47 50 
45(-1)->1 9 12 15 17 22 27 31 35 36 38 41 42 46 47 
5(-1)->12 15 17 19 21 22 23 24 25 27 34 46 
36(-1)->12 15 17 18 27 41 42 45 46 47 
16(-1)->1 9 12 22 35 37 41 46 50 
18(-1)->12 15 17 21 27 36 41 46 47 
34(-1)->5 12 17 19 22 23 24 25 46 
4(-1)->1 23 35 41 46 50 
21(-1)->5 12 15 17 18 27 
24(-1)->5 22 23 27 34 46 
25(-1)->5 12 27 34 
19(-1)->5 34 
11(-1)->
33(-1)->
-------
1 9 12 14 15 17 22 23 27 28 31 35 38 41 42 46 47 50 

11 

33 

****************
****************
31(-1)->1 9 12 14 15 17 22 23 27 28 35 38 41 42 45 46 47 50 
28(-1)->1 9 12 14 15 17 22 23 27 31 35 37 38 41 42 46 47 50 
14(-1)->1 9 12 15 17 22 23 27 28 31 35 37 38 41 42 46 47 50 
38(-1)->1 9 12 14 15 17 22 23 27 28 31 35 37 41 42 45 46 47 50 
50(-1)->1 4 9 12 14 15 16 17 22 23 27 28 31 35 37 38 41 42 46 47 
42(-1)->1 9 12 14 15 17 22 23 27 28 31 35 36 37 38 41 45 46 47 50 
9(-1)->1 12 14 15 16 17 22 23 27 28 31 35 37 38 41 42 45 46 47 50 
47(-1)->1 9 12 14 15 17 18 22 23 27 28 31 35 36 37 38 41 42 45 46 50 
35(-1)->1 4 9 12 14 15 16 17 22 23 27 28 31 37 38 41 42 45 46 47 50 
1(-1)->4 9 12 14 15 16 17 22 23 27 28 31 35 37 38 41 42 45 46 47 50 
23(-1)->1 4 5 9 12 14 15 17 22 24 27 28 31 34 35 37 38 41 42 46 47 50 
41(-1)->1 4 9 12 14 15 16 17 18 22 23 27 28 31 35 36 37 38 42 45 46 47 50 
22(-1)->1 5 9 12 14 15 16 17 23 24 27 28 31 34 35 37 38 41 42 45 46 47 50 
17(-1)->1 5 9 12 14 15 18 21 22 23 27 28 31 34 35 36 38 41 42 45 46 47 50 
15(-1)->1 5 9 12 14 17 18 21 22 23 27 28 31 35 36 37 38 41 42 45 46 47 50 
27(-1)->1 5 9 12 14 15 17 18 21 22 23 24 25 28 31 35 36 38 41 42 45 46 47 50 
46(-1)->1 4 5 9 12 14 15 16 17 18 22 23 24 27 28 31 34 35 36 37 38 41 42 45 47 50 
12(-1)->1 5 9 14 15 16 17 18 21 22 23 25 27 28 31 34 35 36 37 38 41 42 45 46 47 50 
37(-1)->1 9 12 14 15 16 22 23 28 35 38 41 42 46 47 50 
45(-1)->1 9 12 15 17 22 27 31 35 36 38 41 42 46 47 
5(-1)->12 15 17 19 21 22 23 24 25 27 34 46 
36(-1)->12 15 17 18 27 41 42 45 46 47 
16(-1)->1 9 12 22 35 37 41 46 50 
18(-1)->12 15 17 21 27 36 41 46 47 
34(-1)->5 12 17 19 22 23 24 25 46 
4(-1)->1 23 35 41 46 50 
21(-1)->5 12 15 17 18 27 
24(-1)->5 22 23 27 34 46 
25(-1)->5 12 27 34 
19(-1)->5 34 
****************
11(-1)->
****************
33(-1)->
START TIME: 1433732182
START TIME: 1433732182
START TIME: 1433732182
1(9)->4 9 12 14 15 16 17 22 23 27 28 31 35 37 38 41 42 45 46 47 50 
4(0)->1 23 35 41 46 50 
5(0)->12 15 17 19 21 22 23 24 25 27 34 46 
9(6)->1 12 14 15 16 17 22 23 27 28 31 35 37 38 41 42 45 46 47 50 
11(0)->
12(17)->1 5 9 14 15 16 17 18 21 22 23 25 27 28 31 34 35 36 37 38 41 42 45 46 47 50 
14(2)->1 9 12 15 17 22 23 27 28 31 35 37 38 41 42 46 47 50 
15(14)->1 5 9 12 14 17 18 21 22 23 27 28 31 35 36 37 38 41 42 45 46 47 50 
16(1)->1 9 12 22 35 37 41 46 50 
17(13)->1 5 9 12 14 15 18 21 22 23 27 28 31 34 35 36 38 41 42 45 46 47 50 
18(1)->12 15 17 21 27 36 41 46 47 
19(2)->5 34 
21(2)->5 12 15 17 18 27 
22(12)->1 5 9 12 14 15 16 17 23 24 27 28 31 34 35 37 38 41 42 45 46 47 50 
23(10)->1 4 5 9 12 14 15 17 22 24 27 28 31 34 35 37 38 41 42 46 47 50 
24(2)->5 22 23 27 34 46 
25(2)->5 12 27 34 
27(15)->1 5 9 12 14 15 17 18 21 22 23 24 25 28 31 35 36 38 41 42 45 46 47 50 
28(1)->1 9 12 14 15 17 22 23 27 31 35 37 38 41 42 46 47 50 
31(0)->1 9 12 14 15 17 22 23 27 28 35 38 41 42 45 46 47 50 
33(0)->
34(1)->5 12 17 19 22 23 24 25 46 
35(8)->1 4 9 12 14 15 16 17 22 23 27 28 31 37 38 41 42 45 46 47 50 
36(0)->12 15 17 18 27 41 42 45 46 47 
37(0)->1 9 12 14 15 16 22 23 28 35 38 41 42 46 47 50 
38(3)->1 9 12 14 15 17 22 23 27 28 31 35 37 41 42 45 46 47 50 
41(11)->1 4 9 12 14 15 16 17 18 22 23 27 28 31 35 36 37 38 42 45 46 47 50 
42(5)->1 9 12 14 15 17 22 23 27 28 31 35 36 37 38 41 45 46 47 50 
45(1)->1 9 12 15 17 22 27 31 35 36 38 41 42 46 47 
46(16)->1 4 5 9 12 14 15 16 17 18 22 23 24 27 28 31 34 35 36 37 38 41 42 45 47 50 
47(7)->1 9 12 14 15 17 18 22 23 27 28 31 35 36 37 38 41 42 45 46 50 
50(4)->1 4 9 12 14 15 16 17 22 23 27 28 31 35 37 38 41 42 46 47 
COUNT: 32
COLORS: 18
EDGES: 0
18
32
