-1=-1,-1,-1
-1=-1,-1,-1
44=-1,-1,-1
26=-1,-1,-1
-1=-1,-1,-1
28=26,-1,-1
-1=-1,-1,-1
19=-1,-1,-1
-1=-1,-1,-1
-1=-1,-1,-1
-1=-1,-1,-1
12=-1,-1,-1
26=19,-1,-1
-1=-1,-1,-1
-1=-1,-1,-1
-1=-1,-1,-1
-1=-1,-1,-1
-1=28,-1,-1
15=-1,-1,-1
-1=-1,-1,-1
-1=-1,-1,-1
-1=-1,-1,-1
14=-1,-1,-1
-1=-1,-1,-1
-1=-1,-1,-1
-1=-1,-1,-1
-1=-1,-1,-1
-1=-1,-1,-1
-1=-1,-1,-1
19=-1,-1,-1
-1=-1,-1,-1
22=-1,-1,-1
-1=26,-1,-1
30=-1,-1,-1
29=-1,-1,-1
-1=-1,-1,-1
-1=-1,-1,-1
5=-1,-1,-1
-1=5,-1,-1
5=29,-1,-1
-1=-1,-1,-1
-1=-1,-1,-1
-1=-1,-1,-1
-1=5,-1,-1
-1=-1,-1,-1
29=19,-1,-1
-1=14,44,-1
-1=-1,-1,-1
-1=-1,-1,-1
28=-1,-1,-1
-1=-1,-1,-1
14=-1,-1,-1
-1=-1,-1,-1
-1=-1,-1,-1
36=-1,-1,-1
-1=-1,-1,-1
-1=30,-1,-1
-1=-1,-1,-1
19=-1,-1,-1
-1=-1,-1,-1
-1=-1,-1,-1
-1=22,-1,-1
18=-1,-1,-1
-1=-1,-1,-1
-1=-1,-1,-1
-1=-1,-1,-1
-1=-1,-1,-1
-1=-1,-1,-1
-1=-1,-1,-1
40=-1,-1,-1
-1=40,-1,-1
-1=-1,-1,-1
-1=-1,-1,-1
-1=-1,-1,-1
-1=-1,-1,-1
32=-1,-1,-1
40=-1,-1,-1
40=29,40,-1
-1=-1,-1,-1
-1=-1,-1,-1
-1=-1,-1,-1
-1=-1,-1,-1
-1=-1,-1,-1
-1=-1,-1,-1
-1=28,-1,-1
-1=-1,-1,-1
-1=32,-1,-1
-1=-1,-1,-1
-1=-1,-1,-1
-1=-1,-1,-1
-1=-1,-1,-1
-1=-1,-1,-1
-1=-1,-1,-1
-1=19,-1,-1
49=-1,-1,-1
-1=-1,-1,-1
-1=12,-1,-1
-1=-1,-1,-1
-1=-1,-1,-1
4=-1,-1,-1
-1=-1,-1,-1
-1=15,-1,-1
-1=-1,-1,-1
-1=-1,-1,-1
-1=40,-1,-1
29=-1,-1,-1
5=36,-1,-1
-1=-1,-1,-1
-1=-1,-1,-1
23=-1,-1,-1
-1=-1,-1,-1
-1=4,-1,-1
-1=-1,-1,-1
-1=-1,-1,-1
-1=-1,-1,-1
-1=-1,-1,-1
-1=14,-1,-1
-1=-1,-1,-1
-1=-1,-1,-1
3=5,-1,-1
-1=-1,-1,-1
-1=-1,-1,-1
-1=-1,-1,-1
40=-1,-1,-1
-1=-1,-1,-1
9=-1,-1,-1
-1=29,-1,-1
-1=-1,-1,-1
-1=-1,-1,-1
-1=-1,-1,-1
-1=-1,-1,-1
-1=-1,-1,-1
-1=-1,-1,-1
-1=-1,-1,-1
50=49,-1,-1
-1=-1,-1,-1
-1=40,-1,-1
-1=-1,-1,-1
-1=-1,-1,-1
-1=-1,-1,-1
33=-1,-1,-1
-1=-1,-1,-1
-1=-1,-1,-1
-1=-1,-1,-1
-1=3,-1,-1
35=-1,-1,-1
-1=-1,-1,-1
-1=23,-1,-1
-1=-1,-1,-1
31=-1,-1,-1
-1=-1,-1,-1
-1=35,-1,-1
-1=-1,-1,-1
-1=-1,-1,-1
-1=-1,-1,-1
-1=-1,-1,-1
-1=33,-1,-1
30=18,-1,-1
-1=31,-1,-1
-1=-1,-1,-1
-1=-1,-1,-1
10=-1,-1,-1
-1=9,-1,-1
-1=50,-1,-1
18=-1,-1,-1
-1=18,-1,-1
-1=30,-1,-1
39=-1,-1,-1
-1=-1,-1,-1
-1=-1,-1,-1
48=-1,-1,-1
-1=-1,-1,-1
-1=-1,-1,-1
-1=-1,-1,-1
-1=-1,-1,-1
18=-1,-1,-1
-1=10,-1,-1
-1=-1,-1,-1
-1=39,-1,-1
-1=18,48,-1
7=-1,-1,-1
-1=-1,-1,-1
-1=-1,-1,-1
-1=-1,-1,-1
-1=-1,-1,-1
-1=-1,-1,-1
-1=-1,-1,-1
-1=-1,-1,-1
-1=7,-1,-1
-1=-1,-1,-1
-1=-1,-1,-1
-1=-1,-1,-1
-1=-1,-1,-1
-1=-1,-1,-1
-1=-1,-1,-1
6=-1,-1,-1
-1=6,-1,-1
13=-1,-1,-1
-1=13,-1,-1
-1=-1,-1,-1
--------
,
13 ,
,13 
6 ,
,6 
,
,
,
,
,
,
7 ,
7 ,7 
7 ,7 
7 ,7 
7 ,7 
7 ,7 
7 ,7 
7 ,7 
,7 
18 48 ,
18 39 48 ,18 48 
18 39 48 ,18 39 48 
10 18 39 48 ,18 39 48 
10 39 48 ,10 18 39 48 
10 39 48 ,10 39 48 
10 39 48 ,10 39 48 
10 39 48 ,10 39 48 
10 39 48 ,10 39 48 
10 39 ,10 39 48 
10 39 ,10 39 
10 39 ,10 39 
10 ,10 39 
10 30 ,10 
10 18 30 ,10 30 
10 30 ,10 18 30 
10 30 50 ,10 30 
9 10 30 50 ,10 30 50 
9 30 50 ,9 10 30 50 
9 30 50 ,9 30 50 
9 30 50 ,9 30 50 
9 30 31 50 ,9 30 50 
9 18 31 50 ,9 30 31 50 
9 18 31 33 50 ,9 18 31 50 
9 18 31 33 50 ,9 18 31 33 50 
9 18 31 33 50 ,9 18 31 33 50 
9 18 31 33 50 ,9 18 31 33 50 
9 18 31 33 50 ,9 18 31 33 50 
9 18 31 33 35 50 ,9 18 31 33 50 
9 18 31 33 35 50 ,9 18 31 33 35 50 
9 18 33 35 50 ,9 18 31 33 35 50 
9 18 33 35 50 ,9 18 33 35 50 
9 18 23 33 35 50 ,9 18 33 35 50 
9 18 23 33 35 50 ,9 18 23 33 35 50 
9 18 23 33 50 ,9 18 23 33 35 50 
3 9 18 23 33 50 ,9 18 23 33 50 
3 9 18 23 33 50 ,3 9 18 23 33 50 
3 9 18 23 33 50 ,3 9 18 23 33 50 
3 9 18 23 33 50 ,3 9 18 23 33 50 
3 9 18 23 50 ,3 9 18 23 33 50 
3 9 18 23 50 ,3 9 18 23 50 
3 9 18 23 50 ,3 9 18 23 50 
3 9 18 23 50 ,3 9 18 23 50 
3 9 18 23 40 50 ,3 9 18 23 50 
3 9 18 23 40 50 ,3 9 18 23 40 50 
3 9 18 23 40 49 ,3 9 18 23 40 50 
3 9 18 23 40 49 ,3 9 18 23 40 49 
3 9 18 23 40 49 ,3 9 18 23 40 49 
3 9 18 23 40 49 ,3 9 18 23 40 49 
3 9 18 23 40 49 ,3 9 18 23 40 49 
3 9 18 23 40 49 ,3 9 18 23 40 49 
3 9 18 23 40 49 ,3 9 18 23 40 49 
3 9 18 23 40 49 ,3 9 18 23 40 49 
3 9 18 23 29 40 49 ,3 9 18 23 40 49 
3 18 23 29 40 49 ,3 9 18 23 29 40 49 
3 18 23 29 40 49 ,3 18 23 29 40 49 
3 18 23 29 49 ,3 18 23 29 40 49 
3 18 23 29 49 ,3 18 23 29 49 
3 18 23 29 49 ,3 18 23 29 49 
3 18 23 29 49 ,3 18 23 29 49 
5 18 23 29 49 ,3 18 23 29 49 
5 18 23 29 49 ,5 18 23 29 49 
5 18 23 29 49 ,5 18 23 29 49 
5 14 18 23 29 49 ,5 18 23 29 49 
5 14 18 23 29 49 ,5 14 18 23 29 49 
5 14 18 23 29 49 ,5 14 18 23 29 49 
5 14 18 23 29 49 ,5 14 18 23 29 49 
5 14 18 23 29 49 ,5 14 18 23 29 49 
4 5 14 18 23 29 49 ,5 14 18 23 29 49 
4 5 14 18 23 29 49 ,4 5 14 18 23 29 49 
4 5 14 18 29 49 ,4 5 14 18 23 29 49 
4 5 14 18 29 49 ,4 5 14 18 29 49 
4 5 14 18 29 49 ,4 5 14 18 29 49 
4 14 18 29 36 49 ,4 5 14 18 29 49 
4 14 18 36 49 ,4 14 18 29 36 49 
4 14 18 36 40 49 ,4 14 18 36 49 
4 14 18 36 40 49 ,4 14 18 36 40 49 
4 14 18 36 40 49 ,4 14 18 36 40 49 
4 14 15 18 36 40 49 ,4 14 18 36 40 49 
4 14 15 18 36 40 49 ,4 14 15 18 36 40 49 
14 15 18 36 40 49 ,4 14 15 18 36 40 49 
14 15 18 36 40 49 ,14 15 18 36 40 49 
14 15 18 36 40 49 ,14 15 18 36 40 49 
12 14 15 18 36 40 49 ,14 15 18 36 40 49 
12 14 15 18 36 40 49 ,12 14 15 18 36 40 49 
12 14 15 18 36 40 ,12 14 15 18 36 40 49 
12 14 15 18 19 36 40 ,12 14 15 18 36 40 
12 14 15 18 19 36 40 ,12 14 15 18 19 36 40 
12 14 15 18 19 36 40 ,12 14 15 18 19 36 40 
12 14 15 18 19 36 40 ,12 14 15 18 19 36 40 
12 14 15 18 19 36 40 ,12 14 15 18 19 36 40 
12 14 15 18 19 36 40 ,12 14 15 18 19 36 40 
12 14 15 18 19 36 40 ,12 14 15 18 19 36 40 
12 14 15 18 19 32 36 40 ,12 14 15 18 19 36 40 
12 14 15 18 19 32 36 40 ,12 14 15 18 19 32 36 40 
12 14 15 18 19 28 32 36 40 ,12 14 15 18 19 32 36 40 
12 14 15 18 19 28 32 36 40 ,12 14 15 18 19 28 32 36 40 
12 14 15 18 19 28 32 36 40 ,12 14 15 18 19 28 32 36 40 
12 14 15 18 19 28 32 36 40 ,12 14 15 18 19 28 32 36 40 
12 14 15 18 19 28 32 36 40 ,12 14 15 18 19 28 32 36 40 
12 14 15 18 19 28 32 36 40 ,12 14 15 18 19 28 32 36 40 
12 14 15 18 19 28 32 36 40 ,12 14 15 18 19 28 32 36 40 
12 14 15 18 19 28 29 32 36 40 ,12 14 15 18 19 28 32 36 40 
12 14 15 18 19 28 29 32 36 ,12 14 15 18 19 28 29 32 36 40 
12 14 15 18 19 28 29 36 ,12 14 15 18 19 28 29 32 36 
12 14 15 18 19 28 29 36 ,12 14 15 18 19 28 29 36 
12 14 15 18 19 28 29 36 ,12 14 15 18 19 28 29 36 
12 14 15 18 19 28 29 36 ,12 14 15 18 19 28 29 36 
12 14 15 18 19 28 29 36 ,12 14 15 18 19 28 29 36 
12 14 15 18 19 28 29 36 40 ,12 14 15 18 19 28 29 36 
12 14 15 18 19 28 29 36 ,12 14 15 18 19 28 29 36 40 
12 14 15 18 19 28 29 36 ,12 14 15 18 19 28 29 36 
12 14 15 18 19 28 29 36 ,12 14 15 18 19 28 29 36 
12 14 15 18 19 28 29 36 ,12 14 15 18 19 28 29 36 
12 14 15 18 19 28 29 36 ,12 14 15 18 19 28 29 36 
12 14 15 18 19 28 29 36 ,12 14 15 18 19 28 29 36 
12 14 15 18 19 28 29 36 ,12 14 15 18 19 28 29 36 
12 14 15 19 28 29 36 ,12 14 15 18 19 28 29 36 
12 14 15 19 22 28 29 36 ,12 14 15 19 28 29 36 
12 14 15 19 22 28 29 36 ,12 14 15 19 22 28 29 36 
12 14 15 19 22 28 29 36 ,12 14 15 19 22 28 29 36 
12 14 15 22 28 29 36 ,12 14 15 19 22 28 29 36 
12 14 15 22 28 29 36 ,12 14 15 22 28 29 36 
12 14 15 22 28 29 30 36 ,12 14 15 22 28 29 36 
12 14 15 22 28 29 30 36 ,12 14 15 22 28 29 30 36 
12 14 15 22 28 29 30 ,12 14 15 22 28 29 30 36 
12 14 15 22 28 29 30 ,12 14 15 22 28 29 30 
12 14 15 22 28 29 30 ,12 14 15 22 28 29 30 
12 15 22 28 29 30 ,12 14 15 22 28 29 30 
12 15 22 28 29 30 ,12 15 22 28 29 30 
12 15 22 29 30 ,12 15 22 28 29 30 
12 15 22 29 30 ,12 15 22 29 30 
12 15 22 29 30 ,12 15 22 29 30 
12 14 15 22 29 30 44 ,12 15 22 29 30 
12 14 15 19 22 30 44 ,12 14 15 22 29 30 44 
12 14 15 19 22 30 44 ,12 14 15 19 22 30 44 
5 12 14 15 19 22 30 44 ,12 14 15 19 22 30 44 
5 12 14 15 19 22 30 44 ,5 12 14 15 19 22 30 44 
5 12 14 15 19 22 30 44 ,5 12 14 15 19 22 30 44 
5 12 14 15 19 22 30 44 ,5 12 14 15 19 22 30 44 
12 14 15 19 22 29 30 44 ,5 12 14 15 19 22 30 44 
5 12 14 15 19 22 29 30 44 ,12 14 15 19 22 29 30 44 
12 14 15 19 22 29 30 44 ,5 12 14 15 19 22 29 30 44 
12 14 15 19 22 29 30 44 ,12 14 15 19 22 29 30 44 
12 14 15 19 22 29 30 44 ,12 14 15 19 22 29 30 44 
12 14 15 19 22 30 44 ,12 14 15 19 22 29 30 44 
12 14 15 19 22 44 ,12 14 15 19 22 30 44 
12 14 15 19 22 26 44 ,12 14 15 19 22 44 
12 14 15 19 26 44 ,12 14 15 19 22 26 44 
12 14 15 19 26 44 ,12 14 15 19 26 44 
12 14 15 26 44 ,12 14 15 19 26 44 
12 14 15 26 44 ,12 14 15 26 44 
12 14 15 26 44 ,12 14 15 26 44 
12 14 15 26 44 ,12 14 15 26 44 
12 14 15 26 44 ,12 14 15 26 44 
12 14 15 26 44 ,12 14 15 26 44 
12 14 15 26 44 ,12 14 15 26 44 
12 15 26 44 ,12 14 15 26 44 
12 15 26 44 ,12 15 26 44 
12 15 26 44 ,12 15 26 44 
12 15 26 44 ,12 15 26 44 
12 26 44 ,12 15 26 44 
12 26 28 44 ,12 26 44 
12 26 28 44 ,12 26 28 44 
12 26 28 44 ,12 26 28 44 
12 26 28 44 ,12 26 28 44 
12 26 28 44 ,12 26 28 44 
12 19 28 44 ,12 26 28 44 
19 28 44 ,12 19 28 44 
19 28 44 ,19 28 44 
19 28 44 ,19 28 44 
19 28 44 ,19 28 44 
28 44 ,19 28 44 
28 44 ,28 44 
26 44 ,28 44 
26 44 ,26 44 
44 ,26 44 
,44 
,
,
--------
,
13 ,
,13 
6 ,
,6 
,
,
,
,
,
,
7 ,
7 ,7 
7 ,7 
7 ,7 
7 ,7 
7 ,7 
7 ,7 
7 ,7 
,7 
18 48 ,
18 39 48 ,18 48 
18 39 48 ,18 39 48 
10 18 39 48 ,18 39 48 
10 39 48 ,10 18 39 48 
10 39 48 ,10 39 48 
10 39 48 ,10 39 48 
10 39 48 ,10 39 48 
10 39 48 ,10 39 48 
10 39 ,10 39 48 
10 39 ,10 39 
10 39 ,10 39 
10 ,10 39 
10 30 ,10 
10 18 30 ,10 30 
10 30 ,10 18 30 
10 30 50 ,10 30 
9 10 30 50 ,10 30 50 
9 30 50 ,9 10 30 50 
9 30 50 ,9 30 50 
9 30 50 ,9 30 50 
9 30 31 50 ,9 30 50 
9 18 31 50 ,9 30 31 50 
9 18 31 33 50 ,9 18 31 50 
9 18 31 33 50 ,9 18 31 33 50 
9 18 31 33 50 ,9 18 31 33 50 
9 18 31 33 50 ,9 18 31 33 50 
9 18 31 33 50 ,9 18 31 33 50 
9 18 31 33 35 50 ,9 18 31 33 50 
9 18 31 33 35 50 ,9 18 31 33 35 50 
9 18 33 35 50 ,9 18 31 33 35 50 
9 18 33 35 50 ,9 18 33 35 50 
9 18 23 33 35 50 ,9 18 33 35 50 
9 18 23 33 35 50 ,9 18 23 33 35 50 
9 18 23 33 50 ,9 18 23 33 35 50 
3 9 18 23 33 50 ,9 18 23 33 50 
3 9 18 23 33 50 ,3 9 18 23 33 50 
3 9 18 23 33 50 ,3 9 18 23 33 50 
3 9 18 23 33 50 ,3 9 18 23 33 50 
3 9 18 23 50 ,3 9 18 23 33 50 
3 9 18 23 50 ,3 9 18 23 50 
3 9 18 23 50 ,3 9 18 23 50 
3 9 18 23 50 ,3 9 18 23 50 
3 9 18 23 40 50 ,3 9 18 23 50 
3 9 18 23 40 50 ,3 9 18 23 40 50 
3 9 18 23 40 49 ,3 9 18 23 40 50 
3 9 18 23 40 49 ,3 9 18 23 40 49 
3 9 18 23 40 49 ,3 9 18 23 40 49 
3 9 18 23 40 49 ,3 9 18 23 40 49 
3 9 18 23 40 49 ,3 9 18 23 40 49 
3 9 18 23 40 49 ,3 9 18 23 40 49 
3 9 18 23 40 49 ,3 9 18 23 40 49 
3 9 18 23 40 49 ,3 9 18 23 40 49 
3 9 18 23 29 40 49 ,3 9 18 23 40 49 
3 18 23 29 40 49 ,3 9 18 23 29 40 49 
3 18 23 29 40 49 ,3 18 23 29 40 49 
3 18 23 29 49 ,3 18 23 29 40 49 
3 18 23 29 49 ,3 18 23 29 49 
3 18 23 29 49 ,3 18 23 29 49 
3 18 23 29 49 ,3 18 23 29 49 
5 18 23 29 49 ,3 18 23 29 49 
5 18 23 29 49 ,5 18 23 29 49 
5 18 23 29 49 ,5 18 23 29 49 
5 14 18 23 29 49 ,5 18 23 29 49 
5 14 18 23 29 49 ,5 14 18 23 29 49 
5 14 18 23 29 49 ,5 14 18 23 29 49 
5 14 18 23 29 49 ,5 14 18 23 29 49 
5 14 18 23 29 49 ,5 14 18 23 29 49 
4 5 14 18 23 29 49 ,5 14 18 23 29 49 
4 5 14 18 23 29 49 ,4 5 14 18 23 29 49 
4 5 14 18 29 49 ,4 5 14 18 23 29 49 
4 5 14 18 29 49 ,4 5 14 18 29 49 
4 5 14 18 29 49 ,4 5 14 18 29 49 
4 14 18 29 36 49 ,4 5 14 18 29 49 
4 14 18 36 49 ,4 14 18 29 36 49 
4 14 18 36 40 49 ,4 14 18 36 49 
4 14 18 36 40 49 ,4 14 18 36 40 49 
4 14 18 36 40 49 ,4 14 18 36 40 49 
4 14 15 18 36 40 49 ,4 14 18 36 40 49 
4 14 15 18 36 40 49 ,4 14 15 18 36 40 49 
14 15 18 36 40 49 ,4 14 15 18 36 40 49 
14 15 18 36 40 49 ,14 15 18 36 40 49 
14 15 18 36 40 49 ,14 15 18 36 40 49 
12 14 15 18 36 40 49 ,14 15 18 36 40 49 
12 14 15 18 36 40 49 ,12 14 15 18 36 40 49 
12 14 15 18 36 40 ,12 14 15 18 36 40 49 
12 14 15 18 19 36 40 ,12 14 15 18 36 40 
12 14 15 18 19 36 40 ,12 14 15 18 19 36 40 
12 14 15 18 19 36 40 ,12 14 15 18 19 36 40 
12 14 15 18 19 36 40 ,12 14 15 18 19 36 40 
12 14 15 18 19 36 40 ,12 14 15 18 19 36 40 
12 14 15 18 19 36 40 ,12 14 15 18 19 36 40 
12 14 15 18 19 36 40 ,12 14 15 18 19 36 40 
12 14 15 18 19 32 36 40 ,12 14 15 18 19 36 40 
12 14 15 18 19 32 36 40 ,12 14 15 18 19 32 36 40 
12 14 15 18 19 28 32 36 40 ,12 14 15 18 19 32 36 40 
12 14 15 18 19 28 32 36 40 ,12 14 15 18 19 28 32 36 40 
12 14 15 18 19 28 32 36 40 ,12 14 15 18 19 28 32 36 40 
12 14 15 18 19 28 32 36 40 ,12 14 15 18 19 28 32 36 40 
12 14 15 18 19 28 32 36 40 ,12 14 15 18 19 28 32 36 40 
12 14 15 18 19 28 32 36 40 ,12 14 15 18 19 28 32 36 40 
12 14 15 18 19 28 32 36 40 ,12 14 15 18 19 28 32 36 40 
12 14 15 18 19 28 29 32 36 40 ,12 14 15 18 19 28 32 36 40 
12 14 15 18 19 28 29 32 36 ,12 14 15 18 19 28 29 32 36 40 
12 14 15 18 19 28 29 36 ,12 14 15 18 19 28 29 32 36 
12 14 15 18 19 28 29 36 ,12 14 15 18 19 28 29 36 
12 14 15 18 19 28 29 36 ,12 14 15 18 19 28 29 36 
12 14 15 18 19 28 29 36 ,12 14 15 18 19 28 29 36 
12 14 15 18 19 28 29 36 ,12 14 15 18 19 28 29 36 
12 14 15 18 19 28 29 36 40 ,12 14 15 18 19 28 29 36 
12 14 15 18 19 28 29 36 ,12 14 15 18 19 28 29 36 40 
12 14 15 18 19 28 29 36 ,12 14 15 18 19 28 29 36 
12 14 15 18 19 28 29 36 ,12 14 15 18 19 28 29 36 
12 14 15 18 19 28 29 36 ,12 14 15 18 19 28 29 36 
12 14 15 18 19 28 29 36 ,12 14 15 18 19 28 29 36 
12 14 15 18 19 28 29 36 ,12 14 15 18 19 28 29 36 
12 14 15 18 19 28 29 36 ,12 14 15 18 19 28 29 36 
12 14 15 19 28 29 36 ,12 14 15 18 19 28 29 36 
12 14 15 19 22 28 29 36 ,12 14 15 19 28 29 36 
12 14 15 19 22 28 29 36 ,12 14 15 19 22 28 29 36 
12 14 15 19 22 28 29 36 ,12 14 15 19 22 28 29 36 
12 14 15 22 28 29 36 ,12 14 15 19 22 28 29 36 
12 14 15 22 28 29 36 ,12 14 15 22 28 29 36 
12 14 15 22 28 29 30 36 ,12 14 15 22 28 29 36 
12 14 15 22 28 29 30 36 ,12 14 15 22 28 29 30 36 
12 14 15 22 28 29 30 ,12 14 15 22 28 29 30 36 
12 14 15 22 28 29 30 ,12 14 15 22 28 29 30 
12 14 15 22 28 29 30 ,12 14 15 22 28 29 30 
12 15 22 28 29 30 ,12 14 15 22 28 29 30 
12 15 22 28 29 30 ,12 15 22 28 29 30 
12 15 22 29 30 ,12 15 22 28 29 30 
12 15 22 29 30 ,12 15 22 29 30 
12 15 22 29 30 ,12 15 22 29 30 
12 14 15 22 29 30 44 ,12 15 22 29 30 
12 14 15 19 22 30 44 ,12 14 15 22 29 30 44 
12 14 15 19 22 30 44 ,12 14 15 19 22 30 44 
5 12 14 15 19 22 30 44 ,12 14 15 19 22 30 44 
5 12 14 15 19 22 30 44 ,5 12 14 15 19 22 30 44 
5 12 14 15 19 22 30 44 ,5 12 14 15 19 22 30 44 
5 12 14 15 19 22 30 44 ,5 12 14 15 19 22 30 44 
12 14 15 19 22 29 30 44 ,5 12 14 15 19 22 30 44 
5 12 14 15 19 22 29 30 44 ,12 14 15 19 22 29 30 44 
12 14 15 19 22 29 30 44 ,5 12 14 15 19 22 29 30 44 
12 14 15 19 22 29 30 44 ,12 14 15 19 22 29 30 44 
12 14 15 19 22 29 30 44 ,12 14 15 19 22 29 30 44 
12 14 15 19 22 30 44 ,12 14 15 19 22 29 30 44 
12 14 15 19 22 44 ,12 14 15 19 22 30 44 
12 14 15 19 22 26 44 ,12 14 15 19 22 44 
12 14 15 19 26 44 ,12 14 15 19 22 26 44 
12 14 15 19 26 44 ,12 14 15 19 26 44 
12 14 15 26 44 ,12 14 15 19 26 44 
12 14 15 26 44 ,12 14 15 26 44 
12 14 15 26 44 ,12 14 15 26 44 
12 14 15 26 44 ,12 14 15 26 44 
12 14 15 26 44 ,12 14 15 26 44 
12 14 15 26 44 ,12 14 15 26 44 
12 14 15 26 44 ,12 14 15 26 44 
12 15 26 44 ,12 14 15 26 44 
12 15 26 44 ,12 15 26 44 
12 15 26 44 ,12 15 26 44 
12 15 26 44 ,12 15 26 44 
12 26 44 ,12 15 26 44 
12 26 28 44 ,12 26 44 
12 26 28 44 ,12 26 28 44 
12 26 28 44 ,12 26 28 44 
12 26 28 44 ,12 26 28 44 
12 26 28 44 ,12 26 28 44 
12 19 28 44 ,12 26 28 44 
19 28 44 ,12 19 28 44 
19 28 44 ,19 28 44 
19 28 44 ,19 28 44 
19 28 44 ,19 28 44 
28 44 ,19 28 44 
28 44 ,28 44 
26 44 ,28 44 
26 44 ,26 44 
44 ,26 44 
,44 
,
,
-------------
-------
3(-1)->9 18 23 29 33 40 49 50 
4(-1)->5 14 15 18 23 29 36 40 49 
5(-1)->4 12 14 15 18 19 22 23 29 30 44 49 
6(-1)->
7(-1)->
9(-1)->3 10 18 23 29 30 31 33 35 40 49 50 
10(-1)->9 18 30 39 48 50 
12(-1)->5 14 15 18 19 22 26 28 29 30 32 36 40 44 49 
13(-1)->
14(-1)->4 5 12 15 18 19 22 23 26 28 29 30 32 36 40 44 49 
15(-1)->4 5 12 14 18 19 22 26 28 29 30 32 36 40 44 49 
18(-1)->3 4 5 9 10 12 14 15 19 23 28 29 30 31 32 33 35 36 39 40 48 49 50 
19(-1)->5 12 14 15 18 22 26 28 29 30 32 36 40 44 
22(-1)->5 12 14 15 19 26 28 29 30 36 44 
23(-1)->3 4 5 9 14 18 29 33 35 40 49 50 
26(-1)->12 14 15 19 22 28 44 
28(-1)->12 14 15 18 19 22 26 29 30 32 36 40 44 
29(-1)->3 4 5 9 12 14 15 18 19 22 23 28 30 32 36 40 44 49 
30(-1)->5 9 10 12 14 15 18 19 22 28 29 31 36 44 50 
31(-1)->9 18 30 33 35 50 
32(-1)->12 14 15 18 19 28 29 36 40 
33(-1)->3 9 18 23 31 35 50 
35(-1)->9 18 23 31 33 50 
36(-1)->4 12 14 15 18 19 22 28 29 30 32 40 49 
39(-1)->10 18 48 
40(-1)->3 4 9 12 14 15 18 19 23 28 29 32 36 49 50 
44(-1)->5 12 14 15 19 22 26 28 29 30 
48(-1)->10 18 39 
49(-1)->3 4 5 9 12 14 15 18 23 29 36 40 
50(-1)->3 9 10 18 23 30 31 33 35 40 
-------
18(-1)->3 4 5 9 10 12 14 15 19 23 28 29 30 31 32 33 35 36 39 40 48 49 50 
29(-1)->3 4 5 9 12 14 15 18 19 22 23 28 30 32 36 40 44 49 
14(-1)->4 5 12 15 18 19 22 23 26 28 29 30 32 36 40 44 49 
15(-1)->4 5 12 14 18 19 22 26 28 29 30 32 36 40 44 49 
12(-1)->5 14 15 18 19 22 26 28 29 30 32 36 40 44 49 
30(-1)->5 9 10 12 14 15 18 19 22 28 29 31 36 44 50 
40(-1)->3 4 9 12 14 15 18 19 23 28 29 32 36 49 50 
19(-1)->5 12 14 15 18 22 26 28 29 30 32 36 40 44 
28(-1)->12 14 15 18 19 22 26 29 30 32 36 40 44 
36(-1)->4 12 14 15 18 19 22 28 29 30 32 40 49 
5(-1)->4 12 14 15 18 19 22 23 29 30 44 49 
9(-1)->3 10 18 23 29 30 31 33 35 40 49 50 
23(-1)->3 4 5 9 14 18 29 33 35 40 49 50 
49(-1)->3 4 5 9 12 14 15 18 23 29 36 40 
22(-1)->5 12 14 15 19 26 28 29 30 36 44 
44(-1)->5 12 14 15 19 22 26 28 29 30 
50(-1)->3 9 10 18 23 30 31 33 35 40 
4(-1)->5 14 15 18 23 29 36 40 49 
32(-1)->12 14 15 18 19 28 29 36 40 
3(-1)->9 18 23 29 33 40 49 50 
26(-1)->12 14 15 19 22 28 44 
33(-1)->3 9 18 23 31 35 50 
10(-1)->9 18 30 39 48 50 
31(-1)->9 18 30 33 35 50 
35(-1)->9 18 23 31 33 50 
39(-1)->10 18 48 
48(-1)->10 18 39 
6(-1)->
7(-1)->
13(-1)->
-------
12 14 15 18 19 28 29 32 36 40 

6 

7 

13 

****************
****************
32(-1)->12 14 15 18 19 28 29 36 40 
36(-1)->4 12 14 15 18 19 22 28 29 30 32 40 49 
28(-1)->12 14 15 18 19 22 26 29 30 32 36 40 44 
19(-1)->5 12 14 15 18 22 26 28 29 30 32 36 40 44 
40(-1)->3 4 9 12 14 15 18 19 23 28 29 32 36 49 50 
12(-1)->5 14 15 18 19 22 26 28 29 30 32 36 40 44 49 
15(-1)->4 5 12 14 18 19 22 26 28 29 30 32 36 40 44 49 
14(-1)->4 5 12 15 18 19 22 23 26 28 29 30 32 36 40 44 49 
29(-1)->3 4 5 9 12 14 15 18 19 22 23 28 30 32 36 40 44 49 
18(-1)->3 4 5 9 10 12 14 15 19 23 28 29 30 31 32 33 35 36 39 40 48 49 50 
30(-1)->5 9 10 12 14 15 18 19 22 28 29 31 36 44 50 
5(-1)->4 12 14 15 18 19 22 23 29 30 44 49 
9(-1)->3 10 18 23 29 30 31 33 35 40 49 50 
23(-1)->3 4 5 9 14 18 29 33 35 40 49 50 
49(-1)->3 4 5 9 12 14 15 18 23 29 36 40 
22(-1)->5 12 14 15 19 26 28 29 30 36 44 
44(-1)->5 12 14 15 19 22 26 28 29 30 
50(-1)->3 9 10 18 23 30 31 33 35 40 
4(-1)->5 14 15 18 23 29 36 40 49 
3(-1)->9 18 23 29 33 40 49 50 
26(-1)->12 14 15 19 22 28 44 
33(-1)->3 9 18 23 31 35 50 
10(-1)->9 18 30 39 48 50 
31(-1)->9 18 30 33 35 50 
35(-1)->9 18 23 31 33 50 
39(-1)->10 18 48 
48(-1)->10 18 39 
****************
6(-1)->
****************
7(-1)->
****************
13(-1)->
START TIME: 1433732222
START TIME: 1433732222
START TIME: 1433732222
START TIME: 1433732222
3(3)->9 18 23 29 33 40 49 50 
4(3)->5 14 15 18 23 29 36 40 49 
5(1)->4 12 14 15 18 19 22 23 29 30 44 49 
6(0)->
7(0)->
9(1)->3 10 18 23 29 30 31 33 35 40 49 50 
10(3)->9 18 30 39 48 50 
12(5)->5 14 15 18 19 22 26 28 29 30 32 36 40 44 49 
13(0)->
14(7)->4 5 12 15 18 19 22 23 26 28 29 30 32 36 40 44 49 
15(6)->4 5 12 14 18 19 22 26 28 29 30 32 36 40 44 49 
18(9)->3 4 5 9 10 12 14 15 19 23 28 29 30 31 32 33 35 36 39 40 48 49 50 
19(3)->5 12 14 15 18 22 26 28 29 30 32 36 40 44 
22(4)->5 12 14 15 19 26 28 29 30 36 44 
23(0)->3 4 5 9 14 18 29 33 35 40 49 50 
26(0)->12 14 15 19 22 28 44 
28(2)->12 14 15 18 19 22 26 29 30 32 36 40 44 
29(8)->3 4 5 9 12 14 15 18 19 22 23 28 30 32 36 40 44 49 
30(0)->5 9 10 12 14 15 18 19 22 28 29 31 36 44 50 
31(3)->9 18 30 33 35 50 
32(0)->12 14 15 18 19 28 29 36 40 
33(4)->3 9 18 23 31 35 50 
35(5)->9 18 23 31 33 50 
36(1)->4 12 14 15 18 19 22 28 29 30 32 40 49 
39(0)->10 18 48 
40(4)->3 4 9 12 14 15 18 19 23 28 29 32 36 49 50 
44(9)->5 12 14 15 19 22 26 28 29 30 
48(1)->10 18 39 
49(2)->3 4 5 9 12 14 15 18 23 29 36 40 
50(2)->3 9 10 18 23 30 31 33 35 40 
COUNT: 30
COLORS: 10
EDGES: 0
10
30
