-1=-1,-1,-1
-1=-1,-1,-1
-1=-1,-1,-1
1=-1,-1,-1
-1=-1,-1,-1
-1=-1,-1,-1
-1=-1,-1,-1
-1=-1,-1,-1
-1=-1,-1,-1
-1=-1,-1,-1
-1=-1,-1,-1
23=-1,-1,-1
46=-1,-1,-1
41=-1,-1,-1
35=-1,-1,-1
-1=-1,-1,-1
-1=-1,-1,-1
-1=-1,-1,-1
4=-1,-1,-1
-1=23,-1,-1
-1=-1,-1,-1
50=35,-1,-1
-1=-1,-1,-1
22=-1,-1,-1
16=-1,-1,-1
-1=-1,-1,-1
35=-1,-1,-1
9=-1,-1,-1
-1=-1,-1,-1
-1=-1,-1,-1
-1=4,-1,-1
-1=-1,-1,-1
-1=-1,-1,-1
-1=-1,-1,-1
37=-1,-1,-1
-1=-1,-1,-1
-1=-1,-1,-1
-1=-1,-1,-1
-1=-1,-1,-1
-1=-1,-1,-1
-1=50,-1,-1
-1=-1,-1,-1
12=-1,-1,-1
-1=-1,-1,-1
-1=-1,-1,-1
-1=-1,-1,-1
-1=-1,-1,-1
42=-1,-1,-1
-1=-1,-1,-1
-1=-1,-1,-1
-1=-1,-1,-1
-1=-1,-1,-1
-1=-1,-1,-1
-1=-1,-1,-1
28=-1,-1,-1
-1=-1,-1,-1
-1=-1,-1,-1
14=-1,-1,-1
-1=28,42,-1
-1=-1,-1,-1
23=16,-1,-1
-1=-1,-1,-1
-1=14,-1,-1
-1=-1,-1,-1
-1=37,-1,-1
-1=-1,-1,-1
-1=-1,-1,-1
-1=-1,-1,-1
-1=-1,-1,-1
-1=-1,-1,-1
-1=-1,-1,-1
-1=-1,-1,-1
-1=-1,-1,-1
14=-1,-1,-1
-1=-1,-1,-1
-1=23,-1,-1
-1=-1,-1,-1
3=-1,-1,-1
-1=-1,-1,-1
-1=-1,-1,-1
-1=-1,-1,-1
-1=-1,-1,-1
17=-1,-1,-1
-1=-1,-1,-1
-1=-1,-1,-1
-1=-1,-1,-1
-1=-1,-1,-1
-1=-1,-1,-1
-1=-1,-1,-1
-1=-1,-1,-1
-1=46,-1,-1
-1=1,-1,-1
-1=-1,-1,-1
15=-1,-1,-1
-1=-1,-1,-1
-1=22,-1,-1
-1=-1,-1,-1
-1=3,-1,-1
-1=-1,-1,-1
-1=-1,-1,-1
-1=9,-1,-1
-1=-1,-1,-1
-1=35,-1,-1
-1=-1,-1,-1
-1=-1,-1,-1
45=17,-1,-1
-1=-1,-1,-1
-1=15,-1,-1
-1=-1,-1,-1
-1=-1,-1,-1
-1=-1,-1,-1
-1=-1,-1,-1
-1=14,-1,-1
-1=-1,-1,-1
-1=-1,-1,-1
-1=-1,-1,-1
-1=-1,-1,-1
-1=-1,-1,-1
-1=-1,-1,-1
-1=-1,-1,-1
-1=-1,-1,-1
-1=-1,-1,-1
-1=-1,-1,-1
-1=-1,-1,-1
36=-1,-1,-1
-1=-1,-1,-1
-1=-1,-1,-1
-1=-1,-1,-1
-1=-1,-1,-1
-1=-1,-1,-1
-1=12,-1,-1
-1=-1,-1,-1
18=-1,-1,-1
-1=-1,-1,-1
-1=-1,-1,-1
-1=-1,-1,-1
-1=-1,-1,-1
-1=-1,-1,-1
27=-1,-1,-1
-1=-1,-1,-1
-1=-1,-1,-1
-1=-1,-1,-1
-1=-1,-1,-1
-1=41,-1,-1
-1=-1,-1,-1
5=18,-1,-1
-1=45,-1,-1
-1=-1,-1,-1
-1=-1,-1,-1
-1=-1,-1,-1
-1=-1,-1,-1
-1=-1,-1,-1
25=-1,-1,-1
-1=-1,-1,-1
-1=27,-1,-1
-1=36,-1,-1
-1=-1,-1,-1
-1=-1,-1,-1
-1=-1,-1,-1
-1=-1,-1,-1
19=-1,-1,-1
-1=-1,-1,-1
-1=-1,-1,-1
-1=5,-1,-1
-1=-1,-1,-1
-1=-1,-1,-1
-1=-1,-1,-1
-1=-1,-1,-1
24=19,-1,-1
-1=-1,-1,-1
-1=-1,-1,-1
-1=-1,-1,-1
-1=24,-1,-1
-1=-1,-1,-1
-1=-1,-1,-1
-1=25,-1,-1
-1=-1,-1,-1
-1=-1,-1,-1
-1=-1,-1,-1
-1=-1,-1,-1
-1=-1,-1,-1
-1=-1,-1,-1
-1=-1,-1,-1
-1=-1,-1,-1
-1=-1,-1,-1
-1=-1,-1,-1
-1=-1,-1,-1
-1=-1,-1,-1
-1=-1,-1,-1
-1=-1,-1,-1
12=-1,-1,-1
-1=-1,-1,-1
-1=-1,-1,-1
41=-1,-1,-1
-1=12,41,-1
-1=-1,-1,-1
-1=-1,-1,-1
-1=-1,-1,-1
-1=-1,-1,-1
-1=-1,-1,-1
--------
,
,
,
,
,
12 41 ,
12 ,12 41 
12 ,12 
12 ,12 
,12 
,
,
,
,
,
,
,
,
,
,
,
,
,
,
25 ,
25 ,25 
25 ,25 
24 25 ,25 
24 25 ,24 25 
24 25 ,24 25 
24 25 ,24 25 
19 25 ,24 25 
19 25 ,19 25 
19 25 ,19 25 
19 25 ,19 25 
19 25 ,19 25 
5 19 25 ,19 25 
5 19 25 ,5 19 25 
5 19 25 ,5 19 25 
5 25 ,5 19 25 
5 25 ,5 25 
5 25 ,5 25 
5 25 ,5 25 
5 25 ,5 25 
5 25 36 ,5 25 
5 25 27 36 ,5 25 36 
5 25 27 36 ,5 25 27 36 
5 27 36 ,5 25 27 36 
5 27 36 ,5 27 36 
5 27 36 ,5 27 36 
5 27 36 ,5 27 36 
5 27 36 ,5 27 36 
5 27 36 ,5 27 36 
5 27 36 45 ,5 27 36 
18 27 36 45 ,5 27 36 45 
18 27 36 45 ,18 27 36 45 
18 27 36 41 45 ,18 27 36 45 
18 27 36 41 45 ,18 27 36 41 45 
18 27 36 41 45 ,18 27 36 41 45 
18 27 36 41 45 ,18 27 36 41 45 
18 27 36 41 45 ,18 27 36 41 45 
18 36 41 45 ,18 27 36 41 45 
18 36 41 45 ,18 36 41 45 
18 36 41 45 ,18 36 41 45 
18 36 41 45 ,18 36 41 45 
18 36 41 45 ,18 36 41 45 
18 36 41 45 ,18 36 41 45 
36 41 45 ,18 36 41 45 
36 41 45 ,36 41 45 
12 36 41 45 ,36 41 45 
12 36 41 45 ,12 36 41 45 
12 36 41 45 ,12 36 41 45 
12 36 41 45 ,12 36 41 45 
12 36 41 45 ,12 36 41 45 
12 36 41 45 ,12 36 41 45 
12 41 45 ,12 36 41 45 
12 41 45 ,12 41 45 
12 41 45 ,12 41 45 
12 41 45 ,12 41 45 
12 41 45 ,12 41 45 
12 41 45 ,12 41 45 
12 41 45 ,12 41 45 
12 41 45 ,12 41 45 
12 41 45 ,12 41 45 
12 41 45 ,12 41 45 
12 41 45 ,12 41 45 
12 41 45 ,12 41 45 
12 14 41 45 ,12 41 45 
12 14 41 45 ,12 14 41 45 
12 14 41 45 ,12 14 41 45 
12 14 41 45 ,12 14 41 45 
12 14 41 45 ,12 14 41 45 
12 14 15 41 45 ,12 14 41 45 
12 14 15 41 45 ,12 14 15 41 45 
12 14 15 17 41 ,12 14 15 41 45 
12 14 15 17 41 ,12 14 15 17 41 
12 14 15 17 41 ,12 14 15 17 41 
12 14 15 17 35 41 ,12 14 15 17 41 
12 14 15 17 35 41 ,12 14 15 17 35 41 
9 12 14 15 17 35 41 ,12 14 15 17 35 41 
9 12 14 15 17 35 41 ,9 12 14 15 17 35 41 
9 12 14 15 17 35 41 ,9 12 14 15 17 35 41 
3 9 12 14 15 17 35 41 ,9 12 14 15 17 35 41 
3 9 12 14 15 17 35 41 ,3 9 12 14 15 17 35 41 
3 9 12 14 15 17 22 35 41 ,3 9 12 14 15 17 35 41 
3 9 12 14 15 17 22 35 41 ,3 9 12 14 15 17 22 35 41 
3 9 12 14 17 22 35 41 ,3 9 12 14 15 17 22 35 41 
3 9 12 14 17 22 35 41 ,3 9 12 14 17 22 35 41 
1 3 9 12 14 17 22 35 41 ,3 9 12 14 17 22 35 41 
1 3 9 12 14 17 22 35 41 46 ,1 3 9 12 14 17 22 35 41 
1 3 9 12 14 17 22 35 41 46 ,1 3 9 12 14 17 22 35 41 46 
1 3 9 12 14 17 22 35 41 46 ,1 3 9 12 14 17 22 35 41 46 
1 3 9 12 14 17 22 35 41 46 ,1 3 9 12 14 17 22 35 41 46 
1 3 9 12 14 17 22 35 41 46 ,1 3 9 12 14 17 22 35 41 46 
1 3 9 12 14 17 22 35 41 46 ,1 3 9 12 14 17 22 35 41 46 
1 3 9 12 14 17 22 35 41 46 ,1 3 9 12 14 17 22 35 41 46 
1 3 9 12 14 17 22 35 41 46 ,1 3 9 12 14 17 22 35 41 46 
1 3 9 12 14 22 35 41 46 ,1 3 9 12 14 17 22 35 41 46 
1 3 9 12 14 22 35 41 46 ,1 3 9 12 14 22 35 41 46 
1 3 9 12 14 22 35 41 46 ,1 3 9 12 14 22 35 41 46 
1 3 9 12 14 22 35 41 46 ,1 3 9 12 14 22 35 41 46 
1 3 9 12 14 22 35 41 46 ,1 3 9 12 14 22 35 41 46 
1 9 12 14 22 35 41 46 ,1 3 9 12 14 22 35 41 46 
1 9 12 14 22 35 41 46 ,1 9 12 14 22 35 41 46 
1 9 12 14 22 23 35 41 46 ,1 9 12 14 22 35 41 46 
1 9 12 14 22 23 35 41 46 ,1 9 12 14 22 23 35 41 46 
1 9 12 22 23 35 41 46 ,1 9 12 14 22 23 35 41 46 
1 9 12 22 23 35 41 46 ,1 9 12 22 23 35 41 46 
1 9 12 22 23 35 41 46 ,1 9 12 22 23 35 41 46 
1 9 12 22 23 35 41 46 ,1 9 12 22 23 35 41 46 
1 9 12 22 23 35 41 46 ,1 9 12 22 23 35 41 46 
1 9 12 22 23 35 41 46 ,1 9 12 22 23 35 41 46 
1 9 12 22 23 35 41 46 ,1 9 12 22 23 35 41 46 
1 9 12 22 23 35 41 46 ,1 9 12 22 23 35 41 46 
1 9 12 22 23 35 41 46 ,1 9 12 22 23 35 41 46 
1 9 12 22 23 35 37 41 46 ,1 9 12 22 23 35 41 46 
1 9 12 22 23 35 37 41 46 ,1 9 12 22 23 35 37 41 46 
1 9 12 14 22 23 35 37 41 46 ,1 9 12 22 23 35 37 41 46 
1 9 12 14 22 23 35 37 41 46 ,1 9 12 14 22 23 35 37 41 46 
1 9 12 14 16 22 35 37 41 46 ,1 9 12 14 22 23 35 37 41 46 
1 9 12 14 16 22 35 37 41 46 ,1 9 12 14 16 22 35 37 41 46 
1 9 12 14 16 22 28 35 37 41 42 46 ,1 9 12 14 16 22 35 37 41 46 
1 9 12 16 22 28 35 37 41 42 46 ,1 9 12 14 16 22 28 35 37 41 42 46 
1 9 12 16 22 28 35 37 41 42 46 ,1 9 12 16 22 28 35 37 41 42 46 
1 9 12 16 22 28 35 37 41 42 46 ,1 9 12 16 22 28 35 37 41 42 46 
1 9 12 16 22 35 37 41 42 46 ,1 9 12 16 22 28 35 37 41 42 46 
1 9 12 16 22 35 37 41 42 46 ,1 9 12 16 22 35 37 41 42 46 
1 9 12 16 22 35 37 41 42 46 ,1 9 12 16 22 35 37 41 42 46 
1 9 12 16 22 35 37 41 42 46 ,1 9 12 16 22 35 37 41 42 46 
1 9 12 16 22 35 37 41 42 46 ,1 9 12 16 22 35 37 41 42 46 
1 9 12 16 22 35 37 41 42 46 ,1 9 12 16 22 35 37 41 42 46 
1 9 12 16 22 35 37 41 42 46 ,1 9 12 16 22 35 37 41 42 46 
1 9 12 16 22 35 37 41 46 ,1 9 12 16 22 35 37 41 42 46 
1 9 12 16 22 35 37 41 46 ,1 9 12 16 22 35 37 41 46 
1 9 12 16 22 35 37 41 46 ,1 9 12 16 22 35 37 41 46 
1 9 12 16 22 35 37 41 46 ,1 9 12 16 22 35 37 41 46 
1 9 12 16 22 35 37 41 46 ,1 9 12 16 22 35 37 41 46 
1 9 16 22 35 37 41 46 ,1 9 12 16 22 35 37 41 46 
1 9 16 22 35 37 41 46 ,1 9 16 22 35 37 41 46 
1 9 16 22 35 37 41 46 50 ,1 9 16 22 35 37 41 46 
1 9 16 22 35 37 41 46 50 ,1 9 16 22 35 37 41 46 50 
1 9 16 22 35 37 41 46 50 ,1 9 16 22 35 37 41 46 50 
1 9 16 22 35 37 41 46 50 ,1 9 16 22 35 37 41 46 50 
1 9 16 22 35 37 41 46 50 ,1 9 16 22 35 37 41 46 50 
1 9 16 22 35 37 41 46 50 ,1 9 16 22 35 37 41 46 50 
1 9 16 22 35 41 46 50 ,1 9 16 22 35 37 41 46 50 
1 9 16 22 35 41 46 50 ,1 9 16 22 35 41 46 50 
1 9 16 22 35 41 46 50 ,1 9 16 22 35 41 46 50 
1 9 16 22 35 41 46 50 ,1 9 16 22 35 41 46 50 
1 4 9 16 22 35 41 46 50 ,1 9 16 22 35 41 46 50 
1 4 9 16 22 35 41 46 50 ,1 4 9 16 22 35 41 46 50 
1 4 9 16 22 35 41 46 50 ,1 4 9 16 22 35 41 46 50 
1 4 16 22 35 41 46 50 ,1 4 9 16 22 35 41 46 50 
1 4 16 22 41 46 50 ,1 4 16 22 35 41 46 50 
1 4 16 22 41 46 50 ,1 4 16 22 41 46 50 
1 4 22 41 46 50 ,1 4 16 22 41 46 50 
1 4 41 46 50 ,1 4 22 41 46 50 
1 4 41 46 50 ,1 4 41 46 50 
1 4 35 41 46 ,1 4 41 46 50 
1 4 35 41 46 ,1 4 35 41 46 
1 4 23 35 41 46 ,1 4 35 41 46 
1 23 35 41 46 ,1 4 23 35 41 46 
1 23 35 41 46 ,1 23 35 41 46 
1 23 35 41 46 ,1 23 35 41 46 
1 23 35 41 46 ,1 23 35 41 46 
1 23 41 46 ,1 23 35 41 46 
1 23 46 ,1 23 41 46 
1 23 ,1 23 46 
1 ,1 23 
1 ,1 
1 ,1 
1 ,1 
1 ,1 
1 ,1 
1 ,1 
1 ,1 
,1 
,
,
,
--------
,
,
,
,
,
12 41 ,
12 ,12 41 
12 ,12 
12 ,12 
,12 
,
,
,
,
,
,
,
,
,
,
,
,
,
,
25 ,
25 ,25 
25 ,25 
24 25 ,25 
24 25 ,24 25 
24 25 ,24 25 
24 25 ,24 25 
19 25 ,24 25 
19 25 ,19 25 
19 25 ,19 25 
19 25 ,19 25 
19 25 ,19 25 
5 19 25 ,19 25 
5 19 25 ,5 19 25 
5 19 25 ,5 19 25 
5 25 ,5 19 25 
5 25 ,5 25 
5 25 ,5 25 
5 25 ,5 25 
5 25 ,5 25 
5 25 36 ,5 25 
5 25 27 36 ,5 25 36 
5 25 27 36 ,5 25 27 36 
5 27 36 ,5 25 27 36 
5 27 36 ,5 27 36 
5 27 36 ,5 27 36 
5 27 36 ,5 27 36 
5 27 36 ,5 27 36 
5 27 36 ,5 27 36 
5 27 36 45 ,5 27 36 
18 27 36 45 ,5 27 36 45 
18 27 36 45 ,18 27 36 45 
18 27 36 41 45 ,18 27 36 45 
18 27 36 41 45 ,18 27 36 41 45 
18 27 36 41 45 ,18 27 36 41 45 
18 27 36 41 45 ,18 27 36 41 45 
18 27 36 41 45 ,18 27 36 41 45 
18 36 41 45 ,18 27 36 41 45 
18 36 41 45 ,18 36 41 45 
18 36 41 45 ,18 36 41 45 
18 36 41 45 ,18 36 41 45 
18 36 41 45 ,18 36 41 45 
18 36 41 45 ,18 36 41 45 
36 41 45 ,18 36 41 45 
36 41 45 ,36 41 45 
12 36 41 45 ,36 41 45 
12 36 41 45 ,12 36 41 45 
12 36 41 45 ,12 36 41 45 
12 36 41 45 ,12 36 41 45 
12 36 41 45 ,12 36 41 45 
12 36 41 45 ,12 36 41 45 
12 41 45 ,12 36 41 45 
12 41 45 ,12 41 45 
12 41 45 ,12 41 45 
12 41 45 ,12 41 45 
12 41 45 ,12 41 45 
12 41 45 ,12 41 45 
12 41 45 ,12 41 45 
12 41 45 ,12 41 45 
12 41 45 ,12 41 45 
12 41 45 ,12 41 45 
12 41 45 ,12 41 45 
12 41 45 ,12 41 45 
12 14 41 45 ,12 41 45 
12 14 41 45 ,12 14 41 45 
12 14 41 45 ,12 14 41 45 
12 14 41 45 ,12 14 41 45 
12 14 41 45 ,12 14 41 45 
12 14 15 41 45 ,12 14 41 45 
12 14 15 41 45 ,12 14 15 41 45 
12 14 15 17 41 ,12 14 15 41 45 
12 14 15 17 41 ,12 14 15 17 41 
12 14 15 17 41 ,12 14 15 17 41 
12 14 15 17 35 41 ,12 14 15 17 41 
12 14 15 17 35 41 ,12 14 15 17 35 41 
9 12 14 15 17 35 41 ,12 14 15 17 35 41 
9 12 14 15 17 35 41 ,9 12 14 15 17 35 41 
9 12 14 15 17 35 41 ,9 12 14 15 17 35 41 
3 9 12 14 15 17 35 41 ,9 12 14 15 17 35 41 
3 9 12 14 15 17 35 41 ,3 9 12 14 15 17 35 41 
3 9 12 14 15 17 22 35 41 ,3 9 12 14 15 17 35 41 
3 9 12 14 15 17 22 35 41 ,3 9 12 14 15 17 22 35 41 
3 9 12 14 17 22 35 41 ,3 9 12 14 15 17 22 35 41 
3 9 12 14 17 22 35 41 ,3 9 12 14 17 22 35 41 
1 3 9 12 14 17 22 35 41 ,3 9 12 14 17 22 35 41 
1 3 9 12 14 17 22 35 41 46 ,1 3 9 12 14 17 22 35 41 
1 3 9 12 14 17 22 35 41 46 ,1 3 9 12 14 17 22 35 41 46 
1 3 9 12 14 17 22 35 41 46 ,1 3 9 12 14 17 22 35 41 46 
1 3 9 12 14 17 22 35 41 46 ,1 3 9 12 14 17 22 35 41 46 
1 3 9 12 14 17 22 35 41 46 ,1 3 9 12 14 17 22 35 41 46 
1 3 9 12 14 17 22 35 41 46 ,1 3 9 12 14 17 22 35 41 46 
1 3 9 12 14 17 22 35 41 46 ,1 3 9 12 14 17 22 35 41 46 
1 3 9 12 14 17 22 35 41 46 ,1 3 9 12 14 17 22 35 41 46 
1 3 9 12 14 22 35 41 46 ,1 3 9 12 14 17 22 35 41 46 
1 3 9 12 14 22 35 41 46 ,1 3 9 12 14 22 35 41 46 
1 3 9 12 14 22 35 41 46 ,1 3 9 12 14 22 35 41 46 
1 3 9 12 14 22 35 41 46 ,1 3 9 12 14 22 35 41 46 
1 3 9 12 14 22 35 41 46 ,1 3 9 12 14 22 35 41 46 
1 9 12 14 22 35 41 46 ,1 3 9 12 14 22 35 41 46 
1 9 12 14 22 35 41 46 ,1 9 12 14 22 35 41 46 
1 9 12 14 22 23 35 41 46 ,1 9 12 14 22 35 41 46 
1 9 12 14 22 23 35 41 46 ,1 9 12 14 22 23 35 41 46 
1 9 12 22 23 35 41 46 ,1 9 12 14 22 23 35 41 46 
1 9 12 22 23 35 41 46 ,1 9 12 22 23 35 41 46 
1 9 12 22 23 35 41 46 ,1 9 12 22 23 35 41 46 
1 9 12 22 23 35 41 46 ,1 9 12 22 23 35 41 46 
1 9 12 22 23 35 41 46 ,1 9 12 22 23 35 41 46 
1 9 12 22 23 35 41 46 ,1 9 12 22 23 35 41 46 
1 9 12 22 23 35 41 46 ,1 9 12 22 23 35 41 46 
1 9 12 22 23 35 41 46 ,1 9 12 22 23 35 41 46 
1 9 12 22 23 35 41 46 ,1 9 12 22 23 35 41 46 
1 9 12 22 23 35 37 41 46 ,1 9 12 22 23 35 41 46 
1 9 12 22 23 35 37 41 46 ,1 9 12 22 23 35 37 41 46 
1 9 12 14 22 23 35 37 41 46 ,1 9 12 22 23 35 37 41 46 
1 9 12 14 22 23 35 37 41 46 ,1 9 12 14 22 23 35 37 41 46 
1 9 12 14 16 22 35 37 41 46 ,1 9 12 14 22 23 35 37 41 46 
1 9 12 14 16 22 35 37 41 46 ,1 9 12 14 16 22 35 37 41 46 
1 9 12 14 16 22 28 35 37 41 42 46 ,1 9 12 14 16 22 35 37 41 46 
1 9 12 16 22 28 35 37 41 42 46 ,1 9 12 14 16 22 28 35 37 41 42 46 
1 9 12 16 22 28 35 37 41 42 46 ,1 9 12 16 22 28 35 37 41 42 46 
1 9 12 16 22 28 35 37 41 42 46 ,1 9 12 16 22 28 35 37 41 42 46 
1 9 12 16 22 35 37 41 42 46 ,1 9 12 16 22 28 35 37 41 42 46 
1 9 12 16 22 35 37 41 42 46 ,1 9 12 16 22 35 37 41 42 46 
1 9 12 16 22 35 37 41 42 46 ,1 9 12 16 22 35 37 41 42 46 
1 9 12 16 22 35 37 41 42 46 ,1 9 12 16 22 35 37 41 42 46 
1 9 12 16 22 35 37 41 42 46 ,1 9 12 16 22 35 37 41 42 46 
1 9 12 16 22 35 37 41 42 46 ,1 9 12 16 22 35 37 41 42 46 
1 9 12 16 22 35 37 41 42 46 ,1 9 12 16 22 35 37 41 42 46 
1 9 12 16 22 35 37 41 46 ,1 9 12 16 22 35 37 41 42 46 
1 9 12 16 22 35 37 41 46 ,1 9 12 16 22 35 37 41 46 
1 9 12 16 22 35 37 41 46 ,1 9 12 16 22 35 37 41 46 
1 9 12 16 22 35 37 41 46 ,1 9 12 16 22 35 37 41 46 
1 9 12 16 22 35 37 41 46 ,1 9 12 16 22 35 37 41 46 
1 9 16 22 35 37 41 46 ,1 9 12 16 22 35 37 41 46 
1 9 16 22 35 37 41 46 ,1 9 16 22 35 37 41 46 
1 9 16 22 35 37 41 46 50 ,1 9 16 22 35 37 41 46 
1 9 16 22 35 37 41 46 50 ,1 9 16 22 35 37 41 46 50 
1 9 16 22 35 37 41 46 50 ,1 9 16 22 35 37 41 46 50 
1 9 16 22 35 37 41 46 50 ,1 9 16 22 35 37 41 46 50 
1 9 16 22 35 37 41 46 50 ,1 9 16 22 35 37 41 46 50 
1 9 16 22 35 37 41 46 50 ,1 9 16 22 35 37 41 46 50 
1 9 16 22 35 41 46 50 ,1 9 16 22 35 37 41 46 50 
1 9 16 22 35 41 46 50 ,1 9 16 22 35 41 46 50 
1 9 16 22 35 41 46 50 ,1 9 16 22 35 41 46 50 
1 9 16 22 35 41 46 50 ,1 9 16 22 35 41 46 50 
1 4 9 16 22 35 41 46 50 ,1 9 16 22 35 41 46 50 
1 4 9 16 22 35 41 46 50 ,1 4 9 16 22 35 41 46 50 
1 4 9 16 22 35 41 46 50 ,1 4 9 16 22 35 41 46 50 
1 4 16 22 35 41 46 50 ,1 4 9 16 22 35 41 46 50 
1 4 16 22 41 46 50 ,1 4 16 22 35 41 46 50 
1 4 16 22 41 46 50 ,1 4 16 22 41 46 50 
1 4 22 41 46 50 ,1 4 16 22 41 46 50 
1 4 41 46 50 ,1 4 22 41 46 50 
1 4 41 46 50 ,1 4 41 46 50 
1 4 35 41 46 ,1 4 41 46 50 
1 4 35 41 46 ,1 4 35 41 46 
1 4 23 35 41 46 ,1 4 35 41 46 
1 23 35 41 46 ,1 4 23 35 41 46 
1 23 35 41 46 ,1 23 35 41 46 
1 23 35 41 46 ,1 23 35 41 46 
1 23 35 41 46 ,1 23 35 41 46 
1 23 41 46 ,1 23 35 41 46 
1 23 46 ,1 23 41 46 
1 23 ,1 23 46 
1 ,1 23 
1 ,1 
1 ,1 
1 ,1 
1 ,1 
1 ,1 
1 ,1 
1 ,1 
,1 
,
,
,
-------------
-------
1(-1)->3 4 9 12 14 16 17 22 23 28 35 37 41 42 46 50 
3(-1)->1 9 12 14 15 17 22 35 41 46 
4(-1)->1 9 16 22 23 35 41 46 50 
5(-1)->19 25 27 36 45 
9(-1)->1 3 4 12 14 15 16 17 22 23 28 35 37 41 42 46 50 
12(-1)->1 3 9 14 15 16 17 22 23 28 35 36 37 41 42 45 46 
14(-1)->1 3 9 12 15 16 17 22 23 28 35 37 41 42 45 46 
15(-1)->3 9 12 14 17 22 35 41 45 
16(-1)->1 4 9 12 14 22 28 35 37 41 42 46 50 
17(-1)->1 3 9 12 14 15 22 35 41 46 
18(-1)->27 36 41 45 
19(-1)->5 25 
22(-1)->1 3 4 9 12 14 15 16 17 23 28 35 37 41 42 46 50 
23(-1)->1 4 9 12 14 22 35 37 41 46 
24(-1)->25 
25(-1)->5 19 24 27 36 
27(-1)->5 18 25 36 41 45 
28(-1)->1 9 12 14 16 22 35 37 41 42 46 
35(-1)->1 3 4 9 12 14 15 16 17 22 23 28 37 41 42 46 50 
36(-1)->5 12 18 25 27 41 45 
37(-1)->1 9 12 14 16 22 23 28 35 41 42 46 50 
41(-1)->1 3 4 9 12 14 15 16 17 18 22 23 27 28 35 36 37 42 45 46 50 
42(-1)->1 9 12 14 16 22 28 35 37 41 46 
45(-1)->5 12 14 15 18 27 36 41 
46(-1)->1 3 4 9 12 14 16 17 22 23 28 35 37 41 42 50 
50(-1)->1 4 9 16 22 35 37 41 46 
-------
41(-1)->1 3 4 9 12 14 15 16 17 18 22 23 27 28 35 36 37 42 45 46 50 
9(-1)->1 3 4 12 14 15 16 17 22 23 28 35 37 41 42 46 50 
12(-1)->1 3 9 14 15 16 17 22 23 28 35 36 37 41 42 45 46 
22(-1)->1 3 4 9 12 14 15 16 17 23 28 35 37 41 42 46 50 
35(-1)->1 3 4 9 12 14 15 16 17 22 23 28 37 41 42 46 50 
1(-1)->3 4 9 12 14 16 17 22 23 28 35 37 41 42 46 50 
14(-1)->1 3 9 12 15 16 17 22 23 28 35 37 41 42 45 46 
46(-1)->1 3 4 9 12 14 16 17 22 23 28 35 37 41 42 50 
16(-1)->1 4 9 12 14 22 28 35 37 41 42 46 50 
37(-1)->1 9 12 14 16 22 23 28 35 41 42 46 50 
28(-1)->1 9 12 14 16 22 35 37 41 42 46 
42(-1)->1 9 12 14 16 22 28 35 37 41 46 
3(-1)->1 9 12 14 15 17 22 35 41 46 
17(-1)->1 3 9 12 14 15 22 35 41 46 
23(-1)->1 4 9 12 14 22 35 37 41 46 
4(-1)->1 9 16 22 23 35 41 46 50 
15(-1)->3 9 12 14 17 22 35 41 45 
50(-1)->1 4 9 16 22 35 37 41 46 
45(-1)->5 12 14 15 18 27 36 41 
36(-1)->5 12 18 25 27 41 45 
27(-1)->5 18 25 36 41 45 
5(-1)->19 25 27 36 45 
25(-1)->5 19 24 27 36 
18(-1)->27 36 41 45 
19(-1)->5 25 
24(-1)->25 
-------
1 9 12 14 16 22 28 35 37 41 42 46 

-------
42(-1)->1 9 12 14 16 22 28 35 37 41 46 
28(-1)->1 9 12 14 16 22 35 37 41 42 46 
37(-1)->1 9 12 14 16 22 23 28 35 41 42 46 50 
16(-1)->1 4 9 12 14 22 28 35 37 41 42 46 50 
46(-1)->1 3 4 9 12 14 16 17 22 23 28 35 37 41 42 50 
14(-1)->1 3 9 12 15 16 17 22 23 28 35 37 41 42 45 46 
1(-1)->3 4 9 12 14 16 17 22 23 28 35 37 41 42 46 50 
35(-1)->1 3 4 9 12 14 15 16 17 22 23 28 37 41 42 46 50 
22(-1)->1 3 4 9 12 14 15 16 17 23 28 35 37 41 42 46 50 
12(-1)->1 3 9 14 15 16 17 22 23 28 35 36 37 41 42 45 46 
9(-1)->1 3 4 12 14 15 16 17 22 23 28 35 37 41 42 46 50 
41(-1)->1 3 4 9 12 14 15 16 17 18 22 23 27 28 35 36 37 42 45 46 50 
3(-1)->1 9 12 14 15 17 22 35 41 46 
17(-1)->1 3 9 12 14 15 22 35 41 46 
23(-1)->1 4 9 12 14 22 35 37 41 46 
4(-1)->1 9 16 22 23 35 41 46 50 
15(-1)->3 9 12 14 17 22 35 41 45 
50(-1)->1 4 9 16 22 35 37 41 46 
45(-1)->5 12 14 15 18 27 36 41 
36(-1)->5 12 18 25 27 41 45 
27(-1)->5 18 25 36 41 45 
5(-1)->19 25 27 36 45 
25(-1)->5 19 24 27 36 
18(-1)->27 36 41 45 
19(-1)->5 25 
24(-1)->25 
-------
START TIME: 1433732222
-------
1(6)->3 4 9 12 14 16 17 22 23 28 35 37 41 42 46 50 
3(0)->1 9 12 14 15 17 22 35 41 46 
4(1)->1 9 16 22 23 35 41 46 50 
5(3)->19 25 27 36 45 
9(10)->1 3 4 12 14 15 16 17 22 23 28 35 37 41 42 46 50 
12(9)->1 3 9 14 15 16 17 22 23 28 35 36 37 41 42 45 46 
14(5)->1 3 9 12 15 16 17 22 23 28 35 37 41 42 45 46 
15(2)->3 9 12 14 17 22 35 41 45 
16(3)->1 4 9 12 14 22 28 35 37 41 42 46 50 
17(1)->1 3 9 12 14 15 22 35 41 46 
18(3)->27 36 41 45 
19(1)->5 25 
22(8)->1 3 4 9 12 14 15 16 17 23 28 35 37 41 42 46 50 
23(0)->1 4 9 12 14 22 35 37 41 46 
24(1)->25 
25(0)->5 19 24 27 36 
27(2)->5 18 25 36 41 45 
28(1)->1 9 12 14 16 22 35 37 41 42 46 
35(7)->1 3 4 9 12 14 15 16 17 22 23 28 37 41 42 46 50 
36(1)->5 12 18 25 27 41 45 
37(2)->1 9 12 14 16 22 23 28 35 41 42 46 50 
41(11)->1 3 4 9 12 14 15 16 17 18 22 23 27 28 35 36 37 42 45 46 50 
42(0)->1 9 12 14 16 22 28 35 37 41 46 
45(0)->5 12 14 15 18 27 36 41 
46(4)->1 3 4 9 12 14 16 17 22 23 28 35 37 41 42 50 
50(0)->1 4 9 16 22 35 37 41 46 
COUNT: 26
COLORS: 12
12
26
