43=-1,-1,-1
-1=-1,-1,-1
-1=-1,-1,-1
-1=-1,-1,-1
-1=-1,-1,-1
-1=-1,-1,-1
-1=-1,-1,-1
2=-1,-1,-1
-1=-1,-1,-1
-1=2,43,-1
-1=-1,-1,-1
23=-1,-1,-1
-1=-1,-1,-1
-1=-1,-1,-1
-1=-1,-1,-1
-1=-1,-1,-1
2=-1,-1,-1
-1=-1,-1,-1
-1=-1,-1,-1
-1=-1,-1,-1
-1=-1,-1,-1
-1=-1,-1,-1
12=-1,-1,-1
-1=-1,-1,-1
-1=-1,-1,-1
-1=-1,-1,-1
-1=-1,-1,-1
-1=-1,-1,-1
-1=-1,-1,-1
-1=-1,-1,-1
42=-1,-1,-1
-1=-1,-1,-1
-1=-1,-1,-1
-1=12,-1,-1
-1=-1,-1,-1
-1=-1,-1,-1
17=-1,-1,-1
-1=-1,-1,-1
-1=-1,-1,-1
-1=-1,-1,-1
-1=-1,-1,-1
-1=-1,-1,-1
-1=17,-1,-1
-1=2,-1,-1
-1=-1,-1,-1
-1=-1,-1,-1
-1=-1,-1,-1
-1=-1,-1,-1
-1=-1,-1,-1
13=42,-1,-1
-1=-1,-1,-1
-1=-1,-1,-1
-1=-1,-1,-1
-1=-1,-1,-1
-1=-1,-1,-1
-1=-1,-1,-1
-1=-1,-1,-1
-1=13,-1,-1
-1=-1,-1,-1
-1=-1,-1,-1
-1=-1,-1,-1
-1=-1,-1,-1
-1=-1,-1,-1
3=-1,-1,-1
-1=-1,-1,-1
-1=-1,-1,-1
-1=-1,-1,-1
-1=-1,-1,-1
-1=-1,-1,-1
-1=-1,-1,-1
-1=-1,-1,-1
-1=-1,-1,-1
-1=-1,-1,-1
-1=-1,-1,-1
-1=-1,-1,-1
-1=-1,-1,-1
-1=-1,-1,-1
-1=-1,-1,-1
-1=-1,-1,-1
-1=-1,-1,-1
-1=-1,-1,-1
-1=-1,-1,-1
40=-1,-1,-1
-1=-1,-1,-1
-1=-1,-1,-1
-1=-1,-1,-1
-1=23,-1,-1
-1=-1,-1,-1
-1=-1,-1,-1
-1=-1,-1,-1
44=-1,-1,-1
-1=-1,-1,-1
-1=-1,-1,-1
-1=-1,-1,-1
-1=-1,-1,-1
-1=-1,-1,-1
-1=-1,-1,-1
-1=-1,-1,-1
-1=-1,-1,-1
-1=-1,-1,-1
-1=-1,-1,-1
12=-1,-1,-1
-1=-1,-1,-1
-1=-1,-1,-1
-1=40,-1,-1
-1=-1,-1,-1
-1=-1,-1,-1
-1=44,-1,-1
-1=-1,-1,-1
-1=-1,-1,-1
-1=-1,-1,-1
1=-1,-1,-1
38=-1,-1,-1
-1=-1,-1,-1
32=-1,-1,-1
-1=-1,-1,-1
8=-1,-1,-1
-1=-1,-1,-1
-1=-1,-1,-1
-1=-1,-1,-1
-1=-1,-1,-1
-1=-1,-1,-1
-1=3,-1,-1
-1=-1,-1,-1
20=-1,-1,-1
-1=-1,-1,-1
-1=1,-1,-1
45=-1,-1,-1
-1=-1,-1,-1
-1=12,-1,-1
-1=-1,-1,-1
-1=-1,-1,-1
1=-1,-1,-1
36=-1,-1,-1
36=36,-1,-1
-1=-1,-1,-1
-1=-1,-1,-1
-1=-1,-1,-1
-1=-1,-1,-1
-1=-1,-1,-1
-1=-1,-1,-1
-1=8,-1,-1
-1=-1,-1,-1
-1=-1,-1,-1
-1=-1,-1,-1
-1=1,-1,-1
-1=38,-1,-1
15=-1,-1,-1
-1=45,-1,-1
-1=15,32,-1
-1=-1,-1,-1
-1=-1,-1,-1
-1=-1,-1,-1
-1=-1,-1,-1
-1=36,-1,-1
-1=-1,-1,-1
-1=-1,-1,-1
44=20,-1,-1
41=-1,-1,-1
-1=-1,-1,-1
-1=-1,-1,-1
-1=-1,-1,-1
-1=-1,-1,-1
-1=-1,-1,-1
-1=-1,-1,-1
-1=-1,-1,-1
-1=-1,-1,-1
-1=-1,-1,-1
-1=-1,-1,-1
-1=-1,-1,-1
-1=41,-1,-1
-1=-1,-1,-1
34=-1,-1,-1
-1=-1,-1,-1
-1=-1,-1,-1
-1=-1,-1,-1
-1=44,-1,-1
-1=34,-1,-1
11=-1,-1,-1
-1=-1,-1,-1
-1=-1,-1,-1
-1=-1,-1,-1
-1=-1,-1,-1
-1=-1,-1,-1
-1=-1,-1,-1
-1=-1,-1,-1
-1=-1,-1,-1
-1=11,-1,-1
-1=-1,-1,-1
-1=-1,-1,-1
-1=-1,-1,-1
-1=-1,-1,-1
-1=-1,-1,-1
-1=-1,-1,-1
9=-1,-1,-1
-1=-1,-1,-1
-1=9,-1,-1
-1=-1,-1,-1
-1=-1,-1,-1
-1=-1,-1,-1
--------
,
,
,
9 ,
9 ,9 
,9 
,
,
,
,
,
,
11 ,
11 ,11 
11 ,11 
11 ,11 
11 ,11 
11 ,11 
11 ,11 
11 ,11 
11 ,11 
,11 
34 ,
34 44 ,34 
34 44 ,34 44 
34 44 ,34 44 
34 44 ,34 44 
44 ,34 44 
44 ,44 
41 44 ,44 
41 44 ,41 44 
41 44 ,41 44 
41 44 ,41 44 
41 44 ,41 44 
41 44 ,41 44 
41 44 ,41 44 
41 44 ,41 44 
41 44 ,41 44 
41 44 ,41 44 
41 44 ,41 44 
41 44 ,41 44 
44 ,41 44 
20 ,44 
20 ,20 
20 ,20 
20 36 ,20 
20 36 ,20 36 
20 36 ,20 36 
20 36 ,20 36 
20 36 ,20 36 
15 20 32 36 ,20 36 
15 20 32 36 45 ,15 20 32 36 
20 32 36 45 ,15 20 32 36 45 
20 32 36 38 45 ,20 32 36 45 
1 20 32 36 38 45 ,20 32 36 38 45 
1 20 32 36 38 45 ,1 20 32 36 38 45 
1 20 32 36 38 45 ,1 20 32 36 38 45 
1 20 32 36 38 45 ,1 20 32 36 38 45 
1 8 20 32 36 38 45 ,1 20 32 36 38 45 
1 8 20 32 36 38 45 ,1 8 20 32 36 38 45 
1 8 20 32 36 38 45 ,1 8 20 32 36 38 45 
1 8 20 32 36 38 45 ,1 8 20 32 36 38 45 
1 8 20 32 36 38 45 ,1 8 20 32 36 38 45 
1 8 20 32 36 38 45 ,1 8 20 32 36 38 45 
1 8 20 32 36 38 45 ,1 8 20 32 36 38 45 
1 8 20 32 36 38 45 ,1 8 20 32 36 38 45 
1 8 20 32 38 45 ,1 8 20 32 36 38 45 
8 20 32 38 45 ,1 8 20 32 38 45 
8 20 32 38 45 ,8 20 32 38 45 
8 20 32 38 45 ,8 20 32 38 45 
8 12 20 32 38 45 ,8 20 32 38 45 
8 12 20 32 38 45 ,8 12 20 32 38 45 
8 12 20 32 38 ,8 12 20 32 38 45 
1 8 12 20 32 38 ,8 12 20 32 38 
1 8 12 20 32 38 ,1 8 12 20 32 38 
1 8 12 32 38 ,1 8 12 20 32 38 
1 8 12 32 38 ,1 8 12 32 38 
1 3 8 12 32 38 ,1 8 12 32 38 
1 3 8 12 32 38 ,1 3 8 12 32 38 
1 3 8 12 32 38 ,1 3 8 12 32 38 
1 3 8 12 32 38 ,1 3 8 12 32 38 
1 3 8 12 32 38 ,1 3 8 12 32 38 
1 3 8 12 32 38 ,1 3 8 12 32 38 
1 3 12 32 38 ,1 3 8 12 32 38 
1 3 12 32 38 ,1 3 12 32 38 
1 3 12 38 ,1 3 12 32 38 
1 3 12 38 ,1 3 12 38 
1 3 12 ,1 3 12 38 
3 12 ,1 3 12 
3 12 ,3 12 
3 12 ,3 12 
3 12 ,3 12 
3 12 44 ,3 12 
3 12 44 ,3 12 44 
3 12 44 ,3 12 44 
3 12 40 44 ,3 12 44 
3 12 40 44 ,3 12 40 44 
3 12 40 44 ,3 12 40 44 
3 40 44 ,3 12 40 44 
3 40 44 ,3 40 44 
3 40 44 ,3 40 44 
3 40 44 ,3 40 44 
3 40 44 ,3 40 44 
3 40 44 ,3 40 44 
3 40 44 ,3 40 44 
3 40 44 ,3 40 44 
3 40 44 ,3 40 44 
3 40 44 ,3 40 44 
3 40 44 ,3 40 44 
3 40 ,3 40 44 
3 40 ,3 40 
3 40 ,3 40 
3 40 ,3 40 
3 23 40 ,3 40 
3 23 40 ,3 23 40 
3 23 40 ,3 23 40 
3 23 40 ,3 23 40 
3 23 ,3 23 40 
3 23 ,3 23 
3 23 ,3 23 
3 23 ,3 23 
3 23 ,3 23 
3 23 ,3 23 
3 23 ,3 23 
3 23 ,3 23 
3 23 ,3 23 
3 23 ,3 23 
3 23 ,3 23 
3 23 ,3 23 
3 23 ,3 23 
3 23 ,3 23 
3 23 ,3 23 
3 23 ,3 23 
3 23 ,3 23 
3 23 ,3 23 
3 23 ,3 23 
23 ,3 23 
23 ,23 
23 ,23 
23 ,23 
23 ,23 
23 ,23 
13 23 ,23 
13 23 ,13 23 
13 23 ,13 23 
13 23 ,13 23 
13 23 ,13 23 
13 23 ,13 23 
13 23 ,13 23 
13 23 ,13 23 
23 42 ,13 23 
23 42 ,23 42 
23 42 ,23 42 
23 42 ,23 42 
23 42 ,23 42 
23 42 ,23 42 
2 23 42 ,23 42 
2 17 23 42 ,2 23 42 
2 17 23 42 ,2 17 23 42 
2 17 23 42 ,2 17 23 42 
2 17 23 42 ,2 17 23 42 
2 17 23 42 ,2 17 23 42 
2 17 23 42 ,2 17 23 42 
2 23 42 ,2 17 23 42 
2 23 42 ,2 23 42 
2 23 42 ,2 23 42 
2 12 23 42 ,2 23 42 
2 12 23 42 ,2 12 23 42 
2 12 23 42 ,2 12 23 42 
2 12 23 ,2 12 23 42 
2 12 23 ,2 12 23 
2 12 23 ,2 12 23 
2 12 23 ,2 12 23 
2 12 23 ,2 12 23 
2 12 23 ,2 12 23 
2 12 23 ,2 12 23 
2 12 23 ,2 12 23 
2 23 ,2 12 23 
2 23 ,2 23 
2 23 ,2 23 
2 23 ,2 23 
2 23 ,2 23 
2 23 ,2 23 
23 ,2 23 
23 ,23 
23 ,23 
23 ,23 
23 ,23 
,23 
,
2 43 ,
2 43 ,2 43 
43 ,2 43 
43 ,43 
43 ,43 
43 ,43 
43 ,43 
43 ,43 
43 ,43 
,43 
--------
,
,
,
9 ,
9 ,9 
,9 
,
,
,
,
,
,
11 ,
11 ,11 
11 ,11 
11 ,11 
11 ,11 
11 ,11 
11 ,11 
11 ,11 
11 ,11 
,11 
34 ,
34 44 ,34 
34 44 ,34 44 
34 44 ,34 44 
34 44 ,34 44 
44 ,34 44 
44 ,44 
41 44 ,44 
41 44 ,41 44 
41 44 ,41 44 
41 44 ,41 44 
41 44 ,41 44 
41 44 ,41 44 
41 44 ,41 44 
41 44 ,41 44 
41 44 ,41 44 
41 44 ,41 44 
41 44 ,41 44 
41 44 ,41 44 
44 ,41 44 
20 ,44 
20 ,20 
20 ,20 
20 36 ,20 
20 36 ,20 36 
20 36 ,20 36 
20 36 ,20 36 
20 36 ,20 36 
15 20 32 36 ,20 36 
15 20 32 36 45 ,15 20 32 36 
20 32 36 45 ,15 20 32 36 45 
20 32 36 38 45 ,20 32 36 45 
1 20 32 36 38 45 ,20 32 36 38 45 
1 20 32 36 38 45 ,1 20 32 36 38 45 
1 20 32 36 38 45 ,1 20 32 36 38 45 
1 20 32 36 38 45 ,1 20 32 36 38 45 
1 8 20 32 36 38 45 ,1 20 32 36 38 45 
1 8 20 32 36 38 45 ,1 8 20 32 36 38 45 
1 8 20 32 36 38 45 ,1 8 20 32 36 38 45 
1 8 20 32 36 38 45 ,1 8 20 32 36 38 45 
1 8 20 32 36 38 45 ,1 8 20 32 36 38 45 
1 8 20 32 36 38 45 ,1 8 20 32 36 38 45 
1 8 20 32 36 38 45 ,1 8 20 32 36 38 45 
1 8 20 32 36 38 45 ,1 8 20 32 36 38 45 
1 8 20 32 38 45 ,1 8 20 32 36 38 45 
8 20 32 38 45 ,1 8 20 32 38 45 
8 20 32 38 45 ,8 20 32 38 45 
8 20 32 38 45 ,8 20 32 38 45 
8 12 20 32 38 45 ,8 20 32 38 45 
8 12 20 32 38 45 ,8 12 20 32 38 45 
8 12 20 32 38 ,8 12 20 32 38 45 
1 8 12 20 32 38 ,8 12 20 32 38 
1 8 12 20 32 38 ,1 8 12 20 32 38 
1 8 12 32 38 ,1 8 12 20 32 38 
1 8 12 32 38 ,1 8 12 32 38 
1 3 8 12 32 38 ,1 8 12 32 38 
1 3 8 12 32 38 ,1 3 8 12 32 38 
1 3 8 12 32 38 ,1 3 8 12 32 38 
1 3 8 12 32 38 ,1 3 8 12 32 38 
1 3 8 12 32 38 ,1 3 8 12 32 38 
1 3 8 12 32 38 ,1 3 8 12 32 38 
1 3 12 32 38 ,1 3 8 12 32 38 
1 3 12 32 38 ,1 3 12 32 38 
1 3 12 38 ,1 3 12 32 38 
1 3 12 38 ,1 3 12 38 
1 3 12 ,1 3 12 38 
3 12 ,1 3 12 
3 12 ,3 12 
3 12 ,3 12 
3 12 ,3 12 
3 12 44 ,3 12 
3 12 44 ,3 12 44 
3 12 44 ,3 12 44 
3 12 40 44 ,3 12 44 
3 12 40 44 ,3 12 40 44 
3 12 40 44 ,3 12 40 44 
3 40 44 ,3 12 40 44 
3 40 44 ,3 40 44 
3 40 44 ,3 40 44 
3 40 44 ,3 40 44 
3 40 44 ,3 40 44 
3 40 44 ,3 40 44 
3 40 44 ,3 40 44 
3 40 44 ,3 40 44 
3 40 44 ,3 40 44 
3 40 44 ,3 40 44 
3 40 44 ,3 40 44 
3 40 ,3 40 44 
3 40 ,3 40 
3 40 ,3 40 
3 40 ,3 40 
3 23 40 ,3 40 
3 23 40 ,3 23 40 
3 23 40 ,3 23 40 
3 23 40 ,3 23 40 
3 23 ,3 23 40 
3 23 ,3 23 
3 23 ,3 23 
3 23 ,3 23 
3 23 ,3 23 
3 23 ,3 23 
3 23 ,3 23 
3 23 ,3 23 
3 23 ,3 23 
3 23 ,3 23 
3 23 ,3 23 
3 23 ,3 23 
3 23 ,3 23 
3 23 ,3 23 
3 23 ,3 23 
3 23 ,3 23 
3 23 ,3 23 
3 23 ,3 23 
3 23 ,3 23 
23 ,3 23 
23 ,23 
23 ,23 
23 ,23 
23 ,23 
23 ,23 
13 23 ,23 
13 23 ,13 23 
13 23 ,13 23 
13 23 ,13 23 
13 23 ,13 23 
13 23 ,13 23 
13 23 ,13 23 
13 23 ,13 23 
23 42 ,13 23 
23 42 ,23 42 
23 42 ,23 42 
23 42 ,23 42 
23 42 ,23 42 
23 42 ,23 42 
2 23 42 ,23 42 
2 17 23 42 ,2 23 42 
2 17 23 42 ,2 17 23 42 
2 17 23 42 ,2 17 23 42 
2 17 23 42 ,2 17 23 42 
2 17 23 42 ,2 17 23 42 
2 17 23 42 ,2 17 23 42 
2 23 42 ,2 17 23 42 
2 23 42 ,2 23 42 
2 23 42 ,2 23 42 
2 12 23 42 ,2 23 42 
2 12 23 42 ,2 12 23 42 
2 12 23 42 ,2 12 23 42 
2 12 23 ,2 12 23 42 
2 12 23 ,2 12 23 
2 12 23 ,2 12 23 
2 12 23 ,2 12 23 
2 12 23 ,2 12 23 
2 12 23 ,2 12 23 
2 12 23 ,2 12 23 
2 12 23 ,2 12 23 
2 23 ,2 12 23 
2 23 ,2 23 
2 23 ,2 23 
2 23 ,2 23 
2 23 ,2 23 
2 23 ,2 23 
23 ,2 23 
23 ,23 
23 ,23 
23 ,23 
23 ,23 
,23 
,
2 43 ,
2 43 ,2 43 
43 ,2 43 
43 ,43 
43 ,43 
43 ,43 
43 ,43 
43 ,43 
43 ,43 
,43 
-------------
-------
1(-1)->3 8 12 20 32 36 38 45 
2(-1)->12 17 23 42 43 
3(-1)->1 8 12 23 32 38 40 44 
8(-1)->1 3 12 20 32 36 38 45 
9(-1)->
11(-1)->
12(-1)->1 2 3 8 20 23 32 38 40 42 44 45 
13(-1)->23 
15(-1)->20 32 36 45 
17(-1)->2 23 42 
20(-1)->1 8 12 15 32 36 38 45 
23(-1)->2 3 12 13 17 40 42 
32(-1)->1 3 8 12 15 20 36 38 45 
34(-1)->44 
36(-1)->1 8 15 20 32 38 45 
38(-1)->1 3 8 12 20 32 36 45 
40(-1)->3 12 23 44 
41(-1)->44 
42(-1)->2 12 17 23 
43(-1)->2 
44(-1)->3 12 34 40 41 
45(-1)->1 8 12 15 20 32 36 38 
-------
12(-1)->1 2 3 8 20 23 32 38 40 42 44 45 
32(-1)->1 3 8 12 15 20 36 38 45 
1(-1)->3 8 12 20 32 36 38 45 
3(-1)->1 8 12 23 32 38 40 44 
8(-1)->1 3 12 20 32 36 38 45 
20(-1)->1 8 12 15 32 36 38 45 
38(-1)->1 3 8 12 20 32 36 45 
45(-1)->1 8 12 15 20 32 36 38 
23(-1)->2 3 12 13 17 40 42 
36(-1)->1 8 15 20 32 38 45 
2(-1)->12 17 23 42 43 
44(-1)->3 12 34 40 41 
15(-1)->20 32 36 45 
40(-1)->3 12 23 44 
42(-1)->2 12 17 23 
17(-1)->2 23 42 
13(-1)->23 
34(-1)->44 
41(-1)->44 
43(-1)->2 
9(-1)->
11(-1)->
-------
1 3 8 12 32 38 

9 

11 

****************
****************
38(-1)->1 3 8 12 20 32 36 45 
8(-1)->1 3 12 20 32 36 38 45 
3(-1)->1 8 12 23 32 38 40 44 
1(-1)->3 8 12 20 32 36 38 45 
32(-1)->1 3 8 12 15 20 36 38 45 
12(-1)->1 2 3 8 20 23 32 38 40 42 44 45 
20(-1)->1 8 12 15 32 36 38 45 
45(-1)->1 8 12 15 20 32 36 38 
23(-1)->2 3 12 13 17 40 42 
36(-1)->1 8 15 20 32 38 45 
2(-1)->12 17 23 42 43 
44(-1)->3 12 34 40 41 
15(-1)->20 32 36 45 
40(-1)->3 12 23 44 
42(-1)->2 12 17 23 
17(-1)->2 23 42 
13(-1)->23 
34(-1)->44 
41(-1)->44 
43(-1)->2 
****************
9(-1)->
****************
11(-1)->
START TIME: 1433732203
START TIME: 1433732203
START TIME: 1433732203
1(3)->3 8 12 20 32 36 38 45 
2(1)->12 17 23 42 43 
3(2)->1 8 12 23 32 38 40 44 
8(1)->1 3 12 20 32 36 38 45 
9(0)->
11(0)->
12(5)->1 2 3 8 20 23 32 38 40 42 44 45 
13(1)->23 
15(0)->20 32 36 45 
17(3)->2 23 42 
20(2)->1 8 12 15 32 36 38 45 
23(0)->2 3 12 13 17 40 42 
32(4)->1 3 8 12 15 20 36 38 45 
34(1)->44 
36(5)->1 8 15 20 32 38 45 
38(0)->1 3 8 12 20 32 36 45 
40(1)->3 12 23 44 
41(1)->44 
42(2)->2 12 17 23 
43(0)->2 
44(0)->3 12 34 40 41 
45(6)->1 8 12 15 20 32 36 38 
COUNT: 22
COLORS: 7
EDGES: 0
7
22
