36=-1,-1,-1
-1=-1,-1,-1
-1=-1,-1,-1
-1=-1,-1,-1
-1=-1,-1,-1
-1=-1,-1,-1
-1=-1,-1,-1
-1=-1,-1,-1
-1=-1,-1,-1
-1=-1,-1,-1
-1=-1,-1,-1
12=-1,-1,-1
-1=-1,-1,-1
-1=-1,-1,-1
-1=-1,-1,-1
-1=-1,-1,-1
-1=-1,-1,-1
28=-1,-1,-1
-1=-1,-1,-1
33=-1,-1,-1
17=-1,-1,-1
11=-1,-1,-1
-1=-1,-1,-1
-1=17,-1,-1
-1=-1,-1,-1
-1=-1,-1,-1
-1=-1,-1,-1
-1=-1,-1,-1
-1=-1,-1,-1
30=-1,-1,-1
-1=-1,-1,-1
5=-1,-1,-1
-1=-1,-1,-1
-1=-1,-1,-1
23=-1,-1,-1
40=-1,-1,-1
-1=-1,-1,-1
41=-1,-1,-1
15=-1,-1,-1
38=-1,-1,-1
27=-1,-1,-1
25=-1,-1,-1
-1=12,-1,-1
-1=-1,-1,-1
-1=-1,-1,-1
-1=36,-1,-1
-1=-1,-1,-1
-1=-1,-1,-1
24=-1,-1,-1
44=28,-1,-1
-1=-1,-1,-1
8=33,-1,-1
-1=15,-1,-1
-1=-1,-1,-1
36=-1,-1,-1
-1=-1,-1,-1
-1=8,-1,-1
-1=-1,-1,-1
-1=-1,-1,-1
-1=30,-1,-1
-1=-1,-1,-1
-1=-1,-1,-1
32=11,-1,-1
-1=-1,-1,-1
-1=-1,-1,-1
-1=-1,-1,-1
16=-1,-1,-1
-1=36,-1,-1
-1=-1,-1,-1
-1=41,-1,-1
-1=-1,-1,-1
-1=-1,-1,-1
-1=-1,-1,-1
8=-1,-1,-1
12=-1,-1,-1
-1=-1,-1,-1
-1=-1,-1,-1
31=-1,-1,-1
-1=-1,-1,-1
-1=24,25,-1
-1=-1,-1,-1
-1=-1,-1,-1
-1=-1,-1,-1
-1=-1,-1,-1
-1=-1,-1,-1
-1=-1,-1,-1
-1=-1,-1,-1
-1=-1,-1,-1
-1=27,-1,-1
-1=-1,-1,-1
-1=-1,-1,-1
-1=-1,-1,-1
-1=-1,-1,-1
-1=44,-1,-1
-1=-1,-1,-1
-1=-1,-1,-1
47=12,-1,-1
-1=-1,-1,-1
-1=-1,-1,-1
-1=-1,-1,-1
11=32,-1,-1
-1=-1,-1,-1
13=-1,-1,-1
-1=-1,-1,-1
-1=-1,-1,-1
-1=-1,-1,-1
-1=-1,-1,-1
-1=-1,-1,-1
-1=11,-1,-1
-1=-1,-1,-1
12=-1,-1,-1
37=-1,-1,-1
34=-1,-1,-1
33=-1,-1,-1
-1=-1,-1,-1
-1=40,-1,-1
-1=-1,-1,-1
-1=-1,-1,-1
-1=-1,-1,-1
21=16,-1,-1
-1=37,-1,-1
-1=-1,-1,-1
-1=-1,-1,-1
-1=5,-1,-1
35=23,-1,-1
-1=21,35,-1
-1=-1,-1,-1
44=-1,-1,-1
-1=13,-1,-1
-1=-1,-1,-1
-1=8,31,-1
-1=-1,-1,-1
-1=44,-1,-1
40=-1,-1,-1
-1=-1,-1,-1
19=-1,-1,-1
-1=47,-1,-1
23=-1,-1,-1
-1=-1,-1,-1
-1=-1,-1,-1
-1=12,-1,-1
-1=40,-1,-1
-1=-1,-1,-1
35=-1,-1,-1
-1=-1,-1,-1
50=-1,-1,-1
50=50,-1,-1
-1=23,-1,-1
-1=-1,-1,-1
-1=33,-1,-1
-1=-1,-1,-1
-1=-1,-1,-1
-1=35,-1,-1
-1=38,-1,-1
7=-1,-1,-1
-1=-1,-1,-1
-1=-1,-1,-1
-1=-1,-1,-1
-1=50,-1,-1
-1=-1,-1,-1
-1=-1,-1,-1
-1=19,-1,-1
-1=-1,-1,-1
22=-1,-1,-1
-1=-1,-1,-1
-1=-1,-1,-1
-1=-1,-1,-1
-1=-1,-1,-1
-1=-1,-1,-1
-1=-1,-1,-1
2=-1,-1,-1
-1=-1,-1,-1
-1=-1,-1,-1
-1=2,7,-1
-1=22,-1,-1
12=-1,-1,-1
13=-1,-1,-1
-1=34,-1,-1
5=-1,-1,-1
-1=-1,-1,-1
-1=5,-1,-1
34=-1,-1,-1
-1=-1,-1,-1
-1=12,-1,-1
-1=-1,-1,-1
-1=34,-1,-1
38=-1,-1,-1
-1=13,38,-1
-1=-1,-1,-1
19=-1,-1,-1
-1=19,-1,-1
-1=-1,-1,-1
-1=-1,-1,-1
-1=-1,-1,-1
-1=-1,-1,-1
-1=-1,-1,-1
-1=-1,-1,-1
-1=-1,-1,-1
-1=-1,-1,-1
-1=-1,-1,-1
--------
,
,
,
,
,
,
,
,
,
19 ,
,19 
,
13 38 ,
13 ,13 38 
13 34 ,13 
13 34 ,13 34 
12 13 34 ,13 34 
12 13 34 ,12 13 34 
12 13 ,12 13 34 
5 12 13 ,12 13 
5 12 13 ,5 12 13 
12 13 ,5 12 13 
12 13 34 ,12 13 
12 34 ,12 13 34 
34 ,12 34 
22 34 ,34 
2 7 22 34 ,22 34 
2 7 22 34 ,2 7 22 34 
2 7 22 34 ,2 7 22 34 
7 22 34 ,2 7 22 34 
7 22 34 ,7 22 34 
7 22 34 ,7 22 34 
7 22 34 ,7 22 34 
7 22 34 ,7 22 34 
7 22 34 ,7 22 34 
7 22 34 ,7 22 34 
7 34 ,7 22 34 
7 34 ,7 34 
7 19 34 ,7 34 
7 19 34 ,7 19 34 
7 19 34 ,7 19 34 
7 19 34 50 ,7 19 34 
7 19 34 50 ,7 19 34 50 
7 19 34 50 ,7 19 34 50 
7 19 34 50 ,7 19 34 50 
19 34 50 ,7 19 34 50 
19 34 38 50 ,19 34 50 
19 34 35 38 50 ,19 34 38 50 
19 34 35 38 50 ,19 34 35 38 50 
19 34 35 38 50 ,19 34 35 38 50 
19 33 34 35 38 50 ,19 34 35 38 50 
19 33 34 35 38 50 ,19 33 34 35 38 50 
19 23 33 34 35 38 50 ,19 33 34 35 38 50 
19 23 33 34 35 38 50 ,19 23 33 34 35 38 50 
19 23 33 34 35 38 ,19 23 33 34 35 38 50 
19 23 33 34 35 38 ,19 23 33 34 35 38 
19 23 33 34 38 ,19 23 33 34 35 38 
19 23 33 34 38 ,19 23 33 34 38 
19 23 33 34 38 40 ,19 23 33 34 38 
12 19 23 33 34 38 40 ,19 23 33 34 38 40 
12 19 23 33 34 38 40 ,12 19 23 33 34 38 40 
12 19 23 33 34 38 40 ,12 19 23 33 34 38 40 
12 19 33 34 38 40 ,12 19 23 33 34 38 40 
12 19 33 34 38 40 47 ,12 19 33 34 38 40 
12 33 34 38 40 47 ,12 19 33 34 38 40 47 
12 33 34 38 40 47 ,12 33 34 38 40 47 
12 33 34 38 47 ,12 33 34 38 40 47 
12 33 34 38 44 47 ,12 33 34 38 47 
12 33 34 38 44 47 ,12 33 34 38 44 47 
8 12 31 33 34 38 44 47 ,12 33 34 38 44 47 
8 12 31 33 34 38 44 47 ,8 12 31 33 34 38 44 47 
8 12 13 31 33 34 38 44 47 ,8 12 31 33 34 38 44 47 
8 12 13 31 33 34 38 47 ,8 12 13 31 33 34 38 44 47 
8 12 13 31 33 34 38 47 ,8 12 13 31 33 34 38 47 
8 12 13 21 31 33 34 35 38 47 ,8 12 13 31 33 34 38 47 
8 12 13 21 23 31 33 34 38 47 ,8 12 13 21 31 33 34 35 38 47 
5 8 12 13 21 23 31 33 34 38 47 ,8 12 13 21 23 31 33 34 38 47 
5 8 12 13 21 23 31 33 34 38 47 ,5 8 12 13 21 23 31 33 34 38 47 
5 8 12 13 21 23 31 33 34 38 47 ,5 8 12 13 21 23 31 33 34 38 47 
5 8 12 13 21 23 31 33 34 37 38 47 ,5 8 12 13 21 23 31 33 34 38 47 
5 8 12 13 16 23 31 33 34 37 38 47 ,5 8 12 13 21 23 31 33 34 37 38 47 
5 8 12 13 16 23 31 33 34 37 38 47 ,5 8 12 13 16 23 31 33 34 37 38 47 
5 8 12 13 16 23 31 33 34 37 38 47 ,5 8 12 13 16 23 31 33 34 37 38 47 
5 8 12 13 16 23 31 33 34 37 38 47 ,5 8 12 13 16 23 31 33 34 37 38 47 
5 8 12 13 16 23 31 33 34 37 38 40 47 ,5 8 12 13 16 23 31 33 34 37 38 47 
5 8 12 13 16 23 31 33 34 37 38 40 47 ,5 8 12 13 16 23 31 33 34 37 38 40 47 
5 8 12 13 16 23 31 34 37 38 40 47 ,5 8 12 13 16 23 31 33 34 37 38 40 47 
5 8 12 13 16 23 31 37 38 40 47 ,5 8 12 13 16 23 31 34 37 38 40 47 
5 8 12 13 16 23 31 38 40 47 ,5 8 12 13 16 23 31 37 38 40 47 
5 8 13 16 23 31 38 40 47 ,5 8 12 13 16 23 31 38 40 47 
5 8 13 16 23 31 38 40 47 ,5 8 13 16 23 31 38 40 47 
5 8 11 13 16 23 31 38 40 47 ,5 8 13 16 23 31 38 40 47 
5 8 11 13 16 23 31 38 40 47 ,5 8 11 13 16 23 31 38 40 47 
5 8 11 13 16 23 31 38 40 47 ,5 8 11 13 16 23 31 38 40 47 
5 8 11 13 16 23 31 38 40 47 ,5 8 11 13 16 23 31 38 40 47 
5 8 11 13 16 23 31 38 40 47 ,5 8 11 13 16 23 31 38 40 47 
5 8 11 13 16 23 31 38 40 47 ,5 8 11 13 16 23 31 38 40 47 
5 8 11 16 23 31 38 40 47 ,5 8 11 13 16 23 31 38 40 47 
5 8 11 16 23 31 38 40 47 ,5 8 11 16 23 31 38 40 47 
5 8 16 23 31 32 38 40 47 ,5 8 11 16 23 31 38 40 47 
5 8 16 23 31 32 38 40 47 ,5 8 16 23 31 32 38 40 47 
5 8 16 23 31 32 38 40 47 ,5 8 16 23 31 32 38 40 47 
5 8 16 23 31 32 38 40 47 ,5 8 16 23 31 32 38 40 47 
5 8 12 16 23 31 32 38 40 ,5 8 16 23 31 32 38 40 47 
5 8 12 16 23 31 32 38 40 ,5 8 12 16 23 31 32 38 40 
5 8 12 16 23 31 32 38 40 ,5 8 12 16 23 31 32 38 40 
5 8 12 16 23 31 32 38 40 44 ,5 8 12 16 23 31 32 38 40 
5 8 12 16 23 31 32 38 40 44 ,5 8 12 16 23 31 32 38 40 44 
5 8 12 16 23 31 32 38 40 44 ,5 8 12 16 23 31 32 38 40 44 
5 8 12 16 23 31 32 38 40 44 ,5 8 12 16 23 31 32 38 40 44 
5 8 12 16 23 31 32 38 40 44 ,5 8 12 16 23 31 32 38 40 44 
5 8 12 16 23 27 31 32 38 40 44 ,5 8 12 16 23 31 32 38 40 44 
5 8 12 16 23 27 31 32 38 40 44 ,5 8 12 16 23 27 31 32 38 40 44 
5 8 12 16 23 27 31 32 38 40 44 ,5 8 12 16 23 27 31 32 38 40 44 
5 8 12 16 23 27 31 32 38 40 44 ,5 8 12 16 23 27 31 32 38 40 44 
5 8 12 16 23 27 31 32 38 40 44 ,5 8 12 16 23 27 31 32 38 40 44 
5 8 12 16 23 27 31 32 38 40 44 ,5 8 12 16 23 27 31 32 38 40 44 
5 8 12 16 23 27 31 32 38 40 44 ,5 8 12 16 23 27 31 32 38 40 44 
5 8 12 16 23 27 31 32 38 40 44 ,5 8 12 16 23 27 31 32 38 40 44 
5 8 12 16 23 27 31 32 38 40 44 ,5 8 12 16 23 27 31 32 38 40 44 
5 8 12 16 23 24 25 27 31 32 38 40 44 ,5 8 12 16 23 27 31 32 38 40 44 
5 8 12 16 23 24 25 27 31 32 38 40 44 ,5 8 12 16 23 24 25 27 31 32 38 40 44 
5 8 12 16 23 24 25 27 32 38 40 44 ,5 8 12 16 23 24 25 27 31 32 38 40 44 
5 8 12 16 23 24 25 27 32 38 40 44 ,5 8 12 16 23 24 25 27 32 38 40 44 
5 8 12 16 23 24 25 27 32 38 40 44 ,5 8 12 16 23 24 25 27 32 38 40 44 
5 8 16 23 24 25 27 32 38 40 44 ,5 8 12 16 23 24 25 27 32 38 40 44 
5 16 23 24 25 27 32 38 40 44 ,5 8 16 23 24 25 27 32 38 40 44 
5 16 23 24 25 27 32 38 40 44 ,5 16 23 24 25 27 32 38 40 44 
5 16 23 24 25 27 32 38 40 44 ,5 16 23 24 25 27 32 38 40 44 
5 16 23 24 25 27 32 38 40 44 ,5 16 23 24 25 27 32 38 40 44 
5 16 23 24 25 27 32 38 40 41 44 ,5 16 23 24 25 27 32 38 40 44 
5 16 23 24 25 27 32 38 40 41 44 ,5 16 23 24 25 27 32 38 40 41 44 
5 16 23 24 25 27 32 36 38 40 41 44 ,5 16 23 24 25 27 32 38 40 41 44 
5 23 24 25 27 32 36 38 40 41 44 ,5 16 23 24 25 27 32 36 38 40 41 44 
5 23 24 25 27 32 36 38 40 41 44 ,5 23 24 25 27 32 36 38 40 41 44 
5 23 24 25 27 32 36 38 40 41 44 ,5 23 24 25 27 32 36 38 40 41 44 
5 23 24 25 27 32 36 38 40 41 44 ,5 23 24 25 27 32 36 38 40 41 44 
5 11 23 24 25 27 36 38 40 41 44 ,5 23 24 25 27 32 36 38 40 41 44 
5 11 23 24 25 27 36 38 40 41 44 ,5 11 23 24 25 27 36 38 40 41 44 
5 11 23 24 25 27 36 38 40 41 44 ,5 11 23 24 25 27 36 38 40 41 44 
5 11 23 24 25 27 30 36 38 40 41 44 ,5 11 23 24 25 27 36 38 40 41 44 
5 11 23 24 25 27 30 36 38 40 41 44 ,5 11 23 24 25 27 30 36 38 40 41 44 
5 11 23 24 25 27 30 36 38 40 41 44 ,5 11 23 24 25 27 30 36 38 40 41 44 
5 8 11 23 24 25 27 30 36 38 40 41 44 ,5 11 23 24 25 27 30 36 38 40 41 44 
5 8 11 23 24 25 27 30 36 38 40 41 44 ,5 8 11 23 24 25 27 30 36 38 40 41 44 
5 8 11 23 24 25 27 30 38 40 41 44 ,5 8 11 23 24 25 27 30 36 38 40 41 44 
5 8 11 23 24 25 27 30 38 40 41 44 ,5 8 11 23 24 25 27 30 38 40 41 44 
5 8 11 15 23 24 25 27 30 38 40 41 44 ,5 8 11 23 24 25 27 30 38 40 41 44 
5 11 15 23 24 25 27 30 33 38 40 41 44 ,5 8 11 15 23 24 25 27 30 38 40 41 44 
5 11 15 23 24 25 27 30 33 38 40 41 44 ,5 11 15 23 24 25 27 30 33 38 40 41 44 
5 11 15 23 24 25 27 28 30 33 38 40 41 ,5 11 15 23 24 25 27 30 33 38 40 41 44 
5 11 15 23 25 27 28 30 33 38 40 41 ,5 11 15 23 24 25 27 28 30 33 38 40 41 
5 11 15 23 25 27 28 30 33 38 40 41 ,5 11 15 23 25 27 28 30 33 38 40 41 
5 11 15 23 25 27 28 30 33 38 40 41 ,5 11 15 23 25 27 28 30 33 38 40 41 
5 11 15 23 25 27 28 30 33 36 38 40 41 ,5 11 15 23 25 27 28 30 33 38 40 41 
5 11 15 23 25 27 28 30 33 36 38 40 41 ,5 11 15 23 25 27 28 30 33 36 38 40 41 
5 11 15 23 25 27 28 30 33 36 38 40 41 ,5 11 15 23 25 27 28 30 33 36 38 40 41 
5 11 12 15 23 25 27 28 30 33 36 38 40 41 ,5 11 15 23 25 27 28 30 33 36 38 40 41 
5 11 12 15 23 27 28 30 33 36 38 40 41 ,5 11 12 15 23 25 27 28 30 33 36 38 40 41 
5 11 12 15 23 28 30 33 36 38 40 41 ,5 11 12 15 23 27 28 30 33 36 38 40 41 
5 11 12 15 23 28 30 33 36 40 41 ,5 11 12 15 23 28 30 33 36 38 40 41 
5 11 12 23 28 30 33 36 40 41 ,5 11 12 15 23 28 30 33 36 40 41 
5 11 12 23 28 30 33 36 40 ,5 11 12 23 28 30 33 36 40 41 
5 11 12 23 28 30 33 36 40 ,5 11 12 23 28 30 33 36 40 
5 11 12 23 28 30 33 36 ,5 11 12 23 28 30 33 36 40 
5 11 12 28 30 33 36 ,5 11 12 23 28 30 33 36 
5 11 12 28 30 33 36 ,5 11 12 28 30 33 36 
5 11 12 28 30 33 36 ,5 11 12 28 30 33 36 
11 12 28 30 33 36 ,5 11 12 28 30 33 36 
11 12 28 30 33 36 ,11 12 28 30 33 36 
11 12 28 33 36 ,11 12 28 30 33 36 
11 12 28 33 36 ,11 12 28 33 36 
11 12 28 33 36 ,11 12 28 33 36 
11 12 28 33 36 ,11 12 28 33 36 
11 12 28 33 36 ,11 12 28 33 36 
11 12 28 33 36 ,11 12 28 33 36 
11 12 17 28 33 36 ,11 12 28 33 36 
11 12 17 28 33 36 ,11 12 17 28 33 36 
12 17 28 33 36 ,11 12 17 28 33 36 
12 28 33 36 ,12 17 28 33 36 
12 28 36 ,12 28 33 36 
12 28 36 ,12 28 36 
12 36 ,12 28 36 
12 36 ,12 36 
12 36 ,12 36 
12 36 ,12 36 
12 36 ,12 36 
12 36 ,12 36 
36 ,12 36 
36 ,36 
36 ,36 
36 ,36 
36 ,36 
36 ,36 
36 ,36 
36 ,36 
36 ,36 
36 ,36 
36 ,36 
,36 
--------
,
,
,
,
,
,
,
,
,
19 ,
,19 
,
13 38 ,
13 ,13 38 
13 34 ,13 
13 34 ,13 34 
12 13 34 ,13 34 
12 13 34 ,12 13 34 
12 13 ,12 13 34 
5 12 13 ,12 13 
5 12 13 ,5 12 13 
12 13 ,5 12 13 
12 13 34 ,12 13 
12 34 ,12 13 34 
34 ,12 34 
22 34 ,34 
2 7 22 34 ,22 34 
2 7 22 34 ,2 7 22 34 
2 7 22 34 ,2 7 22 34 
7 22 34 ,2 7 22 34 
7 22 34 ,7 22 34 
7 22 34 ,7 22 34 
7 22 34 ,7 22 34 
7 22 34 ,7 22 34 
7 22 34 ,7 22 34 
7 22 34 ,7 22 34 
7 34 ,7 22 34 
7 34 ,7 34 
7 19 34 ,7 34 
7 19 34 ,7 19 34 
7 19 34 ,7 19 34 
7 19 34 50 ,7 19 34 
7 19 34 50 ,7 19 34 50 
7 19 34 50 ,7 19 34 50 
7 19 34 50 ,7 19 34 50 
19 34 50 ,7 19 34 50 
19 34 38 50 ,19 34 50 
19 34 35 38 50 ,19 34 38 50 
19 34 35 38 50 ,19 34 35 38 50 
19 34 35 38 50 ,19 34 35 38 50 
19 33 34 35 38 50 ,19 34 35 38 50 
19 33 34 35 38 50 ,19 33 34 35 38 50 
19 23 33 34 35 38 50 ,19 33 34 35 38 50 
19 23 33 34 35 38 50 ,19 23 33 34 35 38 50 
19 23 33 34 35 38 ,19 23 33 34 35 38 50 
19 23 33 34 35 38 ,19 23 33 34 35 38 
19 23 33 34 38 ,19 23 33 34 35 38 
19 23 33 34 38 ,19 23 33 34 38 
19 23 33 34 38 40 ,19 23 33 34 38 
12 19 23 33 34 38 40 ,19 23 33 34 38 40 
12 19 23 33 34 38 40 ,12 19 23 33 34 38 40 
12 19 23 33 34 38 40 ,12 19 23 33 34 38 40 
12 19 33 34 38 40 ,12 19 23 33 34 38 40 
12 19 33 34 38 40 47 ,12 19 33 34 38 40 
12 33 34 38 40 47 ,12 19 33 34 38 40 47 
12 33 34 38 40 47 ,12 33 34 38 40 47 
12 33 34 38 47 ,12 33 34 38 40 47 
12 33 34 38 44 47 ,12 33 34 38 47 
12 33 34 38 44 47 ,12 33 34 38 44 47 
8 12 31 33 34 38 44 47 ,12 33 34 38 44 47 
8 12 31 33 34 38 44 47 ,8 12 31 33 34 38 44 47 
8 12 13 31 33 34 38 44 47 ,8 12 31 33 34 38 44 47 
8 12 13 31 33 34 38 47 ,8 12 13 31 33 34 38 44 47 
8 12 13 31 33 34 38 47 ,8 12 13 31 33 34 38 47 
8 12 13 21 31 33 34 35 38 47 ,8 12 13 31 33 34 38 47 
8 12 13 21 23 31 33 34 38 47 ,8 12 13 21 31 33 34 35 38 47 
5 8 12 13 21 23 31 33 34 38 47 ,8 12 13 21 23 31 33 34 38 47 
5 8 12 13 21 23 31 33 34 38 47 ,5 8 12 13 21 23 31 33 34 38 47 
5 8 12 13 21 23 31 33 34 38 47 ,5 8 12 13 21 23 31 33 34 38 47 
5 8 12 13 21 23 31 33 34 37 38 47 ,5 8 12 13 21 23 31 33 34 38 47 
5 8 12 13 16 23 31 33 34 37 38 47 ,5 8 12 13 21 23 31 33 34 37 38 47 
5 8 12 13 16 23 31 33 34 37 38 47 ,5 8 12 13 16 23 31 33 34 37 38 47 
5 8 12 13 16 23 31 33 34 37 38 47 ,5 8 12 13 16 23 31 33 34 37 38 47 
5 8 12 13 16 23 31 33 34 37 38 47 ,5 8 12 13 16 23 31 33 34 37 38 47 
5 8 12 13 16 23 31 33 34 37 38 40 47 ,5 8 12 13 16 23 31 33 34 37 38 47 
5 8 12 13 16 23 31 33 34 37 38 40 47 ,5 8 12 13 16 23 31 33 34 37 38 40 47 
5 8 12 13 16 23 31 34 37 38 40 47 ,5 8 12 13 16 23 31 33 34 37 38 40 47 
5 8 12 13 16 23 31 37 38 40 47 ,5 8 12 13 16 23 31 34 37 38 40 47 
5 8 12 13 16 23 31 38 40 47 ,5 8 12 13 16 23 31 37 38 40 47 
5 8 13 16 23 31 38 40 47 ,5 8 12 13 16 23 31 38 40 47 
5 8 13 16 23 31 38 40 47 ,5 8 13 16 23 31 38 40 47 
5 8 11 13 16 23 31 38 40 47 ,5 8 13 16 23 31 38 40 47 
5 8 11 13 16 23 31 38 40 47 ,5 8 11 13 16 23 31 38 40 47 
5 8 11 13 16 23 31 38 40 47 ,5 8 11 13 16 23 31 38 40 47 
5 8 11 13 16 23 31 38 40 47 ,5 8 11 13 16 23 31 38 40 47 
5 8 11 13 16 23 31 38 40 47 ,5 8 11 13 16 23 31 38 40 47 
5 8 11 13 16 23 31 38 40 47 ,5 8 11 13 16 23 31 38 40 47 
5 8 11 16 23 31 38 40 47 ,5 8 11 13 16 23 31 38 40 47 
5 8 11 16 23 31 38 40 47 ,5 8 11 16 23 31 38 40 47 
5 8 16 23 31 32 38 40 47 ,5 8 11 16 23 31 38 40 47 
5 8 16 23 31 32 38 40 47 ,5 8 16 23 31 32 38 40 47 
5 8 16 23 31 32 38 40 47 ,5 8 16 23 31 32 38 40 47 
5 8 16 23 31 32 38 40 47 ,5 8 16 23 31 32 38 40 47 
5 8 12 16 23 31 32 38 40 ,5 8 16 23 31 32 38 40 47 
5 8 12 16 23 31 32 38 40 ,5 8 12 16 23 31 32 38 40 
5 8 12 16 23 31 32 38 40 ,5 8 12 16 23 31 32 38 40 
5 8 12 16 23 31 32 38 40 44 ,5 8 12 16 23 31 32 38 40 
5 8 12 16 23 31 32 38 40 44 ,5 8 12 16 23 31 32 38 40 44 
5 8 12 16 23 31 32 38 40 44 ,5 8 12 16 23 31 32 38 40 44 
5 8 12 16 23 31 32 38 40 44 ,5 8 12 16 23 31 32 38 40 44 
5 8 12 16 23 31 32 38 40 44 ,5 8 12 16 23 31 32 38 40 44 
5 8 12 16 23 27 31 32 38 40 44 ,5 8 12 16 23 31 32 38 40 44 
5 8 12 16 23 27 31 32 38 40 44 ,5 8 12 16 23 27 31 32 38 40 44 
5 8 12 16 23 27 31 32 38 40 44 ,5 8 12 16 23 27 31 32 38 40 44 
5 8 12 16 23 27 31 32 38 40 44 ,5 8 12 16 23 27 31 32 38 40 44 
5 8 12 16 23 27 31 32 38 40 44 ,5 8 12 16 23 27 31 32 38 40 44 
5 8 12 16 23 27 31 32 38 40 44 ,5 8 12 16 23 27 31 32 38 40 44 
5 8 12 16 23 27 31 32 38 40 44 ,5 8 12 16 23 27 31 32 38 40 44 
5 8 12 16 23 27 31 32 38 40 44 ,5 8 12 16 23 27 31 32 38 40 44 
5 8 12 16 23 27 31 32 38 40 44 ,5 8 12 16 23 27 31 32 38 40 44 
5 8 12 16 23 24 25 27 31 32 38 40 44 ,5 8 12 16 23 27 31 32 38 40 44 
5 8 12 16 23 24 25 27 31 32 38 40 44 ,5 8 12 16 23 24 25 27 31 32 38 40 44 
5 8 12 16 23 24 25 27 32 38 40 44 ,5 8 12 16 23 24 25 27 31 32 38 40 44 
5 8 12 16 23 24 25 27 32 38 40 44 ,5 8 12 16 23 24 25 27 32 38 40 44 
5 8 12 16 23 24 25 27 32 38 40 44 ,5 8 12 16 23 24 25 27 32 38 40 44 
5 8 16 23 24 25 27 32 38 40 44 ,5 8 12 16 23 24 25 27 32 38 40 44 
5 16 23 24 25 27 32 38 40 44 ,5 8 16 23 24 25 27 32 38 40 44 
5 16 23 24 25 27 32 38 40 44 ,5 16 23 24 25 27 32 38 40 44 
5 16 23 24 25 27 32 38 40 44 ,5 16 23 24 25 27 32 38 40 44 
5 16 23 24 25 27 32 38 40 44 ,5 16 23 24 25 27 32 38 40 44 
5 16 23 24 25 27 32 38 40 41 44 ,5 16 23 24 25 27 32 38 40 44 
5 16 23 24 25 27 32 38 40 41 44 ,5 16 23 24 25 27 32 38 40 41 44 
5 16 23 24 25 27 32 36 38 40 41 44 ,5 16 23 24 25 27 32 38 40 41 44 
5 23 24 25 27 32 36 38 40 41 44 ,5 16 23 24 25 27 32 36 38 40 41 44 
5 23 24 25 27 32 36 38 40 41 44 ,5 23 24 25 27 32 36 38 40 41 44 
5 23 24 25 27 32 36 38 40 41 44 ,5 23 24 25 27 32 36 38 40 41 44 
5 23 24 25 27 32 36 38 40 41 44 ,5 23 24 25 27 32 36 38 40 41 44 
5 11 23 24 25 27 36 38 40 41 44 ,5 23 24 25 27 32 36 38 40 41 44 
5 11 23 24 25 27 36 38 40 41 44 ,5 11 23 24 25 27 36 38 40 41 44 
5 11 23 24 25 27 36 38 40 41 44 ,5 11 23 24 25 27 36 38 40 41 44 
5 11 23 24 25 27 30 36 38 40 41 44 ,5 11 23 24 25 27 36 38 40 41 44 
5 11 23 24 25 27 30 36 38 40 41 44 ,5 11 23 24 25 27 30 36 38 40 41 44 
5 11 23 24 25 27 30 36 38 40 41 44 ,5 11 23 24 25 27 30 36 38 40 41 44 
5 8 11 23 24 25 27 30 36 38 40 41 44 ,5 11 23 24 25 27 30 36 38 40 41 44 
5 8 11 23 24 25 27 30 36 38 40 41 44 ,5 8 11 23 24 25 27 30 36 38 40 41 44 
5 8 11 23 24 25 27 30 38 40 41 44 ,5 8 11 23 24 25 27 30 36 38 40 41 44 
5 8 11 23 24 25 27 30 38 40 41 44 ,5 8 11 23 24 25 27 30 38 40 41 44 
5 8 11 15 23 24 25 27 30 38 40 41 44 ,5 8 11 23 24 25 27 30 38 40 41 44 
5 11 15 23 24 25 27 30 33 38 40 41 44 ,5 8 11 15 23 24 25 27 30 38 40 41 44 
5 11 15 23 24 25 27 30 33 38 40 41 44 ,5 11 15 23 24 25 27 30 33 38 40 41 44 
5 11 15 23 24 25 27 28 30 33 38 40 41 ,5 11 15 23 24 25 27 30 33 38 40 41 44 
5 11 15 23 25 27 28 30 33 38 40 41 ,5 11 15 23 24 25 27 28 30 33 38 40 41 
5 11 15 23 25 27 28 30 33 38 40 41 ,5 11 15 23 25 27 28 30 33 38 40 41 
5 11 15 23 25 27 28 30 33 38 40 41 ,5 11 15 23 25 27 28 30 33 38 40 41 
5 11 15 23 25 27 28 30 33 36 38 40 41 ,5 11 15 23 25 27 28 30 33 38 40 41 
5 11 15 23 25 27 28 30 33 36 38 40 41 ,5 11 15 23 25 27 28 30 33 36 38 40 41 
5 11 15 23 25 27 28 30 33 36 38 40 41 ,5 11 15 23 25 27 28 30 33 36 38 40 41 
5 11 12 15 23 25 27 28 30 33 36 38 40 41 ,5 11 15 23 25 27 28 30 33 36 38 40 41 
5 11 12 15 23 27 28 30 33 36 38 40 41 ,5 11 12 15 23 25 27 28 30 33 36 38 40 41 
5 11 12 15 23 28 30 33 36 38 40 41 ,5 11 12 15 23 27 28 30 33 36 38 40 41 
5 11 12 15 23 28 30 33 36 40 41 ,5 11 12 15 23 28 30 33 36 38 40 41 
5 11 12 23 28 30 33 36 40 41 ,5 11 12 15 23 28 30 33 36 40 41 
5 11 12 23 28 30 33 36 40 ,5 11 12 23 28 30 33 36 40 41 
5 11 12 23 28 30 33 36 40 ,5 11 12 23 28 30 33 36 40 
5 11 12 23 28 30 33 36 ,5 11 12 23 28 30 33 36 40 
5 11 12 28 30 33 36 ,5 11 12 23 28 30 33 36 
5 11 12 28 30 33 36 ,5 11 12 28 30 33 36 
5 11 12 28 30 33 36 ,5 11 12 28 30 33 36 
11 12 28 30 33 36 ,5 11 12 28 30 33 36 
11 12 28 30 33 36 ,11 12 28 30 33 36 
11 12 28 33 36 ,11 12 28 30 33 36 
11 12 28 33 36 ,11 12 28 33 36 
11 12 28 33 36 ,11 12 28 33 36 
11 12 28 33 36 ,11 12 28 33 36 
11 12 28 33 36 ,11 12 28 33 36 
11 12 28 33 36 ,11 12 28 33 36 
11 12 17 28 33 36 ,11 12 28 33 36 
11 12 17 28 33 36 ,11 12 17 28 33 36 
12 17 28 33 36 ,11 12 17 28 33 36 
12 28 33 36 ,12 17 28 33 36 
12 28 36 ,12 28 33 36 
12 28 36 ,12 28 36 
12 36 ,12 28 36 
12 36 ,12 36 
12 36 ,12 36 
12 36 ,12 36 
12 36 ,12 36 
12 36 ,12 36 
36 ,12 36 
36 ,36 
36 ,36 
36 ,36 
36 ,36 
36 ,36 
36 ,36 
36 ,36 
36 ,36 
36 ,36 
36 ,36 
,36 
-------------
-------
2(-1)->7 22 34 
5(-1)->8 11 12 13 15 16 21 23 24 25 27 28 30 31 32 33 34 36 37 38 40 41 44 47 
7(-1)->2 19 22 34 50 
8(-1)->5 11 12 13 15 16 21 23 24 25 27 30 31 32 33 34 35 36 37 38 40 41 44 47 
11(-1)->5 8 12 13 15 16 17 23 24 25 27 28 30 31 33 36 38 40 41 44 47 
12(-1)->5 8 11 13 15 16 17 19 21 23 24 25 27 28 30 31 32 33 34 35 36 37 38 40 41 44 47 
13(-1)->5 8 11 12 16 21 23 31 33 34 35 37 38 40 44 47 
15(-1)->5 8 11 12 23 24 25 27 28 30 33 36 38 40 41 44 
16(-1)->5 8 11 12 13 23 24 25 27 31 32 33 34 36 37 38 40 41 44 47 
17(-1)->11 12 28 33 36 
19(-1)->7 12 23 33 34 35 38 40 47 50 
21(-1)->5 8 12 13 23 31 33 34 35 37 38 47 
22(-1)->2 7 34 
23(-1)->5 8 11 12 13 15 16 19 21 24 25 27 28 30 31 32 33 34 35 36 37 38 40 41 44 47 50 
24(-1)->5 8 11 12 15 16 23 25 27 28 30 31 32 33 36 38 40 41 44 
25(-1)->5 8 11 12 15 16 23 24 27 28 30 31 32 33 36 38 40 41 44 
27(-1)->5 8 11 12 15 16 23 24 25 28 30 31 32 33 36 38 40 41 44 
28(-1)->5 11 12 15 17 23 24 25 27 30 33 36 38 40 41 
30(-1)->5 8 11 12 15 23 24 25 27 28 33 36 38 40 41 44 
31(-1)->5 8 11 12 13 16 21 23 24 25 27 32 33 34 35 37 38 40 44 47 
32(-1)->5 8 12 16 23 24 25 27 31 36 38 40 41 44 47 
33(-1)->5 8 11 12 13 15 16 17 19 21 23 24 25 27 28 30 31 34 35 36 37 38 40 41 44 47 50 
34(-1)->2 5 7 8 12 13 16 19 21 22 23 31 33 35 37 38 40 44 47 50 
35(-1)->8 12 13 19 21 23 31 33 34 38 47 50 
36(-1)->5 8 11 12 15 16 17 23 24 25 27 28 30 32 33 38 40 41 44 
37(-1)->5 8 12 13 16 21 23 31 33 34 38 40 47 
38(-1)->5 8 11 12 13 15 16 19 21 23 24 25 27 28 30 31 32 33 34 35 36 37 40 41 44 47 50 
40(-1)->5 8 11 12 13 15 16 19 23 24 25 27 28 30 31 32 33 34 36 37 38 41 44 47 
41(-1)->5 8 11 12 15 16 23 24 25 27 28 30 32 33 36 38 40 44 
44(-1)->5 8 11 12 13 15 16 23 24 25 27 30 31 32 33 34 36 38 40 41 47 
47(-1)->5 8 11 12 13 16 19 21 23 31 32 33 34 35 37 38 40 44 
50(-1)->7 19 23 33 34 35 38 
-------
12(-1)->5 8 11 13 15 16 17 19 21 23 24 25 27 28 30 31 32 33 34 35 36 37 38 40 41 44 47 
23(-1)->5 8 11 12 13 15 16 19 21 24 25 27 28 30 31 32 33 34 35 36 37 38 40 41 44 47 50 
33(-1)->5 8 11 12 13 15 16 17 19 21 23 24 25 27 28 30 31 34 35 36 37 38 40 41 44 47 50 
38(-1)->5 8 11 12 13 15 16 19 21 23 24 25 27 28 30 31 32 33 34 35 36 37 40 41 44 47 50 
5(-1)->8 11 12 13 15 16 21 23 24 25 27 28 30 31 32 33 34 36 37 38 40 41 44 47 
8(-1)->5 11 12 13 15 16 21 23 24 25 27 30 31 32 33 34 35 36 37 38 40 41 44 47 
40(-1)->5 8 11 12 13 15 16 19 23 24 25 27 28 30 31 32 33 34 36 37 38 41 44 47 
11(-1)->5 8 12 13 15 16 17 23 24 25 27 28 30 31 33 36 38 40 41 44 47 
44(-1)->5 8 11 12 13 15 16 23 24 25 27 30 31 32 33 34 36 38 40 41 47 
16(-1)->5 8 11 12 13 23 24 25 27 31 32 33 34 36 37 38 40 41 44 47 
31(-1)->5 8 11 12 13 16 21 23 24 25 27 32 33 34 35 37 38 40 44 47 
34(-1)->2 5 7 8 12 13 16 19 21 22 23 31 33 35 37 38 40 44 47 50 
24(-1)->5 8 11 12 15 16 23 25 27 28 30 31 32 33 36 38 40 41 44 
25(-1)->5 8 11 12 15 16 23 24 27 28 30 31 32 33 36 38 40 41 44 
27(-1)->5 8 11 12 15 16 23 24 25 28 30 31 32 33 36 38 40 41 44 
36(-1)->5 8 11 12 15 16 17 23 24 25 27 28 30 32 33 38 40 41 44 
41(-1)->5 8 11 12 15 16 23 24 25 27 28 30 32 33 36 38 40 44 
47(-1)->5 8 11 12 13 16 19 21 23 31 32 33 34 35 37 38 40 44 
13(-1)->5 8 11 12 16 21 23 31 33 34 35 37 38 40 44 47 
15(-1)->5 8 11 12 23 24 25 27 28 30 33 36 38 40 41 44 
30(-1)->5 8 11 12 15 23 24 25 27 28 33 36 38 40 41 44 
28(-1)->5 11 12 15 17 23 24 25 27 30 33 36 38 40 41 
32(-1)->5 8 12 16 23 24 25 27 31 36 38 40 41 44 47 
37(-1)->5 8 12 13 16 21 23 31 33 34 38 40 47 
21(-1)->5 8 12 13 23 31 33 34 35 37 38 47 
35(-1)->8 12 13 19 21 23 31 33 34 38 47 50 
19(-1)->7 12 23 33 34 35 38 40 47 50 
50(-1)->7 19 23 33 34 35 38 
7(-1)->2 19 22 34 50 
17(-1)->11 12 28 33 36 
2(-1)->7 22 34 
22(-1)->2 7 34 
-------
5 8 11 12 16 23 24 25 27 33 36 38 40 41 44 

-------
41(-1)->5 8 11 12 15 16 23 24 25 27 28 30 32 33 36 38 40 44 
36(-1)->5 8 11 12 15 16 17 23 24 25 27 28 30 32 33 38 40 41 44 
27(-1)->5 8 11 12 15 16 23 24 25 28 30 31 32 33 36 38 40 41 44 
25(-1)->5 8 11 12 15 16 23 24 27 28 30 31 32 33 36 38 40 41 44 
24(-1)->5 8 11 12 15 16 23 25 27 28 30 31 32 33 36 38 40 41 44 
16(-1)->5 8 11 12 13 23 24 25 27 31 32 33 34 36 37 38 40 41 44 47 
44(-1)->5 8 11 12 13 15 16 23 24 25 27 30 31 32 33 34 36 38 40 41 47 
11(-1)->5 8 12 13 15 16 17 23 24 25 27 28 30 31 33 36 38 40 41 44 47 
40(-1)->5 8 11 12 13 15 16 19 23 24 25 27 28 30 31 32 33 34 36 37 38 41 44 47 
8(-1)->5 11 12 13 15 16 21 23 24 25 27 30 31 32 33 34 35 36 37 38 40 41 44 47 
5(-1)->8 11 12 13 15 16 21 23 24 25 27 28 30 31 32 33 34 36 37 38 40 41 44 47 
38(-1)->5 8 11 12 13 15 16 19 21 23 24 25 27 28 30 31 32 33 34 35 36 37 40 41 44 47 50 
33(-1)->5 8 11 12 13 15 16 17 19 21 23 24 25 27 28 30 31 34 35 36 37 38 40 41 44 47 50 
23(-1)->5 8 11 12 13 15 16 19 21 24 25 27 28 30 31 32 33 34 35 36 37 38 40 41 44 47 50 
12(-1)->5 8 11 13 15 16 17 19 21 23 24 25 27 28 30 31 32 33 34 35 36 37 38 40 41 44 47 
31(-1)->5 8 11 12 13 16 21 23 24 25 27 32 33 34 35 37 38 40 44 47 
34(-1)->2 5 7 8 12 13 16 19 21 22 23 31 33 35 37 38 40 44 47 50 
47(-1)->5 8 11 12 13 16 19 21 23 31 32 33 34 35 37 38 40 44 
13(-1)->5 8 11 12 16 21 23 31 33 34 35 37 38 40 44 47 
15(-1)->5 8 11 12 23 24 25 27 28 30 33 36 38 40 41 44 
30(-1)->5 8 11 12 15 23 24 25 27 28 33 36 38 40 41 44 
28(-1)->5 11 12 15 17 23 24 25 27 30 33 36 38 40 41 
32(-1)->5 8 12 16 23 24 25 27 31 36 38 40 41 44 47 
37(-1)->5 8 12 13 16 21 23 31 33 34 38 40 47 
21(-1)->5 8 12 13 23 31 33 34 35 37 38 47 
35(-1)->8 12 13 19 21 23 31 33 34 38 47 50 
19(-1)->7 12 23 33 34 35 38 40 47 50 
50(-1)->7 19 23 33 34 35 38 
7(-1)->2 19 22 34 50 
17(-1)->11 12 28 33 36 
2(-1)->7 22 34 
22(-1)->2 7 34 
-------
START TIME: 1433732182
-------
2(0)->7 22 34 
5(10)->8 11 12 13 15 16 21 23 24 25 27 28 30 31 32 33 34 36 37 38 40 41 44 47 
7(3)->2 19 22 34 50 
8(9)->5 11 12 13 15 16 21 23 24 25 27 30 31 32 33 34 35 36 37 38 40 41 44 47 
11(7)->5 8 12 13 15 16 17 23 24 25 27 28 30 31 33 36 38 40 41 44 47 
12(14)->5 8 11 13 15 16 17 19 21 23 24 25 27 28 30 31 32 33 34 35 36 37 38 40 41 44 47 
13(3)->5 8 11 12 16 21 23 31 33 34 35 37 38 40 44 47 
15(5)->5 8 11 12 23 24 25 27 28 30 33 36 38 40 41 44 
16(5)->5 8 11 12 13 23 24 25 27 31 32 33 34 36 37 38 40 41 44 47 
17(0)->11 12 28 33 36 
19(0)->7 12 23 33 34 35 38 40 47 50 
21(5)->5 8 12 13 23 31 33 34 35 37 38 47 
22(2)->2 7 34 
23(13)->5 8 11 12 13 15 16 19 21 24 25 27 28 30 31 32 33 34 35 36 37 38 40 41 44 47 50 
24(4)->5 8 11 12 15 16 23 25 27 28 30 31 32 33 36 38 40 41 44 
25(3)->5 8 11 12 15 16 23 24 27 28 30 31 32 33 36 38 40 41 44 
27(2)->5 8 11 12 15 16 23 24 25 28 30 31 32 33 36 38 40 41 44 
28(6)->5 11 12 15 17 23 24 25 27 30 33 36 38 40 41 
30(15)->5 8 11 12 15 23 24 25 27 28 33 36 38 40 41 44 
31(0)->5 8 11 12 13 16 21 23 24 25 27 32 33 34 35 37 38 40 44 47 
32(7)->5 8 12 16 23 24 25 27 31 36 38 40 41 44 47 
33(12)->5 8 11 12 13 15 16 17 19 21 23 24 25 27 28 30 31 34 35 36 37 38 40 41 44 47 50 
34(1)->2 5 7 8 12 13 16 19 21 22 23 31 33 35 37 38 40 44 47 50 
35(4)->8 12 13 19 21 23 31 33 34 38 47 50 
36(1)->5 8 11 12 15 16 17 23 24 25 27 28 30 32 33 38 40 41 44 
37(4)->5 8 12 13 16 21 23 31 33 34 38 40 47 
38(11)->5 8 11 12 13 15 16 19 21 23 24 25 27 28 30 31 32 33 34 35 36 37 40 41 44 47 50 
40(8)->5 8 11 12 13 15 16 19 23 24 25 27 28 30 31 32 33 34 36 37 38 41 44 47 
41(0)->5 8 11 12 15 16 23 24 25 27 28 30 32 33 36 38 40 44 
44(6)->5 8 11 12 13 15 16 23 24 25 27 30 31 32 33 34 36 38 40 41 47 
47(2)->5 8 11 12 13 16 19 21 23 31 32 33 34 35 37 38 40 44 
50(2)->7 19 23 33 34 35 38 
COUNT: 215
COLORS: 16
16
215
