1: 2 3 4 5 6 7 8 9 10 11 12 13 14 15 16 17 18 19 20 21 22 23 24 25 26 27 28 29 30 31 32 33 34 35 36 37 38 39
2: 1 3 4 5 6 7 8 9 10 11 12 13 14 15 16 17 18 19 20 21 22 23 24 25 26 27 28 29 30 31 32 33 34 35 36 37 38 39 40
3: 1 2 4 5 6 7 8 9 10 11 12 13 14 15 16 17 18 19 20 21 22 23 24 25 26 27 28 29 30 31 32 33 34 35 38 39
4: 1 2 3 5 6 7 8 9 10 11 12 13 14 15 16 17 18 19 21 22 23 24 25 26 27 28 29 30 31 32 33 34 36 37 38 39
5: 1 2 3 4 6 7 8 9 10 11 12 13 14 16 17 18 19 21 22 23 24 25 26 27 28 29 30 33 34 36 38 39
6: 1 2 3 4 5 7 8 9 10 11 12 13 18 22 24 28 29 32 33 36 38 40
7: 1 2 3 4 5 6 8 9 10 11 12 13 15 17 19 20 22 24 25 26 27 30 31 32 35 37 38
8: 1 2 3 4 5 6 7 9 10 11 12 13 14 15 16 17 18 19 22 23 24 29 36
9: 1 34 3 4 6 38 7 8 10 11 12 13 15 22 23 24 2 33 5 29 37
10: 1 2 3 4 5 6 7 8 9 11 12 13 14 17 19 21 22 25 29 33 34 35 39
11: 32 1 2 35 4 5 3 7 8 9 10 16 17 19 22 24 6 27 31
12: 1 2 3 4 5 6 7 8 9 10 14 15 18 19 23 24 28 29 30 31 34 38
13: 1 2 3 4 5 6 7 8 9 10 14 15 16 17 19 24 25 26 31 35 38 39
14: 33 2 3 4 5 1 8 10 12 13 15 17 18 20 40 25 27 28 29 30
15: 1 2 3 4 7 8 9 12 13 14 16 17 18 20 22 24 25 26 28 29 30 31 34 35 37 38
16: 32 33 2 3 36 5 38 39 8 1 11 13 15 17 20 21 4 29 31
17: 1 2 3 4 5 7 8 10 11 13 14 15 16 18 19 21 22 24 26 28 30 31 32 35 38 39
18: 1 34 35 36 5 38 39 8 12 2 14 15 6 17 3 20 4 26 29
19: 1 2 3 4 5 7 8 10 11 12 13 17 21 22 26 31 32 34 35 36 37 40
20: 32 1 34 35 38 7 39 2 14 15 16 18 3 24 26 27 29 31
21: 1 2 3 4 37 38 40 10 34 16 17 19 26 27 5 30 31
22: 1 2 3 4 5 38 33 8 9 10 11 15 17 19 23 7 6 28 31
23: 33 34 3 1 37 39 8 9 12 2 22 4 24 25 30 5
24: 1 2 3 4 5 6 7 8 9 11 12 13 15 17 20 23 26 28 31 34 36 37 39
25: 32 1 2 35 4 33 38 7 10 13 14 15 3 23 26 29 30 5
26: 19 33 2 35 36 5 7 40 1 13 15 17 18 3 20 21 25 24 4 28
27: 32 33 34 3 36 5 38 7 1 11 2 14 20 21 39 4
28: 1 2 3 4 37 38 39 40 12 14 15 17 26 22 24 6 31 29 5
29: 1 2 3 4 5 6 8 9 10 12 14 15 16 18 20 25 28 30 36 37 38 40
30: 32 1 34 3 4 33 38 7 39 12 2 14 15 17 21 23 25 5 29 36
31: 32 1 2 35 4 3 7 11 12 13 15 16 17 19 20 21 22 24 28
32: 1 2 3 36 6 7 40 11 16 17 19 20 4 25 27 30 31
33: 1 34 3 4 37 38 9 10 2 14 16 6 22 23 25 26 27 36 30 5
34: 1 2 3 4 5 33 9 10 12 15 18 19 20 21 23 24 27 30
35: 3 1 2 11 36 7 40 10 39 13 15 17 18 19 20 25 26 31
36: 32 33 2 35 4 37 6 1 40 16 8 18 19 24 26 27 29 30 5
37: 33 2 36 38 7 40 9 1 15 19 21 23 24 4 28 29
38: 1 2 3 4 5 6 7 9 12 13 15 16 17 18 20 21 22 25 27 28 29 30 33 37
39: 1 2 35 4 5 10 13 16 17 18 3 20 23 24 27 28 30
40: 32 2 35 36 37 6 14 19 21 26 28 29
-------
1(-1)->2 3 4 5 6 7 8 9 10 11 12 13 14 15 16 17 18 19 20 21 22 23 24 25 26 27 28 29 30 31 32 33 34 35 36 37 38 39 
2(-1)->1 3 4 5 6 7 8 9 10 11 12 13 14 15 16 17 18 19 20 21 22 23 24 25 26 27 28 29 30 31 32 33 34 35 36 37 38 39 40 
3(-1)->1 2 4 5 6 7 8 9 10 11 12 13 14 15 16 17 18 19 20 21 22 23 24 25 26 27 28 29 30 31 32 33 34 35 38 39 
4(-1)->1 2 3 5 6 7 8 9 10 11 12 13 14 15 16 17 18 19 21 22 23 24 25 26 27 28 29 30 31 32 33 34 36 37 38 39 
5(-1)->1 2 3 4 6 7 8 9 10 11 12 13 14 16 17 18 19 21 22 23 24 25 26 27 28 29 30 33 34 36 38 39 
6(-1)->1 2 3 4 5 7 8 9 10 11 12 13 18 22 24 28 29 32 33 36 38 40 
7(-1)->1 2 3 4 5 6 8 9 10 11 12 13 15 17 19 20 22 24 25 26 27 30 31 32 35 37 38 
8(-1)->1 2 3 4 5 6 7 9 10 11 12 13 14 15 16 17 18 19 22 23 24 29 36 
9(-1)->1 2 3 4 5 6 7 8 10 11 12 13 15 22 23 24 29 33 34 37 38 
10(-1)->1 2 3 4 5 6 7 8 9 11 12 13 14 17 19 21 22 25 29 33 34 35 39 
11(-1)->1 2 3 4 5 6 7 8 9 10 16 17 19 22 24 27 31 32 35 
12(-1)->1 2 3 4 5 6 7 8 9 10 14 15 18 19 23 24 28 29 30 31 34 38 
13(-1)->1 2 3 4 5 6 7 8 9 10 14 15 16 17 19 24 25 26 31 35 38 39 
14(-1)->1 2 3 4 5 8 10 12 13 15 17 18 20 25 27 28 29 30 33 40 
15(-1)->1 2 3 4 7 8 9 12 13 14 16 17 18 20 22 24 25 26 28 29 30 31 34 35 37 38 
16(-1)->1 2 3 4 5 8 11 13 15 17 20 21 29 31 32 33 36 38 39 
17(-1)->1 2 3 4 5 7 8 10 11 13 14 15 16 18 19 21 22 24 26 28 30 31 32 35 38 39 
18(-1)->1 2 3 4 5 6 8 12 14 15 17 20 26 29 34 35 36 38 39 
19(-1)->1 2 3 4 5 7 8 10 11 12 13 17 21 22 26 31 32 34 35 36 37 40 
20(-1)->1 2 3 7 14 15 16 18 24 26 27 29 31 32 34 35 38 39 
21(-1)->1 2 3 4 5 10 16 17 19 26 27 30 31 34 37 38 40 
22(-1)->1 2 3 4 5 6 7 8 9 10 11 15 17 19 23 28 31 33 38 
23(-1)->1 2 3 4 5 8 9 12 22 24 25 30 33 34 37 39 
24(-1)->1 2 3 4 5 6 7 8 9 11 12 13 15 17 20 23 26 28 31 34 36 37 39 
25(-1)->1 2 3 4 5 7 10 13 14 15 23 26 29 30 32 33 35 38 
26(-1)->1 2 3 4 5 7 13 15 17 18 19 20 21 24 25 28 33 35 36 40 
27(-1)->1 2 3 4 5 7 11 14 20 21 32 33 34 36 38 39 
28(-1)->1 2 3 4 5 6 12 14 15 17 22 24 26 29 31 37 38 39 40 
29(-1)->1 2 3 4 5 6 8 9 10 12 14 15 16 18 20 25 28 30 36 37 38 40 
30(-1)->1 2 3 4 5 7 12 14 15 17 21 23 25 29 32 33 34 36 38 39 
31(-1)->1 2 3 4 7 11 12 13 15 16 17 19 20 21 22 24 28 32 35 
32(-1)->1 2 3 4 6 7 11 16 17 19 20 25 27 30 31 36 40 
33(-1)->1 2 3 4 5 6 9 10 14 16 22 23 25 26 27 30 34 36 37 38 
34(-1)->1 2 3 4 5 9 10 12 15 18 19 20 21 23 24 27 30 33 
35(-1)->1 2 3 7 10 11 13 15 17 18 19 20 25 26 31 36 39 40 
36(-1)->1 2 4 5 6 8 16 18 19 24 26 27 29 30 32 33 35 37 40 
37(-1)->1 2 4 7 9 15 19 21 23 24 28 29 33 36 38 40 
38(-1)->1 2 3 4 5 6 7 9 12 13 15 16 17 18 20 21 22 25 27 28 29 30 33 37 
39(-1)->1 2 3 4 5 10 13 16 17 18 20 23 24 27 28 30 35 
40(-1)->2 6 14 19 21 26 28 29 32 35 36 37 
-------
Node 2 maps to position 0
Node 1 maps to position 1
Node 3 maps to position 2
Node 4 maps to position 3
Node 5 maps to position 4
Node 7 maps to position 5
Node 15 maps to position 6
Node 17 maps to position 7
Node 38 maps to position 8
Node 8 maps to position 9
Node 10 maps to position 10
Node 24 maps to position 11
Node 6 maps to position 12
Node 12 maps to position 13
Node 13 maps to position 14
Node 19 maps to position 15
Node 29 maps to position 16
Node 9 maps to position 17
Node 14 maps to position 18
Node 26 maps to position 19
Node 30 maps to position 20
Node 33 maps to position 21
Node 11 maps to position 22
Node 16 maps to position 23
Node 18 maps to position 24
Node 22 maps to position 25
Node 28 maps to position 26
Node 31 maps to position 27
Node 36 maps to position 28
Node 20 maps to position 29
Node 25 maps to position 30
Node 34 maps to position 31
Node 35 maps to position 32
Node 21 maps to position 33
Node 32 maps to position 34
Node 39 maps to position 35
Node 23 maps to position 36
Node 27 maps to position 37
Node 37 maps to position 38
Node 40 maps to position 39
2(-1)->1 3 4 5 6 7 8 9 10 11 12 13 14 15 16 17 18 19 20 21 22 23 24 25 26 27 28 29 30 31 32 33 34 35 36 37 38 39 40 
1(-1)->2 3 4 5 6 7 8 9 10 11 12 13 14 15 16 17 18 19 20 21 22 23 24 25 26 27 28 29 30 31 32 33 34 35 36 37 38 39 
3(-1)->1 2 4 5 6 7 8 9 10 11 12 13 14 15 16 17 18 19 20 21 22 23 24 25 26 27 28 29 30 31 32 33 34 35 38 39 
4(-1)->1 2 3 5 6 7 8 9 10 11 12 13 14 15 16 17 18 19 21 22 23 24 25 26 27 28 29 30 31 32 33 34 36 37 38 39 
5(-1)->1 2 3 4 6 7 8 9 10 11 12 13 14 16 17 18 19 21 22 23 24 25 26 27 28 29 30 33 34 36 38 39 
7(-1)->1 2 3 4 5 6 8 9 10 11 12 13 15 17 19 20 22 24 25 26 27 30 31 32 35 37 38 
15(-1)->1 2 3 4 7 8 9 12 13 14 16 17 18 20 22 24 25 26 28 29 30 31 34 35 37 38 
17(-1)->1 2 3 4 5 7 8 10 11 13 14 15 16 18 19 21 22 24 26 28 30 31 32 35 38 39 
38(-1)->1 2 3 4 5 6 7 9 12 13 15 16 17 18 20 21 22 25 27 28 29 30 33 37 
8(-1)->1 2 3 4 5 6 7 9 10 11 12 13 14 15 16 17 18 19 22 23 24 29 36 
10(-1)->1 2 3 4 5 6 7 8 9 11 12 13 14 17 19 21 22 25 29 33 34 35 39 
24(-1)->1 2 3 4 5 6 7 8 9 11 12 13 15 17 20 23 26 28 31 34 36 37 39 
6(-1)->1 2 3 4 5 7 8 9 10 11 12 13 18 22 24 28 29 32 33 36 38 40 
12(-1)->1 2 3 4 5 6 7 8 9 10 14 15 18 19 23 24 28 29 30 31 34 38 
13(-1)->1 2 3 4 5 6 7 8 9 10 14 15 16 17 19 24 25 26 31 35 38 39 
19(-1)->1 2 3 4 5 7 8 10 11 12 13 17 21 22 26 31 32 34 35 36 37 40 
29(-1)->1 2 3 4 5 6 8 9 10 12 14 15 16 18 20 25 28 30 36 37 38 40 
9(-1)->1 2 3 4 5 6 7 8 10 11 12 13 15 22 23 24 29 33 34 37 38 
14(-1)->1 2 3 4 5 8 10 12 13 15 17 18 20 25 27 28 29 30 33 40 
26(-1)->1 2 3 4 5 7 13 15 17 18 19 20 21 24 25 28 33 35 36 40 
30(-1)->1 2 3 4 5 7 12 14 15 17 21 23 25 29 32 33 34 36 38 39 
33(-1)->1 2 3 4 5 6 9 10 14 16 22 23 25 26 27 30 34 36 37 38 
11(-1)->1 2 3 4 5 6 7 8 9 10 16 17 19 22 24 27 31 32 35 
16(-1)->1 2 3 4 5 8 11 13 15 17 20 21 29 31 32 33 36 38 39 
18(-1)->1 2 3 4 5 6 8 12 14 15 17 20 26 29 34 35 36 38 39 
22(-1)->1 2 3 4 5 6 7 8 9 10 11 15 17 19 23 28 31 33 38 
28(-1)->1 2 3 4 5 6 12 14 15 17 22 24 26 29 31 37 38 39 40 
31(-1)->1 2 3 4 7 11 12 13 15 16 17 19 20 21 22 24 28 32 35 
36(-1)->1 2 4 5 6 8 16 18 19 24 26 27 29 30 32 33 35 37 40 
20(-1)->1 2 3 7 14 15 16 18 24 26 27 29 31 32 34 35 38 39 
25(-1)->1 2 3 4 5 7 10 13 14 15 23 26 29 30 32 33 35 38 
34(-1)->1 2 3 4 5 9 10 12 15 18 19 20 21 23 24 27 30 33 
35(-1)->1 2 3 7 10 11 13 15 17 18 19 20 25 26 31 36 39 40 
21(-1)->1 2 3 4 5 10 16 17 19 26 27 30 31 34 37 38 40 
32(-1)->1 2 3 4 6 7 11 16 17 19 20 25 27 30 31 36 40 
39(-1)->1 2 3 4 5 10 13 16 17 18 20 23 24 27 28 30 35 
23(-1)->1 2 3 4 5 8 9 12 22 24 25 30 33 34 37 39 
27(-1)->1 2 3 4 5 7 11 14 20 21 32 33 34 36 38 39 
37(-1)->1 2 4 7 9 15 19 21 23 24 28 29 33 36 38 40 
40(-1)->2 6 14 19 21 26 28 29 32 35 36 37 
-------
BLAH
START TIME: 1433711267
Cq = 12 and is assigned to x26
BACKTRACKED TO DEPTH: 25
0 1 2 3 4 5 6 7 8 9 10 11 
Cq = 11 and is assigned to x22
BACKTRACKED TO DEPTH: 21
0 1 2 3 4 5 6 7 8 9 10 
1(1)->2 3 4 5 6 7 8 9 10 11 12 13 14 15 16 17 18 19 20 21 22 23 24 25 26 27 28 29 30 31 32 33 34 35 36 37 38 39 
2(0)->1 3 4 5 6 7 8 9 10 11 12 13 14 15 16 17 18 19 20 21 22 23 24 25 26 27 28 29 30 31 32 33 34 35 36 37 38 39 40 
3(2)->1 2 4 5 6 7 8 9 10 11 12 13 14 15 16 17 18 19 20 21 22 23 24 25 26 27 28 29 30 31 32 33 34 35 38 39 
4(3)->1 2 3 5 6 7 8 9 10 11 12 13 14 15 16 17 18 19 21 22 23 24 25 26 27 28 29 30 31 32 33 34 36 37 38 39 
5(4)->1 2 3 4 6 7 8 9 10 11 12 13 14 16 17 18 19 21 22 23 24 25 26 27 28 29 30 33 34 36 38 39 
6(6)->1 2 3 4 5 7 8 9 10 11 12 13 18 22 24 28 29 32 33 36 38 40 
7(5)->1 2 3 4 5 6 8 9 10 11 12 13 15 17 19 20 22 24 25 26 27 30 31 32 35 37 38 
8(7)->1 2 3 4 5 6 7 9 10 11 12 13 14 15 16 17 18 19 22 23 24 29 36 
9(10)->1 2 3 4 5 6 7 8 10 11 12 13 15 22 23 24 29 33 34 37 38 
10(8)->1 2 3 4 5 6 7 8 9 11 12 13 14 17 19 21 22 25 29 33 34 35 39 
11(11)->1 2 3 4 5 6 7 8 9 10 16 17 19 22 24 27 31 32 35 
12(9)->1 2 3 4 5 6 7 8 9 10 14 15 18 19 23 24 28 29 30 31 34 38 
13(9)->1 2 3 4 5 6 7 8 9 10 14 15 16 17 19 24 25 26 31 35 38 39 
14(10)->1 2 3 4 5 8 10 12 13 15 17 18 20 25 27 28 29 30 33 40 
15(4)->1 2 3 4 7 8 9 12 13 14 16 17 18 20 22 24 25 26 28 29 30 31 34 35 37 38 
16(8)->1 2 3 4 5 8 11 13 15 17 20 21 29 31 32 33 36 38 39 
17(6)->1 2 3 4 5 7 8 10 11 13 14 15 16 18 19 21 22 24 26 28 30 31 32 35 38 39 
18(8)->1 2 3 4 5 6 8 12 14 15 17 20 26 29 34 35 36 38 39 
19(10)->1 2 3 4 5 7 8 10 11 12 13 17 21 22 26 31 32 34 35 36 37 40 
20(6)->1 2 3 7 14 15 16 18 24 26 27 29 31 32 34 35 38 39 
21(5)->1 2 3 4 5 10 16 17 19 26 27 30 31 34 37 38 40 
22(9)->1 2 3 4 5 6 7 8 9 10 11 15 17 19 23 28 31 33 38 
23(11)->1 2 3 4 5 8 9 12 22 24 25 30 33 34 37 39 
24(8)->1 2 3 4 5 6 7 8 9 11 12 13 15 17 20 23 26 28 31 34 36 37 39 
25(6)->1 2 3 4 5 7 10 13 14 15 23 26 29 30 32 33 35 38 
26(7)->1 2 3 4 5 7 13 15 17 18 19 20 21 24 25 28 33 35 36 40 
27(8)->1 2 3 4 5 7 11 14 20 21 32 33 34 36 38 39 
28(11)->1 2 3 4 5 6 12 14 15 17 22 24 26 29 31 37 38 39 40 
29(5)->1 2 3 4 5 6 8 9 10 12 14 15 16 18 20 25 28 30 36 37 38 40 
30(8)->1 2 3 4 5 7 12 14 15 17 21 23 25 29 32 33 34 36 38 39 
31(7)->1 2 3 4 7 11 12 13 15 16 17 19 20 21 22 24 28 32 35 
32(4)->1 2 3 4 6 7 11 16 17 19 20 25 27 30 31 36 40 
33(5)->1 2 3 4 5 6 9 10 14 16 22 23 25 26 27 30 34 36 37 38 
34(7)->1 2 3 4 5 9 10 12 15 18 19 20 21 23 24 27 30 33 
35(3)->1 2 3 7 10 11 13 15 17 18 19 20 25 26 31 36 39 40 
36(2)->1 2 4 5 6 8 16 18 19 24 26 27 29 30 32 33 35 37 40 
37(6)->1 2 4 7 9 15 19 21 23 24 28 29 33 36 38 40 
38(7)->1 2 3 4 5 6 7 9 12 13 15 16 17 18 20 21 22 25 27 28 29 30 33 37 
39(5)->1 2 3 4 5 10 13 16 17 18 20 23 24 27 28 30 35 
40(1)->2 6 14 19 21 26 28 29 32 35 36 37 
COUNT: 276
COLORS: 12
EDGES: 440
12
276
