1: 2 3 4 5 6 7 8 9 10 11 12 13 14 15 16 17 18 19 20 21 22 23 24 25 26 27 28 29 30 31 32 33 34 35 36 37 38 39
2: 1 3 4 5 6 7 8 9 10 11 12 13 14 15 16 17 18 19 20 21 22 23 24 25 26 27 28 29 30 31 32 33 34 35 36 37 38 39 40
3: 1 2 4 5 6 7 8 9 10 11 12 13 14 15 16 17 18 19 20 21 22 23 24 25 26 27 28 29 30 31 32 33 34 35 36 37 38 39 40
4: 1 2 3 5 6 7 8 9 10 11 12 13 14 15 16 17 18 19 20 21 22 23 24 25 26 27 28 29 31 32 33 34 35 36 37 38 39
5: 1 2 3 4 6 7 8 9 10 11 12 13 14 15 16 17 18 19 20 21 22 23 24 25 26 27 28 29 30 31 33 34 35 36 37 39
6: 1 2 3 4 5 7 8 9 10 11 12 13 14 15 16 17 18 19 20 21 22 23 24 25 27 28 29 32 33 34 36 37 39
7: 1 2 3 4 5 6 8 9 10 11 12 13 14 15 16 18 19 20 21 22 23 24 26 27 28 29 30 31 32 34 35 36 37 38
8: 1 2 3 4 5 6 7 9 10 11 12 13 14 15 16 17 18 21 22 23 24 26 27 28 32 34 36 37
9: 1 2 3 4 5 6 7 8 10 11 12 14 16 17 19 21 22 23 24 25 26 27 30 34 37 39 40
10: 1 2 3 4 5 6 7 8 9 11 12 13 16 20 21 22 23 26 27 28 29 30 31 34 35 37 38 39
11: 1 2 3 4 5 6 7 8 9 10 12 13 14 15 16 20 22 24 25 28 29 31 34 35 36 37 40
12: 1 2 3 4 5 6 7 8 9 10 11 14 15 16 20 21 22 24 26 28 32 34 36 37 40
13: 1 2 3 4 5 6 7 8 10 11 14 16 17 19 20 23 24 25 26 27 29 30 33 34 35 36 37 38
14: 1 2 3 4 5 6 7 8 9 11 12 13 15 16 20 21 22 23 24 25 29 30 31 34 35 38
15: 1 2 3 4 5 6 7 8 11 12 14 16 17 18 19 21 23 29 30 31 34 40
16: 1 2 3 4 5 6 7 8 9 10 11 12 13 14 15 18 20 21 24 27 29 32 34 36 37 38 39
17: 1 2 3 4 5 6 8 9 13 15 19 20 23 25 26 27 28 30 32 34 35 36 38 40
18: 1 2 3 4 5 6 7 8 15 16 20 23 24 26 27 28 29 31 33 34 36 37 39 40
19: 32 33 2 35 4 6 38 1 40 9 7 13 15 17 3 24 25 29 5
20: 1 2 3 4 5 6 7 10 11 12 13 14 16 17 18 21 26 29 30 32 34 35 36 37 39 40
21: 1 2 3 4 5 6 7 8 9 10 12 14 15 16 20 22 24 29 30 31 32 33 34 36 38 39 40
22: 1 2 3 36 5 6 7 40 9 10 11 12 14 8 21 4 25 26 28 39 31
23: 1 2 3 4 5 6 7 8 9 10 13 14 15 17 18 25 28 29 31 34 36 39
24: 1 2 3 4 5 6 7 8 9 11 12 13 14 16 18 19 21 30 35 36 37 39 40
25: 3 33 2 35 1 5 6 39 40 9 11 13 14 17 19 22 23 4 26 28 31
26: 1 2 3 4 5 7 8 9 10 12 13 17 18 20 22 25 27 28 30 33 35 38 39
27: 32 1 34 3 4 5 6 7 40 9 10 2 13 16 17 18 8 36 26 28 29
28: 1 2 3 4 5 6 7 8 10 11 12 17 18 22 23 25 26 27 29 30 32 34 36
29: 1 2 3 4 5 6 7 10 11 13 14 15 16 18 19 20 21 23 27 28 30 31 32 33 34 35 39 40
30: 1 2 3 5 7 9 10 13 14 15 17 20 21 24 26 28 29 33 34 36 37 40
31: 1 34 3 4 5 7 10 11 2 14 15 18 21 22 23 25 29 39
32: 1 2 3 4 6 7 8 12 16 17 19 20 21 27 28 29 33 34 35 36 38 39 40
33: 32 1 2 35 4 37 38 39 3 13 6 18 19 21 25 26 36 29 30 5
34: 1 2 3 4 5 6 7 8 9 10 11 12 13 14 15 16 17 18 20 21 23 27 28 29 30 31 32 36 37
35: 1 2 3 4 5 7 10 11 13 14 17 19 20 24 25 26 29 32 33 36 39 40
36: 1 2 3 4 5 6 7 8 11 12 13 16 17 18 20 21 22 23 24 27 28 30 32 33 34 35 38 39
37: 33 2 34 1 5 6 39 8 9 10 11 12 13 16 18 3 20 4 24 7 30
38: 32 33 2 3 36 1 7 10 39 13 14 16 17 19 21 4 26
39: 1 2 3 4 5 6 9 10 16 18 20 21 22 23 24 25 26 29 31 32 33 35 36 37 38
40: 32 3 2 35 9 11 12 15 17 18 19 20 21 22 24 25 27 29 30
-------
1(-1)->2 3 4 5 6 7 8 9 10 11 12 13 14 15 16 17 18 19 20 21 22 23 24 25 26 27 28 29 30 31 32 33 34 35 36 37 38 39 
2(-1)->1 3 4 5 6 7 8 9 10 11 12 13 14 15 16 17 18 19 20 21 22 23 24 25 26 27 28 29 30 31 32 33 34 35 36 37 38 39 40 
3(-1)->1 2 4 5 6 7 8 9 10 11 12 13 14 15 16 17 18 19 20 21 22 23 24 25 26 27 28 29 30 31 32 33 34 35 36 37 38 39 40 
4(-1)->1 2 3 5 6 7 8 9 10 11 12 13 14 15 16 17 18 19 20 21 22 23 24 25 26 27 28 29 31 32 33 34 35 36 37 38 39 
5(-1)->1 2 3 4 6 7 8 9 10 11 12 13 14 15 16 17 18 19 20 21 22 23 24 25 26 27 28 29 30 31 33 34 35 36 37 39 
6(-1)->1 2 3 4 5 7 8 9 10 11 12 13 14 15 16 17 18 19 20 21 22 23 24 25 27 28 29 32 33 34 36 37 39 
7(-1)->1 2 3 4 5 6 8 9 10 11 12 13 14 15 16 18 19 20 21 22 23 24 26 27 28 29 30 31 32 34 35 36 37 38 
8(-1)->1 2 3 4 5 6 7 9 10 11 12 13 14 15 16 17 18 21 22 23 24 26 27 28 32 34 36 37 
9(-1)->1 2 3 4 5 6 7 8 10 11 12 14 16 17 19 21 22 23 24 25 26 27 30 34 37 39 40 
10(-1)->1 2 3 4 5 6 7 8 9 11 12 13 16 20 21 22 23 26 27 28 29 30 31 34 35 37 38 39 
11(-1)->1 2 3 4 5 6 7 8 9 10 12 13 14 15 16 20 22 24 25 28 29 31 34 35 36 37 40 
12(-1)->1 2 3 4 5 6 7 8 9 10 11 14 15 16 20 21 22 24 26 28 32 34 36 37 40 
13(-1)->1 2 3 4 5 6 7 8 10 11 14 16 17 19 20 23 24 25 26 27 29 30 33 34 35 36 37 38 
14(-1)->1 2 3 4 5 6 7 8 9 11 12 13 15 16 20 21 22 23 24 25 29 30 31 34 35 38 
15(-1)->1 2 3 4 5 6 7 8 11 12 14 16 17 18 19 21 23 29 30 31 34 40 
16(-1)->1 2 3 4 5 6 7 8 9 10 11 12 13 14 15 18 20 21 24 27 29 32 34 36 37 38 39 
17(-1)->1 2 3 4 5 6 8 9 13 15 19 20 23 25 26 27 28 30 32 34 35 36 38 40 
18(-1)->1 2 3 4 5 6 7 8 15 16 20 23 24 26 27 28 29 31 33 34 36 37 39 40 
19(-1)->1 2 3 4 5 6 7 9 13 15 17 24 25 29 32 33 35 38 40 
20(-1)->1 2 3 4 5 6 7 10 11 12 13 14 16 17 18 21 26 29 30 32 34 35 36 37 39 40 
21(-1)->1 2 3 4 5 6 7 8 9 10 12 14 15 16 20 22 24 29 30 31 32 33 34 36 38 39 40 
22(-1)->1 2 3 4 5 6 7 8 9 10 11 12 14 21 25 26 28 31 36 39 40 
23(-1)->1 2 3 4 5 6 7 8 9 10 13 14 15 17 18 25 28 29 31 34 36 39 
24(-1)->1 2 3 4 5 6 7 8 9 11 12 13 14 16 18 19 21 30 35 36 37 39 40 
25(-1)->1 2 3 4 5 6 9 11 13 14 17 19 22 23 26 28 31 33 35 39 40 
26(-1)->1 2 3 4 5 7 8 9 10 12 13 17 18 20 22 25 27 28 30 33 35 38 39 
27(-1)->1 2 3 4 5 6 7 8 9 10 13 16 17 18 26 28 29 32 34 36 40 
28(-1)->1 2 3 4 5 6 7 8 10 11 12 17 18 22 23 25 26 27 29 30 32 34 36 
29(-1)->1 2 3 4 5 6 7 10 11 13 14 15 16 18 19 20 21 23 27 28 30 31 32 33 34 35 39 40 
30(-1)->1 2 3 5 7 9 10 13 14 15 17 20 21 24 26 28 29 33 34 36 37 40 
31(-1)->1 2 3 4 5 7 10 11 14 15 18 21 22 23 25 29 34 39 
32(-1)->1 2 3 4 6 7 8 12 16 17 19 20 21 27 28 29 33 34 35 36 38 39 40 
33(-1)->1 2 3 4 5 6 13 18 19 21 25 26 29 30 32 35 36 37 38 39 
34(-1)->1 2 3 4 5 6 7 8 9 10 11 12 13 14 15 16 17 18 20 21 23 27 28 29 30 31 32 36 37 
35(-1)->1 2 3 4 5 7 10 11 13 14 17 19 20 24 25 26 29 32 33 36 39 40 
36(-1)->1 2 3 4 5 6 7 8 11 12 13 16 17 18 20 21 22 23 24 27 28 30 32 33 34 35 38 39 
37(-1)->1 2 3 4 5 6 7 8 9 10 11 12 13 16 18 20 24 30 33 34 39 
38(-1)->1 2 3 4 7 10 13 14 16 17 19 21 26 32 33 36 39 
39(-1)->1 2 3 4 5 6 9 10 16 18 20 21 22 23 24 25 26 29 31 32 33 35 36 37 38 
40(-1)->2 3 9 11 12 15 17 18 19 20 21 22 24 25 27 29 30 32 35 
-------
Node 2 maps to position 0
Node 3 maps to position 1
Node 1 maps to position 2
Node 4 maps to position 3
Node 5 maps to position 4
Node 7 maps to position 5
Node 6 maps to position 6
Node 34 maps to position 7
Node 8 maps to position 8
Node 10 maps to position 9
Node 13 maps to position 10
Node 29 maps to position 11
Node 36 maps to position 12
Node 9 maps to position 13
Node 11 maps to position 14
Node 16 maps to position 15
Node 21 maps to position 16
Node 14 maps to position 17
Node 20 maps to position 18
Node 12 maps to position 19
Node 39 maps to position 20
Node 17 maps to position 21
Node 18 maps to position 22
Node 24 maps to position 23
Node 26 maps to position 24
Node 28 maps to position 25
Node 32 maps to position 26
Node 15 maps to position 27
Node 23 maps to position 28
Node 30 maps to position 29
Node 35 maps to position 30
Node 22 maps to position 31
Node 25 maps to position 32
Node 27 maps to position 33
Node 37 maps to position 34
Node 33 maps to position 35
Node 19 maps to position 36
Node 40 maps to position 37
Node 31 maps to position 38
Node 38 maps to position 39
2(-1)->1 3 4 5 6 7 8 9 10 11 12 13 14 15 16 17 18 19 20 21 22 23 24 25 26 27 28 29 30 31 32 33 34 35 36 37 38 39 40 
3(-1)->1 2 4 5 6 7 8 9 10 11 12 13 14 15 16 17 18 19 20 21 22 23 24 25 26 27 28 29 30 31 32 33 34 35 36 37 38 39 40 
1(-1)->2 3 4 5 6 7 8 9 10 11 12 13 14 15 16 17 18 19 20 21 22 23 24 25 26 27 28 29 30 31 32 33 34 35 36 37 38 39 
4(-1)->1 2 3 5 6 7 8 9 10 11 12 13 14 15 16 17 18 19 20 21 22 23 24 25 26 27 28 29 31 32 33 34 35 36 37 38 39 
5(-1)->1 2 3 4 6 7 8 9 10 11 12 13 14 15 16 17 18 19 20 21 22 23 24 25 26 27 28 29 30 31 33 34 35 36 37 39 
7(-1)->1 2 3 4 5 6 8 9 10 11 12 13 14 15 16 18 19 20 21 22 23 24 26 27 28 29 30 31 32 34 35 36 37 38 
6(-1)->1 2 3 4 5 7 8 9 10 11 12 13 14 15 16 17 18 19 20 21 22 23 24 25 27 28 29 32 33 34 36 37 39 
34(-1)->1 2 3 4 5 6 7 8 9 10 11 12 13 14 15 16 17 18 20 21 23 27 28 29 30 31 32 36 37 
8(-1)->1 2 3 4 5 6 7 9 10 11 12 13 14 15 16 17 18 21 22 23 24 26 27 28 32 34 36 37 
10(-1)->1 2 3 4 5 6 7 8 9 11 12 13 16 20 21 22 23 26 27 28 29 30 31 34 35 37 38 39 
13(-1)->1 2 3 4 5 6 7 8 10 11 14 16 17 19 20 23 24 25 26 27 29 30 33 34 35 36 37 38 
29(-1)->1 2 3 4 5 6 7 10 11 13 14 15 16 18 19 20 21 23 27 28 30 31 32 33 34 35 39 40 
36(-1)->1 2 3 4 5 6 7 8 11 12 13 16 17 18 20 21 22 23 24 27 28 30 32 33 34 35 38 39 
9(-1)->1 2 3 4 5 6 7 8 10 11 12 14 16 17 19 21 22 23 24 25 26 27 30 34 37 39 40 
11(-1)->1 2 3 4 5 6 7 8 9 10 12 13 14 15 16 20 22 24 25 28 29 31 34 35 36 37 40 
16(-1)->1 2 3 4 5 6 7 8 9 10 11 12 13 14 15 18 20 21 24 27 29 32 34 36 37 38 39 
21(-1)->1 2 3 4 5 6 7 8 9 10 12 14 15 16 20 22 24 29 30 31 32 33 34 36 38 39 40 
14(-1)->1 2 3 4 5 6 7 8 9 11 12 13 15 16 20 21 22 23 24 25 29 30 31 34 35 38 
20(-1)->1 2 3 4 5 6 7 10 11 12 13 14 16 17 18 21 26 29 30 32 34 35 36 37 39 40 
12(-1)->1 2 3 4 5 6 7 8 9 10 11 14 15 16 20 21 22 24 26 28 32 34 36 37 40 
39(-1)->1 2 3 4 5 6 9 10 16 18 20 21 22 23 24 25 26 29 31 32 33 35 36 37 38 
17(-1)->1 2 3 4 5 6 8 9 13 15 19 20 23 25 26 27 28 30 32 34 35 36 38 40 
18(-1)->1 2 3 4 5 6 7 8 15 16 20 23 24 26 27 28 29 31 33 34 36 37 39 40 
24(-1)->1 2 3 4 5 6 7 8 9 11 12 13 14 16 18 19 21 30 35 36 37 39 40 
26(-1)->1 2 3 4 5 7 8 9 10 12 13 17 18 20 22 25 27 28 30 33 35 38 39 
28(-1)->1 2 3 4 5 6 7 8 10 11 12 17 18 22 23 25 26 27 29 30 32 34 36 
32(-1)->1 2 3 4 6 7 8 12 16 17 19 20 21 27 28 29 33 34 35 36 38 39 40 
15(-1)->1 2 3 4 5 6 7 8 11 12 14 16 17 18 19 21 23 29 30 31 34 40 
23(-1)->1 2 3 4 5 6 7 8 9 10 13 14 15 17 18 25 28 29 31 34 36 39 
30(-1)->1 2 3 5 7 9 10 13 14 15 17 20 21 24 26 28 29 33 34 36 37 40 
35(-1)->1 2 3 4 5 7 10 11 13 14 17 19 20 24 25 26 29 32 33 36 39 40 
22(-1)->1 2 3 4 5 6 7 8 9 10 11 12 14 21 25 26 28 31 36 39 40 
25(-1)->1 2 3 4 5 6 9 11 13 14 17 19 22 23 26 28 31 33 35 39 40 
27(-1)->1 2 3 4 5 6 7 8 9 10 13 16 17 18 26 28 29 32 34 36 40 
37(-1)->1 2 3 4 5 6 7 8 9 10 11 12 13 16 18 20 24 30 33 34 39 
33(-1)->1 2 3 4 5 6 13 18 19 21 25 26 29 30 32 35 36 37 38 39 
19(-1)->1 2 3 4 5 6 7 9 13 15 17 24 25 29 32 33 35 38 40 
40(-1)->2 3 9 11 12 15 17 18 19 20 21 22 24 25 27 29 30 32 35 
31(-1)->1 2 3 4 5 7 10 11 14 15 18 21 22 23 25 29 34 39 
38(-1)->1 2 3 4 7 10 13 14 16 17 19 21 26 32 33 36 39 
-------
BLAH
START TIME: 1433711278
Cq = 15 and is assigned to x34
BACKTRACKED TO DEPTH: 33
0 1 2 3 4 5 6 7 8 9 10 11 12 13 14 
10000
20000
30000
40000
50000
60000
70000
80000
90000
100000
Cq = 14 and is assigned to x34
BACKTRACKED TO DEPTH: 33
0 1 2 3 4 5 6 7 8 9 10 11 12 13 
110000
1(2)->2 3 4 5 6 7 8 9 10 11 12 13 14 15 16 17 18 19 20 21 22 23 24 25 26 27 28 29 30 31 32 33 34 35 36 37 38 39 
2(0)->1 3 4 5 6 7 8 9 10 11 12 13 14 15 16 17 18 19 20 21 22 23 24 25 26 27 28 29 30 31 32 33 34 35 36 37 38 39 40 
3(1)->1 2 4 5 6 7 8 9 10 11 12 13 14 15 16 17 18 19 20 21 22 23 24 25 26 27 28 29 30 31 32 33 34 35 36 37 38 39 40 
4(3)->1 2 3 5 6 7 8 9 10 11 12 13 14 15 16 17 18 19 20 21 22 23 24 25 26 27 28 29 31 32 33 34 35 36 37 38 39 
5(4)->1 2 3 4 6 7 8 9 10 11 12 13 14 15 16 17 18 19 20 21 22 23 24 25 26 27 28 29 30 31 33 34 35 36 37 39 
6(6)->1 2 3 4 5 7 8 9 10 11 12 13 14 15 16 17 18 19 20 21 22 23 24 25 27 28 29 32 33 34 36 37 39 
7(5)->1 2 3 4 5 6 8 9 10 11 12 13 14 15 16 18 19 20 21 22 23 24 26 27 28 29 30 31 32 34 35 36 37 38 
8(8)->1 2 3 4 5 6 7 9 10 11 12 13 14 15 16 17 18 21 22 23 24 26 27 28 32 34 36 37 
9(11)->1 2 3 4 5 6 7 8 10 11 12 14 16 17 19 21 22 23 24 25 26 27 30 34 37 39 40 
10(9)->1 2 3 4 5 6 7 8 9 11 12 13 16 20 21 22 23 26 27 28 29 30 31 34 35 37 38 39 
11(12)->1 2 3 4 5 6 7 8 9 10 12 13 14 15 16 20 22 24 25 28 29 31 34 35 36 37 40 
12(10)->1 2 3 4 5 6 7 8 9 10 11 14 15 16 20 21 22 24 26 28 32 34 36 37 40 
13(10)->1 2 3 4 5 6 7 8 10 11 14 16 17 19 20 23 24 25 26 27 29 30 33 34 35 36 37 38 
14(9)->1 2 3 4 5 6 7 8 9 11 12 13 15 16 20 21 22 23 24 25 29 30 31 34 35 38 
15(11)->1 2 3 4 5 6 7 8 11 12 14 16 17 18 19 21 23 29 30 31 34 40 
16(13)->1 2 3 4 5 6 7 8 9 10 11 12 13 14 15 18 20 21 24 27 29 32 34 36 37 38 39 
17(5)->1 2 3 4 5 6 8 9 13 15 19 20 23 25 26 27 28 30 32 34 35 36 38 40 
18(10)->1 2 3 4 5 6 7 8 15 16 20 23 24 26 27 28 29 31 33 34 36 37 39 40 
19(9)->1 2 3 4 5 6 7 9 13 15 17 24 25 29 32 33 35 38 40 
20(11)->1 2 3 4 5 6 7 10 11 12 13 14 16 17 18 21 26 29 30 32 34 35 36 37 39 40 
21(12)->1 2 3 4 5 6 7 8 9 10 12 14 15 16 20 22 24 29 30 31 32 33 34 36 38 39 40 
22(7)->1 2 3 4 5 6 7 8 9 10 11 12 14 21 25 26 28 31 36 39 40 
23(12)->1 2 3 4 5 6 7 8 9 10 13 14 15 17 18 25 28 29 31 34 36 39 
24(7)->1 2 3 4 5 6 7 8 9 11 12 13 14 16 18 19 21 30 35 36 37 39 40 
25(8)->1 2 3 4 5 6 9 11 13 14 17 19 22 23 26 28 31 33 35 39 40 
26(6)->1 2 3 4 5 7 8 9 10 12 13 17 18 20 22 25 27 28 30 33 35 38 39 
27(12)->1 2 3 4 5 6 7 8 9 10 13 16 17 18 26 28 29 32 34 36 40 
28(11)->1 2 3 4 5 6 7 8 10 11 12 17 18 22 23 25 26 27 29 30 32 34 36 
29(8)->1 2 3 4 5 6 7 10 11 13 14 15 16 18 19 20 21 23 27 28 30 31 32 33 34 35 39 40 
30(3)->1 2 3 5 7 9 10 13 14 15 17 20 21 24 26 28 29 33 34 36 37 40 
31(6)->1 2 3 4 5 7 10 11 14 15 18 21 22 23 25 29 34 39 
32(4)->1 2 3 4 6 7 8 12 16 17 19 20 21 27 28 29 33 34 35 36 38 39 40 
33(7)->1 2 3 4 5 6 13 18 19 21 25 26 29 30 32 35 36 37 38 39 
34(7)->1 2 3 4 5 6 7 8 9 10 11 12 13 14 15 16 17 18 20 21 23 27 28 29 30 31 32 36 37 
35(13)->1 2 3 4 5 7 10 11 13 14 17 19 20 24 25 26 29 32 33 36 39 40 
36(9)->1 2 3 4 5 6 7 8 11 12 13 16 17 18 20 21 22 23 24 27 28 30 32 33 34 35 38 39 
37(14)->1 2 3 4 5 6 7 8 9 10 11 12 13 16 18 20 24 30 33 34 39 
38(8)->1 2 3 4 7 10 13 14 16 17 19 21 26 32 33 36 39 
39(5)->1 2 3 4 5 6 9 10 16 18 20 21 22 23 24 25 26 29 31 32 33 35 36 37 38 
40(2)->2 3 9 11 12 15 17 18 19 20 21 22 24 25 27 29 30 32 35 
COUNT: 110206
COLORS: 15
EDGES: 520
15
110206
