1: 2 3 4 5 6 7 8 9 10 11 12 13 14 15 16 17 18 19 20 21 22 23 24 25 26 27 28 29 30 31 32 33 34 35 36 37 38 39 40
2: 1 3 4 5 6 7 8 9 10 11 12 13 14 15 16 17 18 19 20 21 22 23 24 25 26 27 28 29 30 31 32 33 34 35 36 37 38 39
3: 1 2 4 5 6 7 8 9 10 11 12 13 14 15 16 17 18 19 20 21 22 23 24 25 26 27 28 29 30 31 32 33 34 35 36 37 38 39
4: 1 2 3 5 6 7 8 9 10 11 12 13 14 15 16 17 18 19 20 21 22 23 24 25 26 27 28 29 30 31 32 33 34 35 36 37 38 39 40
5: 1 2 3 4 6 7 8 9 10 11 12 13 14 15 16 17 18 19 20 21 22 23 24 25 26 27 28 29 30 31 32 33 34 35 36 37 38 39
6: 1 2 3 4 5 7 8 9 10 11 12 13 14 15 16 17 18 19 20 21 22 23 24 25 26 27 28 29 30 31 32 33 34 35 36 37 38 39 40
7: 1 2 3 4 5 6 8 9 10 11 12 13 14 15 16 17 18 19 20 21 22 24 25 26 28 29 30 31 32 33 34 35 36 37 38 39
8: 1 2 3 4 5 6 7 9 10 11 12 13 14 15 16 17 18 19 20 21 22 23 24 25 26 29 30 31 32 34 35 36 37 39
9: 1 2 3 4 5 6 7 8 10 11 12 13 14 15 16 17 18 19 20 21 22 23 24 25 26 29 30 31 33 35 36 37 38 39
10: 1 2 3 4 5 6 7 8 9 11 12 13 14 15 16 17 18 19 21 22 25 27 32 35 39
11: 1 2 3 4 5 6 7 8 9 10 12 13 14 15 16 17 18 19 20 21 24 25 28 29 32 34 37 38 39
12: 1 2 3 4 5 6 7 8 9 10 11 13 14 15 16 17 18 21 22 23 24 27 28 29 31 33 38 39
13: 1 2 3 4 5 6 7 8 9 10 11 12 14 16 17 18 19 23 24 36 39 40
14: 1 2 3 4 5 6 7 8 9 10 11 12 13 15 16 17 18 22 23 24 27 30 31 33 35 36 37 38 39 40
15: 1 2 3 4 5 6 7 8 9 10 11 12 14 16 18 19 20 21 24 25 29 30 31 34 36
16: 1 2 3 4 5 6 7 8 9 10 11 12 13 14 15 18 20 25 28 32 34 36 38 39
17: 1 2 3 4 5 6 7 8 9 10 11 12 13 14 18 19 21 22 23 24 25 26 29 33 34 35 38
18: 1 2 3 4 5 6 7 8 9 10 11 12 13 14 15 16 17 19 20 23 24 26 28 29 30 31 32 33 35 38
19: 1 2 3 4 5 6 7 8 9 10 11 13 15 17 18 21 22 26 28 29 30 35 36 37 39 40
20: 1 2 3 4 5 6 7 8 9 11 15 16 18 21 23 25 27 31 32 33 36 39 40
21: 1 2 3 4 5 6 7 8 9 10 11 12 15 17 19 20 26 28 30 32 34 35 36 37 38
22: 3 33 2 35 4 37 6 1 8 9 10 7 12 14 17 19 23 5 31
23: 33 2 3 36 37 6 1 8 9 12 13 14 17 18 20 22 24 4 29 30 5
24: 1 2 3 4 5 6 7 8 9 11 12 13 14 15 17 18 23 28 29 30 32 35
25: 33 34 3 4 5 6 39 8 9 10 7 2 15 16 17 20 1 11 26 29
26: 32 1 2 3 4 6 38 7 8 9 17 18 35 21 40 25 5 29 19
27: 33 2 3 4 37 38 1 10 12 14 35 20 36 6 5 29 31
28: 1 34 3 4 37 6 7 40 11 12 2 16 18 19 21 24 39 5
29: 1 2 3 4 5 6 7 8 9 11 12 15 17 18 19 23 24 25 26 27 30 32 34 35 36 38 39
30: 32 1 34 3 4 5 6 7 8 9 2 14 15 18 19 21 23 24 29 37
31: 1 2 35 4 5 6 7 8 9 12 14 15 40 18 3 20 22 27
32: 1 2 3 4 5 6 7 8 10 11 16 18 20 21 24 26 29 30 33 36 37 38 40
33: 1 2 3 4 5 6 7 9 12 14 17 18 20 22 23 25 27 32 34 36 38 40
34: 33 2 3 1 5 6 7 40 11 15 16 17 4 21 8 39 25 28 29 30
35: 1 2 3 4 5 6 7 8 9 10 14 17 18 19 21 22 24 26 27 29 31 37
36: 1 2 3 4 5 6 7 8 9 13 14 15 16 19 20 21 23 27 29 32 33 37 40
37: 1 2 3 4 5 6 7 8 9 11 14 19 21 22 23 27 28 30 32 35 36 39
38: 32 33 2 3 4 5 6 1 9 11 12 14 16 17 18 21 7 39 26 27 29
39: 1 2 3 4 5 6 7 8 9 10 11 12 13 14 16 19 20 25 28 29 34 37 38
40: 32 1 34 36 6 33 13 14 19 20 4 26 28 31
-------
1(-1)->2 3 4 5 6 7 8 9 10 11 12 13 14 15 16 17 18 19 20 21 22 23 24 25 26 27 28 29 30 31 32 33 34 35 36 37 38 39 40 
2(-1)->1 3 4 5 6 7 8 9 10 11 12 13 14 15 16 17 18 19 20 21 22 23 24 25 26 27 28 29 30 31 32 33 34 35 36 37 38 39 
3(-1)->1 2 4 5 6 7 8 9 10 11 12 13 14 15 16 17 18 19 20 21 22 23 24 25 26 27 28 29 30 31 32 33 34 35 36 37 38 39 
4(-1)->1 2 3 5 6 7 8 9 10 11 12 13 14 15 16 17 18 19 20 21 22 23 24 25 26 27 28 29 30 31 32 33 34 35 36 37 38 39 40 
5(-1)->1 2 3 4 6 7 8 9 10 11 12 13 14 15 16 17 18 19 20 21 22 23 24 25 26 27 28 29 30 31 32 33 34 35 36 37 38 39 
6(-1)->1 2 3 4 5 7 8 9 10 11 12 13 14 15 16 17 18 19 20 21 22 23 24 25 26 27 28 29 30 31 32 33 34 35 36 37 38 39 40 
7(-1)->1 2 3 4 5 6 8 9 10 11 12 13 14 15 16 17 18 19 20 21 22 24 25 26 28 29 30 31 32 33 34 35 36 37 38 39 
8(-1)->1 2 3 4 5 6 7 9 10 11 12 13 14 15 16 17 18 19 20 21 22 23 24 25 26 29 30 31 32 34 35 36 37 39 
9(-1)->1 2 3 4 5 6 7 8 10 11 12 13 14 15 16 17 18 19 20 21 22 23 24 25 26 29 30 31 33 35 36 37 38 39 
10(-1)->1 2 3 4 5 6 7 8 9 11 12 13 14 15 16 17 18 19 21 22 25 27 32 35 39 
11(-1)->1 2 3 4 5 6 7 8 9 10 12 13 14 15 16 17 18 19 20 21 24 25 28 29 32 34 37 38 39 
12(-1)->1 2 3 4 5 6 7 8 9 10 11 13 14 15 16 17 18 21 22 23 24 27 28 29 31 33 38 39 
13(-1)->1 2 3 4 5 6 7 8 9 10 11 12 14 16 17 18 19 23 24 36 39 40 
14(-1)->1 2 3 4 5 6 7 8 9 10 11 12 13 15 16 17 18 22 23 24 27 30 31 33 35 36 37 38 39 40 
15(-1)->1 2 3 4 5 6 7 8 9 10 11 12 14 16 18 19 20 21 24 25 29 30 31 34 36 
16(-1)->1 2 3 4 5 6 7 8 9 10 11 12 13 14 15 18 20 25 28 32 34 36 38 39 
17(-1)->1 2 3 4 5 6 7 8 9 10 11 12 13 14 18 19 21 22 23 24 25 26 29 33 34 35 38 
18(-1)->1 2 3 4 5 6 7 8 9 10 11 12 13 14 15 16 17 19 20 23 24 26 28 29 30 31 32 33 35 38 
19(-1)->1 2 3 4 5 6 7 8 9 10 11 13 15 17 18 21 22 26 28 29 30 35 36 37 39 40 
20(-1)->1 2 3 4 5 6 7 8 9 11 15 16 18 21 23 25 27 31 32 33 36 39 40 
21(-1)->1 2 3 4 5 6 7 8 9 10 11 12 15 17 19 20 26 28 30 32 34 35 36 37 38 
22(-1)->1 2 3 4 5 6 7 8 9 10 12 14 17 19 23 31 33 35 37 
23(-1)->1 2 3 4 5 6 8 9 12 13 14 17 18 20 22 24 29 30 33 36 37 
24(-1)->1 2 3 4 5 6 7 8 9 11 12 13 14 15 17 18 23 28 29 30 32 35 
25(-1)->1 2 3 4 5 6 7 8 9 10 11 15 16 17 20 26 29 33 34 39 
26(-1)->1 2 3 4 5 6 7 8 9 17 18 19 21 25 29 32 35 38 40 
27(-1)->1 2 3 4 5 6 10 12 14 20 29 31 33 35 36 37 38 
28(-1)->1 2 3 4 5 6 7 11 12 16 18 19 21 24 34 37 39 40 
29(-1)->1 2 3 4 5 6 7 8 9 11 12 15 17 18 19 23 24 25 26 27 30 32 34 35 36 38 39 
30(-1)->1 2 3 4 5 6 7 8 9 14 15 18 19 21 23 24 29 32 34 37 
31(-1)->1 2 3 4 5 6 7 8 9 12 14 15 18 20 22 27 35 40 
32(-1)->1 2 3 4 5 6 7 8 10 11 16 18 20 21 24 26 29 30 33 36 37 38 40 
33(-1)->1 2 3 4 5 6 7 9 12 14 17 18 20 22 23 25 27 32 34 36 38 40 
34(-1)->1 2 3 4 5 6 7 8 11 15 16 17 21 25 28 29 30 33 39 40 
35(-1)->1 2 3 4 5 6 7 8 9 10 14 17 18 19 21 22 24 26 27 29 31 37 
36(-1)->1 2 3 4 5 6 7 8 9 13 14 15 16 19 20 21 23 27 29 32 33 37 40 
37(-1)->1 2 3 4 5 6 7 8 9 11 14 19 21 22 23 27 28 30 32 35 36 39 
38(-1)->1 2 3 4 5 6 7 9 11 12 14 16 17 18 21 26 27 29 32 33 39 
39(-1)->1 2 3 4 5 6 7 8 9 10 11 12 13 14 16 19 20 25 28 29 34 37 38 
40(-1)->1 4 6 13 14 19 20 26 28 31 32 33 34 36 
-------
Node 1 maps to position 0
Node 4 maps to position 1
Node 6 maps to position 2
Node 2 maps to position 3
Node 3 maps to position 4
Node 5 maps to position 5
Node 7 maps to position 6
Node 8 maps to position 7
Node 9 maps to position 8
Node 14 maps to position 9
Node 18 maps to position 10
Node 11 maps to position 11
Node 12 maps to position 12
Node 17 maps to position 13
Node 29 maps to position 14
Node 19 maps to position 15
Node 10 maps to position 16
Node 15 maps to position 17
Node 21 maps to position 18
Node 16 maps to position 19
Node 20 maps to position 20
Node 32 maps to position 21
Node 36 maps to position 22
Node 39 maps to position 23
Node 13 maps to position 24
Node 24 maps to position 25
Node 33 maps to position 26
Node 35 maps to position 27
Node 37 maps to position 28
Node 23 maps to position 29
Node 38 maps to position 30
Node 25 maps to position 31
Node 30 maps to position 32
Node 34 maps to position 33
Node 22 maps to position 34
Node 26 maps to position 35
Node 28 maps to position 36
Node 31 maps to position 37
Node 27 maps to position 38
Node 40 maps to position 39
1(-1)->2 3 4 5 6 7 8 9 10 11 12 13 14 15 16 17 18 19 20 21 22 23 24 25 26 27 28 29 30 31 32 33 34 35 36 37 38 39 40 
4(-1)->1 2 3 5 6 7 8 9 10 11 12 13 14 15 16 17 18 19 20 21 22 23 24 25 26 27 28 29 30 31 32 33 34 35 36 37 38 39 40 
6(-1)->1 2 3 4 5 7 8 9 10 11 12 13 14 15 16 17 18 19 20 21 22 23 24 25 26 27 28 29 30 31 32 33 34 35 36 37 38 39 40 
2(-1)->1 3 4 5 6 7 8 9 10 11 12 13 14 15 16 17 18 19 20 21 22 23 24 25 26 27 28 29 30 31 32 33 34 35 36 37 38 39 
3(-1)->1 2 4 5 6 7 8 9 10 11 12 13 14 15 16 17 18 19 20 21 22 23 24 25 26 27 28 29 30 31 32 33 34 35 36 37 38 39 
5(-1)->1 2 3 4 6 7 8 9 10 11 12 13 14 15 16 17 18 19 20 21 22 23 24 25 26 27 28 29 30 31 32 33 34 35 36 37 38 39 
7(-1)->1 2 3 4 5 6 8 9 10 11 12 13 14 15 16 17 18 19 20 21 22 24 25 26 28 29 30 31 32 33 34 35 36 37 38 39 
8(-1)->1 2 3 4 5 6 7 9 10 11 12 13 14 15 16 17 18 19 20 21 22 23 24 25 26 29 30 31 32 34 35 36 37 39 
9(-1)->1 2 3 4 5 6 7 8 10 11 12 13 14 15 16 17 18 19 20 21 22 23 24 25 26 29 30 31 33 35 36 37 38 39 
14(-1)->1 2 3 4 5 6 7 8 9 10 11 12 13 15 16 17 18 22 23 24 27 30 31 33 35 36 37 38 39 40 
18(-1)->1 2 3 4 5 6 7 8 9 10 11 12 13 14 15 16 17 19 20 23 24 26 28 29 30 31 32 33 35 38 
11(-1)->1 2 3 4 5 6 7 8 9 10 12 13 14 15 16 17 18 19 20 21 24 25 28 29 32 34 37 38 39 
12(-1)->1 2 3 4 5 6 7 8 9 10 11 13 14 15 16 17 18 21 22 23 24 27 28 29 31 33 38 39 
17(-1)->1 2 3 4 5 6 7 8 9 10 11 12 13 14 18 19 21 22 23 24 25 26 29 33 34 35 38 
29(-1)->1 2 3 4 5 6 7 8 9 11 12 15 17 18 19 23 24 25 26 27 30 32 34 35 36 38 39 
19(-1)->1 2 3 4 5 6 7 8 9 10 11 13 15 17 18 21 22 26 28 29 30 35 36 37 39 40 
10(-1)->1 2 3 4 5 6 7 8 9 11 12 13 14 15 16 17 18 19 21 22 25 27 32 35 39 
15(-1)->1 2 3 4 5 6 7 8 9 10 11 12 14 16 18 19 20 21 24 25 29 30 31 34 36 
21(-1)->1 2 3 4 5 6 7 8 9 10 11 12 15 17 19 20 26 28 30 32 34 35 36 37 38 
16(-1)->1 2 3 4 5 6 7 8 9 10 11 12 13 14 15 18 20 25 28 32 34 36 38 39 
20(-1)->1 2 3 4 5 6 7 8 9 11 15 16 18 21 23 25 27 31 32 33 36 39 40 
32(-1)->1 2 3 4 5 6 7 8 10 11 16 18 20 21 24 26 29 30 33 36 37 38 40 
36(-1)->1 2 3 4 5 6 7 8 9 13 14 15 16 19 20 21 23 27 29 32 33 37 40 
39(-1)->1 2 3 4 5 6 7 8 9 10 11 12 13 14 16 19 20 25 28 29 34 37 38 
13(-1)->1 2 3 4 5 6 7 8 9 10 11 12 14 16 17 18 19 23 24 36 39 40 
24(-1)->1 2 3 4 5 6 7 8 9 11 12 13 14 15 17 18 23 28 29 30 32 35 
33(-1)->1 2 3 4 5 6 7 9 12 14 17 18 20 22 23 25 27 32 34 36 38 40 
35(-1)->1 2 3 4 5 6 7 8 9 10 14 17 18 19 21 22 24 26 27 29 31 37 
37(-1)->1 2 3 4 5 6 7 8 9 11 14 19 21 22 23 27 28 30 32 35 36 39 
23(-1)->1 2 3 4 5 6 8 9 12 13 14 17 18 20 22 24 29 30 33 36 37 
38(-1)->1 2 3 4 5 6 7 9 11 12 14 16 17 18 21 26 27 29 32 33 39 
25(-1)->1 2 3 4 5 6 7 8 9 10 11 15 16 17 20 26 29 33 34 39 
30(-1)->1 2 3 4 5 6 7 8 9 14 15 18 19 21 23 24 29 32 34 37 
34(-1)->1 2 3 4 5 6 7 8 11 15 16 17 21 25 28 29 30 33 39 40 
22(-1)->1 2 3 4 5 6 7 8 9 10 12 14 17 19 23 31 33 35 37 
26(-1)->1 2 3 4 5 6 7 8 9 17 18 19 21 25 29 32 35 38 40 
28(-1)->1 2 3 4 5 6 7 11 12 16 18 19 21 24 34 37 39 40 
31(-1)->1 2 3 4 5 6 7 8 9 12 14 15 18 20 22 27 35 40 
27(-1)->1 2 3 4 5 6 10 12 14 20 29 31 33 35 36 37 38 
40(-1)->1 4 6 13 14 19 20 26 28 31 32 33 34 36 
-------
BLAH
START TIME: 1433711283
Cq = 16 and is assigned to x24
BACKTRACKED TO DEPTH: 23
0 1 2 3 4 5 6 7 8 9 10 11 12 13 14 15 
Cq = 15 and is assigned to x17
BACKTRACKED TO DEPTH: 16
0 1 2 3 4 5 6 7 8 9 10 11 12 13 14 
1(0)->2 3 4 5 6 7 8 9 10 11 12 13 14 15 16 17 18 19 20 21 22 23 24 25 26 27 28 29 30 31 32 33 34 35 36 37 38 39 40 
2(3)->1 3 4 5 6 7 8 9 10 11 12 13 14 15 16 17 18 19 20 21 22 23 24 25 26 27 28 29 30 31 32 33 34 35 36 37 38 39 
3(4)->1 2 4 5 6 7 8 9 10 11 12 13 14 15 16 17 18 19 20 21 22 23 24 25 26 27 28 29 30 31 32 33 34 35 36 37 38 39 
4(1)->1 2 3 5 6 7 8 9 10 11 12 13 14 15 16 17 18 19 20 21 22 23 24 25 26 27 28 29 30 31 32 33 34 35 36 37 38 39 40 
5(5)->1 2 3 4 6 7 8 9 10 11 12 13 14 15 16 17 18 19 20 21 22 23 24 25 26 27 28 29 30 31 32 33 34 35 36 37 38 39 
6(2)->1 2 3 4 5 7 8 9 10 11 12 13 14 15 16 17 18 19 20 21 22 23 24 25 26 27 28 29 30 31 32 33 34 35 36 37 38 39 40 
7(6)->1 2 3 4 5 6 8 9 10 11 12 13 14 15 16 17 18 19 20 21 22 24 25 26 28 29 30 31 32 33 34 35 36 37 38 39 
8(7)->1 2 3 4 5 6 7 9 10 11 12 13 14 15 16 17 18 19 20 21 22 23 24 25 26 29 30 31 32 34 35 36 37 39 
9(8)->1 2 3 4 5 6 7 8 10 11 12 13 14 15 16 17 18 19 20 21 22 23 24 25 26 29 30 31 33 35 36 37 38 39 
10(14)->1 2 3 4 5 6 7 8 9 11 12 13 14 15 16 17 18 19 21 22 25 27 32 35 39 
11(11)->1 2 3 4 5 6 7 8 9 10 12 13 14 15 16 17 18 19 20 21 24 25 28 29 32 34 37 38 39 
12(12)->1 2 3 4 5 6 7 8 9 10 11 13 14 15 16 17 18 21 22 23 24 27 28 29 31 33 38 39 
13(15)->1 2 3 4 5 6 7 8 9 10 11 12 14 16 17 18 19 23 24 36 39 40 
14(9)->1 2 3 4 5 6 7 8 9 10 11 12 13 15 16 17 18 22 23 24 27 30 31 33 35 36 37 38 39 40 
15(15)->1 2 3 4 5 6 7 8 9 10 11 12 14 16 18 19 20 21 24 25 29 30 31 34 36 
16(13)->1 2 3 4 5 6 7 8 9 10 11 12 13 14 15 18 20 25 28 32 34 36 38 39 
17(13)->1 2 3 4 5 6 7 8 9 10 11 12 13 14 18 19 21 22 23 24 25 26 29 33 34 35 38 
18(10)->1 2 3 4 5 6 7 8 9 10 11 12 13 14 15 16 17 19 20 23 24 26 28 29 30 31 32 33 35 38 
19(12)->1 2 3 4 5 6 7 8 9 10 11 13 15 17 18 21 22 26 28 29 30 35 36 37 39 40 
20(14)->1 2 3 4 5 6 7 8 9 11 15 16 18 21 23 25 27 31 32 33 36 39 40 
21(9)->1 2 3 4 5 6 7 8 9 10 11 12 15 17 19 20 26 28 30 32 34 35 36 37 38 
22(10)->1 2 3 4 5 6 7 8 9 10 12 14 17 19 23 31 33 35 37 
23(6)->1 2 3 4 5 6 8 9 12 13 14 17 18 20 22 24 29 30 33 36 37 
24(14)->1 2 3 4 5 6 7 8 9 11 12 13 14 15 17 18 23 28 29 30 32 35 
25(12)->1 2 3 4 5 6 7 8 9 10 11 15 16 17 20 26 29 33 34 39 
26(15)->1 2 3 4 5 6 7 8 9 17 18 19 21 25 29 32 35 38 40 
27(6)->1 2 3 4 5 6 10 12 14 20 29 31 33 35 36 37 38 
28(7)->1 2 3 4 5 6 7 11 12 16 18 19 21 24 34 37 39 40 
29(9)->1 2 3 4 5 6 7 8 9 11 12 15 17 18 19 23 24 25 26 27 30 32 34 35 36 38 39 
30(11)->1 2 3 4 5 6 7 8 9 14 15 18 19 21 23 24 29 32 34 37 
31(13)->1 2 3 4 5 6 7 8 9 12 14 15 18 20 22 27 35 40 
32(8)->1 2 3 4 5 6 7 8 10 11 16 18 20 21 24 26 29 30 33 36 37 38 40 
33(7)->1 2 3 4 5 6 7 9 12 14 17 18 20 22 23 25 27 32 34 36 38 40 
34(8)->1 2 3 4 5 6 7 8 11 15 16 17 21 25 28 29 30 33 39 40 
35(11)->1 2 3 4 5 6 7 8 9 10 14 17 18 19 21 22 24 26 27 29 31 37 
36(10)->1 2 3 4 5 6 7 8 9 13 14 15 16 19 20 21 23 27 29 32 33 37 40 
37(13)->1 2 3 4 5 6 7 8 9 11 14 19 21 22 23 27 28 30 32 35 36 39 
38(14)->1 2 3 4 5 6 7 9 11 12 14 16 17 18 21 26 27 29 32 33 39 
39(10)->1 2 3 4 5 6 7 8 9 10 11 12 13 14 16 19 20 25 28 29 34 37 38 
40(3)->1 4 6 13 14 19 20 26 28 31 32 33 34 36 
COUNT: 669
COLORS: 16
EDGES: 520
16
669
