1: 2 3 4 5 6 7 8 9 10 11 12 13 14 15 16 17 18 19 20 21 22 23 24 25 26 27 28 29 30 31 32 33 34 35 36 37 38 39
2: 1 3 4 5 6 7 8 9 10 11 12 13 14 15 16 17 18 19 20 21 22 23 24 25 26 27 28 29 30 31 32 33 34 35 36 37 38 39
3: 1 2 4 5 6 7 8 9 10 11 12 13 14 15 16 17 18 19 20 21 22 23 24 25 26 27 28 29 30 31 32 33 34 35 36 37 38 39
4: 1 2 3 5 6 7 8 9 10 11 12 13 14 15 16 17 18 19 20 21 23 24 25 26 27 28 29 30 31 32 33 34 35 36 37 38 39
5: 1 2 3 4 6 7 8 9 10 11 12 13 14 15 16 17 18 21 22 23 24 25 27 30 31 32 33 34 35 37 38 39 40
6: 1 2 3 4 5 7 8 9 10 11 13 14 15 17 18 20 21 23 24 25 26 27 32 35 37 38 39
7: 1 2 3 4 5 6 8 9 10 12 13 16 19 21 23 24 25 27 28 31 32 33 37 39 40
8: 1 2 3 4 5 6 7 9 10 11 12 13 19 20 21 23 27 28 31 33 37 39
9: 1 2 3 4 5 6 7 8 10 11 13 21 24 25 26 27 29 31 33 35 36 37 39
10: 32 1 2 35 36 5 3 7 8 9 11 12 13 18 19 20 22 4 6 27 29
11: 1 2 3 4 5 6 8 9 10 13 14 17 18 19 20 23 24 27 29 32 37 39
12: 1 34 3 4 5 39 8 10 7 2 16 18 19 21 25 26 27 29
13: 33 34 3 4 37 6 7 8 9 10 11 2 19 1 23 26 27 5
14: 32 1 2 3 36 5 38 39 11 34 15 19 22 25 6 29 4 31
15: 33 2 3 36 5 38 39 40 34 14 16 19 1 4 6 27 28 31
16: 32 1 2 3 36 5 7 40 39 12 34 15 18 19 22 24 25 26 27 4 31
17: 32 33 2 3 36 5 6 1 31 11 18 19 20 22 25 26 27 29 4 37
18: 32 1 2 35 4 5 6 39 10 11 12 3 16 17 19 21 26 28 31
19: 1 2 3 4 7 8 10 11 12 13 14 15 16 17 18 21 22 23 25 27 29 36 38 39
20: 1 34 3 36 37 6 8 10 11 2 17 22 40 4 26 27 29
21: 33 34 3 4 5 6 1 40 9 7 12 2 8 18 19 22 36 38 29 37
22: 3 33 2 35 1 5 38 39 40 10 14 16 17 19 20 21 23 25 26
23: 3 1 2 11 4 37 6 33 8 39 13 19 22 7 28 5
24: 32 1 2 3 36 37 6 7 9 11 16 35 4 25 26 27 30 5
25: 33 2 3 4 37 6 7 9 12 14 16 17 19 1 22 24 27 5 30 31
26: 32 33 2 3 4 38 6 39 40 9 12 13 16 17 18 20 1 22 24 30
27: 1 2 3 4 5 6 7 8 9 10 11 12 13 15 16 17 19 20 24 25 28 30 31 32 33 34
28: 1 2 3 36 37 38 7 8 15 18 23 4 27 31
29: 3 1 2 35 36 38 39 40 9 10 11 12 14 17 19 20 21 4 30 31
30: 33 2 3 1 37 39 34 24 25 26 27 5 29 4 31
31: 1 2 3 4 5 7 8 9 14 15 16 17 18 25 27 28 29 30 32 35 37 38 40
32: 1 2 3 36 5 6 7 40 10 11 14 16 17 18 24 4 26 27 31
33: 1 34 3 4 5 39 8 9 7 13 15 17 21 22 23 2 25 26 27 30 37
34: 33 2 3 4 5 38 1 40 39 12 13 14 15 16 20 21 27 30
35: 1 2 3 4 38 6 9 10 18 22 24 37 5 29 31
36: 32 1 2 3 4 37 40 9 10 14 15 16 17 19 20 21 24 28 29
37: 1 2 3 4 5 6 7 8 9 11 13 17 20 21 23 24 25 28 30 31 33 35 36
38: 3 1 34 35 4 5 6 39 40 2 14 15 19 21 22 26 28 29 31
39: 1 2 3 4 5 6 7 8 9 11 12 14 15 16 18 19 22 23 26 29 30 33 34 38
40: 32 34 36 5 38 7 15 16 20 21 22 26 29 31
-------
1(-1)->2 3 4 5 6 7 8 9 10 11 12 13 14 15 16 17 18 19 20 21 22 23 24 25 26 27 28 29 30 31 32 33 34 35 36 37 38 39 
2(-1)->1 3 4 5 6 7 8 9 10 11 12 13 14 15 16 17 18 19 20 21 22 23 24 25 26 27 28 29 30 31 32 33 34 35 36 37 38 39 
3(-1)->1 2 4 5 6 7 8 9 10 11 12 13 14 15 16 17 18 19 20 21 22 23 24 25 26 27 28 29 30 31 32 33 34 35 36 37 38 39 
4(-1)->1 2 3 5 6 7 8 9 10 11 12 13 14 15 16 17 18 19 20 21 23 24 25 26 27 28 29 30 31 32 33 34 35 36 37 38 39 
5(-1)->1 2 3 4 6 7 8 9 10 11 12 13 14 15 16 17 18 21 22 23 24 25 27 30 31 32 33 34 35 37 38 39 40 
6(-1)->1 2 3 4 5 7 8 9 10 11 13 14 15 17 18 20 21 23 24 25 26 27 32 35 37 38 39 
7(-1)->1 2 3 4 5 6 8 9 10 12 13 16 19 21 23 24 25 27 28 31 32 33 37 39 40 
8(-1)->1 2 3 4 5 6 7 9 10 11 12 13 19 20 21 23 27 28 31 33 37 39 
9(-1)->1 2 3 4 5 6 7 8 10 11 13 21 24 25 26 27 29 31 33 35 36 37 39 
10(-1)->1 2 3 4 5 6 7 8 9 11 12 13 18 19 20 22 27 29 32 35 36 
11(-1)->1 2 3 4 5 6 8 9 10 13 14 17 18 19 20 23 24 27 29 32 37 39 
12(-1)->1 2 3 4 5 7 8 10 16 18 19 21 25 26 27 29 34 39 
13(-1)->1 2 3 4 5 6 7 8 9 10 11 19 23 26 27 33 34 37 
14(-1)->1 2 3 4 5 6 11 15 19 22 25 29 31 32 34 36 38 39 
15(-1)->1 2 3 4 5 6 14 16 19 27 28 31 33 34 36 38 39 40 
16(-1)->1 2 3 4 5 7 12 15 18 19 22 24 25 26 27 31 32 34 36 39 40 
17(-1)->1 2 3 4 5 6 11 18 19 20 22 25 26 27 29 31 32 33 36 37 
18(-1)->1 2 3 4 5 6 10 11 12 16 17 19 21 26 28 31 32 35 39 
19(-1)->1 2 3 4 7 8 10 11 12 13 14 15 16 17 18 21 22 23 25 27 29 36 38 39 
20(-1)->1 2 3 4 6 8 10 11 17 22 26 27 29 34 36 37 40 
21(-1)->1 2 3 4 5 6 7 8 9 12 18 19 22 29 33 34 36 37 38 40 
22(-1)->1 2 3 5 10 14 16 17 19 20 21 23 25 26 33 35 38 39 40 
23(-1)->1 2 3 4 5 6 7 8 11 13 19 22 28 33 37 39 
24(-1)->1 2 3 4 5 6 7 9 11 16 25 26 27 30 32 35 36 37 
25(-1)->1 2 3 4 5 6 7 9 12 14 16 17 19 22 24 27 30 31 33 37 
26(-1)->1 2 3 4 6 9 12 13 16 17 18 20 22 24 30 32 33 38 39 40 
27(-1)->1 2 3 4 5 6 7 8 9 10 11 12 13 15 16 17 19 20 24 25 28 30 31 32 33 34 
28(-1)->1 2 3 4 7 8 15 18 23 27 31 36 37 38 
29(-1)->1 2 3 4 9 10 11 12 14 17 19 20 21 30 31 35 36 38 39 40 
30(-1)->1 2 3 4 5 24 25 26 27 29 31 33 34 37 39 
31(-1)->1 2 3 4 5 7 8 9 14 15 16 17 18 25 27 28 29 30 32 35 37 38 40 
32(-1)->1 2 3 4 5 6 7 10 11 14 16 17 18 24 26 27 31 36 40 
33(-1)->1 2 3 4 5 7 8 9 13 15 17 21 22 23 25 26 27 30 34 37 39 
34(-1)->1 2 3 4 5 12 13 14 15 16 20 21 27 30 33 38 39 40 
35(-1)->1 2 3 4 5 6 9 10 18 22 24 29 31 37 38 
36(-1)->1 2 3 4 9 10 14 15 16 17 19 20 21 24 28 29 32 37 40 
37(-1)->1 2 3 4 5 6 7 8 9 11 13 17 20 21 23 24 25 28 30 31 33 35 36 
38(-1)->1 2 3 4 5 6 14 15 19 21 22 26 28 29 31 34 35 39 40 
39(-1)->1 2 3 4 5 6 7 8 9 11 12 14 15 16 18 19 22 23 26 29 30 33 34 38 
40(-1)->5 7 15 16 20 21 22 26 29 31 32 34 36 38 
-------
Node 1 maps to position 0
Node 2 maps to position 1
Node 3 maps to position 2
Node 4 maps to position 3
Node 5 maps to position 4
Node 6 maps to position 5
Node 27 maps to position 6
Node 7 maps to position 7
Node 19 maps to position 8
Node 39 maps to position 9
Node 9 maps to position 10
Node 31 maps to position 11
Node 37 maps to position 12
Node 8 maps to position 13
Node 11 maps to position 14
Node 10 maps to position 15
Node 16 maps to position 16
Node 33 maps to position 17
Node 17 maps to position 18
Node 21 maps to position 19
Node 25 maps to position 20
Node 26 maps to position 21
Node 29 maps to position 22
Node 18 maps to position 23
Node 22 maps to position 24
Node 32 maps to position 25
Node 36 maps to position 26
Node 38 maps to position 27
Node 12 maps to position 28
Node 13 maps to position 29
Node 14 maps to position 30
Node 15 maps to position 31
Node 24 maps to position 32
Node 34 maps to position 33
Node 20 maps to position 34
Node 23 maps to position 35
Node 30 maps to position 36
Node 35 maps to position 37
Node 28 maps to position 38
Node 40 maps to position 39
1(-1)->2 3 4 5 6 7 8 9 10 11 12 13 14 15 16 17 18 19 20 21 22 23 24 25 26 27 28 29 30 31 32 33 34 35 36 37 38 39 
2(-1)->1 3 4 5 6 7 8 9 10 11 12 13 14 15 16 17 18 19 20 21 22 23 24 25 26 27 28 29 30 31 32 33 34 35 36 37 38 39 
3(-1)->1 2 4 5 6 7 8 9 10 11 12 13 14 15 16 17 18 19 20 21 22 23 24 25 26 27 28 29 30 31 32 33 34 35 36 37 38 39 
4(-1)->1 2 3 5 6 7 8 9 10 11 12 13 14 15 16 17 18 19 20 21 23 24 25 26 27 28 29 30 31 32 33 34 35 36 37 38 39 
5(-1)->1 2 3 4 6 7 8 9 10 11 12 13 14 15 16 17 18 21 22 23 24 25 27 30 31 32 33 34 35 37 38 39 40 
6(-1)->1 2 3 4 5 7 8 9 10 11 13 14 15 17 18 20 21 23 24 25 26 27 32 35 37 38 39 
27(-1)->1 2 3 4 5 6 7 8 9 10 11 12 13 15 16 17 19 20 24 25 28 30 31 32 33 34 
7(-1)->1 2 3 4 5 6 8 9 10 12 13 16 19 21 23 24 25 27 28 31 32 33 37 39 40 
19(-1)->1 2 3 4 7 8 10 11 12 13 14 15 16 17 18 21 22 23 25 27 29 36 38 39 
39(-1)->1 2 3 4 5 6 7 8 9 11 12 14 15 16 18 19 22 23 26 29 30 33 34 38 
9(-1)->1 2 3 4 5 6 7 8 10 11 13 21 24 25 26 27 29 31 33 35 36 37 39 
31(-1)->1 2 3 4 5 7 8 9 14 15 16 17 18 25 27 28 29 30 32 35 37 38 40 
37(-1)->1 2 3 4 5 6 7 8 9 11 13 17 20 21 23 24 25 28 30 31 33 35 36 
8(-1)->1 2 3 4 5 6 7 9 10 11 12 13 19 20 21 23 27 28 31 33 37 39 
11(-1)->1 2 3 4 5 6 8 9 10 13 14 17 18 19 20 23 24 27 29 32 37 39 
10(-1)->1 2 3 4 5 6 7 8 9 11 12 13 18 19 20 22 27 29 32 35 36 
16(-1)->1 2 3 4 5 7 12 15 18 19 22 24 25 26 27 31 32 34 36 39 40 
33(-1)->1 2 3 4 5 7 8 9 13 15 17 21 22 23 25 26 27 30 34 37 39 
17(-1)->1 2 3 4 5 6 11 18 19 20 22 25 26 27 29 31 32 33 36 37 
21(-1)->1 2 3 4 5 6 7 8 9 12 18 19 22 29 33 34 36 37 38 40 
25(-1)->1 2 3 4 5 6 7 9 12 14 16 17 19 22 24 27 30 31 33 37 
26(-1)->1 2 3 4 6 9 12 13 16 17 18 20 22 24 30 32 33 38 39 40 
29(-1)->1 2 3 4 9 10 11 12 14 17 19 20 21 30 31 35 36 38 39 40 
18(-1)->1 2 3 4 5 6 10 11 12 16 17 19 21 26 28 31 32 35 39 
22(-1)->1 2 3 5 10 14 16 17 19 20 21 23 25 26 33 35 38 39 40 
32(-1)->1 2 3 4 5 6 7 10 11 14 16 17 18 24 26 27 31 36 40 
36(-1)->1 2 3 4 9 10 14 15 16 17 19 20 21 24 28 29 32 37 40 
38(-1)->1 2 3 4 5 6 14 15 19 21 22 26 28 29 31 34 35 39 40 
12(-1)->1 2 3 4 5 7 8 10 16 18 19 21 25 26 27 29 34 39 
13(-1)->1 2 3 4 5 6 7 8 9 10 11 19 23 26 27 33 34 37 
14(-1)->1 2 3 4 5 6 11 15 19 22 25 29 31 32 34 36 38 39 
15(-1)->1 2 3 4 5 6 14 16 19 27 28 31 33 34 36 38 39 40 
24(-1)->1 2 3 4 5 6 7 9 11 16 25 26 27 30 32 35 36 37 
34(-1)->1 2 3 4 5 12 13 14 15 16 20 21 27 30 33 38 39 40 
20(-1)->1 2 3 4 6 8 10 11 17 22 26 27 29 34 36 37 40 
23(-1)->1 2 3 4 5 6 7 8 11 13 19 22 28 33 37 39 
30(-1)->1 2 3 4 5 24 25 26 27 29 31 33 34 37 39 
35(-1)->1 2 3 4 5 6 9 10 18 22 24 29 31 37 38 
28(-1)->1 2 3 4 7 8 15 18 23 27 31 36 37 38 
40(-1)->5 7 15 16 20 21 22 26 29 31 32 34 36 38 
-------
BLAH
START TIME: 1433711267
Cq = 12 and is assigned to x33
BACKTRACKED TO DEPTH: 32
0 1 2 3 4 5 6 7 8 9 10 11 
Cq = 11 and is assigned to x25
BACKTRACKED TO DEPTH: 24
0 1 2 3 4 5 6 7 8 9 10 
1(0)->2 3 4 5 6 7 8 9 10 11 12 13 14 15 16 17 18 19 20 21 22 23 24 25 26 27 28 29 30 31 32 33 34 35 36 37 38 39 
2(1)->1 3 4 5 6 7 8 9 10 11 12 13 14 15 16 17 18 19 20 21 22 23 24 25 26 27 28 29 30 31 32 33 34 35 36 37 38 39 
3(2)->1 2 4 5 6 7 8 9 10 11 12 13 14 15 16 17 18 19 20 21 22 23 24 25 26 27 28 29 30 31 32 33 34 35 36 37 38 39 
4(3)->1 2 3 5 6 7 8 9 10 11 12 13 14 15 16 17 18 19 20 21 23 24 25 26 27 28 29 30 31 32 33 34 35 36 37 38 39 
5(4)->1 2 3 4 6 7 8 9 10 11 12 13 14 15 16 17 18 21 22 23 24 25 27 30 31 32 33 34 35 37 38 39 40 
6(5)->1 2 3 4 5 7 8 9 10 11 13 14 15 17 18 20 21 23 24 25 26 27 32 35 37 38 39 
7(7)->1 2 3 4 5 6 8 9 10 12 13 16 19 21 23 24 25 27 28 31 32 33 37 39 40 
8(9)->1 2 3 4 5 6 7 9 10 11 12 13 19 20 21 23 27 28 31 33 37 39 
9(8)->1 2 3 4 5 6 7 8 10 11 13 21 24 25 26 27 29 31 33 35 36 37 39 
10(10)->1 2 3 4 5 6 7 8 9 11 12 13 18 19 20 22 27 29 32 35 36 
11(7)->1 2 3 4 5 6 8 9 10 13 14 17 18 19 20 23 24 27 29 32 37 39 
12(5)->1 2 3 4 5 7 8 10 16 18 19 21 25 26 27 29 34 39 
13(11)->1 2 3 4 5 6 7 8 9 10 11 19 23 26 27 33 34 37 
14(8)->1 2 3 4 5 6 11 15 19 22 25 29 31 32 34 36 38 39 
15(10)->1 2 3 4 5 6 14 16 19 27 28 31 33 34 36 38 39 40 
16(8)->1 2 3 4 5 7 12 15 18 19 22 24 25 26 27 31 32 34 36 39 40 
17(8)->1 2 3 4 5 6 11 18 19 20 22 25 26 27 29 31 32 33 36 37 
18(9)->1 2 3 4 5 6 10 11 12 16 17 19 21 26 28 31 32 35 39 
19(4)->1 2 3 4 7 8 10 11 12 13 14 15 16 17 18 21 22 23 25 27 29 36 38 39 
20(11)->1 2 3 4 6 8 10 11 17 22 26 27 29 34 36 37 40 
21(10)->1 2 3 4 5 6 7 8 9 12 18 19 22 29 33 34 36 37 38 40 
22(3)->1 2 3 5 10 14 16 17 19 20 21 23 25 26 33 35 38 39 40 
23(8)->1 2 3 4 5 6 7 8 11 13 19 22 28 33 37 39 
24(10)->1 2 3 4 5 6 7 9 11 16 25 26 27 30 32 35 36 37 
25(9)->1 2 3 4 5 6 7 9 12 14 16 17 19 22 24 27 30 31 33 37 
26(4)->1 2 3 4 6 9 12 13 16 17 18 20 22 24 30 32 33 38 39 40 
27(6)->1 2 3 4 5 6 7 8 9 10 11 12 13 15 16 17 19 20 24 25 28 30 31 32 33 34 
28(4)->1 2 3 4 7 8 15 18 23 27 31 36 37 38 
29(9)->1 2 3 4 9 10 11 12 14 17 19 20 21 30 31 35 36 38 39 40 
30(7)->1 2 3 4 5 24 25 26 27 29 31 33 34 37 39 
31(5)->1 2 3 4 5 7 8 9 14 15 16 17 18 25 27 28 29 30 32 35 37 38 40 
32(11)->1 2 3 4 5 6 7 10 11 14 16 17 18 24 26 27 31 36 40 
33(5)->1 2 3 4 5 7 8 9 13 15 17 21 22 23 25 26 27 30 34 37 39 
34(9)->1 2 3 4 5 12 13 14 15 16 20 21 27 30 33 38 39 40 
35(11)->1 2 3 4 5 6 9 10 18 22 24 29 31 37 38 
36(5)->1 2 3 4 9 10 14 15 16 17 19 20 21 24 28 29 32 37 40 
37(6)->1 2 3 4 5 6 7 8 9 11 13 17 20 21 23 24 25 28 30 31 33 35 36 
38(7)->1 2 3 4 5 6 14 15 19 21 22 26 28 29 31 34 35 39 40 
39(6)->1 2 3 4 5 6 7 8 9 11 12 14 15 16 18 19 22 23 26 29 30 33 34 38 
40(0)->5 7 15 16 20 21 22 26 29 31 32 34 36 38 
COUNT: 3576
COLORS: 12
EDGES: 440
12
3576
