1: 2 3 4 5 6 7 8 9 10 11 12 13 14 15 16 17 18 19 20 21 22 23 24 25 26 27 28 29 30 31 32 33 34 35 36 37 38 39 40
2: 1 3 4 5 6 7 8 9 10 11 12 13 14 15 16 17 18 19 20 21 22 23 24 25 26 27 28 29 30 31 32 33 34 35 36 37 38 39 40
3: 1 2 4 5 6 7 8 9 10 11 12 13 14 15 16 17 18 19 20 21 22 23 24 25 26 27 28 29 30 31 32 33 34 35 36 37 38 39
4: 1 2 3 5 6 7 8 9 10 11 12 13 14 15 16 17 18 19 20 21 22 23 24 25 26 27 28 29 30 31 32 33 34 35 36 37 38 39
5: 1 2 3 4 6 7 8 9 10 14 15 16 17 18 19 20 21 23 24 25 26 27 28 29 32 34 35 37 38 39 40
6: 1 2 3 4 5 7 8 9 16 17 18 23 24 25 27 28 29 31 34 35 38 39
7: 1 2 3 4 5 6 8 9 10 11 12 16 17 18 19 20 23 24 25 27 28 29 31 32 33 34 35 36 38 40
8: 1 2 3 4 5 6 7 9 11 12 14 15 18 19 26 27 28 29 33 38 39 40
9: 32 1 2 3 4 5 6 7 8 11 13 15 16 23 24 26 29 30 31
10: 32 33 2 3 1 5 7 39 15 17 20 22 4 26 27
11: 1 2 3 4 7 8 9 14 16 40 18 19 23 25 27 29 30
12: 33 2 35 36 38 1 40 7 13 14 16 8 3 24 25 28 29 4
13: 33 2 3 1 38 39 40 9 12 14 16 19 22 4 26 31
14: 3 33 2 35 4 37 1 8 11 12 13 16 34 18 19 20 21 24 27 30 5
15: 32 1 34 3 36 38 19 33 8 9 10 2 35 23 24 4 26 5 29 30 31
16: 32 35 2 3 4 5 6 33 9 1 11 12 13 14 19 21 24 25 28 7 37
17: 19 33 2 3 1 5 6 7 10 35 21 23 24 4 27 28
18: 35 2 3 4 5 38 39 8 1 11 14 19 20 21 23 24 7 6 27 31
19: 1 2 3 4 5 7 8 11 13 14 15 16 17 18 20 23 24 26 27 30 31 33 35 36
20: 32 33 34 3 36 5 7 40 10 2 14 18 19 1 4 29 30
21: 32 33 2 3 36 37 39 14 16 17 18 1 25 4 27 28 29 5
22: 1 34 35 4 37 10 2 13 3 23 24 26 27 30 31
23: 1 2 3 4 5 6 7 9 11 15 17 18 19 22 25 26 28 32 34 35 36 37 39
24: 1 2 3 4 5 6 7 9 12 14 15 16 17 18 19 22 25 26 28 29 34 35 36 37
25: 1 2 3 4 5 6 7 11 12 16 35 21 23 24 26 27 28 29 30 37
26: 1 2 3 4 5 8 9 10 13 15 19 22 23 24 25 29 30 31 33 36 37 40
27: 1 2 3 4 5 6 7 8 10 11 14 17 18 19 21 22 25 28 30 33 35 36 38
28: 32 1 2 3 4 37 6 7 40 12 16 17 21 8 23 24 25 27 29 5
29: 1 2 3 4 5 6 7 8 9 11 12 15 20 21 24 25 26 28 33 34 36 37 40
30: 1 2 3 36 37 9 11 14 15 19 20 22 25 26 27 4 31
31: 3 33 34 35 1 37 6 39 40 9 7 13 15 18 19 22 2 4 26 30
32: 1 34 3 4 37 38 39 9 10 7 2 15 16 20 21 23 36 28 5
33: 1 2 3 4 7 8 10 12 13 14 15 16 17 19 20 21 26 27 29 31 34 39
34: 32 1 2 3 4 37 38 33 7 14 15 35 20 22 23 24 6 5 29 31
35: 1 2 3 4 5 6 7 12 14 15 16 17 18 19 22 23 24 25 27 31 34 37 39
36: 32 1 2 3 4 7 40 12 15 19 20 21 23 24 26 27 29 30
37: 32 1 2 35 4 5 34 14 16 3 21 22 23 24 25 26 28 29 30 31
38: 32 1 2 34 4 5 6 7 40 12 13 15 8 18 3 27
39: 32 33 2 35 4 5 6 1 40 10 13 8 18 3 21 23 31
40: 1 2 11 36 5 38 39 8 7 12 13 20 26 28 29 31
-------
1(-1)->2 3 4 5 6 7 8 9 10 11 12 13 14 15 16 17 18 19 20 21 22 23 24 25 26 27 28 29 30 31 32 33 34 35 36 37 38 39 40 
2(-1)->1 3 4 5 6 7 8 9 10 11 12 13 14 15 16 17 18 19 20 21 22 23 24 25 26 27 28 29 30 31 32 33 34 35 36 37 38 39 40 
3(-1)->1 2 4 5 6 7 8 9 10 11 12 13 14 15 16 17 18 19 20 21 22 23 24 25 26 27 28 29 30 31 32 33 34 35 36 37 38 39 
4(-1)->1 2 3 5 6 7 8 9 10 11 12 13 14 15 16 17 18 19 20 21 22 23 24 25 26 27 28 29 30 31 32 33 34 35 36 37 38 39 
5(-1)->1 2 3 4 6 7 8 9 10 14 15 16 17 18 19 20 21 23 24 25 26 27 28 29 32 34 35 37 38 39 40 
6(-1)->1 2 3 4 5 7 8 9 16 17 18 23 24 25 27 28 29 31 34 35 38 39 
7(-1)->1 2 3 4 5 6 8 9 10 11 12 16 17 18 19 20 23 24 25 27 28 29 31 32 33 34 35 36 38 40 
8(-1)->1 2 3 4 5 6 7 9 11 12 14 15 18 19 26 27 28 29 33 38 39 40 
9(-1)->1 2 3 4 5 6 7 8 11 13 15 16 23 24 26 29 30 31 32 
10(-1)->1 2 3 4 5 7 15 17 20 22 26 27 32 33 39 
11(-1)->1 2 3 4 7 8 9 14 16 18 19 23 25 27 29 30 40 
12(-1)->1 2 3 4 7 8 13 14 16 24 25 28 29 33 35 36 38 40 
13(-1)->1 2 3 4 9 12 14 16 19 22 26 31 33 38 39 40 
14(-1)->1 2 3 4 5 8 11 12 13 16 18 19 20 21 24 27 30 33 34 35 37 
15(-1)->1 2 3 4 5 8 9 10 19 23 24 26 29 30 31 32 33 34 35 36 38 
16(-1)->1 2 3 4 5 6 7 9 11 12 13 14 19 21 24 25 28 32 33 35 37 
17(-1)->1 2 3 4 5 6 7 10 19 21 23 24 27 28 33 35 
18(-1)->1 2 3 4 5 6 7 8 11 14 19 20 21 23 24 27 31 35 38 39 
19(-1)->1 2 3 4 5 7 8 11 13 14 15 16 17 18 20 23 24 26 27 30 31 33 35 36 
20(-1)->1 2 3 4 5 7 10 14 18 19 29 30 32 33 34 36 40 
21(-1)->1 2 3 4 5 14 16 17 18 25 27 28 29 32 33 36 37 39 
22(-1)->1 2 3 4 10 13 23 24 26 27 30 31 34 35 37 
23(-1)->1 2 3 4 5 6 7 9 11 15 17 18 19 22 25 26 28 32 34 35 36 37 39 
24(-1)->1 2 3 4 5 6 7 9 12 14 15 16 17 18 19 22 25 26 28 29 34 35 36 37 
25(-1)->1 2 3 4 5 6 7 11 12 16 21 23 24 26 27 28 29 30 35 37 
26(-1)->1 2 3 4 5 8 9 10 13 15 19 22 23 24 25 29 30 31 33 36 37 40 
27(-1)->1 2 3 4 5 6 7 8 10 11 14 17 18 19 21 22 25 28 30 33 35 36 38 
28(-1)->1 2 3 4 5 6 7 8 12 16 17 21 23 24 25 27 29 32 37 40 
29(-1)->1 2 3 4 5 6 7 8 9 11 12 15 20 21 24 25 26 28 33 34 36 37 40 
30(-1)->1 2 3 4 9 11 14 15 19 20 22 25 26 27 31 36 37 
31(-1)->1 2 3 4 6 7 9 13 15 18 19 22 26 30 33 34 35 37 39 40 
32(-1)->1 2 3 4 5 7 9 10 15 16 20 21 23 28 34 36 37 38 39 
33(-1)->1 2 3 4 7 8 10 12 13 14 15 16 17 19 20 21 26 27 29 31 34 39 
34(-1)->1 2 3 4 5 6 7 14 15 20 22 23 24 29 31 32 33 35 37 38 
35(-1)->1 2 3 4 5 6 7 12 14 15 16 17 18 19 22 23 24 25 27 31 34 37 39 
36(-1)->1 2 3 4 7 12 15 19 20 21 23 24 26 27 29 30 32 40 
37(-1)->1 2 3 4 5 14 16 21 22 23 24 25 26 28 29 30 31 32 34 35 
38(-1)->1 2 3 4 5 6 7 8 12 13 15 18 27 32 34 40 
39(-1)->1 2 3 4 5 6 8 10 13 18 21 23 31 32 33 35 40 
40(-1)->1 2 5 7 8 11 12 13 20 26 28 29 31 36 38 39 
-------
Node 1 maps to position 0
Node 2 maps to position 1
Node 3 maps to position 2
Node 4 maps to position 3
Node 5 maps to position 4
Node 7 maps to position 5
Node 19 maps to position 6
Node 24 maps to position 7
Node 23 maps to position 8
Node 27 maps to position 9
Node 29 maps to position 10
Node 35 maps to position 11
Node 6 maps to position 12
Node 8 maps to position 13
Node 26 maps to position 14
Node 33 maps to position 15
Node 14 maps to position 16
Node 15 maps to position 17
Node 16 maps to position 18
Node 18 maps to position 19
Node 25 maps to position 20
Node 28 maps to position 21
Node 31 maps to position 22
Node 34 maps to position 23
Node 37 maps to position 24
Node 9 maps to position 25
Node 32 maps to position 26
Node 12 maps to position 27
Node 21 maps to position 28
Node 36 maps to position 29
Node 11 maps to position 30
Node 20 maps to position 31
Node 30 maps to position 32
Node 39 maps to position 33
Node 13 maps to position 34
Node 17 maps to position 35
Node 38 maps to position 36
Node 40 maps to position 37
Node 10 maps to position 38
Node 22 maps to position 39
1(-1)->2 3 4 5 6 7 8 9 10 11 12 13 14 15 16 17 18 19 20 21 22 23 24 25 26 27 28 29 30 31 32 33 34 35 36 37 38 39 40 
2(-1)->1 3 4 5 6 7 8 9 10 11 12 13 14 15 16 17 18 19 20 21 22 23 24 25 26 27 28 29 30 31 32 33 34 35 36 37 38 39 40 
3(-1)->1 2 4 5 6 7 8 9 10 11 12 13 14 15 16 17 18 19 20 21 22 23 24 25 26 27 28 29 30 31 32 33 34 35 36 37 38 39 
4(-1)->1 2 3 5 6 7 8 9 10 11 12 13 14 15 16 17 18 19 20 21 22 23 24 25 26 27 28 29 30 31 32 33 34 35 36 37 38 39 
5(-1)->1 2 3 4 6 7 8 9 10 14 15 16 17 18 19 20 21 23 24 25 26 27 28 29 32 34 35 37 38 39 40 
7(-1)->1 2 3 4 5 6 8 9 10 11 12 16 17 18 19 20 23 24 25 27 28 29 31 32 33 34 35 36 38 40 
19(-1)->1 2 3 4 5 7 8 11 13 14 15 16 17 18 20 23 24 26 27 30 31 33 35 36 
24(-1)->1 2 3 4 5 6 7 9 12 14 15 16 17 18 19 22 25 26 28 29 34 35 36 37 
23(-1)->1 2 3 4 5 6 7 9 11 15 17 18 19 22 25 26 28 32 34 35 36 37 39 
27(-1)->1 2 3 4 5 6 7 8 10 11 14 17 18 19 21 22 25 28 30 33 35 36 38 
29(-1)->1 2 3 4 5 6 7 8 9 11 12 15 20 21 24 25 26 28 33 34 36 37 40 
35(-1)->1 2 3 4 5 6 7 12 14 15 16 17 18 19 22 23 24 25 27 31 34 37 39 
6(-1)->1 2 3 4 5 7 8 9 16 17 18 23 24 25 27 28 29 31 34 35 38 39 
8(-1)->1 2 3 4 5 6 7 9 11 12 14 15 18 19 26 27 28 29 33 38 39 40 
26(-1)->1 2 3 4 5 8 9 10 13 15 19 22 23 24 25 29 30 31 33 36 37 40 
33(-1)->1 2 3 4 7 8 10 12 13 14 15 16 17 19 20 21 26 27 29 31 34 39 
14(-1)->1 2 3 4 5 8 11 12 13 16 18 19 20 21 24 27 30 33 34 35 37 
15(-1)->1 2 3 4 5 8 9 10 19 23 24 26 29 30 31 32 33 34 35 36 38 
16(-1)->1 2 3 4 5 6 7 9 11 12 13 14 19 21 24 25 28 32 33 35 37 
18(-1)->1 2 3 4 5 6 7 8 11 14 19 20 21 23 24 27 31 35 38 39 
25(-1)->1 2 3 4 5 6 7 11 12 16 21 23 24 26 27 28 29 30 35 37 
28(-1)->1 2 3 4 5 6 7 8 12 16 17 21 23 24 25 27 29 32 37 40 
31(-1)->1 2 3 4 6 7 9 13 15 18 19 22 26 30 33 34 35 37 39 40 
34(-1)->1 2 3 4 5 6 7 14 15 20 22 23 24 29 31 32 33 35 37 38 
37(-1)->1 2 3 4 5 14 16 21 22 23 24 25 26 28 29 30 31 32 34 35 
9(-1)->1 2 3 4 5 6 7 8 11 13 15 16 23 24 26 29 30 31 32 
32(-1)->1 2 3 4 5 7 9 10 15 16 20 21 23 28 34 36 37 38 39 
12(-1)->1 2 3 4 7 8 13 14 16 24 25 28 29 33 35 36 38 40 
21(-1)->1 2 3 4 5 14 16 17 18 25 27 28 29 32 33 36 37 39 
36(-1)->1 2 3 4 7 12 15 19 20 21 23 24 26 27 29 30 32 40 
11(-1)->1 2 3 4 7 8 9 14 16 18 19 23 25 27 29 30 40 
20(-1)->1 2 3 4 5 7 10 14 18 19 29 30 32 33 34 36 40 
30(-1)->1 2 3 4 9 11 14 15 19 20 22 25 26 27 31 36 37 
39(-1)->1 2 3 4 5 6 8 10 13 18 21 23 31 32 33 35 40 
13(-1)->1 2 3 4 9 12 14 16 19 22 26 31 33 38 39 40 
17(-1)->1 2 3 4 5 6 7 10 19 21 23 24 27 28 33 35 
38(-1)->1 2 3 4 5 6 7 8 12 13 15 18 27 32 34 40 
40(-1)->1 2 5 7 8 11 12 13 20 26 28 29 31 36 38 39 
10(-1)->1 2 3 4 5 7 15 17 20 22 26 27 32 33 39 
22(-1)->1 2 3 4 10 13 23 24 26 27 30 31 34 35 37 
-------
BLAH
START TIME: 1433711269
Cq = 12 and is assigned to x21
BACKTRACKED TO DEPTH: 20
0 1 2 3 4 5 6 7 8 9 10 11 
Cq = 11 and is assigned to x17
BACKTRACKED TO DEPTH: 16
0 1 2 3 4 5 6 7 8 9 10 
1(0)->2 3 4 5 6 7 8 9 10 11 12 13 14 15 16 17 18 19 20 21 22 23 24 25 26 27 28 29 30 31 32 33 34 35 36 37 38 39 40 
2(1)->1 3 4 5 6 7 8 9 10 11 12 13 14 15 16 17 18 19 20 21 22 23 24 25 26 27 28 29 30 31 32 33 34 35 36 37 38 39 40 
3(2)->1 2 4 5 6 7 8 9 10 11 12 13 14 15 16 17 18 19 20 21 22 23 24 25 26 27 28 29 30 31 32 33 34 35 36 37 38 39 
4(3)->1 2 3 5 6 7 8 9 10 11 12 13 14 15 16 17 18 19 20 21 22 23 24 25 26 27 28 29 30 31 32 33 34 35 36 37 38 39 
5(4)->1 2 3 4 6 7 8 9 10 14 15 16 17 18 19 20 21 23 24 25 26 27 28 29 32 34 35 37 38 39 40 
6(6)->1 2 3 4 5 7 8 9 16 17 18 23 24 25 27 28 29 31 34 35 38 39 
7(5)->1 2 3 4 5 6 8 9 10 11 12 16 17 18 19 20 23 24 25 27 28 29 31 32 33 34 35 36 38 40 
8(9)->1 2 3 4 5 6 7 9 11 12 14 15 18 19 26 27 28 29 33 38 39 40 
9(10)->1 2 3 4 5 6 7 8 11 13 15 16 23 24 26 29 30 31 32 
10(6)->1 2 3 4 5 7 15 17 20 22 26 27 32 33 39 
11(4)->1 2 3 4 7 8 9 14 16 18 19 23 25 27 29 30 40 
12(6)->1 2 3 4 7 8 13 14 16 24 25 28 29 33 35 36 38 40 
13(8)->1 2 3 4 9 12 14 16 19 22 26 31 33 38 39 40 
14(10)->1 2 3 4 5 8 11 12 13 16 18 19 20 21 24 27 30 33 34 35 37 
15(11)->1 2 3 4 5 8 9 10 19 23 24 26 29 30 31 32 33 34 35 36 38 
16(9)->1 2 3 4 5 6 7 9 11 12 13 14 19 21 24 25 28 32 33 35 37 
17(9)->1 2 3 4 5 6 7 10 19 21 23 24 27 28 33 35 
18(11)->1 2 3 4 5 6 7 8 11 14 19 20 21 23 24 27 31 35 38 39 
19(6)->1 2 3 4 5 7 8 11 13 14 15 16 17 18 20 23 24 26 27 30 31 33 35 36 
20(7)->1 2 3 4 5 7 10 14 18 19 29 30 32 33 34 36 40 
21(5)->1 2 3 4 5 14 16 17 18 25 27 28 29 32 33 36 37 39 
22(4)->1 2 3 4 10 13 23 24 26 27 30 31 34 35 37 
23(7)->1 2 3 4 5 6 7 9 11 15 17 18 19 22 25 26 28 32 34 35 36 37 39 
24(7)->1 2 3 4 5 6 7 9 12 14 15 16 17 18 19 22 25 26 28 29 34 35 36 37 
25(10)->1 2 3 4 5 6 7 11 12 16 21 23 24 26 27 28 29 30 35 37 
26(5)->1 2 3 4 5 8 9 10 13 15 19 22 23 24 25 29 30 31 33 36 37 40 
27(7)->1 2 3 4 5 6 7 8 10 11 14 17 18 19 21 22 25 28 30 33 35 36 38 
28(11)->1 2 3 4 5 6 7 8 12 16 17 21 23 24 25 27 29 32 37 40 
29(8)->1 2 3 4 5 6 7 8 9 11 12 15 20 21 24 25 26 28 33 34 36 37 40 
30(8)->1 2 3 4 9 11 14 15 19 20 22 25 26 27 31 36 37 
31(7)->1 2 3 4 6 7 9 13 15 18 19 22 26 30 33 34 35 37 39 40 
32(8)->1 2 3 4 5 7 9 10 15 16 20 21 23 28 34 36 37 38 39 
33(4)->1 2 3 4 7 8 10 12 13 14 15 16 17 19 20 21 26 27 29 31 34 39 
34(9)->1 2 3 4 5 6 7 14 15 20 22 23 24 29 31 32 33 35 37 38 
35(8)->1 2 3 4 5 6 7 12 14 15 16 17 18 19 22 23 24 25 27 31 34 37 39 
36(4)->1 2 3 4 7 12 15 19 20 21 23 24 26 27 29 30 32 40 
37(6)->1 2 3 4 5 14 16 21 22 23 24 25 26 28 29 30 31 32 34 35 
38(10)->1 2 3 4 5 6 7 8 12 13 15 18 27 32 34 40 
39(10)->1 2 3 4 5 6 8 10 13 18 21 23 31 32 33 35 40 
40(2)->1 2 5 7 8 11 12 13 20 26 28 29 31 36 38 39 
COUNT: 4071
COLORS: 12
EDGES: 440
12
4071
