1: 2 3 4 5 6 7 8 9 10 11 12 13 14 15 16 17 18 19 20 21 22 23 24 25 26 27 28 29 30 31 32 33 34 35 36 37 38 39 40
2: 1 3 4 5 6 7 8 9 10 11 12 13 14 15 16 17 18 19 20 21 22 23 24 25 26 27 28 29 30 31 32 33 34 35 36 37 38 39
3: 1 2 4 5 6 7 8 9 10 11 12 13 14 15 16 17 18 19 20 21 22 23 24 25 26 27 28 29 30 31 32 33 34 35 36 37 38 39 40
4: 1 2 3 5 6 7 8 9 10 11 12 13 14 15 16 17 18 19 20 21 22 25 26 27 28 29 30 33 34 35 37 38 39
5: 1 2 3 4 6 7 8 9 10 11 12 13 14 16 17 20 21 22 27 28 30 33 34 37 38
6: 1 2 3 4 5 7 8 9 10 11 12 13 16 18 20 22 23 25 26 27 28 29 30 34 36 37 38 40
7: 1 2 3 4 5 6 8 9 10 11 13 16 17 18 19 20 22 23 24 25 26 28 29 33 34 36 37 38
8: 1 2 3 4 5 6 7 9 10 11 12 13 15 16 18 20 25 28 34 36 37 38
9: 1 2 3 4 5 6 7 8 10 11 12 13 17 18 20 24 29 34 36 37 38 39
10: 3 1 2 35 4 5 38 7 8 9 11 14 15 17 19 20 22 6 37
11: 1 2 3 4 5 6 7 8 9 10 12 13 14 17 20 22 25 29 31 32 33 36 37 38
12: 1 2 3 4 5 6 8 9 11 13 15 22 26 27 29 31 32 33 34 35 37 38
13: 1 2 3 4 5 6 7 8 9 11 12 14 15 16 22 24 28 30 32 35 36 38
14: 1 2 3 4 5 38 39 40 10 11 13 15 16 17 26 27 29 31
15: 1 34 3 4 38 8 10 2 12 13 14 17 19 20 21 25 27 28 29 30 31
16: 1 2 3 4 5 6 7 8 13 14 17 18 20 21 24 25 26 29 31 35 37 38 39
17: 32 1 34 3 4 5 38 7 9 10 11 2 14 15 16 18 21 22 31
18: 1 2 3 4 6 7 8 9 16 17 21 22 23 26 27 28 31 32 35 36 37 40
19: 1 2 3 4 7 10 39 15 20 21 26 27
20: 1 2 3 4 5 6 7 8 9 10 11 15 16 19 24 26 27 28 30 34 36 37 39 40
21: 32 33 2 3 4 5 38 1 39 15 16 17 18 19 23 28 30
22: 1 2 3 4 5 6 7 10 11 12 13 17 18 23 24 25 27 30 32 34 35 38 39 40
23: 32 1 2 3 6 39 7 18 21 22 25 27 28 29 30
24: 32 1 2 35 37 38 7 9 13 16 3 20 22 26 28
25: 1 2 35 4 6 38 7 8 11 34 15 16 40 3 22 23 39 27 28 31
26: 1 34 3 4 6 7 12 2 14 16 18 19 20 24 29 31
27: 1 2 3 4 5 6 40 12 18 14 15 37 19 20 22 23 25 28 29 31
28: 1 2 3 4 5 6 7 8 13 15 18 20 21 23 24 25 27 33 35 36 38 39 40
29: 32 1 2 3 4 6 7 40 9 11 12 14 15 16 23 39 26 27 31
30: 32 33 34 3 36 37 6 39 1 2 13 15 20 21 22 23 4 31 5
31: 33 34 3 37 38 1 40 11 12 2 14 15 16 17 18 25 26 27 29 30
32: 1 2 35 36 37 40 11 12 13 17 18 3 21 22 23 24 29 30
33: 1 2 3 4 5 7 11 12 35 21 28 30 31
34: 1 2 3 36 5 6 7 8 9 12 15 4 17 35 20 22 40 25 26 30 31
35: 32 33 34 3 4 37 1 40 10 2 12 13 16 18 22 24 25 28
36: 32 1 34 11 37 6 7 8 9 39 13 18 3 20 2 38 28 30
37: 1 2 3 4 5 6 7 8 9 10 11 12 16 18 20 24 27 30 31 32 35 36 39 40
38: 1 2 3 4 5 6 7 8 9 10 11 12 13 14 15 16 17 21 22 24 25 28 31 36 40
39: 1 2 3 36 37 9 14 16 19 20 21 22 23 25 4 28 29 30
40: 32 1 34 35 6 38 14 29 18 3 20 22 25 27 28 37 31
-------
1(-1)->2 3 4 5 6 7 8 9 10 11 12 13 14 15 16 17 18 19 20 21 22 23 24 25 26 27 28 29 30 31 32 33 34 35 36 37 38 39 40 
2(-1)->1 3 4 5 6 7 8 9 10 11 12 13 14 15 16 17 18 19 20 21 22 23 24 25 26 27 28 29 30 31 32 33 34 35 36 37 38 39 
3(-1)->1 2 4 5 6 7 8 9 10 11 12 13 14 15 16 17 18 19 20 21 22 23 24 25 26 27 28 29 30 31 32 33 34 35 36 37 38 39 40 
4(-1)->1 2 3 5 6 7 8 9 10 11 12 13 14 15 16 17 18 19 20 21 22 25 26 27 28 29 30 33 34 35 37 38 39 
5(-1)->1 2 3 4 6 7 8 9 10 11 12 13 14 16 17 20 21 22 27 28 30 33 34 37 38 
6(-1)->1 2 3 4 5 7 8 9 10 11 12 13 16 18 20 22 23 25 26 27 28 29 30 34 36 37 38 40 
7(-1)->1 2 3 4 5 6 8 9 10 11 13 16 17 18 19 20 22 23 24 25 26 28 29 33 34 36 37 38 
8(-1)->1 2 3 4 5 6 7 9 10 11 12 13 15 16 18 20 25 28 34 36 37 38 
9(-1)->1 2 3 4 5 6 7 8 10 11 12 13 17 18 20 24 29 34 36 37 38 39 
10(-1)->1 2 3 4 5 6 7 8 9 11 14 15 17 19 20 22 35 37 38 
11(-1)->1 2 3 4 5 6 7 8 9 10 12 13 14 17 20 22 25 29 31 32 33 36 37 38 
12(-1)->1 2 3 4 5 6 8 9 11 13 15 22 26 27 29 31 32 33 34 35 37 38 
13(-1)->1 2 3 4 5 6 7 8 9 11 12 14 15 16 22 24 28 30 32 35 36 38 
14(-1)->1 2 3 4 5 10 11 13 15 16 17 26 27 29 31 38 39 40 
15(-1)->1 2 3 4 8 10 12 13 14 17 19 20 21 25 27 28 29 30 31 34 38 
16(-1)->1 2 3 4 5 6 7 8 13 14 17 18 20 21 24 25 26 29 31 35 37 38 39 
17(-1)->1 2 3 4 5 7 9 10 11 14 15 16 18 21 22 31 32 34 38 
18(-1)->1 2 3 4 6 7 8 9 16 17 21 22 23 26 27 28 31 32 35 36 37 40 
19(-1)->1 2 3 4 7 10 15 20 21 26 27 39 
20(-1)->1 2 3 4 5 6 7 8 9 10 11 15 16 19 24 26 27 28 30 34 36 37 39 40 
21(-1)->1 2 3 4 5 15 16 17 18 19 23 28 30 32 33 38 39 
22(-1)->1 2 3 4 5 6 7 10 11 12 13 17 18 23 24 25 27 30 32 34 35 38 39 40 
23(-1)->1 2 3 6 7 18 21 22 25 27 28 29 30 32 39 
24(-1)->1 2 3 7 9 13 16 20 22 26 28 32 35 37 38 
25(-1)->1 2 3 4 6 7 8 11 15 16 22 23 27 28 31 34 35 38 39 40 
26(-1)->1 2 3 4 6 7 12 14 16 18 19 20 24 29 31 34 
27(-1)->1 2 3 4 5 6 12 14 15 18 19 20 22 23 25 28 29 31 37 40 
28(-1)->1 2 3 4 5 6 7 8 13 15 18 20 21 23 24 25 27 33 35 36 38 39 40 
29(-1)->1 2 3 4 6 7 9 11 12 14 15 16 23 26 27 31 32 39 40 
30(-1)->1 2 3 4 5 6 13 15 20 21 22 23 31 32 33 34 36 37 39 
31(-1)->1 2 3 11 12 14 15 16 17 18 25 26 27 29 30 33 34 37 38 40 
32(-1)->1 2 3 11 12 13 17 18 21 22 23 24 29 30 35 36 37 40 
33(-1)->1 2 3 4 5 7 11 12 21 28 30 31 35 
34(-1)->1 2 3 4 5 6 7 8 9 12 15 17 20 22 25 26 30 31 35 36 40 
35(-1)->1 2 3 4 10 12 13 16 18 22 24 25 28 32 33 34 37 40 
36(-1)->1 2 3 6 7 8 9 11 13 18 20 28 30 32 34 37 38 39 
37(-1)->1 2 3 4 5 6 7 8 9 10 11 12 16 18 20 24 27 30 31 32 35 36 39 40 
38(-1)->1 2 3 4 5 6 7 8 9 10 11 12 13 14 15 16 17 21 22 24 25 28 31 36 40 
39(-1)->1 2 3 4 9 14 16 19 20 21 22 23 25 28 29 30 36 37 
40(-1)->1 3 6 14 18 20 22 25 27 28 29 31 32 34 35 37 38 
-------
Node 1 maps to position 0
Node 3 maps to position 1
Node 2 maps to position 2
Node 4 maps to position 3
Node 6 maps to position 4
Node 7 maps to position 5
Node 5 maps to position 6
Node 38 maps to position 7
Node 11 maps to position 8
Node 20 maps to position 9
Node 22 maps to position 10
Node 37 maps to position 11
Node 16 maps to position 12
Node 28 maps to position 13
Node 8 maps to position 14
Node 9 maps to position 15
Node 12 maps to position 16
Node 13 maps to position 17
Node 18 maps to position 18
Node 15 maps to position 19
Node 34 maps to position 20
Node 25 maps to position 21
Node 27 maps to position 22
Node 31 maps to position 23
Node 10 maps to position 24
Node 17 maps to position 25
Node 29 maps to position 26
Node 30 maps to position 27
Node 14 maps to position 28
Node 32 maps to position 29
Node 35 maps to position 30
Node 36 maps to position 31
Node 39 maps to position 32
Node 21 maps to position 33
Node 40 maps to position 34
Node 26 maps to position 35
Node 23 maps to position 36
Node 24 maps to position 37
Node 33 maps to position 38
Node 19 maps to position 39
1(-1)->2 3 4 5 6 7 8 9 10 11 12 13 14 15 16 17 18 19 20 21 22 23 24 25 26 27 28 29 30 31 32 33 34 35 36 37 38 39 40 
3(-1)->1 2 4 5 6 7 8 9 10 11 12 13 14 15 16 17 18 19 20 21 22 23 24 25 26 27 28 29 30 31 32 33 34 35 36 37 38 39 40 
2(-1)->1 3 4 5 6 7 8 9 10 11 12 13 14 15 16 17 18 19 20 21 22 23 24 25 26 27 28 29 30 31 32 33 34 35 36 37 38 39 
4(-1)->1 2 3 5 6 7 8 9 10 11 12 13 14 15 16 17 18 19 20 21 22 25 26 27 28 29 30 33 34 35 37 38 39 
6(-1)->1 2 3 4 5 7 8 9 10 11 12 13 16 18 20 22 23 25 26 27 28 29 30 34 36 37 38 40 
7(-1)->1 2 3 4 5 6 8 9 10 11 13 16 17 18 19 20 22 23 24 25 26 28 29 33 34 36 37 38 
5(-1)->1 2 3 4 6 7 8 9 10 11 12 13 14 16 17 20 21 22 27 28 30 33 34 37 38 
38(-1)->1 2 3 4 5 6 7 8 9 10 11 12 13 14 15 16 17 21 22 24 25 28 31 36 40 
11(-1)->1 2 3 4 5 6 7 8 9 10 12 13 14 17 20 22 25 29 31 32 33 36 37 38 
20(-1)->1 2 3 4 5 6 7 8 9 10 11 15 16 19 24 26 27 28 30 34 36 37 39 40 
22(-1)->1 2 3 4 5 6 7 10 11 12 13 17 18 23 24 25 27 30 32 34 35 38 39 40 
37(-1)->1 2 3 4 5 6 7 8 9 10 11 12 16 18 20 24 27 30 31 32 35 36 39 40 
16(-1)->1 2 3 4 5 6 7 8 13 14 17 18 20 21 24 25 26 29 31 35 37 38 39 
28(-1)->1 2 3 4 5 6 7 8 13 15 18 20 21 23 24 25 27 33 35 36 38 39 40 
8(-1)->1 2 3 4 5 6 7 9 10 11 12 13 15 16 18 20 25 28 34 36 37 38 
9(-1)->1 2 3 4 5 6 7 8 10 11 12 13 17 18 20 24 29 34 36 37 38 39 
12(-1)->1 2 3 4 5 6 8 9 11 13 15 22 26 27 29 31 32 33 34 35 37 38 
13(-1)->1 2 3 4 5 6 7 8 9 11 12 14 15 16 22 24 28 30 32 35 36 38 
18(-1)->1 2 3 4 6 7 8 9 16 17 21 22 23 26 27 28 31 32 35 36 37 40 
15(-1)->1 2 3 4 8 10 12 13 14 17 19 20 21 25 27 28 29 30 31 34 38 
34(-1)->1 2 3 4 5 6 7 8 9 12 15 17 20 22 25 26 30 31 35 36 40 
25(-1)->1 2 3 4 6 7 8 11 15 16 22 23 27 28 31 34 35 38 39 40 
27(-1)->1 2 3 4 5 6 12 14 15 18 19 20 22 23 25 28 29 31 37 40 
31(-1)->1 2 3 11 12 14 15 16 17 18 25 26 27 29 30 33 34 37 38 40 
10(-1)->1 2 3 4 5 6 7 8 9 11 14 15 17 19 20 22 35 37 38 
17(-1)->1 2 3 4 5 7 9 10 11 14 15 16 18 21 22 31 32 34 38 
29(-1)->1 2 3 4 6 7 9 11 12 14 15 16 23 26 27 31 32 39 40 
30(-1)->1 2 3 4 5 6 13 15 20 21 22 23 31 32 33 34 36 37 39 
14(-1)->1 2 3 4 5 10 11 13 15 16 17 26 27 29 31 38 39 40 
32(-1)->1 2 3 11 12 13 17 18 21 22 23 24 29 30 35 36 37 40 
35(-1)->1 2 3 4 10 12 13 16 18 22 24 25 28 32 33 34 37 40 
36(-1)->1 2 3 6 7 8 9 11 13 18 20 28 30 32 34 37 38 39 
39(-1)->1 2 3 4 9 14 16 19 20 21 22 23 25 28 29 30 36 37 
21(-1)->1 2 3 4 5 15 16 17 18 19 23 28 30 32 33 38 39 
40(-1)->1 3 6 14 18 20 22 25 27 28 29 31 32 34 35 37 38 
26(-1)->1 2 3 4 6 7 12 14 16 18 19 20 24 29 31 34 
23(-1)->1 2 3 6 7 18 21 22 25 27 28 29 30 32 39 
24(-1)->1 2 3 7 9 13 16 20 22 26 28 32 35 37 38 
33(-1)->1 2 3 4 5 7 11 12 21 28 30 31 35 
19(-1)->1 2 3 4 7 10 15 20 21 26 27 39 
-------
BLAH
START TIME: 1433711269
Cq = 13 and is assigned to x31
BACKTRACKED TO DEPTH: 30
0 1 2 3 4 5 6 7 8 9 10 11 12 
Cq = 12 and is assigned to x17
BACKTRACKED TO DEPTH: 16
0 1 2 3 4 5 6 7 8 9 10 11 
1(0)->2 3 4 5 6 7 8 9 10 11 12 13 14 15 16 17 18 19 20 21 22 23 24 25 26 27 28 29 30 31 32 33 34 35 36 37 38 39 40 
2(2)->1 3 4 5 6 7 8 9 10 11 12 13 14 15 16 17 18 19 20 21 22 23 24 25 26 27 28 29 30 31 32 33 34 35 36 37 38 39 
3(1)->1 2 4 5 6 7 8 9 10 11 12 13 14 15 16 17 18 19 20 21 22 23 24 25 26 27 28 29 30 31 32 33 34 35 36 37 38 39 40 
4(3)->1 2 3 5 6 7 8 9 10 11 12 13 14 15 16 17 18 19 20 21 22 25 26 27 28 29 30 33 34 35 37 38 39 
5(6)->1 2 3 4 6 7 8 9 10 11 12 13 14 16 17 20 21 22 27 28 30 33 34 37 38 
6(4)->1 2 3 4 5 7 8 9 10 11 12 13 16 18 20 22 23 25 26 27 28 29 30 34 36 37 38 40 
7(5)->1 2 3 4 5 6 8 9 10 11 13 16 17 18 19 20 22 23 24 25 26 28 29 33 34 36 37 38 
8(10)->1 2 3 4 5 6 7 9 10 11 12 13 15 16 18 20 25 28 34 36 37 38 
9(11)->1 2 3 4 5 6 7 8 10 11 12 13 17 18 20 24 29 34 36 37 38 39 
10(12)->1 2 3 4 5 6 7 8 9 11 14 15 17 19 20 22 35 37 38 
11(8)->1 2 3 4 5 6 7 8 9 10 12 13 14 17 20 22 25 29 31 32 33 36 37 38 
12(5)->1 2 3 4 5 6 8 9 11 13 15 22 26 27 29 31 32 33 34 35 37 38 
13(12)->1 2 3 4 5 6 7 8 9 11 12 14 15 16 22 24 28 30 32 35 36 38 
14(5)->1 2 3 4 5 10 11 13 15 16 17 26 27 29 31 38 39 40 
15(4)->1 2 3 4 8 10 12 13 14 17 19 20 21 25 27 28 29 30 31 34 38 
16(8)->1 2 3 4 5 6 7 8 13 14 17 18 20 21 24 25 26 29 31 35 37 38 39 
17(10)->1 2 3 4 5 7 9 10 11 14 15 16 18 21 22 31 32 34 38 
18(6)->1 2 3 4 6 7 8 9 16 17 21 22 23 26 27 28 31 32 35 36 37 40 
19(6)->1 2 3 4 7 10 15 20 21 26 27 39 
20(7)->1 2 3 4 5 6 7 8 9 10 11 15 16 19 24 26 27 28 30 34 36 37 39 40 
21(9)->1 2 3 4 5 15 16 17 18 19 23 28 30 32 33 38 39 
22(9)->1 2 3 4 5 6 7 10 11 12 13 17 18 23 24 25 27 30 32 34 35 38 39 40 
23(3)->1 2 3 6 7 18 21 22 25 27 28 29 30 32 39 
24(3)->1 2 3 7 9 13 16 20 22 26 28 32 35 37 38 
25(6)->1 2 3 4 6 7 8 11 15 16 22 23 27 28 31 34 35 38 39 40 
26(9)->1 2 3 4 6 7 12 14 16 18 19 20 24 29 31 34 
27(10)->1 2 3 4 5 6 12 14 15 18 19 20 22 23 25 28 29 31 37 40 
28(8)->1 2 3 4 5 6 7 8 13 15 18 20 21 23 24 25 27 33 35 36 38 39 40 
29(6)->1 2 3 4 6 7 9 11 12 14 15 16 23 26 27 31 32 39 40 
30(5)->1 2 3 4 5 6 13 15 20 21 22 23 31 32 33 34 36 37 39 
31(3)->1 2 3 11 12 14 15 16 17 18 25 26 27 29 30 33 34 37 38 40 
32(4)->1 2 3 11 12 13 17 18 21 22 23 24 29 30 35 36 37 40 
33(4)->1 2 3 4 5 7 11 12 21 28 30 31 35 
34(8)->1 2 3 4 5 6 7 8 9 12 15 17 20 22 25 26 30 31 35 36 40 
35(7)->1 2 3 4 10 12 13 16 18 22 24 25 28 32 33 34 37 40 
36(3)->1 2 3 6 7 8 9 11 13 18 20 28 30 32 34 37 38 39 
37(9)->1 2 3 4 5 6 7 8 9 10 11 12 16 18 20 24 27 30 31 32 35 36 39 40 
38(7)->1 2 3 4 5 6 7 8 9 10 11 12 13 14 15 16 17 21 22 24 25 28 31 36 40 
39(4)->1 2 3 4 9 14 16 19 20 21 22 23 25 28 29 30 36 37 
40(2)->1 3 6 14 18 20 22 25 27 28 29 31 32 34 35 37 38 
COUNT: 1755
COLORS: 13
EDGES: 440
13
1755
