1: 2 3 4 5 6 7 8 9 10 11 12 13 14 15 16 17 18 19 20 21 22 23 24 25 26 27 28 29 30 31 32 33 34 35 36 37 38 39
2: 1 3 4 5 6 7 8 9 10 11 12 13 14 15 16 17 18 19 20 21 22 23 24 25 26 27 28 29 30 31 32 33 34 35 36 37 38 39 40
3: 1 2 4 5 6 7 8 9 10 11 12 13 14 15 16 17 18 19 20 21 22 23 24 25 26 27 28 29 30 31 32 33 34 35 36 37 38 39
4: 1 2 3 5 6 7 8 9 10 11 12 13 14 15 16 17 18 19 20 21 22 23 24 25 26 27 28 29 30 31 32 33 34 35 36 37 38 39 40
5: 1 2 3 4 6 7 8 9 10 11 12 13 14 15 16 17 18 19 20 21 22 23 24 25 26 27 28 29 30 31 32 33 34 35 36 37 38 39 40
6: 1 2 3 4 5 7 8 9 10 11 12 13 14 15 16 17 18 19 20 21 22 23 24 25 26 27 28 29 30 31 32 33 34 35 36 37 38 39 40
7: 1 2 3 4 5 6 8 9 10 11 12 13 14 15 16 17 18 19 20 21 22 23 24 26 27 28 29 30 31 32 33 34 35 36 38 39
8: 1 2 3 4 5 6 7 9 10 11 12 13 14 15 16 17 18 19 20 21 22 23 24 25 26 27 28 29 30 32 33 35 36
9: 1 2 3 4 5 6 7 8 10 11 12 13 14 16 17 18 19 20 21 23 24 26 27 28 30 32 33 35 38 39
10: 1 2 3 4 5 6 7 8 9 11 12 13 14 15 16 17 19 21 23 24 25 26 28 30 31 33 35 36 37 38 39 40
11: 1 2 3 4 5 6 7 8 9 10 12 13 15 16 19 20 21 23 25 26 30 33 35 37 38 39
12: 1 2 3 4 5 6 7 8 9 10 11 13 14 15 17 18 19 20 22 23 29 33 35 37 38 39 40
13: 1 2 3 4 5 6 7 8 9 10 11 12 17 22 23 26 27 28 31 32 33 34 35 37 39
14: 1 2 3 4 5 6 7 8 9 10 12 15 16 19 20 23 27 31 33 34 36 38 39
15: 1 2 3 4 5 6 7 8 10 11 12 14 16 20 28 31 33 35 36 37 38 39
16: 1 2 3 4 5 6 7 8 9 10 11 14 15 17 18 19 21 22 23 24 25 28 30 32 35 36
17: 1 2 34 36 5 38 39 40 9 10 7 12 13 16 8 3 22 4 6 28 30
18: 1 2 3 4 5 6 7 8 9 12 16 19 20 22 24 27 28 30 31 32 37 38 39 40
19: 1 2 3 4 5 6 7 8 9 10 11 12 14 16 18 22 23 24 26 29 30 31 32 34 39 40
20: 1 2 3 4 5 6 7 8 9 11 12 14 15 18 21 22 25 26 28 29 33 35 38 40
21: 1 2 3 4 5 6 7 8 9 10 11 16 20 22 23 27 28 29 31 32 34 35 37 38 40
22: 1 2 3 4 5 6 7 8 12 13 16 17 18 19 20 21 28 31 32 33 38 39
23: 1 2 3 4 5 6 7 8 9 10 11 12 13 14 16 19 21 24 27 29 30 35 36 39
24: 1 2 3 4 5 6 7 8 9 10 16 18 19 23 26 27 28 32 33 34 35 37 40
25: 33 34 35 4 37 6 1 8 10 11 2 16 3 20 29 5
26: 1 2 3 4 5 6 7 8 9 10 11 13 19 20 24 27 29 30 31 34 36 37 40
27: 33 2 3 1 6 38 7 8 9 13 14 18 21 23 24 4 26 30 5
28: 1 2 3 4 5 6 7 8 9 10 13 15 16 17 18 20 21 22 24 32 33 35 39
29: 3 1 2 6 4 5 38 39 8 7 12 19 20 21 23 25 26
30: 1 2 3 4 5 6 7 8 9 10 11 16 17 18 19 23 26 27 31 32 33 34 36
31: 1 2 3 4 37 38 7 40 10 13 14 15 6 18 19 21 22 26 30 5
32: 1 2 3 4 37 38 7 8 9 39 13 16 18 19 21 22 24 6 28 30 5
33: 1 2 3 4 5 6 7 8 9 10 11 12 13 14 15 20 22 24 25 27 28 30 35 38 39
34: 3 1 2 35 4 5 38 7 40 13 14 6 17 19 21 24 25 26 30
35: 1 2 3 4 5 6 7 8 9 10 11 12 13 15 16 20 21 23 24 25 28 33 34 37 38 40
36: 1 2 3 4 5 38 7 8 10 14 15 16 17 6 23 26 30
37: 32 1 2 35 4 6 38 40 10 11 12 13 15 18 3 21 24 25 26 5 31
38: 1 2 3 4 5 6 7 9 10 11 12 14 15 17 18 20 21 22 27 29 31 32 33 34 35 36 37 40
39: 1 2 3 4 5 6 7 9 10 11 12 13 14 15 17 18 19 22 23 28 29 32 33
40: 35 2 6 4 37 38 10 12 34 17 18 19 20 21 24 26 5 31
-------
1(-1)->2 3 4 5 6 7 8 9 10 11 12 13 14 15 16 17 18 19 20 21 22 23 24 25 26 27 28 29 30 31 32 33 34 35 36 37 38 39 
2(-1)->1 3 4 5 6 7 8 9 10 11 12 13 14 15 16 17 18 19 20 21 22 23 24 25 26 27 28 29 30 31 32 33 34 35 36 37 38 39 40 
3(-1)->1 2 4 5 6 7 8 9 10 11 12 13 14 15 16 17 18 19 20 21 22 23 24 25 26 27 28 29 30 31 32 33 34 35 36 37 38 39 
4(-1)->1 2 3 5 6 7 8 9 10 11 12 13 14 15 16 17 18 19 20 21 22 23 24 25 26 27 28 29 30 31 32 33 34 35 36 37 38 39 40 
5(-1)->1 2 3 4 6 7 8 9 10 11 12 13 14 15 16 17 18 19 20 21 22 23 24 25 26 27 28 29 30 31 32 33 34 35 36 37 38 39 40 
6(-1)->1 2 3 4 5 7 8 9 10 11 12 13 14 15 16 17 18 19 20 21 22 23 24 25 26 27 28 29 30 31 32 33 34 35 36 37 38 39 40 
7(-1)->1 2 3 4 5 6 8 9 10 11 12 13 14 15 16 17 18 19 20 21 22 23 24 26 27 28 29 30 31 32 33 34 35 36 38 39 
8(-1)->1 2 3 4 5 6 7 9 10 11 12 13 14 15 16 17 18 19 20 21 22 23 24 25 26 27 28 29 30 32 33 35 36 
9(-1)->1 2 3 4 5 6 7 8 10 11 12 13 14 16 17 18 19 20 21 23 24 26 27 28 30 32 33 35 38 39 
10(-1)->1 2 3 4 5 6 7 8 9 11 12 13 14 15 16 17 19 21 23 24 25 26 28 30 31 33 35 36 37 38 39 40 
11(-1)->1 2 3 4 5 6 7 8 9 10 12 13 15 16 19 20 21 23 25 26 30 33 35 37 38 39 
12(-1)->1 2 3 4 5 6 7 8 9 10 11 13 14 15 17 18 19 20 22 23 29 33 35 37 38 39 40 
13(-1)->1 2 3 4 5 6 7 8 9 10 11 12 17 22 23 26 27 28 31 32 33 34 35 37 39 
14(-1)->1 2 3 4 5 6 7 8 9 10 12 15 16 19 20 23 27 31 33 34 36 38 39 
15(-1)->1 2 3 4 5 6 7 8 10 11 12 14 16 20 28 31 33 35 36 37 38 39 
16(-1)->1 2 3 4 5 6 7 8 9 10 11 14 15 17 18 19 21 22 23 24 25 28 30 32 35 36 
17(-1)->1 2 3 4 5 6 7 8 9 10 12 13 16 22 28 30 34 36 38 39 40 
18(-1)->1 2 3 4 5 6 7 8 9 12 16 19 20 22 24 27 28 30 31 32 37 38 39 40 
19(-1)->1 2 3 4 5 6 7 8 9 10 11 12 14 16 18 22 23 24 26 29 30 31 32 34 39 40 
20(-1)->1 2 3 4 5 6 7 8 9 11 12 14 15 18 21 22 25 26 28 29 33 35 38 40 
21(-1)->1 2 3 4 5 6 7 8 9 10 11 16 20 22 23 27 28 29 31 32 34 35 37 38 40 
22(-1)->1 2 3 4 5 6 7 8 12 13 16 17 18 19 20 21 28 31 32 33 38 39 
23(-1)->1 2 3 4 5 6 7 8 9 10 11 12 13 14 16 19 21 24 27 29 30 35 36 39 
24(-1)->1 2 3 4 5 6 7 8 9 10 16 18 19 23 26 27 28 32 33 34 35 37 40 
25(-1)->1 2 3 4 5 6 8 10 11 16 20 29 33 34 35 37 
26(-1)->1 2 3 4 5 6 7 8 9 10 11 13 19 20 24 27 29 30 31 34 36 37 40 
27(-1)->1 2 3 4 5 6 7 8 9 13 14 18 21 23 24 26 30 33 38 
28(-1)->1 2 3 4 5 6 7 8 9 10 13 15 16 17 18 20 21 22 24 32 33 35 39 
29(-1)->1 2 3 4 5 6 7 8 12 19 20 21 23 25 26 38 39 
30(-1)->1 2 3 4 5 6 7 8 9 10 11 16 17 18 19 23 26 27 31 32 33 34 36 
31(-1)->1 2 3 4 5 6 7 10 13 14 15 18 19 21 22 26 30 37 38 40 
32(-1)->1 2 3 4 5 6 7 8 9 13 16 18 19 21 22 24 28 30 37 38 39 
33(-1)->1 2 3 4 5 6 7 8 9 10 11 12 13 14 15 20 22 24 25 27 28 30 35 38 39 
34(-1)->1 2 3 4 5 6 7 13 14 17 19 21 24 25 26 30 35 38 40 
35(-1)->1 2 3 4 5 6 7 8 9 10 11 12 13 15 16 20 21 23 24 25 28 33 34 37 38 40 
36(-1)->1 2 3 4 5 6 7 8 10 14 15 16 17 23 26 30 38 
37(-1)->1 2 3 4 5 6 10 11 12 13 15 18 21 24 25 26 31 32 35 38 40 
38(-1)->1 2 3 4 5 6 7 9 10 11 12 14 15 17 18 20 21 22 27 29 31 32 33 34 35 36 37 40 
39(-1)->1 2 3 4 5 6 7 9 10 11 12 13 14 15 17 18 19 22 23 28 29 32 33 
40(-1)->2 4 5 6 10 12 17 18 19 20 21 24 26 31 34 35 37 38 
-------
Node 2 maps to position 0
Node 4 maps to position 1
Node 5 maps to position 2
Node 6 maps to position 3
Node 1 maps to position 4
Node 3 maps to position 5
Node 7 maps to position 6
Node 8 maps to position 7
Node 10 maps to position 8
Node 9 maps to position 9
Node 38 maps to position 10
Node 12 maps to position 11
Node 11 maps to position 12
Node 16 maps to position 13
Node 19 maps to position 14
Node 35 maps to position 15
Node 13 maps to position 16
Node 21 maps to position 17
Node 33 maps to position 18
Node 18 maps to position 19
Node 20 maps to position 20
Node 23 maps to position 21
Node 14 maps to position 22
Node 24 maps to position 23
Node 26 maps to position 24
Node 28 maps to position 25
Node 30 maps to position 26
Node 39 maps to position 27
Node 15 maps to position 28
Node 22 maps to position 29
Node 17 maps to position 30
Node 32 maps to position 31
Node 37 maps to position 32
Node 31 maps to position 33
Node 27 maps to position 34
Node 34 maps to position 35
Node 40 maps to position 36
Node 29 maps to position 37
Node 36 maps to position 38
Node 25 maps to position 39
2(-1)->1 3 4 5 6 7 8 9 10 11 12 13 14 15 16 17 18 19 20 21 22 23 24 25 26 27 28 29 30 31 32 33 34 35 36 37 38 39 40 
4(-1)->1 2 3 5 6 7 8 9 10 11 12 13 14 15 16 17 18 19 20 21 22 23 24 25 26 27 28 29 30 31 32 33 34 35 36 37 38 39 40 
5(-1)->1 2 3 4 6 7 8 9 10 11 12 13 14 15 16 17 18 19 20 21 22 23 24 25 26 27 28 29 30 31 32 33 34 35 36 37 38 39 40 
6(-1)->1 2 3 4 5 7 8 9 10 11 12 13 14 15 16 17 18 19 20 21 22 23 24 25 26 27 28 29 30 31 32 33 34 35 36 37 38 39 40 
1(-1)->2 3 4 5 6 7 8 9 10 11 12 13 14 15 16 17 18 19 20 21 22 23 24 25 26 27 28 29 30 31 32 33 34 35 36 37 38 39 
3(-1)->1 2 4 5 6 7 8 9 10 11 12 13 14 15 16 17 18 19 20 21 22 23 24 25 26 27 28 29 30 31 32 33 34 35 36 37 38 39 
7(-1)->1 2 3 4 5 6 8 9 10 11 12 13 14 15 16 17 18 19 20 21 22 23 24 26 27 28 29 30 31 32 33 34 35 36 38 39 
8(-1)->1 2 3 4 5 6 7 9 10 11 12 13 14 15 16 17 18 19 20 21 22 23 24 25 26 27 28 29 30 32 33 35 36 
10(-1)->1 2 3 4 5 6 7 8 9 11 12 13 14 15 16 17 19 21 23 24 25 26 28 30 31 33 35 36 37 38 39 40 
9(-1)->1 2 3 4 5 6 7 8 10 11 12 13 14 16 17 18 19 20 21 23 24 26 27 28 30 32 33 35 38 39 
38(-1)->1 2 3 4 5 6 7 9 10 11 12 14 15 17 18 20 21 22 27 29 31 32 33 34 35 36 37 40 
12(-1)->1 2 3 4 5 6 7 8 9 10 11 13 14 15 17 18 19 20 22 23 29 33 35 37 38 39 40 
11(-1)->1 2 3 4 5 6 7 8 9 10 12 13 15 16 19 20 21 23 25 26 30 33 35 37 38 39 
16(-1)->1 2 3 4 5 6 7 8 9 10 11 14 15 17 18 19 21 22 23 24 25 28 30 32 35 36 
19(-1)->1 2 3 4 5 6 7 8 9 10 11 12 14 16 18 22 23 24 26 29 30 31 32 34 39 40 
35(-1)->1 2 3 4 5 6 7 8 9 10 11 12 13 15 16 20 21 23 24 25 28 33 34 37 38 40 
13(-1)->1 2 3 4 5 6 7 8 9 10 11 12 17 22 23 26 27 28 31 32 33 34 35 37 39 
21(-1)->1 2 3 4 5 6 7 8 9 10 11 16 20 22 23 27 28 29 31 32 34 35 37 38 40 
33(-1)->1 2 3 4 5 6 7 8 9 10 11 12 13 14 15 20 22 24 25 27 28 30 35 38 39 
18(-1)->1 2 3 4 5 6 7 8 9 12 16 19 20 22 24 27 28 30 31 32 37 38 39 40 
20(-1)->1 2 3 4 5 6 7 8 9 11 12 14 15 18 21 22 25 26 28 29 33 35 38 40 
23(-1)->1 2 3 4 5 6 7 8 9 10 11 12 13 14 16 19 21 24 27 29 30 35 36 39 
14(-1)->1 2 3 4 5 6 7 8 9 10 12 15 16 19 20 23 27 31 33 34 36 38 39 
24(-1)->1 2 3 4 5 6 7 8 9 10 16 18 19 23 26 27 28 32 33 34 35 37 40 
26(-1)->1 2 3 4 5 6 7 8 9 10 11 13 19 20 24 27 29 30 31 34 36 37 40 
28(-1)->1 2 3 4 5 6 7 8 9 10 13 15 16 17 18 20 21 22 24 32 33 35 39 
30(-1)->1 2 3 4 5 6 7 8 9 10 11 16 17 18 19 23 26 27 31 32 33 34 36 
39(-1)->1 2 3 4 5 6 7 9 10 11 12 13 14 15 17 18 19 22 23 28 29 32 33 
15(-1)->1 2 3 4 5 6 7 8 10 11 12 14 16 20 28 31 33 35 36 37 38 39 
22(-1)->1 2 3 4 5 6 7 8 12 13 16 17 18 19 20 21 28 31 32 33 38 39 
17(-1)->1 2 3 4 5 6 7 8 9 10 12 13 16 22 28 30 34 36 38 39 40 
32(-1)->1 2 3 4 5 6 7 8 9 13 16 18 19 21 22 24 28 30 37 38 39 
37(-1)->1 2 3 4 5 6 10 11 12 13 15 18 21 24 25 26 31 32 35 38 40 
31(-1)->1 2 3 4 5 6 7 10 13 14 15 18 19 21 22 26 30 37 38 40 
27(-1)->1 2 3 4 5 6 7 8 9 13 14 18 21 23 24 26 30 33 38 
34(-1)->1 2 3 4 5 6 7 13 14 17 19 21 24 25 26 30 35 38 40 
40(-1)->2 4 5 6 10 12 17 18 19 20 21 24 26 31 34 35 37 38 
29(-1)->1 2 3 4 5 6 7 8 12 19 20 21 23 25 26 38 39 
36(-1)->1 2 3 4 5 6 7 8 10 14 15 16 17 23 26 30 38 
25(-1)->1 2 3 4 5 6 8 10 11 16 20 29 33 34 35 37 
-------
BLAH
START TIME: 1433711283
Cq = 16 and is assigned to x25
BACKTRACKED TO DEPTH: 24
0 1 2 3 4 5 6 7 8 9 10 11 12 13 14 15 
Cq = 15 and is assigned to x20
BACKTRACKED TO DEPTH: 19
0 1 2 3 4 5 6 7 8 9 10 11 12 13 14 
Cq = 14 and is assigned to x18
BACKTRACKED TO DEPTH: 17
0 1 2 3 4 5 6 7 8 9 10 11 12 13 
1(4)->2 3 4 5 6 7 8 9 10 11 12 13 14 15 16 17 18 19 20 21 22 23 24 25 26 27 28 29 30 31 32 33 34 35 36 37 38 39 
2(0)->1 3 4 5 6 7 8 9 10 11 12 13 14 15 16 17 18 19 20 21 22 23 24 25 26 27 28 29 30 31 32 33 34 35 36 37 38 39 40 
3(5)->1 2 4 5 6 7 8 9 10 11 12 13 14 15 16 17 18 19 20 21 22 23 24 25 26 27 28 29 30 31 32 33 34 35 36 37 38 39 
4(1)->1 2 3 5 6 7 8 9 10 11 12 13 14 15 16 17 18 19 20 21 22 23 24 25 26 27 28 29 30 31 32 33 34 35 36 37 38 39 40 
5(2)->1 2 3 4 6 7 8 9 10 11 12 13 14 15 16 17 18 19 20 21 22 23 24 25 26 27 28 29 30 31 32 33 34 35 36 37 38 39 40 
6(3)->1 2 3 4 5 7 8 9 10 11 12 13 14 15 16 17 18 19 20 21 22 23 24 25 26 27 28 29 30 31 32 33 34 35 36 37 38 39 40 
7(6)->1 2 3 4 5 6 8 9 10 11 12 13 14 15 16 17 18 19 20 21 22 23 24 26 27 28 29 30 31 32 33 34 35 36 38 39 
8(7)->1 2 3 4 5 6 7 9 10 11 12 13 14 15 16 17 18 19 20 21 22 23 24 25 26 27 28 29 30 32 33 35 36 
9(9)->1 2 3 4 5 6 7 8 10 11 12 13 14 16 17 18 19 20 21 23 24 26 27 28 30 32 33 35 38 39 
10(8)->1 2 3 4 5 6 7 8 9 11 12 13 14 15 16 17 19 21 23 24 25 26 28 30 31 33 35 36 37 38 39 40 
11(11)->1 2 3 4 5 6 7 8 9 10 12 13 15 16 19 20 21 23 25 26 30 33 35 37 38 39 
12(10)->1 2 3 4 5 6 7 8 9 10 11 13 14 15 17 18 19 20 22 23 29 33 35 37 38 39 40 
13(13)->1 2 3 4 5 6 7 8 9 10 11 12 17 22 23 26 27 28 31 32 33 34 35 37 39 
14(11)->1 2 3 4 5 6 7 8 9 10 12 15 16 19 20 23 27 31 33 34 36 38 39 
15(9)->1 2 3 4 5 6 7 8 10 11 12 14 16 20 28 31 33 35 36 37 38 39 
16(10)->1 2 3 4 5 6 7 8 9 10 11 14 15 17 18 19 21 22 23 24 25 28 30 32 35 36 
17(14)->1 2 3 4 5 6 7 8 9 10 12 13 16 22 28 30 34 36 38 39 40 
18(14)->1 2 3 4 5 6 7 8 9 12 16 19 20 22 24 27 28 30 31 32 37 38 39 40 
19(12)->1 2 3 4 5 6 7 8 9 10 11 12 14 16 18 22 23 24 26 29 30 31 32 34 39 40 
20(8)->1 2 3 4 5 6 7 8 9 11 12 14 15 18 21 22 25 26 28 29 33 35 38 40 
21(13)->1 2 3 4 5 6 7 8 9 10 11 16 20 22 23 27 28 29 31 32 34 35 37 38 40 
22(9)->1 2 3 4 5 6 7 8 12 13 16 17 18 19 20 21 28 31 32 33 38 39 
23(14)->1 2 3 4 5 6 7 8 9 10 11 12 13 14 16 19 21 24 27 29 30 35 36 39 
24(13)->1 2 3 4 5 6 7 8 9 10 16 18 19 23 26 27 28 32 33 34 35 37 40 
25(13)->1 2 3 4 5 6 8 10 11 16 20 29 33 34 35 37 
26(14)->1 2 3 4 5 6 7 8 9 10 11 13 19 20 24 27 29 30 31 34 36 37 40 
27(8)->1 2 3 4 5 6 7 8 9 13 14 18 21 23 24 26 30 33 38 
28(11)->1 2 3 4 5 6 7 8 9 10 13 15 16 17 18 20 21 22 24 32 33 35 39 
29(9)->1 2 3 4 5 6 7 8 12 19 20 21 23 25 26 38 39 
30(13)->1 2 3 4 5 6 7 8 9 10 11 16 17 18 19 23 26 27 31 32 33 34 36 
31(10)->1 2 3 4 5 6 7 10 13 14 15 18 19 21 22 26 30 37 38 40 
32(8)->1 2 3 4 5 6 7 8 9 13 16 18 19 21 22 24 28 30 37 38 39 
33(14)->1 2 3 4 5 6 7 8 9 10 11 12 13 14 15 20 22 24 25 27 28 30 35 38 39 
34(8)->1 2 3 4 5 6 7 13 14 17 19 21 24 25 26 30 35 38 40 
35(12)->1 2 3 4 5 6 7 8 9 10 11 12 13 15 16 20 21 23 24 25 28 33 34 37 38 40 
36(12)->1 2 3 4 5 6 7 8 10 14 15 16 17 23 26 30 38 
37(6)->1 2 3 4 5 6 10 11 12 13 15 18 21 24 25 26 31 32 35 38 40 
38(7)->1 2 3 4 5 6 7 9 10 11 12 14 15 17 18 20 21 22 27 29 31 32 33 34 35 36 37 40 
39(7)->1 2 3 4 5 6 7 9 10 11 12 13 14 15 17 18 19 22 23 28 29 32 33 
40(4)->2 4 5 6 10 12 17 18 19 20 21 24 26 31 34 35 37 38 
COUNT: 264
COLORS: 15
EDGES: 520
15
264
