1: 2 3 4 5 6 7 8 9 10 11 18 20 22 23 29
2: 1 3 8 12 21 23 27 28
3: 1 2 28 4
4: 32 1 3 5 13 16 20 26
5: 33 35 4 1 40 9 11 19 23
6: 1 28
7: 1 18 37 22
8: 1 2 39 40 15 23
9: 1 26 5 13
10: 1 35 14 30 39
11: 33 34 5 1 17 18 19 24 25
12: 2 40 15 24 29 31
13: 32 4 9 15 20 30
14: 32 34 35 10 30
15: 40 8 12 13 38
16: 24 26 4 29 22
17: 11 19 21 27 28 29
18: 1 33 7 11 24 25
19: 11 17 27 5 33
20: 1 35 4 13 23 24 25
21: 17 2 37 38 23
22: 1 37 7 16 33 29
23: 1 2 36 5 8 20 21
24: 36 38 11 12 16 18 20
25: 39 11 18 20 26 27
26: 34 35 4 9 16 25
27: 33 2 39 17 19 25
28: 17 2 3 36 6
29: 16 17 12 22 1
30: 40 10 34 13 14
31: 36 34 12
32: 4 13 14
33: 34 36 37 38 11 18 19 22 27 5
34: 33 37 11 14 26 30 31
35: 10 20 26 14 5
36: 33 37 23 24 28 31
37: 33 34 36 39 40 7 21 22
38: 24 33 21 15
39: 8 25 10 27 37
40: 5 8 12 15 30 37
-------
1(-1)->2 3 4 5 6 7 8 9 10 11 18 20 22 23 29 
2(-1)->1 3 8 12 21 23 27 28 
3(-1)->1 2 4 28 
4(-1)->1 3 5 13 16 20 26 32 
5(-1)->1 4 9 11 19 23 33 35 40 
6(-1)->1 28 
7(-1)->1 18 22 37 
8(-1)->1 2 15 23 39 40 
9(-1)->1 5 13 26 
10(-1)->1 14 30 35 39 
11(-1)->1 5 17 18 19 24 25 33 34 
12(-1)->2 15 24 29 31 40 
13(-1)->4 9 15 20 30 32 
14(-1)->10 30 32 34 35 
15(-1)->8 12 13 38 40 
16(-1)->4 22 24 26 29 
17(-1)->11 19 21 27 28 29 
18(-1)->1 7 11 24 25 33 
19(-1)->5 11 17 27 33 
20(-1)->1 4 13 23 24 25 35 
21(-1)->2 17 23 37 38 
22(-1)->1 7 16 29 33 37 
23(-1)->1 2 5 8 20 21 36 
24(-1)->11 12 16 18 20 36 38 
25(-1)->11 18 20 26 27 39 
26(-1)->4 9 16 25 34 35 
27(-1)->2 17 19 25 33 39 
28(-1)->2 3 6 17 36 
29(-1)->1 12 16 17 22 
30(-1)->10 13 14 34 40 
31(-1)->12 34 36 
32(-1)->4 13 14 
33(-1)->5 11 18 19 22 27 34 36 37 38 
34(-1)->11 14 26 30 31 33 37 
35(-1)->5 10 14 20 26 
36(-1)->23 24 28 31 33 37 
37(-1)->7 21 22 33 34 36 39 40 
38(-1)->15 21 24 33 
39(-1)->8 10 25 27 37 
40(-1)->5 8 12 15 30 37 
-------
Node 1 maps to position 0
Node 33 maps to position 1
Node 5 maps to position 2
Node 11 maps to position 3
Node 2 maps to position 4
Node 4 maps to position 5
Node 37 maps to position 6
Node 20 maps to position 7
Node 23 maps to position 8
Node 24 maps to position 9
Node 34 maps to position 10
Node 8 maps to position 11
Node 12 maps to position 12
Node 13 maps to position 13
Node 17 maps to position 14
Node 18 maps to position 15
Node 22 maps to position 16
Node 25 maps to position 17
Node 26 maps to position 18
Node 27 maps to position 19
Node 36 maps to position 20
Node 40 maps to position 21
Node 10 maps to position 22
Node 14 maps to position 23
Node 15 maps to position 24
Node 16 maps to position 25
Node 19 maps to position 26
Node 21 maps to position 27
Node 28 maps to position 28
Node 29 maps to position 29
Node 30 maps to position 30
Node 35 maps to position 31
Node 39 maps to position 32
Node 3 maps to position 33
Node 7 maps to position 34
Node 9 maps to position 35
Node 38 maps to position 36
Node 31 maps to position 37
Node 32 maps to position 38
Node 6 maps to position 39
1(-1)->2 3 4 5 6 7 8 9 10 11 18 20 22 23 29 
33(-1)->5 11 18 19 22 27 34 36 37 38 
5(-1)->1 4 9 11 19 23 33 35 40 
11(-1)->1 5 17 18 19 24 25 33 34 
2(-1)->1 3 8 12 21 23 27 28 
4(-1)->1 3 5 13 16 20 26 32 
37(-1)->7 21 22 33 34 36 39 40 
20(-1)->1 4 13 23 24 25 35 
23(-1)->1 2 5 8 20 21 36 
24(-1)->11 12 16 18 20 36 38 
34(-1)->11 14 26 30 31 33 37 
8(-1)->1 2 15 23 39 40 
12(-1)->2 15 24 29 31 40 
13(-1)->4 9 15 20 30 32 
17(-1)->11 19 21 27 28 29 
18(-1)->1 7 11 24 25 33 
22(-1)->1 7 16 29 33 37 
25(-1)->11 18 20 26 27 39 
26(-1)->4 9 16 25 34 35 
27(-1)->2 17 19 25 33 39 
36(-1)->23 24 28 31 33 37 
40(-1)->5 8 12 15 30 37 
10(-1)->1 14 30 35 39 
14(-1)->10 30 32 34 35 
15(-1)->8 12 13 38 40 
16(-1)->4 22 24 26 29 
19(-1)->5 11 17 27 33 
21(-1)->2 17 23 37 38 
28(-1)->2 3 6 17 36 
29(-1)->1 12 16 17 22 
30(-1)->10 13 14 34 40 
35(-1)->5 10 14 20 26 
39(-1)->8 10 25 27 37 
3(-1)->1 2 4 28 
7(-1)->1 18 22 37 
9(-1)->1 5 13 26 
38(-1)->15 21 24 33 
31(-1)->12 34 36 
32(-1)->4 13 14 
6(-1)->1 28 
-------
BLAH
START TIME: 1433711231
Cq = 4 and is assigned to x32
BACKTRACKED TO DEPTH: 31
0 1 2 3 
Cq = 3 and is assigned to x10
BACKTRACKED TO DEPTH: 9
0 1 2 
1(0)->2 3 4 5 6 7 8 9 10 11 18 20 22 23 29 
2(1)->1 3 8 12 21 23 27 28 
3(3)->1 2 4 28 
4(2)->1 3 5 13 16 20 26 32 
5(1)->1 4 9 11 19 23 33 35 40 
6(1)->1 28 
7(3)->1 18 22 37 
8(3)->1 2 15 23 39 40 
9(2)->1 5 13 26 
10(1)->1 14 30 35 39 
11(2)->1 5 17 18 19 24 25 33 34 
12(2)->2 15 24 29 31 40 
13(0)->4 9 15 20 30 32 
14(0)->10 30 32 34 35 
15(1)->8 12 13 38 40 
16(1)->4 22 24 26 29 
17(0)->11 19 21 27 28 29 
18(1)->1 7 11 24 25 33 
19(3)->5 11 17 27 33 
20(1)->1 4 13 23 24 25 35 
21(3)->2 17 23 37 38 
22(2)->1 7 16 29 33 37 
23(2)->1 2 5 8 20 21 36 
24(0)->11 12 16 18 20 36 38 
25(3)->11 18 20 26 27 39 
26(0)->4 9 16 25 34 35 
27(2)->2 17 19 25 33 39 
28(2)->2 3 6 17 36 
29(3)->1 12 16 17 22 
30(2)->10 13 14 34 40 
31(0)->12 34 36 
32(1)->4 13 14 
33(0)->5 11 18 19 22 27 34 36 37 38 
34(3)->11 14 26 30 31 33 37 
35(2)->5 10 14 20 26 
36(3)->23 24 28 31 33 37 
37(1)->7 21 22 33 34 36 39 40 
38(2)->15 21 24 33 
39(0)->8 10 25 27 37 
40(0)->5 8 12 15 30 37 
COUNT: 158
COLORS: 4
EDGES: 120
4
158
