1: 2 3 4 5 6 7 8 9 10 11 12 13 14 15 16 17 18 19 20 21 22 23 24 25 26 27 28 29 30 31 32 33 34 35 36 37 38 39
2: 32 1 5 3 4 37 6 7 40 9 11 12 36 15 18 22 25 27 28 29 31
3: 33 34 35 4 5 6 1 40 7 8 2 15 16 17 18 19 20 21 22
4: 1 2 3 5 6 7 8 13 14 15 17 20 21 24 25 26 27 33 34 36 38 40
5: 1 34 3 4 37 38 8 2 15 16 6 18 21 24 25 26 27 29 30
6: 32 1 34 3 36 5 38 40 11 2 16 17 20 25 26 27 4
7: 32 1 2 3 36 12 13 15 22 23 4 26 27 29
8: 1 3 4 37 38 40 12 13 14 15 18 22 23 25 5
9: 32 1 2 35 36 13 15 16 18 23 27
10: 40 32 36 1 23
11: 33 2 37 6 1 13 15 17 18 19 20 24 26 29 30
12: 1 2 35 7 40 8 19 26 27 29 30
13: 33 11 4 7 8 9 39 16 20 1 25 27
14: 1 34 35 4 37 8 17 22
15: 33 2 3 4 5 38 1 8 9 11 34 18 35 20 22 7 31
16: 1 3 37 6 40 9 13 18 20 24 25 30 5
17: 1 3 4 37 6 11 14 19 25 30
18: 32 33 34 3 1 37 38 39 8 9 11 2 15 16 24 5
19: 33 34 3 36 38 1 40 11 12 17 20 22 24 29 30 31
20: 32 1 3 4 6 39 11 13 15 16 19 36 28 30
21: 32 1 3 4 37 39 35 5
22: 3 1 2 35 36 7 40 14 15 8 19 26 28
23: 32 1 37 7 8 9 10 26 27 30
24: 33 35 4 5 39 11 16 18 19 1 30
25: 1 2 36 5 6 8 13 16 17 4 28 31
26: 32 1 34 35 4 5 6 7 39 12 11 22 23 28 29
27: 1 2 36 5 6 39 9 7 12 13 23 4 30
28: 32 33 2 1 20 22 25 26 30
29: 32 1 2 35 5 38 7 40 11 12 19 26 30
30: 32 1 5 11 12 16 17 19 20 23 24 27 28 29 37
31: 1 2 37 40 15 19 25
32: 33 2 35 6 38 1 9 10 7 18 20 21 23 26 28 29 30
33: 32 1 3 4 38 40 11 13 15 18 19 24 28
34: 1 3 4 37 6 40 14 15 18 19 26 5
35: 32 1 3 37 40 9 12 14 15 21 22 24 26 29
36: 1 2 4 6 7 40 9 10 19 20 22 25 27
37: 1 2 35 5 8 11 34 14 16 17 18 21 23 30 31
38: 32 33 4 5 6 1 8 15 18 19 29
39: 1 40 13 18 20 21 24 26 27
40: 19 33 34 3 36 6 39 8 10 12 2 16 35 22 4 29 31
-------
1(-1)->2 3 4 5 6 7 8 9 10 11 12 13 14 15 16 17 18 19 20 21 22 23 24 25 26 27 28 29 30 31 32 33 34 35 36 37 38 39 
2(-1)->1 3 4 5 6 7 9 11 12 15 18 22 25 27 28 29 31 32 36 37 40 
3(-1)->1 2 4 5 6 7 8 15 16 17 18 19 20 21 22 33 34 35 40 
4(-1)->1 2 3 5 6 7 8 13 14 15 17 20 21 24 25 26 27 33 34 36 38 40 
5(-1)->1 2 3 4 6 8 15 16 18 21 24 25 26 27 29 30 34 37 38 
6(-1)->1 2 3 4 5 11 16 17 20 25 26 27 32 34 36 38 40 
7(-1)->1 2 3 4 12 13 15 22 23 26 27 29 32 36 
8(-1)->1 3 4 5 12 13 14 15 18 22 23 25 37 38 40 
9(-1)->1 2 13 15 16 18 23 27 32 35 36 
10(-1)->1 23 32 36 40 
11(-1)->1 2 6 13 15 17 18 19 20 24 26 29 30 33 37 
12(-1)->1 2 7 8 19 26 27 29 30 35 40 
13(-1)->1 4 7 8 9 11 16 20 25 27 33 39 
14(-1)->1 4 8 17 22 34 35 37 
15(-1)->1 2 3 4 5 7 8 9 11 18 20 22 31 33 34 35 38 
16(-1)->1 3 5 6 9 13 18 20 24 25 30 37 40 
17(-1)->1 3 4 6 11 14 19 25 30 37 
18(-1)->1 2 3 5 8 9 11 15 16 24 32 33 34 37 38 39 
19(-1)->1 3 11 12 17 20 22 24 29 30 31 33 34 36 38 40 
20(-1)->1 3 4 6 11 13 15 16 19 28 30 32 36 39 
21(-1)->1 3 4 5 32 35 37 39 
22(-1)->1 2 3 7 8 14 15 19 26 28 35 36 40 
23(-1)->1 7 8 9 10 26 27 30 32 37 
24(-1)->1 4 5 11 16 18 19 30 33 35 39 
25(-1)->1 2 4 5 6 8 13 16 17 28 31 36 
26(-1)->1 4 5 6 7 11 12 22 23 28 29 32 34 35 39 
27(-1)->1 2 4 5 6 7 9 12 13 23 30 36 39 
28(-1)->1 2 20 22 25 26 30 32 33 
29(-1)->1 2 5 7 11 12 19 26 30 32 35 38 40 
30(-1)->1 5 11 12 16 17 19 20 23 24 27 28 29 32 37 
31(-1)->1 2 15 19 25 37 40 
32(-1)->1 2 6 7 9 10 18 20 21 23 26 28 29 30 33 35 38 
33(-1)->1 3 4 11 13 15 18 19 24 28 32 38 40 
34(-1)->1 3 4 5 6 14 15 18 19 26 37 40 
35(-1)->1 3 9 12 14 15 21 22 24 26 29 32 37 40 
36(-1)->1 2 4 6 7 9 10 19 20 22 25 27 40 
37(-1)->1 2 5 8 11 14 16 17 18 21 23 30 31 34 35 
38(-1)->1 4 5 6 8 15 18 19 29 32 33 
39(-1)->1 13 18 20 21 24 26 27 40 
40(-1)->2 3 4 6 8 10 12 16 19 22 29 31 33 34 35 36 39 
-------
Node 1 maps to position 0
Node 4 maps to position 1
Node 2 maps to position 2
Node 3 maps to position 3
Node 5 maps to position 4
Node 6 maps to position 5
Node 15 maps to position 6
Node 32 maps to position 7
Node 40 maps to position 8
Node 18 maps to position 9
Node 19 maps to position 10
Node 8 maps to position 11
Node 11 maps to position 12
Node 26 maps to position 13
Node 30 maps to position 14
Node 37 maps to position 15
Node 7 maps to position 16
Node 20 maps to position 17
Node 35 maps to position 18
Node 16 maps to position 19
Node 22 maps to position 20
Node 27 maps to position 21
Node 29 maps to position 22
Node 33 maps to position 23
Node 36 maps to position 24
Node 13 maps to position 25
Node 25 maps to position 26
Node 34 maps to position 27
Node 9 maps to position 28
Node 12 maps to position 29
Node 24 maps to position 30
Node 38 maps to position 31
Node 17 maps to position 32
Node 23 maps to position 33
Node 28 maps to position 34
Node 39 maps to position 35
Node 14 maps to position 36
Node 21 maps to position 37
Node 31 maps to position 38
Node 10 maps to position 39
1(-1)->2 3 4 5 6 7 8 9 10 11 12 13 14 15 16 17 18 19 20 21 22 23 24 25 26 27 28 29 30 31 32 33 34 35 36 37 38 39 
4(-1)->1 2 3 5 6 7 8 13 14 15 17 20 21 24 25 26 27 33 34 36 38 40 
2(-1)->1 3 4 5 6 7 9 11 12 15 18 22 25 27 28 29 31 32 36 37 40 
3(-1)->1 2 4 5 6 7 8 15 16 17 18 19 20 21 22 33 34 35 40 
5(-1)->1 2 3 4 6 8 15 16 18 21 24 25 26 27 29 30 34 37 38 
6(-1)->1 2 3 4 5 11 16 17 20 25 26 27 32 34 36 38 40 
15(-1)->1 2 3 4 5 7 8 9 11 18 20 22 31 33 34 35 38 
32(-1)->1 2 6 7 9 10 18 20 21 23 26 28 29 30 33 35 38 
40(-1)->2 3 4 6 8 10 12 16 19 22 29 31 33 34 35 36 39 
18(-1)->1 2 3 5 8 9 11 15 16 24 32 33 34 37 38 39 
19(-1)->1 3 11 12 17 20 22 24 29 30 31 33 34 36 38 40 
8(-1)->1 3 4 5 12 13 14 15 18 22 23 25 37 38 40 
11(-1)->1 2 6 13 15 17 18 19 20 24 26 29 30 33 37 
26(-1)->1 4 5 6 7 11 12 22 23 28 29 32 34 35 39 
30(-1)->1 5 11 12 16 17 19 20 23 24 27 28 29 32 37 
37(-1)->1 2 5 8 11 14 16 17 18 21 23 30 31 34 35 
7(-1)->1 2 3 4 12 13 15 22 23 26 27 29 32 36 
20(-1)->1 3 4 6 11 13 15 16 19 28 30 32 36 39 
35(-1)->1 3 9 12 14 15 21 22 24 26 29 32 37 40 
16(-1)->1 3 5 6 9 13 18 20 24 25 30 37 40 
22(-1)->1 2 3 7 8 14 15 19 26 28 35 36 40 
27(-1)->1 2 4 5 6 7 9 12 13 23 30 36 39 
29(-1)->1 2 5 7 11 12 19 26 30 32 35 38 40 
33(-1)->1 3 4 11 13 15 18 19 24 28 32 38 40 
36(-1)->1 2 4 6 7 9 10 19 20 22 25 27 40 
13(-1)->1 4 7 8 9 11 16 20 25 27 33 39 
25(-1)->1 2 4 5 6 8 13 16 17 28 31 36 
34(-1)->1 3 4 5 6 14 15 18 19 26 37 40 
9(-1)->1 2 13 15 16 18 23 27 32 35 36 
12(-1)->1 2 7 8 19 26 27 29 30 35 40 
24(-1)->1 4 5 11 16 18 19 30 33 35 39 
38(-1)->1 4 5 6 8 15 18 19 29 32 33 
17(-1)->1 3 4 6 11 14 19 25 30 37 
23(-1)->1 7 8 9 10 26 27 30 32 37 
28(-1)->1 2 20 22 25 26 30 32 33 
39(-1)->1 13 18 20 21 24 26 27 40 
14(-1)->1 4 8 17 22 34 35 37 
21(-1)->1 3 4 5 32 35 37 39 
31(-1)->1 2 15 19 25 37 40 
10(-1)->1 23 32 36 40 
-------
BLAH
START TIME: 1433711251
Cq = 8 and is assigned to x28
BACKTRACKED TO DEPTH: 27
0 1 2 3 4 5 6 7 
Cq = 7 and is assigned to x19
BACKTRACKED TO DEPTH: 18
0 1 2 3 4 5 6 
Cq = 6 and is assigned to x9
BACKTRACKED TO DEPTH: 8
0 1 2 3 4 5 
1(0)->2 3 4 5 6 7 8 9 10 11 12 13 14 15 16 17 18 19 20 21 22 23 24 25 26 27 28 29 30 31 32 33 34 35 36 37 38 39 
2(2)->1 3 4 5 6 7 9 11 12 15 18 22 25 27 28 29 31 32 36 37 40 
3(3)->1 2 4 5 6 7 8 15 16 17 18 19 20 21 22 33 34 35 40 
4(1)->1 2 3 5 6 7 8 13 14 15 17 20 21 24 25 26 27 33 34 36 38 40 
5(4)->1 2 3 4 6 8 15 16 18 21 24 25 26 27 29 30 34 37 38 
6(5)->1 2 3 4 5 11 16 17 20 25 26 27 32 34 36 38 40 
7(4)->1 2 3 4 12 13 15 22 23 26 27 29 32 36 
8(2)->1 3 4 5 12 13 14 15 18 22 23 25 37 38 40 
9(4)->1 2 13 15 16 18 23 27 32 35 36 
10(2)->1 23 32 36 40 
11(4)->1 2 6 13 15 17 18 19 20 24 26 29 30 33 37 
12(5)->1 2 7 8 19 26 27 29 30 35 40 
13(3)->1 4 7 8 9 11 16 20 25 27 33 39 
14(3)->1 4 8 17 22 34 35 37 
15(5)->1 2 3 4 5 7 8 9 11 18 20 22 31 33 34 35 38 
16(2)->1 3 5 6 9 13 18 20 24 25 30 37 40 
17(2)->1 3 4 6 11 14 19 25 30 37 
18(6)->1 2 3 5 8 9 11 15 16 24 32 33 34 37 38 39 
19(1)->1 3 11 12 17 20 22 24 29 30 31 33 34 36 38 40 
20(6)->1 3 4 6 11 13 15 16 19 28 30 32 36 39 
21(5)->1 3 4 5 32 35 37 39 
22(6)->1 2 3 7 8 14 15 19 26 28 35 36 40 
23(5)->1 7 8 9 10 26 27 30 32 37 
24(5)->1 4 5 11 16 18 19 30 33 35 39 
25(6)->1 2 4 5 6 8 13 16 17 28 31 36 
26(3)->1 4 5 6 7 11 12 22 23 28 29 32 34 35 39 
27(6)->1 2 4 5 6 7 9 12 13 23 30 36 39 
28(4)->1 2 20 22 25 26 30 32 33 
29(6)->1 2 5 7 11 12 19 26 30 32 35 38 40 
30(3)->1 5 11 12 16 17 19 20 23 24 27 28 29 32 37 
31(3)->1 2 15 19 25 37 40 
32(1)->1 2 6 7 9 10 18 20 21 23 26 28 29 30 33 35 38 
33(2)->1 3 4 11 13 15 18 19 24 28 32 38 40 
34(2)->1 3 4 5 6 14 15 18 19 26 37 40 
35(2)->1 3 9 12 14 15 21 22 24 26 29 32 37 40 
36(3)->1 2 4 6 7 9 10 19 20 22 25 27 40 
37(1)->1 2 5 8 11 14 16 17 18 21 23 30 31 34 35 
38(3)->1 4 5 6 8 15 18 19 29 32 33 
39(1)->1 13 18 20 21 24 26 27 40 
40(0)->2 3 4 6 8 10 12 16 19 22 29 31 33 34 35 36 39 
COUNT: 1476
COLORS: 7
EDGES: 280
7
1476
