1: 2 3 4 5 6 7 8 9 10 11 12 13 14 15 16 17 18 19 20 21 22 23 24 25 26 27 28 29 30 31 32 33 34 35 36 37 38 39 40
2: 1 3 4 5 6 7 8 9 10 11 12 13 14 15 16 17 18 19 20 21 22 23 24 25 26 27 28 29 30 31 32 33 34 35 36 37 38 39
3: 1 2 4 5 6 7 8 9 10 11 12 14 15 16 17 18 19 20 21 22 23 24 25 26 27 28 29 30 32 33 34 37 38 39
4: 1 2 3 5 6 7 9 10 12 13 14 16 17 18 19 20 21 24 25 26 27 29 31 36 39 40
5: 1 2 3 4 6 7 8 9 10 13 14 18 19 21 25 29 30 31 32 35 36 37 38 39
6: 1 2 3 4 5 7 9 10 13 17 18 20 21 22 26 28 29 30 32 33 34 35 36 37 39
7: 32 1 34 35 4 5 6 39 9 10 2 14 18 3 21 26 28 31
8: 1 2 3 5 10 11 12 15 16 17 18 22 23 24 26 30 31
9: 19 33 2 35 4 5 38 7 1 12 15 3 21 22 23 25 6 29 30 37
10: 1 2 35 4 5 6 7 8 12 14 17 18 3 22 25
11: 32 1 34 3 38 39 8 12 2 19 20 24 28 29
12: 1 2 3 4 33 39 8 9 10 11 14 15 18 22 23 24 27 28 29 31
13: 1 2 36 5 6 39 16 19 24 4
14: 33 2 35 4 5 38 1 10 39 12 18 3 7 36 30 31
15: 1 34 3 36 8 9 12 2 16 18 20 24 25 29 30 31
16: 1 2 3 36 39 8 13 15 34 20 25 28 4
17: 19 33 34 35 4 38 6 1 8 10 2 18 3 21 23 24 25 29
18: 1 2 3 4 5 6 7 8 10 12 14 15 17 23 24 26 28 29 30 31 32 33 35 38
19: 1 2 35 4 37 40 9 11 13 17 3 21 36 28 29 30 5
20: 33 2 3 36 6 39 1 11 15 16 21 23 25 27 4 31
21: 32 1 34 3 4 37 38 7 9 2 17 19 20 6 5
22: 33 2 3 6 1 8 9 10 12 23 31
23: 33 2 3 36 37 1 8 9 12 17 18 20 22 24 29 30
24: 32 1 2 3 4 8 11 12 13 15 17 18 35 23 28 29
25: 33 34 3 4 5 1 9 10 2 15 16 17 20 26 29
26: 32 1 2 3 4 6 38 7 8 18 35 25
27: 33 2 3 4 37 38 1 12 20 36 29 31
28: 1 34 3 6 7 40 11 12 2 16 18 19 24 39
29: 1 2 3 4 5 6 9 11 12 15 17 18 19 23 24 25 27 30 32 34 35 36 38 39
30: 32 1 34 3 5 6 8 9 2 14 15 18 19 23 29 37
31: 1 2 35 4 5 7 8 12 14 15 40 18 20 22 27
32: 33 2 6 1 5 38 7 40 11 18 3 21 24 26 29 30
33: 32 1 34 3 36 38 6 40 9 12 2 14 17 18 20 22 23 25 27
34: 33 2 3 1 6 7 11 15 16 17 21 39 25 28 29 30
35: 1 2 5 6 7 9 10 14 17 18 19 24 26 29 31
36: 33 2 4 5 6 1 40 13 14 15 16 19 20 23 27 29
37: 1 2 3 5 6 9 19 21 23 27 30
38: 32 33 2 3 5 1 9 11 14 17 18 21 39 26 27 29
39: 1 34 3 4 38 6 7 11 12 13 14 16 20 2 28 29 5
40: 32 1 36 33 19 4 28 31
-------
1(-1)->2 3 4 5 6 7 8 9 10 11 12 13 14 15 16 17 18 19 20 21 22 23 24 25 26 27 28 29 30 31 32 33 34 35 36 37 38 39 40 
2(-1)->1 3 4 5 6 7 8 9 10 11 12 13 14 15 16 17 18 19 20 21 22 23 24 25 26 27 28 29 30 31 32 33 34 35 36 37 38 39 
3(-1)->1 2 4 5 6 7 8 9 10 11 12 14 15 16 17 18 19 20 21 22 23 24 25 26 27 28 29 30 32 33 34 37 38 39 
4(-1)->1 2 3 5 6 7 9 10 12 13 14 16 17 18 19 20 21 24 25 26 27 29 31 36 39 40 
5(-1)->1 2 3 4 6 7 8 9 10 13 14 18 19 21 25 29 30 31 32 35 36 37 38 39 
6(-1)->1 2 3 4 5 7 9 10 13 17 18 20 21 22 26 28 29 30 32 33 34 35 36 37 39 
7(-1)->1 2 3 4 5 6 9 10 14 18 21 26 28 31 32 34 35 39 
8(-1)->1 2 3 5 10 11 12 15 16 17 18 22 23 24 26 30 31 
9(-1)->1 2 3 4 5 6 7 12 15 19 21 22 23 25 29 30 33 35 37 38 
10(-1)->1 2 3 4 5 6 7 8 12 14 17 18 22 25 35 
11(-1)->1 2 3 8 12 19 20 24 28 29 32 34 38 39 
12(-1)->1 2 3 4 8 9 10 11 14 15 18 22 23 24 27 28 29 31 33 39 
13(-1)->1 2 4 5 6 16 19 24 36 39 
14(-1)->1 2 3 4 5 7 10 12 18 30 31 33 35 36 38 39 
15(-1)->1 2 3 8 9 12 16 18 20 24 25 29 30 31 34 36 
16(-1)->1 2 3 4 8 13 15 20 25 28 34 36 39 
17(-1)->1 2 3 4 6 8 10 18 19 21 23 24 25 29 33 34 35 38 
18(-1)->1 2 3 4 5 6 7 8 10 12 14 15 17 23 24 26 28 29 30 31 32 33 35 38 
19(-1)->1 2 3 4 5 9 11 13 17 21 28 29 30 35 36 37 40 
20(-1)->1 2 3 4 6 11 15 16 21 23 25 27 31 33 36 39 
21(-1)->1 2 3 4 5 6 7 9 17 19 20 32 34 37 38 
22(-1)->1 2 3 6 8 9 10 12 23 31 33 
23(-1)->1 2 3 8 9 12 17 18 20 22 24 29 30 33 36 37 
24(-1)->1 2 3 4 8 11 12 13 15 17 18 23 28 29 32 35 
25(-1)->1 2 3 4 5 9 10 15 16 17 20 26 29 33 34 
26(-1)->1 2 3 4 6 7 8 18 25 32 35 38 
27(-1)->1 2 3 4 12 20 29 31 33 36 37 38 
28(-1)->1 2 3 6 7 11 12 16 18 19 24 34 39 40 
29(-1)->1 2 3 4 5 6 9 11 12 15 17 18 19 23 24 25 27 30 32 34 35 36 38 39 
30(-1)->1 2 3 5 6 8 9 14 15 18 19 23 29 32 34 37 
31(-1)->1 2 4 5 7 8 12 14 15 18 20 22 27 35 40 
32(-1)->1 2 3 5 6 7 11 18 21 24 26 29 30 33 38 40 
33(-1)->1 2 3 6 9 12 14 17 18 20 22 23 25 27 32 34 36 38 40 
34(-1)->1 2 3 6 7 11 15 16 17 21 25 28 29 30 33 39 
35(-1)->1 2 5 6 7 9 10 14 17 18 19 24 26 29 31 
36(-1)->1 2 4 5 6 13 14 15 16 19 20 23 27 29 33 40 
37(-1)->1 2 3 5 6 9 19 21 23 27 30 
38(-1)->1 2 3 5 9 11 14 17 18 21 26 27 29 32 33 39 
39(-1)->1 2 3 4 5 6 7 11 12 13 14 16 20 28 29 34 38 
40(-1)->1 4 19 28 31 32 33 36 
-------
Node 1 maps to position 0
Node 2 maps to position 1
Node 3 maps to position 2
Node 4 maps to position 3
Node 6 maps to position 4
Node 5 maps to position 5
Node 18 maps to position 6
Node 29 maps to position 7
Node 9 maps to position 8
Node 12 maps to position 9
Node 33 maps to position 10
Node 7 maps to position 11
Node 17 maps to position 12
Node 8 maps to position 13
Node 19 maps to position 14
Node 39 maps to position 15
Node 14 maps to position 16
Node 15 maps to position 17
Node 20 maps to position 18
Node 23 maps to position 19
Node 24 maps to position 20
Node 30 maps to position 21
Node 32 maps to position 22
Node 34 maps to position 23
Node 36 maps to position 24
Node 38 maps to position 25
Node 10 maps to position 26
Node 21 maps to position 27
Node 25 maps to position 28
Node 31 maps to position 29
Node 35 maps to position 30
Node 11 maps to position 31
Node 28 maps to position 32
Node 16 maps to position 33
Node 26 maps to position 34
Node 27 maps to position 35
Node 22 maps to position 36
Node 37 maps to position 37
Node 13 maps to position 38
Node 40 maps to position 39
1(-1)->2 3 4 5 6 7 8 9 10 11 12 13 14 15 16 17 18 19 20 21 22 23 24 25 26 27 28 29 30 31 32 33 34 35 36 37 38 39 40 
2(-1)->1 3 4 5 6 7 8 9 10 11 12 13 14 15 16 17 18 19 20 21 22 23 24 25 26 27 28 29 30 31 32 33 34 35 36 37 38 39 
3(-1)->1 2 4 5 6 7 8 9 10 11 12 14 15 16 17 18 19 20 21 22 23 24 25 26 27 28 29 30 32 33 34 37 38 39 
4(-1)->1 2 3 5 6 7 9 10 12 13 14 16 17 18 19 20 21 24 25 26 27 29 31 36 39 40 
6(-1)->1 2 3 4 5 7 9 10 13 17 18 20 21 22 26 28 29 30 32 33 34 35 36 37 39 
5(-1)->1 2 3 4 6 7 8 9 10 13 14 18 19 21 25 29 30 31 32 35 36 37 38 39 
18(-1)->1 2 3 4 5 6 7 8 10 12 14 15 17 23 24 26 28 29 30 31 32 33 35 38 
29(-1)->1 2 3 4 5 6 9 11 12 15 17 18 19 23 24 25 27 30 32 34 35 36 38 39 
9(-1)->1 2 3 4 5 6 7 12 15 19 21 22 23 25 29 30 33 35 37 38 
12(-1)->1 2 3 4 8 9 10 11 14 15 18 22 23 24 27 28 29 31 33 39 
33(-1)->1 2 3 6 9 12 14 17 18 20 22 23 25 27 32 34 36 38 40 
7(-1)->1 2 3 4 5 6 9 10 14 18 21 26 28 31 32 34 35 39 
17(-1)->1 2 3 4 6 8 10 18 19 21 23 24 25 29 33 34 35 38 
8(-1)->1 2 3 5 10 11 12 15 16 17 18 22 23 24 26 30 31 
19(-1)->1 2 3 4 5 9 11 13 17 21 28 29 30 35 36 37 40 
39(-1)->1 2 3 4 5 6 7 11 12 13 14 16 20 28 29 34 38 
14(-1)->1 2 3 4 5 7 10 12 18 30 31 33 35 36 38 39 
15(-1)->1 2 3 8 9 12 16 18 20 24 25 29 30 31 34 36 
20(-1)->1 2 3 4 6 11 15 16 21 23 25 27 31 33 36 39 
23(-1)->1 2 3 8 9 12 17 18 20 22 24 29 30 33 36 37 
24(-1)->1 2 3 4 8 11 12 13 15 17 18 23 28 29 32 35 
30(-1)->1 2 3 5 6 8 9 14 15 18 19 23 29 32 34 37 
32(-1)->1 2 3 5 6 7 11 18 21 24 26 29 30 33 38 40 
34(-1)->1 2 3 6 7 11 15 16 17 21 25 28 29 30 33 39 
36(-1)->1 2 4 5 6 13 14 15 16 19 20 23 27 29 33 40 
38(-1)->1 2 3 5 9 11 14 17 18 21 26 27 29 32 33 39 
10(-1)->1 2 3 4 5 6 7 8 12 14 17 18 22 25 35 
21(-1)->1 2 3 4 5 6 7 9 17 19 20 32 34 37 38 
25(-1)->1 2 3 4 5 9 10 15 16 17 20 26 29 33 34 
31(-1)->1 2 4 5 7 8 12 14 15 18 20 22 27 35 40 
35(-1)->1 2 5 6 7 9 10 14 17 18 19 24 26 29 31 
11(-1)->1 2 3 8 12 19 20 24 28 29 32 34 38 39 
28(-1)->1 2 3 6 7 11 12 16 18 19 24 34 39 40 
16(-1)->1 2 3 4 8 13 15 20 25 28 34 36 39 
26(-1)->1 2 3 4 6 7 8 18 25 32 35 38 
27(-1)->1 2 3 4 12 20 29 31 33 36 37 38 
22(-1)->1 2 3 6 8 9 10 12 23 31 33 
37(-1)->1 2 3 5 6 9 19 21 23 27 30 
13(-1)->1 2 4 5 6 16 19 24 36 39 
40(-1)->1 4 19 28 31 32 33 36 
-------
BLAH
START TIME: 1433711258
Cq = 9 and is assigned to x20
BACKTRACKED TO DEPTH: 19
0 1 2 3 4 5 6 7 8 
1(0)->2 3 4 5 6 7 8 9 10 11 12 13 14 15 16 17 18 19 20 21 22 23 24 25 26 27 28 29 30 31 32 33 34 35 36 37 38 39 40 
2(1)->1 3 4 5 6 7 8 9 10 11 12 13 14 15 16 17 18 19 20 21 22 23 24 25 26 27 28 29 30 31 32 33 34 35 36 37 38 39 
3(2)->1 2 4 5 6 7 8 9 10 11 12 14 15 16 17 18 19 20 21 22 23 24 25 26 27 28 29 30 32 33 34 37 38 39 
4(3)->1 2 3 5 6 7 9 10 12 13 14 16 17 18 19 20 21 24 25 26 27 29 31 36 39 40 
5(5)->1 2 3 4 6 7 8 9 10 13 14 18 19 21 25 29 30 31 32 35 36 37 38 39 
6(4)->1 2 3 4 5 7 9 10 13 17 18 20 21 22 26 28 29 30 32 33 34 35 36 37 39 
7(7)->1 2 3 4 5 6 9 10 14 18 21 26 28 31 32 34 35 39 
8(3)->1 2 3 5 10 11 12 15 16 17 18 22 23 24 26 30 31 
9(6)->1 2 3 4 5 6 7 12 15 19 21 22 23 25 29 30 33 35 37 38 
10(9)->1 2 3 4 5 6 7 8 12 14 17 18 22 25 35 
11(5)->1 2 3 8 12 19 20 24 28 29 32 34 38 39 
12(4)->1 2 3 4 8 9 10 11 14 15 18 22 23 24 27 28 29 31 33 39 
13(7)->1 2 4 5 6 16 19 24 36 39 
14(8)->1 2 3 4 5 7 10 12 18 30 31 33 35 36 38 39 
15(5)->1 2 3 8 9 12 16 18 20 24 25 29 30 31 34 36 
16(9)->1 2 3 4 8 13 15 20 25 28 34 36 39 
17(5)->1 2 3 4 6 8 10 18 19 21 23 24 25 29 33 34 35 38 
18(6)->1 2 3 4 5 6 7 8 10 12 14 15 17 23 24 26 28 29 30 31 32 33 35 38 
19(4)->1 2 3 4 5 9 11 13 17 21 28 29 30 35 36 37 40 
20(7)->1 2 3 4 6 11 15 16 21 23 25 27 31 33 36 39 
21(9)->1 2 3 4 5 6 7 9 17 19 20 32 34 37 38 
22(5)->1 2 3 6 8 9 10 12 23 31 33 
23(8)->1 2 3 8 9 12 17 18 20 22 24 29 30 33 36 37 
24(9)->1 2 3 4 8 11 12 13 15 17 18 23 28 29 32 35 
25(4)->1 2 3 4 5 9 10 15 16 17 20 26 29 33 34 
26(5)->1 2 3 4 6 7 8 18 25 32 35 38 
27(5)->1 2 3 4 12 20 29 31 33 36 37 38 
28(3)->1 2 3 6 7 11 12 16 18 19 24 34 39 40 
29(7)->1 2 3 4 5 6 9 11 12 15 17 18 19 23 24 25 27 30 32 34 35 36 38 39 
30(9)->1 2 3 5 6 8 9 14 15 18 19 23 29 32 34 37 
31(2)->1 2 4 5 7 8 12 14 15 18 20 22 27 35 40 
32(8)->1 2 3 5 6 7 11 18 21 24 26 29 30 33 38 40 
33(3)->1 2 3 6 9 12 14 17 18 20 22 23 25 27 32 34 36 38 40 
34(8)->1 2 3 6 7 11 15 16 17 21 25 28 29 30 33 39 
35(3)->1 2 5 6 7 9 10 14 17 18 19 24 26 29 31 
36(2)->1 2 4 5 6 13 14 15 16 19 20 23 27 29 33 40 
37(3)->1 2 3 5 6 9 19 21 23 27 30 
38(4)->1 2 3 5 9 11 14 17 18 21 26 27 29 32 33 39 
39(6)->1 2 3 4 5 6 7 11 12 13 14 16 20 28 29 34 38 
40(1)->1 4 19 28 31 32 33 36 
COUNT: 7234
COLORS: 10
EDGES: 360
10
7234
