1: 2 3 4 5 6 7 8 9 10 11 12 13 14 15 16 17 18 19 20 21 22 23 24 25 26 27 28 29 30 31 32 33 34 35 36 37 38 39 40
2: 1 3 4 5 6 7 8 9 10 11 12 13 14 15 16 17 18 19 20 21 22 23 24 25 26 27 28 29 30 31 32 33 34 35 36 37 38 39
3: 1 2 4 5 6 7 8 9 10 11 12 15 18 19 20 21 22 25 26 28 29 30 32 33 35 37 38 39
4: 1 2 3 5 6 8 9 10 11 12 13 14 16 18 19 22 24 25 26 28 31 32 33 36 37 38
5: 1 2 3 36 37 6 39 40 10 15 17 21 22 4 25 26 28 30
6: 32 1 2 3 36 5 38 12 25 18 19 20 23 4 26 30
7: 32 1 2 3 8 9 12 19 20 22 31
8: 32 19 2 11 1 4 39 9 10 7 15 18 3 20 21 23 25 28 29 30 31
9: 1 2 35 36 37 7 40 11 14 8 16 17 3 22 23 4 26 27 31
10: 1 34 3 4 5 38 39 8 2 13 15 40 35 20 25 26 29 30
11: 32 1 2 3 4 37 33 8 9 14 15 17 18 19
12: 1 2 3 36 6 7 15 19 4 24 25 28 29 30
13: 32 33 34 36 37 1 40 10 2 16 20 24 4 28
14: 32 1 2 35 4 9 11 19 22 27 31
15: 1 2 3 36 5 33 8 10 11 12 18 19 20 25 28 30
16: 32 1 34 36 40 9 2 13 17 4 22 23 25 30
17: 32 33 34 5 38 1 9 11 2 16 22 24 26 28 30 31
18: 1 34 3 36 37 6 8 11 2 15 20 21 22 23 4 26 27
19: 1 2 3 4 37 6 7 40 11 12 14 15 8 23 25 38 29 31
20: 1 2 3 38 6 39 8 10 7 13 15 18 23 26 27 28 30
21: 1 2 3 5 38 39 8 18 22 23 24 26 28 29 31
22: 32 1 2 3 4 5 7 9 14 16 17 18 21 23 24 26
23: 1 34 35 6 39 8 9 2 16 18 19 20 21 22 26 27 28 29 31
24: 1 2 4 12 13 17 21 22 25 26 28 30 31
25: 1 2 3 4 5 6 8 10 12 15 16 19 24 26 27 30 31 32 33 35 36 37
26: 1 2 3 4 5 6 9 10 17 18 20 21 22 23 24 25 27 29 32 35 37 40
27: 1 2 37 39 40 9 14 18 20 23 25 26
28: 1 2 34 4 37 8 12 13 15 17 3 20 21 23 24 5 29 31
29: 19 33 34 35 1 38 39 8 10 12 2 3 21 23 26 28 30 31
30: 32 33 34 3 36 37 38 1 8 10 12 2 15 16 17 20 24 25 6 29 5
31: 1 2 4 39 8 9 7 14 17 19 21 23 24 25 28 29
32: 1 2 3 36 37 6 7 8 11 13 14 16 17 22 4 25 26 30
33: 1 2 3 4 37 39 40 11 13 15 17 25 36 29 30
34: 1 2 37 39 40 10 13 16 17 18 23 28 29 30
35: 1 2 3 37 9 10 14 23 25 26 29
36: 32 33 2 4 5 6 1 40 9 12 13 15 16 18 25 38 30 37
37: 1 2 3 4 5 9 11 13 18 19 25 26 27 28 30 32 33 34 35 36 38 39
38: 1 2 3 4 37 6 40 10 17 19 20 21 36 29 30
39: 33 34 3 37 1 40 10 2 8 20 21 23 27 5 29 31
40: 33 34 36 5 38 39 9 10 13 16 19 1 26 27
-------
1(-1)->2 3 4 5 6 7 8 9 10 11 12 13 14 15 16 17 18 19 20 21 22 23 24 25 26 27 28 29 30 31 32 33 34 35 36 37 38 39 40 
2(-1)->1 3 4 5 6 7 8 9 10 11 12 13 14 15 16 17 18 19 20 21 22 23 24 25 26 27 28 29 30 31 32 33 34 35 36 37 38 39 
3(-1)->1 2 4 5 6 7 8 9 10 11 12 15 18 19 20 21 22 25 26 28 29 30 32 33 35 37 38 39 
4(-1)->1 2 3 5 6 8 9 10 11 12 13 14 16 18 19 22 24 25 26 28 31 32 33 36 37 38 
5(-1)->1 2 3 4 6 10 15 17 21 22 25 26 28 30 36 37 39 40 
6(-1)->1 2 3 4 5 12 18 19 20 23 25 26 30 32 36 38 
7(-1)->1 2 3 8 9 12 19 20 22 31 32 
8(-1)->1 2 3 4 7 9 10 11 15 18 19 20 21 23 25 28 29 30 31 32 39 
9(-1)->1 2 3 4 7 8 11 14 16 17 22 23 26 27 31 35 36 37 40 
10(-1)->1 2 3 4 5 8 13 15 20 25 26 29 30 34 35 38 39 40 
11(-1)->1 2 3 4 8 9 14 15 17 18 19 32 33 37 
12(-1)->1 2 3 4 6 7 15 19 24 25 28 29 30 36 
13(-1)->1 2 4 10 16 20 24 28 32 33 34 36 37 40 
14(-1)->1 2 4 9 11 19 22 27 31 32 35 
15(-1)->1 2 3 5 8 10 11 12 18 19 20 25 28 30 33 36 
16(-1)->1 2 4 9 13 17 22 23 25 30 32 34 36 40 
17(-1)->1 2 5 9 11 16 22 24 26 28 30 31 32 33 34 38 
18(-1)->1 2 3 4 6 8 11 15 20 21 22 23 26 27 34 36 37 
19(-1)->1 2 3 4 6 7 8 11 12 14 15 23 25 29 31 37 38 40 
20(-1)->1 2 3 6 7 8 10 13 15 18 23 26 27 28 30 38 39 
21(-1)->1 2 3 5 8 18 22 23 24 26 28 29 31 38 39 
22(-1)->1 2 3 4 5 7 9 14 16 17 18 21 23 24 26 32 
23(-1)->1 2 6 8 9 16 18 19 20 21 22 26 27 28 29 31 34 35 39 
24(-1)->1 2 4 12 13 17 21 22 25 26 28 30 31 
25(-1)->1 2 3 4 5 6 8 10 12 15 16 19 24 26 27 30 31 32 33 35 36 37 
26(-1)->1 2 3 4 5 6 9 10 17 18 20 21 22 23 24 25 27 29 32 35 37 40 
27(-1)->1 2 9 14 18 20 23 25 26 37 39 40 
28(-1)->1 2 3 4 5 8 12 13 15 17 20 21 23 24 29 31 34 37 
29(-1)->1 2 3 8 10 12 19 21 23 26 28 30 31 33 34 35 38 39 
30(-1)->1 2 3 5 6 8 10 12 15 16 17 20 24 25 29 32 33 34 36 37 38 
31(-1)->1 2 4 7 8 9 14 17 19 21 23 24 25 28 29 39 
32(-1)->1 2 3 4 6 7 8 11 13 14 16 17 22 25 26 30 36 37 
33(-1)->1 2 3 4 11 13 15 17 25 29 30 36 37 39 40 
34(-1)->1 2 10 13 16 17 18 23 28 29 30 37 39 40 
35(-1)->1 2 3 9 10 14 23 25 26 29 37 
36(-1)->1 2 4 5 6 9 12 13 15 16 18 25 30 32 33 37 38 40 
37(-1)->1 2 3 4 5 9 11 13 18 19 25 26 27 28 30 32 33 34 35 36 38 39 
38(-1)->1 2 3 4 6 10 17 19 20 21 29 30 36 37 40 
39(-1)->1 2 3 5 8 10 20 21 23 27 29 31 33 34 37 40 
40(-1)->1 5 9 10 13 16 19 26 27 33 34 36 38 39 
-------
Node 1 maps to position 0
Node 2 maps to position 1
Node 3 maps to position 2
Node 4 maps to position 3
Node 25 maps to position 4
Node 26 maps to position 5
Node 37 maps to position 6
Node 8 maps to position 7
Node 30 maps to position 8
Node 9 maps to position 9
Node 23 maps to position 10
Node 5 maps to position 11
Node 10 maps to position 12
Node 19 maps to position 13
Node 28 maps to position 14
Node 29 maps to position 15
Node 32 maps to position 16
Node 36 maps to position 17
Node 18 maps to position 18
Node 20 maps to position 19
Node 6 maps to position 20
Node 15 maps to position 21
Node 17 maps to position 22
Node 22 maps to position 23
Node 31 maps to position 24
Node 39 maps to position 25
Node 21 maps to position 26
Node 33 maps to position 27
Node 38 maps to position 28
Node 11 maps to position 29
Node 12 maps to position 30
Node 13 maps to position 31
Node 16 maps to position 32
Node 34 maps to position 33
Node 40 maps to position 34
Node 24 maps to position 35
Node 27 maps to position 36
Node 7 maps to position 37
Node 14 maps to position 38
Node 35 maps to position 39
1(-1)->2 3 4 5 6 7 8 9 10 11 12 13 14 15 16 17 18 19 20 21 22 23 24 25 26 27 28 29 30 31 32 33 34 35 36 37 38 39 40 
2(-1)->1 3 4 5 6 7 8 9 10 11 12 13 14 15 16 17 18 19 20 21 22 23 24 25 26 27 28 29 30 31 32 33 34 35 36 37 38 39 
3(-1)->1 2 4 5 6 7 8 9 10 11 12 15 18 19 20 21 22 25 26 28 29 30 32 33 35 37 38 39 
4(-1)->1 2 3 5 6 8 9 10 11 12 13 14 16 18 19 22 24 25 26 28 31 32 33 36 37 38 
25(-1)->1 2 3 4 5 6 8 10 12 15 16 19 24 26 27 30 31 32 33 35 36 37 
26(-1)->1 2 3 4 5 6 9 10 17 18 20 21 22 23 24 25 27 29 32 35 37 40 
37(-1)->1 2 3 4 5 9 11 13 18 19 25 26 27 28 30 32 33 34 35 36 38 39 
8(-1)->1 2 3 4 7 9 10 11 15 18 19 20 21 23 25 28 29 30 31 32 39 
30(-1)->1 2 3 5 6 8 10 12 15 16 17 20 24 25 29 32 33 34 36 37 38 
9(-1)->1 2 3 4 7 8 11 14 16 17 22 23 26 27 31 35 36 37 40 
23(-1)->1 2 6 8 9 16 18 19 20 21 22 26 27 28 29 31 34 35 39 
5(-1)->1 2 3 4 6 10 15 17 21 22 25 26 28 30 36 37 39 40 
10(-1)->1 2 3 4 5 8 13 15 20 25 26 29 30 34 35 38 39 40 
19(-1)->1 2 3 4 6 7 8 11 12 14 15 23 25 29 31 37 38 40 
28(-1)->1 2 3 4 5 8 12 13 15 17 20 21 23 24 29 31 34 37 
29(-1)->1 2 3 8 10 12 19 21 23 26 28 30 31 33 34 35 38 39 
32(-1)->1 2 3 4 6 7 8 11 13 14 16 17 22 25 26 30 36 37 
36(-1)->1 2 4 5 6 9 12 13 15 16 18 25 30 32 33 37 38 40 
18(-1)->1 2 3 4 6 8 11 15 20 21 22 23 26 27 34 36 37 
20(-1)->1 2 3 6 7 8 10 13 15 18 23 26 27 28 30 38 39 
6(-1)->1 2 3 4 5 12 18 19 20 23 25 26 30 32 36 38 
15(-1)->1 2 3 5 8 10 11 12 18 19 20 25 28 30 33 36 
17(-1)->1 2 5 9 11 16 22 24 26 28 30 31 32 33 34 38 
22(-1)->1 2 3 4 5 7 9 14 16 17 18 21 23 24 26 32 
31(-1)->1 2 4 7 8 9 14 17 19 21 23 24 25 28 29 39 
39(-1)->1 2 3 5 8 10 20 21 23 27 29 31 33 34 37 40 
21(-1)->1 2 3 5 8 18 22 23 24 26 28 29 31 38 39 
33(-1)->1 2 3 4 11 13 15 17 25 29 30 36 37 39 40 
38(-1)->1 2 3 4 6 10 17 19 20 21 29 30 36 37 40 
11(-1)->1 2 3 4 8 9 14 15 17 18 19 32 33 37 
12(-1)->1 2 3 4 6 7 15 19 24 25 28 29 30 36 
13(-1)->1 2 4 10 16 20 24 28 32 33 34 36 37 40 
16(-1)->1 2 4 9 13 17 22 23 25 30 32 34 36 40 
34(-1)->1 2 10 13 16 17 18 23 28 29 30 37 39 40 
40(-1)->1 5 9 10 13 16 19 26 27 33 34 36 38 39 
24(-1)->1 2 4 12 13 17 21 22 25 26 28 30 31 
27(-1)->1 2 9 14 18 20 23 25 26 37 39 40 
7(-1)->1 2 3 8 9 12 19 20 22 31 32 
14(-1)->1 2 4 9 11 19 22 27 31 32 35 
35(-1)->1 2 3 9 10 14 23 25 26 29 37 
-------
BLAH
START TIME: 1433711258
Cq = 9 and is assigned to x26
BACKTRACKED TO DEPTH: 25
0 1 2 3 4 5 6 7 8 
Cq = 8 and is assigned to x12
BACKTRACKED TO DEPTH: 11
0 1 2 3 4 5 6 7 
1(0)->2 3 4 5 6 7 8 9 10 11 12 13 14 15 16 17 18 19 20 21 22 23 24 25 26 27 28 29 30 31 32 33 34 35 36 37 38 39 40 
2(1)->1 3 4 5 6 7 8 9 10 11 12 13 14 15 16 17 18 19 20 21 22 23 24 25 26 27 28 29 30 31 32 33 34 35 36 37 38 39 
3(2)->1 2 4 5 6 7 8 9 10 11 12 15 18 19 20 21 22 25 26 28 29 30 32 33 35 37 38 39 
4(3)->1 2 3 5 6 8 9 10 11 12 13 14 16 18 19 22 24 25 26 28 31 32 33 36 37 38 
5(7)->1 2 3 4 6 10 15 17 21 22 25 26 28 30 36 37 39 40 
6(6)->1 2 3 4 5 12 18 19 20 23 25 26 30 32 36 38 
7(3)->1 2 3 8 9 12 19 20 22 31 32 
8(5)->1 2 3 4 7 9 10 11 15 18 19 20 21 23 25 28 29 30 31 32 39 
9(4)->1 2 3 4 7 8 11 14 16 17 22 23 26 27 31 35 36 37 40 
10(8)->1 2 3 4 5 8 13 15 20 25 26 29 30 34 35 38 39 40 
11(8)->1 2 3 4 8 9 14 15 17 18 19 32 33 37 
12(5)->1 2 3 4 6 7 15 19 24 25 28 29 30 36 
13(5)->1 2 4 10 16 20 24 28 32 33 34 36 37 40 
14(2)->1 2 4 9 11 19 22 27 31 32 35 
15(6)->1 2 3 5 8 10 11 12 18 19 20 25 28 30 33 36 
16(8)->1 2 4 9 13 17 22 23 25 30 32 34 36 40 
17(2)->1 2 5 9 11 16 22 24 26 28 30 31 32 33 34 38 
18(4)->1 2 3 4 6 8 11 15 20 21 22 23 26 27 34 36 37 
19(7)->1 2 3 4 6 7 8 11 12 14 15 23 25 29 31 37 38 40 
20(7)->1 2 3 6 7 8 10 13 15 18 23 26 27 28 30 38 39 
21(3)->1 2 3 5 8 18 22 23 24 26 28 29 31 38 39 
22(6)->1 2 3 4 5 7 9 14 16 17 18 21 23 24 26 32 
23(2)->1 2 6 8 9 16 18 19 20 21 22 26 27 28 29 31 34 35 39 
24(7)->1 2 4 12 13 17 21 22 25 26 28 30 31 
25(4)->1 2 3 4 5 6 8 10 12 15 16 19 24 26 27 30 31 32 33 35 36 37 
26(5)->1 2 3 4 5 6 9 10 17 18 20 21 22 23 24 25 27 29 32 35 37 40 
27(3)->1 2 9 14 18 20 23 25 26 37 39 40 
28(4)->1 2 3 4 5 8 12 13 15 17 20 21 23 24 29 31 34 37 
29(6)->1 2 3 8 10 12 19 21 23 26 28 30 31 33 34 35 38 39 
30(3)->1 2 3 5 6 8 10 12 15 16 17 20 24 25 29 32 33 34 36 37 38 
31(8)->1 2 4 7 8 9 14 17 19 21 23 24 25 28 29 39 
32(7)->1 2 3 4 6 7 8 11 13 14 16 17 22 25 26 30 36 37 
33(7)->1 2 3 4 11 13 15 17 25 29 30 36 37 39 40 
34(7)->1 2 10 13 16 17 18 23 28 29 30 37 39 40 
35(3)->1 2 3 9 10 14 23 25 26 29 37 
36(2)->1 2 4 5 6 9 12 13 15 16 18 25 30 32 33 37 38 40 
37(6)->1 2 3 4 5 9 11 13 18 19 25 26 27 28 30 32 33 34 35 36 38 39 
38(4)->1 2 3 4 6 10 17 19 20 21 29 30 36 37 40 
39(4)->1 2 3 5 8 10 20 21 23 27 29 31 33 34 37 40 
40(1)->1 5 9 10 13 16 19 26 27 33 34 36 38 39 
COUNT: 659
COLORS: 9
EDGES: 360
9
659
