1: 2 3 4 5 6 7 8 9 10 11 12 13 14 15 16 17 18 19 20 21 22 23 24 25 26 27 28 29 30 31 32 33 34 35 36 37 38 39 40 41 42 43 44 45 46 47 48 49
2: 1 3 4 5 6 7 8 9 10 11 12 13 14 15 16 17 18 19 20 21 22 23 24 25 26 27 28 29 30 31 32 33 34 35 36 37 38 39 40 41 42 43 44 45 46 47 48 49 50
3: 1 2 4 5 6 7 8 9 10 11 12 13 14 15 16 17 18 19 20 21 22 23 24 25 26 27 28 29 30 31 32 33 34 35 36 37 38 39 40 41 42 43 44 45 46 47 48 49
4: 1 2 3 5 6 7 8 9 10 11 12 13 14 15 16 17 18 19 20 21 22 23 24 25 26 27 28 29 30 31 32 33 34 35 36 37 38 39 40 41 42 43 44 45 46 47 48 49 50
5: 1 2 3 4 6 7 8 9 10 11 12 13 14 15 16 17 18 19 20 21 22 23 24 25 26 27 28 29 30 31 32 33 34 35 36 37 38 39 40 41 42 43 44 45 46 47 48 49 50
6: 1 2 3 4 5 7 8 9 10 11 12 13 14 15 16 17 18 19 20 21 22 23 24 25 26 27 28 29 30 31 32 33 34 35 36 37 39 40 41 43 44 45 46 47 48 49
7: 1 2 3 4 5 6 8 9 10 11 12 13 14 15 16 17 18 19 20 21 22 23 24 25 26 27 28 29 30 31 32 33 34 35 36 37 38 39 40 41 43 44 45 46 47 49 50
8: 1 2 3 4 5 6 7 9 10 11 12 13 14 15 16 17 18 19 20 21 22 24 28 30 31 32 33 35 36 37 38 39 40 41 43 44 45 46 47 48 49
9: 1 2 3 4 5 6 7 8 10 11 12 13 14 15 16 18 20 21 24 25 27 28 29 31 32 34 35 37 38 39 40 41 44 45 46 47 48 49 50
10: 1 2 3 4 5 6 7 8 9 11 12 13 14 15 16 17 22 24 25 26 28 29 31 32 36 37 39 40 41 42 43 44 45 46 48 49
11: 1 2 3 4 5 6 7 8 9 10 12 13 14 15 16 17 19 20 22 24 28 29 30 31 35 37 42 44 45 49
12: 1 2 3 4 5 6 7 8 9 10 11 13 14 15 16 17 19 23 24 28 29 31 36 39 40 42 44 45 46 49 50
13: 1 2 3 4 5 6 7 8 9 10 11 12 14 15 16 19 23 29 31 32 35 36 40 42 43 44 49
14: 1 2 3 4 5 6 7 8 9 10 11 12 13 15 16 18 19 22 24 26 27 28 29 34 36 37 39 49 50
15: 1 2 3 4 5 6 7 8 9 10 11 12 13 14 21 22 25 26 33 36 40 41 42 44
16: 1 2 3 4 5 6 7 8 9 10 11 12 13 14 21 23 24 26 27 31 32 33 35 37 41 42 43 44 48
17: 1 2 3 4 5 6 7 8 10 11 12 18 20 21 23 26 27 28 29 31 32 33 35 40 42 47
18: 1 2 3 4 5 6 7 8 9 14 17 20 24 26 28 32 34 36 38 40 41 42 44 45 48 50
19: 1 2 3 4 5 6 7 8 11 12 13 14 20 21 24 25 29 32 33 34 38 39 43 44 45 47 50
20: 1 2 3 4 5 6 7 8 9 11 17 18 19 22 24 31 32 33 34 38 39 41 46 47 48 49
21: 1 2 3 4 5 6 7 8 9 15 16 17 19 32 34 36 40 42 43 48 49 50
22: 1 2 3 4 5 6 7 8 10 11 14 15 20 30 33 35 36 37 38 39 43 46 47 48 50
23: 1 2 3 4 5 6 7 12 13 16 17 24 26 27 28 29 30 31 34 35 36 37 39 41 47 50
24: 1 2 3 4 5 6 7 8 9 10 11 12 14 16 18 19 20 23 27 30 32 33 35 38 41 42 44 45 49
25: 1 2 3 4 5 6 7 9 10 15 19 26 27 31 32 34 39 41 43 45 47 48
26: 1 2 3 4 5 6 7 10 14 15 16 17 18 23 25 27 29 38 39 42 43 45 46 47 48 49
27: 1 2 3 4 5 6 7 9 14 16 17 23 24 25 26 30 31 34 35 38 45 47 48 49
28: 1 2 3 4 5 6 7 8 9 10 11 12 14 17 18 23 29 30 31 33 34 36 37 38 41 44 45 46 49 50
29: 1 2 3 4 5 6 7 9 10 11 12 13 14 17 19 23 26 28 30 31 33 34 43 44 45 47 50
30: 1 2 3 4 5 6 7 8 11 22 23 24 27 28 29 31 32 34 37 39 43 46 49
31: 1 2 3 4 5 6 7 8 9 10 11 12 13 16 17 20 23 25 27 28 29 30 41 43 45 48 49 50
32: 1 2 3 4 5 6 7 8 9 10 13 16 17 18 19 20 21 24 25 30 33 36 37 39 46 47
33: 1 2 3 4 5 6 7 8 15 16 17 19 20 22 24 28 29 32 36 37 40 42 45 50
34: 1 2 3 4 5 6 7 9 14 18 19 20 21 23 25 27 28 29 30 36 37 38 39 40 44 45
35: 1 2 3 4 5 6 7 8 9 11 13 16 17 22 23 24 27 36 37 39 42 43 44 45 47 48 49
36: 1 2 3 4 5 6 7 8 10 12 13 14 15 18 21 22 23 28 32 33 34 35 39 42 43 44 45 47 48
37: 1 2 3 4 5 6 7 8 9 10 11 14 16 22 23 28 30 32 33 34 35 39 45 46 50
38: 1 2 3 4 5 7 8 9 18 19 20 22 24 26 27 28 34 39 41 42 46 49
39: 1 2 3 4 5 6 7 8 9 10 12 14 19 20 22 23 25 26 30 32 34 35 36 37 38 40 43 45 46 48
40: 1 2 3 4 5 6 7 8 9 10 12 13 15 17 18 21 33 34 39 43 44 47 49
41: 1 2 3 4 5 6 7 8 9 10 15 16 18 20 23 24 25 28 31 38 46 47 48 49
42: 1 2 3 4 5 10 11 12 13 15 16 17 18 21 24 26 33 35 36 38 43 46 49 50
43: 1 2 3 4 5 6 7 8 10 13 16 19 21 22 25 26 29 30 31 35 36 39 40 42 48 50
44: 1 2 3 4 5 6 7 8 9 10 11 12 13 15 16 18 19 24 28 29 34 35 36 40 45 46 48
45: 1 2 3 4 5 6 7 8 9 10 11 12 18 19 24 25 26 27 28 29 31 33 34 35 36 37 39 44 47
46: 1 2 3 4 5 6 7 8 9 10 12 20 22 26 28 30 32 37 38 39 41 42 44 47 49
47: 1 2 3 4 5 6 7 8 9 17 19 20 22 23 25 26 27 29 32 35 36 40 41 45 46 48 49
48: 1 2 3 4 5 6 8 9 10 16 18 20 21 22 25 26 27 31 35 36 39 41 43 44 47 49
49: 1 2 3 4 5 6 7 8 9 10 11 12 13 14 20 21 24 26 27 28 30 31 35 38 40 41 42 46 47 48 50
50: 19 33 2 4 37 7 9 42 43 12 14 49 18 28 21 22 23 5 29 31
-------
1(-1)->2 3 4 5 6 7 8 9 10 11 12 13 14 15 16 17 18 19 20 21 22 23 24 25 26 27 28 29 30 31 32 33 34 35 36 37 38 39 40 41 42 43 44 45 46 47 48 49 
2(-1)->1 3 4 5 6 7 8 9 10 11 12 13 14 15 16 17 18 19 20 21 22 23 24 25 26 27 28 29 30 31 32 33 34 35 36 37 38 39 40 41 42 43 44 45 46 47 48 49 50 
3(-1)->1 2 4 5 6 7 8 9 10 11 12 13 14 15 16 17 18 19 20 21 22 23 24 25 26 27 28 29 30 31 32 33 34 35 36 37 38 39 40 41 42 43 44 45 46 47 48 49 
4(-1)->1 2 3 5 6 7 8 9 10 11 12 13 14 15 16 17 18 19 20 21 22 23 24 25 26 27 28 29 30 31 32 33 34 35 36 37 38 39 40 41 42 43 44 45 46 47 48 49 50 
5(-1)->1 2 3 4 6 7 8 9 10 11 12 13 14 15 16 17 18 19 20 21 22 23 24 25 26 27 28 29 30 31 32 33 34 35 36 37 38 39 40 41 42 43 44 45 46 47 48 49 50 
6(-1)->1 2 3 4 5 7 8 9 10 11 12 13 14 15 16 17 18 19 20 21 22 23 24 25 26 27 28 29 30 31 32 33 34 35 36 37 39 40 41 43 44 45 46 47 48 49 
7(-1)->1 2 3 4 5 6 8 9 10 11 12 13 14 15 16 17 18 19 20 21 22 23 24 25 26 27 28 29 30 31 32 33 34 35 36 37 38 39 40 41 43 44 45 46 47 49 50 
8(-1)->1 2 3 4 5 6 7 9 10 11 12 13 14 15 16 17 18 19 20 21 22 24 28 30 31 32 33 35 36 37 38 39 40 41 43 44 45 46 47 48 49 
9(-1)->1 2 3 4 5 6 7 8 10 11 12 13 14 15 16 18 20 21 24 25 27 28 29 31 32 34 35 37 38 39 40 41 44 45 46 47 48 49 50 
10(-1)->1 2 3 4 5 6 7 8 9 11 12 13 14 15 16 17 22 24 25 26 28 29 31 32 36 37 39 40 41 42 43 44 45 46 48 49 
11(-1)->1 2 3 4 5 6 7 8 9 10 12 13 14 15 16 17 19 20 22 24 28 29 30 31 35 37 42 44 45 49 
12(-1)->1 2 3 4 5 6 7 8 9 10 11 13 14 15 16 17 19 23 24 28 29 31 36 39 40 42 44 45 46 49 50 
13(-1)->1 2 3 4 5 6 7 8 9 10 11 12 14 15 16 19 23 29 31 32 35 36 40 42 43 44 49 
14(-1)->1 2 3 4 5 6 7 8 9 10 11 12 13 15 16 18 19 22 24 26 27 28 29 34 36 37 39 49 50 
15(-1)->1 2 3 4 5 6 7 8 9 10 11 12 13 14 21 22 25 26 33 36 40 41 42 44 
16(-1)->1 2 3 4 5 6 7 8 9 10 11 12 13 14 21 23 24 26 27 31 32 33 35 37 41 42 43 44 48 
17(-1)->1 2 3 4 5 6 7 8 10 11 12 18 20 21 23 26 27 28 29 31 32 33 35 40 42 47 
18(-1)->1 2 3 4 5 6 7 8 9 14 17 20 24 26 28 32 34 36 38 40 41 42 44 45 48 50 
19(-1)->1 2 3 4 5 6 7 8 11 12 13 14 20 21 24 25 29 32 33 34 38 39 43 44 45 47 50 
20(-1)->1 2 3 4 5 6 7 8 9 11 17 18 19 22 24 31 32 33 34 38 39 41 46 47 48 49 
21(-1)->1 2 3 4 5 6 7 8 9 15 16 17 19 32 34 36 40 42 43 48 49 50 
22(-1)->1 2 3 4 5 6 7 8 10 11 14 15 20 30 33 35 36 37 38 39 43 46 47 48 50 
23(-1)->1 2 3 4 5 6 7 12 13 16 17 24 26 27 28 29 30 31 34 35 36 37 39 41 47 50 
24(-1)->1 2 3 4 5 6 7 8 9 10 11 12 14 16 18 19 20 23 27 30 32 33 35 38 41 42 44 45 49 
25(-1)->1 2 3 4 5 6 7 9 10 15 19 26 27 31 32 34 39 41 43 45 47 48 
26(-1)->1 2 3 4 5 6 7 10 14 15 16 17 18 23 25 27 29 38 39 42 43 45 46 47 48 49 
27(-1)->1 2 3 4 5 6 7 9 14 16 17 23 24 25 26 30 31 34 35 38 45 47 48 49 
28(-1)->1 2 3 4 5 6 7 8 9 10 11 12 14 17 18 23 29 30 31 33 34 36 37 38 41 44 45 46 49 50 
29(-1)->1 2 3 4 5 6 7 9 10 11 12 13 14 17 19 23 26 28 30 31 33 34 43 44 45 47 50 
30(-1)->1 2 3 4 5 6 7 8 11 22 23 24 27 28 29 31 32 34 37 39 43 46 49 
31(-1)->1 2 3 4 5 6 7 8 9 10 11 12 13 16 17 20 23 25 27 28 29 30 41 43 45 48 49 50 
32(-1)->1 2 3 4 5 6 7 8 9 10 13 16 17 18 19 20 21 24 25 30 33 36 37 39 46 47 
33(-1)->1 2 3 4 5 6 7 8 15 16 17 19 20 22 24 28 29 32 36 37 40 42 45 50 
34(-1)->1 2 3 4 5 6 7 9 14 18 19 20 21 23 25 27 28 29 30 36 37 38 39 40 44 45 
35(-1)->1 2 3 4 5 6 7 8 9 11 13 16 17 22 23 24 27 36 37 39 42 43 44 45 47 48 49 
36(-1)->1 2 3 4 5 6 7 8 10 12 13 14 15 18 21 22 23 28 32 33 34 35 39 42 43 44 45 47 48 
37(-1)->1 2 3 4 5 6 7 8 9 10 11 14 16 22 23 28 30 32 33 34 35 39 45 46 50 
38(-1)->1 2 3 4 5 7 8 9 18 19 20 22 24 26 27 28 34 39 41 42 46 49 
39(-1)->1 2 3 4 5 6 7 8 9 10 12 14 19 20 22 23 25 26 30 32 34 35 36 37 38 40 43 45 46 48 
40(-1)->1 2 3 4 5 6 7 8 9 10 12 13 15 17 18 21 33 34 39 43 44 47 49 
41(-1)->1 2 3 4 5 6 7 8 9 10 15 16 18 20 23 24 25 28 31 38 46 47 48 49 
42(-1)->1 2 3 4 5 10 11 12 13 15 16 17 18 21 24 26 33 35 36 38 43 46 49 50 
43(-1)->1 2 3 4 5 6 7 8 10 13 16 19 21 22 25 26 29 30 31 35 36 39 40 42 48 50 
44(-1)->1 2 3 4 5 6 7 8 9 10 11 12 13 15 16 18 19 24 28 29 34 35 36 40 45 46 48 
45(-1)->1 2 3 4 5 6 7 8 9 10 11 12 18 19 24 25 26 27 28 29 31 33 34 35 36 37 39 44 47 
46(-1)->1 2 3 4 5 6 7 8 9 10 12 20 22 26 28 30 32 37 38 39 41 42 44 47 49 
47(-1)->1 2 3 4 5 6 7 8 9 17 19 20 22 23 25 26 27 29 32 35 36 40 41 45 46 48 49 
48(-1)->1 2 3 4 5 6 8 9 10 16 18 20 21 22 25 26 27 31 35 36 39 41 43 44 47 49 
49(-1)->1 2 3 4 5 6 7 8 9 10 11 12 13 14 20 21 24 26 27 28 30 31 35 38 40 41 42 46 47 48 50 
50(-1)->2 4 5 7 9 12 14 18 19 21 22 23 28 29 31 33 37 42 43 49 
-------
Node 2 maps to position 0
Node 4 maps to position 1
Node 5 maps to position 2
Node 1 maps to position 3
Node 3 maps to position 4
Node 7 maps to position 5
Node 6 maps to position 6
Node 8 maps to position 7
Node 9 maps to position 8
Node 10 maps to position 9
Node 12 maps to position 10
Node 49 maps to position 11
Node 11 maps to position 12
Node 28 maps to position 13
Node 39 maps to position 14
Node 14 maps to position 15
Node 16 maps to position 16
Node 24 maps to position 17
Node 36 maps to position 18
Node 45 maps to position 19
Node 31 maps to position 20
Node 13 maps to position 21
Node 19 maps to position 22
Node 29 maps to position 23
Node 35 maps to position 24
Node 44 maps to position 25
Node 47 maps to position 26
Node 17 maps to position 27
Node 18 maps to position 28
Node 20 maps to position 29
Node 23 maps to position 30
Node 26 maps to position 31
Node 32 maps to position 32
Node 34 maps to position 33
Node 43 maps to position 34
Node 48 maps to position 35
Node 22 maps to position 36
Node 37 maps to position 37
Node 46 maps to position 38
Node 15 maps to position 39
Node 27 maps to position 40
Node 33 maps to position 41
Node 41 maps to position 42
Node 42 maps to position 43
Node 30 maps to position 44
Node 40 maps to position 45
Node 21 maps to position 46
Node 25 maps to position 47
Node 38 maps to position 48
Node 50 maps to position 49
2(-1)->1 3 4 5 6 7 8 9 10 11 12 13 14 15 16 17 18 19 20 21 22 23 24 25 26 27 28 29 30 31 32 33 34 35 36 37 38 39 40 41 42 43 44 45 46 47 48 49 50 
4(-1)->1 2 3 5 6 7 8 9 10 11 12 13 14 15 16 17 18 19 20 21 22 23 24 25 26 27 28 29 30 31 32 33 34 35 36 37 38 39 40 41 42 43 44 45 46 47 48 49 50 
5(-1)->1 2 3 4 6 7 8 9 10 11 12 13 14 15 16 17 18 19 20 21 22 23 24 25 26 27 28 29 30 31 32 33 34 35 36 37 38 39 40 41 42 43 44 45 46 47 48 49 50 
1(-1)->2 3 4 5 6 7 8 9 10 11 12 13 14 15 16 17 18 19 20 21 22 23 24 25 26 27 28 29 30 31 32 33 34 35 36 37 38 39 40 41 42 43 44 45 46 47 48 49 
3(-1)->1 2 4 5 6 7 8 9 10 11 12 13 14 15 16 17 18 19 20 21 22 23 24 25 26 27 28 29 30 31 32 33 34 35 36 37 38 39 40 41 42 43 44 45 46 47 48 49 
7(-1)->1 2 3 4 5 6 8 9 10 11 12 13 14 15 16 17 18 19 20 21 22 23 24 25 26 27 28 29 30 31 32 33 34 35 36 37 38 39 40 41 43 44 45 46 47 49 50 
6(-1)->1 2 3 4 5 7 8 9 10 11 12 13 14 15 16 17 18 19 20 21 22 23 24 25 26 27 28 29 30 31 32 33 34 35 36 37 39 40 41 43 44 45 46 47 48 49 
8(-1)->1 2 3 4 5 6 7 9 10 11 12 13 14 15 16 17 18 19 20 21 22 24 28 30 31 32 33 35 36 37 38 39 40 41 43 44 45 46 47 48 49 
9(-1)->1 2 3 4 5 6 7 8 10 11 12 13 14 15 16 18 20 21 24 25 27 28 29 31 32 34 35 37 38 39 40 41 44 45 46 47 48 49 50 
10(-1)->1 2 3 4 5 6 7 8 9 11 12 13 14 15 16 17 22 24 25 26 28 29 31 32 36 37 39 40 41 42 43 44 45 46 48 49 
12(-1)->1 2 3 4 5 6 7 8 9 10 11 13 14 15 16 17 19 23 24 28 29 31 36 39 40 42 44 45 46 49 50 
49(-1)->1 2 3 4 5 6 7 8 9 10 11 12 13 14 20 21 24 26 27 28 30 31 35 38 40 41 42 46 47 48 50 
11(-1)->1 2 3 4 5 6 7 8 9 10 12 13 14 15 16 17 19 20 22 24 28 29 30 31 35 37 42 44 45 49 
28(-1)->1 2 3 4 5 6 7 8 9 10 11 12 14 17 18 23 29 30 31 33 34 36 37 38 41 44 45 46 49 50 
39(-1)->1 2 3 4 5 6 7 8 9 10 12 14 19 20 22 23 25 26 30 32 34 35 36 37 38 40 43 45 46 48 
14(-1)->1 2 3 4 5 6 7 8 9 10 11 12 13 15 16 18 19 22 24 26 27 28 29 34 36 37 39 49 50 
16(-1)->1 2 3 4 5 6 7 8 9 10 11 12 13 14 21 23 24 26 27 31 32 33 35 37 41 42 43 44 48 
24(-1)->1 2 3 4 5 6 7 8 9 10 11 12 14 16 18 19 20 23 27 30 32 33 35 38 41 42 44 45 49 
36(-1)->1 2 3 4 5 6 7 8 10 12 13 14 15 18 21 22 23 28 32 33 34 35 39 42 43 44 45 47 48 
45(-1)->1 2 3 4 5 6 7 8 9 10 11 12 18 19 24 25 26 27 28 29 31 33 34 35 36 37 39 44 47 
31(-1)->1 2 3 4 5 6 7 8 9 10 11 12 13 16 17 20 23 25 27 28 29 30 41 43 45 48 49 50 
13(-1)->1 2 3 4 5 6 7 8 9 10 11 12 14 15 16 19 23 29 31 32 35 36 40 42 43 44 49 
19(-1)->1 2 3 4 5 6 7 8 11 12 13 14 20 21 24 25 29 32 33 34 38 39 43 44 45 47 50 
29(-1)->1 2 3 4 5 6 7 9 10 11 12 13 14 17 19 23 26 28 30 31 33 34 43 44 45 47 50 
35(-1)->1 2 3 4 5 6 7 8 9 11 13 16 17 22 23 24 27 36 37 39 42 43 44 45 47 48 49 
44(-1)->1 2 3 4 5 6 7 8 9 10 11 12 13 15 16 18 19 24 28 29 34 35 36 40 45 46 48 
47(-1)->1 2 3 4 5 6 7 8 9 17 19 20 22 23 25 26 27 29 32 35 36 40 41 45 46 48 49 
17(-1)->1 2 3 4 5 6 7 8 10 11 12 18 20 21 23 26 27 28 29 31 32 33 35 40 42 47 
18(-1)->1 2 3 4 5 6 7 8 9 14 17 20 24 26 28 32 34 36 38 40 41 42 44 45 48 50 
20(-1)->1 2 3 4 5 6 7 8 9 11 17 18 19 22 24 31 32 33 34 38 39 41 46 47 48 49 
23(-1)->1 2 3 4 5 6 7 12 13 16 17 24 26 27 28 29 30 31 34 35 36 37 39 41 47 50 
26(-1)->1 2 3 4 5 6 7 10 14 15 16 17 18 23 25 27 29 38 39 42 43 45 46 47 48 49 
32(-1)->1 2 3 4 5 6 7 8 9 10 13 16 17 18 19 20 21 24 25 30 33 36 37 39 46 47 
34(-1)->1 2 3 4 5 6 7 9 14 18 19 20 21 23 25 27 28 29 30 36 37 38 39 40 44 45 
43(-1)->1 2 3 4 5 6 7 8 10 13 16 19 21 22 25 26 29 30 31 35 36 39 40 42 48 50 
48(-1)->1 2 3 4 5 6 8 9 10 16 18 20 21 22 25 26 27 31 35 36 39 41 43 44 47 49 
22(-1)->1 2 3 4 5 6 7 8 10 11 14 15 20 30 33 35 36 37 38 39 43 46 47 48 50 
37(-1)->1 2 3 4 5 6 7 8 9 10 11 14 16 22 23 28 30 32 33 34 35 39 45 46 50 
46(-1)->1 2 3 4 5 6 7 8 9 10 12 20 22 26 28 30 32 37 38 39 41 42 44 47 49 
15(-1)->1 2 3 4 5 6 7 8 9 10 11 12 13 14 21 22 25 26 33 36 40 41 42 44 
27(-1)->1 2 3 4 5 6 7 9 14 16 17 23 24 25 26 30 31 34 35 38 45 47 48 49 
33(-1)->1 2 3 4 5 6 7 8 15 16 17 19 20 22 24 28 29 32 36 37 40 42 45 50 
41(-1)->1 2 3 4 5 6 7 8 9 10 15 16 18 20 23 24 25 28 31 38 46 47 48 49 
42(-1)->1 2 3 4 5 10 11 12 13 15 16 17 18 21 24 26 33 35 36 38 43 46 49 50 
30(-1)->1 2 3 4 5 6 7 8 11 22 23 24 27 28 29 31 32 34 37 39 43 46 49 
40(-1)->1 2 3 4 5 6 7 8 9 10 12 13 15 17 18 21 33 34 39 43 44 47 49 
21(-1)->1 2 3 4 5 6 7 8 9 15 16 17 19 32 34 36 40 42 43 48 49 50 
25(-1)->1 2 3 4 5 6 7 9 10 15 19 26 27 31 32 34 39 41 43 45 47 48 
38(-1)->1 2 3 4 5 7 8 9 18 19 20 22 24 26 27 28 34 39 41 42 46 49 
50(-1)->2 4 5 7 9 12 14 18 19 21 22 23 28 29 31 33 37 42 43 49 
-------
BLAH
START TIME: 1433714191
Cq = 17 and is assigned to x42
BACKTRACKED TO DEPTH: 41
0 1 2 3 4 5 6 7 8 9 10 11 12 13 14 15 16 
Cq = 16 and is assigned to x37
BACKTRACKED TO DEPTH: 36
0 1 2 3 4 5 6 7 8 9 10 11 12 13 14 15 
Cq = 15 and is assigned to x20
BACKTRACKED TO DEPTH: 19
0 1 2 3 4 5 6 7 8 9 10 11 12 13 14 
1(3)->2 3 4 5 6 7 8 9 10 11 12 13 14 15 16 17 18 19 20 21 22 23 24 25 26 27 28 29 30 31 32 33 34 35 36 37 38 39 40 41 42 43 44 45 46 47 48 49 
2(0)->1 3 4 5 6 7 8 9 10 11 12 13 14 15 16 17 18 19 20 21 22 23 24 25 26 27 28 29 30 31 32 33 34 35 36 37 38 39 40 41 42 43 44 45 46 47 48 49 50 
3(4)->1 2 4 5 6 7 8 9 10 11 12 13 14 15 16 17 18 19 20 21 22 23 24 25 26 27 28 29 30 31 32 33 34 35 36 37 38 39 40 41 42 43 44 45 46 47 48 49 
4(1)->1 2 3 5 6 7 8 9 10 11 12 13 14 15 16 17 18 19 20 21 22 23 24 25 26 27 28 29 30 31 32 33 34 35 36 37 38 39 40 41 42 43 44 45 46 47 48 49 50 
5(2)->1 2 3 4 6 7 8 9 10 11 12 13 14 15 16 17 18 19 20 21 22 23 24 25 26 27 28 29 30 31 32 33 34 35 36 37 38 39 40 41 42 43 44 45 46 47 48 49 50 
6(6)->1 2 3 4 5 7 8 9 10 11 12 13 14 15 16 17 18 19 20 21 22 23 24 25 26 27 28 29 30 31 32 33 34 35 36 37 39 40 41 43 44 45 46 47 48 49 
7(5)->1 2 3 4 5 6 8 9 10 11 12 13 14 15 16 17 18 19 20 21 22 23 24 25 26 27 28 29 30 31 32 33 34 35 36 37 38 39 40 41 43 44 45 46 47 49 50 
8(7)->1 2 3 4 5 6 7 9 10 11 12 13 14 15 16 17 18 19 20 21 22 24 28 30 31 32 33 35 36 37 38 39 40 41 43 44 45 46 47 48 49 
9(8)->1 2 3 4 5 6 7 8 10 11 12 13 14 15 16 18 20 21 24 25 27 28 29 31 32 34 35 37 38 39 40 41 44 45 46 47 48 49 50 
10(9)->1 2 3 4 5 6 7 8 9 11 12 13 14 15 16 17 22 24 25 26 28 29 31 32 36 37 39 40 41 42 43 44 45 46 48 49 
11(12)->1 2 3 4 5 6 7 8 9 10 12 13 14 15 16 17 19 20 22 24 28 29 30 31 35 37 42 44 45 49 
12(10)->1 2 3 4 5 6 7 8 9 10 11 13 14 15 16 17 19 23 24 28 29 31 36 39 40 42 44 45 46 49 50 
13(13)->1 2 3 4 5 6 7 8 9 10 11 12 14 15 16 19 23 29 31 32 35 36 40 42 43 44 49 
14(14)->1 2 3 4 5 6 7 8 9 10 11 12 13 15 16 18 19 22 24 26 27 28 29 34 36 37 39 49 50 
15(11)->1 2 3 4 5 6 7 8 9 10 11 12 13 14 21 22 25 26 33 36 40 41 42 44 
16(11)->1 2 3 4 5 6 7 8 9 10 11 12 13 14 21 23 24 26 27 31 32 33 35 37 41 42 43 44 48 
17(8)->1 2 3 4 5 6 7 8 10 11 12 18 20 21 23 26 27 28 29 31 32 33 35 40 42 47 
18(10)->1 2 3 4 5 6 7 8 9 14 17 20 24 26 28 32 34 36 38 40 41 42 44 45 48 50 
19(8)->1 2 3 4 5 6 7 8 11 12 13 14 20 21 24 25 29 32 33 34 38 39 43 44 45 47 50 
20(9)->1 2 3 4 5 6 7 8 9 11 17 18 19 22 24 31 32 33 34 38 39 41 46 47 48 49 
21(9)->1 2 3 4 5 6 7 8 9 15 16 17 19 32 34 36 40 42 43 48 49 50 
22(13)->1 2 3 4 5 6 7 8 10 11 14 15 20 30 33 35 36 37 38 39 43 46 47 48 50 
23(14)->1 2 3 4 5 6 7 12 13 16 17 24 26 27 28 29 30 31 34 35 36 37 39 41 47 50 
24(13)->1 2 3 4 5 6 7 8 9 10 11 12 14 16 18 19 20 23 27 30 32 33 35 38 41 42 44 45 49 
25(13)->1 2 3 4 5 6 7 9 10 15 19 26 27 31 32 34 39 41 43 45 47 48 
26(12)->1 2 3 4 5 6 7 10 14 15 16 17 18 23 25 27 29 38 39 42 43 45 46 47 48 49 
27(7)->1 2 3 4 5 6 7 9 14 16 17 23 24 25 26 30 31 34 35 38 45 47 48 49 
28(13)->1 2 3 4 5 6 7 8 9 10 11 12 14 17 18 23 29 30 31 33 34 36 37 38 41 44 45 46 49 50 
29(7)->1 2 3 4 5 6 7 9 10 11 12 13 14 17 19 23 26 28 30 31 33 34 43 44 45 47 50 
30(8)->1 2 3 4 5 6 7 8 11 22 23 24 27 28 29 31 32 34 37 39 43 46 49 
31(15)->1 2 3 4 5 6 7 8 9 10 11 12 13 16 17 20 23 25 27 28 29 30 41 43 45 48 49 50 
32(12)->1 2 3 4 5 6 7 8 9 10 13 16 17 18 19 20 21 24 25 30 33 36 37 39 46 47 
33(15)->1 2 3 4 5 6 7 8 15 16 17 19 20 22 24 28 29 32 36 37 40 42 45 50 
34(12)->1 2 3 4 5 6 7 9 14 18 19 20 21 23 25 27 28 29 30 36 37 38 39 40 44 45 
35(9)->1 2 3 4 5 6 7 8 9 11 13 16 17 22 23 24 27 36 37 39 42 43 44 45 47 48 49 
36(8)->1 2 3 4 5 6 7 8 10 12 13 14 15 18 21 22 23 28 32 33 34 35 39 42 43 44 45 47 48 
37(10)->1 2 3 4 5 6 7 8 9 10 11 14 16 22 23 28 30 32 33 34 35 39 45 46 50 
38(6)->1 2 3 4 5 7 8 9 18 19 20 22 24 26 27 28 34 39 41 42 46 49 
39(11)->1 2 3 4 5 6 7 8 9 10 12 14 19 20 22 23 25 26 30 32 34 35 36 37 38 40 43 45 46 48 
40(14)->1 2 3 4 5 6 7 8 9 10 12 13 15 17 18 21 33 34 39 43 44 47 49 
41(12)->1 2 3 4 5 6 7 8 9 10 15 16 18 20 23 24 25 28 31 38 46 47 48 49 
42(5)->1 2 3 4 5 10 11 12 13 15 16 17 18 21 24 26 33 35 36 38 43 46 49 50 
43(10)->1 2 3 4 5 6 7 8 10 13 16 19 21 22 25 26 29 30 31 35 36 39 40 42 48 50 
44(15)->1 2 3 4 5 6 7 8 9 10 11 12 13 15 16 18 19 24 28 29 34 35 36 40 45 46 48 
45(14)->1 2 3 4 5 6 7 8 9 10 11 12 18 19 24 25 26 27 28 29 31 33 34 35 36 37 39 44 47 
46(14)->1 2 3 4 5 6 7 8 9 10 12 20 22 26 28 30 32 37 38 39 41 42 44 47 49 
47(10)->1 2 3 4 5 6 7 8 9 17 19 20 22 23 25 26 27 29 32 35 36 40 41 45 46 48 49 
48(5)->1 2 3 4 5 6 8 9 10 16 18 20 21 22 25 26 27 31 35 36 39 41 43 44 47 49 
49(11)->1 2 3 4 5 6 7 8 9 10 11 12 13 14 20 21 24 26 27 28 30 31 35 38 40 41 42 46 47 48 50 
50(3)->2 4 5 7 9 12 14 18 19 21 22 23 28 29 31 33 37 42 43 49 
COUNT: 2798
COLORS: 16
EDGES: 750
16
2798
