1: 2 3 4 5 6 7 8 9 10 11 12 13 14 15 16 17 18 19 20 21 22 23 24 25 26 27 28 29 30 31 32 33 34 35 36 37 38 39 40 41 42 43 44 45 46 47 48 49 50
2: 1 3 4 5 6 7 8 9 10 11 12 13 14 15 16 17 18 19 20 21 22 23 24 25 26 27 28 29 30 31 32 33 34 35 36 37 38 39 40 41 42 43 44 45 46 47 48 49
3: 1 2 4 5 6 7 8 9 10 11 12 13 14 15 16 17 18 19 20 21 22 23 24 25 26 27 28 29 30 31 32 34 35 36 37 38 41 42 43 44 46 47 48 49
4: 1 2 3 5 6 7 8 9 10 11 12 13 14 15 16 17 18 19 20 22 23 25 27 29 32 33 34 36 37 38 39 40 41 42 43 44 47 49
5: 1 2 3 4 6 7 8 9 10 11 12 13 14 15 16 17 18 20 21 23 24 27 32 38 39 40 41 47
6: 1 2 3 4 5 7 8 9 12 13 15 16 17 18 20 24 26 28 32 37 41 42 43 50
7: 1 2 3 4 5 6 8 11 12 15 20 27 30 33 35 41 42 44 45 46 47 48
8: 32 1 2 35 4 37 38 33 10 7 15 50 3 22 23 24 6 27 28 30 5
9: 32 1 2 3 4 5 6 40 41 18 46 48 17 50 35 21 22 23
10: 32 1 2 3 4 5 8 43 12 50 11 49 18 40 25 28 29
11: 48 34 3 1 37 7 10 2 45 46 15 16 35 22 4 36 27 5 29 30 31
12: 33 34 3 1 38 6 17 41 10 39 2 49 18 24 4 42 7 5
13: 1 2 3 4 37 6 40 42 44 45 46 15 48 18 22 23 26 38 5 30 31
14: 1 34 3 36 5 38 39 40 41 44 2 48 49 21 23 25 27 29 4
15: 1 2 3 4 5 6 7 8 11 13 18 19 20 21 22 24 26 28 29 32 37 38 39 44 50
16: 33 2 43 4 37 6 1 40 41 11 47 48 18 3 20 25 5
17: 1 2 3 4 5 6 9 12 21 23 24 27 28 32 36 37 38 40 43 44 45 46 49 50
18: 1 2 3 4 5 6 9 10 12 13 15 16 22 23 24 27 28 29 30 33 34 43 46 48 49
19: 32 1 2 3 4 15 48 49 50 23 27 28 29
20: 1 2 3 36 5 6 39 40 41 7 45 15 16 49 35 21 4 38 28 29 30
21: 32 33 34 3 36 5 1 41 2 46 15 17 20 14 9 24 26 27 37 31
22: 48 34 35 4 38 1 8 9 45 2 13 11 18 3 15 28 29 31
23: 1 2 3 4 5 8 9 13 14 17 18 19 26 30 31 34 35 36 38 40 41 46 47
24: 1 2 3 5 6 8 12 15 17 18 21 30 31 35 36 37 41 44 45 46 48 49
25: 32 1 34 3 4 37 48 42 2 44 45 46 16 10 14 29 30 31
26: 32 1 2 3 36 6 41 43 44 13 46 47 49 21 23 15 29
27: 14 1 2 3 4 37 7 8 42 11 46 48 17 18 19 21 30 5
28: 3 1 2 35 36 38 6 8 41 10 50 46 15 17 18 19 20 22
29: 32 1 34 3 4 19 41 10 11 44 2 14 15 48 18 35 20 22 25 26
30: 32 1 2 43 3 7 8 47 11 13 45 48 18 35 20 23 24 25 27
31: 32 33 2 35 1 39 40 11 13 49 3 21 22 23 24 25
32: 1 2 3 4 5 6 8 9 10 15 17 19 21 25 26 29 30 31 39 40 43 46 48 49
33: 1 2 36 37 38 7 8 12 44 46 16 40 18 21 4 31
34: 1 2 3 36 37 39 42 11 12 14 47 48 49 18 21 22 23 25 29 4
35: 1 2 3 37 38 7 8 9 11 44 45 48 40 20 22 23 24 28 29 30 31
36: 1 34 11 4 38 33 41 42 46 2 14 17 50 3 20 21 23 24 26 28
37: 1 2 3 4 6 8 11 13 15 16 17 21 24 25 27 33 34 35 39 41 42 49 50
38: 1 2 3 4 5 8 12 13 14 15 17 20 22 23 28 33 35 36 39 41 43 44 45 46 50
39: 32 1 34 4 37 38 40 2 12 45 14 15 49 20 31 5
40: 32 33 2 35 4 5 39 9 10 43 44 13 46 45 16 17 1 20 14 23 31
41: 1 2 3 4 5 6 7 9 12 14 16 20 21 23 24 26 28 29 36 37 38 43 44 45 46 47 48
42: 1 34 3 36 37 6 7 2 12 13 25 27 4
43: 32 1 2 3 4 38 6 17 40 41 10 47 16 49 18 26 30
44: 33 2 35 4 38 7 40 41 13 14 15 17 50 3 1 24 25 26 29
45: 1 2 35 17 38 39 40 41 11 13 46 47 48 24 20 22 7 25 30
46: 1 2 3 7 9 11 13 17 18 21 23 24 25 26 27 28 32 33 36 38 40 41 45 49 50
47: 16 2 3 4 5 7 41 43 45 48 34 1 23 26 30
48: 1 2 3 7 9 11 13 14 16 18 19 22 24 25 27 29 30 32 34 35 41 45 47
49: 32 1 34 3 4 37 39 10 43 12 2 14 17 18 19 20 46 24 26 31
50: 1 36 37 6 8 9 10 44 46 15 17 19 38 28
-------
1(-1)->2 3 4 5 6 7 8 9 10 11 12 13 14 15 16 17 18 19 20 21 22 23 24 25 26 27 28 29 30 31 32 33 34 35 36 37 38 39 40 41 42 43 44 45 46 47 48 49 50 
2(-1)->1 3 4 5 6 7 8 9 10 11 12 13 14 15 16 17 18 19 20 21 22 23 24 25 26 27 28 29 30 31 32 33 34 35 36 37 38 39 40 41 42 43 44 45 46 47 48 49 
3(-1)->1 2 4 5 6 7 8 9 10 11 12 13 14 15 16 17 18 19 20 21 22 23 24 25 26 27 28 29 30 31 32 34 35 36 37 38 41 42 43 44 46 47 48 49 
4(-1)->1 2 3 5 6 7 8 9 10 11 12 13 14 15 16 17 18 19 20 22 23 25 27 29 32 33 34 36 37 38 39 40 41 42 43 44 47 49 
5(-1)->1 2 3 4 6 7 8 9 10 11 12 13 14 15 16 17 18 20 21 23 24 27 32 38 39 40 41 47 
6(-1)->1 2 3 4 5 7 8 9 12 13 15 16 17 18 20 24 26 28 32 37 41 42 43 50 
7(-1)->1 2 3 4 5 6 8 11 12 15 20 27 30 33 35 41 42 44 45 46 47 48 
8(-1)->1 2 3 4 5 6 7 10 15 22 23 24 27 28 30 32 33 35 37 38 50 
9(-1)->1 2 3 4 5 6 17 18 21 22 23 32 35 40 41 46 48 50 
10(-1)->1 2 3 4 5 8 11 12 18 25 28 29 32 40 43 49 50 
11(-1)->1 2 3 4 5 7 10 15 16 22 27 29 30 31 34 35 36 37 45 46 48 
12(-1)->1 2 3 4 5 6 7 10 17 18 24 33 34 38 39 41 42 49 
13(-1)->1 2 3 4 5 6 15 18 22 23 26 30 31 37 38 40 42 44 45 46 48 
14(-1)->1 2 3 4 5 21 23 25 27 29 34 36 38 39 40 41 44 48 49 
15(-1)->1 2 3 4 5 6 7 8 11 13 18 19 20 21 22 24 26 28 29 32 37 38 39 44 50 
16(-1)->1 2 3 4 5 6 11 18 20 25 33 37 40 41 43 47 48 
17(-1)->1 2 3 4 5 6 9 12 21 23 24 27 28 32 36 37 38 40 43 44 45 46 49 50 
18(-1)->1 2 3 4 5 6 9 10 12 13 15 16 22 23 24 27 28 29 30 33 34 43 46 48 49 
19(-1)->1 2 3 4 15 23 27 28 29 32 48 49 50 
20(-1)->1 2 3 4 5 6 7 15 16 21 28 29 30 35 36 38 39 40 41 45 49 
21(-1)->1 2 3 5 9 14 15 17 20 24 26 27 31 32 33 34 36 37 41 46 
22(-1)->1 2 3 4 8 9 11 13 15 18 28 29 31 34 35 38 45 48 
23(-1)->1 2 3 4 5 8 9 13 14 17 18 19 26 30 31 34 35 36 38 40 41 46 47 
24(-1)->1 2 3 5 6 8 12 15 17 18 21 30 31 35 36 37 41 44 45 46 48 49 
25(-1)->1 2 3 4 10 14 16 29 30 31 32 34 37 42 44 45 46 48 
26(-1)->1 2 3 6 13 15 21 23 29 32 36 41 43 44 46 47 49 
27(-1)->1 2 3 4 5 7 8 11 14 17 18 19 21 30 37 42 46 48 
28(-1)->1 2 3 6 8 10 15 17 18 19 20 22 35 36 38 41 46 50 
29(-1)->1 2 3 4 10 11 14 15 18 19 20 22 25 26 32 34 35 41 44 48 
30(-1)->1 2 3 7 8 11 13 18 20 23 24 25 27 32 35 43 45 47 48 
31(-1)->1 2 3 11 13 21 22 23 24 25 32 33 35 39 40 49 
32(-1)->1 2 3 4 5 6 8 9 10 15 17 19 21 25 26 29 30 31 39 40 43 46 48 49 
33(-1)->1 2 4 7 8 12 16 18 21 31 36 37 38 40 44 46 
34(-1)->1 2 3 4 11 12 14 18 21 22 23 25 29 36 37 39 42 47 48 49 
35(-1)->1 2 3 7 8 9 11 20 22 23 24 28 29 30 31 37 38 40 44 45 48 
36(-1)->1 2 3 4 11 14 17 20 21 23 24 26 28 33 34 38 41 42 46 50 
37(-1)->1 2 3 4 6 8 11 13 15 16 17 21 24 25 27 33 34 35 39 41 42 49 50 
38(-1)->1 2 3 4 5 8 12 13 14 15 17 20 22 23 28 33 35 36 39 41 43 44 45 46 50 
39(-1)->1 2 4 5 12 14 15 20 31 32 34 37 38 40 45 49 
40(-1)->1 2 4 5 9 10 13 14 16 17 20 23 31 32 33 35 39 43 44 45 46 
41(-1)->1 2 3 4 5 6 7 9 12 14 16 20 21 23 24 26 28 29 36 37 38 43 44 45 46 47 48 
42(-1)->1 2 3 4 6 7 12 13 25 27 34 36 37 
43(-1)->1 2 3 4 6 10 16 17 18 26 30 32 38 40 41 47 49 
44(-1)->1 2 3 4 7 13 14 15 17 24 25 26 29 33 35 38 40 41 50 
45(-1)->1 2 7 11 13 17 20 22 24 25 30 35 38 39 40 41 46 47 48 
46(-1)->1 2 3 7 9 11 13 17 18 21 23 24 25 26 27 28 32 33 36 38 40 41 45 49 50 
47(-1)->1 2 3 4 5 7 16 23 26 30 34 41 43 45 48 
48(-1)->1 2 3 7 9 11 13 14 16 18 19 22 24 25 27 29 30 32 34 35 41 45 47 
49(-1)->1 2 3 4 10 12 14 17 18 19 20 24 26 31 32 34 37 39 43 46 
50(-1)->1 6 8 9 10 15 17 19 28 36 37 38 44 46 
-------
Node 1 maps to position 0
Node 2 maps to position 1
Node 3 maps to position 2
Node 4 maps to position 3
Node 5 maps to position 4
Node 41 maps to position 5
Node 15 maps to position 6
Node 18 maps to position 7
Node 38 maps to position 8
Node 46 maps to position 9
Node 6 maps to position 10
Node 17 maps to position 11
Node 32 maps to position 12
Node 23 maps to position 13
Node 37 maps to position 14
Node 48 maps to position 15
Node 7 maps to position 16
Node 24 maps to position 17
Node 8 maps to position 18
Node 11 maps to position 19
Node 13 maps to position 20
Node 20 maps to position 21
Node 35 maps to position 22
Node 40 maps to position 23
Node 21 maps to position 24
Node 29 maps to position 25
Node 34 maps to position 26
Node 36 maps to position 27
Node 49 maps to position 28
Node 14 maps to position 29
Node 30 maps to position 30
Node 44 maps to position 31
Node 45 maps to position 32
Node 9 maps to position 33
Node 12 maps to position 34
Node 22 maps to position 35
Node 25 maps to position 36
Node 27 maps to position 37
Node 28 maps to position 38
Node 10 maps to position 39
Node 16 maps to position 40
Node 26 maps to position 41
Node 43 maps to position 42
Node 31 maps to position 43
Node 33 maps to position 44
Node 39 maps to position 45
Node 47 maps to position 46
Node 50 maps to position 47
Node 19 maps to position 48
Node 42 maps to position 49
1(-1)->2 3 4 5 6 7 8 9 10 11 12 13 14 15 16 17 18 19 20 21 22 23 24 25 26 27 28 29 30 31 32 33 34 35 36 37 38 39 40 41 42 43 44 45 46 47 48 49 50 
2(-1)->1 3 4 5 6 7 8 9 10 11 12 13 14 15 16 17 18 19 20 21 22 23 24 25 26 27 28 29 30 31 32 33 34 35 36 37 38 39 40 41 42 43 44 45 46 47 48 49 
3(-1)->1 2 4 5 6 7 8 9 10 11 12 13 14 15 16 17 18 19 20 21 22 23 24 25 26 27 28 29 30 31 32 34 35 36 37 38 41 42 43 44 46 47 48 49 
4(-1)->1 2 3 5 6 7 8 9 10 11 12 13 14 15 16 17 18 19 20 22 23 25 27 29 32 33 34 36 37 38 39 40 41 42 43 44 47 49 
5(-1)->1 2 3 4 6 7 8 9 10 11 12 13 14 15 16 17 18 20 21 23 24 27 32 38 39 40 41 47 
41(-1)->1 2 3 4 5 6 7 9 12 14 16 20 21 23 24 26 28 29 36 37 38 43 44 45 46 47 48 
15(-1)->1 2 3 4 5 6 7 8 11 13 18 19 20 21 22 24 26 28 29 32 37 38 39 44 50 
18(-1)->1 2 3 4 5 6 9 10 12 13 15 16 22 23 24 27 28 29 30 33 34 43 46 48 49 
38(-1)->1 2 3 4 5 8 12 13 14 15 17 20 22 23 28 33 35 36 39 41 43 44 45 46 50 
46(-1)->1 2 3 7 9 11 13 17 18 21 23 24 25 26 27 28 32 33 36 38 40 41 45 49 50 
6(-1)->1 2 3 4 5 7 8 9 12 13 15 16 17 18 20 24 26 28 32 37 41 42 43 50 
17(-1)->1 2 3 4 5 6 9 12 21 23 24 27 28 32 36 37 38 40 43 44 45 46 49 50 
32(-1)->1 2 3 4 5 6 8 9 10 15 17 19 21 25 26 29 30 31 39 40 43 46 48 49 
23(-1)->1 2 3 4 5 8 9 13 14 17 18 19 26 30 31 34 35 36 38 40 41 46 47 
37(-1)->1 2 3 4 6 8 11 13 15 16 17 21 24 25 27 33 34 35 39 41 42 49 50 
48(-1)->1 2 3 7 9 11 13 14 16 18 19 22 24 25 27 29 30 32 34 35 41 45 47 
7(-1)->1 2 3 4 5 6 8 11 12 15 20 27 30 33 35 41 42 44 45 46 47 48 
24(-1)->1 2 3 5 6 8 12 15 17 18 21 30 31 35 36 37 41 44 45 46 48 49 
8(-1)->1 2 3 4 5 6 7 10 15 22 23 24 27 28 30 32 33 35 37 38 50 
11(-1)->1 2 3 4 5 7 10 15 16 22 27 29 30 31 34 35 36 37 45 46 48 
13(-1)->1 2 3 4 5 6 15 18 22 23 26 30 31 37 38 40 42 44 45 46 48 
20(-1)->1 2 3 4 5 6 7 15 16 21 28 29 30 35 36 38 39 40 41 45 49 
35(-1)->1 2 3 7 8 9 11 20 22 23 24 28 29 30 31 37 38 40 44 45 48 
40(-1)->1 2 4 5 9 10 13 14 16 17 20 23 31 32 33 35 39 43 44 45 46 
21(-1)->1 2 3 5 9 14 15 17 20 24 26 27 31 32 33 34 36 37 41 46 
29(-1)->1 2 3 4 10 11 14 15 18 19 20 22 25 26 32 34 35 41 44 48 
34(-1)->1 2 3 4 11 12 14 18 21 22 23 25 29 36 37 39 42 47 48 49 
36(-1)->1 2 3 4 11 14 17 20 21 23 24 26 28 33 34 38 41 42 46 50 
49(-1)->1 2 3 4 10 12 14 17 18 19 20 24 26 31 32 34 37 39 43 46 
14(-1)->1 2 3 4 5 21 23 25 27 29 34 36 38 39 40 41 44 48 49 
30(-1)->1 2 3 7 8 11 13 18 20 23 24 25 27 32 35 43 45 47 48 
44(-1)->1 2 3 4 7 13 14 15 17 24 25 26 29 33 35 38 40 41 50 
45(-1)->1 2 7 11 13 17 20 22 24 25 30 35 38 39 40 41 46 47 48 
9(-1)->1 2 3 4 5 6 17 18 21 22 23 32 35 40 41 46 48 50 
12(-1)->1 2 3 4 5 6 7 10 17 18 24 33 34 38 39 41 42 49 
22(-1)->1 2 3 4 8 9 11 13 15 18 28 29 31 34 35 38 45 48 
25(-1)->1 2 3 4 10 14 16 29 30 31 32 34 37 42 44 45 46 48 
27(-1)->1 2 3 4 5 7 8 11 14 17 18 19 21 30 37 42 46 48 
28(-1)->1 2 3 6 8 10 15 17 18 19 20 22 35 36 38 41 46 50 
10(-1)->1 2 3 4 5 8 11 12 18 25 28 29 32 40 43 49 50 
16(-1)->1 2 3 4 5 6 11 18 20 25 33 37 40 41 43 47 48 
26(-1)->1 2 3 6 13 15 21 23 29 32 36 41 43 44 46 47 49 
43(-1)->1 2 3 4 6 10 16 17 18 26 30 32 38 40 41 47 49 
31(-1)->1 2 3 11 13 21 22 23 24 25 32 33 35 39 40 49 
33(-1)->1 2 4 7 8 12 16 18 21 31 36 37 38 40 44 46 
39(-1)->1 2 4 5 12 14 15 20 31 32 34 37 38 40 45 49 
47(-1)->1 2 3 4 5 7 16 23 26 30 34 41 43 45 48 
50(-1)->1 6 8 9 10 15 17 19 28 36 37 38 44 46 
19(-1)->1 2 3 4 15 23 27 28 29 32 48 49 50 
42(-1)->1 2 3 4 6 7 12 13 25 27 34 36 37 
-------
BLAH
START TIME: 1433713083
Cq = 11 and is assigned to x38
BACKTRACKED TO DEPTH: 37
0 1 2 3 4 5 6 7 8 9 10 
10000
20000
Cq = 10 and is assigned to x29
BACKTRACKED TO DEPTH: 28
0 1 2 3 4 5 6 7 8 9 
30000
40000
50000
60000
70000
80000
90000
100000
110000
120000
130000
140000
150000
160000
170000
180000
190000
200000
210000
220000
230000
240000
250000
Cq = 9 and is assigned to x18
BACKTRACKED TO DEPTH: 17
0 1 2 3 4 5 6 7 8 
1(0)->2 3 4 5 6 7 8 9 10 11 12 13 14 15 16 17 18 19 20 21 22 23 24 25 26 27 28 29 30 31 32 33 34 35 36 37 38 39 40 41 42 43 44 45 46 47 48 49 50 
2(1)->1 3 4 5 6 7 8 9 10 11 12 13 14 15 16 17 18 19 20 21 22 23 24 25 26 27 28 29 30 31 32 33 34 35 36 37 38 39 40 41 42 43 44 45 46 47 48 49 
3(2)->1 2 4 5 6 7 8 9 10 11 12 13 14 15 16 17 18 19 20 21 22 23 24 25 26 27 28 29 30 31 32 34 35 36 37 38 41 42 43 44 46 47 48 49 
4(3)->1 2 3 5 6 7 8 9 10 11 12 13 14 15 16 17 18 19 20 22 23 25 27 29 32 33 34 36 37 38 39 40 41 42 43 44 47 49 
5(4)->1 2 3 4 6 7 8 9 10 11 12 13 14 15 16 17 18 20 21 23 24 27 32 38 39 40 41 47 
6(7)->1 2 3 4 5 7 8 9 12 13 15 16 17 18 20 24 26 28 32 37 41 42 43 50 
7(6)->1 2 3 4 5 6 8 11 12 15 20 27 30 33 35 41 42 44 45 46 47 48 
8(9)->1 2 3 4 5 6 7 10 15 22 23 24 27 28 30 32 33 35 37 38 50 
9(9)->1 2 3 4 5 6 17 18 21 22 23 32 35 40 41 46 48 50 
10(5)->1 2 3 4 5 8 11 12 18 25 28 29 32 40 43 49 50 
11(8)->1 2 3 4 5 7 10 15 16 22 27 29 30 31 34 35 36 37 45 46 48 
12(9)->1 2 3 4 5 6 7 10 17 18 24 33 34 38 39 41 42 49 
13(8)->1 2 3 4 5 6 15 18 22 23 26 30 31 37 38 40 42 44 45 46 48 
14(8)->1 2 3 4 5 21 23 25 27 29 34 36 38 39 40 41 44 48 49 
15(5)->1 2 3 4 5 6 7 8 11 13 18 19 20 21 22 24 26 28 29 32 37 38 39 44 50 
16(9)->1 2 3 4 5 6 11 18 20 25 33 37 40 41 43 47 48 
17(5)->1 2 3 4 5 6 9 12 21 23 24 27 28 32 36 37 38 40 43 44 45 46 49 50 
18(6)->1 2 3 4 5 6 9 10 12 13 15 16 22 23 24 27 28 29 30 33 34 43 46 48 49 
19(6)->1 2 3 4 15 23 27 28 29 32 48 49 50 
20(8)->1 2 3 4 5 6 7 15 16 21 28 29 30 35 36 38 39 40 41 45 49 
21(3)->1 2 3 5 9 14 15 17 20 24 26 27 31 32 33 34 36 37 41 46 
22(7)->1 2 3 4 8 9 11 13 15 18 28 29 31 34 35 38 45 48 
23(7)->1 2 3 4 5 8 9 13 14 17 18 19 26 30 31 34 35 36 38 40 41 46 47 
24(8)->1 2 3 5 6 8 12 15 17 18 21 30 31 35 36 37 41 44 45 46 48 49 
25(7)->1 2 3 4 10 14 16 29 30 31 32 34 37 42 44 45 46 48 
26(6)->1 2 3 6 13 15 21 23 29 32 36 41 43 44 46 47 49 
27(7)->1 2 3 4 5 7 8 11 14 17 18 19 21 30 37 42 46 48 
28(3)->1 2 3 6 8 10 15 17 18 19 20 22 35 36 38 41 46 50 
29(9)->1 2 3 4 10 11 14 15 18 19 20 22 25 26 32 34 35 41 44 48 
30(3)->1 2 3 7 8 11 13 18 20 23 24 25 27 32 35 43 45 47 48 
31(4)->1 2 3 11 13 21 22 23 24 25 32 33 35 39 40 49 
32(8)->1 2 3 4 5 6 8 9 10 15 17 19 21 25 26 29 30 31 39 40 43 46 48 49 
33(2)->1 2 4 7 8 12 16 18 21 31 36 37 38 40 44 46 
34(5)->1 2 3 4 11 12 14 18 21 22 23 25 29 36 37 39 42 47 48 49 
35(5)->1 2 3 7 8 9 11 20 22 23 24 28 29 30 31 37 38 40 44 45 48 
36(9)->1 2 3 4 11 14 17 20 21 23 24 26 28 33 34 38 41 42 46 50 
37(6)->1 2 3 4 6 8 11 13 15 16 17 21 24 25 27 33 34 35 39 41 42 49 50 
38(6)->1 2 3 4 5 8 12 13 14 15 17 20 22 23 28 33 35 36 39 41 43 44 45 46 50 
39(2)->1 2 4 5 12 14 15 20 31 32 34 37 38 40 45 49 
40(6)->1 2 4 5 9 10 13 14 16 17 20 23 31 32 33 35 39 43 44 45 46 
41(5)->1 2 3 4 5 6 7 9 12 14 16 20 21 23 24 26 28 29 36 37 38 43 44 45 46 47 48 
42(4)->1 2 3 4 6 7 12 13 25 27 34 36 37 
43(4)->1 2 3 4 6 10 16 17 18 26 30 32 38 40 41 47 49 
44(4)->1 2 3 4 7 13 14 15 17 24 25 26 29 33 35 38 40 41 50 
45(9)->1 2 7 11 13 17 20 22 24 25 30 35 38 39 40 41 46 47 48 
46(4)->1 2 3 7 9 11 13 17 18 21 23 24 25 26 27 28 32 33 36 38 40 41 45 49 50 
47(8)->1 2 3 4 5 7 16 23 26 30 34 41 43 45 48 
48(4)->1 2 3 7 9 11 13 14 16 18 19 22 24 25 27 29 30 32 34 35 41 45 47 
49(7)->1 2 3 4 10 12 14 17 18 19 20 24 26 31 32 34 37 39 43 46 
50(1)->1 6 8 9 10 15 17 19 28 36 37 38 44 46 
COUNT: 257747
COLORS: 10
EDGES: 550
10
257747
