1: 2 3 4 5 6 7 8 9 10 11 12 13 14 15 16 17 18 19 20 21 22 23 24 25 26 27 28 29 30 31 32 33 34 35 36 37 38 39 40 41 42 43 44 45 46 47 48 49 50
2: 1 3 4 5 6 7 8 9 10 11 12 13 14 15 16 17 18 19 20 21 22 23 24 25 26 27 28 29 30 31 32 33 34 35 36 37 38 39 40 41 42 43 44 45 46 47 48 49 50
3: 1 2 4 5 6 7 8 9 10 11 12 13 14 15 16 17 18 19 20 21 22 23 24 25 26 27 28 29 30 31 32 33 34 35 36 37 38 39 40 41 42 43 44 45 46 47 48 49
4: 1 2 3 5 6 7 8 9 10 11 12 13 14 15 16 17 18 19 20 21 22 23 24 25 26 27 28 29 30 31 32 33 35 37 38 39 41 42 44 45 46 47 48 49
5: 1 2 3 4 6 7 8 9 10 11 12 13 14 15 16 17 18 19 21 23 24 25 26 30 31 32 33 34 35 36 38 39 40 41 42 44 45 46 47 48 49 50
6: 1 2 3 4 5 7 8 9 10 13 15 16 17 19 20 21 22 23 26 30 31 32 33 37 41 45 46 48 49 50
7: 1 2 3 4 5 6 8 9 13 17 22 23 25 26 27 28 29 30 31 32 33 36 40 42 45 46 47 48 49
8: 1 2 3 4 5 6 7 9 10 13 15 16 19 20 22 24 27 29 34 35 36 38 39 42 45 46 50
9: 1 2 3 4 5 6 7 8 10 11 13 14 19 21 24 25 29 36 37 38 39 40 48
10: 1 2 3 4 5 6 8 9 11 12 13 14 15 22 23 24 26 28 29 31 32 35 36 37 38 42 45 48
11: 1 2 3 4 5 9 10 13 14 18 19 20 21 22 24 29 32 33 34 39 40 42 43 44 45 46 50
12: 1 2 3 4 5 10 13 16 20 25 27 30 31 33 36 37 38 39 40 42 43 48
13: 1 2 3 4 5 6 7 8 9 10 11 12 15 17 19 21 22 28 29 31 33 38 41 42 46 49
14: 1 2 3 4 5 9 10 11 18 22 23 24 26 27 28 29 30 32 36 39 40 45 50
15: 3 1 2 35 36 37 6 17 8 10 45 13 49 19 20 4 47 5 30 31
16: 1 2 3 4 5 6 8 12 20 22 23 24 25 28 30 33 34 37 38 40 41 42 43 45 46 47 50
17: 19 1 34 35 4 5 6 39 40 2 13 46 15 3 20 24 7 47 28 29 37
18: 1 2 35 4 37 33 42 43 14 47 11 3 20 46 24 26 5 31
19: 1 2 3 4 5 6 8 9 11 13 15 17 21 22 23 24 27 29 34 35 40 41 45
20: 1 2 3 4 6 8 11 12 15 16 17 18 26 27 30 32 34 37 40 41 43 45 47 50
21: 32 1 2 35 4 37 3 39 40 41 11 13 46 19 22 9 24 6 27 30 5
22: 1 2 3 4 6 7 8 10 11 13 14 16 19 21 23 24 26 27 41 42 46 47 48
23: 1 2 3 4 5 6 7 10 14 16 19 22 27 28 29 32 34 38 39 42 43 45 50
24: 1 2 3 4 5 8 9 10 11 14 16 17 18 19 21 22 25 36 37 38 39 41 45 46 47 48 49
25: 32 16 34 35 1 37 7 9 39 12 2 48 50 3 24 4 27 29 5
26: 1 2 3 4 5 6 7 10 14 18 20 22 27 28 30 33 35 37 38 40 43 44 49 50
27: 1 2 3 4 7 8 12 14 19 20 21 22 23 25 26 28 30 32 35 36 39 40 47 49
28: 32 48 2 3 4 33 39 40 10 43 13 46 16 17 1 14 23 7 26 27 29
29: 1 2 3 4 7 8 9 10 11 13 14 17 19 23 25 28 33 35 36 42 44 46 48 49
30: 1 2 3 4 5 6 7 12 14 15 16 20 21 26 27 31 32 35 36 37 38 42 44 45 46 48
31: 1 2 3 4 5 6 7 10 12 13 15 18 30 33 34 36 37 38 41 42 43 45 47 48 50
32: 1 2 3 4 5 6 7 10 11 14 20 21 23 25 27 28 30 33 35 40 41 46 50
33: 1 2 3 4 5 6 7 11 12 13 16 18 26 28 29 31 32 36 42 43 46 48 49 50
34: 1 2 3 36 5 49 8 42 11 44 47 16 17 50 19 20 23 25 40 37 31
35: 1 2 3 4 5 8 10 15 17 18 19 21 25 26 27 29 30 32 37 39 42 46 47
36: 1 2 3 5 7 8 9 10 12 14 15 24 27 29 30 31 33 34 37 39 42 43 44 48 49
37: 1 2 3 4 6 9 10 12 15 16 17 18 20 21 24 25 26 30 31 34 35 36 39 41 45 46 47 48
38: 1 2 3 4 5 8 9 10 12 13 16 23 24 26 30 31 39 41 42 47 49 50
39: 1 2 3 4 5 8 9 11 12 14 17 21 23 24 25 27 28 35 36 37 38 42
40: 1 2 3 5 7 9 11 12 14 16 17 19 20 21 26 27 28 32 34 42 44 46 50
41: 1 2 3 4 5 6 13 16 19 20 21 22 24 31 32 37 38 43 45 46 48 49 50
42: 1 2 3 4 5 7 8 10 11 12 13 16 18 22 23 29 30 31 33 34 35 36 38 39 40 43 45
43: 33 2 3 36 16 1 41 42 11 12 50 46 48 18 20 23 26 28 31
44: 1 34 3 36 5 40 11 45 46 50 2 4 26 29 30
45: 1 2 3 4 5 6 7 8 10 11 14 15 16 19 20 23 24 30 31 37 41 42 44 47
46: 1 2 3 4 5 6 7 8 11 13 16 17 18 21 22 24 28 29 30 32 33 35 37 40 41 43 44 47 49 50
47: 1 2 3 4 5 7 15 16 17 18 20 22 24 27 31 34 35 37 38 45 46 48 49 50
48: 1 2 3 4 5 6 7 9 10 12 22 24 25 28 29 30 31 33 36 37 41 43 47 50
49: 33 2 34 36 6 38 7 41 1 13 46 15 50 3 47 24 4 26 27 29 5
50: 1 2 5 6 8 11 14 16 20 23 25 26 31 32 33 34 38 40 41 43 44 46 47 48 49
-------
1(-1)->2 3 4 5 6 7 8 9 10 11 12 13 14 15 16 17 18 19 20 21 22 23 24 25 26 27 28 29 30 31 32 33 34 35 36 37 38 39 40 41 42 43 44 45 46 47 48 49 50 
2(-1)->1 3 4 5 6 7 8 9 10 11 12 13 14 15 16 17 18 19 20 21 22 23 24 25 26 27 28 29 30 31 32 33 34 35 36 37 38 39 40 41 42 43 44 45 46 47 48 49 50 
3(-1)->1 2 4 5 6 7 8 9 10 11 12 13 14 15 16 17 18 19 20 21 22 23 24 25 26 27 28 29 30 31 32 33 34 35 36 37 38 39 40 41 42 43 44 45 46 47 48 49 
4(-1)->1 2 3 5 6 7 8 9 10 11 12 13 14 15 16 17 18 19 20 21 22 23 24 25 26 27 28 29 30 31 32 33 35 37 38 39 41 42 44 45 46 47 48 49 
5(-1)->1 2 3 4 6 7 8 9 10 11 12 13 14 15 16 17 18 19 21 23 24 25 26 30 31 32 33 34 35 36 38 39 40 41 42 44 45 46 47 48 49 50 
6(-1)->1 2 3 4 5 7 8 9 10 13 15 16 17 19 20 21 22 23 26 30 31 32 33 37 41 45 46 48 49 50 
7(-1)->1 2 3 4 5 6 8 9 13 17 22 23 25 26 27 28 29 30 31 32 33 36 40 42 45 46 47 48 49 
8(-1)->1 2 3 4 5 6 7 9 10 13 15 16 19 20 22 24 27 29 34 35 36 38 39 42 45 46 50 
9(-1)->1 2 3 4 5 6 7 8 10 11 13 14 19 21 24 25 29 36 37 38 39 40 48 
10(-1)->1 2 3 4 5 6 8 9 11 12 13 14 15 22 23 24 26 28 29 31 32 35 36 37 38 42 45 48 
11(-1)->1 2 3 4 5 9 10 13 14 18 19 20 21 22 24 29 32 33 34 39 40 42 43 44 45 46 50 
12(-1)->1 2 3 4 5 10 13 16 20 25 27 30 31 33 36 37 38 39 40 42 43 48 
13(-1)->1 2 3 4 5 6 7 8 9 10 11 12 15 17 19 21 22 28 29 31 33 38 41 42 46 49 
14(-1)->1 2 3 4 5 9 10 11 18 22 23 24 26 27 28 29 30 32 36 39 40 45 50 
15(-1)->1 2 3 4 5 6 8 10 13 17 19 20 30 31 35 36 37 45 47 49 
16(-1)->1 2 3 4 5 6 8 12 20 22 23 24 25 28 30 33 34 37 38 40 41 42 43 45 46 47 50 
17(-1)->1 2 3 4 5 6 7 13 15 19 20 24 28 29 34 35 37 39 40 46 47 
18(-1)->1 2 3 4 5 11 14 20 24 26 31 33 35 37 42 43 46 47 
19(-1)->1 2 3 4 5 6 8 9 11 13 15 17 21 22 23 24 27 29 34 35 40 41 45 
20(-1)->1 2 3 4 6 8 11 12 15 16 17 18 26 27 30 32 34 37 40 41 43 45 47 50 
21(-1)->1 2 3 4 5 6 9 11 13 19 22 24 27 30 32 35 37 39 40 41 46 
22(-1)->1 2 3 4 6 7 8 10 11 13 14 16 19 21 23 24 26 27 41 42 46 47 48 
23(-1)->1 2 3 4 5 6 7 10 14 16 19 22 27 28 29 32 34 38 39 42 43 45 50 
24(-1)->1 2 3 4 5 8 9 10 11 14 16 17 18 19 21 22 25 36 37 38 39 41 45 46 47 48 49 
25(-1)->1 2 3 4 5 7 9 12 16 24 27 29 32 34 35 37 39 48 50 
26(-1)->1 2 3 4 5 6 7 10 14 18 20 22 27 28 30 33 35 37 38 40 43 44 49 50 
27(-1)->1 2 3 4 7 8 12 14 19 20 21 22 23 25 26 28 30 32 35 36 39 40 47 49 
28(-1)->1 2 3 4 7 10 13 14 16 17 23 26 27 29 32 33 39 40 43 46 48 
29(-1)->1 2 3 4 7 8 9 10 11 13 14 17 19 23 25 28 33 35 36 42 44 46 48 49 
30(-1)->1 2 3 4 5 6 7 12 14 15 16 20 21 26 27 31 32 35 36 37 38 42 44 45 46 48 
31(-1)->1 2 3 4 5 6 7 10 12 13 15 18 30 33 34 36 37 38 41 42 43 45 47 48 50 
32(-1)->1 2 3 4 5 6 7 10 11 14 20 21 23 25 27 28 30 33 35 40 41 46 50 
33(-1)->1 2 3 4 5 6 7 11 12 13 16 18 26 28 29 31 32 36 42 43 46 48 49 50 
34(-1)->1 2 3 5 8 11 16 17 19 20 23 25 31 36 37 40 42 44 47 49 50 
35(-1)->1 2 3 4 5 8 10 15 17 18 19 21 25 26 27 29 30 32 37 39 42 46 47 
36(-1)->1 2 3 5 7 8 9 10 12 14 15 24 27 29 30 31 33 34 37 39 42 43 44 48 49 
37(-1)->1 2 3 4 6 9 10 12 15 16 17 18 20 21 24 25 26 30 31 34 35 36 39 41 45 46 47 48 
38(-1)->1 2 3 4 5 8 9 10 12 13 16 23 24 26 30 31 39 41 42 47 49 50 
39(-1)->1 2 3 4 5 8 9 11 12 14 17 21 23 24 25 27 28 35 36 37 38 42 
40(-1)->1 2 3 5 7 9 11 12 14 16 17 19 20 21 26 27 28 32 34 42 44 46 50 
41(-1)->1 2 3 4 5 6 13 16 19 20 21 22 24 31 32 37 38 43 45 46 48 49 50 
42(-1)->1 2 3 4 5 7 8 10 11 12 13 16 18 22 23 29 30 31 33 34 35 36 38 39 40 43 45 
43(-1)->1 2 3 11 12 16 18 20 23 26 28 31 33 36 41 42 46 48 50 
44(-1)->1 2 3 4 5 11 26 29 30 34 36 40 45 46 50 
45(-1)->1 2 3 4 5 6 7 8 10 11 14 15 16 19 20 23 24 30 31 37 41 42 44 47 
46(-1)->1 2 3 4 5 6 7 8 11 13 16 17 18 21 22 24 28 29 30 32 33 35 37 40 41 43 44 47 49 50 
47(-1)->1 2 3 4 5 7 15 16 17 18 20 22 24 27 31 34 35 37 38 45 46 48 49 50 
48(-1)->1 2 3 4 5 6 7 9 10 12 22 24 25 28 29 30 31 33 36 37 41 43 47 50 
49(-1)->1 2 3 4 5 6 7 13 15 24 26 27 29 33 34 36 38 41 46 47 50 
50(-1)->1 2 5 6 8 11 14 16 20 23 25 26 31 32 33 34 38 40 41 43 44 46 47 48 49 
-------
Node 1 maps to position 0
Node 2 maps to position 1
Node 3 maps to position 2
Node 4 maps to position 3
Node 5 maps to position 4
Node 6 maps to position 5
Node 46 maps to position 6
Node 7 maps to position 7
Node 10 maps to position 8
Node 37 maps to position 9
Node 8 maps to position 10
Node 11 maps to position 11
Node 16 maps to position 12
Node 24 maps to position 13
Node 42 maps to position 14
Node 13 maps to position 15
Node 30 maps to position 16
Node 31 maps to position 17
Node 36 maps to position 18
Node 50 maps to position 19
Node 20 maps to position 20
Node 26 maps to position 21
Node 27 maps to position 22
Node 29 maps to position 23
Node 33 maps to position 24
Node 45 maps to position 25
Node 47 maps to position 26
Node 48 maps to position 27
Node 9 maps to position 28
Node 14 maps to position 29
Node 19 maps to position 30
Node 22 maps to position 31
Node 23 maps to position 32
Node 32 maps to position 33
Node 35 maps to position 34
Node 40 maps to position 35
Node 41 maps to position 36
Node 12 maps to position 37
Node 38 maps to position 38
Node 39 maps to position 39
Node 17 maps to position 40
Node 21 maps to position 41
Node 28 maps to position 42
Node 34 maps to position 43
Node 49 maps to position 44
Node 15 maps to position 45
Node 25 maps to position 46
Node 43 maps to position 47
Node 18 maps to position 48
Node 44 maps to position 49
1(-1)->2 3 4 5 6 7 8 9 10 11 12 13 14 15 16 17 18 19 20 21 22 23 24 25 26 27 28 29 30 31 32 33 34 35 36 37 38 39 40 41 42 43 44 45 46 47 48 49 50 
2(-1)->1 3 4 5 6 7 8 9 10 11 12 13 14 15 16 17 18 19 20 21 22 23 24 25 26 27 28 29 30 31 32 33 34 35 36 37 38 39 40 41 42 43 44 45 46 47 48 49 50 
3(-1)->1 2 4 5 6 7 8 9 10 11 12 13 14 15 16 17 18 19 20 21 22 23 24 25 26 27 28 29 30 31 32 33 34 35 36 37 38 39 40 41 42 43 44 45 46 47 48 49 
4(-1)->1 2 3 5 6 7 8 9 10 11 12 13 14 15 16 17 18 19 20 21 22 23 24 25 26 27 28 29 30 31 32 33 35 37 38 39 41 42 44 45 46 47 48 49 
5(-1)->1 2 3 4 6 7 8 9 10 11 12 13 14 15 16 17 18 19 21 23 24 25 26 30 31 32 33 34 35 36 38 39 40 41 42 44 45 46 47 48 49 50 
6(-1)->1 2 3 4 5 7 8 9 10 13 15 16 17 19 20 21 22 23 26 30 31 32 33 37 41 45 46 48 49 50 
46(-1)->1 2 3 4 5 6 7 8 11 13 16 17 18 21 22 24 28 29 30 32 33 35 37 40 41 43 44 47 49 50 
7(-1)->1 2 3 4 5 6 8 9 13 17 22 23 25 26 27 28 29 30 31 32 33 36 40 42 45 46 47 48 49 
10(-1)->1 2 3 4 5 6 8 9 11 12 13 14 15 22 23 24 26 28 29 31 32 35 36 37 38 42 45 48 
37(-1)->1 2 3 4 6 9 10 12 15 16 17 18 20 21 24 25 26 30 31 34 35 36 39 41 45 46 47 48 
8(-1)->1 2 3 4 5 6 7 9 10 13 15 16 19 20 22 24 27 29 34 35 36 38 39 42 45 46 50 
11(-1)->1 2 3 4 5 9 10 13 14 18 19 20 21 22 24 29 32 33 34 39 40 42 43 44 45 46 50 
16(-1)->1 2 3 4 5 6 8 12 20 22 23 24 25 28 30 33 34 37 38 40 41 42 43 45 46 47 50 
24(-1)->1 2 3 4 5 8 9 10 11 14 16 17 18 19 21 22 25 36 37 38 39 41 45 46 47 48 49 
42(-1)->1 2 3 4 5 7 8 10 11 12 13 16 18 22 23 29 30 31 33 34 35 36 38 39 40 43 45 
13(-1)->1 2 3 4 5 6 7 8 9 10 11 12 15 17 19 21 22 28 29 31 33 38 41 42 46 49 
30(-1)->1 2 3 4 5 6 7 12 14 15 16 20 21 26 27 31 32 35 36 37 38 42 44 45 46 48 
31(-1)->1 2 3 4 5 6 7 10 12 13 15 18 30 33 34 36 37 38 41 42 43 45 47 48 50 
36(-1)->1 2 3 5 7 8 9 10 12 14 15 24 27 29 30 31 33 34 37 39 42 43 44 48 49 
50(-1)->1 2 5 6 8 11 14 16 20 23 25 26 31 32 33 34 38 40 41 43 44 46 47 48 49 
20(-1)->1 2 3 4 6 8 11 12 15 16 17 18 26 27 30 32 34 37 40 41 43 45 47 50 
26(-1)->1 2 3 4 5 6 7 10 14 18 20 22 27 28 30 33 35 37 38 40 43 44 49 50 
27(-1)->1 2 3 4 7 8 12 14 19 20 21 22 23 25 26 28 30 32 35 36 39 40 47 49 
29(-1)->1 2 3 4 7 8 9 10 11 13 14 17 19 23 25 28 33 35 36 42 44 46 48 49 
33(-1)->1 2 3 4 5 6 7 11 12 13 16 18 26 28 29 31 32 36 42 43 46 48 49 50 
45(-1)->1 2 3 4 5 6 7 8 10 11 14 15 16 19 20 23 24 30 31 37 41 42 44 47 
47(-1)->1 2 3 4 5 7 15 16 17 18 20 22 24 27 31 34 35 37 38 45 46 48 49 50 
48(-1)->1 2 3 4 5 6 7 9 10 12 22 24 25 28 29 30 31 33 36 37 41 43 47 50 
9(-1)->1 2 3 4 5 6 7 8 10 11 13 14 19 21 24 25 29 36 37 38 39 40 48 
14(-1)->1 2 3 4 5 9 10 11 18 22 23 24 26 27 28 29 30 32 36 39 40 45 50 
19(-1)->1 2 3 4 5 6 8 9 11 13 15 17 21 22 23 24 27 29 34 35 40 41 45 
22(-1)->1 2 3 4 6 7 8 10 11 13 14 16 19 21 23 24 26 27 41 42 46 47 48 
23(-1)->1 2 3 4 5 6 7 10 14 16 19 22 27 28 29 32 34 38 39 42 43 45 50 
32(-1)->1 2 3 4 5 6 7 10 11 14 20 21 23 25 27 28 30 33 35 40 41 46 50 
35(-1)->1 2 3 4 5 8 10 15 17 18 19 21 25 26 27 29 30 32 37 39 42 46 47 
40(-1)->1 2 3 5 7 9 11 12 14 16 17 19 20 21 26 27 28 32 34 42 44 46 50 
41(-1)->1 2 3 4 5 6 13 16 19 20 21 22 24 31 32 37 38 43 45 46 48 49 50 
12(-1)->1 2 3 4 5 10 13 16 20 25 27 30 31 33 36 37 38 39 40 42 43 48 
38(-1)->1 2 3 4 5 8 9 10 12 13 16 23 24 26 30 31 39 41 42 47 49 50 
39(-1)->1 2 3 4 5 8 9 11 12 14 17 21 23 24 25 27 28 35 36 37 38 42 
17(-1)->1 2 3 4 5 6 7 13 15 19 20 24 28 29 34 35 37 39 40 46 47 
21(-1)->1 2 3 4 5 6 9 11 13 19 22 24 27 30 32 35 37 39 40 41 46 
28(-1)->1 2 3 4 7 10 13 14 16 17 23 26 27 29 32 33 39 40 43 46 48 
34(-1)->1 2 3 5 8 11 16 17 19 20 23 25 31 36 37 40 42 44 47 49 50 
49(-1)->1 2 3 4 5 6 7 13 15 24 26 27 29 33 34 36 38 41 46 47 50 
15(-1)->1 2 3 4 5 6 8 10 13 17 19 20 30 31 35 36 37 45 47 49 
25(-1)->1 2 3 4 5 7 9 12 16 24 27 29 32 34 35 37 39 48 50 
43(-1)->1 2 3 11 12 16 18 20 23 26 28 31 33 36 41 42 46 48 50 
18(-1)->1 2 3 4 5 11 14 20 24 26 31 33 35 37 42 43 46 47 
44(-1)->1 2 3 4 5 11 26 29 30 34 36 40 45 46 50 
-------
BLAH
START TIME: 1433713701
Cq = 12 and is assigned to x38
BACKTRACKED TO DEPTH: 37
0 1 2 3 4 5 6 7 8 9 10 11 
10000
20000
30000
40000
50000
60000
Cq = 11 and is assigned to x15
BACKTRACKED TO DEPTH: 14
0 1 2 3 4 5 6 7 8 9 10 
70000
80000
90000
100000
110000
120000
130000
140000
150000
160000
170000
180000
190000
1(0)->2 3 4 5 6 7 8 9 10 11 12 13 14 15 16 17 18 19 20 21 22 23 24 25 26 27 28 29 30 31 32 33 34 35 36 37 38 39 40 41 42 43 44 45 46 47 48 49 50 
2(1)->1 3 4 5 6 7 8 9 10 11 12 13 14 15 16 17 18 19 20 21 22 23 24 25 26 27 28 29 30 31 32 33 34 35 36 37 38 39 40 41 42 43 44 45 46 47 48 49 50 
3(2)->1 2 4 5 6 7 8 9 10 11 12 13 14 15 16 17 18 19 20 21 22 23 24 25 26 27 28 29 30 31 32 33 34 35 36 37 38 39 40 41 42 43 44 45 46 47 48 49 
4(3)->1 2 3 5 6 7 8 9 10 11 12 13 14 15 16 17 18 19 20 21 22 23 24 25 26 27 28 29 30 31 32 33 35 37 38 39 41 42 44 45 46 47 48 49 
5(4)->1 2 3 4 6 7 8 9 10 11 12 13 14 15 16 17 18 19 21 23 24 25 26 30 31 32 33 34 35 36 38 39 40 41 42 44 45 46 47 48 49 50 
6(5)->1 2 3 4 5 7 8 9 10 13 15 16 17 19 20 21 22 23 26 30 31 32 33 37 41 45 46 48 49 50 
7(7)->1 2 3 4 5 6 8 9 13 17 22 23 25 26 27 28 29 30 31 32 33 36 40 42 45 46 47 48 49 
8(8)->1 2 3 4 5 6 7 9 10 13 15 16 19 20 22 24 27 29 34 35 36 38 39 42 45 46 50 
9(9)->1 2 3 4 5 6 7 8 10 11 13 14 19 21 24 25 29 36 37 38 39 40 48 
10(6)->1 2 3 4 5 6 8 9 11 12 13 14 15 22 23 24 26 28 29 31 32 35 36 37 38 42 45 48 
11(5)->1 2 3 4 5 9 10 13 14 18 19 20 21 22 24 29 32 33 34 39 40 42 43 44 45 46 50 
12(7)->1 2 3 4 5 10 13 16 20 25 27 30 31 33 36 37 38 39 40 42 43 48 
13(11)->1 2 3 4 5 6 7 8 9 10 11 12 15 17 19 21 22 28 29 31 33 38 41 42 46 49 
14(10)->1 2 3 4 5 9 10 11 18 22 23 24 26 27 28 29 30 32 36 39 40 45 50 
15(7)->1 2 3 4 5 6 8 10 13 17 19 20 30 31 35 36 37 45 47 49 
16(9)->1 2 3 4 5 6 8 12 20 22 23 24 25 28 30 33 34 37 38 40 41 42 43 45 46 47 50 
17(9)->1 2 3 4 5 6 7 13 15 19 20 24 28 29 34 35 37 39 40 46 47 
18(11)->1 2 3 4 5 11 14 20 24 26 31 33 35 37 42 43 46 47 
19(6)->1 2 3 4 5 6 8 9 11 13 15 17 21 22 23 24 27 29 34 35 40 41 45 
20(6)->1 2 3 4 6 8 11 12 15 16 17 18 26 27 30 32 34 37 40 41 43 45 47 50 
21(10)->1 2 3 4 5 6 9 11 13 19 22 24 27 30 32 35 37 39 40 41 46 
22(4)->1 2 3 4 6 7 8 10 11 13 14 16 19 21 23 24 26 27 41 42 46 47 48 
23(8)->1 2 3 4 5 6 7 10 14 16 19 22 27 28 29 32 34 38 39 42 43 45 50 
24(7)->1 2 3 4 5 8 9 10 11 14 16 17 18 19 21 22 25 36 37 38 39 41 45 46 47 48 49 
25(8)->1 2 3 4 5 7 9 12 16 24 27 29 32 34 35 37 39 48 50 
26(9)->1 2 3 4 5 6 7 10 14 18 20 22 27 28 30 33 35 37 38 40 43 44 49 50 
27(11)->1 2 3 4 7 8 12 14 19 20 21 22 23 25 26 28 30 32 35 36 39 40 47 49 
28(5)->1 2 3 4 7 10 13 14 16 17 23 26 27 29 32 33 39 40 43 46 48 
29(4)->1 2 3 4 7 8 9 10 11 13 14 17 19 23 25 28 33 35 36 42 44 46 48 49 
30(8)->1 2 3 4 5 6 7 12 14 15 16 20 21 26 27 31 32 35 36 37 38 42 44 45 46 48 
31(9)->1 2 3 4 5 6 7 10 12 13 15 18 30 33 34 36 37 38 41 42 43 45 47 48 50 
32(9)->1 2 3 4 5 6 7 10 11 14 20 21 23 25 27 28 30 33 35 40 41 46 50 
33(8)->1 2 3 4 5 6 7 11 12 13 16 18 26 28 29 31 32 36 42 43 46 48 49 50 
34(7)->1 2 3 5 8 11 16 17 19 20 23 25 31 36 37 40 42 44 47 49 50 
35(5)->1 2 3 4 5 8 10 15 17 18 19 21 25 26 27 29 30 32 37 39 42 46 47 
36(3)->1 2 3 5 7 8 9 10 12 14 15 24 27 29 30 31 33 34 37 39 42 43 44 48 49 
37(4)->1 2 3 4 6 9 10 12 15 16 17 18 20 21 24 25 26 30 31 34 35 36 39 41 45 46 47 48 
38(5)->1 2 3 4 5 8 9 10 12 13 16 23 24 26 30 31 39 41 42 47 49 50 
39(6)->1 2 3 4 5 8 9 11 12 14 17 21 23 24 25 27 28 35 36 37 38 42 
40(3)->1 2 3 5 7 9 11 12 14 16 17 19 20 21 26 27 28 32 34 42 44 46 50 
41(8)->1 2 3 4 5 6 13 16 19 20 21 22 24 31 32 37 38 43 45 46 48 49 50 
42(10)->1 2 3 4 5 7 8 10 11 12 13 16 18 22 23 29 30 31 33 34 35 36 38 39 40 43 45 
43(4)->1 2 3 11 12 16 18 20 23 26 28 31 33 36 41 42 46 48 50 
44(10)->1 2 3 4 5 11 26 29 30 34 36 40 45 46 50 
45(11)->1 2 3 4 5 6 7 8 10 11 14 15 16 19 20 23 24 30 31 37 41 42 44 47 
46(6)->1 2 3 4 5 6 7 8 11 13 16 17 18 21 22 24 28 29 30 32 33 35 37 40 41 43 44 47 49 50 
47(8)->1 2 3 4 5 7 15 16 17 18 20 22 24 27 31 34 35 37 38 45 46 48 49 50 
48(10)->1 2 3 4 5 6 7 9 10 12 22 24 25 28 29 30 31 33 36 37 41 43 47 50 
49(10)->1 2 3 4 5 6 7 13 15 24 26 27 29 33 34 36 38 41 46 47 50 
50(2)->1 2 5 6 8 11 14 16 20 23 25 26 31 32 33 34 38 40 41 43 44 46 47 48 49 
COUNT: 198733
COLORS: 12
EDGES: 650
12
198733
