1: 2 3 4 5 6 7 8 9 10 11 12 13 14 15 16 17 18 19 20 21 22 23 24 25 26 27 28 29 30 31 32 33 34 35 36 37 38 39 40 41 42 43 44 45 46 47 48 49
2: 1 3 4 5 6 7 8 9 10 11 12 13 14 15 16 17 18 19 20 21 22 23 24 25 26 27 28 29 30 31 32 33 34 35 36 37 38 39 40 41 42 43 44 45 46 47 48 49
3: 1 2 4 5 6 7 8 9 10 11 12 13 14 15 16 17 18 19 20 21 22 23 24 25 26 27 28 29 30 31 32 33 34 35 36 37 38 39 40 41 42 43 44 45 46 47 48 49 50
4: 1 2 3 5 6 7 8 9 10 11 12 13 14 15 16 17 18 19 20 21 22 23 24 25 26 27 28 29 30 31 32 33 34 35 36 37 38 39 40 42 44 45 46 48 49
5: 1 2 3 4 6 7 8 9 10 11 12 13 14 15 16 17 18 19 20 21 22 23 24 25 26 27 28 29 30 32 33 34 35 36 38 39 40 41 43 44 45 46 47 48
6: 1 2 3 4 5 7 8 9 10 11 12 13 15 16 17 18 19 21 23 24 25 26 27 28 30 32 34 35 36 39 40 41 46 48 49 50
7: 1 2 3 4 5 6 8 9 10 11 12 16 17 18 19 21 22 23 24 25 26 27 28 29 30 31 32 33 34 35 37 39 44 46 47 48
8: 1 2 3 4 5 6 7 9 10 11 12 13 14 15 16 17 21 22 25 26 28 29 30 31 32 34 40 41 46 47 50
9: 1 2 3 4 5 6 7 8 10 11 17 19 20 23 26 30 31 34 35 38 40 42 46 48 49 50
10: 1 2 3 4 5 6 7 8 9 11 12 13 16 17 18 22 24 26 28 29 30 34 35 36 39 40 41 42 46 48 49 50
11: 1 2 3 4 5 6 7 8 9 10 12 16 21 22 26 30 32 34 36 37 38 42 45 46 47 49
12: 1 2 3 4 5 6 7 8 10 11 13 15 16 17 21 23 24 26 28 29 30 31 32 34 36 37 39 40 44
13: 1 2 3 4 5 6 8 10 12 14 16 18 22 24 25 28 29 30 34 36 37 40 41 43 48
14: 33 2 3 36 5 1 40 13 46 8 48 17 22 23 24 4 28 30
15: 32 33 34 3 4 5 6 17 8 41 42 12 2 40 19 1 23 24 25 26 31
16: 1 2 3 4 5 6 7 8 10 11 12 13 17 20 24 27 28 29 33 34 41 42 46
17: 1 2 3 4 5 6 7 8 9 10 12 14 15 16 24 27 29 31 39 42 47 49
18: 1 2 3 4 37 6 7 40 42 43 44 45 13 48 50 19 20 23 5 10 31
19: 1 2 3 4 5 6 7 9 15 18 22 23 24 32 33 34 35 39 41 43 47 48 49 50
20: 1 2 3 4 5 9 16 18 22 24 27 30 31 32 33 35 38 40 42 45 49 50
21: 1 2 3 4 5 6 7 8 11 12 22 23 24 25 27 30 31 33 34 36 38 40 41 42 45 46
22: 1 2 3 4 5 7 8 10 11 13 14 19 20 21 26 27 34 35 36 39 43 48 50
23: 32 1 2 3 4 37 6 7 40 44 46 12 14 15 49 18 19 21 9 24 5
24: 1 2 3 4 5 6 7 10 12 13 14 15 16 17 19 20 21 23 27 29 31 32 33 34 36 38 45 48
25: 33 34 3 4 37 6 7 15 42 2 13 47 8 50 1 21 27 5
26: 1 2 3 4 5 6 7 8 9 10 11 12 15 22 27 29 36 37 42 45 47 50
27: 1 2 3 4 5 6 7 16 17 20 21 22 24 25 26 28 29 31 33 36 41 42 43 50
28: 32 1 2 3 36 5 6 7 8 10 12 13 14 48 49 4 27 16 31
29: 1 2 3 4 5 7 8 10 12 13 16 17 24 26 27 33 35 37 38 41 44 45 46 47 49
30: 1 2 3 4 5 6 7 8 9 10 11 12 13 14 20 21 31 32 33 38 40 44 45 46 48 49
31: 1 2 3 4 7 8 9 12 15 17 18 20 21 24 27 28 30 33 37 38 39 40 47
32: 1 2 3 4 5 6 7 8 11 12 15 19 20 23 24 28 30 36 38 40 41 44 49
33: 1 2 3 4 5 7 14 15 16 19 20 21 24 25 27 29 30 31 34 35 38 39 40 41 43 47 48 49
34: 1 2 3 4 5 6 7 8 9 10 11 12 13 15 16 19 21 22 24 25 33 35 40 43 45 46 50
35: 1 34 3 4 5 6 33 9 10 39 44 2 45 48 19 20 22 7 29
36: 1 2 3 4 5 6 10 11 12 13 14 21 22 24 26 27 28 32 37 38 44 45 47 48 50
37: 1 2 3 4 7 11 12 13 18 23 25 26 29 31 36 39 41 42 46 48 49 50
38: 32 33 2 3 4 5 1 9 11 44 46 48 49 20 21 24 36 29 30 31
39: 33 2 3 1 37 35 7 40 10 43 12 49 17 50 19 22 4 6 5 31
40: 1 2 3 4 5 6 8 9 10 12 13 14 15 18 20 21 23 30 31 32 33 34 39 45 50
41: 32 33 2 3 5 6 1 8 10 44 13 46 15 48 37 19 21 27 29 16
42: 1 2 3 17 37 48 15 9 10 11 45 47 16 49 18 20 21 25 26 27 4
43: 33 34 3 1 5 39 18 13 46 47 50 19 22 2 27
44: 32 1 2 35 36 5 38 7 41 12 47 18 3 23 4 29 30
45: 1 2 3 4 5 11 18 20 21 24 26 29 30 34 35 36 40 42 46 47 49 50
46: 1 2 3 4 5 6 7 8 9 10 11 14 16 21 23 29 30 34 37 38 41 43 45 48
47: 3 33 2 49 36 5 7 8 42 11 44 45 17 50 19 1 43 25 26 29 31
48: 1 2 3 4 5 6 7 9 10 13 14 18 19 22 24 28 30 33 35 36 37 38 41 42 46 49
49: 1 2 3 4 6 9 10 11 17 19 20 23 28 29 30 32 33 37 38 39 42 45 47 48
50: 34 3 36 37 6 39 8 9 10 43 45 47 40 18 19 20 22 25 26 27
-------
1(-1)->2 3 4 5 6 7 8 9 10 11 12 13 14 15 16 17 18 19 20 21 22 23 24 25 26 27 28 29 30 31 32 33 34 35 36 37 38 39 40 41 42 43 44 45 46 47 48 49 
2(-1)->1 3 4 5 6 7 8 9 10 11 12 13 14 15 16 17 18 19 20 21 22 23 24 25 26 27 28 29 30 31 32 33 34 35 36 37 38 39 40 41 42 43 44 45 46 47 48 49 
3(-1)->1 2 4 5 6 7 8 9 10 11 12 13 14 15 16 17 18 19 20 21 22 23 24 25 26 27 28 29 30 31 32 33 34 35 36 37 38 39 40 41 42 43 44 45 46 47 48 49 50 
4(-1)->1 2 3 5 6 7 8 9 10 11 12 13 14 15 16 17 18 19 20 21 22 23 24 25 26 27 28 29 30 31 32 33 34 35 36 37 38 39 40 42 44 45 46 48 49 
5(-1)->1 2 3 4 6 7 8 9 10 11 12 13 14 15 16 17 18 19 20 21 22 23 24 25 26 27 28 29 30 32 33 34 35 36 38 39 40 41 43 44 45 46 47 48 
6(-1)->1 2 3 4 5 7 8 9 10 11 12 13 15 16 17 18 19 21 23 24 25 26 27 28 30 32 34 35 36 39 40 41 46 48 49 50 
7(-1)->1 2 3 4 5 6 8 9 10 11 12 16 17 18 19 21 22 23 24 25 26 27 28 29 30 31 32 33 34 35 37 39 44 46 47 48 
8(-1)->1 2 3 4 5 6 7 9 10 11 12 13 14 15 16 17 21 22 25 26 28 29 30 31 32 34 40 41 46 47 50 
9(-1)->1 2 3 4 5 6 7 8 10 11 17 19 20 23 26 30 31 34 35 38 40 42 46 48 49 50 
10(-1)->1 2 3 4 5 6 7 8 9 11 12 13 16 17 18 22 24 26 28 29 30 34 35 36 39 40 41 42 46 48 49 50 
11(-1)->1 2 3 4 5 6 7 8 9 10 12 16 21 22 26 30 32 34 36 37 38 42 45 46 47 49 
12(-1)->1 2 3 4 5 6 7 8 10 11 13 15 16 17 21 23 24 26 28 29 30 31 32 34 36 37 39 40 44 
13(-1)->1 2 3 4 5 6 8 10 12 14 16 18 22 24 25 28 29 30 34 36 37 40 41 43 48 
14(-1)->1 2 3 4 5 8 13 17 22 23 24 28 30 33 36 40 46 48 
15(-1)->1 2 3 4 5 6 8 12 17 19 23 24 25 26 31 32 33 34 40 41 42 
16(-1)->1 2 3 4 5 6 7 8 10 11 12 13 17 20 24 27 28 29 33 34 41 42 46 
17(-1)->1 2 3 4 5 6 7 8 9 10 12 14 15 16 24 27 29 31 39 42 47 49 
18(-1)->1 2 3 4 5 6 7 10 13 19 20 23 31 37 40 42 43 44 45 48 50 
19(-1)->1 2 3 4 5 6 7 9 15 18 22 23 24 32 33 34 35 39 41 43 47 48 49 50 
20(-1)->1 2 3 4 5 9 16 18 22 24 27 30 31 32 33 35 38 40 42 45 49 50 
21(-1)->1 2 3 4 5 6 7 8 11 12 22 23 24 25 27 30 31 33 34 36 38 40 41 42 45 46 
22(-1)->1 2 3 4 5 7 8 10 11 13 14 19 20 21 26 27 34 35 36 39 43 48 50 
23(-1)->1 2 3 4 5 6 7 9 12 14 15 18 19 21 24 32 37 40 44 46 49 
24(-1)->1 2 3 4 5 6 7 10 12 13 14 15 16 17 19 20 21 23 27 29 31 32 33 34 36 38 45 48 
25(-1)->1 2 3 4 5 6 7 8 13 15 21 27 33 34 37 42 47 50 
26(-1)->1 2 3 4 5 6 7 8 9 10 11 12 15 22 27 29 36 37 42 45 47 50 
27(-1)->1 2 3 4 5 6 7 16 17 20 21 22 24 25 26 28 29 31 33 36 41 42 43 50 
28(-1)->1 2 3 4 5 6 7 8 10 12 13 14 16 27 31 32 36 48 49 
29(-1)->1 2 3 4 5 7 8 10 12 13 16 17 24 26 27 33 35 37 38 41 44 45 46 47 49 
30(-1)->1 2 3 4 5 6 7 8 9 10 11 12 13 14 20 21 31 32 33 38 40 44 45 46 48 49 
31(-1)->1 2 3 4 7 8 9 12 15 17 18 20 21 24 27 28 30 33 37 38 39 40 47 
32(-1)->1 2 3 4 5 6 7 8 11 12 15 19 20 23 24 28 30 36 38 40 41 44 49 
33(-1)->1 2 3 4 5 7 14 15 16 19 20 21 24 25 27 29 30 31 34 35 38 39 40 41 43 47 48 49 
34(-1)->1 2 3 4 5 6 7 8 9 10 11 12 13 15 16 19 21 22 24 25 33 35 40 43 45 46 50 
35(-1)->1 2 3 4 5 6 7 9 10 19 20 22 29 33 34 39 44 45 48 
36(-1)->1 2 3 4 5 6 10 11 12 13 14 21 22 24 26 27 28 32 37 38 44 45 47 48 50 
37(-1)->1 2 3 4 7 11 12 13 18 23 25 26 29 31 36 39 41 42 46 48 49 50 
38(-1)->1 2 3 4 5 9 11 20 21 24 29 30 31 32 33 36 44 46 48 49 
39(-1)->1 2 3 4 5 6 7 10 12 17 19 22 31 33 35 37 40 43 49 50 
40(-1)->1 2 3 4 5 6 8 9 10 12 13 14 15 18 20 21 23 30 31 32 33 34 39 45 50 
41(-1)->1 2 3 5 6 8 10 13 15 16 19 21 27 29 32 33 37 44 46 48 
42(-1)->1 2 3 4 9 10 11 15 16 17 18 20 21 25 26 27 37 45 47 48 49 
43(-1)->1 2 3 5 13 18 19 22 27 33 34 39 46 47 50 
44(-1)->1 2 3 4 5 7 12 18 23 29 30 32 35 36 38 41 47 
45(-1)->1 2 3 4 5 11 18 20 21 24 26 29 30 34 35 36 40 42 46 47 49 50 
46(-1)->1 2 3 4 5 6 7 8 9 10 11 14 16 21 23 29 30 34 37 38 41 43 45 48 
47(-1)->1 2 3 5 7 8 11 17 19 25 26 29 31 33 36 42 43 44 45 49 50 
48(-1)->1 2 3 4 5 6 7 9 10 13 14 18 19 22 24 28 30 33 35 36 37 38 41 42 46 49 
49(-1)->1 2 3 4 6 9 10 11 17 19 20 23 28 29 30 32 33 37 38 39 42 45 47 48 
50(-1)->3 6 8 9 10 18 19 20 22 25 26 27 34 36 37 39 40 43 45 47 
-------
Node 3 maps to position 0
Node 1 maps to position 1
Node 2 maps to position 2
Node 4 maps to position 3
Node 5 maps to position 4
Node 6 maps to position 5
Node 7 maps to position 6
Node 10 maps to position 7
Node 8 maps to position 8
Node 12 maps to position 9
Node 24 maps to position 10
Node 33 maps to position 11
Node 34 maps to position 12
Node 9 maps to position 13
Node 11 maps to position 14
Node 21 maps to position 15
Node 30 maps to position 16
Node 48 maps to position 17
Node 13 maps to position 18
Node 29 maps to position 19
Node 36 maps to position 20
Node 40 maps to position 21
Node 19 maps to position 22
Node 27 maps to position 23
Node 46 maps to position 24
Node 49 maps to position 25
Node 16 maps to position 26
Node 22 maps to position 27
Node 31 maps to position 28
Node 32 maps to position 29
Node 17 maps to position 30
Node 20 maps to position 31
Node 26 maps to position 32
Node 37 maps to position 33
Node 45 maps to position 34
Node 15 maps to position 35
Node 18 maps to position 36
Node 23 maps to position 37
Node 42 maps to position 38
Node 47 maps to position 39
Node 38 maps to position 40
Node 39 maps to position 41
Node 41 maps to position 42
Node 50 maps to position 43
Node 28 maps to position 44
Node 35 maps to position 45
Node 14 maps to position 46
Node 25 maps to position 47
Node 44 maps to position 48
Node 43 maps to position 49
3(-1)->1 2 4 5 6 7 8 9 10 11 12 13 14 15 16 17 18 19 20 21 22 23 24 25 26 27 28 29 30 31 32 33 34 35 36 37 38 39 40 41 42 43 44 45 46 47 48 49 50 
1(-1)->2 3 4 5 6 7 8 9 10 11 12 13 14 15 16 17 18 19 20 21 22 23 24 25 26 27 28 29 30 31 32 33 34 35 36 37 38 39 40 41 42 43 44 45 46 47 48 49 
2(-1)->1 3 4 5 6 7 8 9 10 11 12 13 14 15 16 17 18 19 20 21 22 23 24 25 26 27 28 29 30 31 32 33 34 35 36 37 38 39 40 41 42 43 44 45 46 47 48 49 
4(-1)->1 2 3 5 6 7 8 9 10 11 12 13 14 15 16 17 18 19 20 21 22 23 24 25 26 27 28 29 30 31 32 33 34 35 36 37 38 39 40 42 44 45 46 48 49 
5(-1)->1 2 3 4 6 7 8 9 10 11 12 13 14 15 16 17 18 19 20 21 22 23 24 25 26 27 28 29 30 32 33 34 35 36 38 39 40 41 43 44 45 46 47 48 
6(-1)->1 2 3 4 5 7 8 9 10 11 12 13 15 16 17 18 19 21 23 24 25 26 27 28 30 32 34 35 36 39 40 41 46 48 49 50 
7(-1)->1 2 3 4 5 6 8 9 10 11 12 16 17 18 19 21 22 23 24 25 26 27 28 29 30 31 32 33 34 35 37 39 44 46 47 48 
10(-1)->1 2 3 4 5 6 7 8 9 11 12 13 16 17 18 22 24 26 28 29 30 34 35 36 39 40 41 42 46 48 49 50 
8(-1)->1 2 3 4 5 6 7 9 10 11 12 13 14 15 16 17 21 22 25 26 28 29 30 31 32 34 40 41 46 47 50 
12(-1)->1 2 3 4 5 6 7 8 10 11 13 15 16 17 21 23 24 26 28 29 30 31 32 34 36 37 39 40 44 
24(-1)->1 2 3 4 5 6 7 10 12 13 14 15 16 17 19 20 21 23 27 29 31 32 33 34 36 38 45 48 
33(-1)->1 2 3 4 5 7 14 15 16 19 20 21 24 25 27 29 30 31 34 35 38 39 40 41 43 47 48 49 
34(-1)->1 2 3 4 5 6 7 8 9 10 11 12 13 15 16 19 21 22 24 25 33 35 40 43 45 46 50 
9(-1)->1 2 3 4 5 6 7 8 10 11 17 19 20 23 26 30 31 34 35 38 40 42 46 48 49 50 
11(-1)->1 2 3 4 5 6 7 8 9 10 12 16 21 22 26 30 32 34 36 37 38 42 45 46 47 49 
21(-1)->1 2 3 4 5 6 7 8 11 12 22 23 24 25 27 30 31 33 34 36 38 40 41 42 45 46 
30(-1)->1 2 3 4 5 6 7 8 9 10 11 12 13 14 20 21 31 32 33 38 40 44 45 46 48 49 
48(-1)->1 2 3 4 5 6 7 9 10 13 14 18 19 22 24 28 30 33 35 36 37 38 41 42 46 49 
13(-1)->1 2 3 4 5 6 8 10 12 14 16 18 22 24 25 28 29 30 34 36 37 40 41 43 48 
29(-1)->1 2 3 4 5 7 8 10 12 13 16 17 24 26 27 33 35 37 38 41 44 45 46 47 49 
36(-1)->1 2 3 4 5 6 10 11 12 13 14 21 22 24 26 27 28 32 37 38 44 45 47 48 50 
40(-1)->1 2 3 4 5 6 8 9 10 12 13 14 15 18 20 21 23 30 31 32 33 34 39 45 50 
19(-1)->1 2 3 4 5 6 7 9 15 18 22 23 24 32 33 34 35 39 41 43 47 48 49 50 
27(-1)->1 2 3 4 5 6 7 16 17 20 21 22 24 25 26 28 29 31 33 36 41 42 43 50 
46(-1)->1 2 3 4 5 6 7 8 9 10 11 14 16 21 23 29 30 34 37 38 41 43 45 48 
49(-1)->1 2 3 4 6 9 10 11 17 19 20 23 28 29 30 32 33 37 38 39 42 45 47 48 
16(-1)->1 2 3 4 5 6 7 8 10 11 12 13 17 20 24 27 28 29 33 34 41 42 46 
22(-1)->1 2 3 4 5 7 8 10 11 13 14 19 20 21 26 27 34 35 36 39 43 48 50 
31(-1)->1 2 3 4 7 8 9 12 15 17 18 20 21 24 27 28 30 33 37 38 39 40 47 
32(-1)->1 2 3 4 5 6 7 8 11 12 15 19 20 23 24 28 30 36 38 40 41 44 49 
17(-1)->1 2 3 4 5 6 7 8 9 10 12 14 15 16 24 27 29 31 39 42 47 49 
20(-1)->1 2 3 4 5 9 16 18 22 24 27 30 31 32 33 35 38 40 42 45 49 50 
26(-1)->1 2 3 4 5 6 7 8 9 10 11 12 15 22 27 29 36 37 42 45 47 50 
37(-1)->1 2 3 4 7 11 12 13 18 23 25 26 29 31 36 39 41 42 46 48 49 50 
45(-1)->1 2 3 4 5 11 18 20 21 24 26 29 30 34 35 36 40 42 46 47 49 50 
15(-1)->1 2 3 4 5 6 8 12 17 19 23 24 25 26 31 32 33 34 40 41 42 
18(-1)->1 2 3 4 5 6 7 10 13 19 20 23 31 37 40 42 43 44 45 48 50 
23(-1)->1 2 3 4 5 6 7 9 12 14 15 18 19 21 24 32 37 40 44 46 49 
42(-1)->1 2 3 4 9 10 11 15 16 17 18 20 21 25 26 27 37 45 47 48 49 
47(-1)->1 2 3 5 7 8 11 17 19 25 26 29 31 33 36 42 43 44 45 49 50 
38(-1)->1 2 3 4 5 9 11 20 21 24 29 30 31 32 33 36 44 46 48 49 
39(-1)->1 2 3 4 5 6 7 10 12 17 19 22 31 33 35 37 40 43 49 50 
41(-1)->1 2 3 5 6 8 10 13 15 16 19 21 27 29 32 33 37 44 46 48 
50(-1)->3 6 8 9 10 18 19 20 22 25 26 27 34 36 37 39 40 43 45 47 
28(-1)->1 2 3 4 5 6 7 8 10 12 13 14 16 27 31 32 36 48 49 
35(-1)->1 2 3 4 5 6 7 9 10 19 20 22 29 33 34 39 44 45 48 
14(-1)->1 2 3 4 5 8 13 17 22 23 24 28 30 33 36 40 46 48 
25(-1)->1 2 3 4 5 6 7 8 13 15 21 27 33 34 37 42 47 50 
44(-1)->1 2 3 4 5 7 12 18 23 29 30 32 35 36 38 41 47 
43(-1)->1 2 3 5 13 18 19 22 27 33 34 39 46 47 50 
-------
BLAH
START TIME: 1433713668
Cq = 14 and is assigned to x44
BACKTRACKED TO DEPTH: 43
0 1 2 3 4 5 6 7 8 9 10 11 12 13 
10000
20000
30000
40000
50000
60000
70000
80000
90000
100000
110000
120000
Cq = 13 and is assigned to x26
BACKTRACKED TO DEPTH: 25
0 1 2 3 4 5 6 7 8 9 10 11 12 
130000
1(1)->2 3 4 5 6 7 8 9 10 11 12 13 14 15 16 17 18 19 20 21 22 23 24 25 26 27 28 29 30 31 32 33 34 35 36 37 38 39 40 41 42 43 44 45 46 47 48 49 
2(2)->1 3 4 5 6 7 8 9 10 11 12 13 14 15 16 17 18 19 20 21 22 23 24 25 26 27 28 29 30 31 32 33 34 35 36 37 38 39 40 41 42 43 44 45 46 47 48 49 
3(0)->1 2 4 5 6 7 8 9 10 11 12 13 14 15 16 17 18 19 20 21 22 23 24 25 26 27 28 29 30 31 32 33 34 35 36 37 38 39 40 41 42 43 44 45 46 47 48 49 50 
4(3)->1 2 3 5 6 7 8 9 10 11 12 13 14 15 16 17 18 19 20 21 22 23 24 25 26 27 28 29 30 31 32 33 34 35 36 37 38 39 40 42 44 45 46 48 49 
5(4)->1 2 3 4 6 7 8 9 10 11 12 13 14 15 16 17 18 19 20 21 22 23 24 25 26 27 28 29 30 32 33 34 35 36 38 39 40 41 43 44 45 46 47 48 
6(5)->1 2 3 4 5 7 8 9 10 11 12 13 15 16 17 18 19 21 23 24 25 26 27 28 30 32 34 35 36 39 40 41 46 48 49 50 
7(6)->1 2 3 4 5 6 8 9 10 11 12 16 17 18 19 21 22 23 24 25 26 27 28 29 30 31 32 33 34 35 37 39 44 46 47 48 
8(8)->1 2 3 4 5 6 7 9 10 11 12 13 14 15 16 17 21 22 25 26 28 29 30 31 32 34 40 41 46 47 50 
9(9)->1 2 3 4 5 6 7 8 10 11 17 19 20 23 26 30 31 34 35 38 40 42 46 48 49 50 
10(7)->1 2 3 4 5 6 7 8 9 11 12 13 16 17 18 22 24 26 28 29 30 34 35 36 39 40 41 42 46 48 49 50 
11(11)->1 2 3 4 5 6 7 8 9 10 12 16 21 22 26 30 32 34 36 37 38 42 45 46 47 49 
12(9)->1 2 3 4 5 6 7 8 10 11 13 15 16 17 21 23 24 26 28 29 30 31 32 34 36 37 39 40 44 
13(6)->1 2 3 4 5 6 8 10 12 14 16 18 22 24 25 28 29 30 34 36 37 40 41 43 48 
14(7)->1 2 3 4 5 8 13 17 22 23 24 28 30 33 36 40 46 48 
15(6)->1 2 3 4 5 6 8 12 17 19 23 24 25 26 31 32 33 34 40 41 42 
16(13)->1 2 3 4 5 6 7 8 10 11 12 13 17 20 24 27 28 29 33 34 41 42 46 
17(11)->1 2 3 4 5 6 7 8 9 10 12 14 15 16 24 27 29 31 39 42 47 49 
18(8)->1 2 3 4 5 6 7 10 13 19 20 23 31 37 40 42 43 44 45 48 50 
19(7)->1 2 3 4 5 6 7 9 15 18 22 23 24 32 33 34 35 39 41 43 47 48 49 50 
20(7)->1 2 3 4 5 9 16 18 22 24 27 30 31 32 33 35 38 40 42 45 49 50 
21(7)->1 2 3 4 5 6 7 8 11 12 22 23 24 25 27 30 31 33 34 36 38 40 41 42 45 46 
22(5)->1 2 3 4 5 7 8 10 11 13 14 19 20 21 26 27 34 35 36 39 43 48 50 
23(10)->1 2 3 4 5 6 7 9 12 14 15 18 19 21 24 32 37 40 44 46 49 
24(8)->1 2 3 4 5 6 7 10 12 13 14 15 16 17 19 20 21 23 27 29 31 32 33 34 36 38 45 48 
25(11)->1 2 3 4 5 6 7 8 13 15 21 27 33 34 37 42 47 50 
26(12)->1 2 3 4 5 6 7 8 9 10 11 12 15 22 27 29 36 37 42 45 47 50 
27(9)->1 2 3 4 5 6 7 16 17 20 21 22 24 25 26 28 29 31 33 36 41 42 43 50 
28(12)->1 2 3 4 5 6 7 8 10 12 13 14 16 27 31 32 36 48 49 
29(10)->1 2 3 4 5 7 8 10 12 13 16 17 24 26 27 33 35 37 38 41 44 45 46 47 49 
30(10)->1 2 3 4 5 6 7 8 9 10 11 12 13 14 20 21 31 32 33 38 40 44 45 46 48 49 
31(4)->1 2 3 4 7 8 9 12 15 17 18 20 21 24 27 28 30 33 37 38 39 40 47 
32(13)->1 2 3 4 5 6 7 8 11 12 15 19 20 23 24 28 30 36 38 40 41 44 49 
33(5)->1 2 3 4 5 7 14 15 16 19 20 21 24 25 27 29 30 31 34 35 38 39 40 41 43 47 48 49 
34(10)->1 2 3 4 5 6 7 8 9 10 11 12 13 15 16 19 21 22 24 25 33 35 40 43 45 46 50 
35(12)->1 2 3 4 5 6 7 9 10 19 20 22 29 33 34 39 44 45 48 
36(10)->1 2 3 4 5 6 10 11 12 13 14 21 22 24 26 27 28 32 37 38 44 45 47 48 50 
37(5)->1 2 3 4 7 11 12 13 18 23 25 26 29 31 36 39 41 42 46 48 49 50 
38(6)->1 2 3 4 5 9 11 20 21 24 29 30 31 32 33 36 44 46 48 49 
39(8)->1 2 3 4 5 6 7 10 12 17 19 22 31 33 35 37 40 43 49 50 
40(11)->1 2 3 4 5 6 8 9 10 12 13 14 15 18 20 21 23 30 31 32 33 34 39 45 50 
41(3)->1 2 3 5 6 8 10 13 15 16 19 21 27 29 32 33 37 44 46 48 
42(10)->1 2 3 4 9 10 11 15 16 17 18 20 21 25 26 27 37 45 47 48 49 
43(11)->1 2 3 5 13 18 19 22 27 33 34 39 46 47 50 
44(5)->1 2 3 4 5 7 12 18 23 29 30 32 35 36 38 41 47 
45(5)->1 2 3 4 5 11 18 20 21 24 26 29 30 34 35 36 40 42 46 47 49 50 
46(12)->1 2 3 4 5 6 7 8 9 10 11 14 16 21 23 29 30 34 37 38 41 43 45 48 
47(3)->1 2 3 5 7 8 11 17 19 25 26 29 31 33 36 42 43 44 45 49 50 
48(11)->1 2 3 4 5 6 7 9 10 13 14 18 19 22 24 28 30 33 35 36 37 38 41 42 46 49 
49(4)->1 2 3 4 6 9 10 11 17 19 20 23 28 29 30 32 33 37 38 39 42 45 47 48 
50(1)->3 6 8 9 10 18 19 20 22 25 26 27 34 36 37 39 40 43 45 47 
COUNT: 135650
COLORS: 14
EDGES: 650
14
135650
