1: 2 3 4 5 6 7 8 9 10 11 12 13 14 15 16 17 18 19 20 21 22 23 24 25 26 27 28 29 30 31 32 33 34 35 36 37 38 39 40 41 42 43 44 45 46 47 48 49
2: 1 3 4 5 6 7 8 9 10 11 12 13 14 15 16 17 18 19 20 21 22 23 24 25 26 27 28 29 30 31 32 33 34 35 36 37 38 39 40 41 42 43 44 45 46 47 48 49
3: 1 2 4 5 6 7 8 9 10 11 12 13 14 15 16 17 18 19 20 21 22 23 24 25 26 27 28 29 30 31 32 33 34 35 36 37 38 39 40 41 42 43 44 45 46 47 48 49
4: 1 2 3 5 6 7 8 9 10 11 12 13 14 15 16 17 18 19 20 21 22 23 24 25 26 27 28 29 30 31 32 33 34 36 37 38 39 40 42 43 44 45 46 47 48 49 50
5: 1 2 3 4 6 7 8 9 10 11 12 13 14 15 16 17 18 19 20 21 22 23 24 25 27 28 29 30 31 32 33 34 36 38 39 40 43 44 45 46
6: 1 2 3 4 5 7 8 9 10 11 12 13 14 15 16 18 19 20 21 23 24 25 27 28 29 32 33 34 36 38 40 42 44 45 47 48 50
7: 1 2 3 4 5 6 8 9 10 11 12 13 14 15 18 19 20 22 23 24 25 27 34 38 40 42 45 46 47 48 49
8: 1 2 3 4 5 6 7 9 10 11 12 13 14 15 17 18 20 23 24 25 27 31 34 36 38 41 42 43 45 46 48 50
9: 1 2 3 4 5 6 7 8 10 11 12 13 14 15 18 22 23 24 25 26 34 35 37 39 40 41 42 46 47
10: 1 2 3 4 5 6 7 8 9 11 12 13 14 16 18 19 23 24 25 26 30 31 34 35 37 38 42 45 47 50
11: 1 2 3 4 5 6 7 8 9 10 12 13 14 15 16 18 19 20 26 27 30 32 33 37 38 42 44 46 48 49
12: 1 2 3 4 5 6 7 8 9 10 11 13 14 16 17 20 21 24 25 26 27 30 39 40 42 45 46
13: 1 2 3 4 5 6 7 8 9 10 11 12 14 15 18 20 21 22 29 30 35 37 39 41 46 47 48 49
14: 1 2 3 4 5 6 7 8 9 10 11 12 13 15 16 17 18 19 21 23 30 33 36 40 45 48 49
15: 1 2 3 4 5 6 7 8 9 11 13 14 21 23 32 34 36 37 38 42 43 46 47 48
16: 1 2 3 4 5 6 10 11 12 14 18 19 22 23 24 26 29 30 32 33 38 41 43 44 48 49
17: 1 18 3 4 5 38 8 41 2 12 45 14 47 50 19 20 22 23 26 29 31
18: 1 2 3 4 5 6 7 8 9 10 11 13 14 16 17 21 23 24 28 29 32 36 42 45
19: 1 2 3 4 5 6 7 10 11 14 16 17 20 22 26 27 29 32 34 39 41 45 46 47 48
20: 1 2 3 4 5 6 7 8 11 12 13 17 19 21 23 25 26 28 29 32 34 44 47 49 50
21: 1 45 3 4 5 38 41 43 12 13 14 15 48 18 20 2 6 27
22: 1 2 3 4 5 7 9 13 16 17 19 23 25 28 30 31 33 35 37 39 41 42 44 46
23: 1 2 3 4 5 6 7 8 9 10 14 15 16 17 18 20 22 27 28 29 33 36 37 38 44 46 48
24: 1 2 3 4 5 6 7 8 9 10 12 16 18 25 26 32 34 35 38 41 42 43 45 48
25: 1 2 3 4 5 6 7 8 9 42 12 34 48 40 35 20 22 24 10
26: 1 2 3 4 9 10 11 12 16 17 19 20 24 27 31 32 33 35 39 42 45 46 49
27: 1 2 3 4 5 6 7 8 11 12 19 21 23 26 30 35 38 39 40 44 47 49
28: 32 1 2 3 4 37 6 40 44 45 47 48 49 18 20 22 23 30 5
29: 1 18 3 36 38 6 39 2 13 45 16 17 50 19 20 23 4 5
30: 1 34 35 4 5 10 11 12 13 46 45 16 49 50 3 14 22 2 27 28 31
31: 1 2 3 4 5 39 8 10 43 48 17 22 26 30
32: 1 2 3 4 5 6 11 15 16 18 19 20 24 26 28 34 35 36 41 42 45 46 48 50
33: 48 2 3 4 37 38 39 40 41 14 11 46 6 16 49 50 1 22 23 26 5
34: 1 2 3 4 5 6 7 8 9 10 15 19 20 24 25 30 32 35 38 44 45 47 48 49
35: 32 1 34 3 37 40 9 10 43 44 13 48 50 22 2 24 25 26 27 30
36: 32 1 2 3 4 5 6 8 44 45 14 47 49 18 40 23 15 29
37: 1 2 3 4 9 10 11 13 15 22 23 28 33 35 39 40 41 45 47 48 49 50
38: 1 2 3 4 5 6 7 8 10 11 15 16 17 21 23 24 27 29 33 34 40 43 45 48
39: 33 2 3 4 37 1 9 42 12 45 13 49 19 22 26 27 5 29 31
40: 1 2 3 4 5 6 7 9 12 14 25 27 28 33 35 36 37 38 44 45 46 47 49
41: 1 2 3 8 9 13 16 17 19 21 22 24 32 33 37 42 43 44 45 46 49 50
42: 1 2 3 4 6 7 8 9 10 11 12 15 18 22 24 25 26 32 39 41 43 48 50
43: 48 2 35 4 5 38 1 8 41 42 46 15 16 50 3 21 24 31
44: 1 2 35 4 5 6 40 41 11 34 16 50 3 20 22 23 36 27 28
45: 1 2 3 4 5 6 7 8 10 12 14 17 18 19 21 24 26 28 29 30 32 34 36 37 38 39 40 41 49 50
46: 1 2 3 4 5 7 8 9 11 12 13 15 19 22 23 26 30 32 33 40 41 43 48 50
47: 1 34 3 4 37 6 7 40 9 10 2 13 15 49 50 19 20 17 36 27 28
48: 1 2 3 4 6 7 8 11 13 14 15 16 19 21 23 24 25 28 31 32 33 34 35 37 38 42 43 46 49
49: 1 2 3 4 7 11 13 14 16 20 26 27 28 30 33 34 36 37 39 40 41 45 47 48
50: 32 33 35 4 37 6 8 41 42 43 44 45 46 47 17 29 20 10 30
-------
1(-1)->2 3 4 5 6 7 8 9 10 11 12 13 14 15 16 17 18 19 20 21 22 23 24 25 26 27 28 29 30 31 32 33 34 35 36 37 38 39 40 41 42 43 44 45 46 47 48 49 
2(-1)->1 3 4 5 6 7 8 9 10 11 12 13 14 15 16 17 18 19 20 21 22 23 24 25 26 27 28 29 30 31 32 33 34 35 36 37 38 39 40 41 42 43 44 45 46 47 48 49 
3(-1)->1 2 4 5 6 7 8 9 10 11 12 13 14 15 16 17 18 19 20 21 22 23 24 25 26 27 28 29 30 31 32 33 34 35 36 37 38 39 40 41 42 43 44 45 46 47 48 49 
4(-1)->1 2 3 5 6 7 8 9 10 11 12 13 14 15 16 17 18 19 20 21 22 23 24 25 26 27 28 29 30 31 32 33 34 36 37 38 39 40 42 43 44 45 46 47 48 49 50 
5(-1)->1 2 3 4 6 7 8 9 10 11 12 13 14 15 16 17 18 19 20 21 22 23 24 25 27 28 29 30 31 32 33 34 36 38 39 40 43 44 45 46 
6(-1)->1 2 3 4 5 7 8 9 10 11 12 13 14 15 16 18 19 20 21 23 24 25 27 28 29 32 33 34 36 38 40 42 44 45 47 48 50 
7(-1)->1 2 3 4 5 6 8 9 10 11 12 13 14 15 18 19 20 22 23 24 25 27 34 38 40 42 45 46 47 48 49 
8(-1)->1 2 3 4 5 6 7 9 10 11 12 13 14 15 17 18 20 23 24 25 27 31 34 36 38 41 42 43 45 46 48 50 
9(-1)->1 2 3 4 5 6 7 8 10 11 12 13 14 15 18 22 23 24 25 26 34 35 37 39 40 41 42 46 47 
10(-1)->1 2 3 4 5 6 7 8 9 11 12 13 14 16 18 19 23 24 25 26 30 31 34 35 37 38 42 45 47 50 
11(-1)->1 2 3 4 5 6 7 8 9 10 12 13 14 15 16 18 19 20 26 27 30 32 33 37 38 42 44 46 48 49 
12(-1)->1 2 3 4 5 6 7 8 9 10 11 13 14 16 17 20 21 24 25 26 27 30 39 40 42 45 46 
13(-1)->1 2 3 4 5 6 7 8 9 10 11 12 14 15 18 20 21 22 29 30 35 37 39 41 46 47 48 49 
14(-1)->1 2 3 4 5 6 7 8 9 10 11 12 13 15 16 17 18 19 21 23 30 33 36 40 45 48 49 
15(-1)->1 2 3 4 5 6 7 8 9 11 13 14 21 23 32 34 36 37 38 42 43 46 47 48 
16(-1)->1 2 3 4 5 6 10 11 12 14 18 19 22 23 24 26 29 30 32 33 38 41 43 44 48 49 
17(-1)->1 2 3 4 5 8 12 14 18 19 20 22 23 26 29 31 38 41 45 47 50 
18(-1)->1 2 3 4 5 6 7 8 9 10 11 13 14 16 17 21 23 24 28 29 32 36 42 45 
19(-1)->1 2 3 4 5 6 7 10 11 14 16 17 20 22 26 27 29 32 34 39 41 45 46 47 48 
20(-1)->1 2 3 4 5 6 7 8 11 12 13 17 19 21 23 25 26 28 29 32 34 44 47 49 50 
21(-1)->1 2 3 4 5 6 12 13 14 15 18 20 27 38 41 43 45 48 
22(-1)->1 2 3 4 5 7 9 13 16 17 19 23 25 28 30 31 33 35 37 39 41 42 44 46 
23(-1)->1 2 3 4 5 6 7 8 9 10 14 15 16 17 18 20 22 27 28 29 33 36 37 38 44 46 48 
24(-1)->1 2 3 4 5 6 7 8 9 10 12 16 18 25 26 32 34 35 38 41 42 43 45 48 
25(-1)->1 2 3 4 5 6 7 8 9 10 12 20 22 24 34 35 40 42 48 
26(-1)->1 2 3 4 9 10 11 12 16 17 19 20 24 27 31 32 33 35 39 42 45 46 49 
27(-1)->1 2 3 4 5 6 7 8 11 12 19 21 23 26 30 35 38 39 40 44 47 49 
28(-1)->1 2 3 4 5 6 18 20 22 23 30 32 37 40 44 45 47 48 49 
29(-1)->1 2 3 4 5 6 13 16 17 18 19 20 23 36 38 39 45 50 
30(-1)->1 2 3 4 5 10 11 12 13 14 16 22 27 28 31 34 35 45 46 49 50 
31(-1)->1 2 3 4 5 8 10 17 22 26 30 39 43 48 
32(-1)->1 2 3 4 5 6 11 15 16 18 19 20 24 26 28 34 35 36 41 42 45 46 48 50 
33(-1)->1 2 3 4 5 6 11 14 16 22 23 26 37 38 39 40 41 46 48 49 50 
34(-1)->1 2 3 4 5 6 7 8 9 10 15 19 20 24 25 30 32 35 38 44 45 47 48 49 
35(-1)->1 2 3 9 10 13 22 24 25 26 27 30 32 34 37 40 43 44 48 50 
36(-1)->1 2 3 4 5 6 8 14 15 18 23 29 32 40 44 45 47 49 
37(-1)->1 2 3 4 9 10 11 13 15 22 23 28 33 35 39 40 41 45 47 48 49 50 
38(-1)->1 2 3 4 5 6 7 8 10 11 15 16 17 21 23 24 27 29 33 34 40 43 45 48 
39(-1)->1 2 3 4 5 9 12 13 19 22 26 27 29 31 33 37 42 45 49 
40(-1)->1 2 3 4 5 6 7 9 12 14 25 27 28 33 35 36 37 38 44 45 46 47 49 
41(-1)->1 2 3 8 9 13 16 17 19 21 22 24 32 33 37 42 43 44 45 46 49 50 
42(-1)->1 2 3 4 6 7 8 9 10 11 12 15 18 22 24 25 26 32 39 41 43 48 50 
43(-1)->1 2 3 4 5 8 15 16 21 24 31 35 38 41 42 46 48 50 
44(-1)->1 2 3 4 5 6 11 16 20 22 23 27 28 34 35 36 40 41 50 
45(-1)->1 2 3 4 5 6 7 8 10 12 14 17 18 19 21 24 26 28 29 30 32 34 36 37 38 39 40 41 49 50 
46(-1)->1 2 3 4 5 7 8 9 11 12 13 15 19 22 23 26 30 32 33 40 41 43 48 50 
47(-1)->1 2 3 4 6 7 9 10 13 15 17 19 20 27 28 34 36 37 40 49 50 
48(-1)->1 2 3 4 6 7 8 11 13 14 15 16 19 21 23 24 25 28 31 32 33 34 35 37 38 42 43 46 49 
49(-1)->1 2 3 4 7 11 13 14 16 20 26 27 28 30 33 34 36 37 39 40 41 45 47 48 
50(-1)->4 6 8 10 17 20 29 30 32 33 35 37 41 42 43 44 45 46 47 
-------
Node 1 maps to position 0
Node 2 maps to position 1
Node 3 maps to position 2
Node 4 maps to position 3
Node 5 maps to position 4
Node 6 maps to position 5
Node 8 maps to position 6
Node 7 maps to position 7
Node 10 maps to position 8
Node 11 maps to position 9
Node 45 maps to position 10
Node 9 maps to position 11
Node 48 maps to position 12
Node 13 maps to position 13
Node 12 maps to position 14
Node 14 maps to position 15
Node 23 maps to position 16
Node 16 maps to position 17
Node 19 maps to position 18
Node 20 maps to position 19
Node 15 maps to position 20
Node 18 maps to position 21
Node 22 maps to position 22
Node 24 maps to position 23
Node 32 maps to position 24
Node 34 maps to position 25
Node 38 maps to position 26
Node 46 maps to position 27
Node 49 maps to position 28
Node 26 maps to position 29
Node 40 maps to position 30
Node 42 maps to position 31
Node 27 maps to position 32
Node 37 maps to position 33
Node 41 maps to position 34
Node 17 maps to position 35
Node 30 maps to position 36
Node 33 maps to position 37
Node 47 maps to position 38
Node 35 maps to position 39
Node 25 maps to position 40
Node 28 maps to position 41
Node 39 maps to position 42
Node 44 maps to position 43
Node 50 maps to position 44
Node 21 maps to position 45
Node 29 maps to position 46
Node 36 maps to position 47
Node 43 maps to position 48
Node 31 maps to position 49
1(-1)->2 3 4 5 6 7 8 9 10 11 12 13 14 15 16 17 18 19 20 21 22 23 24 25 26 27 28 29 30 31 32 33 34 35 36 37 38 39 40 41 42 43 44 45 46 47 48 49 
2(-1)->1 3 4 5 6 7 8 9 10 11 12 13 14 15 16 17 18 19 20 21 22 23 24 25 26 27 28 29 30 31 32 33 34 35 36 37 38 39 40 41 42 43 44 45 46 47 48 49 
3(-1)->1 2 4 5 6 7 8 9 10 11 12 13 14 15 16 17 18 19 20 21 22 23 24 25 26 27 28 29 30 31 32 33 34 35 36 37 38 39 40 41 42 43 44 45 46 47 48 49 
4(-1)->1 2 3 5 6 7 8 9 10 11 12 13 14 15 16 17 18 19 20 21 22 23 24 25 26 27 28 29 30 31 32 33 34 36 37 38 39 40 42 43 44 45 46 47 48 49 50 
5(-1)->1 2 3 4 6 7 8 9 10 11 12 13 14 15 16 17 18 19 20 21 22 23 24 25 27 28 29 30 31 32 33 34 36 38 39 40 43 44 45 46 
6(-1)->1 2 3 4 5 7 8 9 10 11 12 13 14 15 16 18 19 20 21 23 24 25 27 28 29 32 33 34 36 38 40 42 44 45 47 48 50 
8(-1)->1 2 3 4 5 6 7 9 10 11 12 13 14 15 17 18 20 23 24 25 27 31 34 36 38 41 42 43 45 46 48 50 
7(-1)->1 2 3 4 5 6 8 9 10 11 12 13 14 15 18 19 20 22 23 24 25 27 34 38 40 42 45 46 47 48 49 
10(-1)->1 2 3 4 5 6 7 8 9 11 12 13 14 16 18 19 23 24 25 26 30 31 34 35 37 38 42 45 47 50 
11(-1)->1 2 3 4 5 6 7 8 9 10 12 13 14 15 16 18 19 20 26 27 30 32 33 37 38 42 44 46 48 49 
45(-1)->1 2 3 4 5 6 7 8 10 12 14 17 18 19 21 24 26 28 29 30 32 34 36 37 38 39 40 41 49 50 
9(-1)->1 2 3 4 5 6 7 8 10 11 12 13 14 15 18 22 23 24 25 26 34 35 37 39 40 41 42 46 47 
48(-1)->1 2 3 4 6 7 8 11 13 14 15 16 19 21 23 24 25 28 31 32 33 34 35 37 38 42 43 46 49 
13(-1)->1 2 3 4 5 6 7 8 9 10 11 12 14 15 18 20 21 22 29 30 35 37 39 41 46 47 48 49 
12(-1)->1 2 3 4 5 6 7 8 9 10 11 13 14 16 17 20 21 24 25 26 27 30 39 40 42 45 46 
14(-1)->1 2 3 4 5 6 7 8 9 10 11 12 13 15 16 17 18 19 21 23 30 33 36 40 45 48 49 
23(-1)->1 2 3 4 5 6 7 8 9 10 14 15 16 17 18 20 22 27 28 29 33 36 37 38 44 46 48 
16(-1)->1 2 3 4 5 6 10 11 12 14 18 19 22 23 24 26 29 30 32 33 38 41 43 44 48 49 
19(-1)->1 2 3 4 5 6 7 10 11 14 16 17 20 22 26 27 29 32 34 39 41 45 46 47 48 
20(-1)->1 2 3 4 5 6 7 8 11 12 13 17 19 21 23 25 26 28 29 32 34 44 47 49 50 
15(-1)->1 2 3 4 5 6 7 8 9 11 13 14 21 23 32 34 36 37 38 42 43 46 47 48 
18(-1)->1 2 3 4 5 6 7 8 9 10 11 13 14 16 17 21 23 24 28 29 32 36 42 45 
22(-1)->1 2 3 4 5 7 9 13 16 17 19 23 25 28 30 31 33 35 37 39 41 42 44 46 
24(-1)->1 2 3 4 5 6 7 8 9 10 12 16 18 25 26 32 34 35 38 41 42 43 45 48 
32(-1)->1 2 3 4 5 6 11 15 16 18 19 20 24 26 28 34 35 36 41 42 45 46 48 50 
34(-1)->1 2 3 4 5 6 7 8 9 10 15 19 20 24 25 30 32 35 38 44 45 47 48 49 
38(-1)->1 2 3 4 5 6 7 8 10 11 15 16 17 21 23 24 27 29 33 34 40 43 45 48 
46(-1)->1 2 3 4 5 7 8 9 11 12 13 15 19 22 23 26 30 32 33 40 41 43 48 50 
49(-1)->1 2 3 4 7 11 13 14 16 20 26 27 28 30 33 34 36 37 39 40 41 45 47 48 
26(-1)->1 2 3 4 9 10 11 12 16 17 19 20 24 27 31 32 33 35 39 42 45 46 49 
40(-1)->1 2 3 4 5 6 7 9 12 14 25 27 28 33 35 36 37 38 44 45 46 47 49 
42(-1)->1 2 3 4 6 7 8 9 10 11 12 15 18 22 24 25 26 32 39 41 43 48 50 
27(-1)->1 2 3 4 5 6 7 8 11 12 19 21 23 26 30 35 38 39 40 44 47 49 
37(-1)->1 2 3 4 9 10 11 13 15 22 23 28 33 35 39 40 41 45 47 48 49 50 
41(-1)->1 2 3 8 9 13 16 17 19 21 22 24 32 33 37 42 43 44 45 46 49 50 
17(-1)->1 2 3 4 5 8 12 14 18 19 20 22 23 26 29 31 38 41 45 47 50 
30(-1)->1 2 3 4 5 10 11 12 13 14 16 22 27 28 31 34 35 45 46 49 50 
33(-1)->1 2 3 4 5 6 11 14 16 22 23 26 37 38 39 40 41 46 48 49 50 
47(-1)->1 2 3 4 6 7 9 10 13 15 17 19 20 27 28 34 36 37 40 49 50 
35(-1)->1 2 3 9 10 13 22 24 25 26 27 30 32 34 37 40 43 44 48 50 
25(-1)->1 2 3 4 5 6 7 8 9 10 12 20 22 24 34 35 40 42 48 
28(-1)->1 2 3 4 5 6 18 20 22 23 30 32 37 40 44 45 47 48 49 
39(-1)->1 2 3 4 5 9 12 13 19 22 26 27 29 31 33 37 42 45 49 
44(-1)->1 2 3 4 5 6 11 16 20 22 23 27 28 34 35 36 40 41 50 
50(-1)->4 6 8 10 17 20 29 30 32 33 35 37 41 42 43 44 45 46 47 
21(-1)->1 2 3 4 5 6 12 13 14 15 18 20 27 38 41 43 45 48 
29(-1)->1 2 3 4 5 6 13 16 17 18 19 20 23 36 38 39 45 50 
36(-1)->1 2 3 4 5 6 8 14 15 18 23 29 32 40 44 45 47 49 
43(-1)->1 2 3 4 5 8 15 16 21 24 31 35 38 41 42 46 48 50 
31(-1)->1 2 3 4 5 8 10 17 22 26 30 39 43 48 
-------
BLAH
START TIME: 1433713692
Cq = 13 and is assigned to x15
BACKTRACKED TO DEPTH: 14
0 1 2 3 4 5 6 7 8 9 10 11 12 
1(0)->2 3 4 5 6 7 8 9 10 11 12 13 14 15 16 17 18 19 20 21 22 23 24 25 26 27 28 29 30 31 32 33 34 35 36 37 38 39 40 41 42 43 44 45 46 47 48 49 
2(1)->1 3 4 5 6 7 8 9 10 11 12 13 14 15 16 17 18 19 20 21 22 23 24 25 26 27 28 29 30 31 32 33 34 35 36 37 38 39 40 41 42 43 44 45 46 47 48 49 
3(2)->1 2 4 5 6 7 8 9 10 11 12 13 14 15 16 17 18 19 20 21 22 23 24 25 26 27 28 29 30 31 32 33 34 35 36 37 38 39 40 41 42 43 44 45 46 47 48 49 
4(3)->1 2 3 5 6 7 8 9 10 11 12 13 14 15 16 17 18 19 20 21 22 23 24 25 26 27 28 29 30 31 32 33 34 36 37 38 39 40 42 43 44 45 46 47 48 49 50 
5(4)->1 2 3 4 6 7 8 9 10 11 12 13 14 15 16 17 18 19 20 21 22 23 24 25 27 28 29 30 31 32 33 34 36 38 39 40 43 44 45 46 
6(5)->1 2 3 4 5 7 8 9 10 11 12 13 14 15 16 18 19 20 21 23 24 25 27 28 29 32 33 34 36 38 40 42 44 45 47 48 50 
7(7)->1 2 3 4 5 6 8 9 10 11 12 13 14 15 18 19 20 22 23 24 25 27 34 38 40 42 45 46 47 48 49 
8(6)->1 2 3 4 5 6 7 9 10 11 12 13 14 15 17 18 20 23 24 25 27 31 34 36 38 41 42 43 45 46 48 50 
9(10)->1 2 3 4 5 6 7 8 10 11 12 13 14 15 18 22 23 24 25 26 34 35 37 39 40 41 42 46 47 
10(8)->1 2 3 4 5 6 7 8 9 11 12 13 14 16 18 19 23 24 25 26 30 31 34 35 37 38 42 45 47 50 
11(9)->1 2 3 4 5 6 7 8 9 10 12 13 14 15 16 18 19 20 26 27 30 32 33 37 38 42 44 46 48 49 
12(12)->1 2 3 4 5 6 7 8 9 10 11 13 14 16 17 20 21 24 25 26 27 30 39 40 42 45 46 
13(11)->1 2 3 4 5 6 7 8 9 10 11 12 14 15 18 20 21 22 29 30 35 37 39 41 46 47 48 49 
14(13)->1 2 3 4 5 6 7 8 9 10 11 12 13 15 16 17 18 19 21 23 30 33 36 40 45 48 49 
15(8)->1 2 3 4 5 6 7 8 9 11 13 14 21 23 32 34 36 37 38 42 43 46 47 48 
16(6)->1 2 3 4 5 6 10 11 12 14 18 19 22 23 24 26 29 30 32 33 38 41 43 44 48 49 
17(7)->1 2 3 4 5 8 12 14 18 19 20 22 23 26 29 31 38 41 45 47 50 
18(12)->1 2 3 4 5 6 7 8 9 10 11 13 14 16 17 21 23 24 28 29 32 36 42 45 
19(10)->1 2 3 4 5 6 7 10 11 14 16 17 20 22 26 27 29 32 34 39 41 45 46 47 48 
20(8)->1 2 3 4 5 6 7 8 11 12 13 17 19 21 23 25 26 28 29 32 34 44 47 49 50 
21(6)->1 2 3 4 5 6 12 13 14 15 18 20 27 38 41 43 45 48 
22(5)->1 2 3 4 5 7 9 13 16 17 19 23 25 28 30 31 33 35 37 39 41 42 44 46 
23(9)->1 2 3 4 5 6 7 8 9 10 14 15 16 17 18 20 22 27 28 29 33 36 37 38 44 46 48 
24(11)->1 2 3 4 5 6 7 8 9 10 12 16 18 25 26 32 34 35 38 41 42 43 45 48 
25(9)->1 2 3 4 5 6 7 8 9 10 12 20 22 24 34 35 40 42 48 
26(4)->1 2 3 4 9 10 11 12 16 17 19 20 24 27 31 32 33 35 39 42 45 46 49 
27(8)->1 2 3 4 5 6 7 8 11 12 19 21 23 26 30 35 38 39 40 44 47 49 
28(10)->1 2 3 4 5 6 18 20 22 23 30 32 37 40 44 45 47 48 49 
29(13)->1 2 3 4 5 6 13 16 17 18 19 20 23 36 38 39 45 50 
30(7)->1 2 3 4 5 10 11 12 13 14 16 22 27 28 31 34 35 45 46 49 50 
31(9)->1 2 3 4 5 8 10 17 22 26 30 39 43 48 
32(7)->1 2 3 4 5 6 11 15 16 18 19 20 24 26 28 34 35 36 41 42 45 46 48 50 
33(8)->1 2 3 4 5 6 11 14 16 22 23 26 37 38 39 40 41 46 48 49 50 
34(12)->1 2 3 4 5 6 7 8 9 10 15 19 20 24 25 30 32 35 38 44 45 47 48 49 
35(3)->1 2 3 9 10 13 22 24 25 26 27 30 32 34 37 40 43 44 48 50 
36(10)->1 2 3 4 5 6 8 14 15 18 23 29 32 40 44 45 47 49 
37(7)->1 2 3 4 9 10 11 13 15 22 23 28 33 35 39 40 41 45 47 48 49 50 
38(10)->1 2 3 4 5 6 7 8 10 11 15 16 17 21 23 24 27 29 33 34 40 43 45 48 
39(6)->1 2 3 4 5 9 12 13 19 22 26 27 29 31 33 37 42 45 49 
40(6)->1 2 3 4 5 6 7 9 12 14 25 27 28 33 35 36 37 38 44 45 46 47 49 
41(3)->1 2 3 8 9 13 16 17 19 21 22 24 32 33 37 42 43 44 45 46 49 50 
42(13)->1 2 3 4 6 7 8 9 10 11 12 15 18 22 24 25 26 32 39 41 43 48 50 
43(5)->1 2 3 4 5 8 15 16 21 24 31 35 38 41 42 46 48 50 
44(7)->1 2 3 4 5 6 11 16 20 22 23 27 28 34 35 36 40 41 50 
45(9)->1 2 3 4 5 6 7 8 10 12 14 17 18 19 21 24 26 28 29 30 32 34 36 37 38 39 40 41 49 50 
46(13)->1 2 3 4 5 7 8 9 11 12 13 15 19 22 23 26 30 32 33 40 41 43 48 50 
47(4)->1 2 3 4 6 7 9 10 13 15 17 19 20 27 28 34 36 37 40 49 50 
48(4)->1 2 3 4 6 7 8 11 13 14 15 16 19 21 23 24 25 28 31 32 33 34 35 37 38 42 43 46 49 
49(5)->1 2 3 4 7 11 13 14 16 20 26 27 28 30 33 34 36 37 39 40 41 45 47 48 
50(0)->4 6 8 10 17 20 29 30 32 33 35 37 41 42 43 44 45 46 47 
COUNT: 91
COLORS: 14
EDGES: 650
14
91
