1: 2 3 4 5 6 7 8 9 10 11 12 13 14 15 16 17 18 19 20 21 22 23 24 25 26 27 28 29 30 31 32 33 34 35 36 37 38 39 40 41 42 43 44 45 46 47 48 49
2: 1 3 4 5 6 7 8 9 10 11 12 13 14 15 16 17 18 19 20 21 22 23 24 25 26 27 28 29 30 31 32 33 34 35 36 37 38 39 40 41 42 43 44 45 46 47 48 49 50
3: 1 2 4 5 6 7 8 9 10 11 12 13 14 15 16 17 18 19 20 21 22 23 24 25 26 27 28 29 30 31 32 33 34 35 36 37 38 39 40 41 42 43 44 45 46 47 48 49 50
4: 1 2 3 5 6 7 8 9 10 11 12 13 14 15 16 17 18 19 20 21 22 23 24 25 26 27 28 29 32 33 34 35 36 38 39 40 41 42 43 45 46 47 48 49 50
5: 1 2 3 4 6 7 8 9 10 11 15 16 18 19 20 21 23 25 26 27 28 30 31 32 33 34 35 39 40 41 42 43 44 45 46 47 50
6: 1 2 3 4 5 7 8 9 10 12 13 18 19 20 21 22 23 24 25 26 27 30 31 32 33 34 35 36 37 39 41 42 43 46 48 50
7: 1 2 3 4 5 6 8 9 10 13 18 19 20 21 25 26 27 30 32 33 34 40 41 42 43 45 46 48 50
8: 1 2 3 4 5 6 7 9 10 11 13 15 18 19 21 24 25 27 29 31 32 33 34 36 38 40 41 42 45 49 50
9: 1 2 3 4 5 6 7 8 10 11 12 13 14 16 18 27 28 32 33 34 42 43 45
10: 1 2 3 4 5 6 7 8 9 11 13 16 17 18 20 22 23 24 28 31 34 36 37 39 41 43 46 47 48 49
11: 1 2 3 4 5 8 9 10 15 16 18 19 21 23 24 26 30 32 33 34 40 43 44 45 49
12: 1 2 3 4 6 40 41 45 47 50 18 20 22 9 26 29
13: 1 2 3 4 6 7 8 9 10 14 19 21 22 25 29 30 32 37 41 44 45 46 49 50
14: 1 2 3 4 9 13 16 21 24 25 27 29 30 31 32 33 36 37 38 40 41 42 43 44 46 47 50
15: 1 2 3 4 5 8 11 16 20 21 23 24 25 31 32 33 38 39 43 48 49 50
16: 1 2 3 4 5 9 10 11 14 15 19 22 25 30 31 32 33 34 37 40 47 48 49
17: 1 2 3 4 10 21 22 23 24 25 28 30 31 34 35 36 41 43 46 47 48 49
18: 3 33 2 11 4 5 6 1 8 9 10 7 12 44 48 19 21 39 26 28
19: 1 2 3 4 5 6 7 8 11 13 16 18 20 22 25 28 31 36 38 39 41 42 43 46 47 48
20: 32 1 2 3 4 6 38 7 40 10 12 47 49 50 19 23 25 15 29 30 5
21: 1 2 3 4 5 6 7 8 11 13 14 15 17 18 24 26 30 31 32 37 38 43 46 49
22: 16 34 3 1 6 17 12 10 2 44 13 48 49 19 23 4 26 42 30 31
23: 1 2 3 4 5 6 10 11 15 17 20 22 24 28 34 37 39 40 41 42 45 46 47 50
24: 1 2 3 4 6 8 10 11 14 15 17 21 23 25 28 30 33 35 36 38 40 43 45
25: 1 2 3 4 5 6 7 8 13 14 15 16 17 19 20 24 27 29 30 31 33 34 37 40 43 44 45 47 49
26: 1 2 3 4 5 6 7 40 12 11 44 46 48 18 21 22 29 30 31
27: 32 1 2 35 4 5 6 39 8 9 7 44 45 46 49 3 14 25 38 31
28: 19 33 2 50 4 5 1 9 10 34 45 17 18 3 23 24 29
29: 1 2 3 4 8 12 13 14 20 25 26 28 30 32 33 34 37 40 41 44 46 47 48 50
30: 1 2 3 5 6 7 11 13 14 16 17 20 21 22 24 25 26 29 32 33 37 44 48 49 50
31: 1 2 3 5 6 8 10 14 15 16 17 19 21 22 25 26 27 34 35 39 42 43 44 47 49
32: 1 2 3 4 5 6 7 8 9 11 13 14 15 16 20 21 27 29 30 34 36 39 42 43 44 49 50
33: 1 2 3 4 5 6 7 8 9 11 14 15 16 18 24 25 28 29 30 34 35 36 38 39 40 42 43 44 48 49
34: 1 2 3 4 5 6 7 8 9 10 11 16 17 22 23 25 28 29 31 32 33 35 37 38 41 45 46 48 49 50
35: 1 34 3 36 33 6 39 40 41 43 2 46 17 24 4 27 5 31
36: 32 33 2 3 1 37 6 17 8 10 43 14 48 40 50 19 46 24 4 35
37: 1 34 3 36 6 39 40 14 2 44 13 46 16 49 10 21 23 25 29 30
38: 33 2 3 4 1 40 43 44 34 46 15 8 19 20 14 24 45 27 21
39: 32 1 2 35 4 37 3 33 10 43 44 18 15 48 50 19 23 6 27 5 31
40: 1 2 3 4 5 7 8 11 12 14 16 20 23 24 25 26 29 33 35 36 37 38 41 42 47 48
41: 1 2 3 4 5 6 7 8 10 12 13 14 17 19 23 29 34 35 40 48 49 50
42: 32 33 2 3 4 5 6 7 40 9 1 44 46 8 49 50 19 14 22 23 31
43: 1 2 3 4 5 6 7 9 10 11 14 15 17 19 21 24 25 31 32 33 35 36 38 39 48 50
44: 1 2 3 5 11 13 14 18 22 25 26 27 29 30 31 32 33 37 38 39 42 45 46 50
45: 1 2 3 4 5 7 8 9 11 12 13 23 24 25 27 28 34 38 44 46 48 49
46: 1 2 3 4 5 6 7 10 13 14 17 19 21 23 26 27 29 34 35 36 37 38 42 44 45 48
47: 1 2 3 4 5 40 10 12 14 16 17 50 19 20 23 25 29 31
48: 1 2 3 4 6 7 10 15 16 17 18 19 22 26 29 30 33 34 36 39 40 41 43 45 46
49: 1 2 3 4 8 10 11 13 15 16 17 20 21 22 25 27 30 31 32 33 34 37 41 42 45 50
50: 2 3 4 5 6 7 8 12 13 14 15 20 23 28 29 30 32 34 36 39 41 42 43 44 47 49
-------
1(-1)->2 3 4 5 6 7 8 9 10 11 12 13 14 15 16 17 18 19 20 21 22 23 24 25 26 27 28 29 30 31 32 33 34 35 36 37 38 39 40 41 42 43 44 45 46 47 48 49 
2(-1)->1 3 4 5 6 7 8 9 10 11 12 13 14 15 16 17 18 19 20 21 22 23 24 25 26 27 28 29 30 31 32 33 34 35 36 37 38 39 40 41 42 43 44 45 46 47 48 49 50 
3(-1)->1 2 4 5 6 7 8 9 10 11 12 13 14 15 16 17 18 19 20 21 22 23 24 25 26 27 28 29 30 31 32 33 34 35 36 37 38 39 40 41 42 43 44 45 46 47 48 49 50 
4(-1)->1 2 3 5 6 7 8 9 10 11 12 13 14 15 16 17 18 19 20 21 22 23 24 25 26 27 28 29 32 33 34 35 36 38 39 40 41 42 43 45 46 47 48 49 50 
5(-1)->1 2 3 4 6 7 8 9 10 11 15 16 18 19 20 21 23 25 26 27 28 30 31 32 33 34 35 39 40 41 42 43 44 45 46 47 50 
6(-1)->1 2 3 4 5 7 8 9 10 12 13 18 19 20 21 22 23 24 25 26 27 30 31 32 33 34 35 36 37 39 41 42 43 46 48 50 
7(-1)->1 2 3 4 5 6 8 9 10 13 18 19 20 21 25 26 27 30 32 33 34 40 41 42 43 45 46 48 50 
8(-1)->1 2 3 4 5 6 7 9 10 11 13 15 18 19 21 24 25 27 29 31 32 33 34 36 38 40 41 42 45 49 50 
9(-1)->1 2 3 4 5 6 7 8 10 11 12 13 14 16 18 27 28 32 33 34 42 43 45 
10(-1)->1 2 3 4 5 6 7 8 9 11 13 16 17 18 20 22 23 24 28 31 34 36 37 39 41 43 46 47 48 49 
11(-1)->1 2 3 4 5 8 9 10 15 16 18 19 21 23 24 26 30 32 33 34 40 43 44 45 49 
12(-1)->1 2 3 4 6 9 18 20 22 26 29 40 41 45 47 50 
13(-1)->1 2 3 4 6 7 8 9 10 14 19 21 22 25 29 30 32 37 41 44 45 46 49 50 
14(-1)->1 2 3 4 9 13 16 21 24 25 27 29 30 31 32 33 36 37 38 40 41 42 43 44 46 47 50 
15(-1)->1 2 3 4 5 8 11 16 20 21 23 24 25 31 32 33 38 39 43 48 49 50 
16(-1)->1 2 3 4 5 9 10 11 14 15 19 22 25 30 31 32 33 34 37 40 47 48 49 
17(-1)->1 2 3 4 10 21 22 23 24 25 28 30 31 34 35 36 41 43 46 47 48 49 
18(-1)->1 2 3 4 5 6 7 8 9 10 11 12 19 21 26 28 33 39 44 48 
19(-1)->1 2 3 4 5 6 7 8 11 13 16 18 20 22 25 28 31 36 38 39 41 42 43 46 47 48 
20(-1)->1 2 3 4 5 6 7 10 12 15 19 23 25 29 30 32 38 40 47 49 50 
21(-1)->1 2 3 4 5 6 7 8 11 13 14 15 17 18 24 26 30 31 32 37 38 43 46 49 
22(-1)->1 2 3 4 6 10 12 13 16 17 19 23 26 30 31 34 42 44 48 49 
23(-1)->1 2 3 4 5 6 10 11 15 17 20 22 24 28 34 37 39 40 41 42 45 46 47 50 
24(-1)->1 2 3 4 6 8 10 11 14 15 17 21 23 25 28 30 33 35 36 38 40 43 45 
25(-1)->1 2 3 4 5 6 7 8 13 14 15 16 17 19 20 24 27 29 30 31 33 34 37 40 43 44 45 47 49 
26(-1)->1 2 3 4 5 6 7 11 12 18 21 22 29 30 31 40 44 46 48 
27(-1)->1 2 3 4 5 6 7 8 9 14 25 31 32 35 38 39 44 45 46 49 
28(-1)->1 2 3 4 5 9 10 17 18 19 23 24 29 33 34 45 50 
29(-1)->1 2 3 4 8 12 13 14 20 25 26 28 30 32 33 34 37 40 41 44 46 47 48 50 
30(-1)->1 2 3 5 6 7 11 13 14 16 17 20 21 22 24 25 26 29 32 33 37 44 48 49 50 
31(-1)->1 2 3 5 6 8 10 14 15 16 17 19 21 22 25 26 27 34 35 39 42 43 44 47 49 
32(-1)->1 2 3 4 5 6 7 8 9 11 13 14 15 16 20 21 27 29 30 34 36 39 42 43 44 49 50 
33(-1)->1 2 3 4 5 6 7 8 9 11 14 15 16 18 24 25 28 29 30 34 35 36 38 39 40 42 43 44 48 49 
34(-1)->1 2 3 4 5 6 7 8 9 10 11 16 17 22 23 25 28 29 31 32 33 35 37 38 41 45 46 48 49 50 
35(-1)->1 2 3 4 5 6 17 24 27 31 33 34 36 39 40 41 43 46 
36(-1)->1 2 3 4 6 8 10 14 17 19 24 32 33 35 37 40 43 46 48 50 
37(-1)->1 2 3 6 10 13 14 16 21 23 25 29 30 34 36 39 40 44 46 49 
38(-1)->1 2 3 4 8 14 15 19 20 21 24 27 33 34 40 43 44 45 46 
39(-1)->1 2 3 4 5 6 10 15 18 19 23 27 31 32 33 35 37 43 44 48 50 
40(-1)->1 2 3 4 5 7 8 11 12 14 16 20 23 24 25 26 29 33 35 36 37 38 41 42 47 48 
41(-1)->1 2 3 4 5 6 7 8 10 12 13 14 17 19 23 29 34 35 40 48 49 50 
42(-1)->1 2 3 4 5 6 7 8 9 14 19 22 23 31 32 33 40 44 46 49 50 
43(-1)->1 2 3 4 5 6 7 9 10 11 14 15 17 19 21 24 25 31 32 33 35 36 38 39 48 50 
44(-1)->1 2 3 5 11 13 14 18 22 25 26 27 29 30 31 32 33 37 38 39 42 45 46 50 
45(-1)->1 2 3 4 5 7 8 9 11 12 13 23 24 25 27 28 34 38 44 46 48 49 
46(-1)->1 2 3 4 5 6 7 10 13 14 17 19 21 23 26 27 29 34 35 36 37 38 42 44 45 48 
47(-1)->1 2 3 4 5 10 12 14 16 17 19 20 23 25 29 31 40 50 
48(-1)->1 2 3 4 6 7 10 15 16 17 18 19 22 26 29 30 33 34 36 39 40 41 43 45 46 
49(-1)->1 2 3 4 8 10 11 13 15 16 17 20 21 22 25 27 30 31 32 33 34 37 41 42 45 50 
50(-1)->2 3 4 5 6 7 8 12 13 14 15 20 23 28 29 30 32 34 36 39 41 42 43 44 47 49 
-------
Node 2 maps to position 0
Node 3 maps to position 1
Node 1 maps to position 2
Node 4 maps to position 3
Node 5 maps to position 4
Node 6 maps to position 5
Node 8 maps to position 6
Node 10 maps to position 7
Node 33 maps to position 8
Node 34 maps to position 9
Node 7 maps to position 10
Node 25 maps to position 11
Node 14 maps to position 12
Node 32 maps to position 13
Node 19 maps to position 14
Node 40 maps to position 15
Node 43 maps to position 16
Node 46 maps to position 17
Node 49 maps to position 18
Node 50 maps to position 19
Node 11 maps to position 20
Node 30 maps to position 21
Node 31 maps to position 22
Node 48 maps to position 23
Node 13 maps to position 24
Node 21 maps to position 25
Node 23 maps to position 26
Node 29 maps to position 27
Node 44 maps to position 28
Node 9 maps to position 29
Node 16 maps to position 30
Node 24 maps to position 31
Node 15 maps to position 32
Node 17 maps to position 33
Node 41 maps to position 34
Node 45 maps to position 35
Node 20 maps to position 36
Node 39 maps to position 37
Node 42 maps to position 38
Node 18 maps to position 39
Node 22 maps to position 40
Node 27 maps to position 41
Node 36 maps to position 42
Node 37 maps to position 43
Node 26 maps to position 44
Node 38 maps to position 45
Node 35 maps to position 46
Node 47 maps to position 47
Node 28 maps to position 48
Node 12 maps to position 49
2(-1)->1 3 4 5 6 7 8 9 10 11 12 13 14 15 16 17 18 19 20 21 22 23 24 25 26 27 28 29 30 31 32 33 34 35 36 37 38 39 40 41 42 43 44 45 46 47 48 49 50 
3(-1)->1 2 4 5 6 7 8 9 10 11 12 13 14 15 16 17 18 19 20 21 22 23 24 25 26 27 28 29 30 31 32 33 34 35 36 37 38 39 40 41 42 43 44 45 46 47 48 49 50 
1(-1)->2 3 4 5 6 7 8 9 10 11 12 13 14 15 16 17 18 19 20 21 22 23 24 25 26 27 28 29 30 31 32 33 34 35 36 37 38 39 40 41 42 43 44 45 46 47 48 49 
4(-1)->1 2 3 5 6 7 8 9 10 11 12 13 14 15 16 17 18 19 20 21 22 23 24 25 26 27 28 29 32 33 34 35 36 38 39 40 41 42 43 45 46 47 48 49 50 
5(-1)->1 2 3 4 6 7 8 9 10 11 15 16 18 19 20 21 23 25 26 27 28 30 31 32 33 34 35 39 40 41 42 43 44 45 46 47 50 
6(-1)->1 2 3 4 5 7 8 9 10 12 13 18 19 20 21 22 23 24 25 26 27 30 31 32 33 34 35 36 37 39 41 42 43 46 48 50 
8(-1)->1 2 3 4 5 6 7 9 10 11 13 15 18 19 21 24 25 27 29 31 32 33 34 36 38 40 41 42 45 49 50 
10(-1)->1 2 3 4 5 6 7 8 9 11 13 16 17 18 20 22 23 24 28 31 34 36 37 39 41 43 46 47 48 49 
33(-1)->1 2 3 4 5 6 7 8 9 11 14 15 16 18 24 25 28 29 30 34 35 36 38 39 40 42 43 44 48 49 
34(-1)->1 2 3 4 5 6 7 8 9 10 11 16 17 22 23 25 28 29 31 32 33 35 37 38 41 45 46 48 49 50 
7(-1)->1 2 3 4 5 6 8 9 10 13 18 19 20 21 25 26 27 30 32 33 34 40 41 42 43 45 46 48 50 
25(-1)->1 2 3 4 5 6 7 8 13 14 15 16 17 19 20 24 27 29 30 31 33 34 37 40 43 44 45 47 49 
14(-1)->1 2 3 4 9 13 16 21 24 25 27 29 30 31 32 33 36 37 38 40 41 42 43 44 46 47 50 
32(-1)->1 2 3 4 5 6 7 8 9 11 13 14 15 16 20 21 27 29 30 34 36 39 42 43 44 49 50 
19(-1)->1 2 3 4 5 6 7 8 11 13 16 18 20 22 25 28 31 36 38 39 41 42 43 46 47 48 
40(-1)->1 2 3 4 5 7 8 11 12 14 16 20 23 24 25 26 29 33 35 36 37 38 41 42 47 48 
43(-1)->1 2 3 4 5 6 7 9 10 11 14 15 17 19 21 24 25 31 32 33 35 36 38 39 48 50 
46(-1)->1 2 3 4 5 6 7 10 13 14 17 19 21 23 26 27 29 34 35 36 37 38 42 44 45 48 
49(-1)->1 2 3 4 8 10 11 13 15 16 17 20 21 22 25 27 30 31 32 33 34 37 41 42 45 50 
50(-1)->2 3 4 5 6 7 8 12 13 14 15 20 23 28 29 30 32 34 36 39 41 42 43 44 47 49 
11(-1)->1 2 3 4 5 8 9 10 15 16 18 19 21 23 24 26 30 32 33 34 40 43 44 45 49 
30(-1)->1 2 3 5 6 7 11 13 14 16 17 20 21 22 24 25 26 29 32 33 37 44 48 49 50 
31(-1)->1 2 3 5 6 8 10 14 15 16 17 19 21 22 25 26 27 34 35 39 42 43 44 47 49 
48(-1)->1 2 3 4 6 7 10 15 16 17 18 19 22 26 29 30 33 34 36 39 40 41 43 45 46 
13(-1)->1 2 3 4 6 7 8 9 10 14 19 21 22 25 29 30 32 37 41 44 45 46 49 50 
21(-1)->1 2 3 4 5 6 7 8 11 13 14 15 17 18 24 26 30 31 32 37 38 43 46 49 
23(-1)->1 2 3 4 5 6 10 11 15 17 20 22 24 28 34 37 39 40 41 42 45 46 47 50 
29(-1)->1 2 3 4 8 12 13 14 20 25 26 28 30 32 33 34 37 40 41 44 46 47 48 50 
44(-1)->1 2 3 5 11 13 14 18 22 25 26 27 29 30 31 32 33 37 38 39 42 45 46 50 
9(-1)->1 2 3 4 5 6 7 8 10 11 12 13 14 16 18 27 28 32 33 34 42 43 45 
16(-1)->1 2 3 4 5 9 10 11 14 15 19 22 25 30 31 32 33 34 37 40 47 48 49 
24(-1)->1 2 3 4 6 8 10 11 14 15 17 21 23 25 28 30 33 35 36 38 40 43 45 
15(-1)->1 2 3 4 5 8 11 16 20 21 23 24 25 31 32 33 38 39 43 48 49 50 
17(-1)->1 2 3 4 10 21 22 23 24 25 28 30 31 34 35 36 41 43 46 47 48 49 
41(-1)->1 2 3 4 5 6 7 8 10 12 13 14 17 19 23 29 34 35 40 48 49 50 
45(-1)->1 2 3 4 5 7 8 9 11 12 13 23 24 25 27 28 34 38 44 46 48 49 
20(-1)->1 2 3 4 5 6 7 10 12 15 19 23 25 29 30 32 38 40 47 49 50 
39(-1)->1 2 3 4 5 6 10 15 18 19 23 27 31 32 33 35 37 43 44 48 50 
42(-1)->1 2 3 4 5 6 7 8 9 14 19 22 23 31 32 33 40 44 46 49 50 
18(-1)->1 2 3 4 5 6 7 8 9 10 11 12 19 21 26 28 33 39 44 48 
22(-1)->1 2 3 4 6 10 12 13 16 17 19 23 26 30 31 34 42 44 48 49 
27(-1)->1 2 3 4 5 6 7 8 9 14 25 31 32 35 38 39 44 45 46 49 
36(-1)->1 2 3 4 6 8 10 14 17 19 24 32 33 35 37 40 43 46 48 50 
37(-1)->1 2 3 6 10 13 14 16 21 23 25 29 30 34 36 39 40 44 46 49 
26(-1)->1 2 3 4 5 6 7 11 12 18 21 22 29 30 31 40 44 46 48 
38(-1)->1 2 3 4 8 14 15 19 20 21 24 27 33 34 40 43 44 45 46 
35(-1)->1 2 3 4 5 6 17 24 27 31 33 34 36 39 40 41 43 46 
47(-1)->1 2 3 4 5 10 12 14 16 17 19 20 23 25 29 31 40 50 
28(-1)->1 2 3 4 5 9 10 17 18 19 23 24 29 33 34 45 50 
12(-1)->1 2 3 4 6 9 18 20 22 26 29 40 41 45 47 50 
-------
BLAH
START TIME: 1433713691
Cq = 11 and is assigned to x34
BACKTRACKED TO DEPTH: 33
0 1 2 3 4 5 6 7 8 9 10 
10000
20000
30000
1(2)->2 3 4 5 6 7 8 9 10 11 12 13 14 15 16 17 18 19 20 21 22 23 24 25 26 27 28 29 30 31 32 33 34 35 36 37 38 39 40 41 42 43 44 45 46 47 48 49 
2(0)->1 3 4 5 6 7 8 9 10 11 12 13 14 15 16 17 18 19 20 21 22 23 24 25 26 27 28 29 30 31 32 33 34 35 36 37 38 39 40 41 42 43 44 45 46 47 48 49 50 
3(1)->1 2 4 5 6 7 8 9 10 11 12 13 14 15 16 17 18 19 20 21 22 23 24 25 26 27 28 29 30 31 32 33 34 35 36 37 38 39 40 41 42 43 44 45 46 47 48 49 50 
4(3)->1 2 3 5 6 7 8 9 10 11 12 13 14 15 16 17 18 19 20 21 22 23 24 25 26 27 28 29 32 33 34 35 36 38 39 40 41 42 43 45 46 47 48 49 50 
5(4)->1 2 3 4 6 7 8 9 10 11 15 16 18 19 20 21 23 25 26 27 28 30 31 32 33 34 35 39 40 41 42 43 44 45 46 47 50 
6(5)->1 2 3 4 5 7 8 9 10 12 13 18 19 20 21 22 23 24 25 26 27 30 31 32 33 34 35 36 37 39 41 42 43 46 48 50 
7(9)->1 2 3 4 5 6 8 9 10 13 18 19 20 21 25 26 27 30 32 33 34 40 41 42 43 45 46 48 50 
8(6)->1 2 3 4 5 6 7 9 10 11 13 15 18 19 21 24 25 27 29 31 32 33 34 36 38 40 41 42 45 49 50 
9(10)->1 2 3 4 5 6 7 8 10 11 12 13 14 16 18 27 28 32 33 34 42 43 45 
10(7)->1 2 3 4 5 6 7 8 9 11 13 16 17 18 20 22 23 24 28 31 34 36 37 39 41 43 46 47 48 49 
11(9)->1 2 3 4 5 8 9 10 15 16 18 19 21 23 24 26 30 32 33 34 40 43 44 45 49 
12(4)->1 2 3 4 6 9 18 20 22 26 29 40 41 45 47 50 
13(8)->1 2 3 4 6 7 8 9 10 14 19 21 22 25 29 30 32 37 41 44 45 46 49 50 
14(4)->1 2 3 4 9 13 16 21 24 25 27 29 30 31 32 33 36 37 38 40 41 42 43 44 46 47 50 
15(5)->1 2 3 4 5 8 11 16 20 21 23 24 25 31 32 33 38 39 43 48 49 50 
16(6)->1 2 3 4 5 9 10 11 14 15 19 22 25 30 31 32 33 34 37 40 47 48 49 
17(5)->1 2 3 4 10 21 22 23 24 25 28 30 31 34 35 36 41 43 46 47 48 49 
18(11)->1 2 3 4 5 6 7 8 9 10 11 12 19 21 26 28 33 39 44 48 
19(7)->1 2 3 4 5 6 7 8 11 13 16 18 20 22 25 28 31 36 38 39 41 42 43 46 47 48 
20(6)->1 2 3 4 5 6 7 10 12 15 19 23 25 29 30 32 38 40 47 49 50 
21(10)->1 2 3 4 5 6 7 8 11 13 14 15 17 18 24 26 30 31 32 37 38 43 46 49 
22(9)->1 2 3 4 6 10 12 13 16 17 19 23 26 30 31 34 42 44 48 49 
23(10)->1 2 3 4 5 6 10 11 15 17 20 22 24 28 34 37 39 40 41 42 45 46 47 50 
24(8)->1 2 3 4 6 8 10 11 14 15 17 21 23 25 28 30 33 35 36 38 40 43 45 
25(10)->1 2 3 4 5 6 7 8 13 14 15 16 17 19 20 24 27 29 30 31 33 34 37 40 43 44 45 47 49 
26(7)->1 2 3 4 5 6 7 11 12 18 21 22 29 30 31 40 44 46 48 
27(11)->1 2 3 4 5 6 7 8 9 14 25 31 32 35 38 39 44 45 46 49 
28(6)->1 2 3 4 5 9 10 17 18 19 23 24 29 33 34 45 50 
29(9)->1 2 3 4 8 12 13 14 20 25 26 28 30 32 33 34 37 40 41 44 46 47 48 50 
30(3)->1 2 3 5 6 7 11 13 14 16 17 20 21 22 24 25 26 29 32 33 37 44 48 49 50 
31(3)->1 2 3 5 6 8 10 14 15 16 17 19 21 22 25 26 27 34 35 39 42 43 44 47 49 
32(7)->1 2 3 4 5 6 7 8 9 11 13 14 15 16 20 21 27 29 30 34 36 39 42 43 44 49 50 
33(7)->1 2 3 4 5 6 7 8 9 11 14 15 16 18 24 25 28 29 30 34 35 36 38 39 40 42 43 44 48 49 
34(8)->1 2 3 4 5 6 7 8 9 10 11 16 17 22 23 25 28 29 31 32 33 35 37 38 41 45 46 48 49 50 
35(10)->1 2 3 4 5 6 17 24 27 31 33 34 36 39 40 41 43 46 
36(9)->1 2 3 4 6 8 10 14 17 19 24 32 33 35 37 40 43 46 48 50 
37(11)->1 2 3 6 10 13 14 16 21 23 25 29 30 34 36 39 40 44 46 49 
38(9)->1 2 3 4 8 14 15 19 20 21 24 27 33 34 40 43 44 45 46 
39(8)->1 2 3 4 5 6 10 15 18 19 23 27 31 32 33 35 37 43 44 48 50 
40(5)->1 2 3 4 5 7 8 11 12 14 16 20 23 24 25 26 29 33 35 36 37 38 41 42 47 48 
41(11)->1 2 3 4 5 6 7 8 10 12 13 14 17 19 23 29 34 35 40 48 49 50 
42(8)->1 2 3 4 5 6 7 8 9 14 19 22 23 31 32 33 40 44 46 49 50 
43(6)->1 2 3 4 5 6 7 9 10 11 14 15 17 19 21 24 25 31 32 33 35 36 38 39 48 50 
44(5)->1 2 3 5 11 13 14 18 22 25 26 27 29 30 31 32 33 37 38 39 42 45 46 50 
45(7)->1 2 3 4 5 7 8 9 11 12 13 23 24 25 27 28 34 38 44 46 48 49 
46(6)->1 2 3 4 5 6 7 10 13 14 17 19 21 23 26 27 29 34 35 36 37 38 42 44 45 48 
47(8)->1 2 3 4 5 10 12 14 16 17 19 20 23 25 29 31 40 50 
48(4)->1 2 3 4 6 7 10 15 16 17 18 19 22 26 29 30 33 34 36 39 40 41 43 45 46 
49(4)->1 2 3 4 8 10 11 13 15 16 17 20 21 22 25 27 30 31 32 33 34 37 41 42 45 50 
50(2)->2 3 4 5 6 7 8 12 13 14 15 20 23 28 29 30 32 34 36 39 41 42 43 44 47 49 
COUNT: 36253
COLORS: 12
EDGES: 650
12
36253
