1: 2 3 4 5 6 7 8 9 10 11 12 13 14 15 16 17 18 19 20 21 22 23 24 25 26 27 28 29 30 31 32 33 34 35 36 37 38 39 40 41 42 43 44 45 46 47 48 49
2: 1 3 4 5 6 7 8 9 10 11 12 13 14 15 16 17 18 19 20 21 22 23 24 25 26 27 28 29 30 31 32 33 34 35 36 37 38 39 40 41 42 43 44 45 46 47 48 49 50
3: 1 2 4 5 6 7 8 9 10 11 12 13 14 15 16 17 18 19 20 21 22 23 24 25 26 27 28 29 30 31 32 33 34 35 36 37 38 39 40 41 42 43 44 45 46 47 48 49 50
4: 1 2 3 5 6 7 8 9 10 11 12 13 14 15 16 17 18 19 20 21 22 23 24 25 26 27 28 29 30 31 32 33 34 35 36 37 38 39 40 41 42 43 44 46 48 49 50
5: 1 2 3 4 6 7 8 9 10 11 12 13 14 15 17 18 19 20 21 22 23 24 27 29 30 31 32 33 34 35 36 37 39 42 43 44 46 48
6: 1 2 3 4 5 7 8 9 10 11 12 13 17 18 19 21 22 23 24 27 30 31 34 35 36 37 41 42 43 46 48 50
7: 1 2 3 4 5 6 8 9 10 12 15 16 20 22 24 31 33 34 36 37 39 42 47
8: 1 2 3 4 5 6 7 9 12 13 14 17 20 22 24 25 27 28 29 30 31 34 36 37 42 43 44 45 47 48 49
9: 1 2 3 4 5 6 7 8 11 13 14 21 22 23 25 28 32 33 35 36 39 40 41 42 44 47 50
10: 1 2 3 4 5 6 7 14 15 18 19 22 24 27 28 32 35 36 42 43 47 48 49 50
11: 32 1 2 3 48 5 38 39 40 9 14 47 16 18 20 22 4 6 29
12: 1 34 3 4 5 6 7 8 2 16 49 19 21 22 23 25 27 29
13: 33 2 3 36 9 6 1 8 41 48 40 19 20 21 22 23 24 4 27 30 5
14: 1 2 3 4 5 8 9 10 11 17 18 22 23 24 25 28 29 31 34 36 37 38 41 50
15: 1 2 3 4 5 7 10 16 17 18 19 20 22 28 30 31 33 35 38 41 42 43 44 45 46 47 48 50
16: 33 34 3 1 49 39 41 11 12 2 15 48 17 19 20 23 24 7 28 4
17: 1 2 3 4 5 6 8 14 15 16 20 22 23 24 25 26 27 28 30 33 34 43 44 46 50
18: 1 2 43 4 37 6 41 10 11 44 46 29 3 20 14 22 23 15 28 42 5
19: 32 33 2 3 4 5 6 39 40 15 10 43 12 45 13 16 1 36 47 29 30
20: 1 2 3 4 5 7 8 11 13 15 16 17 18 22 24 26 29 30 31 33 35 39 41 44 46
21: 1 2 35 4 5 6 41 23 12 13 44 50 3 22 9 24 28 29 30
22: 1 2 3 4 5 6 7 8 9 10 11 12 13 14 15 17 18 20 21 23 25 26 29 30 31 33 34 35 38 42 43 48
23: 1 2 3 4 5 6 9 12 13 14 16 17 18 21 22 24 25 26 28 33 34 38 43 44 45 46 47 49
24: 1 2 3 4 5 6 7 8 10 13 14 16 17 20 21 23 25 30 32 36 37 38 39 41 42 44 45 49
25: 1 2 3 36 37 39 8 41 12 45 14 44 49 50 9 17 22 23 24 4 30
26: 32 33 34 3 36 17 40 2 45 47 49 20 1 22 23 4 31
27: 1 2 3 4 5 6 8 10 12 13 17 28 30 31 33 35 38 39 40 41 42 44 46 49
28: 1 2 3 4 8 9 10 14 15 16 17 18 21 23 27 32 33 34 42 43 45 46 50
29: 1 2 3 4 5 8 11 12 14 18 19 20 21 22 31 32 35 37 39 40 41 43 44 45 48 49 50
30: 1 2 3 4 5 6 8 13 15 17 19 20 21 22 24 25 27 31 33 35 37 43 44 45 46 49 50
31: 1 2 3 4 5 6 7 8 14 15 20 22 26 27 29 30 32 35 36 38 44 46 48
32: 1 2 3 4 5 9 10 11 19 24 26 28 29 31 34 36 38 40 41 45 46 50
33: 1 2 3 4 5 7 9 13 15 16 17 19 20 22 23 26 27 28 30 34 36 37 38 39 41 42 43 44 45 46 48
34: 1 2 3 4 5 6 7 8 12 14 16 17 22 23 26 28 32 33 35 42 43 44 46 47
35: 1 2 3 4 5 6 9 10 15 20 21 22 27 29 30 31 34 36 39 40 44 46 50
36: 1 2 3 4 5 6 7 8 9 10 13 14 19 24 25 26 31 32 33 35 39 42 45 46 47
37: 1 2 3 4 5 6 7 8 14 18 24 25 29 30 33 38 39 40 43 45 49 50
38: 32 33 2 43 1 37 39 41 11 44 45 46 15 3 14 22 23 24 4 27 31
39: 1 2 3 4 5 7 9 11 16 19 20 24 25 27 29 33 35 36 37 38 42 44 48 49
40: 3 32 2 35 4 37 1 9 42 11 13 46 47 49 19 43 26 27 29
41: 1 2 3 4 6 9 13 14 15 16 18 20 21 24 25 27 29 32 33 38 42 43 44 49 50
42: 1 2 3 4 5 6 7 8 9 10 15 18 22 24 27 28 33 34 36 39 40 41 43 46
43: 1 2 3 4 5 6 8 10 15 17 18 19 22 23 28 29 30 33 34 37 38 40 41 42 44 45 48 49
44: 1 2 3 4 5 8 9 15 17 18 20 21 23 24 25 27 29 30 31 33 34 35 38 39 41 43 46 47 49
45: 32 33 2 3 36 37 38 1 8 43 15 50 19 23 24 25 26 28 29 30
46: 1 2 3 4 5 6 15 17 18 20 23 27 28 30 31 32 33 34 35 36 38 40 42 44
47: 1 34 3 36 7 40 9 10 11 44 2 15 8 50 19 23 26
48: 33 2 3 1 5 6 39 8 10 43 13 15 16 11 50 22 4 29 31
49: 1 2 3 4 8 10 12 16 23 24 25 26 27 29 30 37 39 40 41 43 44 50
50: 2 3 4 6 9 10 14 15 17 21 25 28 29 30 32 35 37 41 45 47 48 49
-------
1(-1)->2 3 4 5 6 7 8 9 10 11 12 13 14 15 16 17 18 19 20 21 22 23 24 25 26 27 28 29 30 31 32 33 34 35 36 37 38 39 40 41 42 43 44 45 46 47 48 49 
2(-1)->1 3 4 5 6 7 8 9 10 11 12 13 14 15 16 17 18 19 20 21 22 23 24 25 26 27 28 29 30 31 32 33 34 35 36 37 38 39 40 41 42 43 44 45 46 47 48 49 50 
3(-1)->1 2 4 5 6 7 8 9 10 11 12 13 14 15 16 17 18 19 20 21 22 23 24 25 26 27 28 29 30 31 32 33 34 35 36 37 38 39 40 41 42 43 44 45 46 47 48 49 50 
4(-1)->1 2 3 5 6 7 8 9 10 11 12 13 14 15 16 17 18 19 20 21 22 23 24 25 26 27 28 29 30 31 32 33 34 35 36 37 38 39 40 41 42 43 44 46 48 49 50 
5(-1)->1 2 3 4 6 7 8 9 10 11 12 13 14 15 17 18 19 20 21 22 23 24 27 29 30 31 32 33 34 35 36 37 39 42 43 44 46 48 
6(-1)->1 2 3 4 5 7 8 9 10 11 12 13 17 18 19 21 22 23 24 27 30 31 34 35 36 37 41 42 43 46 48 50 
7(-1)->1 2 3 4 5 6 8 9 10 12 15 16 20 22 24 31 33 34 36 37 39 42 47 
8(-1)->1 2 3 4 5 6 7 9 12 13 14 17 20 22 24 25 27 28 29 30 31 34 36 37 42 43 44 45 47 48 49 
9(-1)->1 2 3 4 5 6 7 8 11 13 14 21 22 23 25 28 32 33 35 36 39 40 41 42 44 47 50 
10(-1)->1 2 3 4 5 6 7 14 15 18 19 22 24 27 28 32 35 36 42 43 47 48 49 50 
11(-1)->1 2 3 4 5 6 9 14 16 18 20 22 29 32 38 39 40 47 48 
12(-1)->1 2 3 4 5 6 7 8 16 19 21 22 23 25 27 29 34 49 
13(-1)->1 2 3 4 5 6 8 9 19 20 21 22 23 24 27 30 33 36 40 41 48 
14(-1)->1 2 3 4 5 8 9 10 11 17 18 22 23 24 25 28 29 31 34 36 37 38 41 50 
15(-1)->1 2 3 4 5 7 10 16 17 18 19 20 22 28 30 31 33 35 38 41 42 43 44 45 46 47 48 50 
16(-1)->1 2 3 4 7 11 12 15 17 19 20 23 24 28 33 34 39 41 48 49 
17(-1)->1 2 3 4 5 6 8 14 15 16 20 22 23 24 25 26 27 28 30 33 34 43 44 46 50 
18(-1)->1 2 3 4 5 6 10 11 14 15 20 22 23 28 29 37 41 42 43 44 46 
19(-1)->1 2 3 4 5 6 10 12 13 15 16 29 30 32 33 36 39 40 43 45 47 
20(-1)->1 2 3 4 5 7 8 11 13 15 16 17 18 22 24 26 29 30 31 33 35 39 41 44 46 
21(-1)->1 2 3 4 5 6 9 12 13 22 23 24 28 29 30 35 41 44 50 
22(-1)->1 2 3 4 5 6 7 8 9 10 11 12 13 14 15 17 18 20 21 23 25 26 29 30 31 33 34 35 38 42 43 48 
23(-1)->1 2 3 4 5 6 9 12 13 14 16 17 18 21 22 24 25 26 28 33 34 38 43 44 45 46 47 49 
24(-1)->1 2 3 4 5 6 7 8 10 13 14 16 17 20 21 23 25 30 32 36 37 38 39 41 42 44 45 49 
25(-1)->1 2 3 4 8 9 12 14 17 22 23 24 30 36 37 39 41 44 45 49 50 
26(-1)->1 2 3 4 17 20 22 23 31 32 33 34 36 40 45 47 49 
27(-1)->1 2 3 4 5 6 8 10 12 13 17 28 30 31 33 35 38 39 40 41 42 44 46 49 
28(-1)->1 2 3 4 8 9 10 14 15 16 17 18 21 23 27 32 33 34 42 43 45 46 50 
29(-1)->1 2 3 4 5 8 11 12 14 18 19 20 21 22 31 32 35 37 39 40 41 43 44 45 48 49 50 
30(-1)->1 2 3 4 5 6 8 13 15 17 19 20 21 22 24 25 27 31 33 35 37 43 44 45 46 49 50 
31(-1)->1 2 3 4 5 6 7 8 14 15 20 22 26 27 29 30 32 35 36 38 44 46 48 
32(-1)->1 2 3 4 5 9 10 11 19 24 26 28 29 31 34 36 38 40 41 45 46 50 
33(-1)->1 2 3 4 5 7 9 13 15 16 17 19 20 22 23 26 27 28 30 34 36 37 38 39 41 42 43 44 45 46 48 
34(-1)->1 2 3 4 5 6 7 8 12 14 16 17 22 23 26 28 32 33 35 42 43 44 46 47 
35(-1)->1 2 3 4 5 6 9 10 15 20 21 22 27 29 30 31 34 36 39 40 44 46 50 
36(-1)->1 2 3 4 5 6 7 8 9 10 13 14 19 24 25 26 31 32 33 35 39 42 45 46 47 
37(-1)->1 2 3 4 5 6 7 8 14 18 24 25 29 30 33 38 39 40 43 45 49 50 
38(-1)->1 2 3 4 11 14 15 22 23 24 27 31 32 33 37 39 41 43 44 45 46 
39(-1)->1 2 3 4 5 7 9 11 16 19 20 24 25 27 29 33 35 36 37 38 42 44 48 49 
40(-1)->1 2 3 4 9 11 13 19 26 27 29 32 35 37 42 43 46 47 49 
41(-1)->1 2 3 4 6 9 13 14 15 16 18 20 21 24 25 27 29 32 33 38 42 43 44 49 50 
42(-1)->1 2 3 4 5 6 7 8 9 10 15 18 22 24 27 28 33 34 36 39 40 41 43 46 
43(-1)->1 2 3 4 5 6 8 10 15 17 18 19 22 23 28 29 30 33 34 37 38 40 41 42 44 45 48 49 
44(-1)->1 2 3 4 5 8 9 15 17 18 20 21 23 24 25 27 29 30 31 33 34 35 38 39 41 43 46 47 49 
45(-1)->1 2 3 8 15 19 23 24 25 26 28 29 30 32 33 36 37 38 43 50 
46(-1)->1 2 3 4 5 6 15 17 18 20 23 27 28 30 31 32 33 34 35 36 38 40 42 44 
47(-1)->1 2 3 7 8 9 10 11 15 19 23 26 34 36 40 44 50 
48(-1)->1 2 3 4 5 6 8 10 11 13 15 16 22 29 31 33 39 43 50 
49(-1)->1 2 3 4 8 10 12 16 23 24 25 26 27 29 30 37 39 40 41 43 44 50 
50(-1)->2 3 4 6 9 10 14 15 17 21 25 28 29 30 32 35 37 41 45 47 48 49 
-------
Node 2 maps to position 0
Node 3 maps to position 1
Node 1 maps to position 2
Node 4 maps to position 3
Node 5 maps to position 4
Node 6 maps to position 5
Node 22 maps to position 6
Node 8 maps to position 7
Node 33 maps to position 8
Node 44 maps to position 9
Node 15 maps to position 10
Node 23 maps to position 11
Node 24 maps to position 12
Node 43 maps to position 13
Node 9 maps to position 14
Node 29 maps to position 15
Node 30 maps to position 16
Node 17 maps to position 17
Node 20 maps to position 18
Node 36 maps to position 19
Node 41 maps to position 20
Node 10 maps to position 21
Node 14 maps to position 22
Node 27 maps to position 23
Node 34 maps to position 24
Node 39 maps to position 25
Node 42 maps to position 26
Node 46 maps to position 27
Node 7 maps to position 28
Node 28 maps to position 29
Node 31 maps to position 30
Node 35 maps to position 31
Node 32 maps to position 32
Node 37 maps to position 33
Node 49 maps to position 34
Node 50 maps to position 35
Node 13 maps to position 36
Node 18 maps to position 37
Node 19 maps to position 38
Node 25 maps to position 39
Node 38 maps to position 40
Node 16 maps to position 41
Node 45 maps to position 42
Node 11 maps to position 43
Node 21 maps to position 44
Node 40 maps to position 45
Node 48 maps to position 46
Node 12 maps to position 47
Node 26 maps to position 48
Node 47 maps to position 49
2(-1)->1 3 4 5 6 7 8 9 10 11 12 13 14 15 16 17 18 19 20 21 22 23 24 25 26 27 28 29 30 31 32 33 34 35 36 37 38 39 40 41 42 43 44 45 46 47 48 49 50 
3(-1)->1 2 4 5 6 7 8 9 10 11 12 13 14 15 16 17 18 19 20 21 22 23 24 25 26 27 28 29 30 31 32 33 34 35 36 37 38 39 40 41 42 43 44 45 46 47 48 49 50 
1(-1)->2 3 4 5 6 7 8 9 10 11 12 13 14 15 16 17 18 19 20 21 22 23 24 25 26 27 28 29 30 31 32 33 34 35 36 37 38 39 40 41 42 43 44 45 46 47 48 49 
4(-1)->1 2 3 5 6 7 8 9 10 11 12 13 14 15 16 17 18 19 20 21 22 23 24 25 26 27 28 29 30 31 32 33 34 35 36 37 38 39 40 41 42 43 44 46 48 49 50 
5(-1)->1 2 3 4 6 7 8 9 10 11 12 13 14 15 17 18 19 20 21 22 23 24 27 29 30 31 32 33 34 35 36 37 39 42 43 44 46 48 
6(-1)->1 2 3 4 5 7 8 9 10 11 12 13 17 18 19 21 22 23 24 27 30 31 34 35 36 37 41 42 43 46 48 50 
22(-1)->1 2 3 4 5 6 7 8 9 10 11 12 13 14 15 17 18 20 21 23 25 26 29 30 31 33 34 35 38 42 43 48 
8(-1)->1 2 3 4 5 6 7 9 12 13 14 17 20 22 24 25 27 28 29 30 31 34 36 37 42 43 44 45 47 48 49 
33(-1)->1 2 3 4 5 7 9 13 15 16 17 19 20 22 23 26 27 28 30 34 36 37 38 39 41 42 43 44 45 46 48 
44(-1)->1 2 3 4 5 8 9 15 17 18 20 21 23 24 25 27 29 30 31 33 34 35 38 39 41 43 46 47 49 
15(-1)->1 2 3 4 5 7 10 16 17 18 19 20 22 28 30 31 33 35 38 41 42 43 44 45 46 47 48 50 
23(-1)->1 2 3 4 5 6 9 12 13 14 16 17 18 21 22 24 25 26 28 33 34 38 43 44 45 46 47 49 
24(-1)->1 2 3 4 5 6 7 8 10 13 14 16 17 20 21 23 25 30 32 36 37 38 39 41 42 44 45 49 
43(-1)->1 2 3 4 5 6 8 10 15 17 18 19 22 23 28 29 30 33 34 37 38 40 41 42 44 45 48 49 
9(-1)->1 2 3 4 5 6 7 8 11 13 14 21 22 23 25 28 32 33 35 36 39 40 41 42 44 47 50 
29(-1)->1 2 3 4 5 8 11 12 14 18 19 20 21 22 31 32 35 37 39 40 41 43 44 45 48 49 50 
30(-1)->1 2 3 4 5 6 8 13 15 17 19 20 21 22 24 25 27 31 33 35 37 43 44 45 46 49 50 
17(-1)->1 2 3 4 5 6 8 14 15 16 20 22 23 24 25 26 27 28 30 33 34 43 44 46 50 
20(-1)->1 2 3 4 5 7 8 11 13 15 16 17 18 22 24 26 29 30 31 33 35 39 41 44 46 
36(-1)->1 2 3 4 5 6 7 8 9 10 13 14 19 24 25 26 31 32 33 35 39 42 45 46 47 
41(-1)->1 2 3 4 6 9 13 14 15 16 18 20 21 24 25 27 29 32 33 38 42 43 44 49 50 
10(-1)->1 2 3 4 5 6 7 14 15 18 19 22 24 27 28 32 35 36 42 43 47 48 49 50 
14(-1)->1 2 3 4 5 8 9 10 11 17 18 22 23 24 25 28 29 31 34 36 37 38 41 50 
27(-1)->1 2 3 4 5 6 8 10 12 13 17 28 30 31 33 35 38 39 40 41 42 44 46 49 
34(-1)->1 2 3 4 5 6 7 8 12 14 16 17 22 23 26 28 32 33 35 42 43 44 46 47 
39(-1)->1 2 3 4 5 7 9 11 16 19 20 24 25 27 29 33 35 36 37 38 42 44 48 49 
42(-1)->1 2 3 4 5 6 7 8 9 10 15 18 22 24 27 28 33 34 36 39 40 41 43 46 
46(-1)->1 2 3 4 5 6 15 17 18 20 23 27 28 30 31 32 33 34 35 36 38 40 42 44 
7(-1)->1 2 3 4 5 6 8 9 10 12 15 16 20 22 24 31 33 34 36 37 39 42 47 
28(-1)->1 2 3 4 8 9 10 14 15 16 17 18 21 23 27 32 33 34 42 43 45 46 50 
31(-1)->1 2 3 4 5 6 7 8 14 15 20 22 26 27 29 30 32 35 36 38 44 46 48 
35(-1)->1 2 3 4 5 6 9 10 15 20 21 22 27 29 30 31 34 36 39 40 44 46 50 
32(-1)->1 2 3 4 5 9 10 11 19 24 26 28 29 31 34 36 38 40 41 45 46 50 
37(-1)->1 2 3 4 5 6 7 8 14 18 24 25 29 30 33 38 39 40 43 45 49 50 
49(-1)->1 2 3 4 8 10 12 16 23 24 25 26 27 29 30 37 39 40 41 43 44 50 
50(-1)->2 3 4 6 9 10 14 15 17 21 25 28 29 30 32 35 37 41 45 47 48 49 
13(-1)->1 2 3 4 5 6 8 9 19 20 21 22 23 24 27 30 33 36 40 41 48 
18(-1)->1 2 3 4 5 6 10 11 14 15 20 22 23 28 29 37 41 42 43 44 46 
19(-1)->1 2 3 4 5 6 10 12 13 15 16 29 30 32 33 36 39 40 43 45 47 
25(-1)->1 2 3 4 8 9 12 14 17 22 23 24 30 36 37 39 41 44 45 49 50 
38(-1)->1 2 3 4 11 14 15 22 23 24 27 31 32 33 37 39 41 43 44 45 46 
16(-1)->1 2 3 4 7 11 12 15 17 19 20 23 24 28 33 34 39 41 48 49 
45(-1)->1 2 3 8 15 19 23 24 25 26 28 29 30 32 33 36 37 38 43 50 
11(-1)->1 2 3 4 5 6 9 14 16 18 20 22 29 32 38 39 40 47 48 
21(-1)->1 2 3 4 5 6 9 12 13 22 23 24 28 29 30 35 41 44 50 
40(-1)->1 2 3 4 9 11 13 19 26 27 29 32 35 37 42 43 46 47 49 
48(-1)->1 2 3 4 5 6 8 10 11 13 15 16 22 29 31 33 39 43 50 
12(-1)->1 2 3 4 5 6 7 8 16 19 21 22 23 25 27 29 34 49 
26(-1)->1 2 3 4 17 20 22 23 31 32 33 34 36 40 45 47 49 
47(-1)->1 2 3 7 8 9 10 11 15 19 23 26 34 36 40 44 50 
-------
BLAH
START TIME: 1433713698
Cq = 13 and is assigned to x31
BACKTRACKED TO DEPTH: 30
0 1 2 3 4 5 6 7 8 9 10 11 12 
Cq = 12 and is assigned to x28
BACKTRACKED TO DEPTH: 27
0 1 2 3 4 5 6 7 8 9 10 11 
10000
20000
30000
40000
50000
60000
1(2)->2 3 4 5 6 7 8 9 10 11 12 13 14 15 16 17 18 19 20 21 22 23 24 25 26 27 28 29 30 31 32 33 34 35 36 37 38 39 40 41 42 43 44 45 46 47 48 49 
2(0)->1 3 4 5 6 7 8 9 10 11 12 13 14 15 16 17 18 19 20 21 22 23 24 25 26 27 28 29 30 31 32 33 34 35 36 37 38 39 40 41 42 43 44 45 46 47 48 49 50 
3(1)->1 2 4 5 6 7 8 9 10 11 12 13 14 15 16 17 18 19 20 21 22 23 24 25 26 27 28 29 30 31 32 33 34 35 36 37 38 39 40 41 42 43 44 45 46 47 48 49 50 
4(3)->1 2 3 5 6 7 8 9 10 11 12 13 14 15 16 17 18 19 20 21 22 23 24 25 26 27 28 29 30 31 32 33 34 35 36 37 38 39 40 41 42 43 44 46 48 49 50 
5(4)->1 2 3 4 6 7 8 9 10 11 12 13 14 15 17 18 19 20 21 22 23 24 27 29 30 31 32 33 34 35 36 37 39 42 43 44 46 48 
6(5)->1 2 3 4 5 7 8 9 10 11 12 13 17 18 19 21 22 23 24 27 30 31 34 35 36 37 41 42 43 46 48 50 
7(12)->1 2 3 4 5 6 8 9 10 12 15 16 20 22 24 31 33 34 36 37 39 42 47 
8(7)->1 2 3 4 5 6 7 9 12 13 14 17 20 22 24 25 27 28 29 30 31 34 36 37 42 43 44 45 47 48 49 
9(8)->1 2 3 4 5 6 7 8 11 13 14 21 22 23 25 28 32 33 35 36 39 40 41 42 44 47 50 
10(9)->1 2 3 4 5 6 7 14 15 18 19 22 24 27 28 32 35 36 42 43 47 48 49 50 
11(10)->1 2 3 4 5 6 9 14 16 18 20 22 29 32 38 39 40 47 48 
12(8)->1 2 3 4 5 6 7 8 16 19 21 22 23 25 27 29 34 49 
13(10)->1 2 3 4 5 6 8 9 19 20 21 22 23 24 27 30 33 36 40 41 48 
14(11)->1 2 3 4 5 8 9 10 11 17 18 22 23 24 25 28 29 31 34 36 37 38 41 50 
15(7)->1 2 3 4 5 7 10 16 17 18 19 20 22 28 30 31 33 35 38 41 42 43 44 45 46 47 48 50 
16(6)->1 2 3 4 7 11 12 15 17 19 20 23 24 28 33 34 39 41 48 49 
17(10)->1 2 3 4 5 6 8 14 15 16 20 22 23 24 25 26 27 28 30 33 34 43 44 46 50 
18(12)->1 2 3 4 5 6 10 11 14 15 20 22 23 28 29 37 41 42 43 44 46 
19(11)->1 2 3 4 5 6 10 12 13 15 16 29 30 32 33 36 39 40 43 45 47 
20(11)->1 2 3 4 5 7 8 11 13 15 16 17 18 22 24 26 29 30 31 33 35 39 41 44 46 
21(11)->1 2 3 4 5 6 9 12 13 22 23 24 28 29 30 35 41 44 50 
22(6)->1 2 3 4 5 6 7 8 9 10 11 12 13 14 15 17 18 20 21 23 25 26 29 30 31 33 34 35 38 42 43 48 
23(7)->1 2 3 4 5 6 9 12 13 14 16 17 18 21 22 24 25 26 28 33 34 38 43 44 45 46 47 49 
24(8)->1 2 3 4 5 6 7 8 10 13 14 16 17 20 21 23 25 30 32 36 37 38 39 41 42 44 45 49 
25(5)->1 2 3 4 8 9 12 14 17 22 23 24 30 36 37 39 41 44 45 49 50 
26(8)->1 2 3 4 17 20 22 23 31 32 33 34 36 40 45 47 49 
27(11)->1 2 3 4 5 6 8 10 12 13 17 28 30 31 33 35 38 39 40 41 42 44 46 49 
28(4)->1 2 3 4 8 9 10 14 15 16 17 18 21 23 27 32 33 34 42 43 45 46 50 
29(5)->1 2 3 4 5 8 11 12 14 18 19 20 21 22 31 32 35 37 39 40 41 43 44 45 48 49 50 
30(9)->1 2 3 4 5 6 8 13 15 17 19 20 21 22 24 25 27 31 33 35 37 43 44 45 46 49 50 
31(10)->1 2 3 4 5 6 7 8 14 15 20 22 26 27 29 30 32 35 36 38 44 46 48 
32(7)->1 2 3 4 5 9 10 11 19 24 26 28 29 31 34 36 38 40 41 45 46 50 
33(5)->1 2 3 4 5 7 9 13 15 16 17 19 20 22 23 26 27 28 30 34 36 37 38 39 41 42 43 44 45 46 48 
34(9)->1 2 3 4 5 6 7 8 12 14 16 17 22 23 26 28 32 33 35 42 43 44 46 47 
35(12)->1 2 3 4 5 6 9 10 15 20 21 22 27 29 30 31 34 36 39 40 44 46 50 
36(6)->1 2 3 4 5 6 7 8 9 10 13 14 19 24 25 26 31 32 33 35 39 42 45 46 47 
37(6)->1 2 3 4 5 6 7 8 14 18 24 25 29 30 33 38 39 40 43 45 49 50 
38(9)->1 2 3 4 11 14 15 22 23 24 27 31 32 33 37 39 41 43 44 45 46 
39(7)->1 2 3 4 5 7 9 11 16 19 20 24 25 27 29 33 35 36 37 38 42 44 48 49 
40(4)->1 2 3 4 9 11 13 19 26 27 29 32 35 37 42 43 46 47 49 
41(4)->1 2 3 4 6 9 13 14 15 16 18 20 21 24 25 27 29 32 33 38 42 43 44 49 50 
42(10)->1 2 3 4 5 6 7 8 9 10 15 18 22 24 27 28 33 34 36 39 40 41 43 46 
43(8)->1 2 3 4 5 6 8 10 15 17 18 19 22 23 28 29 30 33 34 37 38 40 41 42 44 45 48 49 
44(6)->1 2 3 4 5 8 9 15 17 18 20 21 23 24 25 27 29 30 31 33 34 35 38 39 41 43 46 47 49 
45(3)->1 2 3 8 15 19 23 24 25 26 28 29 30 32 33 36 37 38 43 50 
46(8)->1 2 3 4 5 6 15 17 18 20 23 27 28 30 31 32 33 34 35 36 38 40 42 44 
47(3)->1 2 3 7 8 9 10 11 15 19 23 26 34 36 40 44 50 
48(11)->1 2 3 4 5 6 8 10 11 13 15 16 22 29 31 33 39 43 50 
49(10)->1 2 3 4 8 10 12 16 23 24 25 26 27 29 30 37 39 40 41 43 44 50 
50(2)->2 3 4 6 9 10 14 15 17 21 25 28 29 30 32 35 37 41 45 47 48 49 
COUNT: 69700
COLORS: 13
EDGES: 650
13
69700
