1: 2 3 4 5 6 7 8 9 10 11 12 13 14 15 16 17 18 19 20 21 22 23 24 25 26 27 28 29 30 31 32 33 34 35 36 37 38 39 40 41 42 43 44 45 46 47 48 49 50
2: 1 3 4 5 6 7 8 9 10 11 12 13 14 15 16 17 18 19 20 21 22 23 24 25 26 27 28 29 30 31 32 33 34 35 36 37 38 39 40 41 42 43 44 45 46 47 48 49 50
3: 1 2 4 5 6 7 8 9 10 11 12 13 14 15 16 17 18 19 20 21 22 23 24 25 26 27 28 29 30 31 32 33 34 35 36 37 38 39 40 41 42 43 44 45 46 47 48 49
4: 1 2 3 5 6 7 8 9 10 11 12 13 14 15 16 17 18 19 20 21 22 23 24 25 26 27 28 29 30 31 32 33 34 35 36 37 38 39 40 41 42 43 44 45 46 47 48 49
5: 1 2 3 4 6 7 8 9 10 11 12 13 14 15 16 17 18 19 20 21 22 23 24 25 26 27 28 29 30 31 32 33 34 35 37 38 39 40 41 42 44 45 46 47 48 49 50
6: 1 2 3 4 5 7 8 9 10 11 12 13 14 15 16 17 18 19 20 21 22 23 24 25 26 27 28 29 30 31 32 33 34 35 37 38 39 40 41 42 44 45 46 48 49
7: 1 2 3 4 5 6 8 9 10 11 12 13 14 15 16 17 18 19 20 21 22 23 24 25 26 27 28 29 30 31 32 33 34 35 36 37 38 39 40 41 44 45 46 47 48 49 50
8: 1 2 3 4 5 6 7 9 10 11 12 13 14 15 16 17 18 19 20 21 22 23 24 25 26 27 28 29 30 32 33 34 35 37 38 39 40 41 42 43 44 45 46 47 48 49
9: 1 2 3 4 5 6 7 8 10 11 12 13 14 15 16 17 18 20 21 22 23 24 26 27 28 29 30 31 32 34 35 37 40 41 43 45 46 48 49
10: 1 2 3 4 5 6 7 8 9 11 12 13 14 15 16 17 19 20 21 22 27 28 29 32 34 35 37 39 43 48
11: 1 2 3 4 5 6 7 8 9 10 12 13 14 15 16 17 18 20 24 25 26 27 28 29 30 31 32 35 36 37 38 41 42 43 46 47
12: 1 2 3 4 37 6 7 8 9 10 11 13 14 15 16 17 23 29 30 5
13: 1 2 3 4 5 6 7 8 9 10 11 12 14 15 16 17 20 22 23 24 25 27 30 31 34 35 37 40 41 42 43 44 46 47 48 49
14: 1 2 3 4 5 6 7 8 9 10 11 12 13 15 17 19 25 27 29 30 35 36 39 40 42 43 48 49
15: 1 2 3 4 5 6 7 8 9 10 11 12 13 14 17 18 19 22 23 28 29 32 34 35 36 37 39 41 42 49
16: 1 2 3 4 5 6 7 8 9 10 11 12 13 20 21 23 26 28 30 42 48 49 50
17: 1 2 3 4 5 6 7 8 9 10 11 12 13 14 15 22 28 29 30 37 38 44 45 47 48 50
18: 1 2 3 4 5 6 7 8 9 11 15 20 22 23 24 26 29 30 33 34 37 40 41 42 44 45 46
19: 1 2 3 4 5 6 7 8 10 14 15 20 21 22 23 24 25 26 31 32 35 36 38 39 40 42 44 45
20: 1 2 3 4 5 6 7 8 9 10 11 13 16 18 19 21 30 31 32 34 35 36 40 42 43 44 48 49 50
21: 1 2 3 4 5 6 7 8 9 10 16 19 20 22 23 24 26 27 28 29 32 40 41 42 43 44
22: 1 2 3 4 5 6 7 8 9 10 13 15 17 18 19 21 23 24 29 30 31 32 33 36 38 39 41 47
23: 1 2 3 4 5 6 7 8 9 12 13 15 16 18 19 21 22 28 29 30 33 35 37 38 39 40 41 44 45 47 48
24: 1 2 3 4 5 6 7 8 9 11 13 18 19 21 22 26 27 31 33 35 36 42 43 44 46 50
25: 1 2 3 4 5 6 7 8 11 13 14 19 27 28 29 31 34 36 38 39 40 41 45 48 49 50
26: 1 2 3 4 5 6 7 8 9 11 16 18 19 21 24 27 33 38 39 44 45 46 47 48
27: 1 2 3 4 5 6 7 8 9 10 11 13 14 21 24 25 26 30 35 38 40 41 42 43 44 45 46 49
28: 1 2 3 4 5 6 7 8 9 10 11 15 16 17 21 23 25 30 37 38 41 45 46 47 50
29: 1 2 3 4 5 6 7 8 9 10 11 12 14 15 17 18 21 22 23 25 30 33 35 36 37 38 45 48
30: 1 2 3 4 5 6 7 8 9 11 12 13 14 16 17 18 20 22 23 27 28 29 35 36 37 40 42 43 44 49
31: 1 2 3 4 5 6 7 9 11 13 19 20 22 24 25 32 33 37 41 42 48 49
32: 1 2 3 4 5 6 7 8 9 10 11 15 19 20 21 22 31 39 40 42 45 46 48
33: 1 2 3 4 5 6 7 8 18 22 23 24 26 29 31 35 36 38 39 42 44 45 47 50
34: 1 2 3 4 5 6 7 8 9 10 13 15 18 20 25 35 37 38 39 41 43 45 46 47 48 50
35: 1 2 3 4 5 6 7 8 9 10 11 13 14 15 19 20 23 24 27 29 30 33 34 37 42 43 46 49 50
36: 1 2 3 4 7 11 14 15 19 20 22 24 25 29 30 33 40 42 44 45 47 48 49 50
37: 1 2 3 4 5 6 7 8 9 10 11 12 13 15 17 18 23 28 29 30 31 34 35 38 46 47 48
38: 1 2 3 4 5 6 7 8 11 17 19 22 23 25 26 27 28 29 33 34 37 40 42 43 46
39: 1 2 3 4 5 6 7 8 10 14 15 19 22 23 25 26 32 33 34 42 43 45 46 50
40: 1 2 3 4 5 6 7 8 9 13 14 18 19 20 21 23 25 27 30 32 36 38 41 48 49 50
41: 1 2 3 4 5 6 7 8 9 11 13 15 18 21 22 23 25 27 28 31 34 40 42 44 45 47 50
42: 1 2 3 4 5 6 8 11 13 14 15 16 18 19 20 21 24 27 30 31 32 33 35 36 38 39 41 43 48 49
43: 1 2 3 4 8 9 10 11 13 14 20 21 24 27 30 34 35 38 39 42 44 49 50
44: 1 2 3 4 5 6 7 8 13 17 18 19 20 21 23 24 26 27 30 33 36 41 43 46 47 50
45: 1 2 3 4 5 6 7 8 9 17 18 19 23 25 26 27 28 29 32 33 34 36 39 41 47
46: 1 2 3 4 5 6 7 8 9 11 13 18 24 26 27 28 32 34 35 37 38 39 44 49
47: 33 34 3 36 37 7 8 41 11 44 13 45 17 1 22 23 2 4 26 28 5
48: 1 2 3 4 5 6 7 8 9 10 13 14 16 17 20 23 25 26 29 31 32 34 36 37 40 42 49
49: 1 2 3 4 5 6 7 8 9 13 14 15 16 20 25 27 30 31 35 36 40 42 43 46 48
50: 1 34 35 36 5 39 40 41 43 44 2 16 17 20 24 25 33 28 7
-------
1(-1)->2 3 4 5 6 7 8 9 10 11 12 13 14 15 16 17 18 19 20 21 22 23 24 25 26 27 28 29 30 31 32 33 34 35 36 37 38 39 40 41 42 43 44 45 46 47 48 49 50 
2(-1)->1 3 4 5 6 7 8 9 10 11 12 13 14 15 16 17 18 19 20 21 22 23 24 25 26 27 28 29 30 31 32 33 34 35 36 37 38 39 40 41 42 43 44 45 46 47 48 49 50 
3(-1)->1 2 4 5 6 7 8 9 10 11 12 13 14 15 16 17 18 19 20 21 22 23 24 25 26 27 28 29 30 31 32 33 34 35 36 37 38 39 40 41 42 43 44 45 46 47 48 49 
4(-1)->1 2 3 5 6 7 8 9 10 11 12 13 14 15 16 17 18 19 20 21 22 23 24 25 26 27 28 29 30 31 32 33 34 35 36 37 38 39 40 41 42 43 44 45 46 47 48 49 
5(-1)->1 2 3 4 6 7 8 9 10 11 12 13 14 15 16 17 18 19 20 21 22 23 24 25 26 27 28 29 30 31 32 33 34 35 37 38 39 40 41 42 44 45 46 47 48 49 50 
6(-1)->1 2 3 4 5 7 8 9 10 11 12 13 14 15 16 17 18 19 20 21 22 23 24 25 26 27 28 29 30 31 32 33 34 35 37 38 39 40 41 42 44 45 46 48 49 
7(-1)->1 2 3 4 5 6 8 9 10 11 12 13 14 15 16 17 18 19 20 21 22 23 24 25 26 27 28 29 30 31 32 33 34 35 36 37 38 39 40 41 44 45 46 47 48 49 50 
8(-1)->1 2 3 4 5 6 7 9 10 11 12 13 14 15 16 17 18 19 20 21 22 23 24 25 26 27 28 29 30 32 33 34 35 37 38 39 40 41 42 43 44 45 46 47 48 49 
9(-1)->1 2 3 4 5 6 7 8 10 11 12 13 14 15 16 17 18 20 21 22 23 24 26 27 28 29 30 31 32 34 35 37 40 41 43 45 46 48 49 
10(-1)->1 2 3 4 5 6 7 8 9 11 12 13 14 15 16 17 19 20 21 22 27 28 29 32 34 35 37 39 43 48 
11(-1)->1 2 3 4 5 6 7 8 9 10 12 13 14 15 16 17 18 20 24 25 26 27 28 29 30 31 32 35 36 37 38 41 42 43 46 47 
12(-1)->1 2 3 4 5 6 7 8 9 10 11 13 14 15 16 17 23 29 30 37 
13(-1)->1 2 3 4 5 6 7 8 9 10 11 12 14 15 16 17 20 22 23 24 25 27 30 31 34 35 37 40 41 42 43 44 46 47 48 49 
14(-1)->1 2 3 4 5 6 7 8 9 10 11 12 13 15 17 19 25 27 29 30 35 36 39 40 42 43 48 49 
15(-1)->1 2 3 4 5 6 7 8 9 10 11 12 13 14 17 18 19 22 23 28 29 32 34 35 36 37 39 41 42 49 
16(-1)->1 2 3 4 5 6 7 8 9 10 11 12 13 20 21 23 26 28 30 42 48 49 50 
17(-1)->1 2 3 4 5 6 7 8 9 10 11 12 13 14 15 22 28 29 30 37 38 44 45 47 48 50 
18(-1)->1 2 3 4 5 6 7 8 9 11 15 20 22 23 24 26 29 30 33 34 37 40 41 42 44 45 46 
19(-1)->1 2 3 4 5 6 7 8 10 14 15 20 21 22 23 24 25 26 31 32 35 36 38 39 40 42 44 45 
20(-1)->1 2 3 4 5 6 7 8 9 10 11 13 16 18 19 21 30 31 32 34 35 36 40 42 43 44 48 49 50 
21(-1)->1 2 3 4 5 6 7 8 9 10 16 19 20 22 23 24 26 27 28 29 32 40 41 42 43 44 
22(-1)->1 2 3 4 5 6 7 8 9 10 13 15 17 18 19 21 23 24 29 30 31 32 33 36 38 39 41 47 
23(-1)->1 2 3 4 5 6 7 8 9 12 13 15 16 18 19 21 22 28 29 30 33 35 37 38 39 40 41 44 45 47 48 
24(-1)->1 2 3 4 5 6 7 8 9 11 13 18 19 21 22 26 27 31 33 35 36 42 43 44 46 50 
25(-1)->1 2 3 4 5 6 7 8 11 13 14 19 27 28 29 31 34 36 38 39 40 41 45 48 49 50 
26(-1)->1 2 3 4 5 6 7 8 9 11 16 18 19 21 24 27 33 38 39 44 45 46 47 48 
27(-1)->1 2 3 4 5 6 7 8 9 10 11 13 14 21 24 25 26 30 35 38 40 41 42 43 44 45 46 49 
28(-1)->1 2 3 4 5 6 7 8 9 10 11 15 16 17 21 23 25 30 37 38 41 45 46 47 50 
29(-1)->1 2 3 4 5 6 7 8 9 10 11 12 14 15 17 18 21 22 23 25 30 33 35 36 37 38 45 48 
30(-1)->1 2 3 4 5 6 7 8 9 11 12 13 14 16 17 18 20 22 23 27 28 29 35 36 37 40 42 43 44 49 
31(-1)->1 2 3 4 5 6 7 9 11 13 19 20 22 24 25 32 33 37 41 42 48 49 
32(-1)->1 2 3 4 5 6 7 8 9 10 11 15 19 20 21 22 31 39 40 42 45 46 48 
33(-1)->1 2 3 4 5 6 7 8 18 22 23 24 26 29 31 35 36 38 39 42 44 45 47 50 
34(-1)->1 2 3 4 5 6 7 8 9 10 13 15 18 20 25 35 37 38 39 41 43 45 46 47 48 50 
35(-1)->1 2 3 4 5 6 7 8 9 10 11 13 14 15 19 20 23 24 27 29 30 33 34 37 42 43 46 49 50 
36(-1)->1 2 3 4 7 11 14 15 19 20 22 24 25 29 30 33 40 42 44 45 47 48 49 50 
37(-1)->1 2 3 4 5 6 7 8 9 10 11 12 13 15 17 18 23 28 29 30 31 34 35 38 46 47 48 
38(-1)->1 2 3 4 5 6 7 8 11 17 19 22 23 25 26 27 28 29 33 34 37 40 42 43 46 
39(-1)->1 2 3 4 5 6 7 8 10 14 15 19 22 23 25 26 32 33 34 42 43 45 46 50 
40(-1)->1 2 3 4 5 6 7 8 9 13 14 18 19 20 21 23 25 27 30 32 36 38 41 48 49 50 
41(-1)->1 2 3 4 5 6 7 8 9 11 13 15 18 21 22 23 25 27 28 31 34 40 42 44 45 47 50 
42(-1)->1 2 3 4 5 6 8 11 13 14 15 16 18 19 20 21 24 27 30 31 32 33 35 36 38 39 41 43 48 49 
43(-1)->1 2 3 4 8 9 10 11 13 14 20 21 24 27 30 34 35 38 39 42 44 49 50 
44(-1)->1 2 3 4 5 6 7 8 13 17 18 19 20 21 23 24 26 27 30 33 36 41 43 46 47 50 
45(-1)->1 2 3 4 5 6 7 8 9 17 18 19 23 25 26 27 28 29 32 33 34 36 39 41 47 
46(-1)->1 2 3 4 5 6 7 8 9 11 13 18 24 26 27 28 32 34 35 37 38 39 44 49 
47(-1)->1 2 3 4 5 7 8 11 13 17 22 23 26 28 33 34 36 37 41 44 45 
48(-1)->1 2 3 4 5 6 7 8 9 10 13 14 16 17 20 23 25 26 29 31 32 34 36 37 40 42 49 
49(-1)->1 2 3 4 5 6 7 8 9 13 14 15 16 20 25 27 30 31 35 36 40 42 43 46 48 
50(-1)->1 2 5 7 16 17 20 24 25 28 33 34 35 36 39 40 41 43 44 
-------
Node 1 maps to position 0
Node 2 maps to position 1
Node 3 maps to position 2
Node 4 maps to position 3
Node 5 maps to position 4
Node 7 maps to position 5
Node 8 maps to position 6
Node 6 maps to position 7
Node 9 maps to position 8
Node 11 maps to position 9
Node 13 maps to position 10
Node 23 maps to position 11
Node 10 maps to position 12
Node 15 maps to position 13
Node 30 maps to position 14
Node 42 maps to position 15
Node 20 maps to position 16
Node 35 maps to position 17
Node 14 maps to position 18
Node 19 maps to position 19
Node 22 maps to position 20
Node 27 maps to position 21
Node 29 maps to position 22
Node 18 maps to position 23
Node 37 maps to position 24
Node 41 maps to position 25
Node 48 maps to position 26
Node 17 maps to position 27
Node 21 maps to position 28
Node 24 maps to position 29
Node 25 maps to position 30
Node 34 maps to position 31
Node 40 maps to position 32
Node 44 maps to position 33
Node 28 maps to position 34
Node 38 maps to position 35
Node 45 maps to position 36
Node 49 maps to position 37
Node 26 maps to position 38
Node 33 maps to position 39
Node 36 maps to position 40
Node 39 maps to position 41
Node 46 maps to position 42
Node 16 maps to position 43
Node 32 maps to position 44
Node 43 maps to position 45
Node 31 maps to position 46
Node 47 maps to position 47
Node 12 maps to position 48
Node 50 maps to position 49
1(-1)->2 3 4 5 6 7 8 9 10 11 12 13 14 15 16 17 18 19 20 21 22 23 24 25 26 27 28 29 30 31 32 33 34 35 36 37 38 39 40 41 42 43 44 45 46 47 48 49 50 
2(-1)->1 3 4 5 6 7 8 9 10 11 12 13 14 15 16 17 18 19 20 21 22 23 24 25 26 27 28 29 30 31 32 33 34 35 36 37 38 39 40 41 42 43 44 45 46 47 48 49 50 
3(-1)->1 2 4 5 6 7 8 9 10 11 12 13 14 15 16 17 18 19 20 21 22 23 24 25 26 27 28 29 30 31 32 33 34 35 36 37 38 39 40 41 42 43 44 45 46 47 48 49 
4(-1)->1 2 3 5 6 7 8 9 10 11 12 13 14 15 16 17 18 19 20 21 22 23 24 25 26 27 28 29 30 31 32 33 34 35 36 37 38 39 40 41 42 43 44 45 46 47 48 49 
5(-1)->1 2 3 4 6 7 8 9 10 11 12 13 14 15 16 17 18 19 20 21 22 23 24 25 26 27 28 29 30 31 32 33 34 35 37 38 39 40 41 42 44 45 46 47 48 49 50 
7(-1)->1 2 3 4 5 6 8 9 10 11 12 13 14 15 16 17 18 19 20 21 22 23 24 25 26 27 28 29 30 31 32 33 34 35 36 37 38 39 40 41 44 45 46 47 48 49 50 
8(-1)->1 2 3 4 5 6 7 9 10 11 12 13 14 15 16 17 18 19 20 21 22 23 24 25 26 27 28 29 30 32 33 34 35 37 38 39 40 41 42 43 44 45 46 47 48 49 
6(-1)->1 2 3 4 5 7 8 9 10 11 12 13 14 15 16 17 18 19 20 21 22 23 24 25 26 27 28 29 30 31 32 33 34 35 37 38 39 40 41 42 44 45 46 48 49 
9(-1)->1 2 3 4 5 6 7 8 10 11 12 13 14 15 16 17 18 20 21 22 23 24 26 27 28 29 30 31 32 34 35 37 40 41 43 45 46 48 49 
11(-1)->1 2 3 4 5 6 7 8 9 10 12 13 14 15 16 17 18 20 24 25 26 27 28 29 30 31 32 35 36 37 38 41 42 43 46 47 
13(-1)->1 2 3 4 5 6 7 8 9 10 11 12 14 15 16 17 20 22 23 24 25 27 30 31 34 35 37 40 41 42 43 44 46 47 48 49 
23(-1)->1 2 3 4 5 6 7 8 9 12 13 15 16 18 19 21 22 28 29 30 33 35 37 38 39 40 41 44 45 47 48 
10(-1)->1 2 3 4 5 6 7 8 9 11 12 13 14 15 16 17 19 20 21 22 27 28 29 32 34 35 37 39 43 48 
15(-1)->1 2 3 4 5 6 7 8 9 10 11 12 13 14 17 18 19 22 23 28 29 32 34 35 36 37 39 41 42 49 
30(-1)->1 2 3 4 5 6 7 8 9 11 12 13 14 16 17 18 20 22 23 27 28 29 35 36 37 40 42 43 44 49 
42(-1)->1 2 3 4 5 6 8 11 13 14 15 16 18 19 20 21 24 27 30 31 32 33 35 36 38 39 41 43 48 49 
20(-1)->1 2 3 4 5 6 7 8 9 10 11 13 16 18 19 21 30 31 32 34 35 36 40 42 43 44 48 49 50 
35(-1)->1 2 3 4 5 6 7 8 9 10 11 13 14 15 19 20 23 24 27 29 30 33 34 37 42 43 46 49 50 
14(-1)->1 2 3 4 5 6 7 8 9 10 11 12 13 15 17 19 25 27 29 30 35 36 39 40 42 43 48 49 
19(-1)->1 2 3 4 5 6 7 8 10 14 15 20 21 22 23 24 25 26 31 32 35 36 38 39 40 42 44 45 
22(-1)->1 2 3 4 5 6 7 8 9 10 13 15 17 18 19 21 23 24 29 30 31 32 33 36 38 39 41 47 
27(-1)->1 2 3 4 5 6 7 8 9 10 11 13 14 21 24 25 26 30 35 38 40 41 42 43 44 45 46 49 
29(-1)->1 2 3 4 5 6 7 8 9 10 11 12 14 15 17 18 21 22 23 25 30 33 35 36 37 38 45 48 
18(-1)->1 2 3 4 5 6 7 8 9 11 15 20 22 23 24 26 29 30 33 34 37 40 41 42 44 45 46 
37(-1)->1 2 3 4 5 6 7 8 9 10 11 12 13 15 17 18 23 28 29 30 31 34 35 38 46 47 48 
41(-1)->1 2 3 4 5 6 7 8 9 11 13 15 18 21 22 23 25 27 28 31 34 40 42 44 45 47 50 
48(-1)->1 2 3 4 5 6 7 8 9 10 13 14 16 17 20 23 25 26 29 31 32 34 36 37 40 42 49 
17(-1)->1 2 3 4 5 6 7 8 9 10 11 12 13 14 15 22 28 29 30 37 38 44 45 47 48 50 
21(-1)->1 2 3 4 5 6 7 8 9 10 16 19 20 22 23 24 26 27 28 29 32 40 41 42 43 44 
24(-1)->1 2 3 4 5 6 7 8 9 11 13 18 19 21 22 26 27 31 33 35 36 42 43 44 46 50 
25(-1)->1 2 3 4 5 6 7 8 11 13 14 19 27 28 29 31 34 36 38 39 40 41 45 48 49 50 
34(-1)->1 2 3 4 5 6 7 8 9 10 13 15 18 20 25 35 37 38 39 41 43 45 46 47 48 50 
40(-1)->1 2 3 4 5 6 7 8 9 13 14 18 19 20 21 23 25 27 30 32 36 38 41 48 49 50 
44(-1)->1 2 3 4 5 6 7 8 13 17 18 19 20 21 23 24 26 27 30 33 36 41 43 46 47 50 
28(-1)->1 2 3 4 5 6 7 8 9 10 11 15 16 17 21 23 25 30 37 38 41 45 46 47 50 
38(-1)->1 2 3 4 5 6 7 8 11 17 19 22 23 25 26 27 28 29 33 34 37 40 42 43 46 
45(-1)->1 2 3 4 5 6 7 8 9 17 18 19 23 25 26 27 28 29 32 33 34 36 39 41 47 
49(-1)->1 2 3 4 5 6 7 8 9 13 14 15 16 20 25 27 30 31 35 36 40 42 43 46 48 
26(-1)->1 2 3 4 5 6 7 8 9 11 16 18 19 21 24 27 33 38 39 44 45 46 47 48 
33(-1)->1 2 3 4 5 6 7 8 18 22 23 24 26 29 31 35 36 38 39 42 44 45 47 50 
36(-1)->1 2 3 4 7 11 14 15 19 20 22 24 25 29 30 33 40 42 44 45 47 48 49 50 
39(-1)->1 2 3 4 5 6 7 8 10 14 15 19 22 23 25 26 32 33 34 42 43 45 46 50 
46(-1)->1 2 3 4 5 6 7 8 9 11 13 18 24 26 27 28 32 34 35 37 38 39 44 49 
16(-1)->1 2 3 4 5 6 7 8 9 10 11 12 13 20 21 23 26 28 30 42 48 49 50 
32(-1)->1 2 3 4 5 6 7 8 9 10 11 15 19 20 21 22 31 39 40 42 45 46 48 
43(-1)->1 2 3 4 8 9 10 11 13 14 20 21 24 27 30 34 35 38 39 42 44 49 50 
31(-1)->1 2 3 4 5 6 7 9 11 13 19 20 22 24 25 32 33 37 41 42 48 49 
47(-1)->1 2 3 4 5 7 8 11 13 17 22 23 26 28 33 34 36 37 41 44 45 
12(-1)->1 2 3 4 5 6 7 8 9 10 11 13 14 15 16 17 23 29 30 37 
50(-1)->1 2 5 7 16 17 20 24 25 28 33 34 35 36 39 40 41 43 44 
-------
BLAH
START TIME: 1433714247
Cq = 17 and is assigned to x42
BACKTRACKED TO DEPTH: 41
0 1 2 3 4 5 6 7 8 9 10 11 12 13 14 15 16 
Cq = 16 and is assigned to x27
BACKTRACKED TO DEPTH: 26
0 1 2 3 4 5 6 7 8 9 10 11 12 13 14 15 
Cq = 15 and is assigned to x21
BACKTRACKED TO DEPTH: 20
0 1 2 3 4 5 6 7 8 9 10 11 12 13 14 
1(0)->2 3 4 5 6 7 8 9 10 11 12 13 14 15 16 17 18 19 20 21 22 23 24 25 26 27 28 29 30 31 32 33 34 35 36 37 38 39 40 41 42 43 44 45 46 47 48 49 50 
2(1)->1 3 4 5 6 7 8 9 10 11 12 13 14 15 16 17 18 19 20 21 22 23 24 25 26 27 28 29 30 31 32 33 34 35 36 37 38 39 40 41 42 43 44 45 46 47 48 49 50 
3(2)->1 2 4 5 6 7 8 9 10 11 12 13 14 15 16 17 18 19 20 21 22 23 24 25 26 27 28 29 30 31 32 33 34 35 36 37 38 39 40 41 42 43 44 45 46 47 48 49 
4(3)->1 2 3 5 6 7 8 9 10 11 12 13 14 15 16 17 18 19 20 21 22 23 24 25 26 27 28 29 30 31 32 33 34 35 36 37 38 39 40 41 42 43 44 45 46 47 48 49 
5(4)->1 2 3 4 6 7 8 9 10 11 12 13 14 15 16 17 18 19 20 21 22 23 24 25 26 27 28 29 30 31 32 33 34 35 37 38 39 40 41 42 44 45 46 47 48 49 50 
6(7)->1 2 3 4 5 7 8 9 10 11 12 13 14 15 16 17 18 19 20 21 22 23 24 25 26 27 28 29 30 31 32 33 34 35 37 38 39 40 41 42 44 45 46 48 49 
7(5)->1 2 3 4 5 6 8 9 10 11 12 13 14 15 16 17 18 19 20 21 22 23 24 25 26 27 28 29 30 31 32 33 34 35 36 37 38 39 40 41 44 45 46 47 48 49 50 
8(6)->1 2 3 4 5 6 7 9 10 11 12 13 14 15 16 17 18 19 20 21 22 23 24 25 26 27 28 29 30 32 33 34 35 37 38 39 40 41 42 43 44 45 46 47 48 49 
9(8)->1 2 3 4 5 6 7 8 10 11 12 13 14 15 16 17 18 20 21 22 23 24 26 27 28 29 30 31 32 34 35 37 40 41 43 45 46 48 49 
10(11)->1 2 3 4 5 6 7 8 9 11 12 13 14 15 16 17 19 20 21 22 27 28 29 32 34 35 37 39 43 48 
11(9)->1 2 3 4 5 6 7 8 9 10 12 13 14 15 16 17 18 20 24 25 26 27 28 29 30 31 32 35 36 37 38 41 42 43 46 47 
12(14)->1 2 3 4 5 6 7 8 9 10 11 13 14 15 16 17 23 29 30 37 
13(10)->1 2 3 4 5 6 7 8 9 10 11 12 14 15 16 17 20 22 23 24 25 27 30 31 34 35 37 40 41 42 43 44 46 47 48 49 
14(13)->1 2 3 4 5 6 7 8 9 10 11 12 13 15 17 19 25 27 29 30 35 36 39 40 42 43 48 49 
15(12)->1 2 3 4 5 6 7 8 9 10 11 12 13 14 17 18 19 22 23 28 29 32 34 35 36 37 39 41 42 49 
16(15)->1 2 3 4 5 6 7 8 9 10 11 12 13 20 21 23 26 28 30 42 48 49 50 
17(15)->1 2 3 4 5 6 7 8 9 10 11 12 13 14 15 22 28 29 30 37 38 44 45 47 48 50 
18(15)->1 2 3 4 5 6 7 8 9 11 15 20 22 23 24 26 29 30 33 34 37 40 41 42 44 45 46 
19(8)->1 2 3 4 5 6 7 8 10 14 15 20 21 22 23 24 25 26 31 32 35 36 38 39 40 42 44 45 
20(13)->1 2 3 4 5 6 7 8 9 10 11 13 16 18 19 21 30 31 32 34 35 36 40 42 43 44 48 49 50 
21(12)->1 2 3 4 5 6 7 8 9 10 16 19 20 22 23 24 26 27 28 29 32 40 41 42 43 44 
22(14)->1 2 3 4 5 6 7 8 9 10 13 15 17 18 19 21 23 24 29 30 31 32 33 36 38 39 41 47 
23(9)->1 2 3 4 5 6 7 8 9 12 13 15 16 18 19 21 22 28 29 30 33 35 37 38 39 40 41 44 45 47 48 
24(13)->1 2 3 4 5 6 7 8 9 11 13 18 19 21 22 26 27 31 33 35 36 42 43 44 46 50 
25(11)->1 2 3 4 5 6 7 8 11 13 14 19 27 28 29 31 34 36 38 39 40 41 45 48 49 50 
26(10)->1 2 3 4 5 6 7 8 9 11 16 18 19 21 24 27 33 38 39 44 45 46 47 48 
27(15)->1 2 3 4 5 6 7 8 9 10 11 13 14 21 24 25 26 30 35 38 40 41 42 43 44 45 46 49 
28(10)->1 2 3 4 5 6 7 8 9 10 11 15 16 17 21 23 25 30 37 38 41 45 46 47 50 
29(10)->1 2 3 4 5 6 7 8 9 10 11 12 14 15 17 18 21 22 23 25 30 33 35 36 37 38 45 48 
30(11)->1 2 3 4 5 6 7 8 9 11 12 13 14 16 17 18 20 22 23 27 28 29 35 36 37 40 42 43 44 49 
31(6)->1 2 3 4 5 6 7 9 11 13 19 20 22 24 25 32 33 37 41 42 48 49 
32(10)->1 2 3 4 5 6 7 8 9 10 11 15 19 20 21 22 31 39 40 42 45 46 48 
33(8)->1 2 3 4 5 6 7 8 18 22 23 24 26 29 31 35 36 38 39 42 44 45 47 50 
34(9)->1 2 3 4 5 6 7 8 9 10 13 15 18 20 25 35 37 38 39 41 43 45 46 47 48 50 
35(14)->1 2 3 4 5 6 7 8 9 10 11 13 14 15 19 20 23 24 27 29 30 33 34 37 42 43 46 49 50 
36(4)->1 2 3 4 7 11 14 15 19 20 22 24 25 29 30 33 40 42 44 45 47 48 49 50 
37(13)->1 2 3 4 5 6 7 8 9 10 11 12 13 15 17 18 23 28 29 30 31 34 35 38 46 47 48 
38(12)->1 2 3 4 5 6 7 8 11 17 19 22 23 25 26 27 28 29 33 34 37 40 42 43 46 
39(15)->1 2 3 4 5 6 7 8 10 14 15 19 22 23 25 26 32 33 34 42 43 45 46 50 
40(14)->1 2 3 4 5 6 7 8 9 13 14 18 19 20 21 23 25 27 30 32 36 38 41 48 49 50 
41(13)->1 2 3 4 5 6 7 8 9 11 13 15 18 21 22 23 25 27 28 31 34 40 42 44 45 47 50 
42(5)->1 2 3 4 5 6 8 11 13 14 15 16 18 19 20 21 24 27 30 31 32 33 35 36 38 39 41 43 48 49 
43(4)->1 2 3 4 8 9 10 11 13 14 20 21 24 27 30 34 35 38 39 42 44 49 50 
44(14)->1 2 3 4 5 6 7 8 13 17 18 19 20 21 23 24 26 27 30 33 36 41 43 46 47 50 
45(12)->1 2 3 4 5 6 7 8 9 17 18 19 23 25 26 27 28 29 32 33 34 36 39 41 47 
46(11)->1 2 3 4 5 6 7 8 9 11 13 18 24 26 27 28 32 34 35 37 38 39 44 49 
47(7)->1 2 3 4 5 7 8 11 13 17 22 23 26 28 33 34 36 37 41 44 45 
48(12)->1 2 3 4 5 6 7 8 9 10 13 14 16 17 20 23 25 26 29 31 32 34 36 37 40 42 49 
49(9)->1 2 3 4 5 6 7 8 9 13 14 15 16 20 25 27 30 31 35 36 40 42 43 46 48 
50(2)->1 2 5 7 16 17 20 24 25 28 33 34 35 36 39 40 41 43 44 
COUNT: 3782
COLORS: 16
EDGES: 750
16
3782
