1: 2 3 4 5 6 7 8 9 10 11 12 13 14 15 16 17 18 19 20 21 22 23 24 25 26 27 28 29 30 31 32 33 34 35 36 37 38 39 40 41 42 43 44 45 46 47 48 49
2: 1 3 4 5 6 7 8 9 10 11 12 13 14 15 16 17 18 19 20 21 22 23 24 25 26 27 28 29 30 31 32 33 34 35 36 37 38 39 40 41 42 43 44 45 46 47 48 49
3: 1 2 4 5 6 7 8 9 10 11 12 13 14 15 16 17 18 19 20 21 22 23 24 25 26 27 28 29 30 31 32 33 34 35 36 37 38 39 40 41 42 43 44 45 46 47 48 49 50
4: 1 2 3 5 6 7 8 9 10 11 12 13 14 15 16 17 18 19 20 21 22 23 24 25 26 27 28 29 30 32 33 35 36 37 38 39 40 41 42 43 44 45 46 47 48 49
5: 1 2 3 4 6 7 8 9 10 11 12 13 14 15 16 17 18 19 20 22 25 26 27 28 34 35 36 41 42 44 45 46
6: 1 2 3 4 5 7 8 9 10 11 12 13 14 15 16 19 20 23 25 26 27 28 30 31 32 33 34 35 38 41 42 43 44 45 46 48 49
7: 1 2 3 4 5 6 8 9 10 11 12 13 14 15 16 17 18 20 21 23 24 26 27 28 36 40 43 46 48
8: 1 2 3 4 5 6 7 9 10 11 12 13 14 15 16 18 19 21 22 26 27 28 34 35 36 38 39 43 45 46 49
9: 1 2 3 4 5 6 7 8 10 12 13 14 16 17 20 21 26 27 28 29 30 32 33 35 36 37 40 44 48 49
10: 33 2 3 4 5 6 1 40 9 7 44 45 46 15 11 8 13 22 23 29
11: 1 2 3 4 5 6 7 8 10 14 17 19 22 23 26 27 28 29 31 34 38 41 42 44 46
12: 33 2 3 4 37 6 1 8 9 43 44 48 49 18 35 24 25 29 7 5
13: 1 2 3 4 5 6 7 8 9 10 16 24 28 32 33 35 36 38 39 41 43 49 50
14: 1 2 3 4 5 6 7 8 9 11 16 18 27 28 30 31 33 34 35 36 40 43 45 46 50
15: 1 2 3 4 5 6 7 40 42 18 46 45 8 50 19 20 25 26 28 10 30
16: 1 2 3 4 5 6 7 8 9 13 14 17 20 22 25 27 29 30 31 32 33 36 37 42 43 44 45 46 47
17: 32 1 2 3 36 5 38 7 9 11 44 45 16 20 24 25 26 28 37 4 31
18: 1 2 3 4 5 7 8 12 14 15 19 21 22 25 26 29 30 31 33 42 47 48
19: 1 2 11 36 6 38 40 15 43 50 8 49 18 3 22 24 25 27 29 4 5
20: 1 2 3 4 5 6 7 9 15 16 17 22 27 28 29 34 36 37 42 43 45 46 47 48 49
21: 1 2 3 4 7 8 9 18 24 25 28 29 30 31 32 33 35 37 38 40 42 44 45 47
22: 1 2 3 4 5 8 10 11 16 18 19 20 25 29 33 34 35 39 40 41 42 45 47 50
23: 1 2 3 4 6 7 10 11 25 26 29 30 31 33 36 37 38 41 43 45 47 49 50
24: 33 2 3 1 7 40 41 42 12 13 46 48 17 50 19 21 25 4
25: 1 2 3 4 5 6 12 15 16 17 18 19 21 22 23 24 26 33 36 38 39 42 43 44 45 50
26: 1 2 3 4 5 6 7 8 9 11 15 17 18 23 25 27 30 36 37 38 39 40 41 42 44 48 50
27: 1 2 3 4 5 6 7 8 9 11 14 16 19 20 26 28 29 31 32 33 35 39 45 46 49
28: 1 2 3 4 5 6 7 8 9 11 13 14 15 17 20 21 27 29 33 34 42 43 49
29: 1 2 3 4 9 10 11 12 16 18 19 20 21 22 23 27 28 30 31 35 36 39 43 45 49 50
30: 1 18 3 4 37 6 39 9 2 44 45 14 15 16 49 50 46 23 26 29 21
31: 1 2 3 6 11 14 16 17 18 21 23 27 29 32 35 38 40 41 43 44 49 50
32: 1 34 35 4 38 6 49 40 41 2 13 45 16 17 3 21 9 27 37 31
33: 1 2 3 4 6 9 10 12 13 14 16 18 21 22 23 24 25 27 28 35 36 40 41 43 46 48 49 50
34: 32 1 2 35 36 5 6 39 8 42 11 45 14 3 20 46 22 28
35: 1 2 3 4 5 6 8 9 12 13 14 21 22 27 29 31 32 33 34 36 37 40 43 45 50
36: 1 2 3 4 5 7 8 9 13 14 16 17 19 20 23 25 26 29 33 34 35 37 38 40 41 42 43 44 49 50
37: 1 2 3 4 9 12 16 17 20 21 23 26 30 32 35 36 38 39 41 46 47 50
38: 32 1 2 3 36 37 6 8 43 45 13 11 17 50 19 21 23 25 26 4 31
39: 1 34 3 4 37 8 43 13 46 47 49 50 22 2 25 26 27 29 30
40: 1 2 3 4 7 9 10 14 15 19 21 22 24 26 31 32 33 35 36 41 42 43 44 45 47 48 50
41: 1 2 3 4 5 6 11 13 22 23 24 26 31 32 33 36 37 40 43 45 46 47 48 49 50
42: 1 2 3 4 5 6 11 15 16 18 20 21 22 24 25 26 28 34 36 40 46 47 48
43: 1 2 3 4 6 7 8 12 13 14 16 19 20 23 25 28 29 31 33 35 36 38 39 40 41 45 50
44: 1 2 3 4 5 6 17 40 9 10 11 12 16 49 21 25 26 36 30 31
45: 1 2 3 4 5 6 8 10 14 15 16 17 20 21 22 23 25 27 29 30 32 34 35 38 40 41 43 47 48
46: 1 2 3 4 5 6 7 8 10 11 14 15 16 20 24 27 30 33 34 37 39 41 42 49
47: 1 2 3 4 37 39 40 41 42 45 16 49 18 20 21 22 23
48: 1 2 3 4 33 6 7 40 9 42 12 45 18 20 41 24 26
49: 1 2 3 4 6 8 9 12 13 19 20 23 27 28 29 30 31 32 33 36 39 41 44 46 47
50: 3 13 14 15 19 22 23 24 25 26 29 30 31 33 35 36 37 38 39 40 41 43
-------
1(-1)->2 3 4 5 6 7 8 9 10 11 12 13 14 15 16 17 18 19 20 21 22 23 24 25 26 27 28 29 30 31 32 33 34 35 36 37 38 39 40 41 42 43 44 45 46 47 48 49 
2(-1)->1 3 4 5 6 7 8 9 10 11 12 13 14 15 16 17 18 19 20 21 22 23 24 25 26 27 28 29 30 31 32 33 34 35 36 37 38 39 40 41 42 43 44 45 46 47 48 49 
3(-1)->1 2 4 5 6 7 8 9 10 11 12 13 14 15 16 17 18 19 20 21 22 23 24 25 26 27 28 29 30 31 32 33 34 35 36 37 38 39 40 41 42 43 44 45 46 47 48 49 50 
4(-1)->1 2 3 5 6 7 8 9 10 11 12 13 14 15 16 17 18 19 20 21 22 23 24 25 26 27 28 29 30 32 33 35 36 37 38 39 40 41 42 43 44 45 46 47 48 49 
5(-1)->1 2 3 4 6 7 8 9 10 11 12 13 14 15 16 17 18 19 20 22 25 26 27 28 34 35 36 41 42 44 45 46 
6(-1)->1 2 3 4 5 7 8 9 10 11 12 13 14 15 16 19 20 23 25 26 27 28 30 31 32 33 34 35 38 41 42 43 44 45 46 48 49 
7(-1)->1 2 3 4 5 6 8 9 10 11 12 13 14 15 16 17 18 20 21 23 24 26 27 28 36 40 43 46 48 
8(-1)->1 2 3 4 5 6 7 9 10 11 12 13 14 15 16 18 19 21 22 26 27 28 34 35 36 38 39 43 45 46 49 
9(-1)->1 2 3 4 5 6 7 8 10 12 13 14 16 17 20 21 26 27 28 29 30 32 33 35 36 37 40 44 48 49 
10(-1)->1 2 3 4 5 6 7 8 9 11 13 15 22 23 29 33 40 44 45 46 
11(-1)->1 2 3 4 5 6 7 8 10 14 17 19 22 23 26 27 28 29 31 34 38 41 42 44 46 
12(-1)->1 2 3 4 5 6 7 8 9 18 24 25 29 33 35 37 43 44 48 49 
13(-1)->1 2 3 4 5 6 7 8 9 10 16 24 28 32 33 35 36 38 39 41 43 49 50 
14(-1)->1 2 3 4 5 6 7 8 9 11 16 18 27 28 30 31 33 34 35 36 40 43 45 46 50 
15(-1)->1 2 3 4 5 6 7 8 10 18 19 20 25 26 28 30 40 42 45 46 50 
16(-1)->1 2 3 4 5 6 7 8 9 13 14 17 20 22 25 27 29 30 31 32 33 36 37 42 43 44 45 46 47 
17(-1)->1 2 3 4 5 7 9 11 16 20 24 25 26 28 31 32 36 37 38 44 45 
18(-1)->1 2 3 4 5 7 8 12 14 15 19 21 22 25 26 29 30 31 33 42 47 48 
19(-1)->1 2 3 4 5 6 8 11 15 18 22 24 25 27 29 36 38 40 43 49 50 
20(-1)->1 2 3 4 5 6 7 9 15 16 17 22 27 28 29 34 36 37 42 43 45 46 47 48 49 
21(-1)->1 2 3 4 7 8 9 18 24 25 28 29 30 31 32 33 35 37 38 40 42 44 45 47 
22(-1)->1 2 3 4 5 8 10 11 16 18 19 20 25 29 33 34 35 39 40 41 42 45 47 50 
23(-1)->1 2 3 4 6 7 10 11 25 26 29 30 31 33 36 37 38 41 43 45 47 49 50 
24(-1)->1 2 3 4 7 12 13 17 19 21 25 33 40 41 42 46 48 50 
25(-1)->1 2 3 4 5 6 12 15 16 17 18 19 21 22 23 24 26 33 36 38 39 42 43 44 45 50 
26(-1)->1 2 3 4 5 6 7 8 9 11 15 17 18 23 25 27 30 36 37 38 39 40 41 42 44 48 50 
27(-1)->1 2 3 4 5 6 7 8 9 11 14 16 19 20 26 28 29 31 32 33 35 39 45 46 49 
28(-1)->1 2 3 4 5 6 7 8 9 11 13 14 15 17 20 21 27 29 33 34 42 43 49 
29(-1)->1 2 3 4 9 10 11 12 16 18 19 20 21 22 23 27 28 30 31 35 36 39 43 45 49 50 
30(-1)->1 2 3 4 6 9 14 15 16 18 21 23 26 29 37 39 44 45 46 49 50 
31(-1)->1 2 3 6 11 14 16 17 18 21 23 27 29 32 35 38 40 41 43 44 49 50 
32(-1)->1 2 3 4 6 9 13 16 17 21 27 31 34 35 37 38 40 41 45 49 
33(-1)->1 2 3 4 6 9 10 12 13 14 16 18 21 22 23 24 25 27 28 35 36 40 41 43 46 48 49 50 
34(-1)->1 2 3 5 6 8 11 14 20 22 28 32 35 36 39 42 45 46 
35(-1)->1 2 3 4 5 6 8 9 12 13 14 21 22 27 29 31 32 33 34 36 37 40 43 45 50 
36(-1)->1 2 3 4 5 7 8 9 13 14 16 17 19 20 23 25 26 29 33 34 35 37 38 40 41 42 43 44 49 50 
37(-1)->1 2 3 4 9 12 16 17 20 21 23 26 30 32 35 36 38 39 41 46 47 50 
38(-1)->1 2 3 4 6 8 11 13 17 19 21 23 25 26 31 32 36 37 43 45 50 
39(-1)->1 2 3 4 8 13 22 25 26 27 29 30 34 37 43 46 47 49 50 
40(-1)->1 2 3 4 7 9 10 14 15 19 21 22 24 26 31 32 33 35 36 41 42 43 44 45 47 48 50 
41(-1)->1 2 3 4 5 6 11 13 22 23 24 26 31 32 33 36 37 40 43 45 46 47 48 49 50 
42(-1)->1 2 3 4 5 6 11 15 16 18 20 21 22 24 25 26 28 34 36 40 46 47 48 
43(-1)->1 2 3 4 6 7 8 12 13 14 16 19 20 23 25 28 29 31 33 35 36 38 39 40 41 45 50 
44(-1)->1 2 3 4 5 6 9 10 11 12 16 17 21 25 26 30 31 36 40 49 
45(-1)->1 2 3 4 5 6 8 10 14 15 16 17 20 21 22 23 25 27 29 30 32 34 35 38 40 41 43 47 48 
46(-1)->1 2 3 4 5 6 7 8 10 11 14 15 16 20 24 27 30 33 34 37 39 41 42 49 
47(-1)->1 2 3 4 16 18 20 21 22 23 37 39 40 41 42 45 49 
48(-1)->1 2 3 4 6 7 9 12 18 20 24 26 33 40 41 42 45 
49(-1)->1 2 3 4 6 8 9 12 13 19 20 23 27 28 29 30 31 32 33 36 39 41 44 46 47 
50(-1)->3 13 14 15 19 22 23 24 25 26 29 30 31 33 35 36 37 38 39 40 41 43 
-------
Node 3 maps to position 0
Node 1 maps to position 1
Node 2 maps to position 2
Node 4 maps to position 3
Node 6 maps to position 4
Node 5 maps to position 5
Node 8 maps to position 6
Node 9 maps to position 7
Node 36 maps to position 8
Node 7 maps to position 9
Node 16 maps to position 10
Node 45 maps to position 11
Node 33 maps to position 12
Node 26 maps to position 13
Node 40 maps to position 14
Node 43 maps to position 15
Node 25 maps to position 16
Node 29 maps to position 17
Node 11 maps to position 18
Node 14 maps to position 19
Node 20 maps to position 20
Node 27 maps to position 21
Node 35 maps to position 22
Node 41 maps to position 23
Node 49 maps to position 24
Node 21 maps to position 25
Node 22 maps to position 26
Node 46 maps to position 27
Node 13 maps to position 28
Node 23 maps to position 29
Node 28 maps to position 30
Node 42 maps to position 31
Node 18 maps to position 32
Node 31 maps to position 33
Node 37 maps to position 34
Node 50 maps to position 35
Node 15 maps to position 36
Node 17 maps to position 37
Node 19 maps to position 38
Node 30 maps to position 39
Node 38 maps to position 40
Node 10 maps to position 41
Node 12 maps to position 42
Node 32 maps to position 43
Node 44 maps to position 44
Node 39 maps to position 45
Node 24 maps to position 46
Node 34 maps to position 47
Node 47 maps to position 48
Node 48 maps to position 49
3(-1)->1 2 4 5 6 7 8 9 10 11 12 13 14 15 16 17 18 19 20 21 22 23 24 25 26 27 28 29 30 31 32 33 34 35 36 37 38 39 40 41 42 43 44 45 46 47 48 49 50 
1(-1)->2 3 4 5 6 7 8 9 10 11 12 13 14 15 16 17 18 19 20 21 22 23 24 25 26 27 28 29 30 31 32 33 34 35 36 37 38 39 40 41 42 43 44 45 46 47 48 49 
2(-1)->1 3 4 5 6 7 8 9 10 11 12 13 14 15 16 17 18 19 20 21 22 23 24 25 26 27 28 29 30 31 32 33 34 35 36 37 38 39 40 41 42 43 44 45 46 47 48 49 
4(-1)->1 2 3 5 6 7 8 9 10 11 12 13 14 15 16 17 18 19 20 21 22 23 24 25 26 27 28 29 30 32 33 35 36 37 38 39 40 41 42 43 44 45 46 47 48 49 
6(-1)->1 2 3 4 5 7 8 9 10 11 12 13 14 15 16 19 20 23 25 26 27 28 30 31 32 33 34 35 38 41 42 43 44 45 46 48 49 
5(-1)->1 2 3 4 6 7 8 9 10 11 12 13 14 15 16 17 18 19 20 22 25 26 27 28 34 35 36 41 42 44 45 46 
8(-1)->1 2 3 4 5 6 7 9 10 11 12 13 14 15 16 18 19 21 22 26 27 28 34 35 36 38 39 43 45 46 49 
9(-1)->1 2 3 4 5 6 7 8 10 12 13 14 16 17 20 21 26 27 28 29 30 32 33 35 36 37 40 44 48 49 
36(-1)->1 2 3 4 5 7 8 9 13 14 16 17 19 20 23 25 26 29 33 34 35 37 38 40 41 42 43 44 49 50 
7(-1)->1 2 3 4 5 6 8 9 10 11 12 13 14 15 16 17 18 20 21 23 24 26 27 28 36 40 43 46 48 
16(-1)->1 2 3 4 5 6 7 8 9 13 14 17 20 22 25 27 29 30 31 32 33 36 37 42 43 44 45 46 47 
45(-1)->1 2 3 4 5 6 8 10 14 15 16 17 20 21 22 23 25 27 29 30 32 34 35 38 40 41 43 47 48 
33(-1)->1 2 3 4 6 9 10 12 13 14 16 18 21 22 23 24 25 27 28 35 36 40 41 43 46 48 49 50 
26(-1)->1 2 3 4 5 6 7 8 9 11 15 17 18 23 25 27 30 36 37 38 39 40 41 42 44 48 50 
40(-1)->1 2 3 4 7 9 10 14 15 19 21 22 24 26 31 32 33 35 36 41 42 43 44 45 47 48 50 
43(-1)->1 2 3 4 6 7 8 12 13 14 16 19 20 23 25 28 29 31 33 35 36 38 39 40 41 45 50 
25(-1)->1 2 3 4 5 6 12 15 16 17 18 19 21 22 23 24 26 33 36 38 39 42 43 44 45 50 
29(-1)->1 2 3 4 9 10 11 12 16 18 19 20 21 22 23 27 28 30 31 35 36 39 43 45 49 50 
11(-1)->1 2 3 4 5 6 7 8 10 14 17 19 22 23 26 27 28 29 31 34 38 41 42 44 46 
14(-1)->1 2 3 4 5 6 7 8 9 11 16 18 27 28 30 31 33 34 35 36 40 43 45 46 50 
20(-1)->1 2 3 4 5 6 7 9 15 16 17 22 27 28 29 34 36 37 42 43 45 46 47 48 49 
27(-1)->1 2 3 4 5 6 7 8 9 11 14 16 19 20 26 28 29 31 32 33 35 39 45 46 49 
35(-1)->1 2 3 4 5 6 8 9 12 13 14 21 22 27 29 31 32 33 34 36 37 40 43 45 50 
41(-1)->1 2 3 4 5 6 11 13 22 23 24 26 31 32 33 36 37 40 43 45 46 47 48 49 50 
49(-1)->1 2 3 4 6 8 9 12 13 19 20 23 27 28 29 30 31 32 33 36 39 41 44 46 47 
21(-1)->1 2 3 4 7 8 9 18 24 25 28 29 30 31 32 33 35 37 38 40 42 44 45 47 
22(-1)->1 2 3 4 5 8 10 11 16 18 19 20 25 29 33 34 35 39 40 41 42 45 47 50 
46(-1)->1 2 3 4 5 6 7 8 10 11 14 15 16 20 24 27 30 33 34 37 39 41 42 49 
13(-1)->1 2 3 4 5 6 7 8 9 10 16 24 28 32 33 35 36 38 39 41 43 49 50 
23(-1)->1 2 3 4 6 7 10 11 25 26 29 30 31 33 36 37 38 41 43 45 47 49 50 
28(-1)->1 2 3 4 5 6 7 8 9 11 13 14 15 17 20 21 27 29 33 34 42 43 49 
42(-1)->1 2 3 4 5 6 11 15 16 18 20 21 22 24 25 26 28 34 36 40 46 47 48 
18(-1)->1 2 3 4 5 7 8 12 14 15 19 21 22 25 26 29 30 31 33 42 47 48 
31(-1)->1 2 3 6 11 14 16 17 18 21 23 27 29 32 35 38 40 41 43 44 49 50 
37(-1)->1 2 3 4 9 12 16 17 20 21 23 26 30 32 35 36 38 39 41 46 47 50 
50(-1)->3 13 14 15 19 22 23 24 25 26 29 30 31 33 35 36 37 38 39 40 41 43 
15(-1)->1 2 3 4 5 6 7 8 10 18 19 20 25 26 28 30 40 42 45 46 50 
17(-1)->1 2 3 4 5 7 9 11 16 20 24 25 26 28 31 32 36 37 38 44 45 
19(-1)->1 2 3 4 5 6 8 11 15 18 22 24 25 27 29 36 38 40 43 49 50 
30(-1)->1 2 3 4 6 9 14 15 16 18 21 23 26 29 37 39 44 45 46 49 50 
38(-1)->1 2 3 4 6 8 11 13 17 19 21 23 25 26 31 32 36 37 43 45 50 
10(-1)->1 2 3 4 5 6 7 8 9 11 13 15 22 23 29 33 40 44 45 46 
12(-1)->1 2 3 4 5 6 7 8 9 18 24 25 29 33 35 37 43 44 48 49 
32(-1)->1 2 3 4 6 9 13 16 17 21 27 31 34 35 37 38 40 41 45 49 
44(-1)->1 2 3 4 5 6 9 10 11 12 16 17 21 25 26 30 31 36 40 49 
39(-1)->1 2 3 4 8 13 22 25 26 27 29 30 34 37 43 46 47 49 50 
24(-1)->1 2 3 4 7 12 13 17 19 21 25 33 40 41 42 46 48 50 
34(-1)->1 2 3 5 6 8 11 14 20 22 28 32 35 36 39 42 45 46 
47(-1)->1 2 3 4 16 18 20 21 22 23 37 39 40 41 42 45 49 
48(-1)->1 2 3 4 6 7 9 12 18 20 24 26 33 40 41 42 45 
-------
BLAH
START TIME: 1433713666
Cq = 13 and is assigned to x43
BACKTRACKED TO DEPTH: 42
0 1 2 3 4 5 6 7 8 9 10 11 12 
Cq = 12 and is assigned to x27
BACKTRACKED TO DEPTH: 26
0 1 2 3 4 5 6 7 8 9 10 11 
10000
20000
30000
40000
50000
1(1)->2 3 4 5 6 7 8 9 10 11 12 13 14 15 16 17 18 19 20 21 22 23 24 25 26 27 28 29 30 31 32 33 34 35 36 37 38 39 40 41 42 43 44 45 46 47 48 49 
2(2)->1 3 4 5 6 7 8 9 10 11 12 13 14 15 16 17 18 19 20 21 22 23 24 25 26 27 28 29 30 31 32 33 34 35 36 37 38 39 40 41 42 43 44 45 46 47 48 49 
3(0)->1 2 4 5 6 7 8 9 10 11 12 13 14 15 16 17 18 19 20 21 22 23 24 25 26 27 28 29 30 31 32 33 34 35 36 37 38 39 40 41 42 43 44 45 46 47 48 49 50 
4(3)->1 2 3 5 6 7 8 9 10 11 12 13 14 15 16 17 18 19 20 21 22 23 24 25 26 27 28 29 30 32 33 35 36 37 38 39 40 41 42 43 44 45 46 47 48 49 
5(5)->1 2 3 4 6 7 8 9 10 11 12 13 14 15 16 17 18 19 20 22 25 26 27 28 34 35 36 41 42 44 45 46 
6(4)->1 2 3 4 5 7 8 9 10 11 12 13 14 15 16 19 20 23 25 26 27 28 30 31 32 33 34 35 38 41 42 43 44 45 46 48 49 
7(8)->1 2 3 4 5 6 8 9 10 11 12 13 14 15 16 17 18 20 21 23 24 26 27 28 36 40 43 46 48 
8(6)->1 2 3 4 5 6 7 9 10 11 12 13 14 15 16 18 19 21 22 26 27 28 34 35 36 38 39 43 45 46 49 
9(7)->1 2 3 4 5 6 7 8 10 12 13 14 16 17 20 21 26 27 28 29 30 32 33 35 36 37 40 44 48 49 
10(9)->1 2 3 4 5 6 7 8 9 11 13 15 22 23 29 33 40 44 45 46 
11(7)->1 2 3 4 5 6 7 8 10 14 17 19 22 23 26 27 28 29 31 34 38 41 42 44 46 
12(11)->1 2 3 4 5 6 7 8 9 18 24 25 29 33 35 37 43 44 48 49 
13(11)->1 2 3 4 5 6 7 8 9 10 16 24 28 32 33 35 36 38 39 41 43 49 50 
14(11)->1 2 3 4 5 6 7 8 9 11 16 18 27 28 30 31 33 34 35 36 40 43 45 46 50 
15(10)->1 2 3 4 5 6 7 8 10 18 19 20 25 26 28 30 40 42 45 46 50 
16(9)->1 2 3 4 5 6 7 8 9 13 14 17 20 22 25 27 29 30 31 32 33 36 37 42 43 44 45 46 47 
17(10)->1 2 3 4 5 7 9 11 16 20 24 25 26 28 31 32 36 37 38 44 45 
18(7)->1 2 3 4 5 7 8 12 14 15 19 21 22 25 26 29 30 31 33 42 47 48 
19(11)->1 2 3 4 5 6 8 11 15 18 22 24 25 27 29 36 38 40 43 49 50 
20(6)->1 2 3 4 5 6 7 9 15 16 17 22 27 28 29 34 36 37 42 43 45 46 47 48 49 
21(4)->1 2 3 4 7 8 9 18 24 25 28 29 30 31 32 33 35 37 38 40 42 44 45 47 
22(4)->1 2 3 4 5 8 10 11 16 18 19 20 25 29 33 34 35 39 40 41 42 45 47 50 
23(11)->1 2 3 4 6 7 10 11 25 26 29 30 31 33 36 37 38 41 43 45 47 49 50 
24(7)->1 2 3 4 7 12 13 17 19 21 25 33 40 41 42 46 48 50 
25(6)->1 2 3 4 5 6 12 15 16 17 18 19 21 22 23 24 26 33 36 38 39 42 43 44 45 50 
26(9)->1 2 3 4 5 6 7 8 9 11 15 17 18 23 25 27 30 36 37 38 39 40 41 42 44 48 50 
27(10)->1 2 3 4 5 6 7 8 9 11 14 16 19 20 26 28 29 31 32 33 35 39 45 46 49 
28(12)->1 2 3 4 5 6 7 8 9 11 13 14 15 17 20 21 27 29 33 34 42 43 49 
29(5)->1 2 3 4 9 10 11 12 16 18 19 20 21 22 23 27 28 30 31 35 36 39 43 45 49 50 
30(6)->1 2 3 4 6 9 14 15 16 18 21 23 26 29 37 39 44 45 46 49 50 
31(3)->1 2 3 6 11 14 16 17 18 21 23 27 29 32 35 38 40 41 43 44 49 50 
32(12)->1 2 3 4 6 9 13 16 17 21 27 31 34 35 37 38 40 41 45 49 
33(5)->1 2 3 4 6 9 10 12 13 14 16 18 21 22 23 24 25 27 28 35 36 40 41 43 46 48 49 50 
34(3)->1 2 3 5 6 8 11 14 20 22 28 32 35 36 39 42 45 46 
35(8)->1 2 3 4 5 6 8 9 12 13 14 21 22 27 29 31 32 33 34 36 37 40 43 45 50 
36(4)->1 2 3 4 5 7 8 9 13 14 16 17 19 20 23 25 26 29 33 34 35 37 38 40 41 42 43 44 49 50 
37(5)->1 2 3 4 9 12 16 17 20 21 23 26 30 32 35 36 38 39 41 46 47 50 
38(8)->1 2 3 4 6 8 11 13 17 19 21 23 25 26 31 32 36 37 43 45 50 
39(7)->1 2 3 4 8 13 22 25 26 27 29 30 34 37 43 46 47 49 50 
40(6)->1 2 3 4 7 9 10 14 15 19 21 22 24 26 31 32 33 35 36 41 42 43 44 45 47 48 50 
41(8)->1 2 3 4 5 6 11 13 22 23 24 26 31 32 33 36 37 40 43 45 46 47 48 49 50 
42(8)->1 2 3 4 5 6 11 15 16 18 20 21 22 24 25 26 28 34 36 40 46 47 48 
43(10)->1 2 3 4 6 7 8 12 13 14 16 19 20 23 25 28 29 31 33 35 36 38 39 40 41 45 50 
44(8)->1 2 3 4 5 6 9 10 11 12 16 17 21 25 26 30 31 36 40 49 
45(7)->1 2 3 4 5 6 8 10 14 15 16 17 20 21 22 23 25 27 29 30 32 34 35 38 40 41 43 47 48 
46(12)->1 2 3 4 5 6 7 8 10 11 14 15 16 20 24 27 30 33 34 37 39 41 42 49 
47(10)->1 2 3 4 16 18 20 21 22 23 37 39 40 41 42 45 49 
48(10)->1 2 3 4 6 7 9 12 18 20 24 26 33 40 41 42 45 
49(9)->1 2 3 4 6 8 9 12 13 19 20 23 27 28 29 30 31 32 33 36 39 41 44 46 47 
50(1)->3 13 14 15 19 22 23 24 25 26 29 30 31 33 35 36 37 38 39 40 41 43 
COUNT: 53158
COLORS: 13
EDGES: 650
13
53158
