1: 34 3 4 5 6 7 40 9 11 44 45 8 21 2 27 28
2: 1 3 9 10 48 49 19 24 25
3: 32 1 2 36 7 9 46 4
4: 8 1 3
5: 1 18 14 31
6: 1 38 42 46 22 29
7: 32 1 3 40 42 31
8: 1 4 39 43 14 19 21 31
9: 1 2 3 37 42 16 19
10: 48 16 2 38
11: 48 1 35
12: 24 21 46 15
13: 24 40 34 30
14: 8 47 5 46 21
15: 12 45 48 49 50 23 24 25 27
16: 39 9 10 17 21 25 28 31
17: 16 25 27 28 47
18: 33 43 5 31
19: 2 36 49 40 9 8 50 22 24 29
20: 24
21: 1 8 41 12 14 16
22: 34 19 6 23
23: 49 33 22 15
24: 2 41 12 13 47 19 20 15 31
25: 2 37 41 15 16 17 50
26: 27
27: 1 34 39 15 17 50 26
28: 16 1 29 17
29: 19 28 6 30
30: 33 40 42 13 48 29 31
31: 33 5 7 8 46 16 18 24 30
32: 3 37 38 39 40 7 45 48
33: 40 41 48 18 23 30 31
34: 1 22 27 13 38
35: 36 39 11 44 49 50
36: 19 35 3
37: 32 9 42 47 48 25
38: 32 10 43 34 6
39: 8 35 27 16 32
40: 32 1 33 7 42 43 44 13 48 19 30
41: 24 25 21 33
42: 37 6 7 40 9 30
43: 40 8 50 18 38
44: 40 1 50 35
45: 32 1 15
46: 3 6 12 14 49 31
47: 48 17 14 37 24
48: 32 33 2 37 40 10 11 47 49 15 30
49: 2 35 46 15 48 19 23
50: 35 43 44 15 19 25 27
-------
1(-1)->2 3 4 5 6 7 8 9 11 21 27 28 34 40 44 45 
2(-1)->1 3 9 10 19 24 25 48 49 
3(-1)->1 2 4 7 9 32 36 46 
4(-1)->1 3 8 
5(-1)->1 14 18 31 
6(-1)->1 22 29 38 42 46 
7(-1)->1 3 31 32 40 42 
8(-1)->1 4 14 19 21 31 39 43 
9(-1)->1 2 3 16 19 37 42 
10(-1)->2 16 38 48 
11(-1)->1 35 48 
12(-1)->15 21 24 46 
13(-1)->24 30 34 40 
14(-1)->5 8 21 46 47 
15(-1)->12 23 24 25 27 45 48 49 50 
16(-1)->9 10 17 21 25 28 31 39 
17(-1)->16 25 27 28 47 
18(-1)->5 31 33 43 
19(-1)->2 8 9 22 24 29 36 40 49 50 
20(-1)->24 
21(-1)->1 8 12 14 16 41 
22(-1)->6 19 23 34 
23(-1)->15 22 33 49 
24(-1)->2 12 13 15 19 20 31 41 47 
25(-1)->2 15 16 17 37 41 50 
26(-1)->27 
27(-1)->1 15 17 26 34 39 50 
28(-1)->1 16 17 29 
29(-1)->6 19 28 30 
30(-1)->13 29 31 33 40 42 48 
31(-1)->5 7 8 16 18 24 30 33 46 
32(-1)->3 7 37 38 39 40 45 48 
33(-1)->18 23 30 31 40 41 48 
34(-1)->1 13 22 27 38 
35(-1)->11 36 39 44 49 50 
36(-1)->3 19 35 
37(-1)->9 25 32 42 47 48 
38(-1)->6 10 32 34 43 
39(-1)->8 16 27 32 35 
40(-1)->1 7 13 19 30 32 33 42 43 44 48 
41(-1)->21 24 25 33 
42(-1)->6 7 9 30 37 40 
43(-1)->8 18 38 40 50 
44(-1)->1 35 40 50 
45(-1)->1 15 32 
46(-1)->3 6 12 14 31 49 
47(-1)->14 17 24 37 48 
48(-1)->2 10 11 15 30 32 33 37 40 47 49 
49(-1)->2 15 19 23 35 46 48 
50(-1)->15 19 25 27 35 43 44 
-------
Node 1 maps to position 0
Node 40 maps to position 1
Node 48 maps to position 2
Node 19 maps to position 3
Node 2 maps to position 4
Node 15 maps to position 5
Node 24 maps to position 6
Node 31 maps to position 7
Node 3 maps to position 8
Node 8 maps to position 9
Node 16 maps to position 10
Node 32 maps to position 11
Node 9 maps to position 12
Node 25 maps to position 13
Node 27 maps to position 14
Node 30 maps to position 15
Node 33 maps to position 16
Node 49 maps to position 17
Node 50 maps to position 18
Node 6 maps to position 19
Node 7 maps to position 20
Node 21 maps to position 21
Node 35 maps to position 22
Node 37 maps to position 23
Node 42 maps to position 24
Node 46 maps to position 25
Node 14 maps to position 26
Node 17 maps to position 27
Node 34 maps to position 28
Node 38 maps to position 29
Node 39 maps to position 30
Node 43 maps to position 31
Node 47 maps to position 32
Node 5 maps to position 33
Node 10 maps to position 34
Node 12 maps to position 35
Node 13 maps to position 36
Node 18 maps to position 37
Node 22 maps to position 38
Node 23 maps to position 39
Node 28 maps to position 40
Node 29 maps to position 41
Node 41 maps to position 42
Node 44 maps to position 43
Node 4 maps to position 44
Node 11 maps to position 45
Node 36 maps to position 46
Node 45 maps to position 47
Node 20 maps to position 48
Node 26 maps to position 49
1(-1)->2 3 4 5 6 7 8 9 11 21 27 28 34 40 44 45 
40(-1)->1 7 13 19 30 32 33 42 43 44 48 
48(-1)->2 10 11 15 30 32 33 37 40 47 49 
19(-1)->2 8 9 22 24 29 36 40 49 50 
2(-1)->1 3 9 10 19 24 25 48 49 
15(-1)->12 23 24 25 27 45 48 49 50 
24(-1)->2 12 13 15 19 20 31 41 47 
31(-1)->5 7 8 16 18 24 30 33 46 
3(-1)->1 2 4 7 9 32 36 46 
8(-1)->1 4 14 19 21 31 39 43 
16(-1)->9 10 17 21 25 28 31 39 
32(-1)->3 7 37 38 39 40 45 48 
9(-1)->1 2 3 16 19 37 42 
25(-1)->2 15 16 17 37 41 50 
27(-1)->1 15 17 26 34 39 50 
30(-1)->13 29 31 33 40 42 48 
33(-1)->18 23 30 31 40 41 48 
49(-1)->2 15 19 23 35 46 48 
50(-1)->15 19 25 27 35 43 44 
6(-1)->1 22 29 38 42 46 
7(-1)->1 3 31 32 40 42 
21(-1)->1 8 12 14 16 41 
35(-1)->11 36 39 44 49 50 
37(-1)->9 25 32 42 47 48 
42(-1)->6 7 9 30 37 40 
46(-1)->3 6 12 14 31 49 
14(-1)->5 8 21 46 47 
17(-1)->16 25 27 28 47 
34(-1)->1 13 22 27 38 
38(-1)->6 10 32 34 43 
39(-1)->8 16 27 32 35 
43(-1)->8 18 38 40 50 
47(-1)->14 17 24 37 48 
5(-1)->1 14 18 31 
10(-1)->2 16 38 48 
12(-1)->15 21 24 46 
13(-1)->24 30 34 40 
18(-1)->5 31 33 43 
22(-1)->6 19 23 34 
23(-1)->15 22 33 49 
28(-1)->1 16 17 29 
29(-1)->6 19 28 30 
41(-1)->21 24 25 33 
44(-1)->1 35 40 50 
4(-1)->1 3 8 
11(-1)->1 35 48 
36(-1)->3 19 35 
45(-1)->1 15 32 
20(-1)->24 
26(-1)->27 
-------
BLAH
START TIME: 1433711427
Cq = 4 and is assigned to x20
BACKTRACKED TO DEPTH: 19
0 1 2 3 
Cq = 3 and is assigned to x6
BACKTRACKED TO DEPTH: 5
0 1 2 
1(0)->2 3 4 5 6 7 8 9 11 21 27 28 34 40 44 45 
2(2)->1 3 9 10 19 24 25 48 49 
3(1)->1 2 4 7 9 32 36 46 
4(2)->1 3 8 
5(2)->1 14 18 31 
6(1)->1 22 29 38 42 46 
7(3)->1 3 31 32 40 42 
8(1)->1 4 14 19 21 31 39 43 
9(3)->1 2 3 16 19 37 42 
10(3)->2 16 38 48 
11(1)->1 35 48 
12(0)->15 21 24 46 
13(0)->24 30 34 40 
14(0)->5 8 21 46 47 
15(1)->12 23 24 25 27 45 48 49 50 
16(1)->9 10 17 21 25 28 31 39 
17(3)->16 25 27 28 47 
18(1)->5 31 33 43 
19(0)->2 8 9 22 24 29 36 40 49 50 
20(0)->24 
21(2)->1 8 12 14 16 41 
22(2)->6 19 23 34 
23(0)->15 22 33 49 
24(3)->2 12 13 15 19 20 31 41 47 
25(0)->2 15 16 17 37 41 50 
26(0)->27 
27(2)->1 15 17 26 34 39 50 
28(2)->1 16 17 29 
29(3)->6 19 28 30 
30(2)->13 29 31 33 40 42 48 
31(0)->5 7 8 16 18 24 30 33 46 
32(2)->3 7 37 38 39 40 45 48 
33(3)->18 23 30 31 40 41 48 
34(1)->1 13 22 27 38 
35(0)->11 36 39 44 49 50 
36(2)->3 19 35 
37(1)->9 25 32 42 47 48 
38(0)->6 10 32 34 43 
39(3)->8 16 27 32 35 
40(1)->1 7 13 19 30 32 33 42 43 44 48 
41(1)->21 24 25 33 
42(0)->6 7 9 30 37 40 
43(2)->8 18 38 40 50 
44(2)->1 35 40 50 
45(3)->1 15 32 
46(2)->3 6 12 14 31 49 
47(2)->14 17 24 37 48 
48(0)->2 10 11 15 30 32 33 37 40 47 49 
49(3)->2 15 19 23 35 46 48 
50(3)->15 19 25 27 35 43 44 
COUNT: 3359
COLORS: 4
EDGES: 150
4
3359
