1: 2 3 4 5 6 7 8 9 10 11 12 13 14 15 16 17 18 19 20 21 22 23 24 25 26 27 28 29 30 31 32 33 34 35 36 37 46 50
2: 1 3 4 37 35 7 40 42 13 14 48 17 19 20 22 23 26 27 30
3: 32 1 2 8 12 13 18 26 27 29 30
4: 33 2 37 1 11 20 24
5: 33 38 1 45 15 49 18
6: 1 37 38 7 40 9 44 45 12 16 46 23 24
7: 48 34 37 6 1 41 2 16 49 22 25 27 28
8: 32 1 3 40 12 42 11 44 13 17 43
9: 1 35 6 40 43 23
10: 1 39 12 19 27 28 29
11: 1 36 37 38 15 41 42 43 47 8 18 4 27 31
12: 1 3 6 8 10 17
13: 1 2 35 8 43 15 27 49 3 22 23 47 30 31
14: 40 1 2 30 25
15: 1 34 11 36 5 49 39 13 17 18 22 28 29
16: 1 20 30 6 7
17: 1 2 38 8 12 45 47 48 15
18: 1 3 5 41 11 15 22 30 37
19: 1 2 35 36 38 10 22 23 24 42 31
20: 16 2 4 1 44 48 31
21: 1 41 42 43 44 23 29
22: 32 33 2 36 7 39 13 15 18 19 1 47 29
23: 1 2 35 38 6 40 9 13 47 19 21 41 29 30
24: 1 4 6 44 46 50 19 26
25: 1 34 38 7 41 39 45 14 49 28 31
26: 1 2 3 39 47 24 27
27: 1 2 3 38 7 41 10 11 13 26 42
28: 1 38 7 41 10 45 46 15 25 30
29: 1 3 36 37 38 10 45 15 21 22 23
30: 1 2 3 40 13 14 16 18 23 28
31: 33 37 1 42 11 13 19 20 25
32: 1 3 8 42 48 40 22
33: 1 36 5 22 4 31
34: 1 37 7 46 47 25 15
35: 1 2 9 42 43 13 49 50 19 23
36: 33 1 40 42 11 44 47 19 22 15 29
37: 1 34 4 38 6 7 11 2 46 18 29 31
38: 5 6 42 11 46 17 19 23 25 27 28 29 37
39: 10 15 50 22 25 26
40: 32 2 36 6 8 41 23 14 48 50 9 30
41: 50 7 40 42 11 45 47 18 21 23 25 27 28
42: 32 2 35 36 38 8 41 11 19 21 27 31
43: 35 8 9 11 13 21
44: 36 6 8 50 20 21 24
45: 5 6 41 17 25 28 29
46: 1 34 37 6 24 38 28
47: 34 36 41 11 13 17 22 23 26
48: 32 2 7 40 17 20
49: 35 5 7 13 15 25
50: 1 35 39 40 41 44 24
-------
1(-1)->2 3 4 5 6 7 8 9 10 11 12 13 14 15 16 17 18 19 20 21 22 23 24 25 26 27 28 29 30 31 32 33 34 35 36 37 46 50 
2(-1)->1 3 4 7 13 14 17 19 20 22 23 26 27 30 35 37 40 42 48 
3(-1)->1 2 8 12 13 18 26 27 29 30 32 
4(-1)->1 2 11 20 24 33 37 
5(-1)->1 15 18 33 38 45 49 
6(-1)->1 7 9 12 16 23 24 37 38 40 44 45 46 
7(-1)->1 2 6 16 22 25 27 28 34 37 41 48 49 
8(-1)->1 3 11 12 13 17 32 40 42 43 44 
9(-1)->1 6 23 35 40 43 
10(-1)->1 12 19 27 28 29 39 
11(-1)->1 4 8 15 18 27 31 36 37 38 41 42 43 47 
12(-1)->1 3 6 8 10 17 
13(-1)->1 2 3 8 15 22 23 27 30 31 35 43 47 49 
14(-1)->1 2 25 30 40 
15(-1)->1 5 11 13 17 18 22 28 29 34 36 39 49 
16(-1)->1 6 7 20 30 
17(-1)->1 2 8 12 15 38 45 47 48 
18(-1)->1 3 5 11 15 22 30 37 41 
19(-1)->1 2 10 22 23 24 31 35 36 38 42 
20(-1)->1 2 4 16 31 44 48 
21(-1)->1 23 29 41 42 43 44 
22(-1)->1 2 7 13 15 18 19 29 32 33 36 39 47 
23(-1)->1 2 6 9 13 19 21 29 30 35 38 40 41 47 
24(-1)->1 4 6 19 26 44 46 50 
25(-1)->1 7 14 28 31 34 38 39 41 45 49 
26(-1)->1 2 3 24 27 39 47 
27(-1)->1 2 3 7 10 11 13 26 38 41 42 
28(-1)->1 7 10 15 25 30 38 41 45 46 
29(-1)->1 3 10 15 21 22 23 36 37 38 45 
30(-1)->1 2 3 13 14 16 18 23 28 40 
31(-1)->1 11 13 19 20 25 33 37 42 
32(-1)->1 3 8 22 40 42 48 
33(-1)->1 4 5 22 31 36 
34(-1)->1 7 15 25 37 46 47 
35(-1)->1 2 9 13 19 23 42 43 49 50 
36(-1)->1 11 15 19 22 29 33 40 42 44 47 
37(-1)->1 2 4 6 7 11 18 29 31 34 38 46 
38(-1)->5 6 11 17 19 23 25 27 28 29 37 42 46 
39(-1)->10 15 22 25 26 50 
40(-1)->2 6 8 9 14 23 30 32 36 41 48 50 
41(-1)->7 11 18 21 23 25 27 28 40 42 45 47 50 
42(-1)->2 8 11 19 21 27 31 32 35 36 38 41 
43(-1)->8 9 11 13 21 35 
44(-1)->6 8 20 21 24 36 50 
45(-1)->5 6 17 25 28 29 41 
46(-1)->1 6 24 28 34 37 38 
47(-1)->11 13 17 22 23 26 34 36 41 
48(-1)->2 7 17 20 32 40 
49(-1)->5 7 13 15 25 35 
50(-1)->1 24 35 39 40 41 44 
-------
Node 1 maps to position 0
Node 2 maps to position 1
Node 11 maps to position 2
Node 13 maps to position 3
Node 23 maps to position 4
Node 6 maps to position 5
Node 7 maps to position 6
Node 15 maps to position 7
Node 22 maps to position 8
Node 38 maps to position 9
Node 41 maps to position 10
Node 37 maps to position 11
Node 40 maps to position 12
Node 42 maps to position 13
Node 3 maps to position 14
Node 8 maps to position 15
Node 19 maps to position 16
Node 25 maps to position 17
Node 27 maps to position 18
Node 29 maps to position 19
Node 36 maps to position 20
Node 28 maps to position 21
Node 30 maps to position 22
Node 35 maps to position 23
Node 17 maps to position 24
Node 18 maps to position 25
Node 31 maps to position 26
Node 47 maps to position 27
Node 24 maps to position 28
Node 4 maps to position 29
Node 5 maps to position 30
Node 10 maps to position 31
Node 20 maps to position 32
Node 21 maps to position 33
Node 26 maps to position 34
Node 32 maps to position 35
Node 34 maps to position 36
Node 44 maps to position 37
Node 45 maps to position 38
Node 46 maps to position 39
Node 50 maps to position 40
Node 9 maps to position 41
Node 12 maps to position 42
Node 33 maps to position 43
Node 39 maps to position 44
Node 43 maps to position 45
Node 48 maps to position 46
Node 49 maps to position 47
Node 14 maps to position 48
Node 16 maps to position 49
1(-1)->2 3 4 5 6 7 8 9 10 11 12 13 14 15 16 17 18 19 20 21 22 23 24 25 26 27 28 29 30 31 32 33 34 35 36 37 46 50 
2(-1)->1 3 4 7 13 14 17 19 20 22 23 26 27 30 35 37 40 42 48 
11(-1)->1 4 8 15 18 27 31 36 37 38 41 42 43 47 
13(-1)->1 2 3 8 15 22 23 27 30 31 35 43 47 49 
23(-1)->1 2 6 9 13 19 21 29 30 35 38 40 41 47 
6(-1)->1 7 9 12 16 23 24 37 38 40 44 45 46 
7(-1)->1 2 6 16 22 25 27 28 34 37 41 48 49 
15(-1)->1 5 11 13 17 18 22 28 29 34 36 39 49 
22(-1)->1 2 7 13 15 18 19 29 32 33 36 39 47 
38(-1)->5 6 11 17 19 23 25 27 28 29 37 42 46 
41(-1)->7 11 18 21 23 25 27 28 40 42 45 47 50 
37(-1)->1 2 4 6 7 11 18 29 31 34 38 46 
40(-1)->2 6 8 9 14 23 30 32 36 41 48 50 
42(-1)->2 8 11 19 21 27 31 32 35 36 38 41 
3(-1)->1 2 8 12 13 18 26 27 29 30 32 
8(-1)->1 3 11 12 13 17 32 40 42 43 44 
19(-1)->1 2 10 22 23 24 31 35 36 38 42 
25(-1)->1 7 14 28 31 34 38 39 41 45 49 
27(-1)->1 2 3 7 10 11 13 26 38 41 42 
29(-1)->1 3 10 15 21 22 23 36 37 38 45 
36(-1)->1 11 15 19 22 29 33 40 42 44 47 
28(-1)->1 7 10 15 25 30 38 41 45 46 
30(-1)->1 2 3 13 14 16 18 23 28 40 
35(-1)->1 2 9 13 19 23 42 43 49 50 
17(-1)->1 2 8 12 15 38 45 47 48 
18(-1)->1 3 5 11 15 22 30 37 41 
31(-1)->1 11 13 19 20 25 33 37 42 
47(-1)->11 13 17 22 23 26 34 36 41 
24(-1)->1 4 6 19 26 44 46 50 
4(-1)->1 2 11 20 24 33 37 
5(-1)->1 15 18 33 38 45 49 
10(-1)->1 12 19 27 28 29 39 
20(-1)->1 2 4 16 31 44 48 
21(-1)->1 23 29 41 42 43 44 
26(-1)->1 2 3 24 27 39 47 
32(-1)->1 3 8 22 40 42 48 
34(-1)->1 7 15 25 37 46 47 
44(-1)->6 8 20 21 24 36 50 
45(-1)->5 6 17 25 28 29 41 
46(-1)->1 6 24 28 34 37 38 
50(-1)->1 24 35 39 40 41 44 
9(-1)->1 6 23 35 40 43 
12(-1)->1 3 6 8 10 17 
33(-1)->1 4 5 22 31 36 
39(-1)->10 15 22 25 26 50 
43(-1)->8 9 11 13 21 35 
48(-1)->2 7 17 20 32 40 
49(-1)->5 7 13 15 25 35 
14(-1)->1 2 25 30 40 
16(-1)->1 6 7 20 30 
-------
BLAH
START TIME: 1433711845
Cq = 6 and is assigned to x20
BACKTRACKED TO DEPTH: 19
0 1 2 3 4 5 
Cq = 5 and is assigned to x15
BACKTRACKED TO DEPTH: 14
0 1 2 3 4 
10000
20000
Cq = 4 and is assigned to x5
BACKTRACKED TO DEPTH: 4
0 1 2 3 
1(0)->2 3 4 5 6 7 8 9 10 11 12 13 14 15 16 17 18 19 20 21 22 23 24 25 26 27 28 29 30 31 32 33 34 35 36 37 46 50 
2(1)->1 3 4 7 13 14 17 19 20 22 23 26 27 30 35 37 40 42 48 
3(3)->1 2 8 12 13 18 26 27 29 30 32 
4(4)->1 2 11 20 24 33 37 
5(3)->1 15 18 33 38 45 49 
6(4)->1 7 9 12 16 23 24 37 38 40 44 45 46 
7(2)->1 2 6 16 22 25 27 28 34 37 41 48 49 
8(1)->1 3 11 12 13 17 32 40 42 43 44 
9(1)->1 6 23 35 40 43 
10(1)->1 12 19 27 28 29 39 
11(2)->1 4 8 15 18 27 31 36 37 38 41 42 43 47 
12(2)->1 3 6 8 10 17 
13(2)->1 2 3 8 15 22 23 27 30 31 35 43 47 49 
14(3)->1 2 25 30 40 
15(4)->1 5 11 13 17 18 22 28 29 34 36 39 49 
16(1)->1 6 7 20 30 
17(3)->1 2 8 12 15 38 45 47 48 
18(1)->1 3 5 11 15 22 30 37 41 
19(2)->1 2 10 22 23 24 31 35 36 38 42 
20(2)->1 2 4 16 31 44 48 
21(1)->1 23 29 41 42 43 44 
22(3)->1 2 7 13 15 18 19 29 32 33 36 39 47 
23(3)->1 2 6 9 13 19 21 29 30 35 38 40 41 47 
24(1)->1 4 6 19 26 44 46 50 
25(4)->1 7 14 28 31 34 38 39 41 45 49 
26(2)->1 2 3 24 27 39 47 
27(4)->1 2 3 7 10 11 13 26 38 41 42 
28(3)->1 7 10 15 25 30 38 41 45 46 
29(2)->1 3 10 15 21 22 23 36 37 38 45 
30(4)->1 2 3 13 14 16 18 23 28 40 
31(1)->1 11 13 19 20 25 33 37 42 
32(4)->1 3 8 22 40 42 48 
33(2)->1 4 5 22 31 36 
34(1)->1 7 15 25 37 46 47 
35(4)->1 2 9 13 19 23 42 43 49 50 
36(1)->1 11 15 19 22 29 33 40 42 44 47 
37(3)->1 2 4 6 7 11 18 29 31 34 38 46 
38(0)->5 6 11 17 19 23 25 27 28 29 37 42 46 
39(0)->10 15 22 25 26 50 
40(2)->2 6 8 9 14 23 30 32 36 41 48 50 
41(0)->7 11 18 21 23 25 27 28 40 42 45 47 50 
42(3)->2 8 11 19 21 27 31 32 35 36 38 41 
43(0)->8 9 11 13 21 35 
44(0)->6 8 20 21 24 36 50 
45(1)->5 6 17 25 28 29 41 
46(2)->1 6 24 28 34 37 38 
47(4)->11 13 17 22 23 26 34 36 41 
48(0)->2 7 17 20 32 40 
49(0)->5 7 13 15 25 35 
50(3)->1 24 35 39 40 41 44 
COUNT: 22593
COLORS: 5
EDGES: 250
5
22593
