1: 2 3 4 5 6 7 8 9 10 11 12 13 14 15 16 17 18 19 20 21 22 23 24 25 26 30 32 33 36 37 38 41 42
2: 32 1 3 7 8 9 10 43 12 15 16 17 23 26 28
3: 1 2 45 16 17 21
4: 1 34 35 7 8 42 47 19 22
5: 1 38 41 10 11 44 50 22 27 28 30
6: 32 1 35 36 38 44 43 12 13 14 49 24 26 30
7: 1 2 4 44 43 12 16 17 19 22
8: 32 1 2 4 37 12 13 48 27
9: 32 33 2 1 40 45 15 22
10: 1 2 36 5 40 12 16 23
11: 1 35 5 40 26 30
12: 1 34 6 7 8 41 10 2 13 46 47 49 50 20 22 24
13: 32 1 35 6 8 42 43 12 14 47 16 49 18 19 20 23 31
14: 1 6 41 44 13 46 47 23 24
15: 1 2 36 9 46 47 49 22 25
16: 1 2 35 33 39 40 42 7 13 3 21 10
17: 1 2 3 7 39 45 49 24 27 29
18: 1 41 42 44 13 46 47 25 29
19: 1 35 4 7 39 13 48 49 20 27
20: 1 39 40 12 13 19 23 24 26 31
21: 1 3 44 45 16 49
22: 1 35 4 5 7 9 39 12 15 48 49 50 43 25
23: 1 2 36 40 10 13 46 47 20 14 27 28
24: 32 1 6 38 44 12 14 17 20 31
25: 32 1 35 15 48 18 22 27
26: 1 2 11 6 40 43 44 46 48 20 29
27: 35 5 38 8 42 17 19 23 25
28: 33 34 35 5 43 2 47 48 23 45
29: 36 40 17 18 26 30
30: 32 1 5 6 11 44 46 50 29
31: 41 44 13 46 20 24
32: 1 2 6 38 8 9 42 13 24 25 30
33: 1 37 16 39 9 48 49 28
34: 35 4 40 12 48 28
35: 34 4 6 11 13 16 19 22 25 27 28
36: 1 6 10 15 48 49 23 29
37: 8 33 42 1
38: 32 1 5 6 39 48 24 27
39: 33 38 17 16 49 19 20 22
40: 34 9 10 11 16 20 23 26 29
41: 1 5 12 14 48 49 18 31
42: 32 1 4 37 44 13 16 18 27
43: 2 6 7 13 46 47 22 26 28
44: 5 6 7 42 14 47 18 21 24 26 30 31
45: 9 3 28 21 17
46: 43 12 14 15 18 23 26 47 30 31
47: 50 4 12 43 44 13 14 15 48 18 46 23 28
48: 33 34 36 38 8 41 47 19 22 25 26 28
49: 33 36 6 39 41 12 13 15 17 19 21 22
50: 5 12 30 22 47
-------
1(-1)->2 3 4 5 6 7 8 9 10 11 12 13 14 15 16 17 18 19 20 21 22 23 24 25 26 30 32 33 36 37 38 41 42 
2(-1)->1 3 7 8 9 10 12 15 16 17 23 26 28 32 43 
3(-1)->1 2 16 17 21 45 
4(-1)->1 7 8 19 22 34 35 42 47 
5(-1)->1 10 11 22 27 28 30 38 41 44 50 
6(-1)->1 12 13 14 24 26 30 32 35 36 38 43 44 49 
7(-1)->1 2 4 12 16 17 19 22 43 44 
8(-1)->1 2 4 12 13 27 32 37 48 
9(-1)->1 2 15 22 32 33 40 45 
10(-1)->1 2 5 12 16 23 36 40 
11(-1)->1 5 26 30 35 40 
12(-1)->1 2 6 7 8 10 13 20 22 24 34 41 46 47 49 50 
13(-1)->1 6 8 12 14 16 18 19 20 23 31 32 35 42 43 47 49 
14(-1)->1 6 13 23 24 41 44 46 47 
15(-1)->1 2 9 22 25 36 46 47 49 
16(-1)->1 2 3 7 10 13 21 33 35 39 40 42 
17(-1)->1 2 3 7 24 27 29 39 45 49 
18(-1)->1 13 25 29 41 42 44 46 47 
19(-1)->1 4 7 13 20 27 35 39 48 49 
20(-1)->1 12 13 19 23 24 26 31 39 40 
21(-1)->1 3 16 44 45 49 
22(-1)->1 4 5 7 9 12 15 25 35 39 43 48 49 50 
23(-1)->1 2 10 13 14 20 27 28 36 40 46 47 
24(-1)->1 6 12 14 17 20 31 32 38 44 
25(-1)->1 15 18 22 27 32 35 48 
26(-1)->1 2 6 11 20 29 40 43 44 46 48 
27(-1)->5 8 17 19 23 25 35 38 42 
28(-1)->2 5 23 33 34 35 43 45 47 48 
29(-1)->17 18 26 30 36 40 
30(-1)->1 5 6 11 29 32 44 46 50 
31(-1)->13 20 24 41 44 46 
32(-1)->1 2 6 8 9 13 24 25 30 38 42 
33(-1)->1 9 16 28 37 39 48 49 
34(-1)->4 12 28 35 40 48 
35(-1)->4 6 11 13 16 19 22 25 27 28 34 
36(-1)->1 6 10 15 23 29 48 49 
37(-1)->1 8 33 42 
38(-1)->1 5 6 24 27 32 39 48 
39(-1)->16 17 19 20 22 33 38 49 
40(-1)->9 10 11 16 20 23 26 29 34 
41(-1)->1 5 12 14 18 31 48 49 
42(-1)->1 4 13 16 18 27 32 37 44 
43(-1)->2 6 7 13 22 26 28 46 47 
44(-1)->5 6 7 14 18 21 24 26 30 31 42 47 
45(-1)->3 9 17 21 28 
46(-1)->12 14 15 18 23 26 30 31 43 47 
47(-1)->4 12 13 14 15 18 23 28 43 44 46 48 50 
48(-1)->8 19 22 25 26 28 33 34 36 38 41 47 
49(-1)->6 12 13 15 17 19 21 22 33 36 39 41 
50(-1)->5 12 22 30 47 
-------
Node 1 maps to position 0
Node 13 maps to position 1
Node 12 maps to position 2
Node 2 maps to position 3
Node 6 maps to position 4
Node 22 maps to position 5
Node 47 maps to position 6
Node 16 maps to position 7
Node 23 maps to position 8
Node 44 maps to position 9
Node 48 maps to position 10
Node 49 maps to position 11
Node 5 maps to position 12
Node 26 maps to position 13
Node 32 maps to position 14
Node 35 maps to position 15
Node 7 maps to position 16
Node 17 maps to position 17
Node 19 maps to position 18
Node 20 maps to position 19
Node 24 maps to position 20
Node 28 maps to position 21
Node 46 maps to position 22
Node 4 maps to position 23
Node 8 maps to position 24
Node 14 maps to position 25
Node 15 maps to position 26
Node 18 maps to position 27
Node 27 maps to position 28
Node 30 maps to position 29
Node 40 maps to position 30
Node 42 maps to position 31
Node 43 maps to position 32
Node 9 maps to position 33
Node 10 maps to position 34
Node 25 maps to position 35
Node 33 maps to position 36
Node 36 maps to position 37
Node 38 maps to position 38
Node 39 maps to position 39
Node 41 maps to position 40
Node 3 maps to position 41
Node 11 maps to position 42
Node 21 maps to position 43
Node 29 maps to position 44
Node 31 maps to position 45
Node 34 maps to position 46
Node 45 maps to position 47
Node 50 maps to position 48
Node 37 maps to position 49
1(-1)->2 3 4 5 6 7 8 9 10 11 12 13 14 15 16 17 18 19 20 21 22 23 24 25 26 30 32 33 36 37 38 41 42 
13(-1)->1 6 8 12 14 16 18 19 20 23 31 32 35 42 43 47 49 
12(-1)->1 2 6 7 8 10 13 20 22 24 34 41 46 47 49 50 
2(-1)->1 3 7 8 9 10 12 15 16 17 23 26 28 32 43 
6(-1)->1 12 13 14 24 26 30 32 35 36 38 43 44 49 
22(-1)->1 4 5 7 9 12 15 25 35 39 43 48 49 50 
47(-1)->4 12 13 14 15 18 23 28 43 44 46 48 50 
16(-1)->1 2 3 7 10 13 21 33 35 39 40 42 
23(-1)->1 2 10 13 14 20 27 28 36 40 46 47 
44(-1)->5 6 7 14 18 21 24 26 30 31 42 47 
48(-1)->8 19 22 25 26 28 33 34 36 38 41 47 
49(-1)->6 12 13 15 17 19 21 22 33 36 39 41 
5(-1)->1 10 11 22 27 28 30 38 41 44 50 
26(-1)->1 2 6 11 20 29 40 43 44 46 48 
32(-1)->1 2 6 8 9 13 24 25 30 38 42 
35(-1)->4 6 11 13 16 19 22 25 27 28 34 
7(-1)->1 2 4 12 16 17 19 22 43 44 
17(-1)->1 2 3 7 24 27 29 39 45 49 
19(-1)->1 4 7 13 20 27 35 39 48 49 
20(-1)->1 12 13 19 23 24 26 31 39 40 
24(-1)->1 6 12 14 17 20 31 32 38 44 
28(-1)->2 5 23 33 34 35 43 45 47 48 
46(-1)->12 14 15 18 23 26 30 31 43 47 
4(-1)->1 7 8 19 22 34 35 42 47 
8(-1)->1 2 4 12 13 27 32 37 48 
14(-1)->1 6 13 23 24 41 44 46 47 
15(-1)->1 2 9 22 25 36 46 47 49 
18(-1)->1 13 25 29 41 42 44 46 47 
27(-1)->5 8 17 19 23 25 35 38 42 
30(-1)->1 5 6 11 29 32 44 46 50 
40(-1)->9 10 11 16 20 23 26 29 34 
42(-1)->1 4 13 16 18 27 32 37 44 
43(-1)->2 6 7 13 22 26 28 46 47 
9(-1)->1 2 15 22 32 33 40 45 
10(-1)->1 2 5 12 16 23 36 40 
25(-1)->1 15 18 22 27 32 35 48 
33(-1)->1 9 16 28 37 39 48 49 
36(-1)->1 6 10 15 23 29 48 49 
38(-1)->1 5 6 24 27 32 39 48 
39(-1)->16 17 19 20 22 33 38 49 
41(-1)->1 5 12 14 18 31 48 49 
3(-1)->1 2 16 17 21 45 
11(-1)->1 5 26 30 35 40 
21(-1)->1 3 16 44 45 49 
29(-1)->17 18 26 30 36 40 
31(-1)->13 20 24 41 44 46 
34(-1)->4 12 28 35 40 48 
45(-1)->3 9 17 21 28 
50(-1)->5 12 22 30 47 
37(-1)->1 8 33 42 
-------
BLAH
START TIME: 1433711846
Cq = 6 and is assigned to x39
BACKTRACKED TO DEPTH: 38
0 1 2 3 4 5 
10000
Cq = 5 and is assigned to x25
BACKTRACKED TO DEPTH: 24
0 1 2 3 4 
20000
Cq = 4 and is assigned to x9
BACKTRACKED TO DEPTH: 8
0 1 2 3 
1(0)->2 3 4 5 6 7 8 9 10 11 12 13 14 15 16 17 18 19 20 21 22 23 24 25 26 30 32 33 36 37 38 41 42 
2(1)->1 3 7 8 9 10 12 15 16 17 23 26 28 32 43 
3(3)->1 2 16 17 21 45 
4(4)->1 7 8 19 22 34 35 42 47 
5(3)->1 10 11 22 27 28 30 38 41 44 50 
6(3)->1 12 13 14 24 26 30 32 35 36 38 43 44 49 
7(3)->1 2 4 12 16 17 19 22 43 44 
8(3)->1 2 4 12 13 27 32 37 48 
9(3)->1 2 15 22 32 33 40 45 
10(4)->1 2 5 12 16 23 36 40 
11(1)->1 5 26 30 35 40 
12(2)->1 2 6 7 8 10 13 20 22 24 34 41 46 47 49 50 
13(1)->1 6 8 12 14 16 18 19 20 23 31 32 35 42 43 47 49 
14(2)->1 6 13 23 24 41 44 46 47 
15(2)->1 2 9 22 25 36 46 47 49 
16(2)->1 2 3 7 10 13 21 33 35 39 40 42 
17(2)->1 2 3 7 24 27 29 39 45 49 
18(2)->1 13 25 29 41 42 44 46 47 
19(2)->1 4 7 13 20 27 35 39 48 49 
20(4)->1 12 13 19 23 24 26 31 39 40 
21(1)->1 3 16 44 45 49 
22(1)->1 4 5 7 9 12 15 25 35 39 43 48 49 50 
23(3)->1 2 10 13 14 20 27 28 36 40 46 47 
24(1)->1 6 12 14 17 20 31 32 38 44 
25(3)->1 15 18 22 27 32 35 48 
26(2)->1 2 6 11 20 29 40 43 44 46 48 
27(1)->5 8 17 19 23 25 35 38 42 
28(2)->2 5 23 33 34 35 43 45 47 48 
29(3)->17 18 26 30 36 40 
30(2)->1 5 6 11 29 32 44 46 50 
31(0)->13 20 24 41 44 46 
32(4)->1 2 6 8 9 13 24 25 30 38 42 
33(1)->1 9 16 28 37 39 48 49 
34(1)->4 12 28 35 40 48 
35(0)->4 6 11 13 16 19 22 25 27 28 34 
36(1)->1 6 10 15 23 29 48 49 
37(2)->1 8 33 42 
38(2)->1 5 6 24 27 32 39 48 
39(3)->16 17 19 20 22 33 38 49 
40(0)->9 10 11 16 20 23 26 29 34 
41(1)->1 5 12 14 18 31 48 49 
42(3)->1 4 13 16 18 27 32 37 44 
43(4)->2 6 7 13 22 26 28 46 47 
44(4)->5 6 7 14 18 21 24 26 30 31 42 47 
45(0)->3 9 17 21 28 
46(1)->12 14 15 18 23 26 30 31 43 47 
47(0)->4 12 13 14 15 18 23 28 43 44 46 48 50 
48(4)->8 19 22 25 26 28 33 34 36 38 41 47 
49(0)->6 12 13 15 17 19 21 22 33 36 39 41 
50(4)->5 12 22 30 47 
COUNT: 21270
COLORS: 5
EDGES: 250
5
21270
