1: 2 3 4 5 6 7 8 9 10 11 12 13 14 15 16 17 18 19 20 21 22 23 24 25 26 27 28 29 30 31 32 33 34 35 36 37 38 39 40 41 42 43 44 45 46 47 48 49
2: 1 3 4 5 6 7 8 9 10 11 12 13 14 15 16 17 18 19 23 24 26 28 30 35 37 40 42 44 48
3: 1 2 35 4 5 38 39 8 9 11 12 45 13 20 23 7 6 27 28 30
4: 32 1 34 3 5 38 8 2 46 15 16 6 19 26
5: 32 1 34 3 4 6 41 10 43 12 2 47 48 26
6: 1 2 3 4 5 7 41 10 11 18 16 17 50 21 23 27 28
7: 32 33 2 3 1 6 39 44 47 17 25 28 29 31
8: 1 2 3 4 41 11 15 16 50 21 9 26 29 30 31
9: 1 34 35 38 8 2 46 49 3 20 23 31
10: 16 34 35 1 5 6 39 41 11 2 46 48 49 24 26 29
11: 32 1 2 3 36 6 8 10 12 45 46 47 16 49 42 30
12: 32 1 2 3 36 5 40 11 44 15 16 17 23 24 28
13: 16 2 3 36 37 1 43 48 18 22 24 25 30
14: 33 2 36 1 40 46 48 17 23
15: 32 1 2 4 8 42 12 19 23 24 31
16: 33 34 4 6 1 8 42 11 12 13 46 10 24 2 29
17: 1 2 6 7 39 12 14 47 49 27 31
18: 1 2 37 6 44 45 13 48 50 19 23
19: 32 1 2 34 4 39 41 50 47 49 18 15
20: 32 33 3 38 1 40 9 42 45 49 50 22 24 27 30 31
21: 1 34 36 6 8 42 40 23 25 27 31
22: 1 34 36 39 43 13 20 26 27
23: 32 1 2 3 37 6 40 44 12 14 15 18 21 9
24: 1 2 36 10 12 45 15 16 13 20 27 29 31
25: 33 34 1 37 7 42 13 47 21 27
26: 1 2 4 5 8 42 47 50 22 36 10
27: 1 3 36 6 42 43 17 50 20 21 22 24 25 29
28: 32 1 2 3 6 7 12 48
29: 33 1 7 8 41 10 46 47 16 24 27
30: 33 2 3 38 1 8 11 44 13 46 45 20
31: 33 1 37 38 7 8 9 15 17 20 21 24
32: 1 4 5 38 7 40 41 11 12 15 49 19 20 23 28
33: 48 35 1 38 7 40 41 39 14 16 49 20 25 29 30 31
34: 1 35 4 5 40 9 10 43 46 16 19 21 22 25
35: 1 34 3 33 9 10 39 44 2 45 48
36: 1 45 38 12 11 44 13 14 47 48 21 22 24 26 27
37: 1 2 39 42 18 13 46 49 50 23 25 31
38: 32 33 3 4 1 9 46 48 49 20 36 30 31
39: 33 3 1 37 35 7 40 10 43 17 50 19 22
40: 32 33 34 1 39 2 12 45 14 50 20 21 23
41: 32 33 5 6 1 8 10 46 48 19 29
42: 1 2 37 15 11 47 16 20 21 25 26 27
43: 1 34 5 39 13 46 50 22 27
44: 1 2 35 36 7 12 47 18 23 30
45: 1 3 36 40 11 50 46 47 49 18 35 20 24 30
46: 1 34 43 4 37 38 9 10 11 45 14 16 41 29 30
47: 1 49 36 5 7 42 11 44 45 17 50 19 25 26 29
48: 33 2 35 36 5 38 1 41 10 13 14 18 28
49: 32 33 37 38 1 9 10 11 45 47 17 19 20
50: 37 6 39 8 43 45 47 40 18 19 20 26 27
-------
1(-1)->2 3 4 5 6 7 8 9 10 11 12 13 14 15 16 17 18 19 20 21 22 23 24 25 26 27 28 29 30 31 32 33 34 35 36 37 38 39 40 41 42 43 44 45 46 47 48 49 
2(-1)->1 3 4 5 6 7 8 9 10 11 12 13 14 15 16 17 18 19 23 24 26 28 30 35 37 40 42 44 48 
3(-1)->1 2 4 5 6 7 8 9 11 12 13 20 23 27 28 30 35 38 39 45 
4(-1)->1 2 3 5 6 8 15 16 19 26 32 34 38 46 
5(-1)->1 2 3 4 6 10 12 26 32 34 41 43 47 48 
6(-1)->1 2 3 4 5 7 10 11 16 17 18 21 23 27 28 41 50 
7(-1)->1 2 3 6 17 25 28 29 31 32 33 39 44 47 
8(-1)->1 2 3 4 9 11 15 16 21 26 29 30 31 41 50 
9(-1)->1 2 3 8 20 23 31 34 35 38 46 49 
10(-1)->1 2 5 6 11 16 24 26 29 34 35 39 41 46 48 49 
11(-1)->1 2 3 6 8 10 12 16 30 32 36 42 45 46 47 49 
12(-1)->1 2 3 5 11 15 16 17 23 24 28 32 36 40 44 
13(-1)->1 2 3 16 18 22 24 25 30 36 37 43 48 
14(-1)->1 2 17 23 33 36 40 46 48 
15(-1)->1 2 4 8 12 19 23 24 31 32 42 
16(-1)->1 2 4 6 8 10 11 12 13 24 29 33 34 42 46 
17(-1)->1 2 6 7 12 14 27 31 39 47 49 
18(-1)->1 2 6 13 19 23 37 44 45 48 50 
19(-1)->1 2 4 15 18 32 34 39 41 47 49 50 
20(-1)->1 3 9 22 24 27 30 31 32 33 38 40 42 45 49 50 
21(-1)->1 6 8 23 25 27 31 34 36 40 42 
22(-1)->1 13 20 26 27 34 36 39 43 
23(-1)->1 2 3 6 9 12 14 15 18 21 32 37 40 44 
24(-1)->1 2 10 12 13 15 16 20 27 29 31 36 45 
25(-1)->1 7 13 21 27 33 34 37 42 47 
26(-1)->1 2 4 5 8 10 22 36 42 47 50 
27(-1)->1 3 6 17 20 21 22 24 25 29 36 42 43 50 
28(-1)->1 2 3 6 7 12 32 48 
29(-1)->1 7 8 10 16 24 27 33 41 46 47 
30(-1)->1 2 3 8 11 13 20 33 38 44 45 46 
31(-1)->1 7 8 9 15 17 20 21 24 33 37 38 
32(-1)->1 4 5 7 11 12 15 19 20 23 28 38 40 41 49 
33(-1)->1 7 14 16 20 25 29 30 31 35 38 39 40 41 48 49 
34(-1)->1 4 5 9 10 16 19 21 22 25 35 40 43 46 
35(-1)->1 2 3 9 10 33 34 39 44 45 48 
36(-1)->1 11 12 13 14 21 22 24 26 27 38 44 45 47 48 
37(-1)->1 2 13 18 23 25 31 39 42 46 49 50 
38(-1)->1 3 4 9 20 30 31 32 33 36 46 48 49 
39(-1)->1 3 7 10 17 19 22 33 35 37 40 43 50 
40(-1)->1 2 12 14 20 21 23 32 33 34 39 45 50 
41(-1)->1 5 6 8 10 19 29 32 33 46 48 
42(-1)->1 2 11 15 16 20 21 25 26 27 37 47 
43(-1)->1 5 13 22 27 34 39 46 50 
44(-1)->1 2 7 12 18 23 30 35 36 47 
45(-1)->1 3 11 18 20 24 30 35 36 40 46 47 49 50 
46(-1)->1 4 9 10 11 14 16 29 30 34 37 38 41 43 45 
47(-1)->1 5 7 11 17 19 25 26 29 36 42 44 45 49 50 
48(-1)->1 2 5 10 13 14 18 28 33 35 36 38 41 
49(-1)->1 9 10 11 17 19 20 32 33 37 38 45 47 
50(-1)->6 8 18 19 20 26 27 37 39 40 43 45 47 
-------
Node 1 maps to position 0
Node 2 maps to position 1
Node 3 maps to position 2
Node 6 maps to position 3
Node 10 maps to position 4
Node 11 maps to position 5
Node 20 maps to position 6
Node 33 maps to position 7
Node 8 maps to position 8
Node 12 maps to position 9
Node 16 maps to position 10
Node 32 maps to position 11
Node 36 maps to position 12
Node 46 maps to position 13
Node 47 maps to position 14
Node 4 maps to position 15
Node 5 maps to position 16
Node 7 maps to position 17
Node 23 maps to position 18
Node 27 maps to position 19
Node 34 maps to position 20
Node 45 maps to position 21
Node 13 maps to position 22
Node 24 maps to position 23
Node 38 maps to position 24
Node 39 maps to position 25
Node 40 maps to position 26
Node 48 maps to position 27
Node 49 maps to position 28
Node 50 maps to position 29
Node 9 maps to position 30
Node 19 maps to position 31
Node 30 maps to position 32
Node 31 maps to position 33
Node 37 maps to position 34
Node 42 maps to position 35
Node 15 maps to position 36
Node 17 maps to position 37
Node 18 maps to position 38
Node 21 maps to position 39
Node 26 maps to position 40
Node 29 maps to position 41
Node 35 maps to position 42
Node 41 maps to position 43
Node 25 maps to position 44
Node 44 maps to position 45
Node 14 maps to position 46
Node 22 maps to position 47
Node 43 maps to position 48
Node 28 maps to position 49
1(-1)->2 3 4 5 6 7 8 9 10 11 12 13 14 15 16 17 18 19 20 21 22 23 24 25 26 27 28 29 30 31 32 33 34 35 36 37 38 39 40 41 42 43 44 45 46 47 48 49 
2(-1)->1 3 4 5 6 7 8 9 10 11 12 13 14 15 16 17 18 19 23 24 26 28 30 35 37 40 42 44 48 
3(-1)->1 2 4 5 6 7 8 9 11 12 13 20 23 27 28 30 35 38 39 45 
6(-1)->1 2 3 4 5 7 10 11 16 17 18 21 23 27 28 41 50 
10(-1)->1 2 5 6 11 16 24 26 29 34 35 39 41 46 48 49 
11(-1)->1 2 3 6 8 10 12 16 30 32 36 42 45 46 47 49 
20(-1)->1 3 9 22 24 27 30 31 32 33 38 40 42 45 49 50 
33(-1)->1 7 14 16 20 25 29 30 31 35 38 39 40 41 48 49 
8(-1)->1 2 3 4 9 11 15 16 21 26 29 30 31 41 50 
12(-1)->1 2 3 5 11 15 16 17 23 24 28 32 36 40 44 
16(-1)->1 2 4 6 8 10 11 12 13 24 29 33 34 42 46 
32(-1)->1 4 5 7 11 12 15 19 20 23 28 38 40 41 49 
36(-1)->1 11 12 13 14 21 22 24 26 27 38 44 45 47 48 
46(-1)->1 4 9 10 11 14 16 29 30 34 37 38 41 43 45 
47(-1)->1 5 7 11 17 19 25 26 29 36 42 44 45 49 50 
4(-1)->1 2 3 5 6 8 15 16 19 26 32 34 38 46 
5(-1)->1 2 3 4 6 10 12 26 32 34 41 43 47 48 
7(-1)->1 2 3 6 17 25 28 29 31 32 33 39 44 47 
23(-1)->1 2 3 6 9 12 14 15 18 21 32 37 40 44 
27(-1)->1 3 6 17 20 21 22 24 25 29 36 42 43 50 
34(-1)->1 4 5 9 10 16 19 21 22 25 35 40 43 46 
45(-1)->1 3 11 18 20 24 30 35 36 40 46 47 49 50 
13(-1)->1 2 3 16 18 22 24 25 30 36 37 43 48 
24(-1)->1 2 10 12 13 15 16 20 27 29 31 36 45 
38(-1)->1 3 4 9 20 30 31 32 33 36 46 48 49 
39(-1)->1 3 7 10 17 19 22 33 35 37 40 43 50 
40(-1)->1 2 12 14 20 21 23 32 33 34 39 45 50 
48(-1)->1 2 5 10 13 14 18 28 33 35 36 38 41 
49(-1)->1 9 10 11 17 19 20 32 33 37 38 45 47 
50(-1)->6 8 18 19 20 26 27 37 39 40 43 45 47 
9(-1)->1 2 3 8 20 23 31 34 35 38 46 49 
19(-1)->1 2 4 15 18 32 34 39 41 47 49 50 
30(-1)->1 2 3 8 11 13 20 33 38 44 45 46 
31(-1)->1 7 8 9 15 17 20 21 24 33 37 38 
37(-1)->1 2 13 18 23 25 31 39 42 46 49 50 
42(-1)->1 2 11 15 16 20 21 25 26 27 37 47 
15(-1)->1 2 4 8 12 19 23 24 31 32 42 
17(-1)->1 2 6 7 12 14 27 31 39 47 49 
18(-1)->1 2 6 13 19 23 37 44 45 48 50 
21(-1)->1 6 8 23 25 27 31 34 36 40 42 
26(-1)->1 2 4 5 8 10 22 36 42 47 50 
29(-1)->1 7 8 10 16 24 27 33 41 46 47 
35(-1)->1 2 3 9 10 33 34 39 44 45 48 
41(-1)->1 5 6 8 10 19 29 32 33 46 48 
25(-1)->1 7 13 21 27 33 34 37 42 47 
44(-1)->1 2 7 12 18 23 30 35 36 47 
14(-1)->1 2 17 23 33 36 40 46 48 
22(-1)->1 13 20 26 27 34 36 39 43 
43(-1)->1 5 13 22 27 34 39 46 50 
28(-1)->1 2 3 6 7 12 32 48 
-------
BLAH
START TIME: 1433711910
Cq = 8 and is assigned to x43
BACKTRACKED TO DEPTH: 42
0 1 2 3 4 5 6 7 
Cq = 7 and is assigned to x31
BACKTRACKED TO DEPTH: 30
0 1 2 3 4 5 6 
10000
20000
Cq = 6 and is assigned to x20
BACKTRACKED TO DEPTH: 19
0 1 2 3 4 5 
30000
40000
50000
60000
70000
80000
1(0)->2 3 4 5 6 7 8 9 10 11 12 13 14 15 16 17 18 19 20 21 22 23 24 25 26 27 28 29 30 31 32 33 34 35 36 37 38 39 40 41 42 43 44 45 46 47 48 49 
2(1)->1 3 4 5 6 7 8 9 10 11 12 13 14 15 16 17 18 19 23 24 26 28 30 35 37 40 42 44 48 
3(2)->1 2 4 5 6 7 8 9 11 12 13 20 23 27 28 30 35 38 39 45 
4(4)->1 2 3 5 6 8 15 16 19 26 32 34 38 46 
5(5)->1 2 3 4 6 10 12 26 32 34 41 43 47 48 
6(3)->1 2 3 4 5 7 10 11 16 17 18 21 23 27 28 41 50 
7(4)->1 2 3 6 17 25 28 29 31 32 33 39 44 47 
8(3)->1 2 3 4 9 11 15 16 21 26 29 30 31 41 50 
9(4)->1 2 3 8 20 23 31 34 35 38 46 49 
10(2)->1 2 5 6 11 16 24 26 29 34 35 39 41 46 48 49 
11(4)->1 2 3 6 8 10 12 16 30 32 36 42 45 46 47 49 
12(3)->1 2 3 5 11 15 16 17 23 24 28 32 36 40 44 
13(3)->1 2 3 16 18 22 24 25 30 36 37 43 48 
14(3)->1 2 17 23 33 36 40 46 48 
15(6)->1 2 4 8 12 19 23 24 31 32 42 
16(5)->1 2 4 6 8 10 11 12 13 24 29 33 34 42 46 
17(6)->1 2 6 7 12 14 27 31 39 47 49 
18(4)->1 2 6 13 19 23 37 44 45 48 50 
19(3)->1 2 4 15 18 32 34 39 41 47 49 50 
20(1)->1 3 9 22 24 27 30 31 32 33 38 40 42 45 49 50 
21(2)->1 6 8 23 25 27 31 34 36 40 42 
22(2)->1 13 20 26 27 34 36 39 43 
23(5)->1 2 3 6 9 12 14 15 18 21 32 37 40 44 
24(4)->1 2 10 12 13 15 16 20 27 29 31 36 45 
25(1)->1 7 13 21 27 33 34 37 42 47 
26(6)->1 2 4 5 8 10 22 36 42 47 50 
27(5)->1 3 6 17 20 21 22 24 25 29 36 42 43 50 
28(5)->1 2 3 6 7 12 32 48 
29(6)->1 7 8 10 16 24 27 33 41 46 47 
30(5)->1 2 3 8 11 13 20 33 38 44 45 46 
31(5)->1 7 8 9 15 17 20 21 24 33 37 38 
32(2)->1 4 5 7 11 12 15 19 20 23 28 38 40 41 49 
33(2)->1 7 14 16 20 25 29 30 31 35 38 39 40 41 48 49 
34(6)->1 4 5 9 10 16 19 21 22 25 35 40 43 46 
35(5)->1 2 3 9 10 33 34 39 44 45 48 
36(1)->1 11 12 13 14 21 22 24 26 27 38 44 45 47 48 
37(2)->1 2 13 18 23 25 31 39 42 46 49 50 
38(3)->1 3 4 9 20 30 31 32 33 36 46 48 49 
39(1)->1 3 7 10 17 19 22 33 35 37 40 43 50 
40(4)->1 2 12 14 20 21 23 32 33 34 39 45 50 
41(4)->1 5 6 8 10 19 29 32 33 46 48 
42(3)->1 2 11 15 16 20 21 25 26 27 37 47 
43(4)->1 5 13 22 27 34 39 46 50 
44(6)->1 2 7 12 18 23 30 35 36 47 
45(3)->1 3 11 18 20 24 30 35 36 40 46 47 49 50 
46(1)->1 4 9 10 11 14 16 29 30 34 37 38 41 43 45 
47(2)->1 5 7 11 17 19 25 26 29 36 42 44 45 49 50 
48(6)->1 2 5 10 13 14 18 28 33 35 36 38 41 
49(5)->1 9 10 11 17 19 20 32 33 37 38 45 47 
50(0)->6 8 18 19 20 26 27 37 39 40 43 45 47 
COUNT: 84737
COLORS: 7
EDGES: 350
7
84737
