1: 2 3 4 5 6 7 8 9 10 11 12 13 14 15 16 17 18 19 20 21 22 23 24 25 26 27 28 29 30 31 32 33 34 35 36 37 38 39 40 41 42 43 44 45 46 47 48 49
2: 1 3 4 5 6 7 8 9 12 13 14 16 17 18 20 21 22 23 24 25 27 28 29 30 31 34 36 37 38 39 40 44 48
3: 1 34 36 5 39 40 42 11 2 14 15 49 18 8 7 25 26 4
4: 33 34 3 36 5 38 1 2 44 13 14 47 50 18 7 6 28
5: 1 34 3 4 6 7 10 43 2 14 18 20 23
6: 32 1 2 4 5 7 8 9 42 14 47 50 19 24 29
7: 1 2 3 4 5 6 8 42 12 13 46 47 48 49 19 14 23 27
8: 1 34 3 36 6 7 42 18 13 46 48 17 50 23 2 25 27 31
9: 1 2 37 6 39 40 42 11 12 13 22 24 26
10: 1 5 11 45 16 23 24 26 30
11: 1 3 37 9 10 44 46 48 26 42 30
12: 1 2 7 9 45 46 13 16 17 20 25 26 27
13: 1 2 35 4 37 7 8 41 12 14 15 48 49 18 21 22 9 29 30
14: 1 2 3 4 5 6 7 13 49 18 19 21 23 30
15: 1 34 3 37 38 42 43 13 46 47 23
16: 33 2 38 1 41 10 43 44 12 18 23 24 30
17: 1 2 8 41 12 19 20 23 26
18: 1 2 3 4 5 8 42 45 14 13 16 21 23 24 28
19: 32 1 6 7 14 48 17 20 22 27 29
20: 1 34 5 17 12 44 2 47 49 19 23 25 26 28 29
21: 1 2 38 13 14 48 18 27
22: 1 2 35 9 42 44 13 46 19 41
23: 1 2 5 16 7 8 10 46 15 48 17 18 20 14 27 28 29 37
24: 16 34 35 6 38 1 9 10 43 2 45 48 18 25 26
25: 1 2 3 8 42 12 34 20 24
26: 32 1 3 39 9 42 11 12 17 35 20 24 27 10 31
27: 1 2 35 39 8 12 7 44 47 49 19 21 23 26 30
28: 32 1 2 4 37 40 45 47 48 49 18 20 23
29: 1 2 36 38 6 39 13 45 19 20 23
30: 1 2 35 10 11 13 46 45 16 50 14 27
31: 8 1 26 2 39
32: 1 35 36 6 41 45 46 48 19 26 28
33: 48 4 37 38 39 40 16 49 50 1
34: 1 2 3 4 5 8 44 15 35 20 24 25 47
35: 32 1 34 40 44 13 48 50 22 24 26 27 30
36: 32 1 2 3 4 8 44 45 47 49 29
37: 33 2 1 41 11 13 15 48 49 9 23 28
38: 33 2 4 1 40 15 16 21 24 29
39: 33 2 3 1 9 45 26 27 29 31
40: 33 2 35 38 1 9 44 45 46 49 3 28
41: 32 1 37 49 42 43 44 13 46 45 16 17 50 22
42: 1 3 6 7 8 9 11 18 15 48 43 50 22 41 25 26
43: 48 5 1 41 42 15 16 50 24
44: 1 2 35 4 40 41 11 34 16 20 22 36 27
45: 32 1 36 39 40 41 10 12 49 18 24 28 29 30
46: 32 1 7 40 41 11 12 15 8 50 22 23 30
47: 1 34 4 6 7 15 49 50 20 36 27 28
48: 32 33 2 35 1 37 7 8 42 11 13 43 19 21 23 24 28
49: 33 3 36 37 7 40 47 45 14 13 20 1 41 27 28
50: 33 35 4 6 8 41 42 43 46 47 30
-------
1(-1)->2 3 4 5 6 7 8 9 10 11 12 13 14 15 16 17 18 19 20 21 22 23 24 25 26 27 28 29 30 31 32 33 34 35 36 37 38 39 40 41 42 43 44 45 46 47 48 49 
2(-1)->1 3 4 5 6 7 8 9 12 13 14 16 17 18 20 21 22 23 24 25 27 28 29 30 31 34 36 37 38 39 40 44 48 
3(-1)->1 2 4 5 7 8 11 14 15 18 25 26 34 36 39 40 42 49 
4(-1)->1 2 3 5 6 7 13 14 18 28 33 34 36 38 44 47 50 
5(-1)->1 2 3 4 6 7 10 14 18 20 23 34 43 
6(-1)->1 2 4 5 7 8 9 14 19 24 29 32 42 47 50 
7(-1)->1 2 3 4 5 6 8 12 13 14 19 23 27 42 46 47 48 49 
8(-1)->1 2 3 6 7 13 17 18 23 25 27 31 34 36 42 46 48 50 
9(-1)->1 2 6 11 12 13 22 24 26 37 39 40 42 
10(-1)->1 5 11 16 23 24 26 30 45 
11(-1)->1 3 9 10 26 30 37 42 44 46 48 
12(-1)->1 2 7 9 13 16 17 20 25 26 27 45 46 
13(-1)->1 2 4 7 8 9 12 14 15 18 21 22 29 30 35 37 41 48 49 
14(-1)->1 2 3 4 5 6 7 13 18 19 21 23 30 49 
15(-1)->1 3 13 23 34 37 38 42 43 46 47 
16(-1)->1 2 10 12 18 23 24 30 33 38 41 43 44 
17(-1)->1 2 8 12 19 20 23 26 41 
18(-1)->1 2 3 4 5 8 13 14 16 21 23 24 28 42 45 
19(-1)->1 6 7 14 17 20 22 27 29 32 48 
20(-1)->1 2 5 12 17 19 23 25 26 28 29 34 44 47 49 
21(-1)->1 2 13 14 18 27 38 48 
22(-1)->1 2 9 13 19 35 41 42 44 46 
23(-1)->1 2 5 7 8 10 14 15 16 17 18 20 27 28 29 37 46 48 
24(-1)->1 2 6 9 10 16 18 25 26 34 35 38 43 45 48 
25(-1)->1 2 3 8 12 20 24 34 42 
26(-1)->1 3 9 10 11 12 17 20 24 27 31 32 35 39 42 
27(-1)->1 2 7 8 12 19 21 23 26 30 35 39 44 47 49 
28(-1)->1 2 4 18 20 23 32 37 40 45 47 48 49 
29(-1)->1 2 6 13 19 20 23 36 38 39 45 
30(-1)->1 2 10 11 13 14 16 27 35 45 46 50 
31(-1)->1 2 8 26 39 
32(-1)->1 6 19 26 28 35 36 41 45 46 48 
33(-1)->1 4 16 37 38 39 40 48 49 50 
34(-1)->1 2 3 4 5 8 15 20 24 25 35 44 47 
35(-1)->1 13 22 24 26 27 30 32 34 40 44 48 50 
36(-1)->1 2 3 4 8 29 32 44 45 47 49 
37(-1)->1 2 9 11 13 15 23 28 33 41 48 49 
38(-1)->1 2 4 15 16 21 24 29 33 40 
39(-1)->1 2 3 9 26 27 29 31 33 45 
40(-1)->1 2 3 9 28 33 35 38 44 45 46 49 
41(-1)->1 13 16 17 22 32 37 42 43 44 45 46 49 50 
42(-1)->1 3 6 7 8 9 11 15 18 22 25 26 41 43 48 50 
43(-1)->1 5 15 16 24 41 42 48 50 
44(-1)->1 2 4 11 16 20 22 27 34 35 36 40 41 
45(-1)->1 10 12 18 24 28 29 30 32 36 39 40 41 49 
46(-1)->1 7 8 11 12 15 22 23 30 32 40 41 50 
47(-1)->1 4 6 7 15 20 27 28 34 36 49 50 
48(-1)->1 2 7 8 11 13 19 21 23 24 28 32 33 35 37 42 43 
49(-1)->1 3 7 13 14 20 27 28 33 36 37 40 41 45 47 
50(-1)->4 6 8 30 33 35 41 42 43 46 47 
-------
Node 1 maps to position 0
Node 2 maps to position 1
Node 13 maps to position 2
Node 3 maps to position 3
Node 7 maps to position 4
Node 8 maps to position 5
Node 23 maps to position 6
Node 4 maps to position 7
Node 48 maps to position 8
Node 42 maps to position 9
Node 6 maps to position 10
Node 18 maps to position 11
Node 20 maps to position 12
Node 24 maps to position 13
Node 26 maps to position 14
Node 27 maps to position 15
Node 49 maps to position 16
Node 14 maps to position 17
Node 41 maps to position 18
Node 45 maps to position 19
Node 5 maps to position 20
Node 9 maps to position 21
Node 12 maps to position 22
Node 16 maps to position 23
Node 28 maps to position 24
Node 34 maps to position 25
Node 35 maps to position 26
Node 44 maps to position 27
Node 46 maps to position 28
Node 30 maps to position 29
Node 37 maps to position 30
Node 40 maps to position 31
Node 47 maps to position 32
Node 11 maps to position 33
Node 15 maps to position 34
Node 19 maps to position 35
Node 29 maps to position 36
Node 32 maps to position 37
Node 36 maps to position 38
Node 50 maps to position 39
Node 22 maps to position 40
Node 33 maps to position 41
Node 38 maps to position 42
Node 39 maps to position 43
Node 10 maps to position 44
Node 17 maps to position 45
Node 25 maps to position 46
Node 43 maps to position 47
Node 21 maps to position 48
Node 31 maps to position 49
1(-1)->2 3 4 5 6 7 8 9 10 11 12 13 14 15 16 17 18 19 20 21 22 23 24 25 26 27 28 29 30 31 32 33 34 35 36 37 38 39 40 41 42 43 44 45 46 47 48 49 
2(-1)->1 3 4 5 6 7 8 9 12 13 14 16 17 18 20 21 22 23 24 25 27 28 29 30 31 34 36 37 38 39 40 44 48 
13(-1)->1 2 4 7 8 9 12 14 15 18 21 22 29 30 35 37 41 48 49 
3(-1)->1 2 4 5 7 8 11 14 15 18 25 26 34 36 39 40 42 49 
7(-1)->1 2 3 4 5 6 8 12 13 14 19 23 27 42 46 47 48 49 
8(-1)->1 2 3 6 7 13 17 18 23 25 27 31 34 36 42 46 48 50 
23(-1)->1 2 5 7 8 10 14 15 16 17 18 20 27 28 29 37 46 48 
4(-1)->1 2 3 5 6 7 13 14 18 28 33 34 36 38 44 47 50 
48(-1)->1 2 7 8 11 13 19 21 23 24 28 32 33 35 37 42 43 
42(-1)->1 3 6 7 8 9 11 15 18 22 25 26 41 43 48 50 
6(-1)->1 2 4 5 7 8 9 14 19 24 29 32 42 47 50 
18(-1)->1 2 3 4 5 8 13 14 16 21 23 24 28 42 45 
20(-1)->1 2 5 12 17 19 23 25 26 28 29 34 44 47 49 
24(-1)->1 2 6 9 10 16 18 25 26 34 35 38 43 45 48 
26(-1)->1 3 9 10 11 12 17 20 24 27 31 32 35 39 42 
27(-1)->1 2 7 8 12 19 21 23 26 30 35 39 44 47 49 
49(-1)->1 3 7 13 14 20 27 28 33 36 37 40 41 45 47 
14(-1)->1 2 3 4 5 6 7 13 18 19 21 23 30 49 
41(-1)->1 13 16 17 22 32 37 42 43 44 45 46 49 50 
45(-1)->1 10 12 18 24 28 29 30 32 36 39 40 41 49 
5(-1)->1 2 3 4 6 7 10 14 18 20 23 34 43 
9(-1)->1 2 6 11 12 13 22 24 26 37 39 40 42 
12(-1)->1 2 7 9 13 16 17 20 25 26 27 45 46 
16(-1)->1 2 10 12 18 23 24 30 33 38 41 43 44 
28(-1)->1 2 4 18 20 23 32 37 40 45 47 48 49 
34(-1)->1 2 3 4 5 8 15 20 24 25 35 44 47 
35(-1)->1 13 22 24 26 27 30 32 34 40 44 48 50 
44(-1)->1 2 4 11 16 20 22 27 34 35 36 40 41 
46(-1)->1 7 8 11 12 15 22 23 30 32 40 41 50 
30(-1)->1 2 10 11 13 14 16 27 35 45 46 50 
37(-1)->1 2 9 11 13 15 23 28 33 41 48 49 
40(-1)->1 2 3 9 28 33 35 38 44 45 46 49 
47(-1)->1 4 6 7 15 20 27 28 34 36 49 50 
11(-1)->1 3 9 10 26 30 37 42 44 46 48 
15(-1)->1 3 13 23 34 37 38 42 43 46 47 
19(-1)->1 6 7 14 17 20 22 27 29 32 48 
29(-1)->1 2 6 13 19 20 23 36 38 39 45 
32(-1)->1 6 19 26 28 35 36 41 45 46 48 
36(-1)->1 2 3 4 8 29 32 44 45 47 49 
50(-1)->4 6 8 30 33 35 41 42 43 46 47 
22(-1)->1 2 9 13 19 35 41 42 44 46 
33(-1)->1 4 16 37 38 39 40 48 49 50 
38(-1)->1 2 4 15 16 21 24 29 33 40 
39(-1)->1 2 3 9 26 27 29 31 33 45 
10(-1)->1 5 11 16 23 24 26 30 45 
17(-1)->1 2 8 12 19 20 23 26 41 
25(-1)->1 2 3 8 12 20 24 34 42 
43(-1)->1 5 15 16 24 41 42 48 50 
21(-1)->1 2 13 14 18 27 38 48 
31(-1)->1 2 8 26 39 
-------
BLAH
START TIME: 1433711917
Cq = 7 and is assigned to x32
BACKTRACKED TO DEPTH: 31
0 1 2 3 4 5 6 
Cq = 6 and is assigned to x15
BACKTRACKED TO DEPTH: 14
0 1 2 3 4 5 
1(0)->2 3 4 5 6 7 8 9 10 11 12 13 14 15 16 17 18 19 20 21 22 23 24 25 26 27 28 29 30 31 32 33 34 35 36 37 38 39 40 41 42 43 44 45 46 47 48 49 
2(1)->1 3 4 5 6 7 8 9 12 13 14 16 17 18 20 21 22 23 24 25 27 28 29 30 31 34 36 37 38 39 40 44 48 
3(2)->1 2 4 5 7 8 11 14 15 18 25 26 34 36 39 40 42 49 
4(4)->1 2 3 5 6 7 13 14 18 28 33 34 36 38 44 47 50 
5(5)->1 2 3 4 6 7 10 14 18 20 23 34 43 
6(2)->1 2 4 5 7 8 9 14 19 24 29 32 42 47 50 
7(3)->1 2 3 4 5 6 8 12 13 14 19 23 27 42 46 47 48 49 
8(4)->1 2 3 6 7 13 17 18 23 25 27 31 34 36 42 46 48 50 
9(3)->1 2 6 11 12 13 22 24 26 37 39 40 42 
10(1)->1 5 11 16 23 24 26 30 45 
11(6)->1 3 9 10 26 30 37 42 44 46 48 
12(4)->1 2 7 9 13 16 17 20 25 26 27 45 46 
13(2)->1 2 4 7 8 9 12 14 15 18 21 22 29 30 35 37 41 48 49 
14(6)->1 2 3 4 5 6 7 13 18 19 21 23 30 49 
15(3)->1 3 13 23 34 37 38 42 43 46 47 
16(5)->1 2 10 12 18 23 24 30 33 38 41 43 44 
17(6)->1 2 8 12 19 20 23 26 41 
18(3)->1 2 3 4 5 8 13 14 16 21 23 24 28 42 45 
19(1)->1 6 7 14 17 20 22 27 29 32 48 
20(3)->1 2 5 12 17 19 23 25 26 28 29 34 44 47 49 
21(4)->1 2 13 14 18 27 38 48 
22(4)->1 2 9 13 19 35 41 42 44 46 
23(2)->1 2 5 7 8 10 14 15 16 17 18 20 27 28 29 37 46 48 
24(4)->1 2 6 9 10 16 18 25 26 34 35 38 43 45 48 
25(5)->1 2 3 8 12 20 24 34 42 
26(5)->1 3 9 10 11 12 17 20 24 27 31 32 35 39 42 
27(6)->1 2 7 8 12 19 21 23 26 30 35 39 44 47 49 
28(6)->1 2 4 18 20 23 32 37 40 45 47 48 49 
29(5)->1 2 6 13 19 20 23 36 38 39 45 
30(3)->1 2 10 11 13 14 16 27 35 45 46 50 
31(2)->1 2 8 26 39 
32(4)->1 6 19 26 28 35 36 41 45 46 48 
33(2)->1 4 16 37 38 39 40 48 49 50 
34(6)->1 2 3 4 5 8 15 20 24 25 35 44 47 
35(1)->1 13 22 24 26 27 30 32 34 40 44 48 50 
36(3)->1 2 3 4 8 29 32 44 45 47 49 
37(4)->1 2 9 11 13 15 23 28 33 41 48 49 
38(6)->1 2 4 15 16 21 24 29 33 40 
39(4)->1 2 3 9 26 27 29 31 33 45 
40(4)->1 2 3 9 28 33 35 38 44 45 46 49 
41(3)->1 13 16 17 22 32 37 42 43 44 45 46 49 50 
42(1)->1 3 6 7 8 9 11 15 18 22 25 26 41 43 48 50 
43(2)->1 5 15 16 24 41 42 48 50 
44(2)->1 2 4 11 16 20 22 27 34 35 36 40 41 
45(2)->1 10 12 18 24 28 29 30 32 36 39 40 41 49 
46(1)->1 7 8 11 12 15 22 23 30 32 40 41 50 
47(5)->1 4 6 7 15 20 27 28 34 36 49 50 
48(5)->1 2 7 8 11 13 19 21 23 24 28 32 33 35 37 42 43 
49(1)->1 3 7 13 14 20 27 28 33 36 37 40 41 45 47 
50(0)->4 6 8 30 33 35 41 42 43 46 47 
COUNT: 1476
COLORS: 7
EDGES: 350
7
1476
