1: 2 3 4 5 6 7 8 9 10 11 12 13 14 15 16 17 18 19 20 21 22 23 24 25 26 27 28 29 30 31 32 33 34 35 36 37 38 39 40 41 42 43 44 45 46 47 48 49 50
2: 1 3 4 5 6 7 8 9 10 11 12 13 14 15 16 17 18 19 20 21 22 23 24 25 26 27 28 29 30 31 32 35 39 40 41 44 48 49 50
3: 1 2 36 5 6 7 8 10 12 13 14 47 16 17 18 20 21 22 4 15 31
4: 1 2 3 5 6 8 10 12 14 16 17 23 25 31 32 34 35 37 39 43 46 50
5: 3 1 2 35 4 40 12 13 49 18 19 20 23 26 31
6: 1 2 3 36 37 42 43 29 45 47 49 18 19 20 21 23 4 27 10 30 31
7: 32 33 2 3 36 49 39 41 10 13 14 48 17 1 21 23 24 30 31
8: 32 1 2 3 4 41 10 43 13 46 15 50 14 25 24 36 42
9: 1 2 36 37 38 39 12 45 49 20 21 22 24
10: 1 2 3 36 38 6 7 8 42 43 12 45 48 21 4 28 29 30
11: 1 2 35 36 38 39 42 13 16 50 25 27 29 30
12: 3 33 2 35 4 5 1 9 10 44 46 15 16 49 19 21 23 24 27 30 37
13: 32 1 2 35 5 38 7 8 11 50 3
14: 1 2 3 4 7 8 42 44 45 46 15 16 50 20 21 22 23 27 28 30
15: 32 1 2 3 37 40 43 12 45 14 47 16 8 21 23 30 31
16: 32 1 2 35 4 37 33 43 12 45 14 15 11 49 3 21 25 29
17: 3 1 34 35 4 7 43 45 47 18 19 20 23 2 25 26
18: 3 1 34 35 37 38 39 44 2 46 6 17 50 19 49 33 27 5
19: 33 34 5 6 1 40 41 42 2 12 45 48 17 18 20 21 22 25 26 27 31
20: 3 33 2 35 1 5 6 39 9 14 47 17 19 22 28 29
21: 1 2 3 37 6 7 9 10 12 14 47 16 50 19 46 23 26 15 31
22: 32 33 2 35 36 37 3 1 9 43 44 14 19 20 46
23: 32 33 2 4 5 6 7 12 1 44 14 15 17 21 24 25 38 30
24: 1 34 36 37 7 8 9 43 44 2 12 23
25: 32 33 2 4 38 16 1 8 42 11 48 17 50 19 23 36 27 28 29 30 31
26: 1 2 35 36 5 38 41 43 45 46 17 19 21 27 29 31
27: 19 1 2 11 6 42 43 12 14 49 18 35 25 26 29
28: 32 33 34 36 37 1 42 2 14 47 49 20 25 10
29: 33 34 35 1 37 6 48 10 11 45 47 16 20 2 25 26 27
30: 33 2 1 37 6 7 40 41 10 11 12 45 46 15 50 14 23 25 44
31: 1 2 3 4 5 6 7 40 42 45 34 15 48 19 21 25 33 26
32: 16 2 43 4 49 8 41 7 44 13 15 48 40 1 22 23 25 28
33: 16 1 38 7 40 41 42 44 12 48 18 19 20 22 23 25 28 29 30 31
34: 1 4 37 17 41 43 48 49 18 19 24 28 29 31
35: 1 2 11 4 5 43 12 18 46 13 16 17 50 20 22 26 27 29
36: 1 3 37 6 7 8 9 10 11 48 50 22 24 25 26 28
37: 1 34 4 6 39 40 9 12 50 46 47 16 18 21 22 24 36 15 28 29 30
38: 33 1 40 9 10 11 13 46 45 49 18 23 25 26
39: 1 2 4 37 7 9 42 11 44 48 18 20
40: 32 33 2 5 38 1 44 45 47 49 50 19 15 37 30 31
41: 32 1 34 33 8 42 7 2 19 26 30
42: 33 1 6 39 8 41 10 11 45 14 47 19 25 27 28 31
43: 32 48 34 35 4 6 1 8 10 46 15 16 17 22 24 26 27
44: 32 33 2 1 39 40 12 14 49 18 22 23 24 30
45: 42 1 6 38 49 40 9 10 14 47 16 17 50 19 26 15 29 30 31
46: 1 35 4 37 38 8 43 12 14 47 49 18 21 22 26 30
47: 1 3 37 6 17 40 42 45 46 15 49 50 20 21 28 29
48: 32 33 34 36 1 10 43 2 49 19 7 25 29 39 31
49: 32 1 34 48 5 38 7 40 9 2 12 45 46 44 16 18 47 6 27 28
50: 1 2 35 4 37 40 11 13 14 47 8 18 21 45 25 30 36
-------
1(-1)->2 3 4 5 6 7 8 9 10 11 12 13 14 15 16 17 18 19 20 21 22 23 24 25 26 27 28 29 30 31 32 33 34 35 36 37 38 39 40 41 42 43 44 45 46 47 48 49 50 
2(-1)->1 3 4 5 6 7 8 9 10 11 12 13 14 15 16 17 18 19 20 21 22 23 24 25 26 27 28 29 30 31 32 35 39 40 41 44 48 49 50 
3(-1)->1 2 4 5 6 7 8 10 12 13 14 15 16 17 18 20 21 22 31 36 47 
4(-1)->1 2 3 5 6 8 10 12 14 16 17 23 25 31 32 34 35 37 39 43 46 50 
5(-1)->1 2 3 4 12 13 18 19 20 23 26 31 35 40 49 
6(-1)->1 2 3 4 10 18 19 20 21 23 27 29 30 31 36 37 42 43 45 47 49 
7(-1)->1 2 3 10 13 14 17 21 23 24 30 31 32 33 36 39 41 48 49 
8(-1)->1 2 3 4 10 13 14 15 24 25 32 36 41 42 43 46 50 
9(-1)->1 2 12 20 21 22 24 36 37 38 39 45 49 
10(-1)->1 2 3 4 6 7 8 12 21 28 29 30 36 38 42 43 45 48 
11(-1)->1 2 13 16 25 27 29 30 35 36 38 39 42 50 
12(-1)->1 2 3 4 5 9 10 15 16 19 21 23 24 27 30 33 35 37 44 46 49 
13(-1)->1 2 3 5 7 8 11 32 35 38 50 
14(-1)->1 2 3 4 7 8 15 16 20 21 22 23 27 28 30 42 44 45 46 50 
15(-1)->1 2 3 8 12 14 16 21 23 30 31 32 37 40 43 45 47 
16(-1)->1 2 3 4 11 12 14 15 21 25 29 32 33 35 37 43 45 49 
17(-1)->1 2 3 4 7 18 19 20 23 25 26 34 35 43 45 47 
18(-1)->1 2 3 5 6 17 19 27 33 34 35 37 38 39 44 46 49 50 
19(-1)->1 2 5 6 12 17 18 20 21 22 25 26 27 31 33 34 40 41 42 45 48 
20(-1)->1 2 3 5 6 9 14 17 19 22 28 29 33 35 39 47 
21(-1)->1 2 3 6 7 9 10 12 14 15 16 19 23 26 31 37 46 47 50 
22(-1)->1 2 3 9 14 19 20 32 33 35 36 37 43 44 46 
23(-1)->1 2 4 5 6 7 12 14 15 17 21 24 25 30 32 33 38 44 
24(-1)->1 2 7 8 9 12 23 34 36 37 43 44 
25(-1)->1 2 4 8 11 16 17 19 23 27 28 29 30 31 32 33 36 38 42 48 50 
26(-1)->1 2 5 17 19 21 27 29 31 35 36 38 41 43 45 46 
27(-1)->1 2 6 11 12 14 18 19 25 26 29 35 42 43 49 
28(-1)->1 2 10 14 20 25 32 33 34 36 37 42 47 49 
29(-1)->1 2 6 10 11 16 20 25 26 27 33 34 35 37 45 47 48 
30(-1)->1 2 6 7 10 11 12 14 15 23 25 33 37 40 41 44 45 46 50 
31(-1)->1 2 3 4 5 6 7 15 19 21 25 26 33 34 40 42 45 48 
32(-1)->1 2 4 7 8 13 15 16 22 23 25 28 40 41 43 44 48 49 
33(-1)->1 7 12 16 18 19 20 22 23 25 28 29 30 31 38 40 41 42 44 48 
34(-1)->1 4 17 18 19 24 28 29 31 37 41 43 48 49 
35(-1)->1 2 4 5 11 12 13 16 17 18 20 22 26 27 29 43 46 50 
36(-1)->1 3 6 7 8 9 10 11 22 24 25 26 28 37 48 50 
37(-1)->1 4 6 9 12 15 16 18 21 22 24 28 29 30 34 36 39 40 46 47 50 
38(-1)->1 9 10 11 13 18 23 25 26 33 40 45 46 49 
39(-1)->1 2 4 7 9 11 18 20 37 42 44 48 
40(-1)->1 2 5 15 19 30 31 32 33 37 38 44 45 47 49 50 
41(-1)->1 2 7 8 19 26 30 32 33 34 42 
42(-1)->1 6 8 10 11 14 19 25 27 28 31 33 39 41 45 47 
43(-1)->1 4 6 8 10 15 16 17 22 24 26 27 32 34 35 46 48 
44(-1)->1 2 12 14 18 22 23 24 30 32 33 39 40 49 
45(-1)->1 6 9 10 14 15 16 17 19 26 29 30 31 38 40 42 47 49 50 
46(-1)->1 4 8 12 14 18 21 22 26 30 35 37 38 43 47 49 
47(-1)->1 3 6 15 17 20 21 28 29 37 40 42 45 46 49 50 
48(-1)->1 2 7 10 19 25 29 31 32 33 34 36 39 43 49 
49(-1)->1 2 5 6 7 9 12 16 18 27 28 32 34 38 40 44 45 46 47 48 
50(-1)->1 2 4 8 11 13 14 18 21 25 30 35 36 37 40 45 47 
-------
Node 1 maps to position 0
Node 2 maps to position 1
Node 4 maps to position 2
Node 3 maps to position 3
Node 6 maps to position 4
Node 12 maps to position 5
Node 19 maps to position 6
Node 25 maps to position 7
Node 37 maps to position 8
Node 14 maps to position 9
Node 33 maps to position 10
Node 49 maps to position 11
Node 7 maps to position 12
Node 21 maps to position 13
Node 30 maps to position 14
Node 45 maps to position 15
Node 10 maps to position 16
Node 16 maps to position 17
Node 18 maps to position 18
Node 23 maps to position 19
Node 31 maps to position 20
Node 32 maps to position 21
Node 35 maps to position 22
Node 8 maps to position 23
Node 15 maps to position 24
Node 29 maps to position 25
Node 43 maps to position 26
Node 50 maps to position 27
Node 17 maps to position 28
Node 20 maps to position 29
Node 26 maps to position 30
Node 36 maps to position 31
Node 40 maps to position 32
Node 42 maps to position 33
Node 46 maps to position 34
Node 47 maps to position 35
Node 5 maps to position 36
Node 22 maps to position 37
Node 27 maps to position 38
Node 48 maps to position 39
Node 11 maps to position 40
Node 28 maps to position 41
Node 34 maps to position 42
Node 38 maps to position 43
Node 44 maps to position 44
Node 9 maps to position 45
Node 24 maps to position 46
Node 39 maps to position 47
Node 13 maps to position 48
Node 41 maps to position 49
1(-1)->2 3 4 5 6 7 8 9 10 11 12 13 14 15 16 17 18 19 20 21 22 23 24 25 26 27 28 29 30 31 32 33 34 35 36 37 38 39 40 41 42 43 44 45 46 47 48 49 50 
2(-1)->1 3 4 5 6 7 8 9 10 11 12 13 14 15 16 17 18 19 20 21 22 23 24 25 26 27 28 29 30 31 32 35 39 40 41 44 48 49 50 
4(-1)->1 2 3 5 6 8 10 12 14 16 17 23 25 31 32 34 35 37 39 43 46 50 
3(-1)->1 2 4 5 6 7 8 10 12 13 14 15 16 17 18 20 21 22 31 36 47 
6(-1)->1 2 3 4 10 18 19 20 21 23 27 29 30 31 36 37 42 43 45 47 49 
12(-1)->1 2 3 4 5 9 10 15 16 19 21 23 24 27 30 33 35 37 44 46 49 
19(-1)->1 2 5 6 12 17 18 20 21 22 25 26 27 31 33 34 40 41 42 45 48 
25(-1)->1 2 4 8 11 16 17 19 23 27 28 29 30 31 32 33 36 38 42 48 50 
37(-1)->1 4 6 9 12 15 16 18 21 22 24 28 29 30 34 36 39 40 46 47 50 
14(-1)->1 2 3 4 7 8 15 16 20 21 22 23 27 28 30 42 44 45 46 50 
33(-1)->1 7 12 16 18 19 20 22 23 25 28 29 30 31 38 40 41 42 44 48 
49(-1)->1 2 5 6 7 9 12 16 18 27 28 32 34 38 40 44 45 46 47 48 
7(-1)->1 2 3 10 13 14 17 21 23 24 30 31 32 33 36 39 41 48 49 
21(-1)->1 2 3 6 7 9 10 12 14 15 16 19 23 26 31 37 46 47 50 
30(-1)->1 2 6 7 10 11 12 14 15 23 25 33 37 40 41 44 45 46 50 
45(-1)->1 6 9 10 14 15 16 17 19 26 29 30 31 38 40 42 47 49 50 
10(-1)->1 2 3 4 6 7 8 12 21 28 29 30 36 38 42 43 45 48 
16(-1)->1 2 3 4 11 12 14 15 21 25 29 32 33 35 37 43 45 49 
18(-1)->1 2 3 5 6 17 19 27 33 34 35 37 38 39 44 46 49 50 
23(-1)->1 2 4 5 6 7 12 14 15 17 21 24 25 30 32 33 38 44 
31(-1)->1 2 3 4 5 6 7 15 19 21 25 26 33 34 40 42 45 48 
32(-1)->1 2 4 7 8 13 15 16 22 23 25 28 40 41 43 44 48 49 
35(-1)->1 2 4 5 11 12 13 16 17 18 20 22 26 27 29 43 46 50 
8(-1)->1 2 3 4 10 13 14 15 24 25 32 36 41 42 43 46 50 
15(-1)->1 2 3 8 12 14 16 21 23 30 31 32 37 40 43 45 47 
29(-1)->1 2 6 10 11 16 20 25 26 27 33 34 35 37 45 47 48 
43(-1)->1 4 6 8 10 15 16 17 22 24 26 27 32 34 35 46 48 
50(-1)->1 2 4 8 11 13 14 18 21 25 30 35 36 37 40 45 47 
17(-1)->1 2 3 4 7 18 19 20 23 25 26 34 35 43 45 47 
20(-1)->1 2 3 5 6 9 14 17 19 22 28 29 33 35 39 47 
26(-1)->1 2 5 17 19 21 27 29 31 35 36 38 41 43 45 46 
36(-1)->1 3 6 7 8 9 10 11 22 24 25 26 28 37 48 50 
40(-1)->1 2 5 15 19 30 31 32 33 37 38 44 45 47 49 50 
42(-1)->1 6 8 10 11 14 19 25 27 28 31 33 39 41 45 47 
46(-1)->1 4 8 12 14 18 21 22 26 30 35 37 38 43 47 49 
47(-1)->1 3 6 15 17 20 21 28 29 37 40 42 45 46 49 50 
5(-1)->1 2 3 4 12 13 18 19 20 23 26 31 35 40 49 
22(-1)->1 2 3 9 14 19 20 32 33 35 36 37 43 44 46 
27(-1)->1 2 6 11 12 14 18 19 25 26 29 35 42 43 49 
48(-1)->1 2 7 10 19 25 29 31 32 33 34 36 39 43 49 
11(-1)->1 2 13 16 25 27 29 30 35 36 38 39 42 50 
28(-1)->1 2 10 14 20 25 32 33 34 36 37 42 47 49 
34(-1)->1 4 17 18 19 24 28 29 31 37 41 43 48 49 
38(-1)->1 9 10 11 13 18 23 25 26 33 40 45 46 49 
44(-1)->1 2 12 14 18 22 23 24 30 32 33 39 40 49 
9(-1)->1 2 12 20 21 22 24 36 37 38 39 45 49 
24(-1)->1 2 7 8 9 12 23 34 36 37 43 44 
39(-1)->1 2 4 7 9 11 18 20 37 42 44 48 
13(-1)->1 2 3 5 7 8 11 32 35 38 50 
41(-1)->1 2 7 8 19 26 30 32 33 34 42 
-------
BLAH
START TIME: 1433712274
Cq = 9 and is assigned to x35
BACKTRACKED TO DEPTH: 34
0 1 2 3 4 5 6 7 8 
Cq = 8 and is assigned to x24
BACKTRACKED TO DEPTH: 23
0 1 2 3 4 5 6 7 
Cq = 7 and is assigned to x16
BACKTRACKED TO DEPTH: 15
0 1 2 3 4 5 6 
10000
20000
30000
40000
50000
1(0)->2 3 4 5 6 7 8 9 10 11 12 13 14 15 16 17 18 19 20 21 22 23 24 25 26 27 28 29 30 31 32 33 34 35 36 37 38 39 40 41 42 43 44 45 46 47 48 49 50 
2(1)->1 3 4 5 6 7 8 9 10 11 12 13 14 15 16 17 18 19 20 21 22 23 24 25 26 27 28 29 30 31 32 35 39 40 41 44 48 49 50 
3(3)->1 2 4 5 6 7 8 10 12 13 14 15 16 17 18 20 21 22 31 36 47 
4(2)->1 2 3 5 6 8 10 12 14 16 17 23 25 31 32 34 35 37 39 43 46 50 
5(6)->1 2 3 4 12 13 18 19 20 23 26 31 35 40 49 
6(4)->1 2 3 4 10 18 19 20 21 23 27 29 30 31 36 37 42 43 45 47 49 
7(5)->1 2 3 10 13 14 17 21 23 24 30 31 32 33 36 39 41 48 49 
8(6)->1 2 3 4 10 13 14 15 24 25 32 36 41 42 43 46 50 
9(7)->1 2 12 20 21 22 24 36 37 38 39 45 49 
10(7)->1 2 3 4 6 7 8 12 21 28 29 30 36 38 42 43 45 48 
11(4)->1 2 13 16 25 27 29 30 35 36 38 39 42 50 
12(4)->1 2 3 4 5 9 10 15 16 19 21 23 24 27 30 33 35 37 44 46 49 
13(2)->1 2 3 5 7 8 11 32 35 38 50 
14(4)->1 2 3 4 7 8 15 16 20 21 22 23 27 28 30 42 44 45 46 50 
15(5)->1 2 3 8 12 14 16 21 23 30 31 32 37 40 43 45 47 
16(7)->1 2 3 4 11 12 14 15 21 25 29 32 33 35 37 43 45 49 
17(6)->1 2 3 4 7 18 19 20 23 25 26 34 35 43 45 47 
18(7)->1 2 3 5 6 17 19 27 33 34 35 37 38 39 44 46 49 50 
19(2)->1 2 5 6 12 17 18 20 21 22 25 26 27 31 33 34 40 41 42 45 48 
20(5)->1 2 3 5 6 9 14 17 19 22 28 29 33 35 39 47 
21(6)->1 2 3 6 7 9 10 12 14 15 16 19 23 26 31 37 46 47 50 
22(6)->1 2 3 9 14 19 20 32 33 35 36 37 43 44 46 
23(7)->1 2 4 5 6 7 12 14 15 17 21 24 25 30 32 33 38 44 
24(3)->1 2 7 8 9 12 23 34 36 37 43 44 
25(3)->1 2 4 8 11 16 17 19 23 27 28 29 30 31 32 33 36 38 42 48 50 
26(4)->1 2 5 17 19 21 27 29 31 35 36 38 41 43 45 46 
27(6)->1 2 6 11 12 14 18 19 25 26 29 35 42 43 49 
28(6)->1 2 10 14 20 25 32 33 34 36 37 42 47 49 
29(2)->1 2 6 10 11 16 20 25 26 27 33 34 35 37 45 47 48 
30(2)->1 2 6 7 10 11 12 14 15 23 25 33 37 40 41 44 45 46 50 
31(7)->1 2 3 4 5 6 7 15 19 21 25 26 33 34 40 42 45 48 
32(4)->1 2 4 7 8 13 15 16 22 23 25 28 40 41 43 44 48 49 
33(1)->1 7 12 16 18 19 20 22 23 25 28 29 30 31 38 40 41 42 44 48 
34(4)->1 4 17 18 19 24 28 29 31 37 41 43 48 49 
35(3)->1 2 4 5 11 12 13 16 17 18 20 22 26 27 29 43 46 50 
36(2)->1 3 6 7 8 9 10 11 22 24 25 26 28 37 48 50 
37(1)->1 4 6 9 12 15 16 18 21 22 24 28 29 30 34 36 39 40 46 47 50 
38(6)->1 9 10 11 13 18 23 25 26 33 40 45 46 49 
39(3)->1 2 4 7 9 11 18 20 37 42 44 48 
40(3)->1 2 5 15 19 30 31 32 33 37 38 44 45 47 49 50 
41(3)->1 2 7 8 19 26 30 32 33 34 42 
42(5)->1 6 8 10 11 14 19 25 27 28 31 33 39 41 45 47 
43(1)->1 4 6 8 10 15 16 17 22 24 26 27 32 34 35 46 48 
44(5)->1 2 12 14 18 22 23 24 30 32 33 39 40 49 
45(1)->1 6 9 10 14 15 16 17 19 26 29 30 31 38 40 42 47 49 50 
46(5)->1 4 8 12 14 18 21 22 26 30 35 37 38 43 47 49 
47(7)->1 3 6 15 17 20 21 28 29 37 40 42 45 46 49 50 
48(6)->1 2 7 10 19 25 29 31 32 33 34 36 39 43 49 
49(2)->1 2 5 6 7 9 12 16 18 27 28 32 34 38 40 44 45 46 47 48 
50(5)->1 2 4 8 11 13 14 18 21 25 30 35 36 37 40 45 47 
COUNT: 56420
COLORS: 8
EDGES: 450
8
56420
